{
    "id": 20033,
    "name": "aposcripta-20",
    "type": "acte",
    "url": "http:\/\/telma-chartes.irht.cnrs.fr\/aposcripta\/notice\/20033",
    "project_slug": "aposcripta",
    "project_label": "APOSCRIPTA \u2013 Lettres des papes",
    "user": "lettrespontificalesadmin",
    "last_update": "2020-10-19 16:26:43",
    "licence": "Attribution - Pas d\u2019Utilisation Commerciale - Partage dans les M\u00eames Conditions 3.0 France (CC BY-NC-SA 3.0 FR) ",
    "licence_url": "https:\/\/creativecommons.org\/licenses\/by-nc-sa\/3.0\/fr\/",
    "elements": [
        {
            "type": "date_lieu",
            "value": "Pessac"
        },
        {
            "type": "date_libre",
            "value": "XIII kalendas martii, anno secundo"
        },
        {
            "type": "analyse",
            "value": "Cl\u00e9ment [V] \u00e9crit au roi de France Philippe [IV] au sujet de leur future rencontre \u00e0 Poitiers."
        },
        {
            "type": "transcription",
            "value": "<?xml version=\"1.0\" encoding=\"UTF-8\"?>\nClemens, episcopus, servus servorum Dei, carissimo in Christo filio Philippo, regi Francorum illustri, salutem et apostolicam benedictionem. Grate venerunt in affectus nostros bine celsitudinis tue littere, quas heri die jovis XVI mensis februarii presentis per presentium portitorem accepimus, et que continebantur in eis inspeximus diligenter. Profecto, fili karissime, largitori bonorum omnium, qui dat esse rebus, et serenum post nubilum impertitur, quique miraculose facit tempestates mundi hujus pro sua voluntate ad tranquillitatem deduci, devotas laudes exsolvimus quod eo inspirante tibi benignius et prebente tuis oculis saluberrimam claritatem in negocio pro quo dilectos filios nostros Berengarium, tituli sanctorum Nerei et Achillei, et Stephanum, tituli sancti Ciriaci in T[h]ermis presbyteros cardinales, ad tuam duximus presentiam destinandos, tutiorem et salubriorem viam juxta nostra monita elegisti, prudenter per semitas pacis et salutis incedens, per quas regnandi status augetur, et sine quibus nichil potest perfecte prosperitatis haberi. Serenitatem itaque tuam inde multipliciter in Domino commendamus ; et sperantes quod hujusmodi negocium, ex quo sic bonum sumpsit exordium, annuente Domino votivum et felicem sortiatur effectum, rogamus et hortamur attente ut semper in laudabili proposito perseveres, sic quod tibi et regno tuo et toti christianitati quietis et pacis et justitie in regno tuo liberius exercende multiplicia proveniant incrementa, et miserrimo statui terre sancte succurrere valeas, prout te credimus ingenti desiderio affectare, et in hoc et in aliis intendas efficaciter ad eternam gloriam promerendam. Super eo autem quod duorum locorum duorumque temporum pro mutua vista facienda, quod nobis placeret, alterum intimare curasti, sic tibi presentibus respondemus, quod statu nostro et debilitate nostri corporis, que adhuc ex preteritis infirmitatibus nos contingit, ac civitatis Turonensis aeris intemperie, que ibidem dicitur invigere, prout non solum a quibusdam fratribus nostris, sed etiam ab aliquibus illarum partium indigenis, necnon et a nostris medicis percepimus, suscipiendarum quoque necessario medicinarum a nobis de nostrorum consilio medicorum tempore oportuno, attente pensatis, de consilio etiam fratrum nostrorum, civitatem Pictavensem et principium futuri proximo mensis aprilis ad hujusmodi fiendam vistam elegimus, secundum quod tibi alias etiam ante predictarum litterarum tuarum receptionem nostris meminimus litteris intimasse. Sic igitur te prepares et accingas sicque deliberationem hujusmodi prosequaris quod eodem statuto tempore divina faciente clementia ingrediaris civitatem Pictavensem predictam, cum nos ibi in predicto tempore esse auctore Domino proponamus, et tecum presentialibus affatibus recreari ad laudem Altissimi, felicem pertractia consummationem negocii, ac honorem et statum prosperum tui culminis et honoris. Datum apud Pessacum, XIII kalendas martii, pontificatus nostri anno secundo.\n"
        },
        {
            "type": "edition",
            "value": "Ici reprise d'\u00c9tienne Baluze, Guillaume Mollat, <i>Vitae paparum Avenionensium. Nouvelle \u00e9dition revue d'apr\u00e8s les manuscrits et compl\u00e9t\u00e9e de notes critiques<\/i>, Paris : Letouzey et An\u00e9, 1914-1922, III, p. 74-75, d'apr\u00e8s E."
        },
        {
            "type": "sources_manuscrites",
            "value": "E. FRANCE, Paris, Archives nationales de France, J 703\/156.",
            "children": {
                "type_source": "Exp\u00e9dition"
            }
        },
        {
            "type": "sources_manuscrites",
            "value": "F. FRANCE, Biblioth\u00e8que nationale de France, ms. lat. 10919, fol. 78v <a target=\"_blank\" href=\" http:\/\/gallica.bnf.fr\/ark:\/12148\/btv1b9065926v\/f82.item.zoom\"> [en ligne]<\/a>.",
            "children": {
                "type_source": "Autre copie m\u00e9di\u00e9vale"
            }
        },
        {
            "type": "apparat_critique",
            "value": "pertactati, <i>Bal.<\/i>",
            "children": {
                "numero_note": "a"
            }
        },
        {
            "type": "pape",
            "value": "Cl\u00e9ment V (1305-1314)"
        },
        {
            "type": "date",
            "value": "1307\/02\/17",
            "children": {
                "date_deb_annee": "1307",
                "date_deb_mois": "02",
                "date_deb_jour": "17"
            },
            "range": {
                "date_apres": 13070217,
                "date_avant": 13070217
            }
        },
        {
            "type": "genre",
            "value": "Lettre, g\u00e9n\u00e9ral (apr\u00e8s 1198, littere cum filo canapis)"
        }
    ]
}