{
    "id": 25483,
    "name": "aposcripta-2580",
    "type": "acte",
    "url": "http:\/\/telma-chartes.irht.cnrs.fr\/aposcripta\/notice\/25483",
    "project_slug": "aposcripta",
    "project_label": "APOSCRIPTA \u2013 Lettres des papes",
    "user": "lettrespontificalesadmin",
    "last_update": "2020-10-19 16:27:45",
    "licence": "Attribution - Pas d\u2019Utilisation Commerciale - Partage dans les M\u00eames Conditions 3.0 France (CC BY-NC-SA 3.0 FR) ",
    "licence_url": "https:\/\/creativecommons.org\/licenses\/by-nc-sa\/3.0\/fr\/",
    "elements": [
        {
            "type": "pape",
            "value": "Gr\u00e9goire IX (1227-1241)"
        },
        {
            "type": "destinataire",
            "value": "Les abb\u00e9s de Cluny et de Tournus ainsi que le prieur de Cluny",
            "children": {
                "numero_note": "0"
            }
        },
        {
            "type": "date_lieu",
            "value": "Latran"
        },
        {
            "type": "date_libre",
            "value": "X kalendas februarii, anno septimo"
        },
        {
            "type": "date",
            "value": " 1234\/01\/23",
            "children": {
                "date_deb_annee": "1234",
                "date_deb_mois": "01",
                "date_deb_jour": "23"
            },
            "range": {
                "date_apres": 12340123,
                "date_avant": 12340123
            }
        },
        {
            "type": "analyse",
            "value": "De Cluniaco et de Trenorchio abbatibus, et priori de Cluniaco mandat quatenus sententias interdicti, suspensionis et excommunicationis in Cistercienses et cum Cisterciensibus communicantes a nonnullis archiepiscopis, episcopis et aliis praelatis latas relaxent, et illos quos eas tulisse constiterit, ad satisfaciendum eisdem Cisterciensibus de damnis et expensis quae eadem occasione subierint, cogant [Auvray].\nMandat eis quatenus sententias interdicti, suspensionis et excommunicationis in cistercienses et eorum socios a nonnullis praelatis latas relaxent [Bernard, Bruel]."
        },
        {
            "type": "transcription",
            "value": "<?xml version=\"1.0\" encoding=\"UTF-8\"?>\n.. de Cluniaco et .. de Trenorchio abbatibus, et .. priori de Cluniaco, Matisconensis et Cabilonensis diocesum. Ad similitudinem Dei... Filii mundi hujus quos prudentiores filiis lucis in generatione sua veritas protestatur1, rejecta disciplina justitie et observatione fidei relegata, sibi invicem moliuntur insidias, dampna inferunt, injurias irrogant, movent lites, ad arma prosiliunt, committunt prelia, sceleri jus indulgent, privilegium dant errori, venantur invicem se ad mortem2 et se ipsos adeo persequendo dilaniant, ut etiam in suo sanguine cruententur; nec sufficere sibi credunt \u2014 sed etiam ad desiderabilia Ecclesie, fratres videlicet Cisterciensis ordinis, qui, remoti a turbis popularibus \u2014 quoddam intra se cum Domino sibi secretum querunt, unde cum illo, exteriore cessante strepitu, quasi quodam familiari colloquio per interna desideria delectentur, extendunt nequiter manus suas ; quorum perversitas vix eos habere patitur unde vivant, quando peregrinationis sue viaticum vel concutiant per calumpniam vel excutiant per rapinam ; de quo etsi magnis dolorum urgeamur aculeis, illud tamen intolerabilius nos inurit, quod hii qui debuerant persecutorum ipsorum flammas extinguere, non solum defensionis manum persecutionum ignibus non apponunt, verum etiam, quodammodo ignes ignibus accendentes, eos importabiliter persecuntur. Sicut enim ad nos dilecti filii .. abbatis Cistercii et coabbatum ipsius, Cisterciensis ordinis, querela gravis et stupenda pervenit, cum auctoritate apostolica sit statutum et expresse nichilominus interdictum, ut nulli omnino liceat in eosdem abbates et eorum monasteria seu fratres inibi constitutos, contra id quod ab origine ordinis noscitur institutum, nec non in vicinos vel mercennarios, pro eo quod ipsos ad laborandum adjuvant \u2014 seu benefactores suos, pro eo quod aliqua ipsis beneficia vel obsequia obsequiose, studio caritatis, impendant, aut in aliquem de ipsorum familia, quamdiu in eorum fuerit famulatu, pro eo quod decimas, juxta quod eorum ordini indultum est, non persolvunt, vel aliquid aliud ipsis ab apostolica Sede concessum, interdicti vel excommunicationis sententiam promulgare : quidam archiepiscopi, episcopi et alii ecclesiarum prelati, ac eorum officiales, [tam in Imperio quam in regno Francie existentes]a, in premissas personas et alias, que ipsis vel emendo seu vendendo, aut molendo in molendinis vel in furnis eorum coquendo aliterque communicant, interdicti, suspensionis et excommunicationis ferre sententias, contra indulta Sedis apostolice, auctoritate propria, ne dicamus potius temeritate, presumunt, ut sic sevientes in istos, illos sine culpa culpabiliter puniant innocentes, efficientes per hoc deterioris conditionis eos quam perfidi sint judei, quos, culpa propria perpetue servituti subjectos, ex sola misericordia pietas christiana receptat, dum eis subtrahunt communionem fidelium, qui ab ipsorum Judeorum participio non arcentur. Cum igitur nobis principaliter injuriari probentur, qui privilegia Sedis apostolice vel irreverenter impugnant vel, superficialiter eorum verba tenentes, contra ipsorum gestiunt voluntatem, et privilegiatos privilegiorum commodis privare conantur, nolentes tam abusivas enormitates seu tam enormes abusus, non absque injuria Sedis apostolice excogitatos, equanimiter tolerare, mandamus quatenus, inquisita super premissis diligentius veritate, sententias, si quas in Lugdunensi et Bisuntina provinciis inveneritis sic proferri, sine difficultate qualibet penitus relaxantes, illos quos eas tulisse constiterit, ad satisfaciendum eisdem abbatibus et hiis in quos late fuerint, de dampnis et expensis que occasione hujusmodi subierint, mo[nitione] pre[missa] dis[trictius] quam convenit, appellatione remota, cogatis, processum vestrum nobis fideliter rescripturi, ut alias excedentes sic pena castiget, quod excessus ulterius non procedat. Non obstante constitutione de duabus etc., nec etiam quod tibi, fili abbas Cluniacensis, sicut dicitur, a Sede apostolica est indultum, ut de causis tibi ab ea commissis cognoscere non tenearis invitus. Quod si non omnes etc. Datum Laterani, X kalendas februarii, anno septimo.\n"
        },
        {
            "type": "edition",
            "value": "Ici reprise de celle, partielle, de Lucien Auvray, Reg. de Gr\u00e9goire IX, n. 1741."
        },
        {
            "type": "sources_manuscrites",
            "value": "\u00e0 renseigner."
        },
        {
            "type": "remarques",
            "value": ""
        },
        {
            "type": "regeste",
            "value": "Auguste Bernard, Alexandre Bruel, <i>Recueil des chartes de l'abbaye de Cluny<\/i>. VI. <i>1211-1300<\/i>, Paris : Imprimerie nationale, 1903 <a href=\"http:\/\/gallica.bnf.fr\/ark:\/12148\/bpt6k367019?rk=21459;2\" target=\"_blank\">[en ligne]<\/a>,n. 4644, p. 175.",
            "children": {
                "numero_note": "0"
            }
        },
        {
            "type": "genre",
            "value": "Mandement (littere cum filo canapis)"
        },
        {
            "type": "apparat_critique",
            "value": "<i>membre de phrase imprim\u00e9 ici entre crochets a \u00e9t\u00e9 biff\u00e9 dans le Registre et annul\u00e9 par un<\/i> va-cat.",
            "children": {
                "numero_note": "a"
            }
        },
        {
            "type": "notes_historiques",
            "value": "Cf. Luc, 16, 8.",
            "children": {
                "numero_note": "1"
            }
        },
        {
            "type": "notes_historiques",
            "value": "Cf. Mich., 7, 2.",
            "children": {
                "numero_note": "2"
            }
        },
        {
            "type": "sources_manuscrites",
            "value": "R. Reg. Vat. 17, c. 493, fol. 136v.",
            "children": {
                "type_source": "Registre de la chancellerie apostolique"
            }
        },
        {
            "type": "sources_manuscrites",
            "value": "S. FRANCE, Paris, Bibl. Nat., Collection Moreau 1188, fol. 296 (La Porte du Theil).",
            "children": {
                "type_source": "Copie moderne"
            }
        }
    ]
}