{
    "id": 141876,
    "name": "aposcripta-4776",
    "type": "acte",
    "url": "http:\/\/telma-chartes.irht.cnrs.fr\/aposcripta\/notice\/141876",
    "project_slug": "aposcripta",
    "project_label": "APOSCRIPTA \u2013 Lettres des papes",
    "user": "b_oury",
    "last_update": "2020-10-19 16:38:36",
    "licence": "Attribution - Pas d\u2019Utilisation Commerciale - Partage dans les M\u00eames Conditions 3.0 France (CC BY-NC-SA 3.0 FR) ",
    "licence_url": "https:\/\/creativecommons.org\/licenses\/by-nc-sa\/3.0\/fr\/",
    "elements": [
        {
            "type": "pape",
            "value": "Honorius II (1124-1130)"
        },
        {
            "type": "destinataire",
            "value": "L'\u00e9v\u00eaque d'Arezzo, Guido"
        },
        {
            "type": "date_libre",
            "value": "III\u00a0[?] nonas (maias\u00a0?), indictione [III\u00a0?] [MCXXV\u00a0?]"
        },
        {
            "type": "date",
            "value": " 1125\/05\/05",
            "children": {
                "date_deb_jour": "05",
                "date_deb_mois": "05",
                "date_deb_annee": "1125"
            },
            "range": {
                "date_apres": 11250505,
                "date_avant": 11250505
            }
        },
        {
            "type": "genre",
            "value": "Privil\u00e8ge solennel"
        },
        {
            "type": "analyse",
            "value": "Honorius\u00a0II urkundet dem Bischofe Guido von Arezzo \u00fcber die Entscheidung des Streites zwischen ihm und dem Bischofe Walfried von Siena zu Gunsten Arezzos<a class=\"note\" href=\"#note-1\">1<\/a>."
        },
        {
            "type": "sources_manuscrites",
            "value": "B. ITALIE, Arezzo, Archivio Capitolare. Einzelcopie. In der Einzelcopie beginnen die Zeugen links mit Honorius, die Daten sind ausradirt und von moderner Hand wieder untergeschrieben. ",
            "children": {
                "type_source": "Inconnu"
            }
        },
        {
            "type": "sources_manuscrites",
            "value": "C. ITALIE, Arezzo, Archivio Capitolare. Theilcopie vom 13\u00a0Jahrh. Die Theilcopie beginnt mit <i>indagatis<\/i> und reicht bis zum Ende des Conscripts. Dann folgt als Datum : <i>Data anno primo pontificatus domni Honorii secundi pape.<\/i>"
        },
        {
            "type": "edition",
            "value": "Ici reprise de Julius von Pflugk-Harttung, <i>Acta pontificum Romanorum inedita. Urkunden der P\u00e4pste vom Jahre 748 bis zum Jahre 1197<\/i>, II, Stuttgart : W. Kohlhammer, 1884 <a target=\"_blank\" href=\" https:\/\/archive.org\/details\/actapontificumr00jahrgoog\/page\/n264\"> [en ligne]<\/a>, n. 295, p. 252-255, d'apr\u00e8s B et C."
        },
        {
            "type": "regeste",
            "value": "Philippe Jaff\u00e9, Wilhelm Wattenbach, Samuel Loewenfeld, Ferdinand Kaltenbrunner, Paul Ewald, <i>Regesta pontificum Romanorum ab condita ecclesia ad annum post Christum natum MCXCVIII<\/i>, 2<sup>e<\/sup> \u00e9d. Leipzig, : Veit, 1885-1888, 2 vol., n. 7210 <a target=\"_blank\" href= \"https:\/\/gallica.bnf.fr\/ark:\/12148\/bpt6k55983718\/f862.image\">[en ligne]<\/a>."
        },
        {
            "type": "transcription",
            "value": "<?xml version=\"1.0\" encoding=\"UTF-8\"?>\nHonorius episcopus, servus servorum Dei, venerabili fratri Guidoni, Aretino episcopo, salutem et apostolicam benedictionem. Religionis unitas et amor iustitie consuevit Ecclesiam Dei in sublime provehere et in sibi grata tranquillitate iugiter custodire. Sicut autem iuris precepta servantibus convenit honeste vivere, ita expedit unicuique ius suum tribuere. Ne igitur controversia, inter Senensem et Aretinum episcopos de decem et octo plebibus orta, recolendi obumbretur desuetudine, ad presentium et poste(ro)rum clariorem evidentiam rei geste ordinem carte et atramento duximus committendum. Si quidema ante nativitatem domni predecessore nostro, felicis memorie papa Calixto, gravissima febrium egritudine laborante, tempore constituto, Gaufredus, Senensis episcopus, et tu Guido, Aretine episcope, in Lateranensi palatio cepistis super decem et octo plebibus disceptare. Cumque protraheretur inter vos per dies aliquot altercatio et nos una cum fratribus nostris, episcopis et cardinalibus, ad pacem inter vos et concordiam componendam summopere studium preberemus, interveniente ipsius domni nostri obitu et, me in curam et administrationem Sedis apostolice, disponente divina gratia, evocato, maiori, ut in talibus fieri assolet, sollicitudine occupati, negotium hoc usque ad mediam quadragesimam subsequentem distulimus. Termino itaque prestito, cum utraque pars adductis legis peritis et advocatis suis ante nostram presentiam convenisset, tu frater Guido, Aretine episcope, allegasti, parrochiam illam a beato Donato per predicationis fuisse offitium acquisitam, et a tuis predecessoribus per longa tempora quiete possessam, sed a Senensibus occasione mortis Godoberti iudicis, qui ab Aretinis occisus est, occupatam fuisse et, quia sita erat in Senensi territorio, vendicatam. Retulisti etiam, qualiter postmodum iussu Liuprandi regis ab Ambrosio, dispensatore domus sue, causa fuerit inquisita, et per septuaginta presbiteros et honestos laicos eiusdem parrochie antiquissima possessio fuerit iurata, et ab episcopis Tuscie atque a Liuprando rege in vico sancti Genesii honeste fuerit decisa, a papa Stephano2 firmata et a Karolo imperatore legaliter in Senensi civitate sopita. Insuper Aretinam muniebas ecclesiam decisione Victorisb pape, qui in eadem parrochia inquisitionis causa per octo dies moratus est3, et Senensibus perpetuum silentium de eadem lite imposuit, Leonis, quoque Romani pontificisc, Adrianid, Paschalis, Stephanie, Alexandrif et Paschalisf, qui omnia privilegia eiusdem Aretine ecclesie confirmaverunt munimentis, preceptis etiam et confirmationibus imperatorum Karoli magni, Lodoici, Lothari(i), Ottonis, Berengari(i), Chonradi et Heinrici easdem plebes pertinere Aretine ecclesie affirmasti. Contra vero Senensis episcopus affirmavit, easdem decem et octo plebes iuris esse Sene(n)sis ecclesie, et scriptum Leonis quarti pape4 ac Lodoici imperatoris se dixit habere. Nikolai quoque secundi pape scriptum5 in medium protulit, in quo continebatur, Senensem episcopumg fuisse in sinodo ab ipso papa de illis decem et octo ecclesiis, salva querela episcopi Aretini, usque ad aliam synodum investitum, eo quod Arnaldus Aretinus, vocatus ad synodum, venire comtempsit, et scriptum investitionis a predecessore nostro, sancte memorie Calixto secundo papa, factum fecit coram fratribus recitari. Utraque vero pars rationes suas his imperialibus constitutionibus defendebat\u00a0: Imperator Gordianus augustus secundush, neque suam neque decessoris sui sententiam quemquam posse revocare, in dubium non venit. Imperator Antoninus augustus\u00a0: stellatorio rebus iudicatis standum est. Imperator Constantinus ad Proculum\u00a0: impetrata rescripta non placet admitti, si decise semel cause fuerint iudiciali sententia, quam provocatio nulla suspendit. Senenses se per violentiam ab Aretinis de possessione fuisse expulsos, et sic illos de causa sua debere cadere his legum promulgationibus testabantur. Imperatores Valerius et Archadius augusti et Thaeodorus ad Mesianum\u00a0: si quis in tantam furoris pervenerit audaciam, ut possessiones rerum apud fiscum vel apud homines quoslibet constitutarum ante eventum iudicialis arbitrii violenter invaserit, dominus quidem constitutus possessionem quidem, quam abstulit, restituat possessori et dominum eiusdem rei amittat. Pretor ait\u00a0: extat edictum divi Marci in hec verba\u00a0: optimum est, ut, si, quas putas te habere petitiones, actionibus experiaris. Cum Martianus diceret, vim nullam feci, Cesar dixit\u00a0: tu vim putas esse solum, si homines vulnerentur, vis est et tunc, quotiens quis id, quod deberi sibi putat, non per iudices reposcit. Ceterum advocatis alternatim, nunc de possessione ad proprietatem, nunc de proprietate ad possessionem confusum transitum facientibus, ab assessoribus imperatum est, ut de possessione inter se disceptarent.  Sene(n)sis igitur episcopus se de decem tantum plebibus investitum et de octo esse investiendum et clarissimi viri, domni pape Calixti sententiam effectui mancipandam, protinus acclamavit. Contra tu frater, Aretine episcope, respondisti, papam Nycolaum non investivisse per legatum suum corporaliteri Senensem episcopum, nisi de duabus plebibus tantum, et hoc te per relatum tibi iuramentum testium Senensium cognovisse, atque ob hoc eum illam restitutionem non debere petere asserebas, eo quod non fuerit destitutus. Est enim restitutio prioris status redintegratio legit[t]ima. Ex adverso Senenses dicebant, se a nuntio Nicolai pape fuisse de duabus plebibus et per illas de omnibus aliis investitos\u00a0; quod Aretini legit[t]ime non posse fieri his iuris consultorum legibus contendebant\u00a0: Neritius et Proculus\u00a0: solo animo non posse nos acquirere possessionem, si non antecedat naturalis possessio. Celsus\u00a0: possessio, nisi naturaliter comprehensa, ad nos non pertinet. Senenses autem hi[i]s legibus obviabant. Paulus\u00a0: non est enim corpore et actu necesse apprehendere possessionem, sed etiam oculis et affectu. Idem\u00a0: non oportet omnes glebas fundi circumambulare, sed sufficit, quandam partem eius fundi introire\u00a0; quod Aretini, non de discretis, sed de continuis fundis dictum fuisse, firmabant. Auditis igitur utriusque partis rationibus, placuit nobis et fratribus atque assessoribus nostris, domni pape Calixti sententiam adimpleri, et Senensem ecclesiam de octo, que restabant, plebibus investiri. Quo factoj, utrique ante nostram presentiam iterum convenerunt. Aretini per hanc imperialem constitutionem restitutionem sibi oblata cautione deberi fieri petierunt\u00a0: imperator Iustinianus augustus Menne, prefecto pretorio\u00a0: si quis non per vim sed per sententiam iudicis eam rem detinuit, ea tamen occasione, quod absens prior possessor et ad litem vocatus minime respondit, licebit ei ad similitudinem ceterorum, qui rei dominium habent, intra annum se offerenti cautionemque suscipiende litis danti eandem rem recipere superque ea congnitionalia subire certamina. Contra Senenses, Arnaldum, Aretinum episcopum, infra annum nec venisse, nec cautionem optulisse dixerunt. Aretini autem, delictum vel desidiam episcopi in dampnum ecclesie non esse convertendum per hanc legem, dicebant. Imperator Iustinus augustus Iohanni pape\u00a0: sive servus sive procurator vel colonus vel inquilinus vel quispiam alius, per quem licentia est nobis, possidere corporaliter nactam possessionem cuiuscumque rei, eam dereliquerit vel alii prodiderit desidia forte vel dolo, ut locus aperiatur alii, eandem possessionem detinere, nichil penitus domino preiudicium generetur, ne ex aliena malignitate alienum damnum emergat. Indagatis ergo utriusque partis allegationibus et advocatis, si quid novi possent addere, diligentius inquisitis, iudices nostri, prius utrinque tactis sacrosanctis evangeliis, de calumpnia hanc in scriptis communi assensu protulerunt sententiam\u00a0: In nomine domini. Ego Ferrucius, primicerius iudicum sacri Lateranensis palatii, consensu iudicum, scilicet Benedicti, dativi iudicis, et Guittonis, primi defensoris iudicis, et Ildicii Tiburtini et advocatorum Nykolai et Seniorilis iubeo, Gualfredum, Senensem episcopum, restitutionem facere Sedecim plebium Guidoni Aretino episcopo sueque ecclesie, de duabus quoque idem iubeo, si Senensis ecclesia eas possidet, sin autem, do ecclesie Aretine et eius episcopo securum in eas possidendi ingressum. De quibus omnibus plebibus ventilatum est iudicium ante presentiam domni Honorii secundi pape et totius curiek, salva Senensis ecclesie proprietatis questione. Et ad hoc, ut Aretinus episcopus non effugiat iudicium de proprietate, iubeo, eum facere cautionem ad presens Senensi episcopo de suscipiendo iudicio proprietatis. Data anno .... pontificatus domni Honorii secundi pape, indictione IIII. Mensis aprilis die XXII6l. Nos itaque fratrum nostrorum episcoporum et cardinalium, omnibusm communicato consilio, eandem sententiam apostolice Sedis auctoritate firmavimus, statuentes, Senensem episcopum de illis decem et octo plebibus, videlicet plebe sancte Marie in Pacina, plebe sancti Felicis, plebe sancti Iohannis in Vescona, plebe sancti Viti in Versura, plebe sancti Victoris, plebe sancte Agathe in Scisiano, plebe sancti Andree in Malceno, plebe sancti Stephani in Cenano, plebe sancte Marie in Cosonan, plebe sancte Marie in Pavao, plebe sancte Marie in Saltu, plebe sancti Quirici in Osenna, plebe sancte Restitute, plebe sancte Marie in Sexta, plebe sancti Viti in Corsignanap, plebe sancti Donati in Silicianoq et plebe sancti Valentini et plebe sancti Petri in Mesoler cum ecclesia sancti Ansanis et monasterio sancti Petri in Axo cum aliis monasteriis, capellis et pertinentiis suis, nullam ulterius adversus Aretinam ecclesiam de possessione, nisi tantumt de proprietate facere questionem, [salvau Senensis ecclesie proprietatis conquestione\u00a0; et ad hoc vero Aretinus episcopus non effugiat iudicium de proprietate. Iubeo eum facere cautionem ad presens Senensi episcopo de suscipiendo iudicio proprietatis]. Ego Honorius catholice ecclesie episcopus ss. Ego Crescentius episcopus Sabinensis ss. Ego Guilielmus Prenestinus episcopus consensi et ss. Ego Vitalis Albanus episcopus ss. Ego Egidius Tusculanus episcopus consensi et ss. Ego Berengarius Aurasicensis episcopus consensi et ss. Ego Deusdedit presbiter cardinalis tituli sancti Laurentii in Damaso consensi et ss. Ego Petrus presbiter cardinalis tituli Calixti consensi et ss. Ego Petrus presbiter cardinalis tituli sancti Marcelli consensi et ss. Ego Petrus prefectus urbis Rome confirmo hanc sententiam ss. Ego Bonifatius presbiter cardinalis tituli sancti Marci consensi et ss. Ego Benedictus presbiter cardinalis tituli sancti Petri ad Vinculum consensi et ss. Ego Anastasius presbiter cardinalis tituli beati Clementis martiris ss. Ego Iohannes presbiter cardinalis tituli sancte Cecilie consensi et ss. Ego Desiderius cardinalis presbiter tituli sancte Praxedis consentio et ss. Ego Petrus cardinalis presbiter tituli sancte martiris Susanne consensi, interfui et ss. Ego Saxo presbiter cardinalis tituli sancti Stefani consensi et ss. Ego Sigito presbiter cardinalis tituli sancti Xisti ss. Ego Pe(trus) presbiter cardinalis tituli Equicii ss. Ego Aldericus cardinalis presbiter tituli sanctorum Iohannis et Pauli consensi et ss. \u2020 Ego Comes diaconus cardinalis sancte Marie in Aquiro ss. \u2020 Ego Gregorius sancti Angeli diaconus cardinalis ss. \u2020 Ego Stephanus diaconus cardinalis sancte Marie in Cosmedin consensi et ss. \u2020 Ego Matheus diaconus cardinalis tituli sancti Adriani consensi et ss. \u2020 Ego Stephanus diaconus cardinalis sancte Lucie consensi et ss. Dat. Laterani, per manum (Aimerici), sancte Romane ecclesie diaconi cardinalis et c(ancellarii III\u00a0?). Non. (Maias\u00a0?), indictione (III\u00a0?). Incarnationis dominice anno (MCXXV\u00a0?). pontificatus autem domni Honorii (secundi) pape anno (primo\u00a0?).\n"
        },
        {
            "type": "apparat_critique",
            "value": "<i>Hinter<\/i> quidem <i>Rasur<\/i>.",
            "children": {
                "numero_note": "a"
            }
        },
        {
            "type": "apparat_critique",
            "value": "secundi <i>ausradirt<\/i>",
            "children": {
                "numero_note": "b"
            }
        },
        {
            "type": "apparat_critique",
            "value": "<i>je hinter dem Papste die Ordnungszahl wegradirt<\/i>. Leonis ... tertii",
            "children": {
                "numero_note": "c"
            }
        },
        {
            "type": "apparat_critique",
            "value": "secundi",
            "children": {
                "numero_note": "d"
            }
        },
        {
            "type": "apparat_critique",
            "value": "noni",
            "children": {
                "numero_note": "e"
            }
        },
        {
            "type": "apparat_critique",
            "value": "secundi",
            "children": {
                "numero_note": "f"
            }
        },
        {
            "type": "apparat_critique",
            "value": "<i>hier wohl der Name ausgefallen<\/i>",
            "children": {
                "numero_note": "g"
            }
        },
        {
            "type": "apparat_critique",
            "value": "secundo",
            "children": {
                "numero_note": "h"
            }
        },
        {
            "type": "apparat_critique",
            "value": "<i>hier wohl der Name ausgefallen<\/i>",
            "children": {
                "numero_note": "i"
            }
        },
        {
            "type": "apparat_critique",
            "value": "<i>Gr\u00f6ssere Rasur<\/i>",
            "children": {
                "numero_note": "j"
            }
        },
        {
            "type": "apparat_critique",
            "value": "<i>von hier an bis<\/i> secundi pape <i>fehlt in G<\/i>",
            "children": {
                "numero_note": "k"
            }
        },
        {
            "type": "apparat_critique",
            "value": "<i>in F hier l\u00e4ngere Rasur statt der Datumangabe<\/i>",
            "children": {
                "numero_note": "l"
            }
        },
        {
            "type": "apparat_critique",
            "value": "nur <i>in G<\/i>",
            "children": {
                "numero_note": "m"
            }
        },
        {
            "type": "apparat_critique",
            "value": "<i>Von<\/i> Victoris <\/i>an fehlt in G<\/i>",
            "children": {
                "numero_note": "n"
            }
        },
        {
            "type": "apparat_critique",
            "value": "<i>oder<\/i> Pana",
            "children": {
                "numero_note": "o"
            }
        },
        {
            "type": "apparat_critique",
            "value": "Corsignano <i>G<\/i>",
            "children": {
                "numero_note": "p"
            }
        },
        {
            "type": "apparat_critique",
            "value": "Siciliano <i>G<\/i>",
            "children": {
                "numero_note": "q"
            }
        },
        {
            "type": "apparat_critique",
            "value": "Mesule <i>G<\/i>",
            "children": {
                "numero_note": "r"
            }
        },
        {
            "type": "apparat_critique",
            "value": "<i>in G durchstrichen, es folgt<\/i> plebe sancte Agathe in Sisciano <i>bis<\/i> Cosona cum ecclesia sancti Ansani",
            "children": {
                "numero_note": "s"
            }
        },
        {
            "type": "apparat_critique",
            "value": "tamen",
            "children": {
                "numero_note": "t"
            }
        },
        {
            "type": "apparat_critique",
            "value": "<i>von hier an nur in G<\/i>.",
            "children": {
                "numero_note": "u"
            }
        },
        {
            "type": "notes_historiques",
            "value": "Vergl. die Urk. vom 1\u00a0april 1124 (<a target=\"_blank\" href=\" http:\/\/telma-chartes.irht.cnrs.fr\/aposcripta\/notice\/141870\">APOSCRIPTA n. 4770<\/a>). Von dieser Urk. hatte auch Herr Hofrath J. Ficker eine Abschrift genommen, die er mir freundlichst zur Verf\u00fcgung stellte.",
            "children": {
                "numero_note": "1"
            }
        },
        {
            "type": "notes_historiques",
            "value": "Stefan\u00a0III, Jaff\u00e9, <i>Reg.<\/i>, 2<sup>e<\/sup> \u00e9d., n. 2307.",
            "children": {
                "numero_note": "2"
            }
        },
        {
            "type": "notes_historiques",
            "value": "Cappelletti, <i>Chiese d\u2019Italia XVII<\/i>, p.\u00a0428.",
            "children": {
                "numero_note": "3"
            }
        },
        {
            "type": "notes_historiques",
            "value": "april 850\u00a0; Jaff\u00e9, <i>Reg.<\/i>, 2<sup>e<\/sup> \u00e9d.,p.\u00a0330.",
            "children": {
                "numero_note": "4"
            }
        },
        {
            "type": "notes_historiques",
            "value": "Urk. vom Mai 1059 (<a target=\"_blank\" href=\" http:\/\/telma-chartes.irht.cnrs.fr\/aposcripta\/notice\/79749\">APOSCRIPTA n. 4561<\/a>).",
            "children": {
                "numero_note": "5"
            }
        },
        {
            "type": "notes_historiques",
            "value": "W\u00e4re 1126 april 22, doch werden wir nach den allerdings sehr unsicheren Schlussdaten und dem ganzen Hergange an 1125 denken m\u00fcssen.",
            "children": {
                "numero_note": "6"
            }
        }
    ]
}