{
    "id": 25361,
    "name": "aposcripta-2458",
    "type": "acte",
    "url": "http:\/\/telma-chartes.irht.cnrs.fr\/aposcripta\/notice\/25361",
    "project_slug": "aposcripta",
    "project_label": "APOSCRIPTA \u2013 Lettres des papes",
    "user": "lettrespontificalesadmin",
    "last_update": "2020-10-19 16:27:43",
    "licence": "Attribution - Pas d\u2019Utilisation Commerciale - Partage dans les M\u00eames Conditions 3.0 France (CC BY-NC-SA 3.0 FR) ",
    "licence_url": "https:\/\/creativecommons.org\/licenses\/by-nc-sa\/3.0\/fr\/",
    "elements": [
        {
            "type": "pape",
            "value": "Alexandre III (1159-1181)"
        },
        {
            "type": "destinataire",
            "value": "( )",
            "children": {
                "numero_note": "0"
            }
        },
        {
            "type": "date_lieu",
            "value": "n.c."
        },
        {
            "type": "date_libre",
            "value": "1174, 21 janvier"
        },
        {
            "type": "date",
            "value": " 1174\/01\/21",
            "children": {
                "date_deb_annee": "1174",
                "date_deb_mois": "01",
                "date_deb_jour": "21"
            },
            "range": {
                "date_apres": 11740121,
                "date_avant": 11740121
            }
        },
        {
            "type": "analyse",
            "value": "X pape<br\/>EPISTOLA ALEXANDRI PAP\u00c6 III, QUA MANDAT HENRICO REMENSI ARCHIEPISCOPO, UT CLERICOS, SIVE LAICOS QUI PRIORATUS, ECCLESIAS ET ALIAS POSSESSIONES AD CLUNIACENSE MONASTERIUM PERTINENTES, LOCATAS VEL COMMODATAS TENEANT SINE ASSENSU CAPITULI CLUNIACENSIS, COMPELLAT UT EAS RESTITUANT."
        },
        {
            "type": "transcription",
            "value": "<?xml version=\"1.0\" encoding=\"UTF-8\"?>\nAlexander, etc. Quanto Cluniacense, etc. \n"
        },
        {
            "type": "edition",
            "value": "Ici tir\u00e9e du projet <i>CBMA - Corpus Burgundiae Medii Aevi<\/i>, document 5687. Site du projet Corpus de la Bourgogne du Moyen \u00c2ge, [En ligne] <a href=\"http:\/\/www.cbma-project.eu\" target=\"_blank\">http:\/\/www.cbma-project.eu<\/a>  "
        },
        {
            "type": "sources_manuscrites",
            "value": "\u00e0 renseigner."
        },
        {
            "type": "remarques",
            "value": ""
        },
        {
            "type": "edition_autre",
            "value": "Ici reprise de Auguste Bernard, Alexandre Bruel, <i>Recueil des chartes de l'abbaye de Cluny<\/i>. V. <i>1091-1210<\/i>, Paris\u00a0: Imprimerie nationale, 1894 <a href=\"http:\/\/gallica.bnf.fr\/ark:\/12148\/bpt6k28911f?rk=64378;0\" target=\"_blank\">[en ligne]<\/a>, p. 606, n\u00b0 4250",
            "children": {
                "numero_note": "0"
            }
        },
        {
            "type": "regeste",
            "value": "Mart\u00e8ne, Ampl. coll., t.\u00a0II, p.\u00a0999.",
            "children": {
                "numero_note": "0"
            }
        },
        {
            "type": "genre",
            "value": "Bulle"
        },
        {
            "type": "genre",
            "value": "Lettre"
        }
    ]
}