{
    "id": 23747,
    "name": "aposcripta-966",
    "type": "acte",
    "url": "http:\/\/telma-chartes.irht.cnrs.fr\/aposcripta\/notice\/23747",
    "project_slug": "aposcripta",
    "project_label": "APOSCRIPTA \u2013 Lettres des papes",
    "user": "j_theryastruc",
    "last_update": "2020-10-19 16:27:17",
    "licence": "Attribution - Pas d\u2019Utilisation Commerciale - Partage dans les M\u00eames Conditions 3.0 France (CC BY-NC-SA 3.0 FR) ",
    "licence_url": "https:\/\/creativecommons.org\/licenses\/by-nc-sa\/3.0\/fr\/",
    "elements": [
        {
            "type": "pape",
            "value": "Alexandre IV (1254-1261)"
        },
        {
            "type": "date",
            "value": "1258\/04\/02",
            "children": {
                "date_deb_jour": "02",
                "date_deb_mois": "04",
                "date_deb_annee": "1258",
                "date_deb_type": ""
            },
            "range": {
                "date_apres": 12580402,
                "date_avant": 12580402
            }
        },
        {
            "type": "date_lieu",
            "value": "Viterbe"
        },
        {
            "type": "genre",
            "value": "Mandement (littere cum filo canapis)"
        },
        {
            "type": "analyse",
            "value": "Alexandre [IV] ordonne aux pr\u00e9lats de faire publier l'excommunication de quiconque l\u00e8vera la main sur un fr\u00e8re de l'ordre de Santiago ou sur sa monture et de frapper d'anath\u00e8me quiconque aura port\u00e9 atteinte aux biens de l'ordre et refusera de donner satisfaction [APO]."
        },
        {
            "type": "transcription",
            "value": "<?xml version=\"1.0\" encoding=\"UTF-8\"?>\nAlexandera episcopus, servus servorum Dei, venerabillibus archiepiscopiis et episcopis ac dillectis filliis abbatibus, prioribus, deconis, archidiaconis et alliis eclesiarum prelatis ad quos littere iste pervenerint, salutem et apostolicam benedicionem. Pacii et quieti religiosorum virorum fratrum Ordinis Millicie Sancti Jacobi apostolica nos convenit sollicitudine providere et tam ipsos quam eorum bona tanto solicicius ac maliciorum in ausibus et rapinis tenemur protegere quanto pro fidei christiani nominis se diuturnis ribus sponunt periculis et adversus pranos et ousteras vacciones labores subveniunt graviores inde est quod tam fortes atheletas Christi in suo sancto proposito. Vollentes atencius confovere ad defenssionem sui, solicitudinem vestram duximus comovendam ut magis ac magis possint ad promovendum propositum quod supserunt intendere cum fuerint sollicitudine prelatorum eclesie amallinorumb inquietatiens secure movemur. Itaque universsitatem vestram adque principimus quatinus si quando clerici vel laici perrochani vestri in aliquum fratrum capiendo vel de suis equitaturis deiciendo aut alias inhoneste trauctando viollentas manus iresciunt, hujusmodi presumptores, sublato appellacionis obstando, accenssis tandelis dileccione et occasione pospositis excomunicatos publice nuncietis et tandiu faciatis sicut excomunicatos arterii evitari donec passo injuriam congrue satisfaciant et pro absoluptionis beneficio inpetrando appostolico secum conspectui representent ; eos vero qui in predictos fratres manus non injecerint violentas set equitaturas ac alia eorum bona viollenter diripiunt, si a vobis comoniti ablata eis restituere noluerint et deilactis injuriis satisfacionem congruam exibire, anatemate vinculo astringatis quo ipsos usque ad dignam satisfacionem teneatis astrictos. Datum Viterbii, quarto nonas aprillis, pontificatus nostri anno quarto.\n"
        },
        {
            "type": "edition",
            "value": "Lu\u00eds Ad\u00e3o da Fonseca, Paula Pinto Costa et alii, <i>Livro dos Copos<\/i>, Porto : Funda\u00e7\u00e3o Eng. Ant\u00f3nio de Almeida, 2006 (Militarium Ordinum Analecta. Fontes para o Estudo das Ordens Religioso-Militares, 7) <a href=\"https:\/\/www.cepese.pt\/portal\/pt\/publicacoes\/obras\/militarium-ordinum-analecta-n.o-7\">[en ligne]<\/a>, p. 71, n. 2."
        },
        {
            "type": "sources_manuscrites",
            "value": "F. PORTUGAL, Lisbonne,  Instituto dos Arquivos Nacionais \/ Torre do Tombo, Ordem de Santiago \/ Convento de Palmela, C\u00f3dice n. 272 (<i>Livro dos Copos<\/i>, Cartulaire de la branche portugaise de l'Ordre de Santiago, compil\u00e9 par \u00c1lvaro Dias de Frielas, notaire apostolique et royal,  de 1484 \u00e0 1498), fol. 3v.",
            "children": {
                "type_source": "Cartulaire"
            }
        },
        {
            "type": "bibliographie_generale",
            "value": "Bernardo de S\u00e1-Nogueira, recension de Lu\u00eds Ad\u00e3o da Fonseca, Paula Pinto Costa et alii, <i>Livro dos Copos<\/i>, dans <i>e-Journal of Portuguese History<\/i>, 7\/2, 2009 <a href=\"http:\/\/www.brown.edu\/Departments\/Portuguese_Brazilian_Studies\/ejph\/html\/issue13\/html\/bnogueira.html\">[en ligne]<\/a>. "
        },
        {
            "type": "apparat_critique",
            "value": "<i>Na margem esquerda e de outra m\u00e3o : <\/i>[C]omo sam excomungados os que pose rem as m\u00e3os violentas nos freires e cavaleiros da Ordem.",
            "children": {
                "numero_note": "a"
            }
        },
        {
            "type": "bibliographie_generale",
            "value": "Lu\u00eds Ad\u00e3o da Fonseca, \u00ab Mem\u00f3ria das Ordens Militares : o <i>Livro dos Copos<\/i>,  da Ordem de Santiago \u00bb, in <i>As Ordens Militares em Portugal. Actas do 1\u00b0 Encontro sobre Ordens Militares<\/i>, Palmela : C\u00e2mara Municipal, 1991, p. 15-22. "
        },
        {
            "type": "remarques",
            "value": "La date du 2 avril 1254 donn\u00e9e par les \u00e9diteurs est fausse puisqu'Alexandre IV ne devint pape qu'en d\u00e9cembre 1254. La lettre \u00e9tant dat\u00e9e de la 4e ann\u00e9e, on a r\u00e9tabli la date du 2 avril 1258. Potthast, <i>Regesta Pontificum Romanorum<\/i> <a href=\"https:\/\/archive.org\/details\/RegestaPontificumRomanorum\"> [en ligne]<\/a>, ne la recense pas et n'en mentionne qu'une \u00e0 cette date, donn\u00e9e \u00e0 Viterbe (n. 17222) [APO]."
        },
        {
            "type": "date_libre",
            "value": "IV nonas aprillis, anno quarto"
        },
        {
            "type": "apparat_critique",
            "value": "<i>Palavra corrigida que suscita d\u00favidas de leitura.<\/i>",
            "children": {
                "numero_note": "b"
            }
        },
        {
            "type": "destinataire",
            "value": "Tous les pr\u00e9lats auxquels ces lettres parviendront"
        }
    ]
}