{
    "id": 20419,
    "name": "aposcripta-406",
    "type": "acte",
    "url": "http:\/\/telma-chartes.irht.cnrs.fr\/aposcripta\/notice\/20419",
    "project_slug": "aposcripta",
    "project_label": "APOSCRIPTA \u2013 Lettres des papes",
    "user": "lettrespontificalesadmin",
    "last_update": "2020-10-19 16:26:48",
    "licence": "Attribution - Pas d\u2019Utilisation Commerciale - Partage dans les M\u00eames Conditions 3.0 France (CC BY-NC-SA 3.0 FR) ",
    "licence_url": "https:\/\/creativecommons.org\/licenses\/by-nc-sa\/3.0\/fr\/",
    "elements": [
        {
            "type": "pape",
            "value": "Urbain V (1362-1370)"
        },
        {
            "type": "date_lieu",
            "value": "Avignon"
        },
        {
            "type": "date_libre",
            "value": "13 septembre 1364"
        },
        {
            "type": "analyse",
            "value": "A l\u2019issue du combat livr\u00e9 nagu\u00e8re contre une bande de routiers des Grandes Compagnies par les bourgeois de Carcassonne et les officiers royaux, sept des principaux chefs ont \u00e9t\u00e9 faits prisonniers sous condition d\u2019avoir la vie sauve. Or, ces gens-l\u00e0, \u00e9tant suspects d\u2019h\u00e9r\u00e9sie, ont \u00e9t\u00e9 incarc\u00e9r\u00e9s par ordre de l\u2019inquisiteur. Le pape prie le roi de France de ne pas trouver mauvais que les Carcassonnais aient en cela pr\u00eat\u00e9 concours \u00e0 l\u2019inquisiteur, et que leurs prisonniers ne soient mis en libert\u00e9 qu\u2019apr\u00e8s la conclusion du proc\u00e8s<a class=\"note\" href=\"#note-1\">1<\/a>."
        },
        {
            "type": "transcription",
            "value": "<?xml version=\"1.0\" encoding=\"UTF-8\"?>\n Carissimo in Christo filio Carolo, regi Francie illustri, salutem, etc. \u2014 Regiam sublimitatem credimus non latere quod dudum dilecti filii cives civitatis tue Carcassonen., sive habitatores suburbii eiusdem, tuos officiales et gentes sequentes fideliter et audacter illas pravas gentes que se Societates appellant tunc partes illas depopulantes immaniter, tanquam viri fideles et strenui, magnanimiter fuerunt aggressi et viriliter prosecuti ; easque tandem de eisdem partibus expulerunt, multis ex ipsis cesis et captis : inter quos quidem captos septem fuisse dicuntur, qui se dictarum societatum capitaneos faciebant et qui per aliquos tuos officiales sub fide salvationis personarum ipsarum recepti fuisse dicuntur. Sed quia ad dilectum filium .. inquisitorem heretice pravitatis in eisdem constitutum partibus fidedigna relatione pervenerat quod iidem septem viri propter multa hereticalia que dixerant et fecerant multipliciter suspecti erant de labe heretice pravitatis, ipsos tanquam tales fecit suo nomine arrestari et in carceribus episcopatus Carcassonen. curie detineri ; nosque premissis prolatis ad nostram notitiam mandavimus eosdem non dimitti captivos, sed per eundem inquisitorem procedi super suspitione huiusmodi mediante iusticia contra eos. Quare cum iidem cives seu habitatores tanquam viri catholici per dictum inquisitorem seu eius vicarium requisiti eidem tam propter reverentiam Dei et catholice fidei, quam propter bonum regni tui, ne dicti mali viri, si relaxati forent, peiora prioribus in regno committerent memorato, in dicta detentione favisse noscantur, eos de hiis merito laudandos serenitati tue affectuosius commendamus : eam rogantes attente quatinus cum, prout audivimus, predicta gesta fuerunt in favorem fidei et pro bono tui regni, etiam post dationem dicte per eosdem tuos officiales date fidei, ut prefertur, et periculosum foret nimium eosdem captivos non discusso negotio catholice fidei relaxare, contra cives eosdem, si forte apud regiam maiestatem de premissis ab aliquibus culparentur, mansuetudo regia non turbetur ; quinimo eos tanquam Deo devotos et sibi fideles et eorum negotia commendatos habeat et precipua benivolentia prosequatur. \u2014 Datum Avinioni, idus septembris, anno secundo.\n"
        },
        {
            "type": "edition",
            "value": "Jean-Marie Vidal, <i>Bullaire de l\u2019Inquisition fran\u00e7aise au XIV<sup>e<\/sup> si\u00e8cle et jusqu'\u00e0 la fin du Grand Schisme<\/i>, Paris : Letouzey et An\u00e9, 1913, n. 245, p. 363"
        },
        {
            "type": "sources_manuscrites",
            "value": "<i>Reg. Vat.<\/i>, t. <span class=\"smal-caps\">ccxlvi<\/span>, fol. 312"
        },
        {
            "type": "sources_manuscrites",
            "value": "Prou, <i>\u00c9tude sur les relations politiques du pape Urbain V avec le roi de France<\/i>, dans <i>Bibl. de l\u2019\u00c9cole des hautes \u00e9tudes<\/i>, fasc. 76, p. 116, n. 38 (<i>in ext.<\/i>)"
        },
        {
            "type": "sources_manuscrites",
            "value": "Lecacheux, n. 1227."
        },
        {
            "type": "notes_historiques",
            "value": "Voir n. 236, note 4.",
            "children": {
                "numero_note": "1"
            }
        },
        {
            "type": "date",
            "value": "1364\/09\/13",
            "children": {
                "date_deb_annee": "1364",
                "date_deb_mois": "09",
                "date_deb_jour": "13"
            },
            "range": {
                "date_apres": 13640913,
                "date_avant": 13640913
            }
        },
        {
            "type": "genre",
            "value": "Bulle"
        }
    ]
}