{
    "id": 25145,
    "name": "aposcripta-2242",
    "type": "acte",
    "url": "http:\/\/telma-chartes.irht.cnrs.fr\/aposcripta\/notice\/25145",
    "project_slug": "aposcripta",
    "project_label": "APOSCRIPTA \u2013 Lettres des papes",
    "user": "lettrespontificalesadmin",
    "last_update": "2020-10-19 16:27:40",
    "licence": "Attribution - Pas d\u2019Utilisation Commerciale - Partage dans les M\u00eames Conditions 3.0 France (CC BY-NC-SA 3.0 FR) ",
    "licence_url": "https:\/\/creativecommons.org\/licenses\/by-nc-sa\/3.0\/fr\/",
    "elements": [
        {
            "type": "pape",
            "value": "L\u00e9on VII (936-939)"
        },
        {
            "type": "destinataire",
            "value": "Cluny (Saint-Pierre et Saint-Paul) (Odo abbaye de)",
            "children": {
                "numero_note": "0"
            }
        },
        {
            "type": "date_lieu",
            "value": "n.c."
        },
        {
            "type": "date_libre",
            "value": "937"
        },
        {
            "type": "date",
            "value": "apres 937 - avant 937",
            "children": {
                "date_deb_annee": "937",
                "date_deb_type": "apres",
                "date_fin_annee": "937",
                "date_fin_type": "avant"
            },
            "range": {
                "date_apres": 9370000,
                "date_avant": 9379999
            }
        },
        {
            "type": "analyse",
            "value": "Le pape L\u00e9on VII confirme \u00e0 l'abb\u00e9 Odo et \u00e0 l'abbaye de Cluny les donations faites concernant un courtil appel\u00e9 Caviniae, au comt\u00e9 de M\u00e2con.<br\/>PRIVILEGIUM EJUSDEM PAP\u00c6, QUO CONFIRMAT ODONI, ABBATI CLUNIACENSI, CURTEM NOMINE ESCUTIOLAM. [PRIVILEGIUM PRO EODEM MONASTERIO. (Anno 937.) S. Odoni abbati Cluniacensi et successoribus ejus Savinias curtem asserit.] PRIVILEGIUM LEONIS PAP\u00c6 VII. ad sanctum Odonem de Escutiolis."
        },
        {
            "type": "transcription",
            "value": "<?xml version=\"1.0\" encoding=\"UTF-8\"?>\n[Leo Episcopus, servus servorum Dei, Odoni venerabili Abbati Cluniensis Monasterii, suisque successoribus in perpetuum.  Desiderium quod religioso proposito et Sanctorum locorum stabilitati pertinere monstratur, sine aliqua est, Deo auctore, dilatione perficiendum. Et quotiens in quibusdam ejus utilitatibus commodisve noster assensus, et solitum Apostolic\u00e6 auctoritatis exposcitur pr\u00e6sidium, ultr\u00f2 benignitatis intuitu nos convenit subvenire, et ratum pro integra securitate ex ratione solidare, ut ex hoc et ipsius venerabilis loci salus et indemnitas procuretur, et nobis quoque lucri potissimum pr\u0153mium \u00e0 Conditore omnium Deo in sydereis arcibus pr\u00e6scribatur. Igitur quia postulavit \u00e0 nobis tua Reverentia quatenus confirmaremus tibi tuoque Monasterio Curtem nomine Escutiolam cum Ecclesiis, cassis, terris, campis, pratis, pascuis, silvis, salictis, arboribus pomiferis, fructiferis vel infructiferis diversi generis, puteis, fontibus, rivis aqu\u00e6 perennis, ac cunctis adjacentibus suis cultis vel incultis, un\u00e0 cum famulis masculis et f\u0153minis ibidem vel ubique residentibus, cum omnibus ad ipsam Curtem generaliter et in integro pertinentibus sitam in Comitatu Matisconensi vel Eduensi, quam vir bonus Gaufredus Comes t\u00e0m pro redemptione anim\u00e6 su\u00e6, qu\u00e0m parentum suorum per cartul\u00e6 seriem donavit pr\u00e6dicto Monasterio: nos ver\u00f2 inclinati tuis precibus, qui vicem Apostolicam retinemus, et quibus cura est omnium Ecclesiarum commissa, maxim\u00e8 istius Monasterii, quod juri sanct\u00e6 Roman\u00e6 atque Apostolic\u00e6 Ecclesi\u00e6 nobisque subjectum est, ita confirmamus sicut supradictus Gaufredus Comes per Cartul\u00e6 seriem supradicto Monasterio donavit: ut nullus homo parvus magnusve, vel cujuscumque dignitatis audeat, vel pr\u00e6sumat contra hoc nostrum privilegium in supradicta Curte, vel in aliis rebus ad ipsam Curtem pertinentibus, invasionem, vel molestiam, aut inquietudinem facere: sed ab ista pr\u00e6senti decima indictione, ips\u00e6 res per nostram Apostolicam auctoritatem secur\u00e8 et quiet\u00e8 perpetualiter in eodem Monasterio permaneant. Pro quo etiam sub divini judicii obtestatione promulgantes decernimus, ut nullo ingenio aut argumento auferre audeant; potius autem jure perpetuo in eodem venerabili Monasterio, ut superius affixum est, proficiant, et in potestate atque ditione Odonis Abbatis; vel omnium successorum suorum Abbatum seu Monachorum ibidem Deo servientium permaneant disponenda atque possidenda. Si quis autem temerario ausu contra hujus nostr\u00e6 Apostolic\u00e6 pr\u00e6ceptionis seriem \u00e0 nobis promulgatam venire vel agere tentaverit, sciat se Domini nostri Apostolorum Principis Petri anathematis vinculo innodatum, et cum diabolo et ejus atrocissimis pompis, atque cum Juda traditore Domini Dei et Salvatoris nostri Jesu Christi in \u00e6ternum ignem concremandum, simulque et in voraginem tartareumque chaos demersus cum impiis deficiat. Qui ver\u00f2 pio intuitu custodes, et obedientes, atque observantes hujus nostr\u00e6 salutifer\u00e6 pr\u00e6ceptionis extiterint, benedictionis gratiam, et c\u00e6lestis retributionis \u00e6terna gaudia \u00e0 justo Judice Domino Deo nostro consequi mereantur.]\n"
        },
        {
            "type": "edition",
            "value": "Ici tir\u00e9e du projet <i>CBMA - Corpus Burgundiae Medii Aevi<\/i>, document 1892. Site du projet Corpus de la Bourgogne du Moyen \u00c2ge, [En ligne] <a href=\"http:\/\/www.cbma-project.eu\" target=\"_blank\">http:\/\/www.cbma-project.eu<\/a>  "
        },
        {
            "type": "sources_manuscrites",
            "value": "\u00e0 renseigner."
        },
        {
            "type": "remarques",
            "value": "\r\n\r\nIndications dans l'\u00e9dition des Chartes de Cluny quand Bernard et Bruel n'ont pas repris le texte : Leo, etc. (Bull. Clun: p.\u00a03, col.\u00a01.).(C.\u00a014.)"
        },
        {
            "type": "edition_autre",
            "value": "Ici reprise de Auguste Bernard, Alexandre Bruel, <i>Recueil des chartes de l'abbaye de Cluny<\/i>. I. <i>802-954<\/i>, Paris\u00a0: Imprimerie nationale, 1876 <a href=\"http:\/\/gallica.bnf.fr\/ark:\/12148\/bpt6k28908j?rk=85837;2\" target=\"_blank\">[en ligne]<\/a>, p. 464, n\u00b0 479. MIGNE, Patrologia Latina, Volumen 132 : Col 1068. Bibliotheca Cluniacensis, pag. 3.",
            "children": {
                "numero_note": "0"
            }
        },
        {
            "type": "edition_autre",
            "value": "Pierre Simon, <i>Bullarium sacri Ordinis cluniacensis, complectens plurima privilegia per summos pontifices tum ipsi cluniacensi abbatiae, tum ei subditis monasteriis hactenus concessa<\/i>, Lyon : Jullieron, 1680, p. 3, col. 1-2",
            "children": {
                "numero_note": "1"
            }
        },
        {
            "type": "genre",
            "value": "Bulle"
        }
    ]
}