{
    "id": 20513,
    "name": "aposcripta-500",
    "type": "acte",
    "url": "http:\/\/telma-chartes.irht.cnrs.fr\/aposcripta\/notice\/20513",
    "project_slug": "aposcripta",
    "project_label": "APOSCRIPTA \u2013 Lettres des papes",
    "user": "lettrespontificalesadmin",
    "last_update": "2020-10-19 16:26:50",
    "licence": "Attribution - Pas d\u2019Utilisation Commerciale - Partage dans les M\u00eames Conditions 3.0 France (CC BY-NC-SA 3.0 FR) ",
    "licence_url": "https:\/\/creativecommons.org\/licenses\/by-nc-sa\/3.0\/fr\/",
    "elements": [
        {
            "type": "pape",
            "value": "G\u00e9lase I (492-496)"
        },
        {
            "type": "analyse",
            "value": "Gelasius\u00a0I Iohannis, Bassi et Alexandri episcoporum curae Antoninam viduam commendat<a class=\"note\" href=\"#note-1\">1<\/a>."
        },
        {
            "type": "transcription",
            "value": "<?xml version=\"1.0\" encoding=\"UTF-8\"?>\nGelasius papa Iohanni, Bassoa et Alexandro episcopis.2 Missis presentibus litteris dilectioni vestrae instanter iniungimus, ut Antoninamb maritali solatio destitutam quanta potest dilectio vestra tuicione curaque defendat, et ab omnibus secura reddatur insidiis, atque in proposito, quo fidem servare marito desiderat, solatiis conpetentibus efficiat permanere\u00a0; quia specialiter ad vestram tuitionem eam permanere noveritis, et nichil magis convenit officio sacerdotis quam viduae inferre subsidium.\n"
        },
        {
            "type": "edition",
            "value": "Ici reprise de Samuel Loewenfeld, <i>Epistolae pontificum romanorum ineditae<\/i>, Leipzig : Veit et Comp., 1885, n. 1, p. 1."
        },
        {
            "type": "sources_manuscrites",
            "value": "Coll. Brit. Gel. ep.\u00a01, in cod. Mus. Brit. Addit.\u00a08873 s.\u00a0<span class=\"smal-caps\">xii<\/span> in. fol.\u00a09.",
            "children": {
                "type_source": "Collection canonique, collection de d\u00e9cr\u00e9tales"
            }
        },
        {
            "type": "notes_historiques",
            "value": "Cf. Jaff\u00e9 ed. sec.\u00a0629.",
            "children": {
                "numero_note": "1"
            }
        },
        {
            "type": "notes_historiques",
            "value": "De his vide Ewald in <i>Neues Archiv<\/i>, V, 509, n.\u00a02.",
            "children": {
                "numero_note": "2"
            }
        },
        {
            "type": "apparat_critique",
            "value": "Baso <i>c.<\/i>",
            "children": {
                "numero_note": "a"
            }
        },
        {
            "type": "apparat_critique",
            "value": "Annoninam <i>c.<\/i>",
            "children": {
                "numero_note": "b"
            }
        },
        {
            "type": "date",
            "value": "apr\u00e8s 0493\/09 - avant 0494\/01",
            "children": {
                "date_deb_annee": "0493",
                "date_deb_mois": "09",
                "date_deb_type": "apres",
                "date_fin_annee": "0494",
                "date_fin_mois": "01",
                "date_fin_type": "avant"
            },
            "range": {
                "date_apres": 4930900,
                "date_avant": 4940199
            }
        },
        {
            "type": "genre",
            "value": "Lettre, g\u00e9n\u00e9ral (avant 1198)"
        },
        {
            "type": "destinataire",
            "value": "Les \u00e9v\u00eaques Jean, Bassus et Alexandre"
        }
    ]
}