{
    "id": 24228,
    "name": "aposcripta-1379",
    "type": "acte",
    "url": "http:\/\/telma-chartes.irht.cnrs.fr\/aposcripta\/notice\/24228",
    "project_slug": "aposcripta",
    "project_label": "APOSCRIPTA \u2013 Lettres des papes",
    "user": "lettrespontificalesadmin",
    "last_update": "2020-10-19 16:27:26",
    "licence": "Attribution - Pas d\u2019Utilisation Commerciale - Partage dans les M\u00eames Conditions 3.0 France (CC BY-NC-SA 3.0 FR) ",
    "licence_url": "https:\/\/creativecommons.org\/licenses\/by-nc-sa\/3.0\/fr\/",
    "elements": [
        {
            "type": "pape",
            "value": "Innocent III (1198-1216)"
        },
        {
            "type": "date_lieu",
            "value": "n.c."
        },
        {
            "type": "date_libre",
            "value": "19\u00a0janvier 1213"
        },
        {
            "type": "date",
            "value": " 1213\/01\/19",
            "children": {
                "date_deb_annee": "1213",
                "date_deb_mois": "01",
                "date_deb_jour": "19"
            },
            "range": {
                "date_apres": 12130119,
                "date_avant": 12130119
            }
        },
        {
            "type": "analyse",
            "value": "Innocent\u00a0III notifie \u00e0 Pierre la sentence qu\u2019il a port\u00e9e en faveur de la validit\u00e9 de son mariage avec Marie."
        },
        {
            "type": "transcription",
            "value": "<?xml version=\"1.0\" encoding=\"UTF-8\"?>\nNovit ille qui est testis in c\u00e6lo fidelisa, etc., usque ad hec verba in nostris sibi fuisset litteris reservatum. Monemus igitur serenitatem tuam, rogamus et obsecramus in Domino, celsitudini tu\u00e6 nihilominus ex animo consulentes, quatenus non moleste sustinens nec admirans quod tibi non detulimus contra Deum, sed potius cogitans quod non tam tu\u00e6 curavimus voluntati consulere quam saluti, ac ideo nostris acquiescens consiliis, qu\u00e6 tibi semper utilia exstiterunt, reginam eamdem in plenitudinem grati\u00e6 regalis admissam benigne recipias, et maritali affectione pertractes, pr\u00e6sertim cum filium susceperis ex eadem, et sit mulier Deum timens, multa pr\u00e6dita honestate. Unde pro certo speramus multa ex ipsius consortio, maxime si ad Deum respectum habens, ipsam sicut reginam honorifice ac decenter tractaveris, serenitati tu\u00e6 commoda proventura, cum vir etiam infidelis per fidelem mulierem salvetur, Apostolo attestante\u00a0; alioquin nec tu videreris a principio mot\u00e6 litis tuam, prout asserebas, voluisse sanare conscientiam, sed potius sauciare\u00a0; nec nos, quantumcumque tu\u00e6 deferre sublimitati velimus, quod Deus conjunxit humana sustineremus pr\u00e6sumptione sejungi. Denique noveris nos venerabilibus fratribus nostris Carcassonensi, Avenionensi, et Aurasicensi episcopis per nostras dedisse litteras in mandatis ut si nostrum super hoc, quod non credimus, neglexeris adimplere mandatum, ipsi te ad id per censuram ecclesiasticam, sublato appellationis impedimento, compellant.Datum Laterani, xiv kalendas februarii, pontificatus nostri anno decimo quinto.\n"
        },
        {
            "type": "edition",
            "value": "Julien Rouquette, Augustin Villemagne, <i>Bullaire de l'\u00c9glise de Maguelone<\/i>, Paris, Montpellier : Picard, Valat, 1911-1914, I, n. 191, p. 345-345"
        },
        {
            "type": "remarques",
            "value": ""
        },
        {
            "type": "apparat_critique",
            "value": "Nous avons jug\u00e9 inutile de reproduire dans les bulles N<sup>os<\/sup>\u00a0191 et 192 les parties communes qu\u2019elles ont avec la bulle N\u00b0\u00a0190. Nous reproduisons seulement les textes que nous avons trouv\u00e9s dans <span class=\"small-caps\">Baluze<\/span> et dans <span class=\"small-caps\">Migne<\/span>. Pour la bibliographie voir N\u00b0\u00a0190.",
            "children": {
                "numero_note": "a"
            }
        },
        {
            "type": "bibliographie_generale",
            "value": "Voir la Bulle pr\u00e9c\u00e9dente.",
            "children": {
                "numero_note": "0"
            }
        },
        {
            "type": "genre",
            "value": "Bulle"
        }
    ]
}