{
    "id": 148207,
    "name": "aposcripta-7823",
    "type": "acte",
    "url": "http:\/\/telma-chartes.irht.cnrs.fr\/aposcripta\/notice\/148207",
    "project_slug": "aposcripta",
    "project_label": "APOSCRIPTA \u2013 Lettres des papes",
    "user": "l_valliere",
    "last_update": "2020-10-19 16:39:42",
    "licence": "Attribution - Pas d\u2019Utilisation Commerciale - Partage dans les M\u00eames Conditions 3.0 France (CC BY-NC-SA 3.0 FR) ",
    "licence_url": "https:\/\/creativecommons.org\/licenses\/by-nc-sa\/3.0\/fr\/",
    "elements": [
        {
            "type": "pape",
            "value": "Cl\u00e9ment IV (1265-1268)"
        },
        {
            "type": "destinataire",
            "value": "Le chanoine de Sens ma\u00eetre G\u00e9rard de <i>Rampilione<\/i>"
        },
        {
            "type": "date_libre",
            "value": "VII idus junii, anno quarto"
        },
        {
            "type": "date",
            "value": "1268\/06\/07",
            "children": {
                "date_deb_annee": "1268",
                "date_deb_mois": "06",
                "date_deb_jour": "07"
            },
            "range": {
                "date_apres": 12680607,
                "date_avant": 12680607
            }
        },
        {
            "type": "date_lieu",
            "value": "Viterbe"
        },
        {
            "type": "genre",
            "value": "Mandement (littere cum filo canapis)"
        },
        {
            "type": "analyse",
            "value": "Mandat ei, ne archidiaconatus Senonensis possessionem, clam vel palam, recipiat vel attingat, donec se personaliter apostolico conspectui presentaverit [Jordan].\nClemens IV. an Gerardus de Rampilione, Kanoniker von Sens: verbietet ihm, den Archidiakonat von Sens in Besitz zu nehmen, bevor er pers\u00f6nlich an der Kurie vorstellig geworden sei [Thumser]."
        },
        {
            "type": "sources_manuscrites",
            "value": "R<sup>1<\/sup>. CIT\u00c9 DU VATICAN, Archivio segreto Vaticano, <i>Registra Vaticana<\/i> 30, fol. 82v.",
            "children": {
                "type_source": "Formulaire, collection de lettres m\u00e9di\u00e9vale"
            }
        },
        {
            "type": "sources_manuscrites",
            "value": "R<sup>2<\/sup>. CIT\u00c9 DU VATICAN, Archivio segreto Vaticano, <i>Registra Vaticana<\/i> 33, ep. 503, fol. 81.",
            "children": {
                "type_source": "Formulaire, collection de lettres m\u00e9di\u00e9vale"
            }
        },
        {
            "type": "sources_manuscrites",
            "value": "R<sup>3<\/sup>. CIT\u00c9 DU VATICAN, Archivio segreto Vaticano, <i>Registra Vaticana<\/i> 34, fol. 126v.",
            "children": {
                "type_source": "Formulaire, collection de lettres m\u00e9di\u00e9vale"
            }
        },
        {
            "type": "sources_manuscrites",
            "value": "R<sup>4<\/sup>. CIT\u00c9 DU VATICAN, Archivio segreto Vaticano, <i>Registra Vaticana<\/i> 35, ep. 510, fol. 92v.",
            "children": {
                "type_source": "Formulaire, collection de lettres m\u00e9di\u00e9vale"
            }
        },
        {
            "type": "edition",
            "value": "Ici reprise de Mathias Thumser, <i>Die Briefe Papst Clemens\u2019 IV. (1265-1268)<\/i>, Vorl\u00e4ufige Edition, MGH, 2015, n. 511."
        },
        {
            "type": "regeste",
            "value": "Potthast, <i>Regesta pontificum Romanorum<\/i>, n. 20388 <a target=\"_blank\" href=\"https:\/\/archive.org\/stream\/RegestaPontificumRomanorum\/ph#page\/n1655\/mode\/2up\"> [en ligne]<\/a>."
        },
        {
            "type": "bibliographie_generale",
            "value": "Mathias Thumser, \u00ab Zur \u00dcberlieferungsgeschichte der Briefe Clemens'IV. (1265-1268) \u00bb, <i>Deutsches Archiv f\u00fcr Erforschung des Mittelalters<\/i>, 51\/1, 1995, p. 115-168."
        },
        {
            "type": "transcription",
            "value": "<?xml version=\"1.0\" encoding=\"UTF-8\"?>\nDilecto filio magistro Gerardo de Ramplion canonico Senonensi. Cum archidiaconatus maior Senonensis ecclesie in curia nostra vacaverit venerabili fratre nostro P[etro] Senonensi archidiacono in Senonensem archiepiscopum consecrato, in quo, prout audivimus, ius asseris te habere, per apostolica tibi scripta in virtute obedientie districte precipiendo mandamus quatenus possessionem eiusdem vel aliquid pertinens ad eundem per te vel alium clam vel palam nec recipias nec attingas nec te de ipso aliquatenus intromittas, donec te nostro conspectui personaliter presentaveris tuam nobis iustitiam ostensurus. Quod si secus egeris, ipso facto sententiam excommunicationis incurras et privatus omnibus ecclesiasticis beneficiis inhabilis nichilominus maneas ad habenda. Si vero possessionem eiusdem es nactus, sub eadem forma tibi precipimus, quod dimittas, et, nisi feceris, eisdem sententia excommunicationis et penis aliis maneas involutus. Datum ut supra.\n"
        },
        {
            "type": "edition_autre",
            "value": "Edmond Mart\u00e8ne, Ursin Durand, <i>Thesaurus novus anecdotorum<\/i>, Paris, 1717, II, n. 660, col. 608 <a target=\"_blank\" href=\"https:\/\/archive.org\/stream\/ThesaurusNovusAnecdotorum2\/Thesaurus_novus_anecdotorum_2#page\/n339\/mode\/2up\"> [en ligne]<\/a>."
        },
        {
            "type": "regeste",
            "value": "\u00c9douard Jordan, <i>Les registres de Cl\u00e9ment IV (1265-1268)<\/i>, Paris, 1893-1945, n. 1380, d\u2019apr\u00e8s R<sup>1<\/sup>, R<sup>2<\/sup>, R<sup>3<\/sup> et R<sup>4<\/sup>."
        }
    ]
}