{
    "id": 147269,
    "name": "aposcripta-6896",
    "type": "acte",
    "url": "http:\/\/telma-chartes.irht.cnrs.fr\/aposcripta\/notice\/147269",
    "project_slug": "aposcripta",
    "project_label": "APOSCRIPTA \u2013 Lettres des papes",
    "user": "l_valliere",
    "last_update": "2020-10-19 16:39:28",
    "licence": "Attribution - Pas d\u2019Utilisation Commerciale - Partage dans les M\u00eames Conditions 3.0 France (CC BY-NC-SA 3.0 FR) ",
    "licence_url": "https:\/\/creativecommons.org\/licenses\/by-nc-sa\/3.0\/fr\/",
    "elements": [
        {
            "type": "pape",
            "value": "Cl\u00e9ment IV (1265-1268)"
        },
        {
            "type": "destinataire",
            "value": "Le cardinal-pr\u00eatre du titre de San Martino Simone, recteur du duch\u00e9 de Spol\u00e8te et de la marche d'Anc\u00f4ne, l\u00e9gat du Si\u00e8ge apostolique"
        },
        {
            "type": "date_libre",
            "value": "n.c."
        },
        {
            "type": "date",
            "value": "apres 1265\/08\/11 - avant 1265\/08\/13",
            "children": {
                "date_deb_annee": "1265",
                "date_deb_mois": "08",
                "date_deb_jour": "11",
                "date_deb_type": "apres",
                "date_fin_annee": "1265",
                "date_fin_mois": "08",
                "date_fin_jour": "13",
                "date_fin_type": "avant"
            },
            "range": {
                "date_apres": 12650811,
                "date_avant": 12650813
            }
        },
        {
            "type": "date_lieu",
            "value": "n.c."
        },
        {
            "type": "genre",
            "value": "Lettre, g\u00e9n\u00e9ral (apr\u00e8s 1198, littere cum filo canapis)"
        },
        {
            "type": "analyse",
            "value": "S[imoni] tit. S. Martini presb. card. ducatus Spoleti et marchiae Anconitanae rectori apostolicae Sedis legato scribit, se nullum ei posse mittere subsidium: \u00ab quod si credis nos fontem habere pecuniae, qui quasi semper scaturiens nequeat exhauriri, falleris \u00bb [Potthast].\nClemens IV. an S(imone Paltinieri,) Kardinalpriester von San Martino, Rektor des Herzogtums Spoleto und der Mark Ancona, apostolischer Legat: schl\u00e4gt seine Bitte um finanzielle Hilfe aus [Thumser]."
        },
        {
            "type": "edition",
            "value": "Ici reprise de Mathias Thumser, <i>Die Briefe Papst Clemens\u2019 IV. (1265-1268)<\/i>, Vorl\u00e4ufige Edition, MGH, 2015, n. 82."
        },
        {
            "type": "regeste",
            "value": "Potthast, <i>Regesta pontificum Romanorum<\/i>, n. 19309 <a target=\"_blank\" href=\" http:\/\/opacplus.bsb-muenchen.de\/title\/BV004241514\/ft\/bsb11316018?page=628\"> [en ligne]<\/a>."
        },
        {
            "type": "transcription",
            "value": "<?xml version=\"1.0\" encoding=\"UTF-8\"?>\nDilecto filio S[imoni] tituli sancti Martini presbytero cardinali, ducatus Spoleti et Marchie Anchonitate rectori, apostolice Sedis legato. Litteras tuas vidimus continentes quod totam illam pecuniam quam ex visceribus nostre paupertatis avulsimus, in stipendia militum iam disperseras, quam tamen te credidimus sic suis dispensaturum temporibus, ut eo posset negotio subvenire commodius, quo in tempus et tempora foret consultius distributa. Sane, si redimere potest temporis brevitas, quod expectata prolixitas effecisset, hoc ipsum gratanter accipimus quod si credis fontem nos habere pecunie qui quasi semper scaturiens nequeat exhauriri, falleris, fili carissime, cum nec manus se offerant largientium nec nos extorsionibus intendamus. Exnunc igitur scire te volumus et secreto tenere, quod, nisi sibi Marchia ipsa providerit, a nobis auxilium in pecunia vel militibus non habebit, suisque singulos relinquemus arbitriis ut, si fideles esse voluerint, stent pro fide. Si vero facilitate solita fieri forte voluerint infideles, tempora prestolabimur, quibus eos possimus conterere vel successoribus reservabimus conterendos. Frustra igitur nobis scribes postulaturus subsidium, frustra consummationem negotii polliceberis, cuius diu iam fuimus expectatione decepti, frustra mensis vel mensium terminus proponetur in quibus nullam invenimus veritatem. Litus enim aravimus1 et aramus ; et fructus terre sterilis nolumus amplius expectare. Ceterum, si in terra potes ordinare militiam, sicut in alia littera tibi scribimus, qua terra defendi valeat et hostilis malitia profugari, tunc laudare poterimus Marchianos, qui tot sumptibus inutilibus nos et predecessores nostros hactenus pregravarunt.\n"
        },
        {
            "type": "sources_manuscrites",
            "value": "R<sup>1<\/sup>. CIT\u00c9 DU VATICAN, Archivio segreto Vaticano, <i>Registra Vaticana<\/i> 30, fol. 14 (<i>Dat. ut supra<\/i>).",
            "children": {
                "type_source": "Formulaire, collection de lettres m\u00e9di\u00e9vale"
            }
        },
        {
            "type": "sources_manuscrites",
            "value": "R<sup>2<\/sup>. CIT\u00c9 DU VATICAN, Archivio segreto Vaticano, <i>Registra Vaticana<\/i> 33, ep. 79, fol. 16 (sans date).",
            "children": {
                "type_source": "Formulaire, collection de lettres m\u00e9di\u00e9vale"
            }
        },
        {
            "type": "sources_manuscrites",
            "value": "R<sup>3<\/sup>. CIT\u00c9 DU VATICAN, Archivio segreto Vaticano, <i>Registra Vaticana<\/i> 34, fol. 20 (sans date).",
            "children": {
                "type_source": "Formulaire, collection de lettres m\u00e9di\u00e9vale"
            }
        },
        {
            "type": "sources_manuscrites",
            "value": "R<sup>4<\/sup>. CIT\u00c9 DU VATICAN, Archivio segreto Vaticano, <i>Registra Vaticana<\/i> 35, ep. 81, fol. 16v (<i>Dat Perusii etc.<\/i>).",
            "children": {
                "type_source": "Formulaire, collection de lettres m\u00e9di\u00e9vale"
            }
        },
        {
            "type": "edition_autre",
            "value": "Edmond Mart\u00e8ne, Ursin Durand, <i>Thesaurus novus anecdotorum<\/i>, Paris, 1717, II, col. 182, n. 125 <a target=\"_blank\" href=\"https:\/\/archive.org\/stream\/ThesaurusNovusAnecdotorum2\/Thesaurus_novus_anecdotorum_2#page\/n125\/mode\/2up\"> [en ligne]<\/a>."
        },
        {
            "type": "regeste",
            "value": "\u00c9douard Jordan, <i>Les registres de Cl\u00e9ment IV (1265-1268)<\/i>, Paris, 1893-1945, n. 951, d\u2019apr\u00e8s R<sup>1<\/sup>, R<sup>2<\/sup>, R<sup>3<\/sup> et R<sup>4<\/sup>."
        },
        {
            "type": "bibliographie_generale",
            "value": "Mathias Thumser, \u00ab Zur \u00dcberlieferungsgeschichte der Briefe Clemens'IV. (1265-1268) \u00bb, <i>Deutsches Archiv f\u00fcr Erforschung des Mittelalters<\/i>, 51\/1, 1995, p. 115-168."
        },
        {
            "type": "notes_historiques",
            "value": "Ov. epist. 5,116.",
            "children": {
                "numero_note": "1"
            }
        }
    ]
}