{
    "id": 24590,
    "name": "aposcripta-1741",
    "type": "acte",
    "url": "http:\/\/telma-chartes.irht.cnrs.fr\/aposcripta\/notice\/24590",
    "project_slug": "aposcripta",
    "project_label": "APOSCRIPTA \u2013 Lettres des papes",
    "user": "lettrespontificalesadmin",
    "last_update": "2020-10-19 16:27:32",
    "licence": "Attribution - Pas d\u2019Utilisation Commerciale - Partage dans les M\u00eames Conditions 3.0 France (CC BY-NC-SA 3.0 FR) ",
    "licence_url": "https:\/\/creativecommons.org\/licenses\/by-nc-sa\/3.0\/fr\/",
    "elements": [
        {
            "type": "pape",
            "value": "Gr\u00e9goire IX (1227-1241)"
        },
        {
            "type": "date_lieu",
            "value": "n.c."
        },
        {
            "type": "date_libre",
            "value": "kalendas decembris, anno tertiodecimo"
        },
        {
            "type": "date",
            "value": " 1239\/12\/01",
            "children": {
                "date_deb_annee": "1239",
                "date_deb_mois": "12",
                "date_deb_jour": "01"
            },
            "range": {
                "date_apres": 12391201,
                "date_avant": 12391201
            }
        },
        {
            "type": "analyse",
            "value": "Gr\u00e9goire\u00a0IX confirme la d\u00e9cision prise par Jean de Montlaur\u00a0II de faire observer, dans son dioc\u00e8se, certains statuts promulgu\u00e9s autrefois par les l\u00e9gats et l\u2019archev\u00eaque de Narbonne."
        },
        {
            "type": "transcription",
            "value": "<?xml version=\"1.0\" encoding=\"UTF-8\"?>\nEpiscopo Magalonensi.Cum sicut accepimus.Dat. Laterani, kalendis decembris, pontificatus nostri anno tertiodecimo.\n"
        },
        {
            "type": "edition",
            "value": "Ici reprise de Julien Rouquette, Augustin Villemagne, <i>Bullaire de l'\u00c9glise de Maguelone<\/i>, Paris, Montpellier : Picard, Valat, 1911-1914, II, n. 577-374a, p. 508."
        },
        {
            "type": "remarques",
            "value": "Voici le r\u00e9sum\u00e9 donn\u00e9 par <span class=\"small-caps\">M.L. Auvray<\/span>\u00a0:\n\nEpiscopo Magalonensi scribit\u00a0: \u00ab\u00a0Cum, sicut accepimus, venerabilis frater noster, R[omanus], Portuensis episcopus, bone memorie magister Milo, notarius felicis recordationis I[nnocentii\u00a0III] pape, predecessoris nostri, et alii qui functi sunt in Provincia Apostolice legationis officio, ac etiam venerabilis frater noster archiepiscopus Narbonensis, loci metropolitanus, in provinciali concilio pro conservatione pacis et fidei ac ecclesiastice libertatis, statuta quedam ediderint salubria et honesta\u00a0: volentes ut ea debitam obtineant firmitatem, presentium tibi auctoritate mandamus, quatenus statuta ipsa in diocesi tua a dominis, balivis, consulibus, et universitatibus castrorum ipsius facias inviolabiliter observari.\u00a0\u00bb\n\n[Rouquette-Villemagne]"
        },
        {
            "type": "bibliographie_generale",
            "value": "<span class=\"small-caps\">L. Auvray<\/span>, <i>Registres de Gr\u00e9goire\u00a0IX<\/i>, Fasc.\u00a0XI, col.\u00a0142.",
            "children": {
                "numero_note": "0"
            }
        },
        {
            "type": "genre",
            "value": "Mandement (littere cum filo canapis)"
        }
    ]
}