{
    "id": 147116,
    "name": "aposcripta-6743",
    "type": "acte",
    "url": "http:\/\/telma-chartes.irht.cnrs.fr\/aposcripta\/notice\/147116",
    "project_slug": "aposcripta",
    "project_label": "APOSCRIPTA \u2013 Lettres des papes",
    "user": "v_sentis",
    "last_update": "2020-10-19 16:39:26",
    "licence": "Attribution - Pas d\u2019Utilisation Commerciale - Partage dans les M\u00eames Conditions 3.0 France (CC BY-NC-SA 3.0 FR) ",
    "licence_url": "https:\/\/creativecommons.org\/licenses\/by-nc-sa\/3.0\/fr\/",
    "elements": [
        {
            "type": "pape",
            "value": "Jean XXII (1316-1334)"
        },
        {
            "type": "destinataire",
            "value": "Le roi de Chypre Henri"
        },
        {
            "type": "date_libre",
            "value": "VI kalendas aprilis anno octavo"
        },
        {
            "type": "date",
            "value": "1324\/03\/27",
            "children": {
                "date_deb_jour": "27",
                "date_deb_mois": "03",
                "date_deb_annee": "1324"
            },
            "range": {
                "date_apres": 13240327,
                "date_avant": 13240327
            }
        },
        {
            "type": "date_lieu",
            "value": "Avignon"
        },
        {
            "type": "genre",
            "value": "Lettre, g\u00e9n\u00e9ral (apr\u00e8s 1198, littere cum filo canapis)"
        },
        {
            "type": "analyse",
            "value": "Le pape recommande \u00e0 la bienveillance du roi de Chypre Amanieu d'Astarac, fils am\u00e9 du comte Bernard, qui devait s\u00e9journer pendant quelque temps dans ce royaume [Gu\u00e9rard].\nHenrico, regi Cypri, Amanevum, Bernardi comitis de Astaraco primogenitum, qui ad partes regni ejusdem regis accedat, ibidem certis ex causis per aliqua tempora moraturum, commendat [Coulon].\n"
        },
        {
            "type": "transcription",
            "value": "<?xml version=\"1.0\" encoding=\"UTF-8\"?>\nCarissimo in Christo filio Henrico, regi Cipri illustri. Cum dilectus filius nobilis vir Amanevus1 dilecti filii nobilis viri Bernardi comitis de Astarraco primogenitus, familiaris noster, ad partes regni tui accedat presentialiter ibidem, certis ex causis, per aliqua tempora moraturus, seque circa regia beneplacita et obsequia partium illarum fidelium promptis et devotis affectibus impensurus, prefatum nobilem regie benivolentie, affectione qua possumus, commendamus, gratum et acceptum plurimum habituri quicquid sibi favoris et gracie regalis sublimitas duxerit impendendum.  Datum Avinione VI kalendas aprilis, anno octavo.\n"
        },
        {
            "type": "sources_manuscrites",
            "value": "R. CIT\u00c9 DU VATICAN,  Archivio segreto Vaticano, <i>Registra Vaticana<\/i> 112, pars secunda, fol. 91, c. 993.",
            "children": {
                "type_source": "Registre de la chancellerie apostolique"
            }
        },
        {
            "type": "edition",
            "value": "Louis Gu\u00e9rard, <i>Documents pontificaux sur la Gascogne d'apr\u00e8s les archives du Vatican. Pontificat de Jean XXII<\/i>, Paris, Auch : Honor\u00e9 Champion, L\u00e9once Cocharaux, 1896-1903, 2 vol. <a target=\"_blank\" href=\" http:\/\/gallica.bnf.fr\/ark:\/12148\/bpt6k208777t.r=documents%20pontificaux%20gascogne%20jean%20gu%C3%A9rard?rk=128756;0\"> [en ligne]<\/a>, t. II, n. 300, p. 126-127."
        },
        {
            "type": "edition_autre",
            "value": "Auguste Coulon, Suzanne Cl\u00e9mencet, <i>Jean XXII : lettres secr\u00e8tes et curiales relatives \u00e0 la France<\/i>, Paris, 1906-1973, n. 2000."
        },
        {
            "type": "notes_historiques",
            "value": "Cf. le n. 289. - Henri de Lusignan, roi de Chypre, \u00e9tait en relations fr\u00e9quentes avec Jean XXII, qui consid\u00e9rait les royaumes de Chypre et d'Arm\u00e9nie comme les boulevards de la chr\u00e9tient\u00e9 en Orient. A ce moment m\u00eame, le royaume de Chypre \u00e9tait plus que jamais menac\u00e9 par les Turcs (RAYNALDI, <i>Annales<\/i>, a. 1323, n. 12-13). ",
            "children": {
                "numero_note": "1"
            }
        }
    ]
}