{
    "id": 147033,
    "name": "aposcripta-6661",
    "type": "acte",
    "url": "http:\/\/telma-chartes.irht.cnrs.fr\/aposcripta\/notice\/147033",
    "project_slug": "aposcripta",
    "project_label": "APOSCRIPTA \u2013 Lettres des papes",
    "user": "l_valliere",
    "last_update": "2020-10-19 16:39:26",
    "licence": "Attribution - Pas d\u2019Utilisation Commerciale - Partage dans les M\u00eames Conditions 3.0 France (CC BY-NC-SA 3.0 FR) ",
    "licence_url": "https:\/\/creativecommons.org\/licenses\/by-nc-sa\/3.0\/fr\/",
    "elements": [
        {
            "type": "pape",
            "value": "Cl\u00e9ment IV (1265-1268)"
        },
        {
            "type": "destinataire",
            "value": "Le roi de Danemark \u00c9ric"
        },
        {
            "type": "date_libre",
            "value": "II idus junii, anno primo"
        },
        {
            "type": "date",
            "value": "1265\/06\/12",
            "children": {
                "date_deb_annee": "1265",
                "date_deb_mois": "06",
                "date_deb_jour": "12"
            },
            "range": {
                "date_apres": 12650612,
                "date_avant": 12650612
            }
        },
        {
            "type": "date_lieu",
            "value": "P\u00e9rouse"
        },
        {
            "type": "genre",
            "value": "Lettre, g\u00e9n\u00e9ral (apr\u00e8s 1198, littere cum filo canapis)"
        },
        {
            "type": "analyse",
            "value": "[Erico] regi Daciae significat, se Guidonem tit. S. Laurentii in Lucina presb. card. destinasse legatum Sedis apostolicae eiusdem regno et rogat, ut favorabilem se impendat. "
        },
        {
            "type": "edition",
            "value": "Holger Frederik R\u00f6rdam, Thomas Skat R\u00f6rdam, <i>Ny kirkehistoriske Samlinger<\/i>, Copenhague, 1864-1866, t. III, n. 38, p. 110."
        },
        {
            "type": "regeste",
            "value": "Potthast, <i>Regesta pontificum Romanorum<\/i>, n. 19191 <a target=\"_blank\" href=\" http:\/\/opacplus.bsb-muenchen.de\/title\/BV004241514\/ft\/bsb11316018?page=620\"> [en ligne]<\/a>."
        },
        {
            "type": "transcription",
            "value": "<?xml version=\"1.0\" encoding=\"UTF-8\"?>\nSummi Regis magisterio...\n"
        },
        {
            "type": "edition_autre",
            "value": "Odorico Raynaldo, <i>Annales ecclesiastici ab anno 1198 ubi Card. Baronius desinit<\/i>, Lucques, 1746-1756, 15 vol., ad a. 1265, \u00a7 53 (sans l'exorde)."
        }
    ]
}