{
    "id": 149788,
    "name": "aposcripta-9351",
    "type": "acte",
    "url": "http:\/\/telma-chartes.irht.cnrs.fr\/aposcripta\/notice\/149788",
    "project_slug": "aposcripta",
    "project_label": "APOSCRIPTA \u2013 Lettres des papes",
    "user": "lettrespontificalesadmin",
    "last_update": "2020-10-19 16:40:04",
    "licence": "Attribution - Pas d\u2019Utilisation Commerciale - Partage dans les M\u00eames Conditions 3.0 France (CC BY-NC-SA 3.0 FR) ",
    "licence_url": "https:\/\/creativecommons.org\/licenses\/by-nc-sa\/3.0\/fr\/",
    "elements": [
        {
            "type": "pape",
            "value": "Urbain IV (1261-1264)"
        },
        {
            "type": "destinataire",
            "value": "Dilecto filio R. Sancti Angeli diacono cardinali"
        },
        {
            "type": "date_libre",
            "value": "IV nonas februarii, anno secundo"
        },
        {
            "type": "date",
            "value": " 1263\/02\/02",
            "children": {
                "date_deb_annee": "1263",
                "date_deb_mois": "02",
                "date_deb_jour": "02"
            },
            "range": {
                "date_apres": 12630202,
                "date_avant": 12630202
            }
        },
        {
            "type": "date_lieu",
            "value": "Urbemveterem"
        },
        {
            "type": "sources_manuscrites",
            "value": "R. CIT\u00c9 DU VATICAN, Archivio Segreto Vaticano, <hi rend=\"italic\">Registra Vaticana<\/hi> ... Urb.\u00a0IV Reg. Vol.\u00a0II [cameralia], f.\u00a050, ep.\u00a03. Epistolam ex Regestis descripsit V. Cl. Meynke.",
            "children": {
                "type_source": "Registre de la chancellerie apostolique"
            }
        },
        {
            "type": "genre",
            "value": "Mandement (littere cum filo canapis)"
        },
        {
            "type": "analyse",
            "value": "Urbanus IV papa R[icardo] S. Angeli diacono cardinali mandat, ut trecentas libras Proveniensium, quas a Velletrensibus pro iniuriis receperit, in reparationem Roccae Larianae convertat [Rodenberg]."
        },
        {
            "type": "transcription",
            "value": "<?xml version=\"1.0\" encoding=\"UTF-8\"?>\nDilecto filio R. Sancti Angeli diacono cardinali.Significavit nobis dilectus filius Oliverius castellanus Rocce Lariane, quod tu iura ecclesie Romane prosequendo viriliter nuper trecentas libras Proveniensium a Velletrensibus recepisti pro quibusdam iniuriis, quas ipsi eiusdem rocce hominibus intulerant in territorio Lariani. Quia vero dicta rocca, muris ipsius ruinam minantibus pre nimia vetustate, reparatione noscitur indigere, sinceritati tue per apostolica scripta mandamus, quatinus pecuniam ipsam prefato castellano pro reparatione rocce predicte facias assignari.Dat. apud Urbemveterem, IIII Nonas Februarii, anno secundo.\n"
        },
        {
            "type": "edition",
            "value": "Ici reprise de Karl Rodenberg, Epistolae s. XIII e regestis pontificum romanorum selectae, III, Berlin : Weidmann (MGH), 1894, n.\u00a0535, p.\u00a0507."
        },
        {
            "type": "edition_autre",
            "value": "?"
        },
        {
            "type": "regeste",
            "value": "?"
        },
        {
            "type": "bibliographie_generale",
            "value": "?"
        },
        {
            "type": "apparat_critique",
            "value": "?",
            "children": {
                "numero_note": "a"
            }
        },
        {
            "type": "apparat_critique",
            "value": "?",
            "children": {
                "numero_note": "b"
            }
        },
        {
            "type": "apparat_critique",
            "value": "?",
            "children": {
                "numero_note": "c"
            }
        },
        {
            "type": "apparat_critique",
            "value": "?",
            "children": {
                "numero_note": "d"
            }
        },
        {
            "type": "apparat_critique",
            "value": "?",
            "children": {
                "numero_note": "e"
            }
        },
        {
            "type": "apparat_critique",
            "value": "?",
            "children": {
                "numero_note": "f"
            }
        },
        {
            "type": "notes_historiques",
            "value": "?",
            "children": {
                "numero_note": "1"
            }
        },
        {
            "type": "notes_historiques",
            "value": "?",
            "children": {
                "numero_note": "2"
            }
        },
        {
            "type": "notes_historiques",
            "value": "?",
            "children": {
                "numero_note": "3"
            }
        }
    ]
}