{
    "id": 24087,
    "name": "aposcripta-1239",
    "type": "acte",
    "url": "http:\/\/telma-chartes.irht.cnrs.fr\/aposcripta\/notice\/24087",
    "project_slug": "aposcripta",
    "project_label": "APOSCRIPTA \u2013 Lettres des papes",
    "user": "lettrespontificalesadmin",
    "last_update": "2020-10-19 16:27:23",
    "licence": "Attribution - Pas d\u2019Utilisation Commerciale - Partage dans les M\u00eames Conditions 3.0 France (CC BY-NC-SA 3.0 FR) ",
    "licence_url": "https:\/\/creativecommons.org\/licenses\/by-nc-sa\/3.0\/fr\/",
    "elements": [
        {
            "type": "pape",
            "value": "Eug\u00e8ne III (1145-1153)"
        },
        {
            "type": "date_lieu",
            "value": "n.c."
        },
        {
            "type": "date_libre",
            "value": "11\u00a0novembre 1146"
        },
        {
            "type": "date",
            "value": " 1146\/11\/11",
            "children": {
                "date_deb_annee": "1146",
                "date_deb_mois": "11",
                "date_deb_jour": "11"
            },
            "range": {
                "date_apres": 11461111,
                "date_avant": 11461111
            }
        },
        {
            "type": "analyse",
            "value": "Eug\u00e8ne\u00a0III \u00e9crit aux \u00e9v\u00eaques de Maguelone et de B\u00e9ziers. Il les engage \u00e0 ne pas augmenter les charges qui p\u00e8sent sur les \u00e9glises d\u00e9pendant du monast\u00e8re d\u2019Aniane, et les prie d\u2019inviter leurs dioc\u00e9sains, qui d\u00e9tiennent des terres de ce monast\u00e8re, \u00e0 se montrer pleins de d\u00e9f\u00e9rence \u00e0 l\u2019\u00e9gard de l\u2019abb\u00e9 et des moines."
        },
        {
            "type": "transcription",
            "value": "<?xml version=\"1.0\" encoding=\"UTF-8\"?>\nEugenius episcopus, servus servorum Dei, venerabilibus fratribus R[aimundo] Magalonensi et B[ermundo] Biterrensi episcopis, salutem et apostolicam benediccionem.Perlatus est clamor ad aures nostras quod ecclesias Anianensis monasterii injuste gravatis, et earuma ministris indebitas exacciones imponitis, atque ab ipsis monachis fide jussoresb exigitis.Quocirca per presencia vobis scripta precipiendo mandamus, quatinus a gravaminibus et exaccionibus indebitis omnino desistatis, et ab ipsis monachis quamdiu exequi justiciam voluerint, fidei jussoresc vel pignora nullatenus exigatis. Nichilominus quoque vobis precipimus, ut parrochianos vestros, qui bona ejusdem monasterii sub nomine feudi detinent, districte commoneatis, ut abbati et monachis debitum impendant obsequium\u00a0; alioquin sciant se sacrilegium committere et periculum eterne dampnacionis incurrere. Vos eciamd pro vestri officii debito usque ad condignam satisfaccionem de ipsis justiciam faciatis.Datume Viterbiif, iii idus novembris.\n"
        },
        {
            "type": "edition",
            "value": "Julien Rouquette, Augustin Villemagne, <i>Bullaire de l'\u00c9glise de Maguelone<\/i>, Paris, Montpellier : Picard, Valat, 1911-1914, I, n. 48-XXIX, p. 71-71"
        },
        {
            "type": "remarques",
            "value": "  Date. \u2014 Les \u00e9diteurs du <i>Cartulaire d\u2019Aniane<\/i> ont donn\u00e9 \u00e0 cette bulle une date fantaisiste\u00a0: 11\u00a0novembre 1145-1152. Pour la fixer exactement, il n\u2019y avait cependant qu\u2019\u00e0 suivre la vie d\u2019Eug\u00e8ne\u00a0III qui, de fin mai \u00e0 fin d\u00e9cembre 1146, ne quitta pas Viterbe. On doit donc la rapporter au 11\u00a0novembre 1146.\n\n[Rouquette-Villemagne]"
        },
        {
            "type": "apparat_critique",
            "value": "Cart. Aniane et \u00e9diteurs\u00a0: <i>eorum<\/i>.",
            "children": {
                "numero_note": "a"
            }
        },
        {
            "type": "apparat_critique",
            "value": "Cart. Aniane\u00a0: <i>fide jussores<\/i>\u00a0; \u00e9diteurs\u00a0: <i>fidejussores<\/i>.",
            "children": {
                "numero_note": "b"
            }
        },
        {
            "type": "apparat_critique",
            "value": "Cart. Aniane\u00a0: <i>fidei jussores<\/i>\u00a0; \u00e9diteurs\u00a0: <i>fideijussores<\/i>.",
            "children": {
                "numero_note": "c"
            }
        },
        {
            "type": "apparat_critique",
            "value": "Cart. Aniane\u00a0: signe <i>et<\/i> surmont\u00e9 d\u2019un trait = <i>etiam<\/i>\u00a0; \u00e9diteurs\u00a0: <i>igitur<\/i>.",
            "children": {
                "numero_note": "d"
            }
        },
        {
            "type": "apparat_critique",
            "value": "Cart. Aniane\u00a0: <i>Dat<\/i> suivi de l\u2019abr\u00e9viation\u00a0; \u00e9diteurs\u00a0: <i>data<\/i>.",
            "children": {
                "numero_note": "e"
            }
        },
        {
            "type": "apparat_critique",
            "value": "Cart. Aniane\u00a0: <i>Viterbi<\/i>\u00a0; \u00e9diteurs\u00a0: <i>Viterbii<\/i>.",
            "children": {
                "numero_note": "f"
            }
        },
        {
            "type": "bibliographie_generale",
            "value": "<i>Cart. d\u2019Aniane<\/i>, fol.\u00a039\u00a0v\u00b0\u00a0; \u00e9dit., p.\u00a0112",
            "children": {
                "numero_note": "0"
            }
        },
        {
            "type": "bibliographie_generale",
            "value": "Bibl. nat., lat.\u00a012760, fol.\u00a0326, et lat.\u00a013816, fol.\u00a078 (fragment)",
            "children": {
                "numero_note": "1"
            }
        },
        {
            "type": "bibliographie_generale",
            "value": "<span class=\"small-caps\">Loewenfeld<\/span>, <i>Epistol\u00e6<\/i>, p.\u00a0102",
            "children": {
                "numero_note": "2"
            }
        },
        {
            "type": "bibliographie_generale",
            "value": "<span class=\"small-caps\">Jaff\u00e9<\/span> et <span class=\"small-caps\">Wattenbach<\/span>, n\u00b0\u00a08955.",
            "children": {
                "numero_note": "3"
            }
        },
        {
            "type": "genre",
            "value": "Bulle"
        }
    ]
}