{
    "id": 26268,
    "name": "aposcripta-3347",
    "type": "acte",
    "url": "http:\/\/telma-chartes.irht.cnrs.fr\/aposcripta\/notice\/26268",
    "project_slug": "aposcripta",
    "project_label": "APOSCRIPTA \u2013 Lettres des papes",
    "user": "lettrespontificalesadmin",
    "last_update": "2020-10-19 16:27:57",
    "licence": "Attribution - Pas d\u2019Utilisation Commerciale - Partage dans les M\u00eames Conditions 3.0 France (CC BY-NC-SA 3.0 FR) ",
    "licence_url": "https:\/\/creativecommons.org\/licenses\/by-nc-sa\/3.0\/fr\/",
    "elements": [
        {
            "type": "pape",
            "value": "Innocent II (1130-1143)"
        },
        {
            "type": "date_lieu",
            "value": "Palatin zu Rom"
        },
        {
            "type": "date_libre",
            "value": "1130 Februar 14\u2013c 22"
        },
        {
            "type": "date",
            "value": "apr\u00e8s 1130\/02\/14 - avant 1130\/02\/22",
            "children": {
                "date_deb_annee": "1130",
                "date_deb_mois": "02",
                "date_deb_jour": "14",
                "date_deb_type": "apr\u00e8s",
                "date_fin_annee": "1130",
                "date_fin_mois": "02",
                "date_fin_jour": "22",
                "date_fin_type": "avant"
            },
            "range": {
                "date_apres": 11300214,
                "date_avant": 11300222
            }
        },
        {
            "type": "analyse",
            "value": "Innocenz II best\u00e4tigt dem Abte Theotwin von Gorze (D. Metz) die Besitzth\u00fcmer und einzelne Rechte seines Klosters, welches er in apostolischen Schutz nimmt<a class=\"note\" href=\"#note-1\">1<\/a>."
        },
        {
            "type": "transcription",
            "value": "<?xml version=\"1.0\" encoding=\"UTF-8\"?>\n"
        },
        {
            "type": "edition",
            "value": "Julius von Pflugk-Harttung, <i>Acta pontificum Romanorum inedita<\/i>, T\u00fcbingen, 1880, I, n. 159, p. 139"
        },
        {
            "type": "sources_manuscrites",
            "value": "Abschrift vom 12 Jahrh. des Cartulaire de Gorze Nr. 76 p. 208, 209"
        },
        {
            "type": "sources_manuscrites",
            "value": "daraus moderne Abschrift Nr. 77 fol. 33, in der Bibl. zu Metz."
        },
        {
            "type": "remarques",
            "value": "In dieser Urkunde fehlt das Datum sicher nur durch die Schuld des Copisten. Vergl. die \u00fcbrigen Urk. f\u00fcr Gorze."
        },
        {
            "type": "apparat_critique",
            "value": "a.\u2002sine abbatis fratrumque licentia <i>auf Rasur von einer Hand des 15 Jahrhunderts<\/i>.",
            "children": {
                "numero_note": "a"
            }
        },
        {
            "type": "apparat_critique",
            "value": "b.\u2002que ... statutum est <i>auch in der Urk. vom 15 Juni 1156<\/i>.",
            "children": {
                "numero_note": "b"
            }
        },
        {
            "type": "notes_historiques",
            "value": "<i>Vergl. die Urk. vom 6 Febr. 1105 und 15 Juni 1156.<\/i>",
            "children": {
                "numero_note": "1"
            }
        },
        {
            "type": "notes_historiques",
            "value": "<i>Pibo von Toul ist gemeint, vergl. die Urk. vom 6 Febr. 1105.<\/i>",
            "children": {
                "numero_note": "2"
            }
        },
        {
            "type": "notes_historiques",
            "value": "<i>Sonst pflegt<\/i> Asper mons <i>im Cartular declinirt zu werden. Die Urkunde des Kardinalbischofs Theodewin von St. Rufina bringt p. 203\u2013207 eine ausf\u00fchrliche Gr\u00fcndungs- und Bewidmungsgeschichte von Aspremont<\/i> (<i>dicht bei St.-Mihiel<\/i>). <i>Sie beginnt h\u00f6chst anschoulich<\/i> : Tempore Heinrici imperatoris quarti Gobertus, quidam nobilis dominus Asperimontis, pater domine Hadvidis, in matrimonio iuncte Teoderico, filio Alberti Briacensis, filium genuit, quem suum unicum unice diligens Gobertum nominavit, quo nutu dei in pueritia defuncto, ... satis indoluit et sine mora Gorziam petens, domno Henrico patri illius loci dolorem, quo angustiabatur aperuit, cuius consilio ad hoc animum appulit, ut ... cellam in usus monachorum sub Aspero monte edificaret.",
            "children": {
                "numero_note": "3"
            }
        },
        {
            "type": "notes_historiques",
            "value": "<i>Poppo, Bischof von Metz, c. 1090\u2013c. 1103. Die Urkunde vom Jahre 1095 im Cart. de Gorze p. 188\u2013191. Vergl. das Breve Eugens III vom 20 Jan. 1148.<\/i>",
            "children": {
                "numero_note": "4"
            }
        },
        {
            "type": "genre",
            "value": "Bulle"
        }
    ]
}