{
    "id": 24145,
    "name": "aposcripta-1297",
    "type": "acte",
    "url": "http:\/\/telma-chartes.irht.cnrs.fr\/aposcripta\/notice\/24145",
    "project_slug": "aposcripta",
    "project_label": "APOSCRIPTA \u2013 Lettres des papes",
    "user": "lettrespontificalesadmin",
    "last_update": "2020-10-19 16:27:23",
    "licence": "Attribution - Pas d\u2019Utilisation Commerciale - Partage dans les M\u00eames Conditions 3.0 France (CC BY-NC-SA 3.0 FR) ",
    "licence_url": "https:\/\/creativecommons.org\/licenses\/by-nc-sa\/3.0\/fr\/",
    "elements": [
        {
            "type": "pape",
            "value": "Urbain III (1185-1187)"
        },
        {
            "type": "date_lieu",
            "value": "n.c."
        },
        {
            "type": "date_libre",
            "value": "19\u00a0juillet 1186-1187"
        },
        {
            "type": "date",
            "value": "apr\u00e8s 1186\/06\/19 - avant 1187\/07\/19",
            "children": {
                "date_deb_annee": "1186",
                "date_deb_mois": "06",
                "date_deb_jour": "19",
                "date_deb_type": "apr\u00e8s",
                "date_fin_annee": "1187",
                "date_fin_mois": "07",
                "date_fin_jour": "19",
                "date_fin_type": "avant"
            },
            "range": {
                "date_apres": 11860619,
                "date_avant": 11870719
            }
        },
        {
            "type": "analyse",
            "value": "Urbain\u00a0III renouvelle, en faveur du chapitre, la bulle du 16\u00a0mars 1186-1187 relativement aux obligations des b\u00e9n\u00e9ficiers de contribuer aux charges de la communaut\u00e9."
        },
        {
            "type": "transcription",
            "value": "<?xml version=\"1.0\" encoding=\"UTF-8\"?>\nUrbanus episcopus, servus servorum Dei, dilectis filiis canonicis Magalonensis Ecclesie, salutem et apostolicam benedictionem. Mirabile gerimus et indignum, quod, cum plures vestrum vobis teneantur ex administrationibus sibi commissis in vestimentis et procurationibus providere, quidam eorum, sicut audivimus, administrationum proventus accipiunt, et debita vobis stipendia non impendunt. Unde, quia id sustinere nolumus nec debemus, cum Ecclesia vestra dicatur ex hoc grave dispendium sustinere, discretioni vestre per apostolica scripta mandamus atque precipimus, quatenus quicumque vestrum administrationesa detinent, de hiis communitati capituli procurationes et alia jura que debentur ex ipsis sine difficultate persolvant. Si qui autem eorum ea solvere noluerint, sententiam, quam in eos propter hoc dilectus filius noster, prepositus vester, canonice tulerit, sublato appellationis obstaculo, firmiter observetis, quia nos eidem preposito eos ad ipsa, sicut debent, reddenda, contradictione et appellatione remota, censura canonica compellendi liberam concessimus facultatem.Datum Verone, xiiii kalendas augusti.\n"
        },
        {
            "type": "edition",
            "value": "Julien Rouquette, Augustin Villemagne, <i>Bullaire de l'\u00c9glise de Maguelone<\/i>, Paris, Montpellier : Picard, Valat, 1911-1914, I, n. 109-LXXIX, p. 177-177"
        },
        {
            "type": "remarques",
            "value": ""
        },
        {
            "type": "apparat_critique",
            "value": "Priv.\u00a0: <i>amministrationes<\/i>\u00a0; Germain\u00a0: <i>administrationes<\/i>.",
            "children": {
                "numero_note": "a"
            }
        },
        {
            "type": "bibliographie_generale",
            "value": "<i>Priv. de Maguelone<\/i>, fol.\u00a011\u00a0r\u00b0",
            "children": {
                "numero_note": "0"
            }
        },
        {
            "type": "bibliographie_generale",
            "value": "<span class=\"small-caps\">Germain<\/span>, <i>Maguelone sous ses \u00e9v\u00eaques<\/i>, p.\u00a0187",
            "children": {
                "numero_note": "1"
            }
        },
        {
            "type": "bibliographie_generale",
            "value": "<span class=\"small-caps\">Jaff\u00e9<\/span> et <span class=\"small-caps\">Wattenbach<\/span>, n\u00b0\u00a015897",
            "children": {
                "numero_note": "2"
            }
        },
        {
            "type": "bibliographie_generale",
            "value": "<span class=\"small-caps\">F. Fabr\u00e8ge<\/span>, <i>Hist. de Maguelone<\/i>, t.\u00a0I, p.\u00a0290.",
            "children": {
                "numero_note": "3"
            }
        },
        {
            "type": "genre",
            "value": "Bulle"
        }
    ]
}