{
    "id": 147003,
    "name": "aposcripta-6631",
    "type": "acte",
    "url": "http:\/\/telma-chartes.irht.cnrs.fr\/aposcripta\/notice\/147003",
    "project_slug": "aposcripta",
    "project_label": "APOSCRIPTA \u2013 Lettres des papes",
    "user": "tgirard",
    "last_update": "2020-10-19 16:39:25",
    "licence": "Attribution - Pas d\u2019Utilisation Commerciale - Partage dans les M\u00eames Conditions 3.0 France (CC BY-NC-SA 3.0 FR) ",
    "licence_url": "https:\/\/creativecommons.org\/licenses\/by-nc-sa\/3.0\/fr\/",
    "elements": [
        {
            "type": "pape",
            "value": "Lucius III (1181-1185)"
        },
        {
            "type": "destinataire",
            "value": "Le prieur de San Martino de Sienne, Bernardo, et la communaut\u00e9"
        },
        {
            "type": "date_libre",
            "value": "Nonis novembris, indictione XV, MCLXXXI, anno primo"
        },
        {
            "type": "date",
            "value": "1181\/11\/05",
            "children": {
                "date_deb_annee": "1181",
                "date_deb_mois": "11",
                "date_deb_jour": "05"
            },
            "range": {
                "date_apres": 11811105,
                "date_avant": 11811105
            }
        },
        {
            "type": "date_lieu",
            "value": "Latran"
        },
        {
            "type": "genre",
            "value": "Privil\u00e8ge solennel"
        },
        {
            "type": "analyse",
            "value": "Lucius III nimmt die Kollegiatkirche San Martino di Siena in apostolischen Schutz und best\u00e4tigt ihre Besitzth\u00fcmer und Rechte."
        },
        {
            "type": "edition",
            "value": "Ici reprise de Julius von Pflugk-Harttung, <i>Acta pontificum Romanorum inedita.<\/i> III. <i>Urkunden der P\u00e4pste vom Jahre 590 bis zum Jahre 1197<\/i>, III, Stuttgart : W. Kohlhammer, 1886, n. 317, p. 288-289."
        },
        {
            "type": "transcription",
            "value": "<?xml version=\"1.0\" encoding=\"UTF-8\"?>\nLucius episcopus, servus servorum Dei, dilectis filiis Bernardo, priori ecclesie sancti Martini Senensis, eiusque fratribus tam presentibus quam futuris, canonicam vitam professis, in perpetuum. Quotiens a nobis petitur quod religioni et honestati convenire dignoscitur, animo nos decet libenti concedere et petentium desideriis congruum impertiria suffragium. Eapropter, dilecti in domino filii, vestris iustis postulationibus clementer annuimus et prefatam ecclesiam sancti Martini Senensis, in qua divino estis obsequio mancipati, sub beati Petri et nostra protectione suscipimus et presentis scripti privilegio communimus. In primis siquidem statuentes, ut ordo canonicus, qui secundum deum et beati Augustini regulam atque institutionem fratrum ecclesie sancti Fridiani in eadem ecclesia institutus esse dinoscitur, perpetuis ibidem temporibus inviolabiliter observetur. Preterea quascumque possessiones, quecumque bona eadem ecclesia in presentiarum iuste et canonice possidet aut in futurum concessione pontificum, largitione regum vel principum, oblatione fidelium seu aliis iustis modis, prestante domino, poterit adipisci, firma vobis vestrisque successoribus et illibata permaneant. In quibus hec propriis duximus exprimenda vocabulis : locum ipsum, in quo prefata ecclesia sita est, cum omnibus pertinentiis suis et terminis parrochie ipsius ecclesie, qui sic diffiniuntur : ex parte mercati et campi Azzo granaiolus, Albertinellus granaiolus, ex alia parte Brunethus setarius et totum suburbium, quod extenditur usque ad domum Turche, et ex alia parte est terminus domus Sinibaldib, ex alia parte filius Augustini ; inter vos et ecclesiam sancti Mauricii ex una parte est terminus Rolandus mattonarius, ex alia parte suburbii est terminus Gregorius et cellarium Cacianeve, ex parte suburbii strate ; inter vos et ecclesiam sancti Georgii terminus est ex una parte domus Bandini Brisci, ex alia parte domus Conradi Ardicase, ex alio capite vestre parrochie ; inter vos et ecclesiam sancti Vigilii est terminus domus Rubei Ubertelli, ex alia parte terminus est Scottus, filius Prandi, item alius terminus cuiusdam suburbii, quod est inter vos et ecclesiam sancti Mauricii, est domus Rainerii Palearii et terra eiusdem, in qua quondam habitavit Girarducius et mater eius, hospitale quoquec eiusdem ecclesie cum omnibus suis pertinentiis, possessiones de Terzole, possessiones de Cerreta, molendinum de Ravalliolo cum vinea et omnibus pertinentiis suis, mansum de Osinina cum rustico in ea habitante, molendinum de Rivoloco cum omnibus possessionibus et pertinentiis suis, vineam, quam dimisit vobis Bernardus filius Bandini Zurli, villanos et possessiones, quas habetis in plebe de Bozone. Sane novalium vestrorum que propriis manibus aut sumptibus colitis, sive de nutrimentis animalium vestrorum nullus a vobis decimas exigere presumat. Cum autem generale interdictum terre fuerit, liceat vobis, clausis ianuis, exclusis excommunicatis et interdictis, non pulsatis campanis, suppressa voce divina officia celebrare. Concessionem siquidem, quam ecclesie sancti Fridiani Odelricus, quondam prepositus, et canonici Senenses prius et postmodum bone memorie Ranerius, eiusdem civitatis episcopus1, de vestra ecclesia fecerunt, et libertatem, quam in concessione ipsa eidem contulerunt ecclesie ac beate recordationis predecessor noster ALEXANDER papa scripti sui munimine roboravit, nos quoque, sicut in eodem scripto autentico continetur, auctoritate apostolica confirmamus et ratam perpetuis temporibus decernimus permanere. Prohibemus insuper, ut non liceat Senensi episcopo vel canonicis suis, vobis et ecclesie vestre novas et indebitas exactiones imponere aut indebita molestatione gravare. Infra parrochiam quoque ecclesie vestre nullus ecclesiam vel oratorium sine assensu Senensis episcopi et vestro edificare presumat, salvis tamen privilegiis Romanorum pontificum. Sepulturam preterea ipsius loci liberam esse decernimus, ut eorum devotioni et extreme voluntati, qui se illic sepeliri deliberaverint, nisi forte excommunicati vel interdicti sint, nullus obsistat, salva tamen iustitia illarum ecclesiarum, a quibus mortuorum corpora assumuntur. Decernimus ergo ut nulli omnino hominum fas sit, prefatam ecclesiam ... usibus omnimodis profutura, salva sedis apostolice auctoritate, Senensis episcopi canonica iustitia et ecclesie sancti Fridiani debita reverentia. Si qua igitur ... Cunctis autem ... inveniant. Amen. A-m. Amen. [R] Ego Lucius catholice ecclesie episcopus ss. [M] \u2020 Ego Theodinus Portuensis et sancte Rufine sedis episcopus ss. \u2020 Ego Paulus Prenestinus episcopus ss. (6) \u2020 Ego Petrus presbiter cardinalis tit. sancte Susanne ss. \u2020 Ego Vivianus presbiter cardinalis tit. sanctid Stefani in Celio monte ss. \u2020 Ego Cynthius presbiter cardinalis tit. sancte Cecilie ss. \u2020 Ego Hugo presbiter cardinalis tit. sancti Clementis ss. (1) \u2020 Ego Arduinus presbiter cardinalis tit. sancte Crucis ss. \u2020 Ego Matheus presbiter cardinalis tit. sancti Marcelli ss. \u2020 Ego Laborans presbiter cardinalis sancte Marie transtiberim tit. Calixti ss. \u2020 Ego Rainerius diaconus cardinalis sancti Georgii ad Velum aureum ss. \u2020 Ego Gratianus sanctorum Cosme et Damiani diaconus cardinalis ss. \u2020 Ego Rainerius diaconus cardinalis sancti Adriani ss. \u2020 Ego Mattheus sancte Marie nove diaconus cardinalis ss. (4) Datum Laterani per manum Alberti, sancte Romane Ecclesie presbiteri cardinalis et cancellarii, nonis novembris, indictione XV, Incarnationis dominice anno MCLXXXI, pontificatus vero domni Lucii pape III anno I.\n"
        },
        {
            "type": "regeste",
            "value": "Philippe Jaff\u00e9, Wilhelm Wattenbach, Samuel Loewenfeld, Ferdinand Kaltenbrunner, Paul Ewald, <i>Regesta pontificum Romanorum ab condita ecclesia ad annum post Christum natum MCXCVIII<\/i>, 2<sup>e<\/sup> \u00e9d. Leipzig : Veit, 1885-1888, 2 vol., n. 14512 <a target=\"_blank\" href= \"https:\/\/archive.org\/details\/regestapontificu02cath\/page\/432\">[en ligne]<\/a>."
        },
        {
            "type": "notes_historiques",
            "value": "Rainer I, Bischof von Siena, 1128\u20131166 ; Rainer II, 1166\u20131170.",
            "children": {
                "numero_note": "1"
            }
        },
        {
            "type": "sources_manuscrites",
            "value": "A. ITALIE, Lucques, Archivio di Stato, cote non mentionn\u00e9e. Perg. ital., br. 0,565, lang 0,66, unten 0,03 umgeschlagen, durch zwei L\u00f6cher geht die rosa und gelbe Seidenschnur, woran das Bleisiegel h\u00e4ngt. Faltung der Bullen. Ueber Um- und Unterschrift nichts Sicheres, Ringkreuz und E der Unterschrift k\u00f6nnen von einer Hand herr\u00fchren, ihre Dinte ist gleich, aber dasselbe auch mit der \u00fcbrigen Unterschrift der Fall. Datirung vom Hauptk\u00f6rperschreiber, das A Alberts zeigt dunklere Dinte. Die Zeugenfirmen scheinen von zwei Schreibern herzur\u00fchren, die auch zwei verschiedene Dinten anwandten.",
            "children": {
                "type_source": "Original"
            }
        },
        {
            "type": "sources_manuscrites",
            "value": "B. ITALIE, Rome, Biblioteca Chigiana, G. VIII, 243, p. 167.",
            "children": {
                "type_source": "n.c."
            }
        },
        {
            "type": "apparat_critique",
            "value": "impartiri",
            "children": {
                "numero_note": "a"
            }
        },
        {
            "type": "apparat_critique",
            "value": "ldi <i>auf Rasur<\/i>",
            "children": {
                "numero_note": "b"
            }
        },
        {
            "type": "apparat_critique",
            "value": "<i>nachtr\u00e4glich zwischengeschoben.<\/i>",
            "children": {
                "numero_note": "c"
            }
        },
        {
            "type": "apparat_critique",
            "value": "i <i>auf Rasur.<\/i>",
            "children": {
                "numero_note": "d"
            }
        }
    ]
}