{
    "id": 26820,
    "name": "aposcripta-3704",
    "type": "acte",
    "url": "http:\/\/telma-chartes.irht.cnrs.fr\/aposcripta\/notice\/26820",
    "project_slug": "aposcripta",
    "project_label": "APOSCRIPTA \u2013 Lettres des papes",
    "user": "l_valliere",
    "last_update": "2020-10-19 16:28:05",
    "licence": "Attribution - Pas d\u2019Utilisation Commerciale - Partage dans les M\u00eames Conditions 3.0 France (CC BY-NC-SA 3.0 FR) ",
    "licence_url": "https:\/\/creativecommons.org\/licenses\/by-nc-sa\/3.0\/fr\/",
    "elements": [
        {
            "type": "pape",
            "value": "Martin V (1417-1431)"
        },
        {
            "type": "destinataire",
            "value": "Le ma\u00eetre des requ\u00eates de l'h\u00f4tel du roi Henri VI Nicolas Fraillon"
        },
        {
            "type": "date",
            "value": "apres 1427\/06\/16",
            "children": {
                "date_deb_jour": "16",
                "date_deb_mois": "06",
                "date_deb_annee": "1427",
                "date_deb_type": "apres"
            },
            "range": {
                "date_apres": 14270616,
                "date_avant": 99999999
            }
        },
        {
            "type": "genre",
            "value": "Lettre, g\u00e9n\u00e9ral (apr\u00e8s 1198, littere cum filo canapis)"
        },
        {
            "type": "analyse",
            "value": "Martin [V] encourage Nicolas Fraillon [ma\u00eetre des requ\u00eates de l'h\u00f4tel du roi Henri VI] \u00e0 servir l'Eglise romaine et lui promet qu'il saura se souvenir de son d\u00e9vouement [APO]."
        },
        {
            "type": "sources_manuscrites",
            "value": "G. FRANCE, Paris, Archives nationales, LL 4<sup>a<\/sup>, fol. 65.",
            "children": {
                "type_source": "Copie"
            }
        },
        {
            "type": "edition",
            "value": "No\u00ebl Valois, <i>Histoire de la Pragmatique Sanction de Bourges sous Charles VII<\/i>, Paris, A. Picard et fils, 1906, n. 30, p. 59 <a target=\"_blank\" href=\"https:\/\/archive.org\/stream\/histoiredelapra00valogoog#page\/n266\/mode\/2up\">[en ligne]<\/a>, d\u2019apr\u00e8s G."
        },
        {
            "type": "transcription",
            "value": "<?xml version=\"1.0\" encoding=\"UTF-8\"?>\nAd magistrum Nicolaum Fraillon. Non perdes operam si constanter prosequeris quod laudabiliter incepisti teque reddideris Romane Ecclesie et Sedi apostolice obsequiosum et pugilem indefessum, pro ipsarum dignitate et libertate certando juxta prudenciam et animi fortitudinem a Domino tibi datam, quam augebit et corro[bo]rabit omnipotens Deus pro sua Ecclesia laborantem. Nos enim memores erimus loco et tempore obsequiorum tuorum, que nullo in negocio melius et fructuosius collocabis quam in serviendo Ecclesie Dei. Quare, fili dilecte, excita semper industriam, vigilanciam et virtutem tuam in illis studiis et operibus per que videris amplitudinem ipsius Romane Ecclesie et libertatem ecclesiasticam conservare.  Ceterum, ut supra1.\n"
        },
        {
            "type": "remarques",
            "value": "Pour la datation, voir <a target=\"_blank\" href= \"http:\/\/telma-chartes.irht.cnrs.fr\/aposcripta\/notice\/26819\"> APOSCRIPTA n. 3703<\/a>."
        },
        {
            "type": "notes_historiques",
            "value": "Voir <a target=\"_blank\" href= \"http:\/\/telma-chartes.irht.cnrs.fr\/aposcripta\/notice\/26819\"> APOSCRIPTA n. 3703<\/a>.",
            "children": {
                "numero_note": "1"
            }
        }
    ]
}