{
    "id": 25298,
    "name": "aposcripta-2395",
    "type": "acte",
    "url": "http:\/\/telma-chartes.irht.cnrs.fr\/aposcripta\/notice\/25298",
    "project_slug": "aposcripta",
    "project_label": "APOSCRIPTA \u2013 Lettres des papes",
    "user": "lettrespontificalesadmin",
    "last_update": "2020-10-19 16:27:43",
    "licence": "Attribution - Pas d\u2019Utilisation Commerciale - Partage dans les M\u00eames Conditions 3.0 France (CC BY-NC-SA 3.0 FR) ",
    "licence_url": "https:\/\/creativecommons.org\/licenses\/by-nc-sa\/3.0\/fr\/",
    "elements": [
        {
            "type": "pape",
            "value": "Lucius II (1144-1145)"
        },
        {
            "type": "destinataire",
            "value": "Le prieur de Sainte-Marie de La Charit\u00e9 et les fr\u00e8res",
            "children": {
                "numero_note": "0"
            }
        },
        {
            "type": "date_lieu",
            "value": "Latran"
        },
        {
            "type": "date_libre",
            "value": "XVIII kalendas maii, indictione VII, M. C. XL. IIII, anno primo"
        },
        {
            "type": "date",
            "value": " 1144\/04\/14",
            "children": {
                "date_deb_annee": "1144",
                "date_deb_mois": "04",
                "date_deb_jour": "14"
            },
            "range": {
                "date_apres": 11440414,
                "date_avant": 11440414
            }
        },
        {
            "type": "analyse",
            "value": "X pape<br\/>PRIVILEGIUM LUCII PAP\u00c6 II, QUO CONFIRMAT POSSESSIONES MONASTERII DE CARITATE, SALVA CLUNIACENSIS ABBATIS OBEDIENTIA."
        },
        {
            "type": "transcription",
            "value": "<?xml version=\"1.0\" encoding=\"UTF-8\"?>\nLucius, episcopus, servus servorum Dei, dilecto filio Petro, priori monasterii Sanct\u00e6 Mari\u00e6 quod de Karitate dicitur, ejusque fratribus tam presentibus quam futuris regularem vitam professis in perpetuum. Ad hoc nos, disponente Domino, in apostolice sedis servitium promotos esse cognoscimus, ut ejus filiis auxilium implorantibus efficaciter subvenire, et ei obedientes tueri ac protegere, prout Dominus dederit, debeamus. Unde oportet nos venerabilibus locis manum protectionis extendere et servorum Dei quieti attentius providere. Igitur pro beat\u00e6 Mari\u00e6 semper virginis reverentia, et tam pro vestra spectabili religione, quam pro venerabilis fratris nostri Petri, Cluniacensis abbatis, dilectione, ad cujus curam ex Cluniacensis cenobii jure locus vester pertinet, dilecti in Christo filii, vestris justis petitionibus clementer annuimus, et prefatum monasterium in quo divino mancipati estis obsequio, ad exemplar predecessorum nostrorum Urbani et Paschalis, bon\u00e6 memorie Romanorum pontificum sub beati Petri et nostra protectione suscipimus, et presentis scripti privilegio communimus. Statuentes ut quascumque possessiones, quecumque bona idem cenobium inpresentiarum juste et canonice possidet aut in futurum, concessione pontificum, largitione regum vel principum, oblatione fidelium seu aliis justis modis, Deo propicio, poterit adipisci, firma vobis vestrisque successoribus et illibata permaneant; in quibus hec propriis duximus exprimenda vocabulis: In Autissiodorensi episcopatu, ecclesiam de Cona, de Aona, de Buluciaco, ecclesiam Sancti Juliani, Sancti Petri de Boniaco cum ipsa villa; in episcopatu Senonensi, ecclesiam de Cavannas, ecclesiam de Branca, de Monte Boio, de Castellione, de Diciaco, de Contentione, de Venesio, ecclesiam de Cruce, Sancti Sidronii, Sancti Jonii, ecclesias de Joviniaco, et in suburbio ecclesiam Sanct\u00e6 Mari\u00e6; in episcopatu Bituricensi, ecclesiam de Tenconio cum burgo, de Monastello cum burgo, de Orolio, item de Orolio, de Birreto, capellam de Monte Falconis, de Valeniaco, de Fontiniaco castro, de Nerunda, de Ulmeriaco, de Coola, Sancti Sulpicii juxta pontem Ligeris, Sancte Montane, Sancti Celsi; in Aurelianensi episcopatu, ecclesiam de Orolio, Sancti Laurentii in suburbio; in Nivernensi episcopatu, ecclesiam de Albiniaco, ecclesiam de Galliaco, de Colungia, de Bisca, ecclesiam Sancti Honorati, Sancti Sulpicii, Sancti Victoris in suburbio; in episcopatu Eduensi, ecclesias de Rocha, de Monte Ansberti cum villa, de Lameneia, de Viverio, in suburbio ecclesiam Sancti Rozzi; in Meldensi episcopatu, ecclesiam de Rodolio; in Trecensi episcopatu, ecclesias de Sedana, Sancti Justi; in Belvacensi, ecclesiam Sancti Christophori de Araciis cum appendiciis suis; in Suessionensi, ecclesiam de Brena foris castrum, de Villeriis, de Monte Mauro; in Carnotensi, ecclesiam Sancti Salvatoris in suburbio; in Rotomagensi, ecclesiam de Bellomonte, de Longavilla; in Anglica terra, ecclesiam Sancti Salvatoris de Bermundesia, de Noranthona, de Ponte Fracto, ecclesiam Sanct\u00e6 Milbulgis, cum universis possessionibus et appendiciis supradictarum ecclesiarum, ecclesiam de Daventreia; in Venecia, ecclesiam Sanct\u00e6 Crucis cum appendiciis suis; in Ispania, ecclesiam Sancti Petri de Arratis; item in episcopatu Trecensi, ecclesiam Sancti Sepulchri cum appendiciis suis; item in episcopatu Meldensi, ecclesiam de Firmitate Ansculfi, ecclesiam de Chailli, de Chamini, de Bussei, de Bellovidere, ecclesiam Sancti Christophori in suburbio; item in episcopatu Autissiodorensi, ecclesiam de Narci, ecclesiam de Varenna, de Domno Petro, de Murliaco, de Bosco Britannie, capellam de Castronovo, de Suliaco, de Manniaco, de Colungiis super Jonium, de Namui, de Aliniaco, de Novovico; alias quoque ecclesias et capellas quas canonice possidetis, vobis nichilominus confirmamus. Liceat etiam vobis in ecclesiis vestris presbiteros eligere, qui, si idonei fuerint, ab episcopis gratis et absque ulla pravitate curam animarum suscipiant, eisque de plebis cura rationem reddant; vobis autem pro rebus temporalibus debitam subjectionem exibeant. Hoc quoque presenti capitulo subjungimus, ut nulli episcopo liceat in vos et in locum vestrum, qui videlicet de Caritate nominatur, ultionem excommunicationis vel interdicti exer[c]ere. Quatinus ab omni servitii secularis infestatione securi, omni gravamine mundane oppressionis remoti, in sanct\u00e6 religionis observatione seduli ac quieti, Domino annuente, permaneatis, salva in omnibus Cluniacensis abbatis reverentia et obedientia, ad cujus gremium locus idem tanquam cella noscitur pertinere. Decernimus ergo ut nulli omnino hominum liceat idem cenobium temere perturbare aut ejus possessiones auferre, vel ablatas retinere, minuere vel temerariis vexationibus fatigare, sed omnia integra conserventur, eorum pro quorum sustentatione et gubernatione concessa sunt usibus omnimodis profutura, salva nimirum in omnibus apostolic\u00e6 sedis auctoritate. Si qua sane in crastinum ecclesiastica secularisve persona hanc nostr\u00e6 constitutionis paginam sciens contra eam temere venire temptaverit, secundo terciove commonita, si non satisfactione congrua emendaverit, potestatis honorisque sui dignitate careat, reamque se divino judicio existere de perpetrata iniquitate cognoscat, et a sacratissimo corpore ac sanguine Dei redemptoris nostri Domini Jesu Christi aliena fiat, atque in extremo examine district\u00e6 ultioni subjaceat; cunctis autem eidem loco justa servantibus sit pax Domini nostri Jesu Christi quatinus et hic fructum bon\u00e6 actionis percipiant, et apud districtum judicem premia \u00e6tern\u00e6 pacis inveniant. Amen. Amen. Amen. (Cercles et Bene valete.) Ego Lucius, chatholic\u00e6 \u00e6cclesi\u00e6 episcopus, subscripsi. Ego Conradus, Sabinensis episcopus, subscripsi. Ego Albericus, Ostiensis episcopus, subscripsi. Ego Imarus, Tusculanus episcopus, subscripsi. Ego Petrus, Albanensis episcopus, subscripsi. Ego Thomas, presbiter cardinalis tituli Vestine, subscripsi. Ego Gregorius, diaconus cardinalis Sanctorum Sergii et Bachi, subscripsi. Ego Otto, diaconus cardinalis Sancti Georgii ad Velum Aureum, subscripsi. Ego Johannes, diaconus cardinalis Sancti Adriani, subscripsi. Ego Wido, in Romana ecclesia altaris minister indignus, subscripsi. Datum Laterani, per manum Baronis, capellani et scriptoris XVIII kal. maii, indictione VII, incarnationis Dominice anno M. C. XL. IIII, pontificatus vero domni Lucii secundi pape anno primo.\n"
        },
        {
            "type": "edition",
            "value": "Ici tir\u00e9e du projet <i>CBMA - Corpus Burgundiae Medii Aevi<\/i>, document 5518. Site du projet Corpus de la Bourgogne du Moyen \u00c2ge, [En ligne] <a href=\"http:\/\/www.cbma-project.eu\" target=\"_blank\">http:\/\/www.cbma-project.eu<\/a>  "
        },
        {
            "type": "sources_manuscrites",
            "value": "\u00e0 renseigner."
        },
        {
            "type": "remarques",
            "value": "\r\n\r\n (Bibl. nat. lat. nouv. acq.\u00a02274, n\u00ba\u00a05; cop.\u00a061-21.)"
        },
        {
            "type": "edition_autre",
            "value": "Ici reprise de Auguste Bernard, Alexandre Bruel, <i>Recueil des chartes de l'abbaye de Cluny<\/i>. V. <i>1091-1210<\/i>, Paris\u00a0: Imprimerie nationale, 1894 <a href=\"http:\/\/gallica.bnf.fr\/ark:\/12148\/bpt6k28911f?rk=64378;0\" target=\"_blank\">[en ligne]<\/a>, p. 432-435, n\u00b0 4081",
            "children": {
                "numero_note": "0"
            }
        },
        {
            "type": "genre",
            "value": "Privil\u00e8ge solennel"
        }
    ]
}