{
    "id": 26088,
    "name": "aposcripta-3185",
    "type": "acte",
    "url": "http:\/\/telma-chartes.irht.cnrs.fr\/aposcripta\/notice\/26088",
    "project_slug": "aposcripta",
    "project_label": "APOSCRIPTA \u2013 Lettres des papes",
    "user": "lettrespontificalesadmin",
    "last_update": "2020-10-19 16:27:54",
    "licence": "Attribution - Pas d\u2019Utilisation Commerciale - Partage dans les M\u00eames Conditions 3.0 France (CC BY-NC-SA 3.0 FR) ",
    "licence_url": "https:\/\/creativecommons.org\/licenses\/by-nc-sa\/3.0\/fr\/",
    "elements": [
        {
            "type": "pape",
            "value": "Innocent III (1198-1216)"
        },
        {
            "type": "destinataire",
            "value": "L'abbaye de Balerne",
            "children": {
                "numero_note": "0"
            }
        },
        {
            "type": "date_lieu",
            "value": "n.c."
        },
        {
            "type": "date_libre",
            "value": "1209, 23 f\u00e9vrier"
        },
        {
            "type": "date",
            "value": " 1209\/02\/23",
            "children": {
                "date_deb_annee": "1209",
                "date_deb_mois": "02",
                "date_deb_jour": "23"
            },
            "range": {
                "date_apres": 12090223,
                "date_avant": 12090223
            }
        },
        {
            "type": "analyse",
            "value": "Le pape Innocent III place sous la protection apostolique le monast\u00e8re de Balerne, lui confirme ses privil\u00e8ges et tous ses biens, dont \u00ab les maisons, les vignes et toute la muire qu\u2019il poss\u00e8de \u00e0 Lons[-le-Saunier]\u00bb."
        },
        {
            "type": "transcription",
            "value": "<?xml version=\"1.0\" encoding=\"UTF-8\"?>\n[texte manquant]\n"
        },
        {
            "type": "edition",
            "value": "Ici tir\u00e9e du projet <i>CBMA - Corpus Burgundiae Medii Aevi<\/i>, document 19564. Site du projet Corpus de la Bourgogne du Moyen \u00c2ge, [En ligne] <a href=\"http:\/\/www.cbma-project.eu\" target=\"_blank\">http:\/\/www.cbma-project.eu<\/a>  "
        },
        {
            "type": "sources_manuscrites",
            "value": "\u00e0 renseigner."
        },
        {
            "type": "remarques",
            "value": "Indication : 1) B.N., coll. Moreau, ms. n\u00b0 874, fol. 44-4r\u00b0.A. Original perdu ? \u2014 B. Copie, cartulaire de Balerne perdu ? \u2014 C. Copie de B, Chifflet, r\u00e9f. cit., charte n\u00b0 75, fol. 53r\u00b0-56r\u00b0. \u2014 D. Copie de B, Baverel, r\u00e9f. cit., charte n\u00b0 75, fol. 53r\u00b0-56r\u00b0."
        },
        {
            "type": "edition_autre",
            "value": "Ici reprise de Beno\u00eet Chauvin, <i>Notes et documents pour servir \u00e0 l\u2019histoire du sel de Lons-le-Saunier au Moyen \u00c2ge\u00a0: les archives de l\u2019abbaye de Balerne (1170-1267)<\/i>, Travaux de la Soci\u00e9t\u00e9 d\u2019\u00e9mulation du Jura, 1975-1976 (publi\u00e9 en 1977), p. 33-126, n\u00b0 17.",
            "children": {
                "numero_note": "0"
            }
        },
        {
            "type": "genre",
            "value": "Bulle"
        }
    ]
}