{
    "id": 146740,
    "name": "aposcripta-6370",
    "type": "acte",
    "url": "http:\/\/telma-chartes.irht.cnrs.fr\/aposcripta\/notice\/146740",
    "project_slug": "aposcripta",
    "project_label": "APOSCRIPTA \u2013 Lettres des papes",
    "user": "tgirard",
    "last_update": "2020-10-19 16:39:22",
    "licence": "Attribution - Pas d\u2019Utilisation Commerciale - Partage dans les M\u00eames Conditions 3.0 France (CC BY-NC-SA 3.0 FR) ",
    "licence_url": "https:\/\/creativecommons.org\/licenses\/by-nc-sa\/3.0\/fr\/",
    "elements": [
        {
            "type": "pape",
            "value": "Cl\u00e9ment III (1187-1191)"
        },
        {
            "type": "destinataire",
            "value": "L'archev\u00eaque de Montereale, Guillaume, et ses successeurs"
        },
        {
            "type": "date_libre",
            "value": "IV kalendas novembris, indictione VII, MCLXXXVIII, anno primo."
        },
        {
            "type": "date",
            "value": "1188\/10\/29",
            "children": {
                "date_deb_annee": "1188",
                "date_deb_mois": "10",
                "date_deb_jour": "29"
            },
            "range": {
                "date_apres": 11881029,
                "date_avant": 11881029
            }
        },
        {
            "type": "date_lieu",
            "value": "Latran"
        },
        {
            "type": "genre",
            "value": "Privil\u00e8ge solennel"
        },
        {
            "type": "analyse",
            "value": "Clemens III unterstellt dem Erzbischofe Wilhelm von Monreale das Bisthum Syrakus, wie Lucius III es schon vorher mit Catania gethan hat."
        },
        {
            "type": "edition",
            "value": "Ici reprise de Julius von Pflugk-Harttung, <i>Acta pontificum Romanorum inedita.<\/i> III. <i>Urkunden der P\u00e4pste vom Jahre 590 bis zum Jahre 1197<\/i>, III, Stuttgart : W. Kohlhammer, 1886, n. 423, p. 367-368."
        },
        {
            "type": "transcription",
            "value": "<?xml version=\"1.0\" encoding=\"UTF-8\"?>\nClemens episcopus, servus servorum Dei, venerabili fratri Guillielmo, Montis Regalis archiepiscopo, eiusque successoribus, canonice substituendis, in perpetuum. Cum omnium per orbem ecclesiarum in catholica fide manencium auctoritas et disposicio a Romana Ecclesia tanquam a capite, Domino faciente, procedant, nos, qui sumus in officio summi pontificatus, licet immeriti, divina donante misericordia constituti, pro qualitate temporum et locorum et meritis personarum diligenter opportet attendere quibus personisa sint ecclesie committende que subterponi debeant regimini aliarum et quas decernere debeamus pre aliis honorandas et certis causis emergentibus ab aliis eximendas vel super alias collocandas. Eapropter, diligencius attendentes pium et laudabile propositum regie volumptatis karissimi in Christo filii Wilhelmi, illustris regis Sicilie1, et commendabilem ipsius regalis excellencie devotionem quam habet erga Romanam Ecclesiam, cum ad sublimandam ecclesiam Montis Regalis, cui auctore Deo preesse dinosceris, invigilet et intendat, ut ad eam, quam ipsa regalis magnificencia, divino amore succensa, fundavit, erexit, ditavit et inter alias reddidit gloriosam ; tue quoque devotionis inspecta constancia, quam in nobis beato Petro et in ipso Domino nostro Iesu Christo ferventer impendis, ad instar felicis recordationis Lucii, predecessoris2 nostri, qui ecclesiam Montis Regalis iure metropolitico sublimavit, Cathaniensem ecclesiam inter alias ei supponens, nos autem auctoritate apostolica Siracusanam ecclesiam, que ad nullam actenus preter Romanam ecclesiam pertinuisse dinoscitur, pariter cum ipsa Cathaniensi ecclesia statuimus ecclesie Montis Regalis de cetero metropolitico iure subesse et quod tam tu quam tui successores in eas plenam iurisdictionem, sicut in suffraganeis habeatis et eidem ecclesie teneantur tibi tuisque successoribus, ut suffraganee ipsius ecclesie Montis regalis, cui prees, plenarie respondere ; et quicquid eis, ut suffraganeis a vobis tanquam metropolitanis suis, provide iniunctum fuerit, humiliter recipere et firmiter observare. Decernimus ergo ut nulli omnino hominum liceat prefatam ecclesiam temere perturbare... usibus omnimodis profutura, salva Sedis apostolice auctoritate. Si qua igitur... Cunctis autem... inveniant. Amen. [R] Ego Clemens catholice ecclesie episcopus ss. []) \u2020 Ego Theobaldus Hostiensis et Velletrensis episcopus ss. \u2020 Ego Iohannes presbiter cardinalis tit. sancti Marci ss. \u2020 Ego Laborans presbiter cardinalis sancte Marie transtiberim tit. Calixti ss. \u2020 Ego Pandulfus presbiter cardinalis basilice XII Apostolorum ss. \u2020 Ego Albinus tit. sancte Crucis in Ierusalem presbiter cardinalis ss. \u2020 Ego Adelardus tit. sancti Marcelli presbiter cardinalis ss.b \u2020 Ego Bobus tit. sancte Anastasie presbiter cardinalis ss. \u2020 Ego Petrus tit. sancti Clementis presbiter cardinalis ss. \u2020 Ego Alexius tit. sancte Susanne presbiter cardinalis ss. \u2020 Ego Petrus sancti Laurencii in Damaso presbiter cardinalis ss. \u2020 Ego Iacintus diaconus cardinalis sancte Marie in Cosmidin ss. \u2020 Ego Octavianus sanctorum Sergii et Bachi diaconus cardinalis ss. \u2020 Ego Gregorius sancte Marie in porticu diaconus cardinalis ss. \u2020 Ego Iohannes felix sancti Eustachii diaconus cardinalis iuxta templum Agrippe ss. \u2020 Ego Iohannes sancti Theodori diaconus cardinalis ss. \u2020 Ego Bernardus sancte Marie nove diaconus cardinalis ss. \u2020 Ego Gregorius sancte Marie in Aquiro diaconus cardinalis ss. Data Laterani per manum Moysi, Romane Ecclesie subdiaconi, vicem agentis cancellarii, IIII kalendas novembris, indictione VII, Incarnacionis dominice anno MCLXXXVIII, pontificatus vero domni Clementis pape III anno primo.\n"
        },
        {
            "type": "regeste",
            "value": "Philippe Jaff\u00e9, Wilhelm Wattenbach, Samuel Loewenfeld, Ferdinand Kaltenbrunner, Paul Ewald, <i>Regesta pontificum Romanorum ab condita ecclesia ad annum post Christum natum MCXCVIII<\/i>, 2<sup>e<\/sup> \u00e9d. Leipzig : Veit, 1885-1888, 2 vol., n. 16340 <a target=\"_blank\" href= \"https:\/\/archive.org\/details\/regestapontificu02cath\/page\/552\">[en ligne]<\/a>."
        },
        {
            "type": "apparat_critique",
            "value": "prius <i>Del Giudice.<\/i>",
            "children": {
                "numero_note": "a"
            }
        },
        {
            "type": "notes_historiques",
            "value": "Wilhelm II von Sicilien.",
            "children": {
                "numero_note": "1"
            }
        },
        {
            "type": "sources_manuscrites",
            "value": "A. ITALIE, Rome, Biblioteca Vaticana, Cod. Vat. 3880, Vat. 6420, p. 24. Copie du XIV<sup>e<\/sup> si\u00e8cle,",
            "children": {
                "type_source": "Autre copie m\u00e9di\u00e9vale"
            }
        },
        {
            "type": "apparat_critique",
            "value": "<i>Fehlt bei D.G.<\/i>",
            "children": {
                "numero_note": "b"
            }
        },
        {
            "type": "notes_historiques",
            "value": "Jaff\u00e9, Reg. 9534.",
            "children": {
                "numero_note": "2"
            }
        }
    ]
}