{
    "id": 24270,
    "name": "aposcripta-1421",
    "type": "acte",
    "url": "http:\/\/telma-chartes.irht.cnrs.fr\/aposcripta\/notice\/24270",
    "project_slug": "aposcripta",
    "project_label": "APOSCRIPTA \u2013 Lettres des papes",
    "user": "lettrespontificalesadmin",
    "last_update": "2020-10-19 16:27:26",
    "licence": "Attribution - Pas d\u2019Utilisation Commerciale - Partage dans les M\u00eames Conditions 3.0 France (CC BY-NC-SA 3.0 FR) ",
    "licence_url": "https:\/\/creativecommons.org\/licenses\/by-nc-sa\/3.0\/fr\/",
    "elements": [
        {
            "type": "pape",
            "value": "Honorius III (1216-1227)"
        },
        {
            "type": "date_lieu",
            "value": "n.c."
        },
        {
            "type": "date_libre",
            "value": "8\u00a0mai 1218"
        },
        {
            "type": "date",
            "value": " 1218\/05\/08",
            "children": {
                "date_deb_annee": "1218",
                "date_deb_mois": "05",
                "date_deb_jour": "08"
            },
            "range": {
                "date_apres": 12180508,
                "date_avant": 12180508
            }
        },
        {
            "type": "analyse",
            "value": "Honorius\u00a0III ordonne aux ch\u00e2telains du comt\u00e9 de Melgueil de pr\u00eater serment \u00e0 l\u2019\u00e9v\u00eaque pour les fiefs d\u00e9pendant du comt\u00e9, comme ils l\u2019avaient fait au comte."
        },
        {
            "type": "transcription",
            "value": "<?xml version=\"1.0\" encoding=\"UTF-8\"?>\nHonorius episcopus, servus servorum Dei, dilectis filiis castellanis et aliis fidelibus comitatus Melgoriensis, salutem et apostolicam benedictionem.Presentiuma vobis auctoritate mandamus, quatinus juramenta fidelitatis, que quondam vos vel predecessores vestri pro feudis, que in comitatu Melgoriensi tenetis, comitibus Melgoriensibus prestitistisb, tamquamc comiti, domino comitatus ipsius, venerabili fratri nostro, episcopo Magalonensi, prestetisd, debitam ei reverentiame impendendo.Datum Rome, apud Sanctum Petrum, viii idus maii, pontificatus nostri anno secundo.\n"
        },
        {
            "type": "edition",
            "value": "Julien Rouquette, Augustin Villemagne, <i>Bullaire de l'\u00c9glise de Maguelone<\/i>, Paris, Montpellier : Picard, Valat, 1911-1914, II, n. 234-CLII, p. 28-28"
        },
        {
            "type": "remarques",
            "value": "Fid\u00e8le \u00e0 la politique de son pr\u00e9d\u00e9cesseur, Honorius\u00a0III ne n\u00e9gligea aucun moyen pour assurer \u00e0 l\u2019\u00e9v\u00eaque de Maguelone la possession du comt\u00e9 de Melgueil. Ici nous le voyons intervenir aupr\u00e8s des seigneurs et des ch\u00e2telains du comt\u00e9\u00a0; plus tard, les Papes rappelleront leurs devoirs aux rois de France et d\u2019Aragon. Pour comprendre l\u2019int\u00e9r\u00eat de cette bulle, il ne faut pas oublier que, \u00e0 cette m\u00eame \u00e9poque, le sort des armes semblait favorable aux comtes de Toulouse, et qu\u2019il \u00e9tait \u00e0 craindre que les habitants du comt\u00e9 ne revinssent \u00e0 leurs anciens ma\u00eetres. C\u2019est ce qui arriva en 1222, comme nous le verrons.\n\nIl importe, dussions-nous parfois nous r\u00e9p\u00e9ter, de suivre, pas \u00e0 pas et au jour le jour, la politique pontificale, pour bien la saisir dans tous ses d\u00e9tours, appr\u00e9cier s\u00fbrement la conduite des Papes, et comprendre l\u2019encha\u00eenement des faits.\n\n[Rouquette-Villemagne]"
        },
        {
            "type": "apparat_critique",
            "value": "Cart. et Bull.\u00a0: <i>presencium<\/i>.",
            "children": {
                "numero_note": "a"
            }
        },
        {
            "type": "apparat_critique",
            "value": "Cart.\u00a0: comme le texte que nous donnons\u00a0; Bull.\u00a0: <i>que in comitatu Melgorii prestitistis<\/i>.",
            "children": {
                "numero_note": "b"
            }
        },
        {
            "type": "apparat_critique",
            "value": "Bull.\u00a0: <i>tamquam<\/i>\u00a0; Cart.\u00a0: <i>tanquam<\/i>.",
            "children": {
                "numero_note": "c"
            }
        },
        {
            "type": "apparat_critique",
            "value": "Bull.\u00a0: <i>prestetis<\/i>\u00a0; Cart.\u00a0: <i>pretestis<\/i>.",
            "children": {
                "numero_note": "d"
            }
        },
        {
            "type": "apparat_critique",
            "value": "Bull.\u00a0: <i>reverentiam<\/i>\u00a0; Cart.\u00a0: <i>reverenciam<\/i>.",
            "children": {
                "numero_note": "e"
            }
        },
        {
            "type": "bibliographie_generale",
            "value": "<i>Bull. de Maguelone<\/i>, fol.\u00a015\u00a0v\u00b0",
            "children": {
                "numero_note": "0"
            }
        },
        {
            "type": "bibliographie_generale",
            "value": "<i>Cart. de Maguelone<\/i>, reg.\u00a0C, fol.\u00a0193\u00a0v\u00b0.",
            "children": {
                "numero_note": "1"
            }
        },
        {
            "type": "genre",
            "value": "Bulle"
        }
    ]
}