{
    "id": 26226,
    "name": "aposcripta-3305",
    "type": "acte",
    "url": "http:\/\/telma-chartes.irht.cnrs.fr\/aposcripta\/notice\/26226",
    "project_slug": "aposcripta",
    "project_label": "APOSCRIPTA \u2013 Lettres des papes",
    "user": "lettrespontificalesadmin",
    "last_update": "2020-10-19 16:27:57",
    "licence": "Attribution - Pas d\u2019Utilisation Commerciale - Partage dans les M\u00eames Conditions 3.0 France (CC BY-NC-SA 3.0 FR) ",
    "licence_url": "https:\/\/creativecommons.org\/licenses\/by-nc-sa\/3.0\/fr\/",
    "elements": [
        {
            "type": "pape",
            "value": "Pascal II (1099-1118)"
        },
        {
            "type": "date_lieu",
            "value": "Lateran"
        },
        {
            "type": "date_libre",
            "value": "1113 April 9"
        },
        {
            "type": "date",
            "value": " 1113\/04\/09",
            "children": {
                "date_deb_annee": "1113",
                "date_deb_mois": "04",
                "date_deb_jour": "09"
            },
            "range": {
                "date_apres": 11130409,
                "date_avant": 11130409
            }
        },
        {
            "type": "analyse",
            "value": "Paschalis II erinnert den Bischof Lambert von Arras an die Synodalentscheidung des Streites zwischen dem Kapitel von Arras und den M\u00f6nchen von St.-Vaast (in Arras) wegen der Kapellen Ste.-Croix und St.-Maurice, und bestimmt dieselbe im Einzelnen n\u00e4her."
        },
        {
            "type": "transcription",
            "value": "<?xml version=\"1.0\" encoding=\"UTF-8\"?>\nPaschalis episcopus servus servorum dei venerabili fratri Lamberto, Atrebatensi episcopo, salutem et apostolicam benedictionem. Querimonias clericorum vestrorum adversus monachos sancti Vedasti et monachorum sancti Vedasti adversus clericos vestros ita noveris esse decisas. Auditis siquidem utriusque partis rationibus, communi fratrum deliberatione iudicatum est, ut utreque capelle, videlicet sancte Crucis et sancti Mauricii, ita monachis maneant, sicut in scripto Gerardi, Cameracensis episcopi, continetur, qui Atrebatensis erat ecclesie visitator1. Ceterum de novo burgo sancte Crucis ecclesie clerici primitias, decimas, et tres principalium festorum oblationes recipiant, videlicet pasche, pentecostes, natalis domini. Oblationes vero gratuitas et elemosinarum medietatem de burgo eodem, que vel morientium iudicio ecclesiis delegantur, vel fide comissorum industria dividuntur, monasterium ipsum, si quando offerri contigerit, quiete ac libere absque ulla clericorum contradictione suscipiat, ut tamen altera medietas matrici non subtrahatur ecclesie, presbiteri vero capellarum episcopo consuetam obedientiam exequantur. \u2014 Dat. Laterani, v Idus Aprilis. Indictione vi.\n"
        },
        {
            "type": "edition",
            "value": "Julius von Pflugk-Harttung, <i>Acta pontificum Romanorum inedita<\/i>, T\u00fcbingen, 1880, I, n. 117, p. 104"
        },
        {
            "type": "sources_manuscrites",
            "value": "Abschrift des MS. Moreau 40 fol. 43, in der Bibl. Nat. zu Paris."
        },
        {
            "type": "remarques",
            "value": "Von der Abschrift ist angegeben, sie sei nach dem Originale von 5 Zoll 4 Lin. (0,14 M) Breite und 6 Zoll 11 Lin. (0,19 M.) H\u00f6he angefertigt. An gelber Seide hing das Siegel ; im Depot der Abtei St.-Vaast von Arras. 11 Dec. 1769 \u2014 Ob das Original jetzt noch existirt, vermag ich nicht anzugeben. In dem Departementalarchive zu Arras bilden die Urkunden von St.-Vaast, (die wichtigsten und \u00e4ltesten welche sich im Archive befinden) noch einen grossen ungeordneten Haufen, wozu dem Fremden der Zutritt versagt ist."
        },
        {
            "type": "notes_historiques",
            "value": "<i>Gerhard II war M\u00f6nch und Propst von St.-Vaast gewesen, von 1076\u20131092 Bischof von Cambrai, in den 80ger Jahren Administrator von T\u00e9rouane, wozu damals noch Arras geh\u00f6rte. Das betreffende Synodalschreiben f\u00e4llt in das Jahr 1090. Wauters, Table Chron. I p. 575.<\/i>",
            "children": {
                "numero_note": "1"
            }
        },
        {
            "type": "genre",
            "value": "Bulle"
        }
    ]
}