{
    "id": 147284,
    "name": "aposcripta-6911",
    "type": "acte",
    "url": "http:\/\/telma-chartes.irht.cnrs.fr\/aposcripta\/notice\/147284",
    "project_slug": "aposcripta",
    "project_label": "APOSCRIPTA \u2013 Lettres des papes",
    "user": "tgirard",
    "last_update": "2020-10-19 16:39:29",
    "licence": "Attribution - Pas d\u2019Utilisation Commerciale - Partage dans les M\u00eames Conditions 3.0 France (CC BY-NC-SA 3.0 FR) ",
    "licence_url": "https:\/\/creativecommons.org\/licenses\/by-nc-sa\/3.0\/fr\/",
    "elements": [
        {
            "type": "pape",
            "value": "Alexandre III (1159-1181)"
        },
        {
            "type": "destinataire",
            "value": "L'archev\u00eaque de Tarentaise, Aymon, et ses successeurs"
        },
        {
            "type": "date_libre",
            "value": "XIII kalendas aprilis, indictione IX, MCLXXV, anno XVII"
        },
        {
            "type": "date",
            "value": "1176\/03\/20",
            "children": {
                "date_deb_annee": "1176",
                "date_deb_mois": "03",
                "date_deb_jour": "20"
            },
            "range": {
                "date_apres": 11760320,
                "date_avant": 11760320
            }
        },
        {
            "type": "date_lieu",
            "value": "Anagni"
        },
        {
            "type": "genre",
            "value": "Privil\u00e8ge solennel"
        },
        {
            "type": "analyse",
            "value": "Alexander III best\u00e4tigt dem Erzbischofe Aimo von Tarantaise die Besitzth\u00fcmer und Rechte seiner Kirche, die er in apostolischen Schutz nimmt."
        },
        {
            "type": "edition",
            "value": "Ici reprise de Julius von Pflugk-Harttung, <i>Acta pontificum Romanorum inedita.<\/i> III. <i>Urkunden der P\u00e4pste vom Jahre 590 bis zum Jahre 1197<\/i>, III, Stuttgart : W. Kohlhammer, 1886, n. 254, p. 249-250."
        },
        {
            "type": "transcription",
            "value": "<?xml version=\"1.0\" encoding=\"UTF-8\"?>\nAlexander episcopus, servus servorum Dei, venerabili fratri Aimoni, Tarantasiensi archiepiscopo, eiusque successoribus canonice substituendis, in perpetuum. In apostolice Sedis specula, disponente domino, constituti, fratres nostros episcopos tam vicinos quam longe positos fraterna debemus caritate diligere et eorum quieti et tranquillitati salubriter, auxiliante domino, providere. Huius utique rei consideratione, venerabilis in Christo frater archiepiscope, tuis iustis postulationibus clementer annuimus et Tarentasiensem ecclesiam, cui Deo auctore presides, sub beati Petri et nostra protectione suscipimus et presentis scripti privilegio communimus. Statuentes, ut quascumque possessiones, quecumqua bona eadem ecclesia in presentiarum iuste et canonice possidet, aut in futurum concessione pontificum, largitione regum vel principum, oblatione fidelium seu aliis iustis modis, prestante domino, poterit adipisci, firma tibi tuisque successoribus et illibata permaneant. In quibus hec propriis duximus exprimenda vocabulis : Augustensis1 et Sedunensis2 episcopatus, ecclesiam sancti Mauritii cum omnibus decimis et pertinentiis suis, decimas de Bellantio, ecclesias de Carina cum decimis et omnibus pertinentiis suis, ecclesiam de Longafai cum decimis et pertinentiis suis, ecclesiam de Vileta cum decimis et omnibus pertinentiis suis, ecclesias de Prato cum decimis et pertinentiis suis, ecclesiam sancti Iacobi cum decimis et pertinentiis suis, ecclesiam de Bosellis cum decimis et pertinentiis suis, ecclesiam de Campaniaco cum decimis et pertinentiis suis, ecclesiam de Alodiis cum decimis et pertinentiis (suis), ecclesiam sancti Martini de Desertis cum decimis et pertinentiis suis, ecclesiam sancti Iohannis in eadem terra cum decimis et omnibus pertinentiis suis, ecclesias de monte Pontio cum decimis et omnibus pertinentiis suis, ecclesiam de Celariis cum decimis et pertinentiis suis, ecclesiam sancti Desiderii cum decimis et pertinentiis suis, ecclesiam de Turonis cum decimis et pertinentiis, ecclesias de Conflens cum decimis et pertinentiis suis, ecclesiam de Ventonio cum decimis et pertinentiis suis, quatuor ecclesias de Lucia cum decimis et omnibus pertinentiis suis, ecclesias de Casarchis cum decimis et pertinentiis suis, ecclesiam de Clariaco cum omnibus ecclesiis ad ipsam pertinentibus cum decimis et pertinentiis earum, villam Azosterii cum omnibus proprietatibus, feodis et casamentis, castrum sancti Iacobi cum omnibus proprietatibus, feodis et casamentis, vallem de Bosellis cum appendiciis suis, vallem de Alodiis cum omnibus proprietatibus, feodis et casamentis, villam sancti Iohannis de Desertis cum omnibus proprietatibus, feodis et casamentis, villam de Flacteria cum omnibus proprietatibus, feodis et casamentis, villam de Comba cum omnibus pertinentiis suis, villam sancti Martini cum proprietatibus, feodis et casamentis, vallem de Nanis cum omnibus proprietatibus suis et casamentis, vallem sancti Desiderii cum omnibus proprietatibus, feodis et casamentis, partem, quam habet in castro de Conflens, cum proprietatibus et feodis, vallem de Lucia cum pertinentiis suis, ecclesias sancti Iacobi, sancti Georgii, quas habet in Augusta civitate, cum decimis et pertinentiis earum, ecclesiam sancti Iacobi de castro Argenteo cum pertinentiis suis. Statuimus insuper, ut prescripta ecclesia nulli unquam archiepiscopali ecclesie primatie iure subesse debeat, set soli sacrosancte Romane ecclesie sit, nullo mediante, subiecta, sicut hactenus fuisse dinoscitur. Iustitias quoque, forum, feuda, casamenta et bonos usus, que in terra Tarentasiensis ecclesie tu et predecessores tui hactenus rationabiliter habuistis, tibi et successoribus tuis auctoritate apostolica confirmamus. Nichilominus etiam omnia illa, que rationabiliter vel ad manus tuas tenes aut alii tenent nomine tuo et prescripte ecclesie, tibi et successoribus tuis duximus confirmanda, sub interminatione anathematis prohibentes, ne quis eorum, qui feuda tuo vel ecclesie tue nomine tenent, bonos usus feodorum subtrahere, nobis autem eadem feoda vel usus celare seu temeritate qualibet ab eadem ecclesia alienare presumat. Decernimus ergo, ut nulli omnino hominum liceat prefatam ecclesiam temere perturbare aut eius possessiones auferre vel ablatas retinere, minuere aut quibuslibet vexationibus fatigare, set omnia integra et illibata serventur eorum, pro quorum gubernatione ac sustentatione concessa sunt, usibus[que] omnimodis profutura, salva sedis apostolice auctoritate. Si qua igitur in futurum ecclesiastica secularisve persona, hanc nostre constitutionis paginam sciens, contra eam temere venire temptaverit, secundo tertiove commonita, nisi reatum suum digna satisfactione correxerit, potestatis honorisque sui dignitate careat reamque se divino iudicio existere de perpetrata iniquitate cognoscat, et a sacratissimo corpore ac sanguine dei et domini, redemptoris nostri Iesu Christi, aliena fiat, atque in extremo examine districte ultioni subiaceat. Cunctis autem eidem loco sua iura servantibus sit pax Domini nostri Iesu Christi, quatenus et hic fructum bone actionis percipiant et apud districtum iudicem premia eterne pacis inveniant. Amen. Amen. [R] Ego Alexander catholice ecclesie episcopus ss. [M] \u2020 Ego Hubaldus Hostiensis episcopus ss. \u2020 Ego Bernardus Portuensis et sancte Rufine episcopus ss. \u2020 Ego Iohannes presbiter cardinalis sanctorum Iohannis et Pauli tit. Pamachii ss. \u2020 Ego Iohannes presbiter cardinalis tit. sancte Anastasie ss. \u2020 Ego Albertus presbiter cardinalis tit. sancti Laurentii in Lucina ss. \u2020 Ego Guillelmus tit. sancti Petri ad Vincula presbiter cardinalis ss. \u2020 Ego Boso presbiter cardinalis sancte Pudentiane tit. Pastoris ss. \u2020 Ego Theodinus presbiter cardinalis sancti Vitalis tit. Vestine ss. \u2020 Ego Petrus presbiter cardinalis tit. sancte Susanne ss. \u2020 Ego Iacobus diaconus cardinalis sancte Marie in Cosmedin ss. \u2020 Ego Cinthyus diaconus cardinalis sancti Adriani ss. \u2020 Ego Hugo diaconus cardinalis sancti Eustachii iuxta templum Agrippe ss. \u2020 Ego Laborans diaconus cardinalis sancte Marie in Porticu ss. \u2020 Ego Raynerius diaconus cardinalis sancti Georgii ad Velum aureum ss. Datum Anagni[e] per manum Gratiani, sancte Romane Ecclesie subdiaconi et notarii, XIII kalendas aprilis, indictione VIIII, Incarnationis dominice anno MCLXXV, pontificatus vero domini Alexandri pape III anno XVII.\n"
        },
        {
            "type": "regeste",
            "value": "Philippe Jaff\u00e9, Wilhelm Wattenbach, Samuel Loewenfeld, Ferdinand Kaltenbrunner, Paul Ewald, <i>Regesta pontificum Romanorum ab condita ecclesia ad annum post Christum natum MCXCVIII<\/i>, 2<sup>e<\/sup> \u00e9d. Leipzig : Veit, 1885-1888, 2 vol., n. 12689 <a target=\"_blank\" href= \"https:\/\/archive.org\/details\/regestapontificu02cath\/page\/296\">[en ligne]<\/a>."
        },
        {
            "type": "notes_historiques",
            "value": "Aosta.",
            "children": {
                "numero_note": "1"
            }
        },
        {
            "type": "sources_manuscrites",
            "value": "B. ITALIE, Turin, Archivio Mauriziano, cote non mentionn\u00e9e. Copie de 1412.",
            "children": {
                "type_source": "Autre copie m\u00e9di\u00e9vale"
            }
        },
        {
            "type": "notes_historiques",
            "value": "Sion, Sitten.",
            "children": {
                "numero_note": "2"
            }
        }
    ]
}