{
    "id": 145604,
    "name": "aposcripta-5950",
    "type": "acte",
    "url": "http:\/\/telma-chartes.irht.cnrs.fr\/aposcripta\/notice\/145604",
    "project_slug": "aposcripta",
    "project_label": "APOSCRIPTA \u2013 Lettres des papes",
    "user": "l_valliere",
    "last_update": "2020-10-19 16:39:10",
    "licence": "Attribution - Pas d\u2019Utilisation Commerciale - Partage dans les M\u00eames Conditions 3.0 France (CC BY-NC-SA 3.0 FR) ",
    "licence_url": "https:\/\/creativecommons.org\/licenses\/by-nc-sa\/3.0\/fr\/",
    "elements": [
        {
            "type": "pape",
            "value": "Jean XXII (1316-1334)"
        },
        {
            "type": "destinataire",
            "value": "Le prieur de Santa Croce de Trente, et l'archidiacre ainsi que le chanoine de Trente Giacomo dit Francia"
        },
        {
            "type": "date_libre",
            "value": "XIII kalendas iulii, anno duodecimo"
        },
        {
            "type": "date",
            "value": "1328\/06\/19",
            "children": {
                "date_deb_annee": "1328",
                "date_deb_mois": "06",
                "date_deb_jour": "19"
            },
            "range": {
                "date_apres": 13280619,
                "date_avant": 13280619
            }
        },
        {
            "type": "date_lieu",
            "value": "Avignon"
        },
        {
            "type": "genre",
            "value": "Titre, provisions de b\u00e9n\u00e9fice (littere gratiose, cum filo serico)"
        },
        {
            "type": "analyse",
            "value": "Giovanni XXII conferisce a Pietro di Marco da Dro, chierico trentino, un canonicato nella chiesa di Santa Maria di Arco (diocesi di Trento), con la prebenda vacante per la morte di Bartolino da Brescia, scriptor papale, nonostante egli sia in attesa di canonicato e prebenda nella chiesa di Sancta Maria di Tione e abbia appena ottenuto canonicato e prebenda in quella di Sant\u2019Eleuterio del Bleggio (diocesi di Trento)."
        },
        {
            "type": "sources_manuscrites",
            "value": "R<sup>1<\/sup>. CIT\u00c9 DU VATICAN, Archivio segreto Vaticano, <i>Registra Avenionensia<\/i> 30, MMCCCCLVIIII, fol. 622 (cancell\u00e9e ; taxe : XXIIII).",
            "children": {
                "type_source": "Registre de la chancellerie apostolique"
            }
        },
        {
            "type": "sources_manuscrites",
            "value": "R<sup>2<\/sup>. CIT\u00c9 DU VATICAN, Archivio segreto Vaticano, <i>Registra Vaticana<\/i> 87, fol. 161.",
            "children": {
                "type_source": "Registre de la chancellerie apostolique"
            }
        },
        {
            "type": "edition",
            "value": "Ici reprise d\u2019Emanuele Curzel, <i>Documenti papali per la storia trentina (fino al 1341)<\/i>, Bologne, 2004 (Annali dell\u2019Istituto storico italo-germanico. Fonti ; 1), n. 246, p. 370-372, d\u2019apr\u00e8s R<sup>1<\/sup> et R<sup>2<\/sup>."
        },
        {
            "type": "regeste",
            "value": "Guillaume Mollat, <i>Jean XXII (1316-1334). Lettres communes<\/i> (Biblioth\u00e8que des \u00c9coles Fran\u00e7aises d\u2019Ath\u00e8nes et de Rome), Paris, 1904-1947, n. 41625."
        },
        {
            "type": "transcription",
            "value": "<?xml version=\"1.0\" encoding=\"UTF-8\"?>\nDilectis filiis .. priori Sancte Crucis prope Tridentum et .. archidiacono ac Iacobo dicto Francia canonico Tridentinis, salutem. Apostolice Sedis circunspecta benignitas se libenter illis exhibet liberalem, qui apud eam de honestate morum et vite aliisque virtutum meritis fidedignis testimoniis commendantur. Dudum siquidem canonicatus et prebendas ceteraque beneficia ecclesiastica, que per obitum scriptorum et aliorum officialium nostrorum ubicumque decedentium tunc vacabant et in antea vacare contingeret, collationi et dispositioni nostre specialiter duximus reservanda, decernentes ex tunc irritum et inane si secus de illis per quoscunque, quavis auctoritate, scienter vel ignoranter, contingeret attemptari, cum itaque prebenda quam quondam Bartholinus de Brixia, canonicus ecclesie Sancte Marie de Archo, Tridentine diocesis, scriptor noster, in eadem ecclesia, dum viveret, obtinebat, per ipsius Bartholini obitum, qui olim post reservationem huiusmodi extra Romanam curiam diem clausit extremum, vacare dicatur ad presens, nullusque de illa si, ut premittitur, vacat, preter nos disponere possit, reservatione et decreto huiusmodi obsistentibus, nos, attendentes honestatem moruma, vite munditiam aliaque dona virtutum quibus dilectus filius Petrus Marci de Dro, clericus eiusdem diocesis, apud nos fidedignorum testimonio commendatur ac volentes propterea sibi gratiam facere specialem, discretioni vestre per apostolica scripta committimus et mandamus quatinus vos vel duo aut unus vestrum, per vos vel per alium seu alios, canonicatum eiusdem ecclesie cum plenitudine iuris canonici ac prebendam eandem, si ut predicitur per obitum dicti Bartholini vacat, cum omnibus iuribus et pertinentiis suis eidem Petro auctoritate nostra conferre et assignareb ac sibi de illis etiam providere curetis, inducentes eundem Petrum vel procuratorem suum eius nomine in corporalem possessionem illius ac iurium et pertinentiarum predictorum et defendentes inductum, amoto exinde quolibet detentore, si vero huiusmodi prebenda non vacat in ecclesia supradicta, nos prebendam aliam nulli alii de iure debitam, si ad presens in ecclesia ipsa vacat vel proximo inibi vacaturam, quam idem Petrus per se vel procuratorem suum ad hoc legittimec constitutum infra unius mensis spatium postquam sibi vel eidem procuratori vacatio illius innotuerit duxerit acceptandam, conferendam eidem Petro post acceptationem huiusmodi cum omnibus iuribus et pertinentiis suis eadem auctoritate, donationi apostolice reservetis, districtius inhibentes venerabili fratri nostro .. episcopo Tridentino et dilectis filiis capitulo eiusdem ecclesie seu illi vel illis ad quem vel ad quos in eadem ecclesia prebendarum collatio, provisio seu quevis alia dispositio pertinet, comuniter vel divisim, ne de prebenda huiusmodi per nos, ut predicitur, reservanda interim etiam ante acceptationem predictam, nisi postquam eis constiterit quod ipse Petrus per se vel procuratorem predictum eam noluerit acceptare, disponere quoquomodo presumant, ac decernentes, prout est, si secus de dicta prebenda que fuit dicti Bartholini, si per obitum ipsius Bartholini, ut prefertur, ibidem vacat, attemptatum forsan est hactenus vel de illa seu alia per nos, ut premittitur, reservanda imposterum attemptari contigerit, irritum et inane, facientes insuper eundem Petrum vel procuratorem suum eius nomine recipi ex tunc auctoritate predicta in ecclesia ipsa in canonicum et in fratrem, stallo sibi in choro et loco in capitulo ipsius ecclesie cum plenitudine iuris canonici assignatis, et nichilominus predictam aliam prebendam per vos, ut premittitur, reservandam, si qua huiusmodi reservationis nostre tempore in ecclesia prefata vacabit vel cum eam ex tunc inibi vacare contigerit, eidem Petro vel procuratori suo eius nomine post acceptationem huiusmodi cum omnibus iuribus et pertinentiis suis auctoritate predicta conferre et assignare curetis, facientes eum pacifica illius possessione gaudere, sibique de ipsorum canonicatus et prebende fructibus, redditibus, proventibus, iuribus et obventionibus universis integre responderi, contradictores auctoritate nostra appellatione postposita compescendo, non obstantibus de certo canonicorum numero et aliis statutis et consuetudinibus quibuscumque dicte ecclesie contrariis, iuramento, confirmatione apostolica vel quacumque firmitate alia roboratis, aut si aliqui apostolica vel alia quavis auctoritate in eadem ecclesia in canonicos sint recepti vel ut recipiantur insistant, seu si super provisionibus sibi faciendis de canonicatibus et prebendis in ipsa ecclesia speciales vel de beneficiis ecclesiasticis in illis partibus generales dicte Sedis vel legatorum eius litteras impetrarint, etiam si per eas ad inhibitionem, reservationem et decretum vel alias quomodolibet sit processum, quibus omnibus eundem Petrum in huiusmodi que fuit ipsius Bartholini, si per obitum eiusdem Bartholini ut prefertur vacat, alioquin in alterius per nos, ut predicitur, reservande prebendarum assecutionem preterquam auctoritate nostra in ecclesia ipsa receptis vel prebendas expectantibus in eadem volumus anteferri, set nullum per hoc eis quo ad assecutionem aliorum canonicatuum et prebendarum ac beneficiorum preiudicium generari, seu si eisdem episcopo et capitulo vel quibuscumque aliis, comuniter vel divisim, ab eadem sit Sede indultum quod ad receptionem vel provisionem alicuius minime teneantur et ad id compelli aut quod interdici, suspendi vel excomunicari non possint quodque de canonicatibus et prebendis ipsius ecclesie aliisque beneficiis ecclesiasticis ad eorum collationem, provisionem vel quamcunque aliam dispositionem, coniunctim vel separatim spectantibus, nulli [valeat provideri] per litteras apostolicas non facientes plenam et expressam ac de verbo ad verbum de indulto huiusmodi mentionem et qualibet alia dicte Sedis indulgentia generali vel speciali, cuiuscunque tenoris existat, per quam, presentibus non expressam vel totaliter non insertam, effectus huiusmodi gratie impediri valeat quomodolibet vel differri et de qua cuiusque toto tenore habenda sit in nostris litteris mentio specialis, aut si predictus Petrus presens non fuerit ad prestandum de observandis statutis et consuetudinibus ipsius ecclesie solitum iuramentum, dummodo in absentia sua per procuratorem ydoneum et, cum ad ecclesiam ipsam accesserit corporaliter, illud prestet, seu quod canonicatum et prebendam in plebe Sancte Marie de Tyonod, dicte diocesis, auctoritate litterarum venerabilis fratris nostri Bertrandi, Ostiensis et Velletrensis episcopi, in partibus illis apostolice Sedis legati, noscitur expectare, et quod hodie de canonicatu et prebenda, quos bone memorie Petrus, Sancti Angeli diaconus cardinalis, in ecclesia Sancti Eleutherii de Blezo, dicte diocesis, dum viveret obtinebat, per ipsius cardinalis obitum vacantibus, eidem Petro Marci per alias nostras sub certa forma litteras duximus providendum. Datum Avinione, XIII kalendas iulii, anno duodecimo.\n"
        },
        {
            "type": "apparat_critique",
            "value": "et <i>ajout\u00e9 R<sup>2<\/sup><\/i>.",
            "children": {
                "numero_note": "a"
            }
        },
        {
            "type": "apparat_critique",
            "value": "curetis <i>suit, supprim\u00e9, R<sup>1<\/sup><\/i>.",
            "children": {
                "numero_note": "b"
            }
        },
        {
            "type": "apparat_critique",
            "value": "legitime <i>R<sup>2<\/sup><\/i>.",
            "children": {
                "numero_note": "c"
            }
        },
        {
            "type": "apparat_critique",
            "value": "Tiono <i>R<sup>2<\/sup><\/i>.",
            "children": {
                "numero_note": "d"
            }
        }
    ]
}