{
    "id": 149509,
    "name": "aposcripta-9072",
    "type": "acte",
    "url": "http:\/\/telma-chartes.irht.cnrs.fr\/aposcripta\/notice\/149509",
    "project_slug": "aposcripta",
    "project_label": "APOSCRIPTA \u2013 Lettres des papes",
    "user": "lettrespontificalesadmin",
    "last_update": "2020-10-19 16:39:59",
    "licence": "Attribution - Pas d\u2019Utilisation Commerciale - Partage dans les M\u00eames Conditions 3.0 France (CC BY-NC-SA 3.0 FR) ",
    "licence_url": "https:\/\/creativecommons.org\/licenses\/by-nc-sa\/3.0\/fr\/",
    "elements": [
        {
            "type": "pape",
            "value": "Innocent IV (1243-1254)"
        },
        {
            "type": "destinataire",
            "value": "Nobili viro Alberico de Romano, nostro et ecclesie Romane devoto"
        },
        {
            "type": "date_libre",
            "value": "VIII idus maii, anno XI"
        },
        {
            "type": "date",
            "value": " 1254\/05\/08",
            "children": {
                "date_deb_annee": "1254",
                "date_deb_mois": "05",
                "date_deb_jour": "08"
            },
            "range": {
                "date_apres": 12540508,
                "date_avant": 12540508
            }
        },
        {
            "type": "date_lieu",
            "value": "Asisii"
        },
        {
            "type": "sources_manuscrites",
            "value": "R. CIT\u00c9 DU VATICAN, Archivio Segreto Vaticano, <hi rend=\"italic\">Registra Vaticana<\/hi> ... Inn.\u00a0IV Reg. Vol.\u00a0III, 86; Lib.\u00a0XI, 624. Exemplar Raynaldi, Ann. eccl. a. 1254, \u00a7\u00a040, suppletum ex illo, quod Meerman, l. c. t.\u00a0V, p.\u00a0178 edidit, cum Regestis contulit V. Cl. Monacci.",
            "children": {
                "type_source": "Registre de la chancellerie apostolique"
            }
        },
        {
            "type": "genre",
            "value": "Mandement (littere cum filo canapis)"
        },
        {
            "type": "analyse",
            "value": "Innocentius IV papa Alberico de Romano, devoto ecclesiae, confirmat chartam suam a. 1250, Nov. 27 datam, cui instrumentum Willelmi regis Romanorum a. 1250, Oct. 2 datum insertum est, per quod idem omnia bona perfidi Ezelini Alberico adiudicaverat [Rodenberg]."
        },
        {
            "type": "transcription",
            "value": "<?xml version=\"1.0\" encoding=\"UTF-8\"?>\nNobili viro Alberico de Romano, nostro et ecclesie Romane devoto.Recte considerationis examine libra presidentis appenditur, dum cunctorum merita sic iuxta examinatione pensantur, ut obprobrii pena exiciosorum colla premat et fidelium obsequiis digna respondeat retributio premiorum. Sicut enim in obsequentium remuneratione plures ad merita virtutum erigimus, sic et in pravorum penis ceteris delinquendi audatiam prohibemus. Sane tue nobilitatis assertio continebat, quod nos olim Ezelinum de Romano, quod de fide catholica male sentiret, habentes certa ratione suspectum ipsumque, qui pluries citatus legitime, ut compareret propter hoc personaliter coram nobis, venire contempsit, tamquam hereticum reputantes ac decernentes ipsum promulgatis adversus hereticos sanctionibus subiacere, ipsius bona tibi adiudicavimus universa, et carissimus in Christo filius noster . . rex Romanorum illustris propter premissa, et quod idem E. sibi obstinata rebellare perfidia presumebat, diligenter attendens, ipsum castris, villis, terris, possessionibus, iurisdictionibus, vassallis, mancipiis et eorum peculiis ac universis bonis suis regali auctoritate privavit omnino ipsumque in ammissione eorum eadem auctoritate dampnavit, tibi hec adiudicans universa et ad te cum omni plenitudine iuris pertinere decernens. Nos quoque, quod per regem ipsum super hoc factum extitit, ratum habentes et gratum, id auctoritate apostolica duximus confirmandum. Cum igitur nuper prefatum E. sicut manifestum hereticum sententialiter duxerimus iudicandum, ipsum excommunicatum et anathematizatum cum dampnatis hereticis deputando, ascripta illis dampnationis stipendia recepturum, nos, devotionis tue precibus inclinati, predictos ipsius regis processus ac nostros robur obtinere decernentes perpetue firmitatis, tibi denuo dictas ipsius E. villas et omnia supradicta ex habundantis cautele studio conferimus et adiudicamus ac alias collata et adiudicata auctoritate apostolica confirmamus et presentis scripti patrocinio communimus, intrandi et apprehendendi corporalem possessionem omnium predictorum per te vel alios auctoritate propria \u2014 contrariis constitutionibus canonicis vel civilibus nequaquam obstantibus \u2014 plenam tibi concedentes ac liberam facultatem. Tenorem autem litterarum ipsarum presentibus ad cautelam duximus inserendum:Innocentius episcopus, servus servorum Dei, dilecto filio nobili viro Albrico de Romano salutem etc. Iustis petentium etc. usque: complere. Cum igitur, sicut petitio tua nobis exhibita continebat, carissimus in Christo filius noster W. rex Romanorum illustris, attendens perfidiam et obstinatam rebellionem Ezelini fratris tui, quia contra ipsum rebellare presumit contempta excommunicationis sententia lata in ipsum E. a sede apostolica F. quondam imperatori contra ecclesiam dampnabiliter adherendo, quodque nos prefatum E. suis culpis exigentibus tamquam hereticum reputantes decrevimus latis adversus hereticos sanctionibus subiacere, ipsum castris, villis, terris, possessionibus, iurisdictionibus, vassallis, mancipiis et eorum peculiis ac universis bonis suis omnino privaverit ac tibi et tuis heredibus adiudicaverit omnia supradicta et ad te pertinere decreverit cum omni plenitudine rationis, prout in litteris dicti regis confectis exinde plenius continetur: nos, tuis supplicationibus inclinati, quod ab eodem rege super hiis factum est ratum habentes et gratum, id auctoritate apostolica confirmamus etc. usque: communimus, tenorem litterarum ipsarum presentibus de verbo ad verbum inseri faciendo. Qui talis est:Willelmus Dei gratia Romanorum rex semper augustus nobili viro Albrico de Romano, dilecto fideli suo, gratiam suam et bonam voluntatem. Ineffabilis divine dispositionis providentia, numero, pondere et mensura cuncta stabiliens et disponens, propter hoc ad regni regimen maiestatem regiam creditur ordinasse, ut regalis potentia dignitatis in quiete pacis populum dirigat et iustitie vigore conservet, ut subditorum suorum meritis provida deliberatione discussis bene quidem meritos condignis honoribus et amplioribus beneficiis amplexetur et rebellium protervam audaciam inconfusam et impunitam aliquatenus non relinquat. Hinc est, quod nos, diligentius attendentes preclaram fidem, devotionem sinceram et inconcussam constantiam, quam erga sanctam matrem ecclesiam ac sacrum Romanum imperium in prompta et iugi prosecutione negotiorum suorum non sine gravibus et dispendiosis laboribus, non sine magnis persone et rerum tuarum periculis dinosceris habuisse, quem nulla tribulatio, nulla umquam potuit angustia superare, ut te ab obsequio et devotione ecclesie separaret, considerantes etiam nephandam malitiam et obstinatam rebellionem Ezelini fratris tui, qui contemptor excellentie nostre ac conculcator ecclesiastice libertatis eo minus de fide habere connititur, quo in ipsius orthodoxe fidei zelatores crudelius et inhumanius desevire probatur, qui etiam vilipensis ecclesie clavibus Friderico quondam imperatori patenter assistens ad ecclesie gremium pertinaciter redire contempsit, quem insuper dominus papa tamquam hereticum reputans decrevit latis adversus hereticos sanctionibus subiacere: prefatum Ezelinum suis culpis exigentibus castris, villis, terris, possessionibus, iurisdictionibus, iuribus, vassallis, mancipiis et eorum peculiis ac universis bonis, que occasione divisionis inter te et ipsum habite de bonis paternis, sive adhuc patre vivente et ipsius consensu sive iam mortuo, et omnibus aliis bonis, que postea iure hereditario ex parte patris vel aliunde, et insuper, que alias emptionis, donationis, permutationis aut quoquo alio iusto titulo undecumque ad ipsum Ezelinum usque ad presentem diem quocumque tempore pervenerunt, aut si quid iure ulterius pervenerit ad eundem, auctoritate regia privamus omnino et condempnamus eum in amissione omnium predictorum; tibique ac tuis heredibus adiudicamus omnia supradicta et ad te pertinere decernimus cum omni plenitudine rationis. Quicquid autem ad imperium vel fiscum nostrum in bonis memoratis pertinere dinoscitur seu possit et debeat de iure devolvi, pro eo quod hereticus reputatus idem E. debeat predictis sanctionibus subiacere, sive quod nostram leserit vel offenderit maiestatem, sive quod in dictum Fridericum de bonis suis aliquid duxerit transferendum, id tibi ac tuis heredibus pleno iure de speciali gratia liberaliter concedimus et donamus ipsorumque bonorum omnium predictorum intromissiones faciendi et possessiones apprehendendi auctoritate tua liberam tibi damus et concedimus facultatem [et] ea pro tuis amodo pacifice possidendi. Siquas autem venditiones, donationes, permutationes, obligationes seu quascumque alienationes dictus Ezelinus fecisse reperiatur ipsi F. aut familiaribus eius quandocumque de predictis aliquibus bonis suis aut alii cuicumque persone, te excepto, postquam eidem F. potenter adhesit, testamentum etiam et quamlibet ultimam voluntatem, in qua alteri quam tibi aliqua bona sua duxerit relinquenda, ea omnia et singula penitus irritamus et nullius momenti fore decernimus ac predictis nostris concessionibus non obstare. Set omnia prorsus ad te pertineant secundum formam superius nominatam, lege aliqua non obstante, siqua reperiretur supradictis aliquibus obviare; cui, quantum est in hac parte, volumus derogari. Preterea, siquas constitutiones vel banna seu alia quecumque gravamina contra personam tuam vel bona tua idem F. vel alius pro eo edidisse vel intulisse reperiatur, ipsa totaliter revocamus, et volumus, ut exinde tibi aut heredibus tuis nullum preiudicium generetur. Siquis autem contra huius pagine tenorem venire presumpserit, gravem nostre celsitudinis offensam se noverit incursurum. Et ut hec omnia rata et inconvulsa permaneant et sint perpetuo valitura, presentes litteras sigillo maiestatis nostre fecimus communiri. Dat. in castris ante Geylenhusen, VI Nonas Octobris, indictione IXa, anno Domini M\u00b0CC\u00b0L\u00b0, regni vero nostri anno secundo.Nulli etc. nostre confirmationis etc. Dat. Lugduni, V Kalendas Decembris, anno VIII\u00b0.Nulli etc. nostre confirmationis etc.Dat. Asisii, VIII Idus Maii, anno XI\u00b0.\n"
        },
        {
            "type": "edition",
            "value": "Ici reprise de Karl Rodenberg, Epistolae s. XIII e regestis pontificum romanorum selectae, III, Berlin : Weidmann (MGH), 1894, n.\u00a0281, p.\u00a0250."
        },
        {
            "type": "edition_autre",
            "value": "?"
        },
        {
            "type": "regeste",
            "value": "?"
        },
        {
            "type": "bibliographie_generale",
            "value": "?"
        },
        {
            "type": "apparat_critique",
            "value": "?",
            "children": {
                "numero_note": "a"
            }
        },
        {
            "type": "apparat_critique",
            "value": "?",
            "children": {
                "numero_note": "b"
            }
        },
        {
            "type": "apparat_critique",
            "value": "?",
            "children": {
                "numero_note": "c"
            }
        },
        {
            "type": "apparat_critique",
            "value": "?",
            "children": {
                "numero_note": "d"
            }
        },
        {
            "type": "apparat_critique",
            "value": "?",
            "children": {
                "numero_note": "e"
            }
        },
        {
            "type": "apparat_critique",
            "value": "?",
            "children": {
                "numero_note": "f"
            }
        },
        {
            "type": "notes_historiques",
            "value": "?",
            "children": {
                "numero_note": "1"
            }
        },
        {
            "type": "notes_historiques",
            "value": "?",
            "children": {
                "numero_note": "2"
            }
        },
        {
            "type": "notes_historiques",
            "value": "?",
            "children": {
                "numero_note": "3"
            }
        }
    ]
}