{
    "id": 20249,
    "name": "aposcripta-236",
    "type": "acte",
    "url": "http:\/\/telma-chartes.irht.cnrs.fr\/aposcripta\/notice\/20249",
    "project_slug": "aposcripta",
    "project_label": "APOSCRIPTA \u2013 Lettres des papes",
    "user": "lettrespontificalesadmin",
    "last_update": "2020-10-19 16:26:46",
    "licence": "Attribution - Pas d\u2019Utilisation Commerciale - Partage dans les M\u00eames Conditions 3.0 France (CC BY-NC-SA 3.0 FR) ",
    "licence_url": "https:\/\/creativecommons.org\/licenses\/by-nc-sa\/3.0\/fr\/",
    "elements": [
        {
            "type": "pape",
            "value": "Jean XXII (1316-1334)"
        },
        {
            "type": "date_lieu",
            "value": "Avignon"
        },
        {
            "type": "date_libre",
            "value": "8 novembre 1327"
        },
        {
            "type": "analyse",
            "value": "Le pape \u00e9crit aux trois cardinaux commissaires qu\u2019il avait charg\u00e9s, le 14 novembre 1324, d\u2019instruire un proc\u00e8s de sorcellerie (cf. n. 72), d\u2019avoir \u00e0 terminer ce proc\u00e8s."
        },
        {
            "type": "transcription",
            "value": "<?xml version=\"1.0\" encoding=\"UTF-8\"?>\nVenerabili fratri Guillelmo, episcopo Sabinen., et dilectis filiis Petro tit. Sancte Susanne, presbitero, ac Bertrando S. Marie in Aquiro diacono cardinalibus1. \u2014 Dudum ad nostri apostolatus auditum [etc., comme au n. 72, avec de l\u00e9g\u00e8res variantes de forme, jusqu\u2019\u00e0 : videremus conveniens valeremus]. Sane cum vos ad inquirendum super predictis iuxta tenorem litterarum processeritis predictarum nobisque referenda fideliter duxeritis que per vos facta et reperta in hac parte fuerunt, nos, qui ex iniuncto desuper apostolatus officio sumus omnibus tam sapientibus quam insipientibus in iustitia debitores, volentes super premissis exhiberi iustitie complementum, ac de vestre et cuiuslibet vestrum exquisite circumspectionis prudentia plenam in Domino fiduciam obtinentes, vobis presentium tenore committimus et mandamus quatinus vos, vel duo aut unus vestrum per vos, vel alium, seualios prefatum negotium quoad dictos clericos et priorem diffinire ac decidere prout iustitia exegerit studeatis. \u2014 Datum Avinioni, vi idus novembris, anno duodecimo.\n"
        },
        {
            "type": "edition",
            "value": "Jean-Marie Vidal, <i>Bullaire de l\u2019Inquisition fran\u00e7aise au XIV<sup>e<\/sup> si\u00e8cle et jusqu'\u00e0 la fin du Grand Schisme<\/i>, Paris : Letouzey et An\u00e9, 1913, n. 78 bis, p. 130"
        },
        {
            "type": "sources_manuscrites",
            "value": "<i>Reg. Vat.<\/i>, t. <span class=\"smal-caps\">cxiv<\/span>, part. 2, fol. 179, n. 1735"
        },
        {
            "type": "sources_manuscrites",
            "value": "oseph Hansen, <i>Quellen und Untersuchungen zur Geschichte des Hexenwahns und der Hexenverfolgung im Mittelalter<\/i>, Bonn, 1901 (reprint Hildesheim 1963 et 2003), p. 671 <a target=\"_blank\" href=\"https:\/\/archive.org\/details\/b24863932\/page\/19\/mode\/2up\"> [en ligne]<\/a>."
        },
        {
            "type": "notes_historiques",
            "value": "Sur ces personnages, voir n. 72, notes.",
            "children": {
                "numero_note": "1"
            }
        },
        {
            "type": "date",
            "value": "1327\/11\/08",
            "children": {
                "date_deb_annee": "1327",
                "date_deb_mois": "11",
                "date_deb_jour": "08"
            },
            "range": {
                "date_apres": 13271108,
                "date_avant": 13271108
            }
        },
        {
            "type": "genre",
            "value": "Bulle"
        }
    ]
}