{
    "id": 20764,
    "name": "aposcripta-751",
    "type": "acte",
    "url": "http:\/\/telma-chartes.irht.cnrs.fr\/aposcripta\/notice\/20764",
    "project_slug": "aposcripta",
    "project_label": "APOSCRIPTA \u2013 Lettres des papes",
    "user": "lettrespontificalesadmin",
    "last_update": "2020-10-19 16:26:53",
    "licence": "Attribution - Pas d\u2019Utilisation Commerciale - Partage dans les M\u00eames Conditions 3.0 France (CC BY-NC-SA 3.0 FR) ",
    "licence_url": "https:\/\/creativecommons.org\/licenses\/by-nc-sa\/3.0\/fr\/",
    "elements": [
        {
            "type": "pape",
            "value": "Alexandre III (1159-1181)"
        },
        {
            "type": "date_lieu",
            "value": "B\u00e9n\u00e9vent"
        },
        {
            "type": "date_libre",
            "value": "II kalendas julii"
        },
        {
            "type": "analyse",
            "value": "Alexander\u00a0III capituli Aurelianensis statutum confirmat ut nullus canonicorum, nisi fuerit in servitio assiduus, ultra 25 solidos de beneficiis annuatim recipiat."
        },
        {
            "type": "transcription",
            "value": "<?xml version=\"1.0\" encoding=\"UTF-8\"?>\nAlexander episcopus, servus servorum Dei, dilectis filiis decano et capitulo Aurelianensi, salutem et apostolicam benedictionem. Pro ecclesiarum incremento pariter et augmento sollicite debemus satagere et eorum rationabiles constitutiones et consuetudines conservare. Suggestum est siquidem nobis, quod in ecclesia vestra communiter est statutum, ut nullus canonicorum vestrorum de beneficiis ecclesiae ultra XX et V solidos annuatim recipiat, nisi qui fuerit in eiusdem ecclesiae servitio assiduus. Quam utique constitutionem salvis praebendis, quas in eadem ecclesia Cluniacense monasterium aut alia religiosa domus antiquitus habuit, ratam et firmam habentes, eam auctoritate apostolica confirmamus et robur de cetero perpetuae firmitatis tenere sancimus. Statuentes ut nulli omnino hominum liceat hanc paginam nostrae confirmationis infringere vel ei aliquatenus contraire. Si quis autem hoc attemptare praesumpserit, indignationem omnipotentis Dei et beatorum Petri et Pauli apostolorum eius se noverit incursurum. Datum Beneventi II kalendas iulii.\n"
        },
        {
            "type": "edition",
            "value": "Samuel Loewenfeld, <i>Epistolae pontificum romanorum ineditae<\/i>, Leipzig : Veit et Comp., 1885, n. 252, p. 141-142"
        },
        {
            "type": "sources_manuscrites",
            "value": "Bibl. nat. Paris. Coll. Baluze t.\u00a078 fol.\u00a013<sup>b<\/sup>. Descripsit Steph. Baluzius a.\u00a01667 (\u00ab ex chartular. vetere eccl. Aurelianens., ubi epistola num. XXVII signata erat \u00bb).",
            "children": {
                "type_source": "Copie moderne"
            }
        },
        {
            "type": "date",
            "value": "1168\/06\/30",
            "children": {
                "date_deb_annee": "1168",
                "date_deb_mois": "06",
                "date_deb_jour": "30"
            },
            "range": {
                "date_apres": 11680630,
                "date_avant": 11680630
            }
        },
        {
            "type": "genre",
            "value": "Titre, g\u00e9n\u00e9ral (littere gratiose, cum filo serico)"
        },
        {
            "type": "destinataire",
            "value": "Le doyen et le chapitre d'Orl\u00e9ans"
        },
        {
            "type": "date",
            "value": "1169\/06\/30",
            "children": {
                "date_deb_annee": "1169",
                "date_deb_mois": "06",
                "date_deb_jour": "30"
            },
            "range": {
                "date_apres": 11690630,
                "date_avant": 11690630
            }
        }
    ]
}