{
    "id": 147794,
    "name": "aposcripta-7416",
    "type": "acte",
    "url": "http:\/\/telma-chartes.irht.cnrs.fr\/aposcripta\/notice\/147794",
    "project_slug": "aposcripta",
    "project_label": "APOSCRIPTA \u2013 Lettres des papes",
    "user": "l_valliere",
    "last_update": "2020-10-19 16:39:36",
    "licence": "Attribution - Pas d\u2019Utilisation Commerciale - Partage dans les M\u00eames Conditions 3.0 France (CC BY-NC-SA 3.0 FR) ",
    "licence_url": "https:\/\/creativecommons.org\/licenses\/by-nc-sa\/3.0\/fr\/",
    "elements": [
        {
            "type": "pape",
            "value": "Cl\u00e9ment IV (1265-1268)"
        },
        {
            "type": "destinataire",
            "value": "Le cardinal-\u00e9v\u00eaque d'Albano Raoul, l\u00e9gat du Si\u00e8ge apostolique"
        },
        {
            "type": "genre",
            "value": "Lettre, g\u00e9n\u00e9ral (apr\u00e8s 1198, littere cum filo canapis)"
        },
        {
            "type": "analyse",
            "value": "Hortatur [Radulphum] episcopum Albanensem, ut in Sicilie legatione perseveret, eique nunciat, Petrum Cambellanum ad [Carolum] regem Sicilie redire, et Sancium filium regis Aragonum advenisse. \u00ab Die Jovis instante illustris viri imperatoris Constantinopolitani prestolamur adventum \u00bb [Jordan].\nClemens IV. an R(aoul Grosparmi,) Kardinalbischof von Albano, apostolischer Legat: lehnt seine Bitte ab, von der Legation im K\u00f6nigreich Sizilien zur\u00fcckkehren zu d\u00fcrfen; unterrichtet ihn, da\u00df er Pierre le Chambellan zu K\u00f6nig (Karl I.) von Sizilien geschickt habe; Sancho, der Sohn K\u00f6nig (Jakobs I.) von Arag\u00f3n, sei bei ihm eingetroffen, Kaiser (Balduin II.) von Konstantinopel werde erwartet [Thumser]."
        },
        {
            "type": "sources_manuscrites",
            "value": "R<sup>1<\/sup>. CIT\u00c9 DU VATICAN, Archivio segreto Vaticano, <i>Registra Vaticana<\/i> 30, fol. 42.",
            "children": {
                "type_source": "Formulaire, collection de lettres m\u00e9di\u00e9vale"
            }
        },
        {
            "type": "sources_manuscrites",
            "value": "R<sup>2<\/sup>. CIT\u00c9 DU VATICAN, Archivio segreto Vaticano, <i>Registra Vaticana<\/i> 33, ep. 235, fol. 42.",
            "children": {
                "type_source": "Formulaire, collection de lettres m\u00e9di\u00e9vale"
            }
        },
        {
            "type": "sources_manuscrites",
            "value": "R<sup>3<\/sup>. CIT\u00c9 DU VATICAN, Archivio segreto Vaticano, <i>Registra Vaticana<\/i> 34, fol. 61v.",
            "children": {
                "type_source": "Formulaire, collection de lettres m\u00e9di\u00e9vale"
            }
        },
        {
            "type": "sources_manuscrites",
            "value": "R<sup>4<\/sup>. CIT\u00c9 DU VATICAN, Archivio segreto Vaticano, <i>Registra Vaticana<\/i> 35, ep. 236, fol. 47 (sans date).",
            "children": {
                "type_source": "Formulaire, collection de lettres m\u00e9di\u00e9vale"
            }
        },
        {
            "type": "edition",
            "value": "Ici reprise de Mathias Thumser, <i>Die Briefe Papst Clemens\u2019 IV. (1265\u20131268)<\/i>, Vorl\u00e4ufige Edition, MGH, 2015, n. 238."
        },
        {
            "type": "edition_autre",
            "value": "Edmond Mart\u00e8ne, Ursin Durand, <i>Thesaurus novus anecdotorum<\/i>, Paris, 1717, II, n. 361, col. 388 <a target=\"_blank\" href=\"https:\/\/archive.org\/stream\/ThesaurusNovusAnecdotorum2\/Thesaurus_novus_anecdotorum_2#page\/n229\/mode\/2up\"> [en ligne]<\/a>."
        },
        {
            "type": "regeste",
            "value": "Potthast, <i>Regesta pontificum Romanorum<\/i>, n. 19782 <a target=\"_blank\" href=\"https:\/\/archive.org\/stream\/RegestaPontificumRomanorum\/ph#page\/n1611\/mode\/2up\"> [en ligne]<\/a>."
        },
        {
            "type": "regeste",
            "value": "\u00c9douard Jordan, <i>Les registres de Cl\u00e9ment IV (1265-1268)<\/i>, Paris, 1893-1945, n. 1107, d\u2019apr\u00e8s R<sup>1<\/sup>, R<sup>2<\/sup>, R<sup>3<\/sup> et R<sup>4<\/sup>."
        },
        {
            "type": "transcription",
            "value": "<?xml version=\"1.0\" encoding=\"UTF-8\"?>\nR[adulfo] episcopo Albanensi, apostolice Sedis legato. Quamvis tuis compatiamur laboribus et inviti tua presentia careamus, quia tamen nec regnum Sicilie multis subiectum defectibus sine legato relinquere possumus nec raptorem expedit tibi substitui, tuis precibus condescendere nostreque consolationi consulere non valemus. Porta igitur propter Christum angustias, labores sustine nec deficienti animo fatigeris, qui necdum usque ad sanguinem restitisti1. Quod si de personarum, quas credis ad onera necessarias, paucitate conquereris, assume, quos volueris et idoneos esse credideris sapientia, fide, fama. Nec turberis si, dum uni vacas negotio, aliqua suspenduntur. Nec enim a te Deus opus requirit miraculi, quod habet fieri in instanti, sed successivis operibus te astrinxit. Nec te reum putaveris, dum vel utiliter unum agis, qui non omnia simul potes. Confortare in Domino, qui tibi astitit et assistit nec in tempore malo te deseret vacillantem consilio muniens et auxilio roborans laborantem. Demum iuxta nostrum consilium redit ad carissimum in Christo filium nostrum regem Sicilie illustrem dilectus filius Petrus Cambellanus probaturus iterum, quod probavit. Et, si litus arare se viderit, credimus, quod in Franciam revertetur. Ecce venit ad nostram presentiam dilectus filius Sancius filius illustris regis Aragonum valde bene compositus et in nostris ac fratrum nostrorum oculis gratiosus. Die Iovis instante illustris viri imperatoris Constantinopolitani prestolamur adventum. Datum Viterbii, IIII nonas augusti, anno II.\n"
        },
        {
            "type": "date",
            "value": "1266\/08\/02",
            "children": {
                "date_deb_annee": "1266",
                "date_deb_mois": "08",
                "date_deb_jour": "02"
            },
            "range": {
                "date_apres": 12660802,
                "date_avant": 12660802
            }
        },
        {
            "type": "date_libre",
            "value": "IIII nonas augusti, anno secundo"
        },
        {
            "type": "date_lieu",
            "value": "Viterbe"
        },
        {
            "type": "bibliographie_generale",
            "value": "Mathias Thumser, \u00ab Zur \u00dcberlieferungsgeschichte der Briefe Clemens'IV. (1265-1268) \u00bb, <i>Deutsches Archiv f\u00fcr Erforschung des Mittelalters<\/i>, 51\/1, 1995, p. 115-168."
        },
        {
            "type": "notes_historiques",
            "value": "Hebr. 12,3\u20134.",
            "children": {
                "numero_note": "1"
            }
        }
    ]
}