{
    "id": 20109,
    "name": "aposcripta-96",
    "type": "acte",
    "url": "http:\/\/telma-chartes.irht.cnrs.fr\/aposcripta\/notice\/20109",
    "project_slug": "aposcripta",
    "project_label": "APOSCRIPTA \u2013 Lettres des papes",
    "user": "lettrespontificalesadmin",
    "last_update": "2020-10-19 16:26:44",
    "licence": "Attribution - Pas d\u2019Utilisation Commerciale - Partage dans les M\u00eames Conditions 3.0 France (CC BY-NC-SA 3.0 FR) ",
    "licence_url": "https:\/\/creativecommons.org\/licenses\/by-nc-sa\/3.0\/fr\/",
    "elements": [
        {
            "type": "date_lieu",
            "value": "s.l."
        },
        {
            "type": "date_libre",
            "value": "[1344?]"
        },
        {
            "type": "analyse",
            "value": "Epistola<a class=\"note\" href=\"#note-1\">1<\/a> Clementis papae VI ad Odonem, ducem Burgundiae, pro Hugone de Rupe Romanae curiae mareschallo."
        },
        {
            "type": "transcription",
            "value": "<?xml version=\"1.0\" encoding=\"UTF-8\"?>\nDilecto filio nobili viro Odoni duci Burgundie. Relatu percepimus fide digno quod dilectus filius nobilis vir Hugo de Rupe, miles, nepos noster, romane curie marescallus, castrum Montisfortis situm in Burgundia cum castellania et aliis juribus et pertinentiis suis dudum a dilecto filio nobili viro Aymerico de Malomonte, milite, ad quem jure successionis pervenerat, justo titulo acquisivit. Cum autem idem marescallus tam ratione sui officii quam obsequiorum nostrorum familiarium, quibus incessanter insistit, occupatus continue ad tue nobilitatis presentiam pro faciendis et prestandis hiis ad que tibi pro castro et castellania predictis tenetur accedere personaliter nequeat commode de presenti, nobilitatem eamdem plenis affectibus deprecamur quatinus procuratorem suum super predictis ydonea potestate suffultum, quem ad eamdem presentiam destinare providit, ad facienda et prestanda illa que dictus marescallus tibi pro premissis tenetur velis admittere favorabiliter de gratia speciali, aut alicui de quo possis confidere in hiis partibus committere recipiendi ab eodem marescallo premissa tuo nomine concedere potestatem, vel saltem usque ad certi competentis temporis spatium, infra quod idem marescallus possit ad eamdem tuam presentiam se conferre, negotium hujusmodi ponere in sufferentia et respectu, eidem interim saisina et possessione castri et castellanie juriumque predictorum sic expeditis plene ac libere quod eis gaudere valeat ac si fecisset ac prestitisset ea que tenetur facere, ut premissum est, et prestare, te, fili, taliter quesumus super hiis habiturus quod nos exinde tibi ad gratiarum actiones uberes teneamur. Datum.\n"
        },
        {
            "type": "edition",
            "value": "\u00c9tienne Baluze, Guillaume Mollat, <i>Vitae paparum Avenionensium. Nouvelle \u00e9dition revue d'apr\u00e8s les manuscrits et compl\u00e9t\u00e9e de notes critiques<\/i>, Paris : Letouzey et An\u00e9, 1914-1922, vol. 4, n. CXIX"
        },
        {
            "type": "sources_manuscrites",
            "value": "D\u2019apr\u00e8s le ms. latin <i>4124,<\/i> p. 693 (Biblioth\u00e8que nationale de Paris)."
        },
        {
            "type": "notes_historiques",
            "value": "D\u2019apr\u00e8s le ms. latin <i>4124,<\/i> p. 693 (Biblioth\u00e8que nationale de Paris).",
            "children": {
                "numero_note": "1"
            }
        },
        {
            "type": "pape",
            "value": "Cl\u00e9ment VI (1342-1352)"
        },
        {
            "type": "date",
            "value": "apres 1344 - avant 1344",
            "children": {
                "date_deb_annee": "1344",
                "date_deb_type": "apres",
                "date_fin_annee": "1344",
                "date_fin_type": "avant"
            },
            "range": {
                "date_apres": 13440000,
                "date_avant": 13449999
            }
        },
        {
            "type": "genre",
            "value": "Bulle"
        }
    ]
}