{
    "id": 24779,
    "name": "aposcripta-1917",
    "type": "acte",
    "url": "http:\/\/telma-chartes.irht.cnrs.fr\/aposcripta\/notice\/24779",
    "project_slug": "aposcripta",
    "project_label": "APOSCRIPTA \u2013 Lettres des papes",
    "user": "j_theryastruc",
    "last_update": "2020-10-19 16:27:34",
    "licence": "Attribution - Pas d\u2019Utilisation Commerciale - Partage dans les M\u00eames Conditions 3.0 France (CC BY-NC-SA 3.0 FR) ",
    "licence_url": "https:\/\/creativecommons.org\/licenses\/by-nc-sa\/3.0\/fr\/",
    "elements": [
        {
            "type": "pape",
            "value": "Martin V (1417-1431)"
        },
        {
            "type": "destinataire",
            "value": "Le dauphin de Viennois Charles"
        },
        {
            "type": "date_libre",
            "value": "IV nonas aprilis, anno quarto"
        },
        {
            "type": "date",
            "value": " 1422\/04\/02",
            "children": {
                "date_deb_jour": "02",
                "date_deb_mois": "04",
                "date_deb_annee": "1422"
            },
            "range": {
                "date_apres": 14220402,
                "date_avant": 14220402
            }
        },
        {
            "type": "date_lieu",
            "value": "Rome, Saint-Pierre"
        },
        {
            "type": "genre",
            "value": "Lettre, g\u00e9n\u00e9ral (apr\u00e8s 1198, littere cum filo canapis)"
        },
        {
            "type": "sources_manuscrites",
            "value": "E. FRANCE, Paris, Archives nationales de France, J 188b. Mention hors teneur : <i>Jo. de Vado<\/i>. Au dos : <i>Dilecto filio nobili viro Carolo, dalphino Viennensi. A. de Luschis. Registrata altera earum in Libro cartarum circa inicium<\/i>.",
            "children": {
                "type_source": "Exp\u00e9dition",
                "source_edition": ""
            }
        },
        {
            "type": "sources_manuscrites",
            "value": "F. FRANCE, Paris, Archives nationales de France, LL4 (ou mus\u00e9e \u00e9tranger, AE III), fol. 44, copie incompl\u00e8te.",
            "children": {
                "type_source": "Autre copie m\u00e9di\u00e9vale"
            }
        },
        {
            "type": "edition",
            "value": "Ici reprise de No\u00ebl Valois, <i>Histoire de la Pragmatique Sanction de Bourges sous Charles VII<\/i>, Paris, A. Picard et fils, 1906, n. 5, p. 6-7 <a target=\"_blank\" href= \" https:\/\/archive.org\/stream\/histoiredelapra00valogoog#page\/n214\"> [en ligne]<\/a>, d'apr\u00e8s E et G."
        },
        {
            "type": "transcription",
            "value": "<?xml version=\"1.0\" encoding=\"UTF-8\"?>\nMartinus episcopus, servus servorum Dei, dilecto filio nobili viro Carolo, Dalphino Viennensi, salutem et apostolicam benedictionem.Cum ex dilecto filio Artaldo, abbate monasterii Sancti Antonii Viennensis, noviter a conspectu tuo ad nostram presentiam veniente, de valitudine tue persone et reliquo rerum tuarum statu cupidissime exquireremus, cum magna admiratione audivimus ab eodem generositati tue fuisse suggestum nos nonnulla fecisse in prejudicium juris tui in regno Francie, quod profecto fuit semper a nostra intentione remotum. Nos enim, fili dilecte, qui pacem et concordiam super omnia querimus et optamus, qua adduci ratione potuissemus ad aliquid faciendum quod esset perpetue discordie nutrimentum et propter quod merito tua devotio filialis fieret a nobis, qui te sincere diligimus, aliena ? Hoc, fili, crede, non facimus, nec ullo unquam tempore faciemus ; nec tibi obesse, sed in omnibus prodesse curavimus et sic facere intendimus in futurum ; nec fovere inimicicias que orte sunt nostra auctoritate volumus nec debemus, sed, quantum cum Deo possumus, procuramus eas tollere et abolere. Omnis igitur, si qua est, de corde tuo mala suspicio repellatur. Nam erga te habemus, velut ad nostrum et Ecclesie filium, caritatem, et habemus etiam eam rationem dignitatis tue que de regis Francie filio habenda est, tuaque negocia, ut dignum est, cure sunt nobis et erunt semper cum plenissima affectione, sicut te velle par est, suadente justicia commendata. Similes litteras pridie dedimus venerabili fratri nostro Jacobo, archiepiscopo Turonensi, cum credentia in sui persona nobilitati tue reddendas ; sed cum ipse non tam celeriter proficiscatur, has mandavimus duplicari, cicius deferendas.Datam Rome, apud Sanctum Petrum, IVo nonas aprilis, pontificatus nostri anno quarto.\n"
        }
    ]
}