{
    "id": 25932,
    "name": "aposcripta-3029",
    "type": "acte",
    "url": "http:\/\/telma-chartes.irht.cnrs.fr\/aposcripta\/notice\/25932",
    "project_slug": "aposcripta",
    "project_label": "APOSCRIPTA \u2013 Lettres des papes",
    "user": "lettrespontificalesadmin",
    "last_update": "2020-10-19 16:27:50",
    "licence": "Attribution - Pas d\u2019Utilisation Commerciale - Partage dans les M\u00eames Conditions 3.0 France (CC BY-NC-SA 3.0 FR) ",
    "licence_url": "https:\/\/creativecommons.org\/licenses\/by-nc-sa\/3.0\/fr\/",
    "elements": [
        {
            "type": "pape",
            "value": "Innocent IV (1243-1254)"
        },
        {
            "type": "destinataire",
            "value": "( )",
            "children": {
                "numero_note": "0"
            }
        },
        {
            "type": "date_lieu",
            "value": "Lyon"
        },
        {
            "type": "date_libre",
            "value": "1246"
        },
        {
            "type": "date",
            "value": "apres 1246 - avant 1246",
            "children": {
                "date_deb_annee": "1246",
                "date_deb_type": "apres",
                "date_fin_annee": "1246",
                "date_fin_type": "avant"
            },
            "range": {
                "date_apres": 12460000,
                "date_avant": 12469999
            }
        },
        {
            "type": "analyse",
            "value": "X pape<br\/>Bulle du Pape Innocent IV. qui confirme les biens & privil\u00e9ges de l\u2019Abba\u00efe de Tournus."
        },
        {
            "type": "transcription",
            "value": "<?xml version=\"1.0\" encoding=\"UTF-8\"?>\nInnocentius Episcopus servus servorum Dei, dilectis filiis Abbati monasterii Trenorchiensis, ej\u00fasque fratribus tam pr\u00e6sentibus qu\u00e0m futuris, regularem vitam professis in perpetuum. Cum universis sanct\u00e6 Ecclesi\u00e6 debitores ex Apostolic\u00e6 auctoritate ac benevolentia existamus, illis tamen locis atque personis, qu\u00e6 specialius ac familiarius sanct\u00e6 Roman\u00e6 adherent Ecclesi\u00e6, propensiori nos convenit caritatis studio imminere. Proinde, dilecti in Domino filii, vestris justis petitionibus clementer annuimus, &amp; pr\u00e6decessorum nostrorum felicis recordationis, Urbani, Paschalis, Calixti, Innocentii, Lucii, &amp; Eugenii Romanorum Pontificum vestigiis inh\u00e6rentes Trenorchiense monasterium, Ordinis S. Benedicti, quod specialiter beati Petri juris existit, Cabilonensis diocesis in quo divino mancipati estis obsequio, sub beati Petri &amp; nostra protectione suscipimus, &amp; pr\u00e6sentis scripti privilegio communimus; statuentes ut quascumque possessiones, qu\u00e6cumque bona idem monasterium in pr\u00e6sentiarum just\u00e8 &amp; canonic\u00e8 possidet, aut in futurum concessione Pontificum, liberalitate Regum, largitione Principum, oblatione fidelium, seu aliis justis modis pr\u00e6stante Domino poterit adipisci, firma vobis, vestr\u00edsque successoribus, &amp; illibata permaneant. Ipsarum quoque, quas nunc habetis, Ecclesiarum decimas, qu\u00e6 \u00e0 laicis obtinentur, si eorum potestati subtrahere vestr\u00e6 religionis reverentia potuerit, ad vestram ac pauperum sustentationem vobis liceat possidere. San\u00e8 diffinitionem inter vestrum &amp; beati Florentii monasterium, de Ecclesiis Lausduni, Sanct\u00e6 Crucis videlic\u00e8t &amp; Sancti Nicolai, sicut \u00e0 jam dictis pr\u00e6decessoribus nostris felicis memori\u00e6 Urbano atque Calixto facta est, &amp; scripto eorum firmata, Sedis Apostolic\u00e6 auctoritate firmamus: pr\u00e6cipientes, quatenus deinceps nullam vobis vel Ecclesi\u00e6 molestiam monachi Sancti Florentii ex his inferre pr\u00e6sumant; sed absque eorum inquietudine, pr\u00e6fatas Ecclesias vos vestr\u00edque successores perpetu\u00f2 possideatis, ad hoc adjicimus, ut idem locus in quo beati Valeriani Martyris &amp; Sancti Philiberti Confessoris corpora requiescunt, ab omni jugo s\u00e6cularis potestatis liber in perpetuum conservetur. Nec Episcopo liceat cujuscumque diocesis, eumdem locum excommunicationis, vel absolutionis, seu cujuslibet dispositionis occasionibus perturbare: aut cruces, quaslibet exactiones novas burgo &amp; c\u00e6teris monasterii possessionibus irrogare. Missas quoque in eodem monasterio publicas celebrari, vel stationem ab Episcopo, pr\u00e6ter Abbatis vel fratrum voluntatem fieri prohibemus, sicut \u00e0 pr\u00e6decessoribus nostris statutum est, &amp; scripto eorum firmatum. Obeunte ver\u00f2 te nunc ejusdem loci Abbate, vel tuorum quolibet successorum, nullus ibi qualibet surreptionis astutia seu violentia pr\u00e6ponatur, nisi quem fratres communi consensu, vel pars consilii sanioris secundum Deum &amp; beati Benedicti regulam providerint eligendum, \u00e0 Sedis Apostolic\u00e6 Pontifice vel ejus Legato consecrandum. Decernimus ergo ut nulli omnin\u00f2 hominum liceat pr\u00e6fatum monasterium temer\u00e8 perturbare, aut ejus possessiones auferre, vel ablatas retinere, minuere, seu quibuslibet vexationibus fatigare; sed omnia integra conserventur, eorum pro quorum gubernatione &amp; sustentatione concessa sunt: usibus omnimodis profutura. Salva nimirum in omnibus Sedis Apostolic\u00e6 auctoritate. Si qua igitur in futurum ecclesiastica s\u00e6cular\u00edsve persona, hujus nostr\u00e6 constitutionis paginam sciens, contra eam temer\u00e8 venire tentaverit, secund\u00f2 terti\u00f3ve commonita, nisi reatum suum congrua satisfactione correxerit, potestatis honor\u00edsque sui dignitate careat, re\u00e1mque se divino judicio existere de perpetrata iniquitate cognoscat, &amp; \u00e0 sacratissimo Corpore ac Sanguine Dei &amp; Domini Redemptoris nostri Jesu Christi aliena fiat: atque in extremo examine district\u00e6 ultioni subjaceat. Cunctis autem eidem loco justa servantibus sit pax Domini nostri Jesu Christi, quatenus &amp; h\u00ecc fructum bon\u00e6 actionis percipiant, &amp; apud districtum Judicem pr\u00e6mia \u00e6tern\u00e6 pacis inveniant. Amen, amen, amen. In Symbolo Pontificis. Notas fac mihi Domine vias tuas. Subscriptiones. Ego INNOCENTIUS Catholic\u00e6 Ecclesi\u00e6 Episcopus SS. \u2020 Ego Oto Portuensis &amp; Sanct\u00e6 Rufin\u00e6 Episcopus SS. \u2020 Ego Willelmus Sabinensis Episcopus SS. \u2020 Ego Petrus tt. S. Marcelli Presbyter Card. SS. \u2020 Ego Vvillelmus Basilic\u00e6 duodecim Apostolorum Presbyter Cardinalis SS. \u2020 Ego frater Johannes tt. S. Laurentii in Lucina Presbyter Cardinalis SS. \u2020 Ego frater Hugo tt. Sanct\u00e6 Sabin\u00e6 Presbyter Cardinalis SS. \u2020 Ego Octavius Sanct\u00e6 Mari\u00e6 in Via lata Diaconus Cardinalis SS. \u2020 Ego Petrus Sancti Georgii ad Velum aureum Diaconus Cardinalis SS. \u2020 Ego Johannes Sancti Nicolai in Carcere Tulliano Diaconus Card. SS. \u2020 Ego Vvillelmus Sancti Eustachii Diaconus Cardinalis. SS. Datum Lugduni per manum Magistri Marini Sanct\u00e6 Roman\u00e6 Ecclesi\u00e6 Vicecancellarii X. Kalendas Aprilis, Indictione IIII. Incarnationis Dominic\u00e6 anno M. CC. XLV. pontificat\u00fbs ver\u00f2 Domni Innocentii Pap\u00e6 IIII. anno tertio.\n"
        },
        {
            "type": "edition",
            "value": "Ici tir\u00e9e du projet <i>CBMA - Corpus Burgundiae Medii Aevi<\/i>, document 9567. Site du projet Corpus de la Bourgogne du Moyen \u00c2ge, [En ligne] <a href=\"http:\/\/www.cbma-project.eu\" target=\"_blank\">http:\/\/www.cbma-project.eu<\/a>  "
        },
        {
            "type": "sources_manuscrites",
            "value": "\u00e0 renseigner."
        },
        {
            "type": "remarques",
            "value": ""
        },
        {
            "type": "edition_autre",
            "value": "Ici reprise de Pierre Ju\u00e9nin, <i>Nouvelle Histoire de l'abbaye royale et coll\u00e9giale de Saint-Filibert et de la ville de Tournus...<\/i>, Dijon : Preuves, 1733, p. 203-205.",
            "children": {
                "numero_note": "0"
            }
        },
        {
            "type": "genre",
            "value": "Bulle"
        }
    ]
}