{
    "id": 149864,
    "name": "aposcripta-9427",
    "type": "acte",
    "url": "http:\/\/telma-chartes.irht.cnrs.fr\/aposcripta\/notice\/149864",
    "project_slug": "aposcripta",
    "project_label": "APOSCRIPTA \u2013 Lettres des papes",
    "user": "lettrespontificalesadmin",
    "last_update": "2020-10-19 16:40:05",
    "licence": "Attribution - Pas d\u2019Utilisation Commerciale - Partage dans les M\u00eames Conditions 3.0 France (CC BY-NC-SA 3.0 FR) ",
    "licence_url": "https:\/\/creativecommons.org\/licenses\/by-nc-sa\/3.0\/fr\/",
    "elements": [
        {
            "type": "pape",
            "value": "Urbain IV (1261-1264)"
        },
        {
            "type": "destinataire",
            "value": "Symoni tituli Sancti Martini presbytero cardinali, apostolice sedis legato"
        },
        {
            "type": "date_libre",
            "value": "XII kalendas iunii, anno III"
        },
        {
            "type": "date",
            "value": " 1264\/05\/21",
            "children": {
                "date_deb_annee": "1264",
                "date_deb_mois": "05",
                "date_deb_jour": "21"
            },
            "range": {
                "date_apres": 12640521,
                "date_avant": 12640521
            }
        },
        {
            "type": "date_lieu",
            "value": "Urbemveterem"
        },
        {
            "type": "sources_manuscrites",
            "value": "R. CIT\u00c9 DU VATICAN, Archivio Segreto Vaticano, <hi rend=\"italic\">Registra Vaticana<\/hi> ... Urb.\u00a0IV. Reg. Vol.\u00a0III, 62; Lib.\u00a0III, 233. Damus Pertzii exemplar, collatum cum illo, quod Theiner, Cod. dipl. dominii temp. t.\u00a0I, p.\u00a0162, n.\u00a0303 edidit.",
            "children": {
                "type_source": "Registre de la chancellerie apostolique"
            }
        },
        {
            "type": "genre",
            "value": "Mandement (littere cum filo canapis)"
        },
        {
            "type": "analyse",
            "value": "Urbanus IV papa Simoni tituli S. Martini presbytero cardinali rectoriam ducatus Spoletani, marchiae Anconitanae, Massae Trabariae, Perusinae, Castellanae, Tudertinae, Narniensis, Interamnensis et Reatinae civitatum et diocesum earumque districtuum et insuper ibidem et in Romaniola et Gradensi et Aquilegiensi patriarchatibus, exceptis illis partibus, quae sint de provincia Lombardiae, plenae legationis officium committit [Rodenberg]."
        },
        {
            "type": "transcription",
            "value": "<?xml version=\"1.0\" encoding=\"UTF-8\"?>\nSymoni tituli Sancti Martini presbytero cardinali, apostolice sedis legato.Exequentes apostolice servitutis officium nobis licet immeritis Domino disponente commissum, ab oculis nostris, prout nobis ex alto conceditur, sompnum torporis excutimus eosque in circuitu vigiliis levamus assiduis, ut, quid agi ad sollicitam commissi nobis gregis curam expediat, intuentes, circa prosperum statum eius partes intente sollicitudinis impendamus. Illud autem mentem nostram specialiter excitat, circa illud precipue intentio et desideria nostra versantur, ut cum sanctam Romanam ecclesiam, matrem gentium, inclitam Christi sponsam, a persequentibus eam gravissimis iniuriis conspiciamus affligi, variis contumeliis affici et enormibus collidi iacturis, noctes ducentes insompnes nec diebus otia indulgentes, studiosam demus operam et operosum studium adhibere curemus ad eandem ecclesiam ac fideles eius et filios, qui materne persecutionis incommoda sentiunt quique cum illa dolores et angustias partiuntur, ab imminentibus fluctuationibus tempestatum Deo propitio liberandos. Verum incumbente nobis varietate negotiorum innumera et contra Petri naviculam, cuius, prout Domino placuit, gubernacula gerimus, persecutionis undique invalescente procella, licet in partes varias mentis sollicitudine distrahamur, quia tamen nequimus ubilibet nostram presentiam exhibere, quia non possumus fines humane possibilitatis excedere, ut simul in diversis partibus existendo potestatem nobis a Domino traditam presentialiter exequamur, ad instar illius, qui exercens sibi commisse legationis officium in regione peccantium in universum mundum discipulos quos elegerat destinavit, suum per hoc instruendo vicarium, ut eius exemplo nonnumquam alios in partem sollicitudinis advocet, ubi officii sui debitum exolvere prohibet absentia corporalis, illos ad onera nostra comportanda nobiscum fiducialiter advocamus, quos ad hoc speramus, experientia de ipsorum experta industria nos instruente, perutiles et de quorum traditis a Domino sibi virtutibus plenam fiduciam obtinemus. Cum autem in arduis maiorem curam adhiberi conveniat, personas ad illorum prosecutionem eligimus potiores, ut secundum cor nostrum salubriter et utiliter Deo previo dirigantur. Ad personam itaque tuam dirigentes apostolice considerationis intuitum et virtutes, quibus eam virtutum dominus insignivit, considerantes, ut convenit, firma spe fiduciaque tenemus, quod, actus tuos illo dirigente qui potest et iter prosperum faciente qui novit, sollicitudinis tue ministerio etiam prava in directa et aspera convertentur in plana. Ideoque, de tua sinceritate plenam in Domino fiduciam obtinentes, rectoriam ducatus Spoletani et marchie Anconitane et Masse Trabarie ac Perusine, Castellane, Tudertine, Narniensis, Interamnensis et Reatine civitatum et diocesum earumque districtuum tam in spiritualibus quam in temporalibus tibi presentium auctoritate committimus, concedendo tibi liberam potestatem exercendi, quicquid honori ecclesie Romane et utilitati fidelium ibidem existentium expedire noveris in utrisque; ac nichilominus in ducatu, marchia, civitatibus, diocesibus et districtibus predictis, Romaniola quoque, Gradensi et Aquilegensi patriarchatibus, illis civitatibus ac earum diocesibus et districtibus exceptis que sunt de provincia Lombardie, circumspectioni tue plene legationis officium duximus committendum, ut iuxta datam tibi a Deo prudentiam evellas et dissipes, edifices et plantes, sicut videris [expedire]. Ideoque mandamus, quatinus huiusmodi legationis et rectorie onus devote recipiens et patienter supportare procurans, sic laudabiliter rectoriam et officium predicta studeas exercere, quod Deum exinde magis tibi propitium et nos fortius tuis utilitatibus sentias obligatos. Nos enim sententias et penas, quas spiritualiter et temporaliter in rebelles ducatus, marchie, civitatum, diocesum ac districtuum predictorum, ac sententias, quas in alios rebelles legationis tibi commisse tuleris, ratas habebimus et faciemus auctore Domino inviolabiliter observari.Dat. apud Urbemveterem, XII Kalendas Iunii, anno III\u00b0.\n"
        },
        {
            "type": "edition",
            "value": "Ici reprise de Karl Rodenberg, Epistolae s. XIII e regestis pontificum romanorum selectae, III, Berlin : Weidmann (MGH), 1894, n.\u00a0605, p.\u00a0597."
        },
        {
            "type": "edition_autre",
            "value": "?"
        },
        {
            "type": "regeste",
            "value": "?"
        },
        {
            "type": "bibliographie_generale",
            "value": "?"
        },
        {
            "type": "apparat_critique",
            "value": "?",
            "children": {
                "numero_note": "a"
            }
        },
        {
            "type": "apparat_critique",
            "value": "?",
            "children": {
                "numero_note": "b"
            }
        },
        {
            "type": "apparat_critique",
            "value": "?",
            "children": {
                "numero_note": "c"
            }
        },
        {
            "type": "apparat_critique",
            "value": "?",
            "children": {
                "numero_note": "d"
            }
        },
        {
            "type": "apparat_critique",
            "value": "?",
            "children": {
                "numero_note": "e"
            }
        },
        {
            "type": "apparat_critique",
            "value": "?",
            "children": {
                "numero_note": "f"
            }
        },
        {
            "type": "notes_historiques",
            "value": "?",
            "children": {
                "numero_note": "1"
            }
        },
        {
            "type": "notes_historiques",
            "value": "?",
            "children": {
                "numero_note": "2"
            }
        },
        {
            "type": "notes_historiques",
            "value": "?",
            "children": {
                "numero_note": "3"
            }
        }
    ]
}