{
    "id": 149734,
    "name": "aposcripta-9297",
    "type": "acte",
    "url": "http:\/\/telma-chartes.irht.cnrs.fr\/aposcripta\/notice\/149734",
    "project_slug": "aposcripta",
    "project_label": "APOSCRIPTA \u2013 Lettres des papes",
    "user": "lettrespontificalesadmin",
    "last_update": "2020-10-19 16:40:03",
    "licence": "Attribution - Pas d\u2019Utilisation Commerciale - Partage dans les M\u00eames Conditions 3.0 France (CC BY-NC-SA 3.0 FR) ",
    "licence_url": "https:\/\/creativecommons.org\/licenses\/by-nc-sa\/3.0\/fr\/",
    "elements": [
        {
            "type": "pape",
            "value": "Alexandre IV (1254-1261)"
        },
        {
            "type": "destinataire",
            "value": "Decano Sancti Salvatoris Metensis"
        },
        {
            "type": "date_libre",
            "value": "II nonas decembris, anno quarto"
        },
        {
            "type": "date",
            "value": " 1258\/12\/04",
            "children": {
                "date_deb_annee": "1258",
                "date_deb_mois": "12",
                "date_deb_jour": "04"
            },
            "range": {
                "date_apres": 12581204,
                "date_avant": 12581204
            }
        },
        {
            "type": "date_lieu",
            "value": "Anagnie"
        },
        {
            "type": "sources_manuscrites",
            "value": "R. CIT\u00c9 DU VATICAN, Archivio Segreto Vaticano, <hi rend=\"italic\">Registra Vaticana<\/hi> ... Al.\u00a0IV Reg. Vol.\u00a0II, 159; Lib.\u00a0IV 254. Exemplar tabularii contulimus cum Regestis.",
            "children": {
                "type_source": "Registre de la chancellerie apostolique"
            }
        },
        {
            "type": "genre",
            "value": "Mandement (littere cum filo canapis)"
        },
        {
            "type": "analyse",
            "value": "Alexander IV papa decano S. Salvatoris Metensis mandat, ut [Iacobo] episcopo Metensi occasione debitorum excommunicato beneficium absolutionis impendat [Rodenberg]."
        },
        {
            "type": "transcription",
            "value": "<?xml version=\"1.0\" encoding=\"UTF-8\"?>\nDecano Sancti Salvatoris MetensisCum venerabilis frater noster . . episcopus Metensis occasione debitorum, in quibus tenetur nonnullis mercatoribus Senensibus, sententia excommunicationis apostolica fuerit auctoritate ligatus et tandem inter eum et dictos mercatores mediante dilecto filio nostro H[ugone] tituli Sancte Sabine presbytero cardinali sub certa forma extiterit ordinatum, discretioni tue de assensu et voluntate procuratorum mercatorum eorundem per apostolica scripta mandamus, quatinus eidem episcopo super eadem sententia beneficium absolutionis impendas.Dat. Anagnie, II Nonas Decembris, anno quarto.\n"
        },
        {
            "type": "edition",
            "value": "Ici reprise de Karl Rodenberg, Epistolae s. XIII e regestis pontificum romanorum selectae, III, Berlin : Weidmann (MGH), 1894, n.\u00a0484, p.\u00a0448."
        },
        {
            "type": "edition_autre",
            "value": "?"
        },
        {
            "type": "regeste",
            "value": "?"
        },
        {
            "type": "bibliographie_generale",
            "value": "?"
        },
        {
            "type": "apparat_critique",
            "value": "?",
            "children": {
                "numero_note": "a"
            }
        },
        {
            "type": "apparat_critique",
            "value": "?",
            "children": {
                "numero_note": "b"
            }
        },
        {
            "type": "apparat_critique",
            "value": "?",
            "children": {
                "numero_note": "c"
            }
        },
        {
            "type": "apparat_critique",
            "value": "?",
            "children": {
                "numero_note": "d"
            }
        },
        {
            "type": "apparat_critique",
            "value": "?",
            "children": {
                "numero_note": "e"
            }
        },
        {
            "type": "apparat_critique",
            "value": "?",
            "children": {
                "numero_note": "f"
            }
        },
        {
            "type": "notes_historiques",
            "value": "?",
            "children": {
                "numero_note": "1"
            }
        },
        {
            "type": "notes_historiques",
            "value": "?",
            "children": {
                "numero_note": "2"
            }
        },
        {
            "type": "notes_historiques",
            "value": "?",
            "children": {
                "numero_note": "3"
            }
        }
    ]
}