{
    "id": 149419,
    "name": "aposcripta-8982",
    "type": "acte",
    "url": "http:\/\/telma-chartes.irht.cnrs.fr\/aposcripta\/notice\/149419",
    "project_slug": "aposcripta",
    "project_label": "APOSCRIPTA \u2013 Lettres des papes",
    "user": "lettrespontificalesadmin",
    "last_update": "2020-10-19 16:39:58",
    "licence": "Attribution - Pas d\u2019Utilisation Commerciale - Partage dans les M\u00eames Conditions 3.0 France (CC BY-NC-SA 3.0 FR) ",
    "licence_url": "https:\/\/creativecommons.org\/licenses\/by-nc-sa\/3.0\/fr\/",
    "elements": [
        {
            "type": "pape",
            "value": "Innocent IV (1243-1254)"
        },
        {
            "type": "destinataire",
            "value": "Magistro Alberto notario nostro, apostolice sedis legato"
        },
        {
            "type": "date_libre",
            "value": "V idus iunii, anno X"
        },
        {
            "type": "date",
            "value": " 1253\/06\/09",
            "children": {
                "date_deb_annee": "1253",
                "date_deb_mois": "06",
                "date_deb_jour": "09"
            },
            "range": {
                "date_apres": 12530609,
                "date_avant": 12530609
            }
        },
        {
            "type": "date_lieu",
            "value": "Asisii"
        },
        {
            "type": "sources_manuscrites",
            "value": "R. CIT\u00c9 DU VATICAN, Archivio Segreto Vaticano, <hi rend=\"italic\">Registra Vaticana<\/hi> ... Inn.\u00a0IV Reg. Vol.\u00a0II, 311; Lib.\u00a0X, cur.\u00a053. Exemplar, quod Winkelmann l. c. edidit, contulimus cum Regestis.",
            "children": {
                "type_source": "Registre de la chancellerie apostolique"
            }
        },
        {
            "type": "genre",
            "value": "Mandement (littere cum filo canapis)"
        },
        {
            "type": "analyse",
            "value": "Innocentius IV papa Alberto legato idem fere scribit [Rodenberg]."
        },
        {
            "type": "transcription",
            "value": "<?xml version=\"1.0\" encoding=\"UTF-8\"?>\nMagistro Alberto notario nostro, apostolice sedis legato.Dum adversitates etc. ut in alia usque: ampliarunt, mutatis mutandis. Cum igitur te dudum propter hoc ad ipsius presentiam de fratrum nostrorum consilio duxerimus destinandum, presentium tibi auctoritate mandamus, quatinus eidem comiti eiusque heredibus regnum Sicilie et totam terram, que est citra Pharum, cum omnibus iuribus, iurisdictionibus, honoribus, districtibus et pertinentiis suis \u2014 excepta civitate Beneventana cum iuribus, districtibus et pertinentiis suis \u2014 in feudum libere cum sollempnitate, quam idem adhiberi voluerit, sine dispendio more concedas ipsumque nostro et ecclesie Romane nomine investias de eisdem.Dat. Asisii, V Idus Iunii, anno X\u00b0.\n"
        },
        {
            "type": "edition",
            "value": "Ici reprise de Karl Rodenberg, Epistolae s. XIII e regestis pontificum romanorum selectae, III, Berlin : Weidmann (MGH), 1894, n.\u00a0208i, p.\u00a0177."
        },
        {
            "type": "edition_autre",
            "value": "?"
        },
        {
            "type": "regeste",
            "value": "?"
        },
        {
            "type": "bibliographie_generale",
            "value": "?"
        },
        {
            "type": "apparat_critique",
            "value": "?",
            "children": {
                "numero_note": "a"
            }
        },
        {
            "type": "apparat_critique",
            "value": "?",
            "children": {
                "numero_note": "b"
            }
        },
        {
            "type": "apparat_critique",
            "value": "?",
            "children": {
                "numero_note": "c"
            }
        },
        {
            "type": "apparat_critique",
            "value": "?",
            "children": {
                "numero_note": "d"
            }
        },
        {
            "type": "apparat_critique",
            "value": "?",
            "children": {
                "numero_note": "e"
            }
        },
        {
            "type": "apparat_critique",
            "value": "?",
            "children": {
                "numero_note": "f"
            }
        },
        {
            "type": "notes_historiques",
            "value": "?",
            "children": {
                "numero_note": "1"
            }
        },
        {
            "type": "notes_historiques",
            "value": "?",
            "children": {
                "numero_note": "2"
            }
        },
        {
            "type": "notes_historiques",
            "value": "?",
            "children": {
                "numero_note": "3"
            }
        }
    ]
}