{
    "id": 25904,
    "name": "aposcripta-3001",
    "type": "acte",
    "url": "http:\/\/telma-chartes.irht.cnrs.fr\/aposcripta\/notice\/25904",
    "project_slug": "aposcripta",
    "project_label": "APOSCRIPTA \u2013 Lettres des papes",
    "user": "lettrespontificalesadmin",
    "last_update": "2020-10-19 16:27:50",
    "licence": "Attribution - Pas d\u2019Utilisation Commerciale - Partage dans les M\u00eames Conditions 3.0 France (CC BY-NC-SA 3.0 FR) ",
    "licence_url": "https:\/\/creativecommons.org\/licenses\/by-nc-sa\/3.0\/fr\/",
    "elements": [
        {
            "type": "pape",
            "value": "Honorius IV (1285-1287)"
        },
        {
            "type": "destinataire",
            "value": "L'archev\u00eaque de Sens, Gilles, et le chapitre de la cath\u00e9drale",
            "children": {
                "numero_note": "0"
            }
        },
        {
            "type": "date_lieu",
            "value": "n.c."
        },
        {
            "type": "date_libre",
            "value": "Idus junii, anno primo"
        },
        {
            "type": "date",
            "value": " 1285\/06\/13",
            "children": {
                "date_deb_annee": "1285",
                "date_deb_mois": "06",
                "date_deb_jour": "13"
            },
            "range": {
                "date_apres": 12850613,
                "date_avant": 12850613
            }
        },
        {
            "type": "analyse",
            "value": "X pape<br\/>Confirmation, par le pape Honorius IV, de la donation de 24 livres de revenu provenant des d\u00eemes inf\u00e9od\u00e9es par les anciens archev\u00eaques, que l\u2019archev\u00eaque Guillaume de Broce avait faite \u00e0 son \u00e9glise pour fonder son anniversaire."
        },
        {
            "type": "transcription",
            "value": "<?xml version=\"1.0\" encoding=\"UTF-8\"?>\nHonorius episcopus, servus servorum Dei, venerabili fratri Egidio, archiepiscopo, et dilectis filiis capitulo Senon., salutem et apostolicam benedictionem. Cum a nobis petitur quod justum est et honestum, tam vigor equitatis quam ordo exigit rationis ut id per sollicitudinem officii nostri ad debitum perducatur effectum; exhibita, siquidem, nobis vestra petitio continebat quod bone memorie Guillelmus archiepiscopus Senon., predecessor tuus, frater archiepiscope, quasdam decimas quas redemerat de manibus la\u00efcorum, qui eas ab archiepiscopali sede Senon. in feodum tenuerant ab antiquo, quarum quidem decimarum redditus annuatim summam viginti-quatuor librarum tur. non excedunt, vobis filii capitulum pro anniversario suo in ecclesia Senon. annis singulis faciendo, provida deliberatione concessit, prout in patentibus litteris inde confectis ipsius Guillelmi archiepiscopi sigillo signatis plenius dicitur contineri. Nos, itaque, vestris quas super hoc communiter porrexistis supplicationibus inclinati, quod ab eodem G. archiepiscopo super hoc provide factum extitit, ratum et firmum habentes id, auctoritate apostolica confirmamus, et presentis scripti patrocinio communimus. Nulli, ergo, omnino hominum liceat hanc paginam nostre confirmationis infringere, vel ei ausu temerario contraire. Si quis, autem, hoc attemptare presumpserit, indignationem omnipotentis Dei et beatorum Petri et Pauli apostolorum ejus se noverit incursurum. Datum, Rome, apud Sanctum-Petrum, idus junii, pontificatus nostri anno primo.\n"
        },
        {
            "type": "edition",
            "value": "Ici tir\u00e9e du projet <i>CBMA - Corpus Burgundiae Medii Aevi<\/i>, document 9407. Site du projet Corpus de la Bourgogne du Moyen \u00c2ge, [En ligne] <a href=\"http:\/\/www.cbma-project.eu\" target=\"_blank\">http:\/\/www.cbma-project.eu<\/a>  "
        },
        {
            "type": "sources_manuscrites",
            "value": "\u00e0 renseigner."
        },
        {
            "type": "remarques",
            "value": "\r\n\r\n Orig.; Arch. de l\u2019Yonne, Bibl. de Sens G\u00a0135, n\u00ba\u00a03."
        },
        {
            "type": "edition_autre",
            "value": "Ici reprise de Maximilien Quantin, <i>Recueil de pi\u00e8ces pour faire suite au Cartulaire g\u00e9n\u00e9ral de l'Yonne : XIIIe si\u00e8cle<\/i>, Auxerre : Soci\u00e9t\u00e9 des sciences historiques et naturelles de l'Yonne, 1873, p. , n\u00b0 730.",
            "children": {
                "numero_note": "0"
            }
        },
        {
            "type": "genre",
            "value": "Titre, g\u00e9n\u00e9ral (littere gratiose, cum filo serico)"
        }
    ]
}