{
    "id": 27847,
    "name": "aposcripta-4406",
    "type": "acte",
    "url": "http:\/\/telma-chartes.irht.cnrs.fr\/aposcripta\/notice\/27847",
    "project_slug": "aposcripta",
    "project_label": "APOSCRIPTA \u2013 Lettres des papes",
    "user": "j_theryastruc",
    "last_update": "2020-10-19 16:28:19",
    "licence": "Attribution - Pas d\u2019Utilisation Commerciale - Partage dans les M\u00eames Conditions 3.0 France (CC BY-NC-SA 3.0 FR) ",
    "licence_url": "https:\/\/creativecommons.org\/licenses\/by-nc-sa\/3.0\/fr\/",
    "elements": [
        {
            "type": "pape",
            "value": "Cl\u00e9ment VII (1523-1534)"
        },
        {
            "type": "destinataire",
            "value": "Le vicaire de l'\u00e9v\u00eaque de Trente"
        },
        {
            "type": "date_libre",
            "value": "17 januari 1524, anno primo"
        },
        {
            "type": "date",
            "value": " 1524\/01\/17",
            "children": {
                "date_deb_jour": "17",
                "date_deb_mois": "01",
                "date_deb_annee": "1524"
            },
            "range": {
                "date_apres": 15240117,
                "date_avant": 15240117
            }
        },
        {
            "type": "genre",
            "value": "Bref secret ou de Curie"
        },
        {
            "type": "analyse",
            "value": "Al vicario del vescovo di Trento perch\u00e8 anch'egli severamente impedisca la diffusione dei libri luterani."
        },
        {
            "type": "sources_manuscrites",
            "value": "R. CIT\u00c9 DU VATICAN, Archivio segreto Vaticano, Clem. VII brev. min. a. MDXXIV, I, 6, breve 80.",
            "children": {
                "type_source": "Registre de la chancellerie apostolique"
            }
        },
        {
            "type": "edition",
            "value": "Ici reprise de B. Fontana, \u00ab Documenti vaticani contro l'eresia luterana in Italia \u00bb, <i>Archivio della Reale Societ\u00e0 Romana di Storia Patria<\/i>, 15, 1892, p. 71-165, n. 3, p. 78, d'apr\u00e8s R."
        },
        {
            "type": "transcription",
            "value": "<?xml version=\"1.0\" encoding=\"UTF-8\"?>\nVicario episcopi Tridentini super libris lutheranis. Dilecte etc. Audivimus, id quod sine scitu non solum venerabilis fratris episcopi Tridentini nostre et apostolice dignitatis observantissimi sed etiam tuo factum credimus, quosdam in ista civitate Tridenti libros impure heresis lutherane clam vendere et emere ausos, in Dei contumeliam et suarum animarum iacturam, tue vero auctoritatis opprobrium non mediocre. Quare tibi in virtute sancte obedientie mandamus ut diligenter inquiras, libros publice comburi emptoresque et venditores pro iustitia puniri cures ac deinceps, ne alii tam in civitate quam in diocesi tuis similia facere possint, cautius provideas. Quod tuo officio congruum tuoque episcopo gratum, Deo vero omnipotenti erit quam acceptum. Datum 17 januari 1524, anno primo. Caps\n"
        }
    ]
}