{
    "id": 149404,
    "name": "aposcripta-8967",
    "type": "acte",
    "url": "http:\/\/telma-chartes.irht.cnrs.fr\/aposcripta\/notice\/149404",
    "project_slug": "aposcripta",
    "project_label": "APOSCRIPTA \u2013 Lettres des papes",
    "user": "lettrespontificalesadmin",
    "last_update": "2020-10-19 16:39:58",
    "licence": "Attribution - Pas d\u2019Utilisation Commerciale - Partage dans les M\u00eames Conditions 3.0 France (CC BY-NC-SA 3.0 FR) ",
    "licence_url": "https:\/\/creativecommons.org\/licenses\/by-nc-sa\/3.0\/fr\/",
    "elements": [
        {
            "type": "pape",
            "value": "Innocent IV (1243-1254)"
        },
        {
            "type": "destinataire",
            "value": ". . abbati de Mezano, apostolice sedis legato"
        },
        {
            "type": "date_libre",
            "value": "XVI kalendas iunii, anno X"
        },
        {
            "type": "date",
            "value": " 1253\/05\/17",
            "children": {
                "date_deb_annee": "1253",
                "date_deb_mois": "05",
                "date_deb_jour": "17"
            },
            "range": {
                "date_apres": 12530517,
                "date_avant": 12530517
            }
        },
        {
            "type": "date_lieu",
            "value": "Asisii"
        },
        {
            "type": "sources_manuscrites",
            "value": "R. CIT\u00c9 DU VATICAN, Archivio Segreto Vaticano, <hi rend=\"italic\">Registra Vaticana<\/hi> ... Inn.\u00a0IV Reg. Vol.\u00a0II, 271; Lib.\u00a0X, 693. Exemplar Raynaldi, Ann. eccl. a. 1253, \u00a7\u00a024, contulimus cum Regestis.",
            "children": {
                "type_source": "Registre de la chancellerie apostolique"
            }
        },
        {
            "type": "genre",
            "value": "Mandement (littere cum filo canapis)"
        },
        {
            "type": "analyse",
            "value": "Innocentius IV papa [Opizoni] abbati de Mezano legato mandat, ut cum principes Poloniae sedi apostolicae nullo medio subsint iidemque et habitatores Poloniae censum, qui denarius sancti Petri appelletur, solvant, infeudationes et occupationes, si quae a W[illelmo] rege Romanorum vel aliis de terra Poloniae factae sint, non valere nuntiet [Rodenberg]."
        },
        {
            "type": "transcription",
            "value": "<?xml version=\"1.0\" encoding=\"UTF-8\"?>\n. . abbati de Mezano, apostolice sedis legato.Licet apostolatus officium nos universis constituat debitores, illis tamen specialius et efficatius adesse nos convenit, qui nullo medio subesse sedi apostolice dinoscuntur. Cum itaque, sicut ex parte dilectorum filiorum nobilium virorum principum Polonie fuit propositum coram nobis, progenitores eorum, postquam christiane fidei notitiam habuerunt, eidem sedi solummodo subiecti fuerint et ipsi adhuc existant, et in signum subiectionis huiusmodi censum, qui denarius sancti Petri vulgariter appellatur, iidem et habitatores Polonie ipsi sedi annis singulis persolverint hactenus et persolvant: mandamus, quatinus eisdem principibus et habitatoribus per te vel per alium efficaciter presidio defensionis assistens ac non permittens eos ab aliquibus molestari, si quas infeudationes, distributiones aut occupationes de terra Polonie inveneris tam a carissimo in Christo filio nostro W. rege Romanorum illustri quam ab aliis factas, denuncies auctoritate nostra per te vel alium aliquatenus non valere, molestatores et contradictores, siqui fuerint, per censuram ecclesiasticam appellatione postposita compescendo, \u2014 non obstantibus aliquibus litteris super hoc a sede apostolica impetratis vel etiam impetrandis, seu si aliquibus de partibus illis est ab eadem sede indultum, quod excommunicari sive suspendi aut eorum terre interdicto supponi non possint per litteras apostolicas, non facientes plenam et expressam seu de verbo ad verbum de indulto huiusmodi mentionem, et constitutione de duabus dietis edita in concilio generali.Dat. Asisii, XVI Kalendas Iunii, anno X\u00b0.\n"
        },
        {
            "type": "edition",
            "value": "Ici reprise de Karl Rodenberg, Epistolae s. XIII e regestis pontificum romanorum selectae, III, Berlin : Weidmann (MGH), 1894, n.\u00a0201, p.\u00a0167."
        },
        {
            "type": "edition_autre",
            "value": "?"
        },
        {
            "type": "regeste",
            "value": "?"
        },
        {
            "type": "bibliographie_generale",
            "value": "?"
        },
        {
            "type": "apparat_critique",
            "value": "?",
            "children": {
                "numero_note": "a"
            }
        },
        {
            "type": "apparat_critique",
            "value": "?",
            "children": {
                "numero_note": "b"
            }
        },
        {
            "type": "apparat_critique",
            "value": "?",
            "children": {
                "numero_note": "c"
            }
        },
        {
            "type": "apparat_critique",
            "value": "?",
            "children": {
                "numero_note": "d"
            }
        },
        {
            "type": "apparat_critique",
            "value": "?",
            "children": {
                "numero_note": "e"
            }
        },
        {
            "type": "apparat_critique",
            "value": "?",
            "children": {
                "numero_note": "f"
            }
        },
        {
            "type": "notes_historiques",
            "value": "?",
            "children": {
                "numero_note": "1"
            }
        },
        {
            "type": "notes_historiques",
            "value": "?",
            "children": {
                "numero_note": "2"
            }
        },
        {
            "type": "notes_historiques",
            "value": "?",
            "children": {
                "numero_note": "3"
            }
        }
    ]
}