{
    "id": 20448,
    "name": "aposcripta-435",
    "type": "acte",
    "url": "http:\/\/telma-chartes.irht.cnrs.fr\/aposcripta\/notice\/20448",
    "project_slug": "aposcripta",
    "project_label": "APOSCRIPTA \u2013 Lettres des papes",
    "user": "lettrespontificalesadmin",
    "last_update": "2020-10-19 16:26:49",
    "licence": "Attribution - Pas d\u2019Utilisation Commerciale - Partage dans les M\u00eames Conditions 3.0 France (CC BY-NC-SA 3.0 FR) ",
    "licence_url": "https:\/\/creativecommons.org\/licenses\/by-nc-sa\/3.0\/fr\/",
    "elements": [
        {
            "type": "pape",
            "value": "Gr\u00e9goire XI (1370-1378)"
        },
        {
            "type": "date_lieu",
            "value": "Avignon"
        },
        {
            "type": "date_libre",
            "value": "27 mars 1373"
        },
        {
            "type": "analyse",
            "value": "Gr\u00e9goire XI exhorte la reine de Naples \u00e0 introduire dans son royaume et dans le comt\u00e9 de Provence la pratique usit\u00e9e en France et relative \u00e0 la pension \u00e0 servir aux inquisiteurs sur les revenus royaux. A tout le moins devra-t-elle permettre aux inquisiteurs de percevoir la part qui leur revient sur le produit des confiscations."
        },
        {
            "type": "transcription",
            "value": "<?xml version=\"1.0\" encoding=\"UTF-8\"?>\nCarissime in Christo filie regine Sicilie illustri, salutem, etc. \u2014 Inter omnia que anime tue salutem et reginalem honorem concernere dinoscuntur illud reputamus esse precipuum ac attentissima diligentia observandum ut regnum et terre tue conserventur catholica ac purgata omni labe heretice pravitatis, eorumque incole eo acceptiores Altissimo tibique fideliores reddantur quo in fide catholica fuerint puriores ; consideramusque tuam serenitatem decere ut mores gloriosissimi et devotissimi regni Francie a cuius regum stirpe clarissima traxisti originem in bonis actibus imiteris. Ideoque cum in aliquibus partibus eiusdem regni Francie observetur quod certa pensio seu provisio de bonis et proventibus regalibus annuatim tribuitur inquisitoribus heretice pravitatis eiusdem et regia curia recipit omnes condemnationes seu mulctas factas et bona confiscata per inquisitores iamdictos, talem morem utique laudabilem, maxime quia pro inquisitoribus certus existit, in dicto tuo regno, comitatu et Provincia cupimus observari. Eapropter devotam magnitudinem tuam rogamus et hortamur attentius quatinus pro inquisitoribus dictorum regni et comitatus secundum modum predictum perpetuo deputes de proventibus regie camere aliquas congruas quantitates saltem... flor. auri inter inquisitores dicti regni qui dicuntur esse quatuor, et... flor. auri inter duos inquisitores comitatus prefati annuatim equalibus portionibus dividendas, ut inquisitores ipsi, qui, ut audivimus, non habent unde possint sustentari decenter et alias incumbentes eis facere, congrua provisione suffulti, eorum officium ad laudem Dei et pro conservatione dicte fidei efficacius prosequantur, tuque hoc inter alias tuas elemosinas computans divinam et apostolice Sedis gratiam uberius merearis. Nec omittimus quod ex hoc tua thesauraria potius commodum quam detrimentum, ut a pluribus creditur, forsitan consequetur ; vel saltem officialibus tuis de Provincia iniungas quod pacifice et quiete permittant eosdem inquisitores dicti comitatus recipere de bonis hereticorum damnatorum, sicut est hactenus fieri consuetum. \u2014 Datum Avinioni, vi kalendas aprilis anno tertio.\n"
        },
        {
            "type": "edition",
            "value": "Jean-Marie Vidal, <i>Bullaire de l\u2019Inquisition fran\u00e7aise au XIV<sup>e<\/sup> si\u00e8cle et jusqu'\u00e0 la fin du Grand Schisme<\/i>, Paris : Letouzey et An\u00e9, 1913, n. 278 bis, p. 401"
        },
        {
            "type": "sources_manuscrites",
            "value": "<i>Reg. Vat.<\/i>, t. <span class=\"smal-caps\">cclxix<\/span>, fol. 38."
        },
        {
            "type": "date",
            "value": "1373\/03\/27",
            "children": {
                "date_deb_annee": "1373",
                "date_deb_mois": "03",
                "date_deb_jour": "27"
            },
            "range": {
                "date_apres": 13730327,
                "date_avant": 13730327
            }
        },
        {
            "type": "genre",
            "value": "Bulle"
        }
    ]
}