{
    "id": 148205,
    "name": "aposcripta-7821",
    "type": "acte",
    "url": "http:\/\/telma-chartes.irht.cnrs.fr\/aposcripta\/notice\/148205",
    "project_slug": "aposcripta",
    "project_label": "APOSCRIPTA \u2013 Lettres des papes",
    "user": "l_valliere",
    "last_update": "2020-10-19 16:39:42",
    "licence": "Attribution - Pas d\u2019Utilisation Commerciale - Partage dans les M\u00eames Conditions 3.0 France (CC BY-NC-SA 3.0 FR) ",
    "licence_url": "https:\/\/creativecommons.org\/licenses\/by-nc-sa\/3.0\/fr\/",
    "elements": [
        {
            "type": "pape",
            "value": "Cl\u00e9ment IV (1265-1268)"
        },
        {
            "type": "destinataire",
            "value": "Le pr\u00e9v\u00f4t et le chapitre de l'\u00e9glise de Tarragone"
        },
        {
            "type": "date_libre",
            "value": "VII idus junii, anno quarto"
        },
        {
            "type": "date",
            "value": "1268\/06\/07",
            "children": {
                "date_deb_annee": "1268",
                "date_deb_mois": "06",
                "date_deb_jour": "07"
            },
            "range": {
                "date_apres": 12680607,
                "date_avant": 12680607
            }
        },
        {
            "type": "date_lieu",
            "value": "Viterbe"
        },
        {
            "type": "genre",
            "value": "Mandement (littere cum filo canapis)"
        },
        {
            "type": "analyse",
            "value": "Mandat eis, \u00ab quatinus ad electionem vel postulationem pastoris, novitiis vestris qui nondum professionem ibidem fecerint tacite vel expresse, hac vice ad electionem vel postulationem hujusmodi non admissis, \u00bb libere procedant [Jordan].\nClemens IV. an Propst und Kapitel von Tarragona: gebietet ihnen, ohne Hinzuziehung ihrer Novizen einen neuen Erzbischof zu w\u00e4hlen [Thumser]."
        },
        {
            "type": "sources_manuscrites",
            "value": "R<sup>1<\/sup>. CIT\u00c9 DU VATICAN, Archivio segreto Vaticano, <i>Registra Vaticana<\/i> 30, fol. 82v.",
            "children": {
                "type_source": "Formulaire, collection de lettres m\u00e9di\u00e9vale"
            }
        },
        {
            "type": "sources_manuscrites",
            "value": "R<sup>2<\/sup>. CIT\u00c9 DU VATICAN, Archivio segreto Vaticano, <i>Registra Vaticana<\/i> 33, ep. 501, fol. 80v.",
            "children": {
                "type_source": "Formulaire, collection de lettres m\u00e9di\u00e9vale"
            }
        },
        {
            "type": "sources_manuscrites",
            "value": "R<sup>3<\/sup>. CIT\u00c9 DU VATICAN, Archivio segreto Vaticano, <i>Registra Vaticana<\/i> 34, fol. 126v.",
            "children": {
                "type_source": "Formulaire, collection de lettres m\u00e9di\u00e9vale"
            }
        },
        {
            "type": "sources_manuscrites",
            "value": "R<sup>4<\/sup>. CIT\u00c9 DU VATICAN, Archivio segreto Vaticano, <i>Registra Vaticana<\/i> 35, ep. 508, fol. 92v.",
            "children": {
                "type_source": "Formulaire, collection de lettres m\u00e9di\u00e9vale"
            }
        },
        {
            "type": "edition",
            "value": "Ici reprise de Mathias Thumser, <i>Die Briefe Papst Clemens\u2019 IV. (1265-1268)<\/i>, Vorl\u00e4ufige Edition, MGH, 2015, n. 509."
        },
        {
            "type": "regeste",
            "value": "Potthast, <i>Regesta pontificum Romanorum<\/i>, n. 20386 <a target=\"_blank\" href=\"https:\/\/archive.org\/stream\/RegestaPontificumRomanorum\/ph#page\/n1655\/mode\/2up\"> [en ligne]<\/a>."
        },
        {
            "type": "bibliographie_generale",
            "value": "Mathias Thumser, \u00ab Zur \u00dcberlieferungsgeschichte der Briefe Clemens'IV. (1265-1268) \u00bb, <i>Deutsches Archiv f\u00fcr Erforschung des Mittelalters<\/i>, 51\/1, 1995, p. 115-168."
        },
        {
            "type": "transcription",
            "value": "<?xml version=\"1.0\" encoding=\"UTF-8\"?>\nDilectis filiis preposito et capitulo ecclesie Terraconensis. Cum ecclesia vestra vacare dicatur ad presens sitque de futuro pontifice a vobis electio celebranda, volumus et per apostolica vobis scripta mandamus, quatenus ad electionem vel postulationem pastoris noviciis vestris, qui nondum professionem fecerunt ibidem tacite vel expresse, hac vice ad electionem vel postulationem huiusmodi non admissis et contradictione ipsorum qualibet non obstante libere procedatis. Datum ut supra.\n"
        },
        {
            "type": "edition_autre",
            "value": "Edmond Mart\u00e8ne, Ursin Durand, <i>Thesaurus novus anecdotorum<\/i>, Paris, 1717, II, n. 658, col. 607 <a target=\"_blank\" href=\"https:\/\/archive.org\/stream\/ThesaurusNovusAnecdotorum2\/Thesaurus_novus_anecdotorum_2#page\/n339\/mode\/2up\"> [en ligne]<\/a>."
        },
        {
            "type": "regeste",
            "value": "\u00c9douard Jordan, <i>Les registres de Cl\u00e9ment IV (1265-1268)<\/i>, Paris, 1893-1945, n. 1378, d\u2019apr\u00e8s R<sup>1<\/sup>, R<sup>2<\/sup>, R<sup>3<\/sup> et R<sup>4<\/sup>."
        }
    ]
}