{
    "id": 25217,
    "name": "aposcripta-2314",
    "type": "acte",
    "url": "http:\/\/telma-chartes.irht.cnrs.fr\/aposcripta\/notice\/25217",
    "project_slug": "aposcripta",
    "project_label": "APOSCRIPTA \u2013 Lettres des papes",
    "user": "lettrespontificalesadmin",
    "last_update": "2020-10-19 16:27:42",
    "licence": "Attribution - Pas d\u2019Utilisation Commerciale - Partage dans les M\u00eames Conditions 3.0 France (CC BY-NC-SA 3.0 FR) ",
    "licence_url": "https:\/\/creativecommons.org\/licenses\/by-nc-sa\/3.0\/fr\/",
    "elements": [
        {
            "type": "pape",
            "value": "Pascal II (1099-1118)"
        },
        {
            "type": "destinataire",
            "value": "Cluny (Saint-Pierre et Saint-Paul) (Hugo abbaye de)",
            "children": {
                "numero_note": "0"
            }
        },
        {
            "type": "date_lieu",
            "value": "Romae"
        },
        {
            "type": "date_libre",
            "value": "1099, 10 septembre"
        },
        {
            "type": "date",
            "value": " 1099\/09\/10",
            "children": {
                "date_deb_annee": "1099",
                "date_deb_mois": "09",
                "date_deb_jour": "10"
            },
            "range": {
                "date_apres": 10990910,
                "date_avant": 10990910
            }
        },
        {
            "type": "analyse",
            "value": "Pascal II annonce \u00e0 Hugues, abb\u00e9 de Cluny, la mort d'Urbain II, ainsi que son accession \u00e0 la dignitit\u00e9 pontificale. <br\/>EPISTOLA PASCHALIS PAP\u00c6 II, AD HUGONEM, ABBATEM CLUNIACENSEM, CUI NUNTIAT OBITUM URBANI PAP\u00c6 II ET SUAM IN EJUS LOCUM ELECTIONEM."
        },
        {
            "type": "transcription",
            "value": "<?xml version=\"1.0\" encoding=\"UTF-8\"?>\nPaschalis, etc. Domini et Patris, etc. \n"
        },
        {
            "type": "edition",
            "value": "Ici tir\u00e9e du projet <i>CBMA - Corpus Burgundiae Medii Aevi<\/i>, document 5161. Site du projet Corpus de la Bourgogne du Moyen \u00c2ge, [En ligne] <a href=\"http:\/\/www.cbma-project.eu\" target=\"_blank\">http:\/\/www.cbma-project.eu<\/a>  "
        },
        {
            "type": "sources_manuscrites",
            "value": "\u00e0 renseigner."
        },
        {
            "type": "remarques",
            "value": "Mabillon, Ann., t.\u00a0V, p.\u00a0407; D. Bouquet, t.\u00a0XV, p.\u00a017. "
        },
        {
            "type": "edition_autre",
            "value": "Ici reprise de Auguste Bernard, Alexandre Bruel, <i>Recueil des chartes de l'abbaye de Cluny<\/i>. V. <i>1091-1210<\/i>, Paris\u00a0: Imprimerie nationale, 1894 <a href=\"http:\/\/gallica.bnf.fr\/ark:\/12148\/bpt6k28911f?rk=64378;0\" target=\"_blank\">[en ligne]<\/a>, p. 78, n\u00b0 3731",
            "children": {
                "numero_note": "0"
            }
        },
        {
            "type": "regeste",
            "value": "Mabillon, Ann., t.\u00a0V, p.\u00a0407",
            "children": {
                "numero_note": "0"
            }
        },
        {
            "type": "regeste",
            "value": "D. Bouquet, t.\u00a0XV, p.\u00a017.",
            "children": {
                "numero_note": "1"
            }
        },
        {
            "type": "genre",
            "value": "Bulle"
        }
    ]
}