{
    "id": 149535,
    "name": "aposcripta-9098",
    "type": "acte",
    "url": "http:\/\/telma-chartes.irht.cnrs.fr\/aposcripta\/notice\/149535",
    "project_slug": "aposcripta",
    "project_label": "APOSCRIPTA \u2013 Lettres des papes",
    "user": "lettrespontificalesadmin",
    "last_update": "2020-10-19 16:40:00",
    "licence": "Attribution - Pas d\u2019Utilisation Commerciale - Partage dans les M\u00eames Conditions 3.0 France (CC BY-NC-SA 3.0 FR) ",
    "licence_url": "https:\/\/creativecommons.org\/licenses\/by-nc-sa\/3.0\/fr\/",
    "elements": [
        {
            "type": "pape",
            "value": "Innocent IV (1243-1254)"
        },
        {
            "type": "destinataire",
            "value": ". . preposito ecclesie sancte Marie in Erfordia Maguntine diocesis"
        },
        {
            "type": "date_libre",
            "value": "X kalendas septembris, anno XII"
        },
        {
            "type": "date",
            "value": " 1254\/08\/23",
            "children": {
                "date_deb_annee": "1254",
                "date_deb_mois": "08",
                "date_deb_jour": "23"
            },
            "range": {
                "date_apres": 12540823,
                "date_avant": 12540823
            }
        },
        {
            "type": "date_lieu",
            "value": "Anagnie"
        },
        {
            "type": "sources_manuscrites",
            "value": "R. CIT\u00c9 DU VATICAN, Archivio Segreto Vaticano, <hi rend=\"italic\">Registra Vaticana<\/hi> ... Inn.\u00a0IV Reg. Vol.\u00a0III, 175; Lib.\u00a0XII, 207. Exemplar nos inde descripsimus et cum illo, quod Finke l. c. edidit, contulimus.",
            "children": {
                "type_source": "Registre de la chancellerie apostolique"
            }
        },
        {
            "type": "genre",
            "value": "Mandement (littere cum filo canapis)"
        },
        {
            "type": "analyse",
            "value": "Innocentius IV papa praeposito S. Mariae in Erfordia mandat, ut ad provisionem Wiggeri decani Halberstadensis iuxta litteras olim ad preces quondam Henrici regis Romanorum scriptas procedat [Rodenberg]."
        },
        {
            "type": "transcription",
            "value": "<?xml version=\"1.0\" encoding=\"UTF-8\"?>\n. . preposito ecclesie sancte Marie in Erfordia Maguntine diocesis.Dilectus filius Wiggerus decanus Alberstadensis nobis exposuit, quod cum olim ad preces clare memorie Henrici regis Romanorum . . decano et . . scolastico ecclesie Padeburnensis direxerimus scripta nostra, ut eidem decano in aliqua ecclesiarum civitatis vel diocesis Alberstadensis, cathedrali vel alia, de aliqua dignitate vel personatu seu officio, si tunc vacabat vel quamcito se ad id offerret oportunitas, providerent, contradictores [etc.], idem decanus nullum adhuc de huiusmodi gratia commodum est adeptus. Nolentes igitur, ut dictus decanus concepta de ipsa gratia spe frustretur, mandamus, quatinus, si est ita, in mandati nostri super hoc executione procedas per te vel per alium iuxta directarum ad dictos decanum et scolasticum continentiam litterarum. Nos enim decernimus irritum et inane, siquid super hiis contra mandati nostri tenorem contigerit attemptari.Dat. Anagnie, X Kalendas Septembris, anno XII\u00b0.\n"
        },
        {
            "type": "edition",
            "value": "Ici reprise de Karl Rodenberg, Epistolae s. XIII e regestis pontificum romanorum selectae, III, Berlin : Weidmann (MGH), 1894, n.\u00a0307, p.\u00a0273."
        },
        {
            "type": "edition_autre",
            "value": "?"
        },
        {
            "type": "regeste",
            "value": "?"
        },
        {
            "type": "bibliographie_generale",
            "value": "?"
        },
        {
            "type": "apparat_critique",
            "value": "?",
            "children": {
                "numero_note": "a"
            }
        },
        {
            "type": "apparat_critique",
            "value": "?",
            "children": {
                "numero_note": "b"
            }
        },
        {
            "type": "apparat_critique",
            "value": "?",
            "children": {
                "numero_note": "c"
            }
        },
        {
            "type": "apparat_critique",
            "value": "?",
            "children": {
                "numero_note": "d"
            }
        },
        {
            "type": "apparat_critique",
            "value": "?",
            "children": {
                "numero_note": "e"
            }
        },
        {
            "type": "apparat_critique",
            "value": "?",
            "children": {
                "numero_note": "f"
            }
        },
        {
            "type": "notes_historiques",
            "value": "?",
            "children": {
                "numero_note": "1"
            }
        },
        {
            "type": "notes_historiques",
            "value": "?",
            "children": {
                "numero_note": "2"
            }
        },
        {
            "type": "notes_historiques",
            "value": "?",
            "children": {
                "numero_note": "3"
            }
        }
    ]
}