{
    "id": 23838,
    "name": "aposcripta-1036",
    "type": "acte",
    "url": "http:\/\/telma-chartes.irht.cnrs.fr\/aposcripta\/notice\/23838",
    "project_slug": "aposcripta",
    "project_label": "APOSCRIPTA \u2013 Lettres des papes",
    "user": "l_valliere",
    "last_update": "2020-10-19 16:27:19",
    "licence": "Attribution - Pas d\u2019Utilisation Commerciale - Partage dans les M\u00eames Conditions 3.0 France (CC BY-NC-SA 3.0 FR) ",
    "licence_url": "https:\/\/creativecommons.org\/licenses\/by-nc-sa\/3.0\/fr\/",
    "elements": [
        {
            "type": "pape",
            "value": "Innocent IV (1243-1254)"
        },
        {
            "type": "destinataire",
            "value": "Le comte de Toulouse Raymond."
        },
        {
            "type": "date_libre",
            "value": "V kalendas maii, anno secundo."
        },
        {
            "type": "date",
            "value": " 1245\/04\/27",
            "children": {
                "date_deb_jour": "27",
                "date_deb_mois": "04",
                "date_deb_annee": "1245"
            },
            "range": {
                "date_apres": 12450427,
                "date_avant": 12450427
            }
        },
        {
            "type": "date_lieu",
            "value": "Lyon"
        },
        {
            "type": "genre",
            "value": "Titre, g\u00e9n\u00e9ral (littere gratiose, cum filo serico)"
        },
        {
            "type": "analyse",
            "value": "Litterae Innocentii papae IV Raimundo comiti Tolosano quibus eum sub Sedis apostolicae protectione suscipit."
        },
        {
            "type": "transcription",
            "value": "<?xml version=\"1.0\" encoding=\"UTF-8\"?>\nInnocentius episcopus, servus servorum Dei, dilecto filio nobili viro [Raimundo] comiti Tholosano, salutem et apostolicam benedictionem. Sacrosancta Romana ecclesia devotos et humiles filios ex assuete pietatis officio propensius diligere consuevit, et, ne pravorum hominum molestiis agitentur, eos tamquam pia mater sue protectionis munimine confovere. Cum igitur, zelo fidei et devotionis accensus, in obsequiis apostolice Sedis constanter proponas, ut asseris, permanere, nos, devotionis tue precibus inclinati, personam, familiam, terram et omnia bona tua, que in presentiarum rationabiliter possides, sub beati Petri et nostra protectione suscipimus et presentis scripti patrocinio communimus. Nulli ergo omnino hominum liceat hanc paginam nostre protectionis infringere vel ei ausu temerario contraire. Si quis autem hoc attemptare presumpserit, indignationem omnipotentis Dei et beatorum Petri et Pauli apostolorum ejus se noverit incursurum. Datum Lugduni, V kalendas maii, pontificatus nostri anno secundo.\n"
        },
        {
            "type": "edition",
            "value": "Ici d'apr\u00e8s Alexandre Teulet, <i>Layettes du Tr\u00e9sor des chartes<\/i>, II, Paris : Henri Plon, 1866 <a target=\"_blank\" href=\"http:\/\/gallica.bnf.fr\/ark:\/12148\/bpt6k31580p\/f655.image\"> [en ligne]<\/a>, n. 3346, p. 566-567 <a target=\"_blank\" href=\" https:\/\/francearchives.fr\/fr\/facomponent\/78ecc2a01725fe47705543683bbf4fb342fea808\">[num\u00e9ris\u00e9e sur le site des Archives de France]<\/a>, d'apr\u00e8s E."
        },
        {
            "type": "sources_manuscrites",
            "value": "E1. FRANCE, Paris, Archives nationales, J 447\/43. Original scell\u00e9 (bulle de plomb sur lacs de soie rouge et jaune. Voyez l'<i>Inventaire<\/i>, n. 6048. On lit au dos de cette pi\u00e8ce l'annotation suivante, \u00e9crite par G\u00e9rard de Montagu : <i>Nullius valoris, quoad presens<\/i>.)",
            "children": {
                "type_source": "Exp\u00e9dition"
            }
        },
        {
            "type": "sources_manuscrites",
            "value": "E2. FRANCE, Paris, Archives nationales, J 447\/43<i>bis<\/I>. Original scell\u00e9 (bulle de plomb sur lacs de soie rouge et jaune. Voyez l'<i>Inventaire<\/i>, n. 6048. Cette pi\u00e8ce est un duplicata du n. 43. Les deux textes sont identiques. On lit au dos l'annotation suivante, \u00e9crite par G\u00e9rard de Montagu : <i>Nullius valoris, quoad presens<\/i>.)",
            "children": {
                "type_source": "Exp\u00e9dition"
            }
        },
        {
            "type": "regeste",
            "value": "Potthast, <i>Regesta pontificum Romanorum<\/i>, n. 11638 <a target=\"_blank\" href=\"https:\/\/archive.org\/stream\/RegestaPontificumRomanorum\/ph#page\/n1001\/mode\/2up\"> [en ligne]<\/a>."
        },
        {
            "type": "regeste",
            "value": "Bernard Barbiche, <i>Les actes pontificaux originaux des Archives Nationales de Paris<\/i>, Cit\u00e9 du Vatican, 1975-1982, I, n. 523, p. 201, d\u2019apr\u00e8s E1 et E2."
        },
        {
            "type": "remarques",
            "value": "Absente des registres"
        }
    ]
}