{
    "id": 26703,
    "name": "aposcripta-3654",
    "type": "acte",
    "url": "http:\/\/telma-chartes.irht.cnrs.fr\/aposcripta\/notice\/26703",
    "project_slug": "aposcripta",
    "project_label": "APOSCRIPTA \u2013 Lettres des papes",
    "user": "l_valliere",
    "last_update": "2020-10-19 16:28:04",
    "licence": "Attribution - Pas d\u2019Utilisation Commerciale - Partage dans les M\u00eames Conditions 3.0 France (CC BY-NC-SA 3.0 FR) ",
    "licence_url": "https:\/\/creativecommons.org\/licenses\/by-nc-sa\/3.0\/fr\/",
    "elements": [
        {
            "type": "pape",
            "value": "Cl\u00e9ment V (1305-1314)"
        },
        {
            "type": "destinataire",
            "value": "Le roi de France Philippe IV le Bel"
        },
        {
            "type": "date_libre",
            "value": "II idus maii, anno primo"
        },
        {
            "type": "date",
            "value": " 1306\/05\/14",
            "children": {
                "date_deb_jour": "14",
                "date_deb_mois": "05",
                "date_deb_annee": "1306"
            },
            "range": {
                "date_apres": 13060514,
                "date_avant": 13060514
            }
        },
        {
            "type": "date_lieu",
            "value": "Bordeaux"
        },
        {
            "type": "genre",
            "value": "Lettre, g\u00e9n\u00e9ral (apr\u00e8s 1198, littere cum filo canapis)"
        },
        {
            "type": "analyse",
            "value": "Philippe a demand\u00e9 \u00e0 Cl\u00e9ment d'accorder \u00e0 Charles d'Anjou une double d\u00e9cime en Provence ; le pape r\u00e9pond qu'en cette affaire il ne peut prendre de d\u00e9cision avant d'avoir consult\u00e9 les cardinaux, ce qu'il fera au prochain consistoire."
        },
        {
            "type": "sources_manuscrites",
            "value": "E. FRANCE, Paris, Archives nationales, J 703, n. 150. Adresse au dos.",
            "children": {
                "type_source": "Exp\u00e9dition",
                "source_edition": ""
            }
        },
        {
            "type": "edition",
            "value": "Georges Lizerand, <i>Cl\u00e9ment V et Philippe le Bel<\/i>, Paris : Hachette, 1910, pi\u00e8ce just. n.  4, p. 427 <a target=\"_blank\" href=\"https:\/\/archive.org\/details\/LizerandGClementVEtPhilippeIVLeBel1910\/page\/n471\">[en ligne]<\/a>, d\u2019apr\u00e8s E."
        },
        {
            "type": "regeste",
            "value": "Bernard Barbiche, <i>Les actes pontificaux originaux des Archives Nationales de Paris<\/i>, Cit\u00e9 du Vatican, 1975-1982, III, n. 2276, p. 20, d\u2019apr\u00e8s E."
        },
        {
            "type": "transcription",
            "value": "<?xml version=\"1.0\" encoding=\"UTF-8\"?>\nClemens episcopus, servus servorum Dei, carissimo in Christo filio Philippo regi Francorum illustri, salutem et apostolicam benedictionem. Litteras quas nobis nuper celsitudo regia destinavit benigne recepimus et contenta in eis legimus diligenter. Sane per eas, fili carissime, postulasti ut dilecto filio nobili viro K[arolo], comiti Andegavens[i], germano tuo, in tota Provincia duplicem decimam in qua [forma] aliam sibi in terra carissimi in Christo filii nostri C[aroli], regis Sycilie illustris, concessimus, concedere dignaremur. Verum cum impositiones et concessiones huiusmodi decimarum Romanus pontifex non sit solitus facere absque concilio sacri collegii sancte Romane Ecclesie cardinalium et, tum propter novum nostrum accessum Burdegalas, tum pro eo etiam quod adhuc multi cardinalium sunt absentes impresentiarum, consistorium minime celebremus illorum, super hiis huiusmodi consilium ad presens nequimus habere. Sed, cum ipsum consilium celebretur, petitiones regiam et dicti comitis super facto predicte decime proponemus, et quod super hoc ordinabitur per nostras litteras vel nuntium idem comes poterit plene scire. Datum Burdegalis, II idus maii, pontificatus nostri anno primo.\n"
        },
        {
            "type": "remarques",
            "value": "Absente des registres"
        }
    ]
}