{
    "id": 25524,
    "name": "aposcripta-2621",
    "type": "acte",
    "url": "http:\/\/telma-chartes.irht.cnrs.fr\/aposcripta\/notice\/25524",
    "project_slug": "aposcripta",
    "project_label": "APOSCRIPTA \u2013 Lettres des papes",
    "user": "lettrespontificalesadmin",
    "last_update": "2020-10-19 16:27:45",
    "licence": "Attribution - Pas d\u2019Utilisation Commerciale - Partage dans les M\u00eames Conditions 3.0 France (CC BY-NC-SA 3.0 FR) ",
    "licence_url": "https:\/\/creativecommons.org\/licenses\/by-nc-sa\/3.0\/fr\/",
    "elements": [
        {
            "type": "pape",
            "value": "Innocent IV (1243-1254)"
        },
        {
            "type": "destinataire",
            "value": "Lyon",
            "children": {
                "numero_note": "0"
            }
        },
        {
            "type": "date_lieu",
            "value": "n.c."
        },
        {
            "type": "date_libre",
            "value": "1247, 23 octobre"
        },
        {
            "type": "date",
            "value": " 1247\/10\/23",
            "children": {
                "date_deb_annee": "1247",
                "date_deb_mois": "10",
                "date_deb_jour": "23"
            },
            "range": {
                "date_apres": 12471023,
                "date_avant": 12471023
            }
        },
        {
            "type": "analyse",
            "value": "X pape<br\/>EPISTOLA INNOCENTII PAP\u00c6 IV AD PRIOREM ET CONVENTUM DE SANCTO SEPULCHRO TRECENSIS DIOECESIS AD EUMDEM EFFECTUM."
        },
        {
            "type": "transcription",
            "value": "<?xml version=\"1.0\" encoding=\"UTF-8\"?>\nInnocentius episcopus, etc. \n"
        },
        {
            "type": "edition",
            "value": "Ici tir\u00e9e du projet <i>CBMA - Corpus Burgundiae Medii Aevi<\/i>, document 6375. Site du projet Corpus de la Bourgogne du Moyen \u00c2ge, [En ligne] <a href=\"http:\/\/www.cbma-project.eu\" target=\"_blank\">http:\/\/www.cbma-project.eu<\/a>  "
        },
        {
            "type": "sources_manuscrites",
            "value": "\u00e0 renseigner."
        },
        {
            "type": "remarques",
            "value": ""
        },
        {
            "type": "edition_autre",
            "value": "Ici reprise de Auguste Bernard, Alexandre Bruel, <i>Recueil des chartes de l'abbaye de Cluny<\/i>. VI. <i>1211-1300<\/i>, Paris\u00a0: Imprimerie nationale, 1903 <a href=\"http:\/\/gallica.bnf.fr\/ark:\/12148\/bpt6k367019?rk=21459;2\" target=\"_blank\">[en ligne]<\/a>, p. 402, n\u00b0 4898",
            "children": {
                "numero_note": "0"
            }
        },
        {
            "type": "regeste",
            "value": "Mention dans le Bull. Clun., p.\u00a0117, col.\u00a01, n\u00ba\u00a03.",
            "children": {
                "numero_note": "0"
            }
        },
        {
            "type": "genre",
            "value": "Lettre"
        }
    ]
}