{
    "id": 148240,
    "name": "aposcripta-7856",
    "type": "acte",
    "url": "http:\/\/telma-chartes.irht.cnrs.fr\/aposcripta\/notice\/148240",
    "project_slug": "aposcripta",
    "project_label": "APOSCRIPTA \u2013 Lettres des papes",
    "user": "l_valliere",
    "last_update": "2020-10-19 16:39:43",
    "licence": "Attribution - Pas d\u2019Utilisation Commerciale - Partage dans les M\u00eames Conditions 3.0 France (CC BY-NC-SA 3.0 FR) ",
    "licence_url": "https:\/\/creativecommons.org\/licenses\/by-nc-sa\/3.0\/fr\/",
    "elements": [
        {
            "type": "pape",
            "value": "Cl\u00e9ment IV (1265-1268)"
        },
        {
            "type": "destinataire",
            "value": "Le roi de Sicile Charles I<sup>er<\/sup>"
        },
        {
            "type": "date_libre",
            "value": "X kalendas octobris, anno quarto"
        },
        {
            "type": "date_lieu",
            "value": "Viterbe"
        },
        {
            "type": "genre",
            "value": "Lettre, g\u00e9n\u00e9ral (apr\u00e8s 1198, littere cum filo canapis)"
        },
        {
            "type": "analyse",
            "value": "Commendat C[arolo] regi Sicilie Guidonem Guerram, comitem Tuscie Palatinum. \u00ab Quod si forsitan in Florentia rectorem Italicum, prout a te cito petetur, instituere proposueris, credunt multi quod eo non posses ponere meliorem \u00bb [Jordan].\nClemens IV. an K\u00f6nig (Karl I.) von Sizilien: empfiehlt Guido Guerra, Pfalzgraf von Tuszien, f\u00fcr ein h\u00f6heres Amt in Florenz oder in der Toskana [Thumser]."
        },
        {
            "type": "sources_manuscrites",
            "value": "R<sup>1<\/sup>. CIT\u00c9 DU VATICAN, Archivio segreto Vaticano, <i>Registra Vaticana<\/i> 30, fol. 86.",
            "children": {
                "type_source": "Formulaire, collection de lettres m\u00e9di\u00e9vale"
            }
        },
        {
            "type": "sources_manuscrites",
            "value": "R<sup>2<\/sup>. CIT\u00c9 DU VATICAN, Archivio segreto Vaticano, <i>Registra Vaticana<\/i> 33, ep. 541, fol. 84.",
            "children": {
                "type_source": "Formulaire, collection de lettres m\u00e9di\u00e9vale"
            }
        },
        {
            "type": "sources_manuscrites",
            "value": "R<sup>3<\/sup>. CIT\u00c9 DU VATICAN, Archivio segreto Vaticano, <i>Registra Vaticana<\/i> 34, fol. 132.",
            "children": {
                "type_source": "Formulaire, collection de lettres m\u00e9di\u00e9vale"
            }
        },
        {
            "type": "sources_manuscrites",
            "value": "R<sup>4<\/sup>. CIT\u00c9 DU VATICAN, Archivio segreto Vaticano, <i>Registra Vaticana<\/i> 35, ep. 545, fol. 96.",
            "children": {
                "type_source": "Formulaire, collection de lettres m\u00e9di\u00e9vale"
            }
        },
        {
            "type": "edition",
            "value": "Ici reprise de Mathias Thumser, <i>Die Briefe Papst Clemens\u2019 IV. (1265-1268)<\/i>, Vorl\u00e4ufige Edition, MGH, 2015, n. 545."
        },
        {
            "type": "regeste",
            "value": "Potthast, <i>Regesta pontificum Romanorum<\/i>, n. 20461 <a target=\"_blank\" href=\"https:\/\/archive.org\/stream\/RegestaPontificumRomanorum\/ph#page\/n1661\/mode\/2up\"> [en ligne]<\/a>."
        },
        {
            "type": "bibliographie_generale",
            "value": "Mathias Thumser, \u00ab Zur \u00dcberlieferungsgeschichte der Briefe Clemens'IV. (1265-1268) \u00bb, <i>Deutsches Archiv f\u00fcr Erforschung des Mittelalters<\/i>, 51\/1, 1995, p. 115-168."
        },
        {
            "type": "transcription",
            "value": "<?xml version=\"1.0\" encoding=\"UTF-8\"?>\nRegi Sicilie. Dilectum filium virum nobilem Guidonem Guerra comitem Tuscie palatinum, qui tibi tam fideliter quam utiliter multo servivit tempore, tue benivolentie duximus commendandum, ut in suis iustis petitionibus exauditus et de impensis obsequiis gaudeat et ad impendenda vehementius animetur. Quod si forsitan in Florentia rectorem Ytalicum, prout a te cito petetur, instituere proposueris, credunt multi, quod eo non posses ponere meliorem, quin etiam, si maiorem locum in Tuscia sibi committeres, creditur, quod in illo melius se haberet. Super hiis igitur, in quot ei tenearis, considerans, sed et, quantum esse possit in posterum, sicut hactenus extitit, fructuosus, te taliter habeas ad eundem, quod et tuam deceat magnitudinem et ipsius devotio tue beneficiis largitatis infusa in amorem tui culminis et potentie promptis et humilibus desideriis incalescat. Datum Viterbii, X kalendas octobris, anno IIII.\n"
        },
        {
            "type": "edition_autre",
            "value": "Edmond Mart\u00e8ne, Ursin Durand, <i>Thesaurus novus anecdotorum<\/i>, Paris, 1717, II, n. 700, col. 629 <a target=\"_blank\" href=\"https:\/\/archive.org\/stream\/ThesaurusNovusAnecdotorum2\/Thesaurus_novus_anecdotorum_2#page\/n349\/mode\/2up\"> [en ligne]<\/a>."
        },
        {
            "type": "regeste",
            "value": "\u00c9douard Jordan, <i>Les registres de Cl\u00e9ment IV (1265-1268)<\/i>, Paris, 1893-1945, n. 1414, d\u2019apr\u00e8s R<sup>1<\/sup>, R<sup>2<\/sup>, R<sup>3<\/sup> et R<sup>4<\/sup>."
        },
        {
            "type": "date",
            "value": "1268\/09\/22",
            "children": {
                "date_deb_annee": "1268",
                "date_deb_mois": "09",
                "date_deb_jour": "22"
            },
            "range": {
                "date_apres": 12680922,
                "date_avant": 12680922
            }
        }
    ]
}