{
    "id": 26288,
    "name": "aposcripta-3367",
    "type": "acte",
    "url": "http:\/\/telma-chartes.irht.cnrs.fr\/aposcripta\/notice\/26288",
    "project_slug": "aposcripta",
    "project_label": "APOSCRIPTA \u2013 Lettres des papes",
    "user": "lettrespontificalesadmin",
    "last_update": "2020-10-19 16:27:58",
    "licence": "Attribution - Pas d\u2019Utilisation Commerciale - Partage dans les M\u00eames Conditions 3.0 France (CC BY-NC-SA 3.0 FR) ",
    "licence_url": "https:\/\/creativecommons.org\/licenses\/by-nc-sa\/3.0\/fr\/",
    "elements": [
        {
            "type": "pape",
            "value": "Innocent II (1130-1143)"
        },
        {
            "type": "date_lieu",
            "value": "Lateran"
        },
        {
            "type": "date_libre",
            "value": "1139 (?) Mai 1"
        },
        {
            "type": "date",
            "value": "circa 1139\/05\/01",
            "children": {
                "date_deb_annee": "1139",
                "date_deb_mois": "05",
                "date_deb_jour": "01",
                "date_deb_type": "circa"
            },
            "range": {
                "date_apres": 11390501,
                "date_avant": 11390501
            }
        },
        {
            "type": "analyse",
            "value": "Innocenz II urkundet allen Klerikern und Laien der Provence \u00fcber die Beilegung eines Streites zwischen dem Bischofe Manfred von Antibes und dem Kloster L\u00e9rins (D. Antibes) wegen der Kirchen Opio (D. Antibes) St.-C\u00e9saire (D. Fr\u00e9jus), La Garde (D. Vence) und Roquefort (D. Vence)<a class=\"note\" href=\"#note-1\">1<\/a>."
        },
        {
            "type": "transcription",
            "value": "<?xml version=\"1.0\" encoding=\"UTF-8\"?>\n"
        },
        {
            "type": "edition",
            "value": "Julius von Pflugk-Harttung, <i>Acta pontificum Romanorum inedita<\/i>, T\u00fcbingen, 1880, I, n. 179, p. 158"
        },
        {
            "type": "sources_manuscrites",
            "value": "Or. im Archive des D\u00e9p. Alpes-Maritimes zu Nizza. Abschrift vom Ende des 12 Jahrh. des Cart. de L\u00e9rins fol. 141, ebendort. \u2014 Fehlerhafte neuere Abschrift des MS. lat. Nouv. Acq. 1155 p. 268, in der Bibl. Nat. zu Paris."
        },
        {
            "type": "remarques",
            "value": "Das in spitzen Klammern Stehende bringt das Cartular mehr als das Original. Man k\u00f6nnte danach glauben, es habe dem Copisten ein anderes, als das noch uns erhaltene Original vorgelegen, etwa ausgestellt f\u00fcr die Familie de Grasse, doch erweist sich dies unwahrscheinlich, weil der Satz ita tamen nach selbst\u00e4ndiger Einschiebung einer interessirten Person aussieht, der ad maiorem nicht zur Adresse stimmt und unkanzleim\u00e4ssig in der Person wechselt (vobis und tuis), mit eius incurrat offenbar der kanzleim\u00e4ssige Schluss des Schriftst\u00fcckes erreicht ist und, weil wir nach ganzer Anlage der Urkunde ein Breve vor uns haben, dem aber nur die kleine, nicht die erweiterte Datirung entspricht. Es liegt demnach eine Interpolation vor, ein Ergebniss, welches auch auf die Glaubw\u00fcrdigkeit der \u00fcbrigen Abschriften des Cartular von L\u00e9rins zur\u00fcckwirkt. Vergl. Nr. 157, 185 und Urk. vom 13 Mai 1146."
        },
        {
            "type": "apparat_critique",
            "value": "a.\u2002heedem (<i>scil.<\/i> eaedem ecclesiae)",
            "children": {
                "numero_note": "a"
            }
        },
        {
            "type": "apparat_critique",
            "value": "b.\u2002<i>Cart.<\/i> Antibuli.",
            "children": {
                "numero_note": "b"
            }
        },
        {
            "type": "notes_historiques",
            "value": "<i>Nach meiner Pariser Abschrift, freundlichst collationirt von Herrn Archivar H. de Flamare zu Nizza.<\/i>",
            "children": {
                "numero_note": "1"
            }
        },
        {
            "type": "notes_historiques",
            "value": "<i>Manfred, Bischof von Antibes, c. 1110\u2013c. 1134.<\/i>",
            "children": {
                "numero_note": "2"
            }
        },
        {
            "type": "notes_historiques",
            "value": "<i>Opio, Alpes Maritimes, Arr. Grasse, Cant. Le Bar.<\/i>",
            "children": {
                "numero_note": "3"
            }
        },
        {
            "type": "notes_historiques",
            "value": "<i>Saint C\u00e9saire, Alpes-Maritimes, Arr. Grasse, Cant. Saint-Vallier.<\/i>",
            "children": {
                "numero_note": "4"
            }
        },
        {
            "type": "notes_historiques",
            "value": "<i>La Garde, Alpes-Maritimes, Arr. Grasse, Cant. Vence.<\/i>",
            "children": {
                "numero_note": "5"
            }
        },
        {
            "type": "notes_historiques",
            "value": "<i>Roquefort, Alpes-Maritimes, Arr. Grasse, Cant. Le Bar.<\/i>",
            "children": {
                "numero_note": "6"
            }
        },
        {
            "type": "notes_historiques",
            "value": "<i>Peter, Bischof von Nizza, c. 1115\u20131151.<\/i>",
            "children": {
                "numero_note": "7"
            }
        },
        {
            "type": "genre",
            "value": "Bulle"
        }
    ]
}