{
    "id": 25528,
    "name": "aposcripta-2625",
    "type": "acte",
    "url": "http:\/\/telma-chartes.irht.cnrs.fr\/aposcripta\/notice\/25528",
    "project_slug": "aposcripta",
    "project_label": "APOSCRIPTA \u2013 Lettres des papes",
    "user": "lettrespontificalesadmin",
    "last_update": "2020-10-19 16:27:45",
    "licence": "Attribution - Pas d\u2019Utilisation Commerciale - Partage dans les M\u00eames Conditions 3.0 France (CC BY-NC-SA 3.0 FR) ",
    "licence_url": "https:\/\/creativecommons.org\/licenses\/by-nc-sa\/3.0\/fr\/",
    "elements": [
        {
            "type": "pape",
            "value": "Innocent IV (1243-1254)"
        },
        {
            "type": "destinataire",
            "value": "Lyon",
            "children": {
                "numero_note": "0"
            }
        },
        {
            "type": "date_lieu",
            "value": "n.c."
        },
        {
            "type": "date_libre",
            "value": "1248, 27 juin"
        },
        {
            "type": "date",
            "value": " 1248\/06\/27",
            "children": {
                "date_deb_annee": "1248",
                "date_deb_mois": "06",
                "date_deb_jour": "27"
            },
            "range": {
                "date_apres": 12480627,
                "date_avant": 12480627
            }
        },
        {
            "type": "analyse",
            "value": "X pape<br\/>BULLA INNOCENTII PAP\u00c6 IV, QUOD RELIGIOSI CLUNIACENSES POSSINT SUCCEDERE IN BONIS MOBILIBUS ET IMMOBILIBUS, EXCEPTIS FEUDALIBUS. PRIVILEGIUM INNOCENTII PAP\u00c6 IV. quod Religiosi Cluniacenses possint succedere in bonis mobilibus et immobilibus, exceptis feudalibus."
        },
        {
            "type": "transcription",
            "value": "<?xml version=\"1.0\" encoding=\"UTF-8\"?>\n[Innocentius Episcopus servus servorum Dei, dilecto filio ..... Abbati Cluniac. salutem et Apostolicam benedictionem. Devotionis tu\u00e6 precibus inclinati, ut possessiones et alia bona mobilia et immobilia, qu\u00e6 personas fratrum, qui \u00e8 s\u00e6culo fugientes in ordine tuo habitum religionis assumunt, ibique se vinculo professionis astringunt, contigissent ratione successionis, vel alio justo titulo, in eodem s\u00e6culo permanendo, percipere et petere, ac retinere liber\u00e8 (feudalibus rebus exceptis) valeas, auctoritate tibi pr\u00e6sentium indulgemus. Nulli ergo, etc. Datum Lugduni V. Kalendas Julii, Pontificatus nostri anno V.]\n"
        },
        {
            "type": "edition",
            "value": "Ici tir\u00e9e du projet <i>CBMA - Corpus Burgundiae Medii Aevi<\/i>, document 6383. Site du projet Corpus de la Bourgogne du Moyen \u00c2ge, [En ligne] <a href=\"http:\/\/www.cbma-project.eu\" target=\"_blank\">http:\/\/www.cbma-project.eu<\/a>  "
        },
        {
            "type": "sources_manuscrites",
            "value": "\u00e0 renseigner."
        },
        {
            "type": "remarques",
            "value": "\r\n\r\nIndications dans l'\u00e9dition des Chartes de Cluny quand Bernard et Bruel n'ont pas repris le texte : Innocentius, etc. Devotionis tu\u00e6 precibus, etc. (Bull. Clun., p.\u00a0119, col.\u00a01, n\u00ba\u00a01.)."
        },
        {
            "type": "edition_autre",
            "value": "Ici reprise de Auguste Bernard, Alexandre Bruel, <i>Recueil des chartes de l'abbaye de Cluny<\/i>. VI. <i>1211-1300<\/i>, Paris\u00a0: Imprimerie nationale, 1903 <a href=\"http:\/\/gallica.bnf.fr\/ark:\/12148\/bpt6k367019?rk=21459;2\" target=\"_blank\">[en ligne]<\/a>, p. 406, n\u00b0 4905.",
            "children": {
                "numero_note": "0"
            }
        },
        {
            "type": "edition_autre",
            "value": "Pierre Simon, <i>Bullarium sacri Ordinis cluniacensis, complectens plurima privilegia per summos pontifices tum ipsi cluniacensi abbatiae, tum ei subditis monasteriis hactenus concessa<\/i>, Lyon : Jullieron, 1680, p. 119, col. 1",
            "children": {
                "numero_note": "1"
            }
        },
        {
            "type": "genre",
            "value": "Bulle"
        }
    ]
}