{
    "id": 26384,
    "name": "aposcripta-3463",
    "type": "acte",
    "url": "http:\/\/telma-chartes.irht.cnrs.fr\/aposcripta\/notice\/26384",
    "project_slug": "aposcripta",
    "project_label": "APOSCRIPTA \u2013 Lettres des papes",
    "user": "lettrespontificalesadmin",
    "last_update": "2020-10-19 16:27:59",
    "licence": "Attribution - Pas d\u2019Utilisation Commerciale - Partage dans les M\u00eames Conditions 3.0 France (CC BY-NC-SA 3.0 FR) ",
    "licence_url": "https:\/\/creativecommons.org\/licenses\/by-nc-sa\/3.0\/fr\/",
    "elements": [
        {
            "type": "pape",
            "value": "Alexandre III (1159-1181)"
        },
        {
            "type": "date_lieu",
            "value": "Anagni"
        },
        {
            "type": "date_libre",
            "value": "1160\u20131174 Mai 21"
        },
        {
            "type": "date",
            "value": "apr\u00e8s 1160\/05\/21 - avant 1174\/05\/21",
            "children": {
                "date_deb_annee": "1160",
                "date_deb_mois": "05",
                "date_deb_jour": "21",
                "date_deb_type": "apr\u00e8s",
                "date_fin_annee": "1174",
                "date_fin_mois": "05",
                "date_fin_jour": "21",
                "date_fin_type": "avant"
            },
            "range": {
                "date_apres": 11600521,
                "date_avant": 11740521
            }
        },
        {
            "type": "analyse",
            "value": "Alexander III best\u00e4tigt dem Domkapitel von Cambrai die getroffene Uebereinkunft, dass die dritte Pr\u00e4bende, welche von der Bewilligung des Kapitels abh\u00e4nge, nur solchen Priestern \u00fcberwiesen werden d\u00fcrfe, welche fleissig im Dienste der Kirche seien<a class=\"note\" href=\"#note-1\">1<\/a>."
        },
        {
            "type": "transcription",
            "value": "<?xml version=\"1.0\" encoding=\"UTF-8\"?>\n Alexander episcopus servus servorum dei dilectis filiis .T(heoderico) preposito2, H(ugoni)a decano3 et capitulo Camera|censis ecclesie salutem et apostolicam benedictionem. Sicut nobis imminet, que illicite statuta sunt, falce apostolice pro|videntie resecare, ita etiam ex debito commisse nobis sollicitudinis apostolici muniminis robore confirmare tenemur, que pertineant ad decorem domini et ad ecclesiasticam respiciant honestatem. Intelleximus autem ex litteris, quas nobis misistis, quod, cum nonnulli in ecclesia vestra postularent prebendas habere, non ut servirent ecclesie, sed ut fructuum perceptione gauderent, pari voto et communi consilio statuistis et tactisb sacrosanctis evangeliis salva reverentia apostolice sedis firmastis, ut tertiam prebendam, ad concessionem vestram pertinentem, nemini unquam nisi sacerdoti in loco frequenti et assidue ecclesie servitio dedito debeatis concedere, nec ante quam vacaverit, quemquam pollicitationis expectatione fovere vel promissione concessionis aliquatenus demulcere. Quoniam igitur a nobis vestra postulavit devotio, ut constitutionem vestram in hac parte ratam haberemus et firmam, eamque auctoritate apostolica firmaremus, nos postulationi vestre benignius annuentes, constitutionem ipsam, sicut supradicta est, auctoritate apostolica confirmamus et presentis scripti patrocinio communimus. Statuentes, ut nulli omnino hominum liceat, hanc paginam nostre confirmationis infringere vel ei aliquatenus contraire. Si quis autem hoc atemptare presumpserit indignationem | omnipotentis dei et beatorum Petri et Pauli apostolorum eius se noverit incursurum. \u2014 Dat. Anagnie, xii Kl. Junii.\n"
        },
        {
            "type": "edition",
            "value": "Julius von Pflugk-Harttung, <i>Acta pontificum Romanorum inedita<\/i>, T\u00fcbingen, 1880, I, n. 275, p. 253"
        },
        {
            "type": "sources_manuscrites",
            "value": "Or. im Archive des D\u00e9p. Nord zu Lille (Fonds de la cath\u00e9dr. de Cambrai). \u2014 Abschrift vom Ende des 12 Jahrh. des Cartul. de l\u2019\u00e9glise de Cambrai, MS. lat. 10968 fol. 25, 26, in der Bibl. Nat. zu Paris."
        },
        {
            "type": "remarques",
            "value": "Or., Perg. ital., breit 0,225, lang 0,225, unten umgeschlagen, durch zwei L\u00f6cher geht die gelbe Seidenschnur, an der die Bulle h\u00e4ngt, Faltung der Breven."
        },
        {
            "type": "apparat_critique",
            "value": "a.\u2002Ha",
            "children": {
                "numero_note": "a"
            }
        },
        {
            "type": "apparat_critique",
            "value": "b.\u2002tractis.",
            "children": {
                "numero_note": "b"
            }
        },
        {
            "type": "notes_historiques",
            "value": "<i>Vergl. die Urk. vom 10 Januar 1180.<\/i>",
            "children": {
                "numero_note": "1"
            }
        },
        {
            "type": "notes_historiques",
            "value": "<i>Theoderich I, Propst v. Cambrai, c. 1145\u2013c. 1170<\/i> (<i>starb vor 1175<\/i>). <i>Le Glay, Camerac. Christ. p. 89.<\/i>",
            "children": {
                "numero_note": "2"
            }
        },
        {
            "type": "notes_historiques",
            "value": "<i>Hugo III<\/i> (<i>und IV ?<\/i>) <i>c. 1161<\/i> (<i>nach 1156<\/i>) \u2014 <i>c. 1190. Le Glay, Cam. Chr. p. 96.<\/i>",
            "children": {
                "numero_note": "3"
            }
        },
        {
            "type": "genre",
            "value": "Bulle"
        }
    ]
}