{
    "id": 26275,
    "name": "aposcripta-3354",
    "type": "acte",
    "url": "http:\/\/telma-chartes.irht.cnrs.fr\/aposcripta\/notice\/26275",
    "project_slug": "aposcripta",
    "project_label": "APOSCRIPTA \u2013 Lettres des papes",
    "user": "lettrespontificalesadmin",
    "last_update": "2020-10-19 16:27:57",
    "licence": "Attribution - Pas d\u2019Utilisation Commerciale - Partage dans les M\u00eames Conditions 3.0 France (CC BY-NC-SA 3.0 FR) ",
    "licence_url": "https:\/\/creativecommons.org\/licenses\/by-nc-sa\/3.0\/fr\/",
    "elements": [
        {
            "type": "pape",
            "value": "Innocent II (1130-1143)"
        },
        {
            "type": "date_lieu",
            "value": "Nevers"
        },
        {
            "type": "date_libre",
            "value": "1132 c Januar 10<a class=\"note\" href=\"#note-1\">1<\/a>"
        },
        {
            "type": "date",
            "value": "circa 1132\/01\/10",
            "children": {
                "date_deb_annee": "1132",
                "date_deb_mois": "01",
                "date_deb_jour": "10",
                "date_deb_type": "circa"
            },
            "range": {
                "date_apres": 11320110,
                "date_avant": 11320110
            }
        },
        {
            "type": "analyse",
            "value": "Innocenz II beurkundet dem Abte Theotwin von Gorze (D. Metz), dass er ihn und sein Kloster mit dem zwischen ihm und Hugo von Mont-Felix strittigen Besitzth\u00fcme belehnt habe."
        },
        {
            "type": "transcription",
            "value": "<?xml version=\"1.0\" encoding=\"UTF-8\"?>\n"
        },
        {
            "type": "edition",
            "value": "Julius von Pflugk-Harttung, <i>Acta pontificum Romanorum inedita<\/i>, T\u00fcbingen, 1880, I, n. 166, p. 145"
        },
        {
            "type": "sources_manuscrites",
            "value": "Abschrift vom 12 Jahrh. des Cartulaire de Gorze Nr. 76 p. 209\u2013212, in der Bibl. zu Metz."
        },
        {
            "type": "remarques",
            "value": "Die Segenformel ist offenbar vom Abschreiber selbst\u00e4ndig aus derjenigen erweitert, welche wir in Nr. 163 haben, in der Zeugenliste fehlt vielleicht Johannes pbr. St. Chrysogoni. Auch die Datumzeile wurde, wie schon in den fr\u00fcheren Urkunden, in Unordnung gebracht. Das Umsetzen der Indiction hat leider auch den Ausfall des Tagesdatums mit sich gef\u00fchrt, doch l\u00e4sst sich dasselbe ziemlich genau berechnen. Noch am 30 December 1131 urkundete Innocenz in Auxerre, am 18 Januar in Autun, von Autun begab er sich nach Cluny, folglich muss er von Auxerre nach Autun \u00fcber Nevers gereist sein."
        },
        {
            "type": "apparat_critique",
            "value": "a.\u2002<i>Von anderer Hand \u00fcbergeschrieben.<\/i>",
            "children": {
                "numero_note": "a"
            }
        },
        {
            "type": "apparat_critique",
            "value": "b.\u2002quidem.",
            "children": {
                "numero_note": "b"
            }
        },
        {
            "type": "apparat_critique",
            "value": "c.\u2002renumeratione.",
            "children": {
                "numero_note": "c"
            }
        },
        {
            "type": "apparat_critique",
            "value": "d.\u2002Almerici. <i>Das gestreckte<\/i> i <i>ist als<\/i> l <i>verlesen<\/i>.",
            "children": {
                "numero_note": "d"
            }
        },
        {
            "type": "apparat_critique",
            "value": "e.\u2002<i>Der Abschreiber hat<\/i> Ind. <span class=\"small-caps\">x<\/span> <i>zwischen<\/i> domini <i>und<\/i> <span class=\"small-caps\">m<\/span> <i>gestellt<\/i>.",
            "children": {
                "numero_note": "e"
            }
        },
        {
            "type": "notes_historiques",
            "value": "<i>Wegen der Datirung vergl. das Nachwort.<\/i>",
            "children": {
                "numero_note": "1"
            }
        },
        {
            "type": "notes_historiques",
            "value": "<i>Ebald de Roucy, Bischof von Ch\u00e2lons-sur-Marne, 1122\u20131126.<\/i>",
            "children": {
                "numero_note": "2"
            }
        },
        {
            "type": "notes_historiques",
            "value": "<i>Elbert desgl. 1127\u20131130.<\/i>",
            "children": {
                "numero_note": "3"
            }
        },
        {
            "type": "notes_historiques",
            "value": "<i>Von 1127\u20131132 finden wir Math\u00e4us von Albano wiederholt als Legaten th\u00e4tig.<\/i>",
            "children": {
                "numero_note": "4"
            }
        },
        {
            "type": "notes_historiques",
            "value": "<i>1131 October 18.<\/i>",
            "children": {
                "numero_note": "5"
            }
        },
        {
            "type": "notes_historiques",
            "value": "<i>Dieser Aufenthalt zu Ch\u00e2lons-sur-Marne wird in die Mitte des November 1131 fallen.<\/i>",
            "children": {
                "numero_note": "6"
            }
        },
        {
            "type": "notes_historiques",
            "value": "<i>Innocenz II war vom c. 28 November bis Ende December oder Anfang Januar in Auxerre.<\/i>",
            "children": {
                "numero_note": "7"
            }
        },
        {
            "type": "notes_historiques",
            "value": "<i>Januar 3.<\/i>",
            "children": {
                "numero_note": "8"
            }
        },
        {
            "type": "notes_historiques",
            "value": "<i>Beh\u00e4lter. Diefenbach, Nov. Gloss. p. 318.<\/i>",
            "children": {
                "numero_note": "9"
            }
        },
        {
            "type": "notes_historiques",
            "value": "<i>Der Heilige f\u00fcr das Kloster Gorze gesetzt.<\/i>",
            "children": {
                "numero_note": "10"
            }
        },
        {
            "type": "notes_historiques",
            "value": "<i>Zur Erg\u00e4nzung dieser Vorg\u00e4nge dienen diejenigen, welche uns der Cart. de Gorze p. 213 berichtet, es heisst dort<\/i> : Notum fieri volumus tam futuris quam presentibus, Gorziensis ecclesie filiis et provisoribus, qualiter dominus Hugo de Monte felice tractus penitentia cordis atque anime sue volens consulere utilitati cum uxore sua Alahide et aliis quam plurimis familiaribus suis ad prefatam ecclesiam confugerit, et absolutionem de omnibus dampnis, que ei intulerat expetierit et optinuerit, quodque etiam fundum, quem violenter occupaverat in villa, que dicitur Vuasnau, super quam construxerat castrum, nostri esse iuris coram testibus legitimis ... recognoverit, et quomodo eundem fundum in capitulo fratrum ... sibi et posteris eius ... tenendum postulaverit et impetraverit, ea sane conventione, quod singulis annis in capite ieiunii pro prefato fundo ... abbas preceperit censualiter <span class=\"small-caps\">v<\/span> solidos persolvet .... Acta ... <span class=\"small-caps\">m<\/span>(<span class=\"small-caps\">c<\/span>)<span class=\"small-caps\">xxxiii<\/span>. Indictione <span class=\"small-caps\">i<\/span>. Regnante Conrado apud Romanos, apud Francorum gentem Ludovico. <i>Wird 1138 sein, die<\/i> <span class=\"small-caps\">v<\/span> <i>im Incarnationsjahre vergessen.<\/i>",
            "children": {
                "numero_note": "11"
            }
        },
        {
            "type": "genre",
            "value": "Bulle"
        }
    ]
}