{
    "id": 23885,
    "name": "aposcripta-1070",
    "type": "acte",
    "url": "http:\/\/telma-chartes.irht.cnrs.fr\/aposcripta\/notice\/23885",
    "project_slug": "aposcripta",
    "project_label": "APOSCRIPTA \u2013 Lettres des papes",
    "user": "l_valliere",
    "last_update": "2020-10-19 16:27:20",
    "licence": "Attribution - Pas d\u2019Utilisation Commerciale - Partage dans les M\u00eames Conditions 3.0 France (CC BY-NC-SA 3.0 FR) ",
    "licence_url": "https:\/\/creativecommons.org\/licenses\/by-nc-sa\/3.0\/fr\/",
    "elements": [
        {
            "type": "pape",
            "value": "Innocent IV (1243-1254)"
        },
        {
            "type": "destinataire",
            "value": "Les archev\u00eaques de Bourges, Reims, Sens, Rouen et Narbonne, le prieur des fr\u00e8res Pr\u00eacheurs et le ministre des fr\u00e8res Mineurs des provinces de France"
        },
        {
            "type": "date_libre",
            "value": "III kalendas junii, anno septimo"
        },
        {
            "type": "date",
            "value": " 1250\/05\/30",
            "children": {
                "date_deb_jour": "30",
                "date_deb_mois": "05",
                "date_deb_annee": "1250"
            },
            "range": {
                "date_apres": 12500530,
                "date_avant": 12500530
            }
        },
        {
            "type": "date_lieu",
            "value": "Lyon"
        },
        {
            "type": "analyse",
            "value": "Litterae Innocentii papae IV Bituricensi, Remensi, Senonensi, Rothomagensi et Narbonensi archiepiscopis, priori Praedicatorum et ministro Fratrum Minorum provincialibus Franciae, quibus impertitur ut omnes illi qui in regno Franciae signum crucis receperint vel recipient, vel domino regi Franciae congruam bonorum suorum partem pro subsidio Terrae Sanctae dabunt, non obstante generali quovis interdicto, si sint clerici, divina officia celebrare valeant, si laici, ea in ecclesiis audire, et ecclesiasticis sacramentis frui possint, dum modo causam non dederint interdicto."
        },
        {
            "type": "sources_manuscrites",
            "value": "E. FRANCE, Paris, Archives nationales, J 451\/1. Original scell\u00e9 (bulle de plomb sur cordelettes de chanvre).",
            "children": {
                "type_source": "Exp\u00e9dition",
                "source_edition": ""
            }
        },
        {
            "type": "transcription",
            "value": "<?xml version=\"1.0\" encoding=\"UTF-8\"?>\nCum vobis in... Datum Lugduni, III kalendas junii, pontificatus nostri anno septimo.\n"
        },
        {
            "type": "remarques",
            "value": "\u00e0 \u00e9diter - Inconnue de Potthast - Absente des registres"
        },
        {
            "type": "bibliographie_generale",
            "value": ""
        },
        {
            "type": "genre",
            "value": "Mandement (littere cum filo canapis)"
        },
        {
            "type": "regeste",
            "value": "Joseph de Laborde, <i>Layettes du Tr\u00e9sor des chartes<\/i>, III, Paris : Henri Plon, 1875 <a target=\"_blank\" href=\"http:\/\/digi.ub.uni-heidelberg.de\/diglit\/teulet1875bd3\/0186\"> [en ligne]<\/a>, n. 3869, p. 100 <a target=\"_blank\"href=\"https:\/\/francearchives.fr\/fr\/facomponent\/4ea02b38d2edf29cc835b0fea549356c4b11ce86\">[num\u00e9ris\u00e9e sur le site des Archives de France]<\/a>, d'apr\u00e8s E."
        },
        {
            "type": "regeste",
            "value": "Bernard Barbiche, <i>Les actes pontificaux originaux des Archives Nationales de Paris<\/i>, Cit\u00e9 du Vatican, 1975-1982, I, n. 667, p. 254-255, d\u2019apr\u00e8s E."
        }
    ]
}