{
    "id": 149148,
    "name": "aposcripta-8711",
    "type": "acte",
    "url": "http:\/\/telma-chartes.irht.cnrs.fr\/aposcripta\/notice\/149148",
    "project_slug": "aposcripta",
    "project_label": "APOSCRIPTA \u2013 Lettres des papes",
    "user": "l_valliere",
    "last_update": "2020-10-19 16:39:54",
    "licence": "Attribution - Pas d\u2019Utilisation Commerciale - Partage dans les M\u00eames Conditions 3.0 France (CC BY-NC-SA 3.0 FR) ",
    "licence_url": "https:\/\/creativecommons.org\/licenses\/by-nc-sa\/3.0\/fr\/",
    "elements": [
        {
            "type": "pape",
            "value": "Cl\u00e9ment IV (1265-1268)"
        },
        {
            "type": "destinataire",
            "value": "Toutes les filles dans le Christ prieures moniales des maisons de l'ordre des Chartreux"
        },
        {
            "type": "date_libre",
            "value": "Nonis junii, anno secundo"
        },
        {
            "type": "date",
            "value": "1266\/06\/05",
            "children": {
                "date_deb_annee": "1266",
                "date_deb_mois": "06",
                "date_deb_jour": "05"
            },
            "range": {
                "date_apres": 12660605,
                "date_avant": 12660605
            }
        },
        {
            "type": "date_lieu",
            "value": "Viterbe"
        },
        {
            "type": "genre",
            "value": "Titre, g\u00e9n\u00e9ral (littere gratiose, cum filo serico)"
        },
        {
            "type": "analyse",
            "value": "Clemens (IV) \u00ab dilectis in Christo filiabus universis priorissis monialibus domorum ordinis Cartusien. \u00bb : eis indulget ut omnibus privilegiis et indulgentiis prioribus et fratribus Cartusien. ordinis ab apostolica Sede concessis in hiis que eis competunt gaudeant [Barbiche]."
        },
        {
            "type": "sources_manuscrites",
            "value": "E. FRANCE, Paris, Archives nationales, L 260, n. 75 (olim n. 90)<a href=\"#note-1\"><sup>1<\/sup><\/a>. Original, bulle perdue, restes de lacs de soie rouge et jaune.",
            "children": {
                "type_source": "Exp\u00e9dition"
            }
        },
        {
            "type": "edition",
            "value": "\u00e0 \u00e9diter"
        },
        {
            "type": "regeste",
            "value": "Bernard Barbiche, <i>Les actes pontificaux originaux des Archives Nationales de Paris<\/i>, Cit\u00e9 du Vatican, 1975-1982, II, n. 1385, p. 134-135, d'apr\u00e8s E."
        },
        {
            "type": "transcription",
            "value": "<?xml version=\"1.0\" encoding=\"UTF-8\"?>\nInducit nos favor... Dat. Viterbii, nonis junii, pontificatus nostri anno secundo.\n"
        },
        {
            "type": "notes_historiques",
            "value": "Bulle provenant des archives de la chartreuse de Vauvert.",
            "children": {
                "numero_note": "1"
            }
        },
        {
            "type": "remarques",
            "value": "inconnue de Potthast - absente des registres"
        }
    ]
}