{
    "id": 25677,
    "name": "aposcripta-2774",
    "type": "acte",
    "url": "http:\/\/telma-chartes.irht.cnrs.fr\/aposcripta\/notice\/25677",
    "project_slug": "aposcripta",
    "project_label": "APOSCRIPTA \u2013 Lettres des papes",
    "user": "lettrespontificalesadmin",
    "last_update": "2020-10-19 16:27:47",
    "licence": "Attribution - Pas d\u2019Utilisation Commerciale - Partage dans les M\u00eames Conditions 3.0 France (CC BY-NC-SA 3.0 FR) ",
    "licence_url": "https:\/\/creativecommons.org\/licenses\/by-nc-sa\/3.0\/fr\/",
    "elements": [
        {
            "type": "pape",
            "value": "Martin IV (1281-1285)"
        },
        {
            "type": "destinataire",
            "value": "( )",
            "children": {
                "numero_note": "0"
            }
        },
        {
            "type": "date_lieu",
            "value": "n.c."
        },
        {
            "type": "date_libre",
            "value": "1283, 9 f\u00e9vrier"
        },
        {
            "type": "date",
            "value": " 1283\/02\/09",
            "children": {
                "date_deb_annee": "1283",
                "date_deb_mois": "02",
                "date_deb_jour": "09"
            },
            "range": {
                "date_apres": 12830209,
                "date_avant": 12830209
            }
        },
        {
            "type": "analyse",
            "value": "X pape<br\/>CONSERVATORIA MARTINI PAP\u00c6 IV DIRECTA ABBATI SANCTI \u00c6GIDII, NEMAUSENSIS DI\u0152CESIS, ADVERSUS MOLESTATORES CLUNIACENSIUM FRATRUM IN PROVINCIA NARBONENSI. CONSERVATORIA MARTINI PAP\u00c6 IV. directa Abbati Monasterii sancti Egidii Nemausens. Di\u0153ces. adversus molestatores Cluniacensium fratrum in Provincia Narbonensi."
        },
        {
            "type": "transcription",
            "value": "<?xml version=\"1.0\" encoding=\"UTF-8\"?>\n[Martinus Episcopus servus servorum Dei dilecto filio Abbati Monasterii de sancto Egidio Nemausensis Di\u0153cesis salutem et Apostolicam benedictionem. Cum multiplicata sit ade\u00f2 iniquitas superborum, quod quasi aquam maledictionem bibentes, Ecclesias, et personas Ecclesiasticas persequi non desistant, multiplicari debet humilium \u00e6quitas circa illos, ut sapientia vincens malitiam, virgam peccatorum super sortem justorum minim\u00e8 derelinquat. Cum itaque dilecti filii Abbas et conventus Monasterii Cluniacensis ad Romanam Ecclesiam nullo medio pertinentis, Matisconensis Di\u0153cesis, sicut ex parte ipsorum fuit propositum coram nobis, \u00e0 nonnullis, qui nomen Domini in vacuum recipere non formidant, super possessionibus et aliis bonis suis, qu\u00e6 in Provincia Narbonensi obtinent, multipliciter molestentur. Nos volentes eorumdem Abbatis et conventus providere quieti, et Molestatorum ipsorum malitiis obviare, Discretioni tu\u00e6 per Apostolica scripta mandamus, quatenus eisdem Abbati et conventui opportuni favoris assistens pr\u00e6sidio, non permittas eos contra indulta Privilegiorum Apostolic\u00e6 Sedis ab aliquibus indebit\u00e8 molestari; molestatores hujusmodi per censuram Ecclesiasticam appellatione postposita compescendo. Nonobstante si aliquibus \u00e0 Sede Apostolica sit indultum, quod interdici, suspendi, vel excommunicari non possint per litteras Apostolicas, qu\u00e6 de indulto hujusmodi plenam et expressam non fecerint mentionem: attentius provisurus ne de iis, qu\u00e6 caus\u00e6 cognitionem exigunt, vel qu\u00e6 indulta hujusmodi non contingunt, te aliquatenus intromittas. Nos enim si secus pr\u00e6sumpseris, tam pr\u00e6sentes litteras, qu\u00e0m etiam processum, quem per te auctoritate haberi contigerit, omnin\u00f2 carere viribus ac nullius fore decernimus firmitatis. Hujusmodi ergo Mandatum nostrum sic prudenter et fideliter exequaris, ut ejus fines quomodolibet non excedas. Pr\u00e6sentibus post quinquennium minim\u00e8 valituris. Datum apud Urbem Veterem V. Idus Februarii, Pontificatus nostri anno II. Est et alia Conservatoria ejusdem Pap\u00e6 et eorumdem tenoris et Dat\u00e6 directa Abbati sancti Guillelmi de desertis, Lodevensis Di\u0153cesis, ad eumdem effectum.]\n"
        },
        {
            "type": "edition",
            "value": "Ici tir\u00e9e du projet <i>CBMA - Corpus Burgundiae Medii Aevi<\/i>, document 6788. Site du projet Corpus de la Bourgogne du Moyen \u00c2ge, [En ligne] <a href=\"http:\/\/www.cbma-project.eu\" target=\"_blank\">http:\/\/www.cbma-project.eu<\/a>  "
        },
        {
            "type": "sources_manuscrites",
            "value": "\u00e0 renseigner."
        },
        {
            "type": "remarques",
            "value": "\r\n\r\nIndications dans l'\u00e9dition des Chartes de Cluny quand Bernard et Bruel n'ont pas repris le texte : Martinus, etc. Cum multiplicata sit, etc. (Bull. Clun., p.\u00a0148, col.\u00a01, n\u00ba\u00a02.)."
        },
        {
            "type": "edition_autre",
            "value": "Ici reprise de Auguste Bernard, Alexandre Bruel, <i>Recueil des chartes de l'abbaye de Cluny<\/i>. VI. <i>1211-1300<\/i>, Paris\u00a0: Imprimerie nationale, 1903 <a href=\"http:\/\/gallica.bnf.fr\/ark:\/12148\/bpt6k367019?rk=21459;2\" target=\"_blank\">[en ligne]<\/a>, p. 727, n\u00b0 5304.",
            "children": {
                "numero_note": "0"
            }
        },
        {
            "type": "edition_autre",
            "value": "Pierre Simon, <i>Bullarium sacri Ordinis cluniacensis, complectens plurima privilegia per summos pontifices tum ipsi cluniacensi abbatiae, tum ei subditis monasteriis hactenus concessa<\/i>, Lyon : Jullieron, 1680, p. 148, col. 1-2",
            "children": {
                "numero_note": "1"
            }
        },
        {
            "type": "genre",
            "value": "Bulle"
        },
        {
            "type": "genre",
            "value": "Lettre"
        }
    ]
}