{
    "id": 147230,
    "name": "aposcripta-6859",
    "type": "acte",
    "url": "http:\/\/telma-chartes.irht.cnrs.fr\/aposcripta\/notice\/147230",
    "project_slug": "aposcripta",
    "project_label": "APOSCRIPTA \u2013 Lettres des papes",
    "user": "l_valliere",
    "last_update": "2020-10-19 16:39:28",
    "licence": "Attribution - Pas d\u2019Utilisation Commerciale - Partage dans les M\u00eames Conditions 3.0 France (CC BY-NC-SA 3.0 FR) ",
    "licence_url": "https:\/\/creativecommons.org\/licenses\/by-nc-sa\/3.0\/fr\/",
    "elements": [
        {
            "type": "pape",
            "value": "Cl\u00e9ment IV (1265-1268)"
        },
        {
            "type": "destinataire",
            "value": "Le roi d'Arm\u00e9nie"
        },
        {
            "type": "date_libre",
            "value": "VII kalendas augusti, anno primo"
        },
        {
            "type": "date",
            "value": "1265\/07\/26",
            "children": {
                "date_deb_annee": "1265",
                "date_deb_mois": "07",
                "date_deb_jour": "26"
            },
            "range": {
                "date_apres": 12650726,
                "date_avant": 12650726
            }
        },
        {
            "type": "date_lieu",
            "value": "P\u00e9rouse"
        },
        {
            "type": "genre",
            "value": "Titre, g\u00e9n\u00e9ral (littere gratiose, cum filo serico)"
        },
        {
            "type": "analyse",
            "value": "Regi Armeniorum ordinem hospitalariorum s. Iohannis commendat [Potthast].\nClemens IV. an K\u00f6nig (Hethum I.) von (Klein-)Armenien: mahnt ihn, nach dem Fall von Caesarea und Asdod besonders den Johannitern Hilfe zu gew\u00e4hren [Thumser]."
        },
        {
            "type": "edition",
            "value": "Ici reprise de Mathias Thumser, <i>Die Briefe Papst Clemens\u2019 IV. (1265-1268)<\/i>, Vorl\u00e4ufige Edition, MGH, 2015, n. 48."
        },
        {
            "type": "regeste",
            "value": "Potthast, <i>Regesta pontificum Romanorum<\/i>, n. 19288 <a target=\"_blank\" href=\" http:\/\/opacplus.bsb-muenchen.de\/title\/BV004241514\/ft\/bsb11316018?page=627\"> [en ligne]<\/a>."
        },
        {
            "type": "transcription",
            "value": "<?xml version=\"1.0\" encoding=\"UTF-8\"?>\nIllustri regi Armenie. Quanto te Dominus in populo christiano amplioris regni solio voluit honorare, tanto erectum altius artius obligavit ad sui cultum nominis dilatandum et inimicos fidei christiane pervigilis cure studio deprimendos. Nosti sane, fili carissime, quod cum multa cordis amaritudine nuper accepimus, quam insolenter irruens in christicolas ille proditor, qui soldanus Egipti dicitur, Cesaream violenter obtinuit et Azotum effuso sanguine Christi militum et nonnullis ex eis, quod est multis morte lugubrius, captivatis, propter quod inter dampna communia Terre Sancte specialiter Hospitalariorum sancti Iohannis gravius ceteris, ut audivimus, ordo percussus magnam vel maximam conventus sui partem amisit, licet amissi dici non debeant, qui pro sue fragilitatis modulo Crucifixo debitum rependentes obsequium sue biberunt calicem passionis. Verum, cum tu speciali, ut credimus, affectione dilexeris ordinem memoratum, quod in diversis casibus re ipsa diceris comprobasse, serenitatem tuam hortandam duximus et rogandam, quatenus fratribus eiusdem ordinis in tot et tantis angustiis constitutis, cum ab eis super hoc fueris requisitus, assistas efficacius consilio et auxilio oportunis. Et, licet pro eisdem specialiter te rogemus, nichilominus et pro omnibus te rogamus, qui in terra predicta invocant nomen Christi, in remissionem tibi peccaminum suadentes, ut sic ad ipsos te habeas, ut dolere videaris iniurias Crucifixi et fraterne caritatis illis iungi consortio, a quibus in catholice professione fidei non discordas. Datum Perusii, VII Kalendas Augusti, anno I.\n"
        },
        {
            "type": "edition_autre",
            "value": "Odorico Raynaldo, <i>Annales ecclesiastici ab anno 1198 ubi Card. Baronius desinit<\/i>, Lucques, 1746-1756, 15 vol., ad a. 1265, \u00a7 40."
        }
    ]
}