{
    "id": 148130,
    "name": "aposcripta-7745",
    "type": "acte",
    "url": "http:\/\/telma-chartes.irht.cnrs.fr\/aposcripta\/notice\/148130",
    "project_slug": "aposcripta",
    "project_label": "APOSCRIPTA \u2013 Lettres des papes",
    "user": "l_valliere",
    "last_update": "2020-10-19 16:39:41",
    "licence": "Attribution - Pas d\u2019Utilisation Commerciale - Partage dans les M\u00eames Conditions 3.0 France (CC BY-NC-SA 3.0 FR) ",
    "licence_url": "https:\/\/creativecommons.org\/licenses\/by-nc-sa\/3.0\/fr\/",
    "elements": [
        {
            "type": "pape",
            "value": "Cl\u00e9ment IV (1265-1268)"
        },
        {
            "type": "destinataire",
            "value": "Le roi de France Louis IX"
        },
        {
            "type": "date_libre",
            "value": "II kalendas aprilis, anno quarto"
        },
        {
            "type": "date",
            "value": "1268\/03\/31",
            "children": {
                "date_deb_annee": "1268",
                "date_deb_mois": "03",
                "date_deb_jour": "31"
            },
            "range": {
                "date_apres": 12680331,
                "date_avant": 12680331
            }
        },
        {
            "type": "date_lieu",
            "value": "Viterbe"
        },
        {
            "type": "genre",
            "value": "Lettre, g\u00e9n\u00e9ral (apr\u00e8s 1198, littere cum filo canapis)"
        },
        {
            "type": "analyse",
            "value": "[Ludovico] regi Francie scribit pro monasterio Appamiarum [Jordan].\r\nClemens IV. an K\u00f6nig (Ludwig IX.) von Frankreich: mahnt ihn, bei seinen Forderungen an das Kloster Pamiers Zur\u00fcckhaltung zu \u00fcben [Thumser]."
        },
        {
            "type": "sources_manuscrites",
            "value": "R<sup>1<\/sup>. CIT\u00c9 DU VATICAN, Archivio segreto Vaticano, <i>Registra Vaticana<\/i> 30, fol. 78.",
            "children": {
                "type_source": "Formulaire, collection de lettres m\u00e9di\u00e9vale"
            }
        },
        {
            "type": "sources_manuscrites",
            "value": "R<sup>2<\/sup>. CIT\u00c9 DU VATICAN, Archivio segreto Vaticano, <i>Registra Vaticana<\/i> 33, ep. 461, fol. 76v.",
            "children": {
                "type_source": "Formulaire, collection de lettres m\u00e9di\u00e9vale"
            }
        },
        {
            "type": "sources_manuscrites",
            "value": "R<sup>3<\/sup>. CIT\u00c9 DU VATICAN, Archivio segreto Vaticano, <i>Registra Vaticana<\/i> 34, fol. 118v.",
            "children": {
                "type_source": "Formulaire, collection de lettres m\u00e9di\u00e9vale"
            }
        },
        {
            "type": "sources_manuscrites",
            "value": "R<sup>4<\/sup>. CIT\u00c9 DU VATICAN, Archivio segreto Vaticano, <i>Registra Vaticana<\/i> 35, ep. 468, fol. 87.",
            "children": {
                "type_source": "Formulaire, collection de lettres m\u00e9di\u00e9vale"
            }
        },
        {
            "type": "edition",
            "value": "Ici reprise de Mathias Thumser, <i>Die Briefe Papst Clemens\u2019 IV. (1265-1268)<\/i>, Vorl\u00e4ufige Edition, MGH, 2015, n. 469."
        },
        {
            "type": "regeste",
            "value": "\u00c9douard Jordan, <i>Les registres de Cl\u00e9ment IV (1265-1268)<\/i>, Paris, 1893-1945, n. 1338, d\u2019apr\u00e8s R<sup>1<\/sup>, R<sup>2<\/sup>, R<sup>3<\/sup> et R<sup>4<\/sup>."
        },
        {
            "type": "bibliographie_generale",
            "value": "Mathias Thumser, \u00ab Zur \u00dcberlieferungsgeschichte der Briefe Clemens'IV. (1265-1268) \u00bb, <i>Deutsches Archiv f\u00fcr Erforschung des Mittelalters<\/i>, 51\/1, 1995, p. 115-168."
        },
        {
            "type": "transcription",
            "value": "<?xml version=\"1.0\" encoding=\"UTF-8\"?>\nCarissimo in Christo filio regi Francie illustri. Etsi regnum, cui Deo prees auctore, successivis cupiamus profectibus ampliari, ubi tamen ad ecclesiarum vocaris presidium, que, ut eas libentius tuearis in suorum iurium participium, tuam ducunt magnitudinem advocandam, satis debet se reddere facilem regia celsitudo nec conventiones exigere tam amaras, ut liberalitatis obscuret titulum care nimis empta protectione, quodque debet in usus cedere Domino servientium, pro parte maxima fisci tui commodis applicetur. Sane quandam scripturam vidimus ea per ordinem continentem, que ab abbate et conventu monasterii Appamiarum requiris, que, prout credimus, idcirco non autumas equitatis fines excedere, quia Fuxi comitibus asseruntur pro tempore fuisse concessa, sed absit a tue pietatis iudicio, ut predonum extorsiones illicitas ad cuiusquam similitudinis argumenta producas. Cum illis siquidem viri catholici et religiosi precipue vivebant, ut poterant, et illorum ingluviem, quam satiare non poterant, aliquatenus reprimebant, sed ad tua reducti tempora, de tam longo liberati naufragio portum se iudicant attigisse quietum, ut in pacis pulchritudine sedeant, in fiducie tabernaculis et requie opulenta1. Videat igitur tua, fili carissime, circumspecta serenitas, quam decenter et quam utiliter terris tuis accedat castrum Appamiarum cum fortaliciis et medietate iurisdictionis eiusdem in omnes homines clero et familia monasterii et incursu rerum immobilium dumtaxat exceptis. Pedagiorum etiam offertur dimidia et foreste, que dicitur de Borbona, nec non et exercitus hominum dicti loci intra certas dioceses salvis libertatibus hominum eorundem. Et, cum hec tibi letanter ac liberaliter offerantur, cur census monasterii, leudas, furnos et hiis similia, de quibus debent, qui Deo serviunt, sustentari, dimidiari tibi postules, non videmus. Ideoque serenitatem tuam hortandam duximus et rogandam, quatenus huiuscemodi oblatione contentus procedas in negotio gratiose, cum non facile tibi possit occurrere tam decens, tam utile in illis partibus incrementum. Nos enim illos, qui pro comite Fuxi venerant, grandia pollicentes et sub magnis cautionibus offerentes audire noluimus, quamvis sibi intercessores plurimos, nescimus, quibus meritis, acquisissent. Datum Viterbii, II kalendas aprilis, anno IIII.\n"
        },
        {
            "type": "notes_historiques",
            "value": "Isai. 32,18.",
            "children": {
                "numero_note": "1"
            }
        }
    ]
}