{
    "id": 149833,
    "name": "aposcripta-9396",
    "type": "acte",
    "url": "http:\/\/telma-chartes.irht.cnrs.fr\/aposcripta\/notice\/149833",
    "project_slug": "aposcripta",
    "project_label": "APOSCRIPTA \u2013 Lettres des papes",
    "user": "lettrespontificalesadmin",
    "last_update": "2020-10-19 16:40:05",
    "licence": "Attribution - Pas d\u2019Utilisation Commerciale - Partage dans les M\u00eames Conditions 3.0 France (CC BY-NC-SA 3.0 FR) ",
    "licence_url": "https:\/\/creativecommons.org\/licenses\/by-nc-sa\/3.0\/fr\/",
    "elements": [
        {
            "type": "pape",
            "value": "Urbain IV (1261-1264)"
        },
        {
            "type": "destinataire",
            "value": "Ad futuram rei memoriam"
        },
        {
            "type": "date_libre",
            "value": "XVI kalendas martii, anno III"
        },
        {
            "type": "date",
            "value": " 1264\/02\/14",
            "children": {
                "date_deb_annee": "1264",
                "date_deb_mois": "02",
                "date_deb_jour": "14"
            },
            "range": {
                "date_apres": 12640214,
                "date_avant": 12640214
            }
        },
        {
            "type": "date_lieu",
            "value": "Urbemveterem"
        },
        {
            "type": "sources_manuscrites",
            "value": "R. CIT\u00c9 DU VATICAN, Archivio Segreto Vaticano, <hi rend=\"italic\">Registra Vaticana<\/hi> ... Urb.\u00a0IV Reg. Vol.\u00a0IV [beneficia], f.\u00a0116, ep.\u00a0204. Epistolam non inde descripsimus.",
            "children": {
                "type_source": "Registre de la chancellerie apostolique"
            }
        },
        {
            "type": "genre",
            "value": "Mandement (littere cum filo canapis)"
        },
        {
            "type": "analyse",
            "value": "Urbanus IV papa notum facit, olim in Metensi ecclesia electionibus de Philippo tunc thesaurario et quondam Theobaldo cantore in discordia celebratis, lite apud sedem apostolicam pendente Philippum ab [Henrico II] electo Treverensi confirmatum et consecratum esse; cum autem idem postea voluntarie resignaverit, se ad vitandum scandalum sententias et processus eius interim habitos rata habere [Rodenberg]."
        },
        {
            "type": "transcription",
            "value": "<?xml version=\"1.0\" encoding=\"UTF-8\"?>\nAd futuram rei memoriamOlim Metensi ecclesia destituta pastore ac duabus in ipsa electionibus, una videlicet de dilecto filio Phylippo tunc thesaurario et alia de quondam Theobaldo cantore ipsius ecclesie, in discordia celebratis, tandem huiusmodi negotium per appellationem eiusdem P. fuit ad sedem apostolicam legitime devolutum. Quo in curia nostra pendente, dictus P., confisus quod idem cantor cesserat iuri suo, electionem de ipso factam per . . Treverensem electum loci metropolitanum confirmari obtinuit et sibi ab eo munus consecrationis impendi; ac in pontificali officio diutius ministravit. Sed licet nos postmodum confirmationem huiusmodi ac quicquid esset inde secutum, utpote non solum contra iura verum etiam in predicte sedis iniuriam, ubi causa huiusmodi agebatur, presumpta, duxerimus per nostras litteras de fratrum nostrorum consilio irritanda: quia tamen idem P. demum ad presentiam nostram accedens omne ius in hac parte sibi competens in nostris manibus voluntarie resignavit, nos ob id et ad vitandum animarum periculum et scandalum plurimorum, quicquid post confirmationem ipsius P. usque ad tempus, quo ad eius notitiam de revocatione huiusmodi potuit pervenire, factum est per ipsum et illos, qui vices eius gerebant, necnon absolutiones excommunicatorum, collationes et investituras ecclesiarum et beneficiorum ecclesiasticorum, sententias et processus causarum tam per officiales ipsius quam per abbatem Sancti Vincentii Metensis pro ipso et alia queque ad ecclesiasticam iurisdictionem spectantia, dummodo alias sint hec omnia rite acta, tenore presentium rata et firma esse volumus \u2014 non obstante revocatione predicta, vel si huiusmodi beneficia post collationem ipsius P. forent aliis auctoritate nostra collata \u2014 et decernimus universa et singula de gratia speciali firmitatem omnimodam obtinere. Nulli ergo \u2014 nostre constitutionis etc.Dat. apud Urbemveterem, XVI Kalendas Martii, anno III.\n"
        },
        {
            "type": "edition",
            "value": "Ici reprise de Karl Rodenberg, Epistolae s. XIII e regestis pontificum romanorum selectae, III, Berlin : Weidmann (MGH), 1894, n.\u00a0577, p.\u00a0566."
        },
        {
            "type": "edition_autre",
            "value": "?"
        },
        {
            "type": "regeste",
            "value": "?"
        },
        {
            "type": "bibliographie_generale",
            "value": "?"
        },
        {
            "type": "apparat_critique",
            "value": "?",
            "children": {
                "numero_note": "a"
            }
        },
        {
            "type": "apparat_critique",
            "value": "?",
            "children": {
                "numero_note": "b"
            }
        },
        {
            "type": "apparat_critique",
            "value": "?",
            "children": {
                "numero_note": "c"
            }
        },
        {
            "type": "apparat_critique",
            "value": "?",
            "children": {
                "numero_note": "d"
            }
        },
        {
            "type": "apparat_critique",
            "value": "?",
            "children": {
                "numero_note": "e"
            }
        },
        {
            "type": "apparat_critique",
            "value": "?",
            "children": {
                "numero_note": "f"
            }
        },
        {
            "type": "notes_historiques",
            "value": "?",
            "children": {
                "numero_note": "1"
            }
        },
        {
            "type": "notes_historiques",
            "value": "?",
            "children": {
                "numero_note": "2"
            }
        },
        {
            "type": "notes_historiques",
            "value": "?",
            "children": {
                "numero_note": "3"
            }
        }
    ]
}