{
    "id": 25965,
    "name": "aposcripta-3062",
    "type": "acte",
    "url": "http:\/\/telma-chartes.irht.cnrs.fr\/aposcripta\/notice\/25965",
    "project_slug": "aposcripta",
    "project_label": "APOSCRIPTA \u2013 Lettres des papes",
    "user": "lettrespontificalesadmin",
    "last_update": "2020-10-19 16:27:51",
    "licence": "Attribution - Pas d\u2019Utilisation Commerciale - Partage dans les M\u00eames Conditions 3.0 France (CC BY-NC-SA 3.0 FR) ",
    "licence_url": "https:\/\/creativecommons.org\/licenses\/by-nc-sa\/3.0\/fr\/",
    "elements": [
        {
            "type": "pape",
            "value": "Cl\u00e9ment VI (1342-1352)"
        },
        {
            "type": "destinataire",
            "value": "( )",
            "children": {
                "numero_note": "0"
            }
        },
        {
            "type": "date_lieu",
            "value": "n.c."
        },
        {
            "type": "date_libre",
            "value": "1342, Jul 26"
        },
        {
            "type": "date",
            "value": " 1342\/07\/26",
            "children": {
                "date_deb_annee": "1342",
                "date_deb_mois": "07",
                "date_deb_jour": "26"
            },
            "range": {
                "date_apres": 13420726,
                "date_avant": 13420726
            }
        },
        {
            "type": "analyse",
            "value": "X pape<br\/>PRIVILEGIUM CLEMENTIS PAP\u00c6 VI. quod nullo modo provideri possit virtute litterarum Apostolicarum de tredecim Decanatibus Cluniacensis Ordinis hic nominatis."
        },
        {
            "type": "transcription",
            "value": "<?xml version=\"1.0\" encoding=\"UTF-8\"?>\nClemens Episcopus servus servorum Dei, ad perpetuam Rei memoriam Apostolic\u00e6 servitutis nobis injunct\u00e6 desuper Officium mentem nostram incitat et inducit ut circa ea, qu\u00e6 statui prospero Monasteriorum pr\u00e6sertim ad Romanam Ecclesiam nullo medio pertinentium, ac Beneficiorum, et aliorum locorum regularium, et personarum sub Religionis habitu vacantium studio pi\u00e6 vit\u00e6 opportuna fore conspicimus, et ut Monasteria, Beneficia, et loca ipsa pr\u00e6serventur \u00e0 noxiis, et feliciter gubernentur, operosis studiis intendamus. San\u00e8 petitio pro parte dilectorum filiorum J. Abbatis et conventus Monasterii Cluniac. ad eamdem Romanam Ecclesiam nullo medio pertinentis, Matisconensis Di\u0153cesis, nobis nuper exhibita continebat, quod cum olim felicis recordationis Bonifacius Papa VIII. pr\u00e6decessor noster statuerit et ordinaverit perpetuis futuris temporibus observandum, ut ad supplendum defectus, penurias, et indigentias ipsorum Abbatis et conventus, et ad exonerationem Abbatis dicti monasterii pro tempore existentis, quatuor millia Librarum Turonensium parvorum de fructibus, redditibus, et Proventibus de Lehuno in sanguine terso, de Nogento Retrodi, de Gacicuria, de Gaya, de Vergeyo, de Vendopera, de Mostereto, de Marmissa, de Turribus supra Maternam, de Carennaco, de Moyeraco, de Roncenaco, et de Sancto Cosma Decanatuum, qui tunc Prioratus existebant Cluniacensis Ordinis, Ambianen. Carnoten. Trecen. Eduen. Lingonen. Remen. Caturcen. Agennen. Petragoricen. et Constantien. Di\u0153cesum, \u00e0 dicto Monasterio dependentium, et per Monachos ejusdem Monasterii solitorum gubernari, pr\u00e6ter alias pensiones, in quibus illos pro tempore obtinentes Abbati, et conventui, ac Monasterio supradictis quomodolibet tenerentur, qu\u00e6 per aliquos ipsius Ordinis Monachos per Abbatem dicti Monasterii, qui tunc erat, et successores suos pro tempore existentes deputandos perciperentur, et colligerentur annuatim: ac voluerit Prioratus hujusmodi ex tunc in antea Decanatus existere et etiam nuncupari. Et proptere\u00e0 eisdem Abbati et conventui plurimum expediat de dictis Decanatibus personis sufficientibus et idoneis, per quas Decanatus ipsi utiliter et salubriter gubernari valeant, provideri, et quandoque Decanatus ipsos per nonnullos Monachos minus idoneos, eis spretis qui boni administratores existunt, auctoritate litterarum Apostolicarum, per quas de Beneficiis Ecclesiasticis cum cura, vel sine cura, etiamsi Prioratus, Decanatus, Dignitates, Personatus, vel Officia existerent, per Monachos dicti Monasterii solitis gubernari, provideri mandabatur, contigerit acceptari, et de illis ipsis etiam provideri, in magnum Abbatis, et conventus, ac Decanatuum pr\u00e6dictorum pr\u00e6judicium, et etiam detrimentum. Quare pro parte Abbatis et conventus pr\u00e6dictorum nobis extitit humiliter supplicatum, ut providere super hoc de benignitate Apostolica dignaremur. Nos igitur attendentes quod in eodem Monasterio viget plurimum observantia regularis, operibus pietatis insistitur, et Divinus cultus ibidem laudabiliter exercetur, ac volentes proptere\u00e0 Abbatis, et conventus, Monasterii, et decanatuum pr\u00e6dictorum incommodis pr\u00e6cavere, ac eorum profectus et commoda quantum cum Deo possumus salubriter procurare, hujusmodi supplicationibus inclinati, auctoritate Apostolica, ex certa scientia, tenore pr\u00e6sentium, quas perpetu\u00e6 constitutionis volumus et decernimus vim habere, statuimus et etiam ordinamus quod dicti Decanatus per quoscumque expectantes hujusmodi, vigore quarumcumque litterarum Apostolicarum eis sub quacumque forma, vel expressione verborum concessarum, seu etiam concedendarum inposterum, etiam si de Abbate, et conventu, Monasterio, et Decanatibus pr\u00e6dictis, ac exemptione, Privilegiis, et immunitatibus eis ab Apostolica Sede concessis expressam faciant mentionem; et etiamsi in eisdem litteris pr\u00e6fatis expectantibus concessis, seu in ante\u00e0 concedendis infra script\u00e6, videlicet, nonobstantibus si Abbati et conventui dicti Monasterii pr\u00e6dictis, vel quibusvis aliis communiter, vel divisim \u00e0 dicta sit Sede indultum quod ad Receptionem vel provisionem alicujus minim\u00e8 teneantur, et ad id compelli, aut quod interdici, suspendi, vel excommunicari non possint; quodque de dignitatibus, personatibus, vel officiis, aut aliis beneficiis Ecclesiasticis ad eorum collationem, provisionem, pr\u00e6sentationem, electionem, seu quamvis aliam dispositionem conjunctim vel separatim spectantibus nulli valeat provideri per litteras Apostolicas non facientes plenam et expressam, ac de verbo ad verbum de indulto hujusmodi mentionem, et qualibet alia dict\u00e6 Sedis indulgentia generali, vel speciali, cujuscumque tenoris existat, per quam pr\u00e6sentibus non expressam, vel totaliter non insertam effectus earum impediri valeat quomodolibet, vel differri, et de quo, cujusque toto tenore habenda sit in nostris litteris mentio specialis; seu qu\u00e6cumque ali\u00e6 clausul\u00e6, sub quocumque tenore seu expressione verborum inserantur, qu\u00e6 indulto hujusmodi possent quomolibet in aliquo derogare; de c\u00e6tero non valeant acceptare, nec expectantes ipsi de illis sibi facere provideri. Districtius inhibentes quibuscumque Executoribus in litteris hujusmodi per Sedem pr\u00e6dictam deputatis, seu etiam deputandis, et quibuslibet aliis communiter, vel divisim, nec contra statutum, et Ordinationem nostram hujusmodi aliquid attentare pr\u00e6sumant. Nos enim ex nunc quascumque suspensionis, interdicti, et excommunicationis, seu alias sententias atque p\u0153nas, si quas contra ipsos Abbatem, conventum, aut Monasterium, seu quoscumque alios occasione pr\u00e6missorum ferri contigerit, seu etiam promulgari, irritas decernimus et inanes. Nulli ergo omnin\u00f2 hominum liceat hanc paginam nostri statuti, Ordinationis, voluntatis, inhibitionis, et constitutionis infringere, etc. Datum Avenioni VII. Kalendas Augusti, Pontificatus nostri anno primo.\n"
        },
        {
            "type": "edition",
            "value": "Ici tir\u00e9e du projet <i>CBMA - Corpus Burgundiae Medii Aevi<\/i>, document 11102. Site du projet Corpus de la Bourgogne du Moyen \u00c2ge, [En ligne] <a href=\"http:\/\/www.cbma-project.eu\" target=\"_blank\">http:\/\/www.cbma-project.eu<\/a>  "
        },
        {
            "type": "sources_manuscrites",
            "value": "\u00e0 renseigner."
        },
        {
            "type": "remarques",
            "value": ""
        },
        {
            "type": "edition_autre",
            "value": "Ici reprise de Pierre Simon, <i>Bullarium sacri Ordinis cluniacensis, complectens plurima privilegia per summos pontifices tum ipsi cluniacensi abbatiae, tum ei subditis monasteriis hactenus concessa<\/i>, Lyon : Jullieron, 1680, p. 174, col. 1-175, col. 1.",
            "children": {
                "numero_note": "0"
            }
        },
        {
            "type": "genre",
            "value": "Bulle"
        },
        {
            "type": "genre",
            "value": "Lettre"
        }
    ]
}