{
    "id": 149962,
    "name": "aposcripta-9525",
    "type": "acte",
    "url": "http:\/\/telma-chartes.irht.cnrs.fr\/aposcripta\/notice\/149962",
    "project_slug": "aposcripta",
    "project_label": "APOSCRIPTA \u2013 Lettres des papes",
    "user": "lettrespontificalesadmin",
    "last_update": "2020-10-19 22:43:41",
    "licence": "Attribution - Pas d\u2019Utilisation Commerciale - Partage dans les M\u00eames Conditions 3.0 France (CC BY-NC-SA 3.0 FR) ",
    "licence_url": "https:\/\/creativecommons.org\/licenses\/by-nc-sa\/3.0\/fr\/",
    "elements": [
        {
            "type": "pape",
            "value": "Alexandre IV (1254-1261)"
        },
        {
            "type": "destinataire",
            "value": "Le pr\u00e9ceptori et les fr\u00e8resde l'H\u00f4pital Sainte-Marie des Teutoniques \u00e0 Bozano et Legemmos, au dioc\u00e8se de Trente"
        },
        {
            "type": "date_libre",
            "value": "V idus novembris, anno tertio"
        },
        {
            "type": "date",
            "value": " 1257\/11\/09",
            "children": {
                "date_deb_annee": "1257",
                "date_deb_mois": "11",
                "date_deb_jour": "09"
            },
            "range": {
                "date_apres": 12571109,
                "date_avant": 12571109
            }
        },
        {
            "type": "date_lieu",
            "value": "Viterbii"
        },
        {
            "type": "sources_manuscrites",
            "value": "E. Ex authentico bullato Arch. ordinis Theutonicorum Vindobon. ; cf. von Pettenegg, <i>Die Urkunden des Deutschordenscentralarchivs zu Wien<i\/>, I, p.\u00a083, n.\u00a0317. Damus apographum, quod in apparatu Monum. Germ. invenimus.",
            "children": {
                "type_source": "Exp\u00e9dition"
            }
        },
        {
            "type": "genre",
            "value": "Titre, g\u00e9n\u00e9ral (littere gratiose, cum filo serico)"
        },
        {
            "type": "analyse",
            "value": "Alexander IV papa praeceptori et fratribus ordinis Theutonicorum in Bozano et Legemmos Tridentinae diocesis confirmat ecclesiam de Slanders Curiensis diocesis, eis a Friderico II ante depositionem eius donatam [Rodenberg]."
        },
        {
            "type": "transcription",
            "value": "<?xml version=\"1.0\" encoding=\"UTF-8\"?>\nAlexander episcopus servus servorum Dei dilectis filiis preceptori et fratribus hospitalis sancte Marie Theotonicorum in Bozano et Legemmos Tridentine diocesis salutem et apostolicam benedictionem.Cum a nobis petitur quod iustum est et honestum, tam vigor equitatis quam ordo exigit rationis, ut id per sollicitudinem officii nostri ad debitum perducatur effectum. Exhibita siquidem nobis vestra petitio continebat, quod quondam Fredericus Romanorum imperator ante latam depositionis sententiam in eundem ius patronatus ecclesie de Slandres Curiensis diocesis, tunc ad ipsum pertinens, vobis pia et provida liberalitate donavit, prout in publico instrumento confecto exinde plenius dicitur contineri. Nos itaque, vestris supplicationibus inclinati, quod ab eodem Frederico super hoc provide factum est, ratum et firmum habentes, id auctoritate apostolica confirmamus et presentis scripti patrocinio communimus. Nulli ergo omnino hominum liceat hanc paginam nostre confirmationis etc. usque: incursurum.Datum Viterbii, V idus novembris, pontificatus nostri anno tertio.\n"
        },
        {
            "type": "edition",
            "value": "Ici reprise de Karl Rodenberg, Epistolae s. XIII e regestis pontificum romanorum selectae, III, Berlin : Weidmann (MGH), 1894, n.\u00a0694, p.\u00a0729."
        },
        {
            "type": "edition_autre",
            "value": "?"
        },
        {
            "type": "regeste",
            "value": "?"
        },
        {
            "type": "bibliographie_generale",
            "value": "?"
        },
        {
            "type": "apparat_critique",
            "value": "?",
            "children": {
                "numero_note": "a"
            }
        },
        {
            "type": "apparat_critique",
            "value": "?",
            "children": {
                "numero_note": "b"
            }
        },
        {
            "type": "apparat_critique",
            "value": "?",
            "children": {
                "numero_note": "c"
            }
        },
        {
            "type": "apparat_critique",
            "value": "?",
            "children": {
                "numero_note": "d"
            }
        },
        {
            "type": "apparat_critique",
            "value": "?",
            "children": {
                "numero_note": "e"
            }
        },
        {
            "type": "apparat_critique",
            "value": "?",
            "children": {
                "numero_note": "f"
            }
        },
        {
            "type": "notes_historiques",
            "value": "?",
            "children": {
                "numero_note": "1"
            }
        },
        {
            "type": "notes_historiques",
            "value": "?",
            "children": {
                "numero_note": "2"
            }
        },
        {
            "type": "notes_historiques",
            "value": "?",
            "children": {
                "numero_note": "3"
            }
        }
    ]
}