{
    "id": 20932,
    "name": "aposcripta-919",
    "type": "acte",
    "url": "http:\/\/telma-chartes.irht.cnrs.fr\/aposcripta\/notice\/20932",
    "project_slug": "aposcripta",
    "project_label": "APOSCRIPTA \u2013 Lettres des papes",
    "user": "lettrespontificalesadmin",
    "last_update": "2020-10-19 16:26:54",
    "licence": "Attribution - Pas d\u2019Utilisation Commerciale - Partage dans les M\u00eames Conditions 3.0 France (CC BY-NC-SA 3.0 FR) ",
    "licence_url": "https:\/\/creativecommons.org\/licenses\/by-nc-sa\/3.0\/fr\/",
    "elements": [
        {
            "type": "pape",
            "value": "C\u00e9lestin III (1191-1198)"
        },
        {
            "type": "date_lieu",
            "value": "n.c."
        },
        {
            "type": "date_libre",
            "value": "1196 Sept 12"
        },
        {
            "type": "analyse",
            "value": "Coelestinus\u00a0III fratribus S. Crucis Burdegalensibus indulget, ne in monasterium recipiant nisi eos, qui litterarum scientia vel morum honestate commendantur."
        },
        {
            "type": "transcription",
            "value": "<?xml version=\"1.0\" encoding=\"UTF-8\"?>\nCoelestinus episcopus servus servorum Dei dilectis filiis abbati1 et conventui sanctae Crucis Burdegalensis salutem et apostolicam benedictionem. Cum a nobis petitur, quod a iustitiae tramite non discordat et aliquid continet honestatis, ex iniuncto nobis apostolatus officio et omni diligentia illud tenemur suscipere et nostrum praebere assensum pariter et favorem. Ex insinuatione siquidem vestra, dilecti in Domino filii, nostris fuit auribus declaratum, quod quidam idiotae et non legitime nati occasione litterarum a sede apostolica impetratarum fraternitatem vestram non sine magno ecclesiae vestrae dispendio sunt adepti. Nolentes igitur, ut exinde abbatia vestra ulterius patiatur dispendium et gravamen, devotioni vestrae autoritate apostolica duximus indulgendum, ne aliquos in consortium vestrum de cetero recipiatis, nisi quos litteralis scientia vel morum honestas vel proborum virorum opinio habuerit commendatos. Datum Laterani II Id. Sept., pontificatus nostri anno sexto.\n"
        },
        {
            "type": "edition",
            "value": "Samuel Loewenfeld, <i>Epistolae pontificum romanorum ineditae<\/i>, Leipzig : Veit et Comp., 1885, n. 420, p. 263-264"
        },
        {
            "type": "sources_manuscrites",
            "value": "Bibl. nat. Paris. ms. lat.\u00a012771. fol.\u00a0223. s.\u00a0<span class=\"smal-caps\">xvii<\/span>."
        },
        {
            "type": "notes_historiques",
            "value": "Arnoldo.",
            "children": {
                "numero_note": "1"
            }
        },
        {
            "type": "date",
            "value": "1196\/09\/12",
            "children": {
                "date_deb_annee": "1196",
                "date_deb_mois": "09",
                "date_deb_jour": "12"
            },
            "range": {
                "date_apres": 11960912,
                "date_avant": 11960912
            }
        },
        {
            "type": "genre",
            "value": "Bulle"
        }
    ]
}