{
    "id": 148765,
    "name": "aposcripta-8335",
    "type": "acte",
    "url": "http:\/\/telma-chartes.irht.cnrs.fr\/aposcripta\/notice\/148765",
    "project_slug": "aposcripta",
    "project_label": "APOSCRIPTA \u2013 Lettres des papes",
    "user": "lettrespontificalesadmin",
    "last_update": "2020-10-19 16:39:49",
    "licence": "Attribution - Pas d\u2019Utilisation Commerciale - Partage dans les M\u00eames Conditions 3.0 France (CC BY-NC-SA 3.0 FR) ",
    "licence_url": "https:\/\/creativecommons.org\/licenses\/by-nc-sa\/3.0\/fr\/",
    "elements": [
        {
            "type": "pape",
            "value": "Nicolas IV (1288-1292)"
        },
        {
            "type": "destinataire",
            "value": "Le prieur de la chartreuse de Portes"
        },
        {
            "type": "date_libre",
            "value": "II nonas julii, anno primo"
        },
        {
            "type": "date",
            "value": "1288\/07\/06",
            "children": {
                "date_deb_annee": "1288",
                "date_deb_mois": "07",
                "date_deb_jour": "06"
            },
            "range": {
                "date_apres": 12880706,
                "date_avant": 12880706
            }
        },
        {
            "type": "date_lieu",
            "value": "Reate"
        },
        {
            "type": "analyse",
            "value": "Bulle du pape Nicolas IV, portant confirmation des privil\u00e8ges et indulgences de la chartreuse de Portes."
        },
        {
            "type": "sources_manuscrites",
            "value": "Archives de l\u2019Ain. \u2014 Titres de Portes.",
            "children": {
                "type_source": "Exp\u00e9dition"
            }
        },
        {
            "type": "edition",
            "value": "Ici reprise de Marie-Claude Guigue, <i>Cartulaire lyonnais<\/i>, II, Lyon : Association typographique, 1893, n. 820, p. 542-543."
        },
        {
            "type": "transcription",
            "value": "<?xml version=\"1.0\" encoding=\"UTF-8\"?>\nNicolaus, episcopus, servus servorum Dei, dilectis filiis priori et conventui monasterii Portarum per priorem soliti gubernari Cartusiensis ordinis, Grationopolitani diocesis, salutem et apostolicam benedictionem. Solet annuere sedes apostolica piis votis et honestis petentium precibus favorem benivolum impertiri. Ea propter, dilecti in domino filii, vestris justis postulationibus grato concurrentes assensu, omnes libertates et immunitates a predecessoribus nostris Roman. pontificibus, sive per privilegia seu alias indulgentias, vobis et monasterio vestro concessas, nec non libertates et exemptiones secularium exactionum a regibus et principibus et aliis Christi fidelibus rationabiliter vobis indultas, sicut eas juste et pacifice possidetis vobis et per vos eidem monasterio auctoritate apostolica confirmamus et presentis scripti patrocinio communimus. Nulli ergo omnino hominum liceat hanc paginam nostre confirmationis infringere vel ei ausu temerario contraire. Si quis autem hoc attemptare presumpserit indignationem omnipotentis Dei et beatorum Petri et Pauli apostolorum se noverit incursurum. Datum Reate II nonas julii, pontificatus nostri anno primo.\n"
        },
        {
            "type": "genre",
            "value": "Titre, g\u00e9n\u00e9ral (littere gratiose, cum filo serico)"
        }
    ]
}