{
    "id": 149373,
    "name": "aposcripta-8936",
    "type": "acte",
    "url": "http:\/\/telma-chartes.irht.cnrs.fr\/aposcripta\/notice\/149373",
    "project_slug": "aposcripta",
    "project_label": "APOSCRIPTA \u2013 Lettres des papes",
    "user": "lettrespontificalesadmin",
    "last_update": "2020-10-19 16:39:57",
    "licence": "Attribution - Pas d\u2019Utilisation Commerciale - Partage dans les M\u00eames Conditions 3.0 France (CC BY-NC-SA 3.0 FR) ",
    "licence_url": "https:\/\/creativecommons.org\/licenses\/by-nc-sa\/3.0\/fr\/",
    "elements": [
        {
            "type": "pape",
            "value": "Innocent IV (1243-1254)"
        },
        {
            "type": "destinataire",
            "value": ". . electo Cremonensi"
        },
        {
            "type": "date_libre",
            "value": "XIII kalendas ianuarii, anno X"
        },
        {
            "type": "date",
            "value": " 1252\/12\/20",
            "children": {
                "date_deb_annee": "1252",
                "date_deb_mois": "12",
                "date_deb_jour": "20"
            },
            "range": {
                "date_apres": 12521220,
                "date_avant": 12521220
            }
        },
        {
            "type": "date_lieu",
            "value": "Perusii"
        },
        {
            "type": "sources_manuscrites",
            "value": "R. CIT\u00c9 DU VATICAN, Archivio Segreto Vaticano, <hi rend=\"italic\">Registra Vaticana<\/hi> ... Inn.\u00a0IV Reg. Vol.\u00a0II, 225; Lib.\u00a0X, 295. Damus Pertzii exemplar.",
            "children": {
                "type_source": "Registre de la chancellerie apostolique"
            }
        },
        {
            "type": "genre",
            "value": "Mandement (littere cum filo canapis)"
        },
        {
            "type": "analyse",
            "value": "Innocentius IV papa [Bernerio] electo Cremonensi mandat, ut abbatem S. Mariae de Girunda, fautoribus quondam F[riderici II] adhuc faventem, deponat [Rodenberg]."
        },
        {
            "type": "transcription",
            "value": "<?xml version=\"1.0\" encoding=\"UTF-8\"?>\n. . electo Cremonensi.Ad audientiam nostram noveris pervenisse, quod . . abbas monasterii sancte Marie de Girunda Cremonensis diocesis, condam Fr. se tunc pro imperatore gerenti et fautoribus eius contra ecclesiam manifestus fautor existens, eisdem fautoribus adhuc impendit consilium, auxilium et favorem. Quia vero dignum est, ut indevoti ex indevotione iacturam et devoti ex devotione commodum assequantur, mandamus, quatinus, si res ita se habet, ipsum abbatem auctoritate nostra privans perpetuo regimine monasterii memorati, eo exinde velut indigno et indevoto amoto, personam idoneam et honestam ac in spiritualibus et temporalibus circumspectam, ecclesie Romane devotam, preficias ipsi monasterio in abbatem; contradictores \u2014.Dat. Perusii, XIII Kalendas Ianuarii, anno X\u00b0.\n"
        },
        {
            "type": "edition",
            "value": "Ici reprise de Karl Rodenberg, Epistolae s. XIII e regestis pontificum romanorum selectae, III, Berlin : Weidmann (MGH), 1894, n.\u00a0176, p.\u00a0149."
        },
        {
            "type": "edition_autre",
            "value": "?"
        },
        {
            "type": "regeste",
            "value": "?"
        },
        {
            "type": "bibliographie_generale",
            "value": "?"
        },
        {
            "type": "apparat_critique",
            "value": "?",
            "children": {
                "numero_note": "a"
            }
        },
        {
            "type": "apparat_critique",
            "value": "?",
            "children": {
                "numero_note": "b"
            }
        },
        {
            "type": "apparat_critique",
            "value": "?",
            "children": {
                "numero_note": "c"
            }
        },
        {
            "type": "apparat_critique",
            "value": "?",
            "children": {
                "numero_note": "d"
            }
        },
        {
            "type": "apparat_critique",
            "value": "?",
            "children": {
                "numero_note": "e"
            }
        },
        {
            "type": "apparat_critique",
            "value": "?",
            "children": {
                "numero_note": "f"
            }
        },
        {
            "type": "notes_historiques",
            "value": "?",
            "children": {
                "numero_note": "1"
            }
        },
        {
            "type": "notes_historiques",
            "value": "?",
            "children": {
                "numero_note": "2"
            }
        },
        {
            "type": "notes_historiques",
            "value": "?",
            "children": {
                "numero_note": "3"
            }
        }
    ]
}