{
    "id": 26496,
    "name": "aposcripta-3575",
    "type": "acte",
    "url": "http:\/\/telma-chartes.irht.cnrs.fr\/aposcripta\/notice\/26496",
    "project_slug": "aposcripta",
    "project_label": "APOSCRIPTA \u2013 Lettres des papes",
    "user": "lettrespontificalesadmin",
    "last_update": "2020-10-19 16:28:01",
    "licence": "Attribution - Pas d\u2019Utilisation Commerciale - Partage dans les M\u00eames Conditions 3.0 France (CC BY-NC-SA 3.0 FR) ",
    "licence_url": "https:\/\/creativecommons.org\/licenses\/by-nc-sa\/3.0\/fr\/",
    "elements": [
        {
            "type": "pape",
            "value": "Urbain III (1185-1187)"
        },
        {
            "type": "date_lieu",
            "value": "Verona"
        },
        {
            "type": "date_libre",
            "value": "1186\u20131187 September 9"
        },
        {
            "type": "date",
            "value": "apr\u00e8s 1186\/09\/09 - avant 1187\/09\/09",
            "children": {
                "date_deb_annee": "1186",
                "date_deb_mois": "09",
                "date_deb_jour": "09",
                "date_deb_type": "apr\u00e8s",
                "date_fin_annee": "1187",
                "date_fin_mois": "09",
                "date_fin_jour": "09",
                "date_fin_type": "avant"
            },
            "range": {
                "date_apres": 11860909,
                "date_avant": 11870909
            }
        },
        {
            "type": "analyse",
            "value": "Urban III gew\u00e4hrt dem Kloster Auchy-les-Moines (D. T\u00e9rouane), dass niemand von seinem selbstbebauten Neubruchlande, seinen G\u00e4rten und Futterungen Zehnten fordern d\u00fcrfe<a class=\"note\" href=\"#note-1\">1<\/a>."
        },
        {
            "type": "transcription",
            "value": "<?xml version=\"1.0\" encoding=\"UTF-8\"?>\nUrbanus episcopus servus servorum dei dilectis filiis, Galtero abbati et fratribus de Alchiaco, salutem et apostolicam benedictionem. Quotiens a nobis petitur, quod religioni et honestati convenire dinoscitur, animo nos decet libenti concedere et petentium desideriis congruum suffragium impertiri. Eapropter, vestris iustis postulationibus annuentes, devotioni vestre auctoritate apostolica indulgemus, ut de novalibus, que propriis manibus aut sumptibus colitis, de ortis quoque sive de nutrimentis animalium vestrorum nullus a vobis decimas extorquere presumat. Nulli ergo omnino hominum liceat, hanc paginam nostre concessionis infringere vel ei ausu temerario contraire. Si quis autem hoc attemptare presumpserit, indignationem omnipotentis dei et beatorum Petri et Pauli apostolorum eius se noverit incursurum. \u2014 Dat. Verone, v Idus Septembris.\n"
        },
        {
            "type": "edition",
            "value": "Julius von Pflugk-Harttung, <i>Acta pontificum Romanorum inedita<\/i>, T\u00fcbingen, 1880, I, n. 387, p. 338"
        },
        {
            "type": "sources_manuscrites",
            "value": "Abschrift vom 13 Jahrh. des Cart. de l\u2019abbaye d\u2019Auchy-les-Moines p. 15, im Archive des D\u00e9p. Pas-de-Calais zu Arras."
        },
        {
            "type": "remarques",
            "value": ""
        },
        {
            "type": "notes_historiques",
            "value": "<i>Vergl. die Urk. vom 26 Jan. 1183.<\/i>",
            "children": {
                "numero_note": "1"
            }
        },
        {
            "type": "genre",
            "value": "Bulle"
        }
    ]
}