{
    "id": 148352,
    "name": "aposcripta-7960",
    "type": "acte",
    "url": "http:\/\/telma-chartes.irht.cnrs.fr\/aposcripta\/notice\/148352",
    "project_slug": "aposcripta",
    "project_label": "APOSCRIPTA \u2013 Lettres des papes",
    "user": "M_Extrat",
    "last_update": "2020-10-19 16:39:45",
    "licence": "Attribution - Pas d\u2019Utilisation Commerciale - Partage dans les M\u00eames Conditions 3.0 France (CC BY-NC-SA 3.0 FR) ",
    "licence_url": "https:\/\/creativecommons.org\/licenses\/by-nc-sa\/3.0\/fr\/",
    "elements": [
        {
            "type": "pape",
            "value": "Cl\u00e9ment V (1305-1314)"
        },
        {
            "type": "destinataire",
            "value": "Pour m\u00e9moire perp\u00e9tuelle de la chose"
        },
        {
            "type": "date_libre",
            "value": "III idus novembris, anno primo"
        },
        {
            "type": "date",
            "value": "1305\/11\/11",
            "children": {
                "date_deb_annee": "1305",
                "date_deb_mois": "11",
                "date_deb_jour": "11"
            },
            "range": {
                "date_apres": 13051111,
                "date_avant": 13051111
            }
        },
        {
            "type": "date_lieu",
            "value": "Lyon"
        },
        {
            "type": "analyse",
            "value": "Bulle r\u00e9servant au Saint-Si\u00e8ge la provision de l'archev\u00each\u00e9 de Rouen"
        },
        {
            "type": "sources_manuscrites",
            "value": "E. PARIS, Biblioth\u00e8que nationale de France, Collection Baluze, t. 382, n. 120 <a href=\" https:\/\/gallica.bnf.fr\/ark:\/12148\/btv1b10722932f\/f61.image\" target=\"_blank\">[en ligne]<\/a>. ",
            "children": {
                "type_source": "Exp\u00e9dition"
            }
        },
        {
            "type": "transcription",
            "value": "<?xml version=\"1.0\" encoding=\"UTF-8\"?>\nClemens episcopus, servus servorum Dei, ad perpetuam rei memoriam. Ad statum Ecclesie Rothomagensis paterne sollicitudinis oculum convertantes ac cupientes eidem per apostolice Sedis providentiam talem... Datum Lugduni, III idus novembris, pontificatus nostri anno primo.\n"
        },
        {
            "type": "remarques",
            "value": "Absente des registres, une lettre enregistr\u00e9e \u00e0 cette date (<i>Regestum Clementis<\/i> n. 51)."
        },
        {
            "type": "genre",
            "value": "Bulle (ad perpetuam rei memoriam)"
        }
    ]
}