{
    "id": 147651,
    "name": "aposcripta-7275",
    "type": "acte",
    "url": "http:\/\/telma-chartes.irht.cnrs.fr\/aposcripta\/notice\/147651",
    "project_slug": "aposcripta",
    "project_label": "APOSCRIPTA \u2013 Lettres des papes",
    "user": "l_valliere",
    "last_update": "2020-10-19 16:39:35",
    "licence": "Attribution - Pas d\u2019Utilisation Commerciale - Partage dans les M\u00eames Conditions 3.0 France (CC BY-NC-SA 3.0 FR) ",
    "licence_url": "https:\/\/creativecommons.org\/licenses\/by-nc-sa\/3.0\/fr\/",
    "elements": [
        {
            "type": "pape",
            "value": "Cl\u00e9ment IV (1265-1268)"
        },
        {
            "type": "destinataire",
            "value": "Le roi de Hongrie B\u00e9la IV"
        },
        {
            "type": "genre",
            "value": "Lettre, g\u00e9n\u00e9ral (apr\u00e8s 1198, littere cum filo canapis)"
        },
        {
            "type": "analyse",
            "value": "Rex Hungarie nec Timotheum in Zagabriensem episcopum ab Urbano quarto promotum, nec ejus procuratorem fratrem Galterum in possessionem episcopatus admittere voluerat ; per plures nuncios ac novissime per Demetrium Strigoniensem archidiaconum diversa contra Timotheum proponens. Pape regi, jam per fratrem Galterum et archiepiscopum Strigoniensem admonito, scribit ut Timotheum episcopatum adipisci permittat [Jordan].\nClemens IV. an K\u00f6nig B\u00e9la (IV.) von Ungarn : fordert ihn auf, Bischof Timotej von Zagreb trotz seiner geringen Herkunft anzuerkennen [Thumser]."
        },
        {
            "type": "sources_manuscrites",
            "value": "R<sup>1<\/sup>. CIT\u00c9 DU VATICAN, Archivio segreto Vaticano, <i>Registra Vaticana<\/i> 30, fol. 23v.",
            "children": {
                "type_source": "Registre de la chancellerie apostolique"
            }
        },
        {
            "type": "sources_manuscrites",
            "value": "R<sup>2<\/sup>. CIT\u00c9 DU VATICAN, Archivio segreto Vaticano, <i>Registra Vaticana<\/i> 33, ep. 140, fol. 25.",
            "children": {
                "type_source": "Registre de la chancellerie apostolique"
            }
        },
        {
            "type": "sources_manuscrites",
            "value": "R<sup>3<\/sup>. CIT\u00c9 DU VATICAN, Archivio segreto Vaticano, <i>Registra Vaticana<\/i> 34, fol. 34 (<i>II kal. feb.<\/i>).",
            "children": {
                "type_source": "Registre de la chancellerie apostolique"
            }
        },
        {
            "type": "sources_manuscrites",
            "value": "R<sup>4<\/sup>. CIT\u00c9 DU VATICAN, Archivio segreto Vaticano, <i>Registra Vaticana<\/i> 35, ep. 142, fol. 27 (sans date).",
            "children": {
                "type_source": "Registre de la chancellerie apostolique"
            }
        },
        {
            "type": "edition",
            "value": "Ici reprise de Mathias Thumser, <i>Die Briefe Papst Clemens\u2019 IV. (1265\u20131268)<\/i>, Vorl\u00e4ufige Edition, MGH, 2015, n. 143."
        },
        {
            "type": "edition_autre",
            "value": "Edmond Mart\u00e8ne, Ursin Durand, <i>Thesaurus novus anecdotorum<\/i>, Paris, 1717, II, n. 223, col. 271 <a target=\"_blank\" href=\"https:\/\/archive.org\/stream\/ThesaurusNovusAnecdotorum2\/Thesaurus_novus_anecdotorum_2#page\/n171\/mode\/2up\"> [en ligne]<\/a>."
        },
        {
            "type": "regeste",
            "value": "Potthast, <i>Regesta pontificum Romanorum<\/i>, n. 19525 <a target=\"_blank\" href=\"https:\/\/archive.org\/stream\/RegestaPontificumRomanorum\/ph#page\/n1593\/mode\/2up\"> [en ligne]<\/a>."
        },
        {
            "type": "regeste",
            "value": "\u00c9douard Jordan, <i>Les registres de Cl\u00e9ment IV (1265-1268)<\/i>, Paris, 1893-1945, n. 1012, d\u2019apr\u00e8s R<sup>1<\/sup>, R<sup>2<\/sup>, R<sup>3<\/sup> et R<sup>4<\/sup>."
        },
        {
            "type": "transcription",
            "value": "<?xml version=\"1.0\" encoding=\"UTF-8\"?>\nCarissimo in Christo filio Bele regi Ungarie illustri. Rerum omnium providus ordinator omnes homines lege propagandos communi ex similibus nasci seminibus, eodem celo contegi similique gaudere spiraculo voluit, nudos in mundum ingredi, nudos egredi1 pari ratione decrevit non a servo distinguens liberum, non ab egeno divitem, non a rege plebeium in omnibus supradictis, sed in terra multiplicatis hominibus et eorum nonnullis voluntatis indomite motus agiles et effrenos libertati proprie relinquentibus, aliis autem saniore consilio rationis imperio suas subdentibus voluntates istos illis merito prefici non sola persuasit honestas, sed necessitas etiam publica contulit anteferri, ut, qui suis perfectius dominabantur animis expugnatoribus urbium, meliores exercerent in alios principatum et repressis improborum excessibus societatis humane federa sub iocunde tranquillitatis presidio salvarentur. Non abnuimus, fili carissime, quin alicubi Domino permittente potestatis usurpata presumptio thronum aliquibus dederit principalem, sed illa, quam premisimus, recta fuit occasio, immo causa rectissima, quos natura pares produxerat, sublimitatis fastigio et subiectionis obsequio discernendi, que diversitas statuum nichil habet adversum, si subiectus se meritis imparem et prelatus se natura confitetur et agnoscit equalem. Sic igitur successivis temporibus propagata prelatio splendore morum a patribus acquisita populorum assensu, quem annosa consuetudo firmavit in posteros derivata, nobilitati laudabilem et ab omnibus honorandam dedit originem et eo predotavit effectu, ut ex nobilibus nascantur nobiles et, quod natura nescierat, usus hominum humano generi non mediocriter utilis superaddat. Que res divine gratie non prescribit, quin parvis et magnis, servis et liberis pro sue beneplacito voluntatis illabens nunc hos nunc illos erigat vel deiciat iuxta sui dispositionem arbitrii, quod non fallitur, licet eius archana ratio nequeat ab hominibus comprehendi. Sane, cum venerabilem fratrem nostrum Thimotheum Zagabriensem episcopum a felicis recordationis Urbano papa predecessore nostro promotum et ab ipso, dum viveret, et a nobis, qui eidem licet immeriti successisse dinoscimur, tue benivolentie commendatum adeo, prout ipsa se veritas exhibet, abhorrueris, ut nec precibus acquiescens nec consiliis te coaptans nec obtemperans monitis nec mandatis obediens eum duxeris admittendum vel ab apostolica Sede et ab eo nicholominus missum fratrem Galterum capellanum et penitentiarium nostrum episcopatus eiusdem permiseris pacifica possessione gaudere, mirati fuimus et miramur et intenditur admiratio, dum attendimus ignorare te non debere Regem regum et Dominum dominantium2, per quem ceteri reges regnant3, sic regibus secularibus rerum regnum secularium concessisse, ut ad spiritualia disponenda manus suas, cum eisdem non competat, non extendant, sed illius hec relinquant iudicio, qui vicem in terris obtinens Domini Iesu Christi per se vel alios in sollicitudinis partem admissos spiritualia spiritualibus comparans4 ea spiritualiter administrat. Scimus equidem iam diversis temporibus tuos ad apostolicam sedem nuntios accessisse, et, quod primi dixerant, refricabant sequentes, quorum unus, immo novissimus dilectus filius magister Demetrius Strigoniensis archidiaconus, subdiaconus noster in nostra nuper et nostrorum fratrum presentia a tua magnitudine sibi, ut asserebat, iniuncta proposuit, que nisi tuo proposuisset nomine, cum suo non interesset in aliquo, vel nullam vel modicam super eis audientiam habuisset. Pro tua tamen reverentia patienter auditus et sicut vir eloquens et peritus pulchre proponens turpia et decenter inserens indecentia, personam episcopi multipliciter asserens contemptibilem tum defectu consilii tum originis vilitate, quin immo condicione servili tum ex causis quibusdam aliis indignum tuo latere multiplici ratione conclusit, sed et magnatum regni tui litteras nobis reddidit, quas tamen legi publice non permisimus, quia nec tuam nec alterius poterant causam instruere sine iuris suffragio solam iniuriam continentes. Verum, si retines, que premisimus, frustra certas de condicione persone, cui suam Dominus infundere potest gratiam et infudit, cum sibi placuit, qui non est personarum acceptor5, sed nec ei posset obesse originalis servitus, etiamsi de ipsa constaret, quam dignitas episcopalis absorbuit et elisit, nec iniuriam lateri tuo faciet pauper a dextris assidens vel sinistris, si non assidentis originem, sed sacerdotii dignitatem attenderis, si reminisci volueris summi Regis, qui commensales et socios operisque sui vicarios et, quod est amplius, coheredes in regno habere voluit pauperes piscatores. Demum, si ad tui culminis gloriam tue providentie direxeris aciem, quis, quesumus, honor est tibi excellentie tante regem adversus pauperem dimicare, stipulam siccam persequi6 et contra virum simplicem potentiam tuam ostendere? Leones scimus contra vermiculos non armari, ad passeres aquilas non volare. Et tu, vir atque princeps magnificus, tanta sudabis instantia ad unius deiectionem episcopi, cui, quod obicis, dato per omnia, quod sit verum, imputare non potes, qui, cum se ipsum non fecerit, sed a Domino factus fuerit, nec parentes eligere nobiles sibi potuit nec peccavit, si illos habuit, quos Dominus ei dedit. Si qua tandem obicienda contra consecratum episcopum viderentur prodeunte, qui posset obicere, non esset ei possessio deneganda, sed ea sibi concessa primitus exinde forsan esset de meritis inquirendum, quantum iustitia pateretur. Ceterum, si super hoc negotio varie tibi scripsimus, non mireris spiritualem quidem medicum nunc levibus, ut decet, nunc asperis et iuxta parabolam evangelicam vinum vel oleum vel simul vel alternis infundere vicibus sauciati vulneribus7, ut nec aspera nimis exasperent nec levia plus, quam oporteat, blandiantur. Si igitur, quod vix credimus, nec predicti fratris Galteri nec venerabilis fratris nostri Strigoniensis archiepiscopi, cui secundo scripsimus, acquievisti monitis salutaribus, excellentiam tuam per aspersionem sanguinis tui et omnium Redemptoris multiplicatis precibus obsecramus in remissionem tibi peccaminum iniungentes, quatenus tua nunc saltem indignatio conquiescat et eundem episcopum admittens ad gratiam rerum episcopalium atque iurium possessionem eidem liberam cum fructibus facias assignari, ut et anime tue consulas et fame provideas et Sedem apostolicam, quam in omnibus habuisti propitiam, amplius non offendas. Scire quidem te volumus, quod illius inherentes vestigiis, quantum scimus et possumus, qui defendens christianos suos non reliquit eis nocere hominem, immo reges corripuit pro eisdem8, omittere non poterimus, quin causam pauperis, qui relictus est Domino, prosequamur. Nec te turbet aliquorum suggestio clericorum, qui, prout dicitur, episcopatum potius quam episcopum insequentes ad viventis successionem aspirant, quam profecto nobis viventibus per hanc viam vel verius invium non habebunt. Datum Perusii, XII kalendas februarii, anno I.\n"
        },
        {
            "type": "date",
            "value": "1266\/01\/21",
            "children": {
                "date_deb_annee": "1266",
                "date_deb_mois": "01",
                "date_deb_jour": "21"
            },
            "range": {
                "date_apres": 12660121,
                "date_avant": 12660121
            }
        },
        {
            "type": "date_libre",
            "value": "XII kalendas februarii, anno primo"
        },
        {
            "type": "notes_historiques",
            "value": "Iob 1,21, Eccles. 5,14.",
            "children": {
                "numero_note": "1"
            }
        },
        {
            "type": "notes_historiques",
            "value": "1. Tim. 6,15.",
            "children": {
                "numero_note": "2"
            }
        },
        {
            "type": "notes_historiques",
            "value": "Prov. 8,15.",
            "children": {
                "numero_note": "3"
            }
        },
        {
            "type": "notes_historiques",
            "value": "1. Cor. 2,13.",
            "children": {
                "numero_note": "4"
            }
        },
        {
            "type": "notes_historiques",
            "value": "Act. 10,34.",
            "children": {
                "numero_note": "5"
            }
        },
        {
            "type": "notes_historiques",
            "value": "Iob 13,25.",
            "children": {
                "numero_note": "6"
            }
        },
        {
            "type": "notes_historiques",
            "value": "Voir Luc. 10,25\u201337.",
            "children": {
                "numero_note": "7"
            }
        },
        {
            "type": "notes_historiques",
            "value": "Ps. (G) 104,14.",
            "children": {
                "numero_note": "8"
            }
        },
        {
            "type": "date_lieu",
            "value": "P\u00e9rouse"
        },
        {
            "type": "bibliographie_generale",
            "value": "Mathias Thumser, \u00ab Zur \u00dcberlieferungsgeschichte der Briefe Clemens'IV. (1265-1268) \u00bb, <i>Deutsches Archiv f\u00fcr Erforschung des Mittelalters<\/i>, 51\/1, 1995, p. 115-168."
        }
    ]
}