{
    "id": 149889,
    "name": "aposcripta-9452",
    "type": "acte",
    "url": "http:\/\/telma-chartes.irht.cnrs.fr\/aposcripta\/notice\/149889",
    "project_slug": "aposcripta",
    "project_label": "APOSCRIPTA \u2013 Lettres des papes",
    "user": "lettrespontificalesadmin",
    "last_update": "2020-10-19 16:40:05",
    "licence": "Attribution - Pas d\u2019Utilisation Commerciale - Partage dans les M\u00eames Conditions 3.0 France (CC BY-NC-SA 3.0 FR) ",
    "licence_url": "https:\/\/creativecommons.org\/licenses\/by-nc-sa\/3.0\/fr\/",
    "elements": [
        {
            "type": "pape",
            "value": "Urbain IV (1261-1264)"
        },
        {
            "type": "destinataire",
            "value": "Dilectis filiis . . de Lucka et . . de Novali sancte Marie ordinis Cisterciensis monasteriorum abbatibus Mindensis et Hyldesemensis diocesum"
        },
        {
            "type": "date_libre",
            "value": "X kalendas septembris, anno tertio"
        },
        {
            "type": "date",
            "value": " 1264\/08\/23",
            "children": {
                "date_deb_annee": "1264",
                "date_deb_mois": "08",
                "date_deb_jour": "23"
            },
            "range": {
                "date_apres": 12640823,
                "date_avant": 12640823
            }
        },
        {
            "type": "date_lieu",
            "value": "Urbemveterem"
        },
        {
            "type": "sources_manuscrites",
            "value": "R. CIT\u00c9 DU VATICAN, Archivio Segreto Vaticano, <hi rend=\"italic\">Registra Vaticana<\/hi> ... Urb.\u00a0IV Reg. Vol.\u00a0II [cameralia], f.\u00a0110, ep.\u00a02. Damus Pertzii exemplar.",
            "children": {
                "type_source": "Registre de la chancellerie apostolique"
            }
        },
        {
            "type": "genre",
            "value": "Mandement (littere cum filo canapis)"
        },
        {
            "type": "analyse",
            "value": "Urbanus IV papa de Lucka et de Novali S. Mariae abbatibus mandat, ut si in ecclesia Hildeshemensi postulatio de Ottone subdiacono canonico Hildeshemensi, germano [Alberti] ducis de Brunswic, canonice celebrata fuerit, eum eidem ecclesiae in procuratorem praeficiant [Rodenberg]."
        },
        {
            "type": "transcription",
            "value": "<?xml version=\"1.0\" encoding=\"UTF-8\"?>\nDilectis filiis . . de Lucka et . . de Novali sancte Marie ordinis Cisterciensis monasteriorum abbatibus Mindensis et Hyldesemensis diocesum.Ad regimen universalis ecclesie licet immeriti disponente Domino constituti, levamus in circuitu oculos nostros, ut cum omnium ecclesiarum ex debito pastoralis officii sollicitudo nobis incumbat, quid singulis earum expediat intuentes, illas preservare studeamus a noxiis et earum, quantum nobis ex alto permittitur, comoda procuremus. Circa statum autem illarum, que deplorant viduitatis incomoda, vigilantius excitamur, ut tales personas earum regimini preponamus, quarum industria in spiritualibus et temporalibus salubriter gubernentur, et per earum potentiam oportunis temporibus defendantur. Sane vacante Hyldesemensi ecclesia dilecti filii . . decanus et capitulum eiusdem, vocatis omnibus qui voluerunt, debuerunt et potuerunt comode interesse, pro futuri substitutione pastoris, ut moris est, convenientes in unum, et considerantes quod eadem ecclesia in medio nationis perverse posita indigebat potentis presidio defensoris quodque dilectus filius Otto subdiaconus, concanonicus eorum, germanus dilecti filii nobilis viri . . ducis de Brunswic, ad defensionem et gubernationem ipsius ecclesie pre ceteris utilis habebatur, ipsum unanimiter et concorditer patientem in etate defectum Spiritus Sancti gratia invocata in Hyldesemensem episcopum postularunt, nobis humiliter supplicantes, ut huiusmodi postulationem admittere dignaremur. Nos igitur, eiusdem ecclesie statu, qualitate temporis et conditione persone digna meditatione pensatis, nolentes quod ipsa ecclesia dispendia prolixioris vacationis incurrat, discretioni vestre per apostolica scripta mandamus, quatinus, si huiusmodi postulatio concors extitit et inveneritis eam alias fuisse canonice celebratam ac predictam ecclesiam posse per eundem Ottonem, sicut expedit, defensari eumque iam talis etatis existere, quod utiliter regere ac dirigere valeat ecclesiam memoratam, ipsum \u2014 predicto non obstante defectu \u2014, maxime cum, sicut fertur, litterature competentis existat, discretionis gratia preditus et providentia circumspectionis, in procuratorem ibidem auctoritate nostra preficientes, concedatis ei generalem curam et administrationem spiritualium et temporalium eiusdem ecclesie, sibi tamquam ipsius ecclesie procuratori ab omnibus eius subditis, vassallis et ministerialibus faciatis plenarie obediri et de ipsius ecclesie iuribus responderi, contradictores per censuram etc. usque: compescendo. Quicquid autem super hiis feceritis, nobis per vestras litteras harum seriem continentes studeatis fideliter intimare.Dat. apud Urbemveterem, X Kalendas Septembris, anno tertio.\n"
        },
        {
            "type": "edition",
            "value": "Ici reprise de Karl Rodenberg, Epistolae s. XIII e regestis pontificum romanorum selectae, III, Berlin : Weidmann (MGH), 1894, n.\u00a0630, p.\u00a0621."
        },
        {
            "type": "edition_autre",
            "value": "?"
        },
        {
            "type": "regeste",
            "value": "?"
        },
        {
            "type": "bibliographie_generale",
            "value": "?"
        },
        {
            "type": "apparat_critique",
            "value": "?",
            "children": {
                "numero_note": "a"
            }
        },
        {
            "type": "apparat_critique",
            "value": "?",
            "children": {
                "numero_note": "b"
            }
        },
        {
            "type": "apparat_critique",
            "value": "?",
            "children": {
                "numero_note": "c"
            }
        },
        {
            "type": "apparat_critique",
            "value": "?",
            "children": {
                "numero_note": "d"
            }
        },
        {
            "type": "apparat_critique",
            "value": "?",
            "children": {
                "numero_note": "e"
            }
        },
        {
            "type": "apparat_critique",
            "value": "?",
            "children": {
                "numero_note": "f"
            }
        },
        {
            "type": "notes_historiques",
            "value": "?",
            "children": {
                "numero_note": "1"
            }
        },
        {
            "type": "notes_historiques",
            "value": "?",
            "children": {
                "numero_note": "2"
            }
        },
        {
            "type": "notes_historiques",
            "value": "?",
            "children": {
                "numero_note": "3"
            }
        }
    ]
}