{
    "id": 149406,
    "name": "aposcripta-8969",
    "type": "acte",
    "url": "http:\/\/telma-chartes.irht.cnrs.fr\/aposcripta\/notice\/149406",
    "project_slug": "aposcripta",
    "project_label": "APOSCRIPTA \u2013 Lettres des papes",
    "user": "lettrespontificalesadmin",
    "last_update": "2020-10-19 16:39:58",
    "licence": "Attribution - Pas d\u2019Utilisation Commerciale - Partage dans les M\u00eames Conditions 3.0 France (CC BY-NC-SA 3.0 FR) ",
    "licence_url": "https:\/\/creativecommons.org\/licenses\/by-nc-sa\/3.0\/fr\/",
    "elements": [
        {
            "type": "pape",
            "value": "Innocent IV (1243-1254)"
        },
        {
            "type": "destinataire",
            "value": "Universitati hominum Rocce de Foce Firmane diocesis"
        },
        {
            "type": "date_libre",
            "value": "VII kalendas iunii, anno X"
        },
        {
            "type": "date",
            "value": " 1253\/05\/26",
            "children": {
                "date_deb_annee": "1253",
                "date_deb_mois": "05",
                "date_deb_jour": "26"
            },
            "range": {
                "date_apres": 12530526,
                "date_avant": 12530526
            }
        },
        {
            "type": "date_lieu",
            "value": "Asisii"
        },
        {
            "type": "sources_manuscrites",
            "value": "R. CIT\u00c9 DU VATICAN, Archivio Segreto Vaticano, <hi rend=\"italic\">Registra Vaticana<\/hi> ... Inn.\u00a0IV Reg. Vol.\u00a0II, 273; Lib.\u00a0X, 705. Damus Pertzii exemplar.",
            "children": {
                "type_source": "Registre de la chancellerie apostolique"
            }
        },
        {
            "type": "genre",
            "value": "Mandement (littere cum filo canapis)"
        },
        {
            "type": "analyse",
            "value": "Innocentius IV papa universitati hominum Roccae de Foce Firmanae diocesis confirmat libertates, quas quondam R[aynerius] S. Mariae in Cosmidin diaconus cardinalis, tunc legatus, ipsis pro eo concesserit, quod resistendo nuntiis quondam Fr[iderici II] damna et pericula incurrerint [Rodenberg]."
        },
        {
            "type": "transcription",
            "value": "<?xml version=\"1.0\" encoding=\"UTF-8\"?>\nUniversitati hominum Rocce de Foce Firmane diocesis.Cum a nobis petitur etc. usque: effectum. Sane vestra petitio nobis exhibita continebat, quod bone memorie R. Sancte Marie in Cosmidin diaconus cardinalis, tunc apostolice sedis legatus, attendens sincere devotionis affectum, quem ad Romanam ecclesiam geritis, et quod resistendo nunciis condam Fr. olim imperatoris dampna rerum et personarum pericula incurristis, vos sub ipsius sedis protectione suscepit, concedendo vobis, ut communantiam possitis facere ac eisdem gaudere iuribus et libertatibus, quibus gaudere consueverunt alie communantie castrorum et locorum marchie Anconitane in devotione ac fidelitate Romane ecclesie persistentes, prout in litteris inde confectis plenius dicitur contineri. Nos igitur, vestris supplicationibus inclinati, quod super hoc ab eodem cardinali provide factum est ratum et gratum habentes, id auctoritate apostolica confirmamus etc. usque: communimus. Nulli ergo \u2014 nostre confirmationis etc.Dat. Asisii, VII Kalendas Iunii, anno X\u00b0.\n"
        },
        {
            "type": "edition",
            "value": "Ici reprise de Karl Rodenberg, Epistolae s. XIII e regestis pontificum romanorum selectae, III, Berlin : Weidmann (MGH), 1894, n.\u00a0203, p.\u00a0169."
        },
        {
            "type": "edition_autre",
            "value": "?"
        },
        {
            "type": "regeste",
            "value": "?"
        },
        {
            "type": "bibliographie_generale",
            "value": "?"
        },
        {
            "type": "apparat_critique",
            "value": "?",
            "children": {
                "numero_note": "a"
            }
        },
        {
            "type": "apparat_critique",
            "value": "?",
            "children": {
                "numero_note": "b"
            }
        },
        {
            "type": "apparat_critique",
            "value": "?",
            "children": {
                "numero_note": "c"
            }
        },
        {
            "type": "apparat_critique",
            "value": "?",
            "children": {
                "numero_note": "d"
            }
        },
        {
            "type": "apparat_critique",
            "value": "?",
            "children": {
                "numero_note": "e"
            }
        },
        {
            "type": "apparat_critique",
            "value": "?",
            "children": {
                "numero_note": "f"
            }
        },
        {
            "type": "notes_historiques",
            "value": "?",
            "children": {
                "numero_note": "1"
            }
        },
        {
            "type": "notes_historiques",
            "value": "?",
            "children": {
                "numero_note": "2"
            }
        },
        {
            "type": "notes_historiques",
            "value": "?",
            "children": {
                "numero_note": "3"
            }
        }
    ]
}