{
    "id": 20783,
    "name": "aposcripta-770",
    "type": "acte",
    "url": "http:\/\/telma-chartes.irht.cnrs.fr\/aposcripta\/notice\/20783",
    "project_slug": "aposcripta",
    "project_label": "APOSCRIPTA \u2013 Lettres des papes",
    "user": "lettrespontificalesadmin",
    "last_update": "2020-10-19 16:26:53",
    "licence": "Attribution - Pas d\u2019Utilisation Commerciale - Partage dans les M\u00eames Conditions 3.0 France (CC BY-NC-SA 3.0 FR) ",
    "licence_url": "https:\/\/creativecommons.org\/licenses\/by-nc-sa\/3.0\/fr\/",
    "elements": [
        {
            "type": "pape",
            "value": "Alexandre III (1159-1181)"
        },
        {
            "type": "date_lieu",
            "value": "n.c."
        },
        {
            "type": "date_libre",
            "value": "1178 Mai 30"
        },
        {
            "type": "analyse",
            "value": "Alexander\u00a0III omnes archiepiscopatus Salzburgensis praelatos ad concilium Lateranense invitat. Gregorium subdiaconum suum commendat."
        },
        {
            "type": "transcription",
            "value": "<?xml version=\"1.0\" encoding=\"UTF-8\"?>\nA(lexander) episcopusb servus servorum Dei venerabilibus fratribus C(onrado) Salzpurgensi archiepiscopo, apostolicae sedis legato, et suffraganeis eius et dilectis filiis abbatibus, praepositis et decanis per eorum episcopatus constitutis salutem et apostolicam benedictionem. Quoniam in agro Domini, qui est ecclesia, tanquam spinae ac tribuli nascuntur cotidie et pullulant germina viciorum, tum videlicet quia proni sunt sensus hominis ad malum ab adolescentia sua, tum quia inimicus homo de malicia sua zizania superseminare non cessat et germen bonum nititur suffocare, necesse est, diligenciam adesse cultorum, et nunc evellere et amputare iam nata, nunc etiam nascituris nocivis graminibus proficiendi aditum obserare, subsequenter autem et inserere fructiferum germen et seminare semen bonum, quod tricesimum, sexagesimum et centesimum fructum fecundante Deo possit afferre. Nam et hoc verba illa dominica sonare videntur, quibus Ieremiam prophetam et in eo evangelicum sacerdotem instruxit dicens\u00a0: Ecce dedi verba mea in ore tuo, ecce constitui te super gentes et regna, ut evellas et destruas et disperdas et dissipes et edifices et plantes.1 Id autem licet universis rectoribus ecclesiarum incumbat, multo tamen fortius imminet Romanae urbis antistiti, quia a Domino Iesu Christo, ut caput esset aecclesiae, in beato Petro accepit, et de pascendis dominicis ovibus et fratribus confirmandis expressum ac speciale noscitur habuisse mandatum. Inde siquidem est, quod nos licet insufficientes meritis ad providentiam apostolicae sedis et ministerium universalis ecclesiae, Deo prout ipsi placuit disponente, vocati, quia in ecclesia Dei correctione videmus quam plurima indigere, tam ad emendanda, que digna emendatione videntur, quam ad promulganda, que saluti fidelium visa fuerint expedire, de diversis mundi partibus personas ecclesiasticas decrevimus evocandas, quarum praesentia et consilio, que fuerint salubria, statuantur, et quod bonumc, secundum consuetudinem antiquorum patrum provideatur et confirmetur a multis\u00a0; quod si particulariter fieret, non facile posset plenum robur habere. Quocirca per apostolica vobis scripta mandamus, quatinus huic dispositioni nostrae plenis desideriis cooperari curetis et prima dominica proxime quadragesime2 ad urbem Romam ducente Domino veniatis, ut cooperante sancti spiritus gratia tam in corrigendis enormitatibus, quam in statuendis, que grata Deo fuerint, communi studio, quod fuerit agendum, agatur et uno humero sublevemus arcam Domini atque uno ore honorificemus Deum et patrem domini nostri Iesu Christi. Ad hoc commendamus vobis attentius dilectum filium Gregorium subdiaconumd nostrum, virum utique providum, industrium et discretum et inter alios clericos sui ordinis carum nobis admodum et acceptum, cui, cum sit de mensa nostra, confidenter pro sua probitate, fide ac prudentia vocationis huius sollicitudinem duximus imponendam, et universitatem vestram monemus propensius et mandamus, ut ita benigne recipiatis ipsum et honeste tractetis, quo et devotio vestra erga Romanam ecclesiam incunctanter appareat et ipse, cum ad nos Domino donante redierit, de reverentia, quam erga beatum Petrum et nos ipsos habetis, possit nobis grata referre.3 Data Laterani III Kal. Iunii.\n"
        },
        {
            "type": "edition",
            "value": "Samuel Loewenfeld, <i>Epistolae pontificum romanorum ineditae<\/i>, Leipzig : Veit et Comp., 1885, n. 271, p. 155-156"
        },
        {
            "type": "sources_manuscrites",
            "value": "Bibl. reg. Monac. cod. lat.\u00a019411 (olim Tegerns.\u00a01411) s.\u00a0<span class=\"smal-caps\">xii<\/span>.<a class=\"app\" href=\"#app-a\">a<\/a>"
        },
        {
            "type": "notes_historiques",
            "value": "Jer.\u00a01, 10.",
            "children": {
                "numero_note": "1"
            }
        },
        {
            "type": "notes_historiques",
            "value": "Die 18\u00a0Febr. 1179.",
            "children": {
                "numero_note": "2"
            }
        },
        {
            "type": "notes_historiques",
            "value": "Eadem epistola, mutatis nimirum mutandis, ad archiepiscopum Bituricensem eiusque suffraganeos directa legitur ap. Duchesne H. Fr. SS.\u00a0IV. 559, Jaff\u00e9 Reg.\u00a08603, cf. etiam 8601, 8602.",
            "children": {
                "numero_note": "3"
            }
        },
        {
            "type": "apparat_critique",
            "value": "<i>Mihi misit Marcus Maurer Monac.<\/i>",
            "children": {
                "numero_note": "a"
            }
        },
        {
            "type": "apparat_critique",
            "value": "episcopus <i>deest in cod.<\/i>",
            "children": {
                "numero_note": "B"
            }
        },
        {
            "type": "apparat_critique",
            "value": "quod bonum <i>addidi ex editionibus, vide not.\u00a01 paginae sequentis<\/i>.",
            "children": {
                "numero_note": "c"
            }
        },
        {
            "type": "apparat_critique",
            "value": "suddiaconum <i>c.<\/i>",
            "children": {
                "numero_note": "d"
            }
        },
        {
            "type": "date",
            "value": "1178\/05\/30",
            "children": {
                "date_deb_annee": "1178",
                "date_deb_mois": "05",
                "date_deb_jour": "30"
            },
            "range": {
                "date_apres": 11780530,
                "date_avant": 11780530
            }
        },
        {
            "type": "genre",
            "value": "Bulle"
        }
    ]
}