{
    "id": 149737,
    "name": "aposcripta-9300",
    "type": "acte",
    "url": "http:\/\/telma-chartes.irht.cnrs.fr\/aposcripta\/notice\/149737",
    "project_slug": "aposcripta",
    "project_label": "APOSCRIPTA \u2013 Lettres des papes",
    "user": "lettrespontificalesadmin",
    "last_update": "2020-10-19 16:40:03",
    "licence": "Attribution - Pas d\u2019Utilisation Commerciale - Partage dans les M\u00eames Conditions 3.0 France (CC BY-NC-SA 3.0 FR) ",
    "licence_url": "https:\/\/creativecommons.org\/licenses\/by-nc-sa\/3.0\/fr\/",
    "elements": [
        {
            "type": "pape",
            "value": "Alexandre IV (1254-1261)"
        },
        {
            "type": "destinataire",
            "value": ". . patriarche Aquilegensi"
        },
        {
            "type": "date_libre",
            "value": "III idus ianuarii, anno quinto"
        },
        {
            "type": "date",
            "value": " 1259\/01\/11",
            "children": {
                "date_deb_annee": "1259",
                "date_deb_mois": "01",
                "date_deb_jour": "11"
            },
            "range": {
                "date_apres": 12590111,
                "date_avant": 12590111
            }
        },
        {
            "type": "date_lieu",
            "value": "Anagnie"
        },
        {
            "type": "sources_manuscrites",
            "value": "R. CIT\u00c9 DU VATICAN, Archivio Segreto Vaticano, <hi rend=\"italic\">Registra Vaticana<\/hi> ... Al.\u00a0IV Reg. Vol.\u00a0II, 187; Lib.\u00a0V, 6. Pertzii exemplar contulimus cum Regestis.",
            "children": {
                "type_source": "Registre de la chancellerie apostolique"
            }
        },
        {
            "type": "genre",
            "value": "Mandement (littere cum filo canapis)"
        },
        {
            "type": "analyse",
            "value": "Alexander IV papa [Gregorio de Montelongo] patriarchae Aquilegiensi mandat, ut Bertholdo electo Bambergensi, qui ob debita ecclesiae suae sedem apostolicam adire nequeat, si electio eius canonice celebrata fuerit, munus consecrationis impendat [Rodenberg]."
        },
        {
            "type": "transcription",
            "value": "<?xml version=\"1.0\" encoding=\"UTF-8\"?>\n. . patriarche AquilegensiEx parte dilectorum filiorum . . prepositi, . . decani et capituli ecclesie Bambergensis fuit propositum coram nobis, quod eadem ecclesia, que ad Romanam ecclesiam nullo medio pertinet, pastoris regimine destituta, ipsi, prout moris est convenientes in unum, Spiritus Sancti gratia invocata dilectum filium Bertholdum eiusdem ecclesie canonicum, virum utique providum et discretum ac in spiritualibus et temporalibus circumspectum, in suum episcopum et pastorem canonice ac concorditer elegerunt, nobis humiliter supplicantes, ut cum eadem ecclesia, cuius possessiones et bona a nonnullis detinentur, tanta prematur sarcina debitorum, ut idem electus propter hoc nequeat absque ipsius ecclesie gravi dispendio personaliter sedem apostolicam adire pro confirmationis et consecrationis munere obtinendo, confirmari electionem huiusmodi et impendi eidem electo consecrationis munus \u2014 non obstante constitutione a nobis edita, ut electi ecclesiarum, que ad Romanam ecclesiam nullo medio pertinent, ad eandem sedem pro consecratione sua personaliter teneantur accedere \u2014 in illis partibus faceremus. Nos igitur, ipsos super hoc eiusdem electi meritis ac progenitorum suorum, quam ad Romanam habuerunt ecclesiam, devotione ac fidelitate pensatis favore specialis gratie prosequentes, fraternitati tue de fratrum nostrorum consilio presentium auctoritate mandamus, quatinus inquisita de modo electionis, studiis eligentium et electi meritis diligentius veritate, si electionem ipsam inveneris de persona ydonea canonice celebratam, ipsam auctoritate nostra confirmans, eidem electo ascito tibi legitimo episcoporum numero munus consecrationis impendas, faciens sibi a suis subditis obedientiam et reverentiam debitam exhiberi, recepturus ab eo postmodum pro nobis et ecclesia Romana fidelitatis solite iuramentum iuxta formam, quam tibi sub bulla nostra mittimus interclusam. Alioquin eadem electione cassata mandes prefatis preposito, decano et capitulo, quod eidem Bambergensi ecclesie de persona ydonea per electionem canonicam studeant providere; contradictores etc. Formam autem iuramenti, quod ipse prestabit, de verbo ad verbum nobis per eiusdem patentes litteras suo sigillo signatas per proprium nuncium studeas quantotius destinare.Dat. Anagnie, III Idus Ianuarii, anno quinto.\n"
        },
        {
            "type": "edition",
            "value": "Ici reprise de Karl Rodenberg, Epistolae s. XIII e regestis pontificum romanorum selectae, III, Berlin : Weidmann (MGH), 1894, n.\u00a0487, p.\u00a0450."
        },
        {
            "type": "edition_autre",
            "value": "?"
        },
        {
            "type": "regeste",
            "value": "?"
        },
        {
            "type": "bibliographie_generale",
            "value": "?"
        },
        {
            "type": "apparat_critique",
            "value": "?",
            "children": {
                "numero_note": "a"
            }
        },
        {
            "type": "apparat_critique",
            "value": "?",
            "children": {
                "numero_note": "b"
            }
        },
        {
            "type": "apparat_critique",
            "value": "?",
            "children": {
                "numero_note": "c"
            }
        },
        {
            "type": "apparat_critique",
            "value": "?",
            "children": {
                "numero_note": "d"
            }
        },
        {
            "type": "apparat_critique",
            "value": "?",
            "children": {
                "numero_note": "e"
            }
        },
        {
            "type": "apparat_critique",
            "value": "?",
            "children": {
                "numero_note": "f"
            }
        },
        {
            "type": "notes_historiques",
            "value": "?",
            "children": {
                "numero_note": "1"
            }
        },
        {
            "type": "notes_historiques",
            "value": "?",
            "children": {
                "numero_note": "2"
            }
        },
        {
            "type": "notes_historiques",
            "value": "?",
            "children": {
                "numero_note": "3"
            }
        }
    ]
}