{
    "id": 145013,
    "name": "aposcripta-5786",
    "type": "acte",
    "url": "http:\/\/telma-chartes.irht.cnrs.fr\/aposcripta\/notice\/145013",
    "project_slug": "aposcripta",
    "project_label": "APOSCRIPTA \u2013 Lettres des papes",
    "user": "l_valliere",
    "last_update": "2020-10-19 16:39:05",
    "licence": "Attribution - Pas d\u2019Utilisation Commerciale - Partage dans les M\u00eames Conditions 3.0 France (CC BY-NC-SA 3.0 FR) ",
    "licence_url": "https:\/\/creativecommons.org\/licenses\/by-nc-sa\/3.0\/fr\/",
    "elements": [
        {
            "type": "pape",
            "value": "Beno\u00eet XI (1303-1304)"
        },
        {
            "type": "destinataire",
            "value": "L'\u00e9v\u00eaque de Trente Bartolomeo"
        },
        {
            "type": "date_libre",
            "value": "IIII idus januarii, anno primo"
        },
        {
            "type": "date",
            "value": "1304\/01\/10",
            "children": {
                "date_deb_annee": "1304",
                "date_deb_mois": "01",
                "date_deb_jour": "10"
            },
            "range": {
                "date_apres": 13040110,
                "date_avant": 13040110
            }
        },
        {
            "type": "date_lieu",
            "value": "Latran"
        },
        {
            "type": "genre",
            "value": "Titre, g\u00e9n\u00e9ral (littere gratiose, cum filo serico)"
        },
        {
            "type": "analyse",
            "value": "Benedetto XI pone Bartolomeo, gi\u00e0 vescovo di Novara, a capo della Chiesa di Trento, dopo che il predecessore Filippo \u00e8 stato trasferito a Mantova."
        },
        {
            "type": "sources_manuscrites",
            "value": "R. CIT\u00c9 DU VATICAN, Archivio segreto Vaticano, <i>Registra Vaticana<\/i> 51, ep. CCIIII, fol. 52.",
            "children": {
                "type_source": "Registre de la chancellerie apostolique"
            }
        },
        {
            "type": "edition",
            "value": "Ici reprise d\u2019Emanuele Curzel, <i>Documenti papali per la storia trentina (fino al 1341)<\/i>, Bologne, 2004 (Annali dell\u2019Istituto storico italo-germanico. Fonti ; 1), n. 97, p. 191-192, d\u2019apr\u00e8s R."
        },
        {
            "type": "regeste",
            "value": "Charles Grandjean, <i>Le Registre de Beno\u00eet XI (1303-1304)<\/i> (Biblioth\u00e8que des \u00c9coles Fran\u00e7aises d\u2019Ath\u00e8nes et de Rome), Paris 1883-1905, n. 224 <a target=\"_blank\" href=\" https:\/\/gallica.bnf.fr\/ark:\/12148\/bpt6k857158t\/f101.image\"> [en ligne]<\/a>."
        },
        {
            "type": "transcription",
            "value": "<?xml version=\"1.0\" encoding=\"UTF-8\"?>\nVenerabili fratri Bartholomeo, episcopo Tridentino. Dum ad universas orbis ecclesias, iuxta pastoralis officii debitum, apostolice vertimus considerationis intuitum, illarum propensius sollicitudo nos angit quas propriis pastoribus destitutas vacantium exponi conspicimus detrimentis, ut eis, nostro cooperante studio, nunc per simplicis provisionis officium, nunc per ministerium translationis accomode, prout illarum utilitas persuadet, pastores preficiant ydonei, sub quorum regimine votivis successibus gratulentur. Sane Tridentina ecclesia per translationem bone memorie Phylippi Mantuani, tunc Tridentini, episcopi factam per nos ad ecclesiam Mantuanam vacante, nos, provisionem dicte ecclesie Tridentine ea vice dispositioni sedis apostolice reservantes, decrevimus ex tunc irritum et inane si secus super hoc a quoquam, scienter vel ignoranter, contingeret attemptari ac deinde, ad provisionem dicte ecclesie Tridentine sollicite intendentes, post deliberationem quam super hoc habuimus cum nostris fratribus, diligenter consideratis munimibus gratiarum quibus illarum Dominus personam tuam multipliciter insignivit, ad te, quem litterarum scientia, morum gravitas, nobilitas generis, provida spiritualium et temporalium circumspectio recommendant, direximus oculos nostre mentis, quibus omnibus diligenti meditatione pensatis, te a vinculo quo teneris ecclesie Novariensi prorsus absolvimus et ad prefatam ecclesiam Tridentinam transferimus, de fratrum predictorum consilio et apostolice plenitudine potestatis, preficiendo te ipsi Tridentine ecclesie in episcopum et pastorem plenamque tibi concedendo licentiam ad eandem Tridentinam ecclesiam libere transeundi, in illo qui dat gratias et largitur premia, confidentes quod eadem Tridentina ecclesia sub tuo felici regimine, gratia tibi suffragante divina, salubriter et prospere dirigetur ac in spiritualibus et temporalibus, auctore Domino, gratias proficiet incrementis, suscipiens itaque reverenter impositum a Domino tibi onus, sollicitam ipsius Tridentine ecclesie curam geras, gregem dominicum in illa tue gubernationi comissum doctrina verbi et operis, iuxta datam tibi ex alto prudentiam informando, ita quod eadem ecclesia Tridentina, per tue vigilantie studium, optatis proficiat comodis et successibus prosperis augeatur. Datum Laterani, IIII idus ianuarii, anno primo.  In eodem modo dilectis filiis capitulo ecclesie Tridentine et cetera, dum ad universas et cetera, ut in proxima superiori, verbis competenter mutatis, usque proficiet incrementis. Quocirca universitati vestre per apostolica scripta mandamus quatinus, eidem episcopo tanquam patri et pastori animarum vestrarum plene ac humiliter intendentes et exhibentes eidem obedientiam et reverentiam debitam et devotam, eius salubria monita et mandata recipitis ilariter et efficaciter adimplere curetis, alioquin sententiam quam ipse rite tulerit in rebelles ratam habebimus et faciemus, auctore Domino, usque ad satisfactionem condignam inviolabiliter observari. Datum ut supra.  In eodem modo dilectis filiis clero civitatis et diocesis Tridentine. Datum ut supra.  In eodem modo dilectis filiis populo civitatis et diocesis Tridentine et cetera. Dum ad universas et cetera, usque proficiet incrementis. Quocirca universitati vestre rogamus, monemus et hortamur attente per apostolica vobis scripta, mandantes quatinus, eundem episcopum tanquam patrem et pastorem animarum vestrarum devote recipientes et honeste tractantes, eius monitis et mandatis salubribus plene ac humiliter intendatis, ita quod ipse in vobis devotionis filios invenisse letetur vosque patrema habeatis in eo assidue gratiosum. Datum ut supra. In eodem modo dilectis filiis universis vassallis ecclesie Tridentine et cetera. Dum ad universas et cetera, usque proficiet incrementis. Quocirca universitati vestre rogamus, monemus et hortamur attente per apostolica vobis scripta, mandantes quatinus eundem episcopum honorificentia debita prosequi studeatis, cuius salubria monita et mandata suscipiendo ilariter et efficaciter adimplendo ac exhibentes eidem fidelitatis debite solitum iuramentum, consueta sibi exhibire servitia et de iuribus et redditibus ei debitis plenarie respondere curetis, ita quod ipse in vobis devotionis filios invenisse letetur vosque patrem habeatis in eo assidue gratiosum, alioquin sententiam sive penam quam ipse spiritualiter et temporaliter rite tulerit vel statueritb et cetera. Datum ut supra.\n"
        },
        {
            "type": "apparat_critique",
            "value": "i(n) <i>suit, ray\u00e9<\/i>.",
            "children": {
                "numero_note": "a"
            }
        },
        {
            "type": "apparat_critique",
            "value": "statu(er)it <i>R<\/i>.",
            "children": {
                "numero_note": "b"
            }
        }
    ]
}