{
    "id": 25132,
    "name": "aposcripta-2229",
    "type": "acte",
    "url": "http:\/\/telma-chartes.irht.cnrs.fr\/aposcripta\/notice\/25132",
    "project_slug": "aposcripta",
    "project_label": "APOSCRIPTA \u2013 Lettres des papes",
    "user": "lettrespontificalesadmin",
    "last_update": "2020-10-19 16:27:40",
    "licence": "Attribution - Pas d\u2019Utilisation Commerciale - Partage dans les M\u00eames Conditions 3.0 France (CC BY-NC-SA 3.0 FR) ",
    "licence_url": "https:\/\/creativecommons.org\/licenses\/by-nc-sa\/3.0\/fr\/",
    "elements": [
        {
            "type": "pape",
            "value": "Alexandre IV (1254-1261)"
        },
        {
            "type": "destinataire",
            "value": "Autun (Saint-Martin) ( abbaye de)",
            "children": {
                "numero_note": "0"
            }
        },
        {
            "type": "date_lieu",
            "value": "Latran"
        },
        {
            "type": "date_libre",
            "value": "1256, 5 d\u00e9cembre"
        },
        {
            "type": "date",
            "value": " 1256\/12\/05",
            "children": {
                "date_deb_annee": "1256",
                "date_deb_mois": "12",
                "date_deb_jour": "05"
            },
            "range": {
                "date_apres": 12561205,
                "date_avant": 12561205
            }
        },
        {
            "type": "analyse",
            "value": "Alexandre 2 pape<br\/>Bulle du pape Alexandre IV, par laquelle il commet l\u2019abb\u00e9 de Saint-Martin de Nevers pour examiner un rescrit de Rome obtenu par l\u2019\u00e9v\u00eaque d\u2019Autun touchant l\u2019exemption de Saint-Martin d\u2019Autun, sans avoir d\u00e9clar\u00e9 qu\u2019il y avait litige \u00e0 ce sujet entre les parties."
        },
        {
            "type": "transcription",
            "value": "<?xml version=\"1.0\" encoding=\"UTF-8\"?>\nAlexander episcopus, servus servorum Dei, dilecto filio abbati S. Martini Nivernensis salutem et apostolicam benedictionem. Sicut dilecti filii abbas, capellanus noster, et conventus monasterii S. Martini Eduensis, ordinis S. Benedicti, petitione monstrarant cum inter ipsos parte una et venerabilem fratrem nostrum episcopum Eduensem pendente lite hujus modi quasdam contra eos prejudiciales litteras et indulgentias nullam facientes mentionem quod lis sic penderet \u00e0 sede apostolica super hiis dicitur impetrasse; quare iidem abbas et conventus nobis humiliter supplicarunt ut in hac parte indempnitati ejusdem monasterii paterna precavere sollicitudine curaremus. Cum igitur, lite pendente, nihil debeat innovari, discretioni tue per apostolica scripta mandamus, quantum si est ita, indulgentias et litteras hujusmodi contra eos sic impetratas vel etiam impetrandas ab ipso episcopo, hujusmodi lite pendente, et processus, si qui sunt habiti per easdem, auctoritate nostra denunties irritas et inanes, contradictores per censuram ecclesiasticam appellatione postposita compescendo. Datum Lateranni..... nonas decembris, pontificatus nostri anno secundo.\n"
        },
        {
            "type": "edition",
            "value": "Ici tir\u00e9e du projet <i>CBMA - Corpus Burgundiae Medii Aevi<\/i>, document 1376. Site du projet Corpus de la Bourgogne du Moyen \u00c2ge, [En ligne] <a href=\"http:\/\/www.cbma-project.eu\" target=\"_blank\">http:\/\/www.cbma-project.eu<\/a>  "
        },
        {
            "type": "sources_manuscrites",
            "value": "\u00e0 renseigner."
        },
        {
            "type": "remarques",
            "value": ""
        },
        {
            "type": "edition_autre",
            "value": "Ici reprise de Jacques-Gabriel Bulliot, <i>Essai historique sur l'abbaye de Saint-Martin d'Autun, de l'ordre de saint Beno\u00eet<\/i>, Autun\u00a0: Dejussieu, 1849 <a href=\"https:\/\/archive.org\/details\/essaihistorique00bullgoog\" target=\"_blank\">[en ligne]<\/a>, p. 98-99, n\u00b0 64.",
            "children": {
                "numero_note": "0"
            }
        },
        {
            "type": "genre",
            "value": "Bulle"
        }
    ]
}