{
    "id": 20710,
    "name": "aposcripta-697",
    "type": "acte",
    "url": "http:\/\/telma-chartes.irht.cnrs.fr\/aposcripta\/notice\/20710",
    "project_slug": "aposcripta",
    "project_label": "APOSCRIPTA \u2013 Lettres des papes",
    "user": "lettrespontificalesadmin",
    "last_update": "2020-10-19 16:26:52",
    "licence": "Attribution - Pas d\u2019Utilisation Commerciale - Partage dans les M\u00eames Conditions 3.0 France (CC BY-NC-SA 3.0 FR) ",
    "licence_url": "https:\/\/creativecommons.org\/licenses\/by-nc-sa\/3.0\/fr\/",
    "elements": [
        {
            "type": "pape",
            "value": "Eug\u00e8ne III (1145-1153)"
        },
        {
            "type": "date_lieu",
            "value": "Viterbe"
        },
        {
            "type": "date_libre",
            "value": "III idus novembris"
        },
        {
            "type": "analyse",
            "value": "Eugenius\u00a0III Raimundum episcopum et archidiaconos Magalonenses hortatur, ne abbatem Anianensem in meliorandis monasterii possessionibus apud S. Aricium sitis prohibeant vel ab aliis prohiberi sinant."
        },
        {
            "type": "transcription",
            "value": "<?xml version=\"1.0\" encoding=\"UTF-8\"?>\nEugenius episcopus, servus servorum Dei, venerabili fratri R[aimundo] episcopo et archidiaconis Magalonensis ecclesiae salutem et apostolicam benedictionem. Filius noster G(uilelmus) abbas Anianensis monasterii cum quibusdam fratribus suis venit ad nostram praesentiam et sedis apostolicae patrocinium a praedecessoribus nostris Anianensi monasterio iam diu concessum a nobis suppliciter impetravit. Inter cetera vero ecclesiae suae negotia significavit nobis, quod in quadam possessione sui monasterii, quae apud S. Aricium sita est, coelificia facere et ea ad utilitatem ipsius monasterii meliorare intendit, sed a quibusdam illius terrae hominibus prohibetur. Ideoque per apostolica vobis scripta praecipiendo mandamus quatenus possessionem ipsam ad commodum ipsius monasterii legitime meliorare nec ipsi prohibeatis nec ab aliis prohiberi vel impediri permittatis. Si quis autem hoc temere impedire praesumpserit, debitam de ipso iustitiam faciatis. Datum Viterbii, III idus novembris.\n"
        },
        {
            "type": "edition",
            "value": "Samuel Loewenfeld, <i>Epistolae pontificum romanorum ineditae<\/i>, Leipzig : Veit et Comp., 1885, n. 198, p. 103"
        },
        {
            "type": "sources_manuscrites",
            "value": "F. FRANCE, Paris, Biblioth\u00e8que nationale de France, ms. lat. 12760 (s. XVII), fol.\u00a0325.",
            "children": {
                "type_source": "Copie moderne"
            }
        },
        {
            "type": "sources_manuscrites",
            "value": "G. FRANCE, Paris, Biblioth\u00e8que nationale de France, ms. lat. 13816 (s. XVII), fol.\u00a078.",
            "children": {
                "type_source": "Copie moderne"
            }
        },
        {
            "type": "date",
            "value": "1146\/11\/11",
            "children": {
                "date_deb_annee": "1146",
                "date_deb_mois": "11",
                "date_deb_jour": "11"
            },
            "range": {
                "date_apres": 11461111,
                "date_avant": 11461111
            }
        },
        {
            "type": "genre",
            "value": "Mandement (littere cum filo canapis)"
        }
    ]
}