{
    "id": 25393,
    "name": "aposcripta-2490",
    "type": "acte",
    "url": "http:\/\/telma-chartes.irht.cnrs.fr\/aposcripta\/notice\/25393",
    "project_slug": "aposcripta",
    "project_label": "APOSCRIPTA \u2013 Lettres des papes",
    "user": "lettrespontificalesadmin",
    "last_update": "2020-10-19 16:27:44",
    "licence": "Attribution - Pas d\u2019Utilisation Commerciale - Partage dans les M\u00eames Conditions 3.0 France (CC BY-NC-SA 3.0 FR) ",
    "licence_url": "https:\/\/creativecommons.org\/licenses\/by-nc-sa\/3.0\/fr\/",
    "elements": [
        {
            "type": "pape",
            "value": "Urbain III (1185-1187)"
        },
        {
            "type": "destinataire",
            "value": " L'abb\u00e9 de Cluny Hugues ",
            "children": {
                "numero_note": "0"
            }
        },
        {
            "type": "date_lieu",
            "value": "V\u00e9rone"
        },
        {
            "type": "date_libre",
            "value": "1186-1187, 23 ao\u00fbt"
        },
        {
            "type": "date",
            "value": "apr\u00e8s 1186\/08\/23 - avant 1187\/08\/23",
            "children": {
                "date_deb_annee": "1186",
                "date_deb_mois": "08",
                "date_deb_jour": "23",
                "date_deb_type": "apr\u00e8s",
                "date_fin_annee": "1187",
                "date_fin_mois": "08",
                "date_fin_jour": "23",
                "date_fin_type": "avant"
            },
            "range": {
                "date_apres": 11860823,
                "date_avant": 11870823
            }
        },
        {
            "type": "analyse",
            "value": "X pape<br\/>BULLA URBANI PAP\u00c6 III, QUA CONFIRMAT TRANSACTIONES FACTAS INTER CONVENTUM SANCTI SALVATORIS NIVERNENSIS PETRUMQUE COMITEM NIVERNENSEM, ET INTER PRIORATUM DE AMBERTA ARTALDUMQUE ALBUM, DOMINUM CASTRI NOVI."
        },
        {
            "type": "transcription",
            "value": "<?xml version=\"1.0\" encoding=\"UTF-8\"?>\nUrbanus, etc. Hugoni abbati et conventui Clun. etc. Quanto specialius cenobium vestrum, etc..... existere promptiores. Pervenit autem ad nos quod, cum nobilis vir P[etrus], Nivernensis comes, monasterio vestro Sancti Stephani Nivernensis multa dampna et injurias intulisset, tandem, litterarum nostrarum auctoritate commonitus, a suo facto resipuit, et libertatem burgi predicti Sancti Stephani Nivernensis, prout debuit, recognovit, et eam se promisit, juramento prestito, servaturum; compositionem quoque ab eodem comite et Agnete, uxore ejus, cum fratribus vestris predicti Sancti Stephani amicabiliter factam ad memoriam futurorum scriptis autenticis roborarunt, quam karissimus in Christo filius noster Philippus, illustris Francorum rex, ratam habuit, et nichilominus sui scripti munimine confirmavit. Nos itaque, vestris postulationibus annuentes, compositionem illam, sicut inter prefatos fratres vestros et jam dictum comitem et uxorem ejus, de assensu partium facta est, et non solum eorum, sed etiam ipsius regis scriptis autenticis roborata, ratam habemus, eamque futuris temporibus manere decernimus illibatam. Ad hec compositionem inter Artaldum Album, dominum Castri Novi, et fratres vestros de Amberta super multis dampnis et gravaminibus, que eis irrogaverat, initam, sicut de assensu partium facta est, et in predicti viri autentico continetur, ne processu temporis rescindatur, ad peticionem vestram similiter ratam habemus, eamque auctoritate nostra et presentis scripti patrocinio communimus. Statuentes, etc. Si quis, etc. Datum Verone, X kal. septembris. Edition \u00e0 refaire sur l'original en ligne :   Urbanus episcopus, servus servorum Dei, dilectis filiis Hugoni abbati et conventui Cluniacensibus, salutem et apostolicam benedictionem. Quanto specialius cenobium vestrum beati Petri juris existit et ad nostram provisionem nullo mediante pertinet et tutelam ac vos et predecessores vestri, in eo celestis magisterio subditi discipline, per infusionem Sancti Spiritus odorem honestatis et religionis in vestro hactenus ordine observate latius expandistis tanto ad conservandum jura vestra illesa et justas devotionis vestre petitiones benignius admittendas tenemur existere promptiores. Pervenit ad nos autem quod cum nobilis vir P[etrus] Nivernensis comes monasterio vestro Sancti Stephani Nivernensis multa dampna...... \u00e9d. A CONTINUER ...auctoritate nostra et presentis scripti patrocinio communimus, statuentes ut nulli omnino hominum liceat hanc paginam nostre confirmationis infringere vel ei ausu temerario contraire. Si quis autem hoc attentare presumpserit, indignationem omnipotentis Dei et beatorum Petri et Pauli apostolorum ejus se noverit incursurum. Datum Verone, X kalendas septembris.\n"
        },
        {
            "type": "edition",
            "value": "Ici tir\u00e9e du projet <i>CBMA - Corpus Burgundiae Medii Aevi<\/i>, document 5751. Site du projet Corpus de la Bourgogne du Moyen \u00c2ge, [En ligne] <a href=\"http:\/\/www.cbma-project.eu\" target=\"_blank\">http:\/\/www.cbma-project.eu<\/a>  "
        },
        {
            "type": "sources_manuscrites",
            "value": "E. FRANCE, Paris, Biblioth\u00e8que nationale de France, N. acq. lat. ms 2265 (Collection de 274 chartes ou pi\u00e8ces, la plupart originales, du XII<sup>e<\/sup> au XVIII<sup>e<\/sup> si\u00e8cle, provenues des archives de Cluny) <a href=\"https:\/\/gallica.bnf.fr\/ark:\/12148\/btv1b10035213t\/f33.image\" target=\"_blank\">[en ligne]<\/a>. "
        },
        {
            "type": "remarques",
            "value": "\r\n\r\n (Bibl. nat. lat. nouv acq.\u00a02265, n\u00ba\u00a013.)"
        },
        {
            "type": "edition_autre",
            "value": "Ici reprise de Auguste Bernard, Alexandre Bruel, <i>Recueil des chartes de l'abbaye de Cluny<\/i>. V. <i>1091-1210<\/i>, Paris\u00a0: Imprimerie nationale, 1894 <a href=\"http:\/\/gallica.bnf.fr\/ark:\/12148\/bpt6k28911f?rk=64378;0\" target=\"_blank\">[en ligne]<\/a>, p. 671-672, n\u00b0 4312",
            "children": {
                "numero_note": "0"
            }
        },
        {
            "type": "genre",
            "value": "Privil\u00e8ge mineur (avant 1198)"
        }
    ]
}