{
    "id": 145162,
    "name": "aposcripta-5835",
    "type": "acte",
    "url": "http:\/\/telma-chartes.irht.cnrs.fr\/aposcripta\/notice\/145162",
    "project_slug": "aposcripta",
    "project_label": "APOSCRIPTA \u2013 Lettres des papes",
    "user": "l_valliere",
    "last_update": "2020-10-19 16:39:06",
    "licence": "Attribution - Pas d\u2019Utilisation Commerciale - Partage dans les M\u00eames Conditions 3.0 France (CC BY-NC-SA 3.0 FR) ",
    "licence_url": "https:\/\/creativecommons.org\/licenses\/by-nc-sa\/3.0\/fr\/",
    "elements": [
        {
            "type": "pape",
            "value": "Jean XXII (1316-1334)"
        },
        {
            "type": "destinataire",
            "value": "Le chanoine de Notre-Dame de Fano Muzolo <i>Angeletti<\/i> de Fano"
        },
        {
            "type": "date_libre",
            "value": "V kalendas iunii, anno primo"
        },
        {
            "type": "date",
            "value": "1317\/05\/28",
            "children": {
                "date_deb_annee": "1317",
                "date_deb_mois": "05",
                "date_deb_jour": "28"
            },
            "range": {
                "date_apres": 13170528,
                "date_avant": 13170528
            }
        },
        {
            "type": "date_lieu",
            "value": "Avignon"
        },
        {
            "type": "genre",
            "value": "Titre, provisions de b\u00e9n\u00e9fice (littere gratiose, cum filo serico)"
        },
        {
            "type": "analyse",
            "value": "Giovanni XXII a Muzolo Angelleti da Fano: gli conferisce un canonicato nella chiesa di Fano ; Uomo de Peretulo, canonico di Trento, \u00e8 tra gli incaricati della messa in possesso."
        },
        {
            "type": "sources_manuscrites",
            "value": "R<sup>1<\/sup>. CIT\u00c9 DU VATICAN, Archivio segreto Vaticano, <i>Registra Avenionensia<\/i> 6, MMMCLVII, fol. 360v (cancel\u00e9e ; taxe : X, XII).",
            "children": {
                "type_source": "Registre de la chancellerie apostolique"
            }
        },
        {
            "type": "sources_manuscrites",
            "value": "R<sup>2<\/sup>. CIT\u00c9 DU VATICAN, Archivio segreto Vaticano, <i>Registra Vaticana<\/i> 66, fol. 44.",
            "children": {
                "type_source": "Registre de la chancellerie apostolique"
            }
        },
        {
            "type": "edition",
            "value": "Ici reprise de celle, partielle, d\u2019Emanuele Curzel, <i>Documenti papali per la storia trentina (fino al 1341)<\/i>, Bologne, 2004 (Annali dell\u2019Istituto storico italo-germanico. Fonti ; 1), n. 139, p. 230, d\u2019apr\u00e8s R1 et R2."
        },
        {
            "type": "regeste",
            "value": "Guillaume Mollat, <i>Jean XXII (1316-1334). Lettres communes<\/i> (Biblioth\u00e8que des \u00c9coles Fran\u00e7aises d\u2019Ath\u00e8nes et de Rome), Paris, 1904-1947, n. 3937."
        },
        {
            "type": "transcription",
            "value": "<?xml version=\"1.0\" encoding=\"UTF-8\"?>\nDilecto filio Muzoloa Angelletib de Fano, canonico ecclesie Beate Marie Fanensis. Digne agere credimus et cetera [...]. Canonicatum ecclesie Beate Marie Fanensis [...]. Datum Avinione, V kalendas iunii, anno primo.  In eodem modo dilectis filiis .. abbati monasteriic Sancti Paternianid et .. priori Sancti Michaelis Fanensis ac magistro Homini de Peretulo canonico Tridentino, saluteme. Digne agere credimus [...]. Datum ut supra.\n"
        },
        {
            "type": "apparat_critique",
            "value": "Mux <i>suit, supprim\u00e9, R1<\/i>.",
            "children": {
                "numero_note": "a"
            }
        },
        {
            "type": "apparat_critique",
            "value": "Angelliti <i>R2<\/i>.",
            "children": {
                "numero_note": "b"
            }
        },
        {
            "type": "apparat_critique",
            "value": "monasterii <i>dans l'interligne R1<\/i>.",
            "children": {
                "numero_note": "c"
            }
        },
        {
            "type": "apparat_critique",
            "value": "Patermani <i>Mollat<\/i>.",
            "children": {
                "numero_note": "d"
            }
        },
        {
            "type": "apparat_critique",
            "value": "et cetera <i>ajout\u00e9 R2<\/i>.",
            "children": {
                "numero_note": "e"
            }
        }
    ]
}