{
    "id": 24060,
    "name": "aposcripta-1212",
    "type": "acte",
    "url": "http:\/\/telma-chartes.irht.cnrs.fr\/aposcripta\/notice\/24060",
    "project_slug": "aposcripta",
    "project_label": "APOSCRIPTA \u2013 Lettres des papes",
    "user": "lettrespontificalesadmin",
    "last_update": "2020-10-19 16:27:22",
    "licence": "Attribution - Pas d\u2019Utilisation Commerciale - Partage dans les M\u00eames Conditions 3.0 France (CC BY-NC-SA 3.0 FR) ",
    "licence_url": "https:\/\/creativecommons.org\/licenses\/by-nc-sa\/3.0\/fr\/",
    "elements": [
        {
            "type": "pape",
            "value": "Calixte II (1119-1124)"
        },
        {
            "type": "date_lieu",
            "value": "Tivoli"
        },
        {
            "type": "date_libre",
            "value": "21\u00a0juin 1121"
        },
        {
            "type": "date",
            "value": " 1121\/06\/21",
            "children": {
                "date_deb_annee": "1121",
                "date_deb_mois": "06",
                "date_deb_jour": "21"
            },
            "range": {
                "date_apres": 11210621,
                "date_avant": 11210621
            }
        },
        {
            "type": "analyse",
            "value": "Calixte\u00a0II \u00e9crit \u00e0 Aton, archev\u00eaque d\u2019Arles, Fulcon, archev\u00eaque d\u2019Aix, B\u00e9renger, archev\u00eaque de Narbonne, et Galtier, \u00e9v\u00eaque de Maguelone, leur ordonnant d\u2019excommunier Alphonse, comte de Toulouse, et ses compagnons, si, dans quarante jours, ils n\u2019ont pas r\u00e9par\u00e9 les dommages qu\u2019ils ont caus\u00e9s au monast\u00e8re de Saint-Gilles."
        },
        {
            "type": "transcription",
            "value": "<?xml version=\"1.0\" encoding=\"UTF-8\"?>\nCalixtus episcopus, servus servorum Dei, venerabilibus fratribus et coepiscopis, Atoni Arelatensi, Fulconi Aquensi, Berengario Narbonensi et Galterio Magalonensi, salutem et apostolicam benedictionem.Abbatis [Hugonis] et fratrum S. Egydii querelam accepimus, quod Ildefonsus, comes, parrochianorum vestrorum Raimundi de Balcio, Elesiari de Castrias, Guillelmi Rainoardi de Merenas consilio et auxilio, ecclesiam et burgum Sancti Egydii armata manu invaserit, incendia ibi et homicidia fecerit, et burgenses ad perjurium contra monasterii fidelitatem coegerit.Rogamus itaque fraternitatem vestram atque monemus, ut comitem et alios ex parte nostra diligentius moneatis, quatinus monasterium et burgum abbati et fratribus liberum quietumque dimittant\u00a0; et comes castrum noviter ad destructionem ville constructum destruat, et eidem monasterio de ablatis rebus et de illatis injuriis vestro judicio satisfaciat.Quod si, infra xl dies, post litterarum nostrarum acceptionem, minime adimpleverit, nos in eos excommunicationis sententiam, donec satisfaciant, promulgamus\u00a0; et in eorum terram divina omnia officia et sepulturam, preter infantium baptisma et morientium penitentias, interdicimus\u00a0; loca etiam ad quecumque ipsi pervenerint, quamdiu in eis fuerint, a divinis omnino precipimus vacare officiis.Data in territorio Tiburtino, xi kalendas julii.\n"
        },
        {
            "type": "edition",
            "value": "Julien Rouquette, Augustin Villemagne, <i>Bullaire de l'\u00c9glise de Maguelone<\/i>, Paris, Montpellier : Picard, Valat, 1911-1914, I, n. 21, p. 38-38"
        },
        {
            "type": "remarques",
            "value": ""
        },
        {
            "type": "genre",
            "value": "Mandement (littere cum filo canapis)"
        },
        {
            "type": "regeste",
            "value": "Ulysse Robert, <i>Etude sur les actes du pape Calixte II<\/i>, Paris, 1874, n. 175, p. 92-93 <a target=\"_blank\" href=\"https:\/\/archive.org\/stream\/EtudeSurLesActesDuPapeCalixteII\/Etude_sur_les_actes_du_pape_Calixte_II#page\/n97\/mode\/2up\"> [en ligne]<\/a>."
        },
        {
            "type": "sources_manuscrites",
            "value": "F. FRANCE, Paris, Biblioth\u00e8que nationale, Latin 11018, fol. 49v-50r <a target=\"_blank\" href=\" https:\/\/gallica.bnf.fr\/ark:\/12148\/btv1b10542207v\/f106.image.r=latin%2011018\"> [en ligne]<\/a>. ",
            "children": {
                "type_source": "Formulaire, collection de lettres m\u00e9di\u00e9vale"
            }
        },
        {
            "type": "regeste",
            "value": "Philippe Jaff\u00e9, <i>Regesta pontificum Romanorum<\/i>, 2 vol., Leipzig, 1885-1888, I, n. 6913 <a target=\"_blank\" href=\" https:\/\/gallica.bnf.fr\/ark:\/12148\/bpt6k55983718\/f836.item\"> [en ligne]<\/a>."
        },
        {
            "type": "edition_autre",
            "value": "abb\u00e9 Goiffon, <i>Bullaire de l\u2019abbaye de Saint-Gilles<\/i>, N\u00eemes\u00a0: P. Jouve, 1882, XL, p. 59-60 <a target=\"_blank\" href=\" https:\/\/gallica.bnf.fr\/ark:\/12148\/bpt6k111623c\/f62.image\"> [en ligne]<\/a>."
        },
        {
            "type": "edition_autre",
            "value": "Martin Bouquet, <i>Recueil des historiens des Gaules et de la France<\/i>, Paris, 1869-1904, t. XV, XXI, p. 239 <a target=\"_blank\" href=\"https:\/\/gallica.bnf.fr\/ark:\/12148\/bpt6k501337\/f276.image\"> [en ligne]<\/a>."
        },
        {
            "type": "edition_autre",
            "value": "L\u00e9on M\u00e9nard, <i>Histoire civile, eccl\u00e9siastique et litt\u00e9raire de la ville de Nismes<\/i>, Paris, 1744-1758, t. I, preuves, c. XVI, p. 30 <a target=\"_blank\" href=\" https:\/\/gallica.bnf.fr\/ark:\/12148\/bpt6k58468064\/f649.image\"> [en ligne]<\/a>."
        },
        {
            "type": "edition_autre",
            "value": "Jacques Paul Migne, <i>Patrologia latina<\/i>, t. 163, <i>Paschalis II, Gelasii II, Calixti II romanorum pontificum epistolae et privilegia<\/i>, col. 1211-1212, n. 139, <a target=\"_blank\" href=\" https:\/\/archive.org\/stream\/patrologiaecurs40unkngoog#page\/n610\"> [en ligne]<\/a>."
        },
        {
            "type": "edition_autre",
            "value": "Ulysse Robert, <i>Bullaire du pape Calixte II, 1119-1124. Essai de restitution<\/i>, 2 t., Paris, 1891, I. p. 356-357 <a target=\"_blank\" href=\" https:\/\/gallica.bnf.fr\/ark:\/12148\/bpt6k855876c\/f482.image\"> [en ligne]<\/a>."
        }
    ]
}