{
    "id": 20283,
    "name": "aposcripta-270",
    "type": "acte",
    "url": "http:\/\/telma-chartes.irht.cnrs.fr\/aposcripta\/notice\/20283",
    "project_slug": "aposcripta",
    "project_label": "APOSCRIPTA \u2013 Lettres des papes",
    "user": "lettrespontificalesadmin",
    "last_update": "2020-10-19 16:26:47",
    "licence": "Attribution - Pas d\u2019Utilisation Commerciale - Partage dans les M\u00eames Conditions 3.0 France (CC BY-NC-SA 3.0 FR) ",
    "licence_url": "https:\/\/creativecommons.org\/licenses\/by-nc-sa\/3.0\/fr\/",
    "elements": [
        {
            "type": "pape",
            "value": "Jean XXII (1316-1334)"
        },
        {
            "type": "date_lieu",
            "value": "Avignon"
        },
        {
            "type": "date_libre",
            "value": "14 juin 1331"
        },
        {
            "type": "analyse",
            "value": "Aveux et r\u00e9tractation de Rapha\u00ebl Suppa, fraticelle, devant le pape Jean XXII ; son absolution et sa r\u00e9conciliation."
        },
        {
            "type": "transcription",
            "value": "<?xml version=\"1.0\" encoding=\"UTF-8\"?>\nActa fuerunt hec anno, indictione, die, mense, pontificatu et loco quibus supra, presentibus venerabilibus viris dominis Gasberto, archiepiscopo Arelatensi, camerario, Bernardo Stephani, notario, Francone de Bort, milite, Hugone Ademarii, domicello, magistris hostiariis domini nostri pape, et aliorum fidelium multitudine copiosa, testibus ad premissa vocatis. Et ego Guillelmus de Petrilia, Caturcensis diocesis, Camere domini pape clericus, auctoritate apostolica publicus notarius, dictis supplicationi, iuramentorum prestationi, absolutioni, dispensationi, commissioni et omnibus aliis supradictis una cum predictis testibus presens fui et huic publico instrumento, manu Johannis Palaysini, clerici dicte Caturcensis diocesis, auctoritate apostolica notarii publici, vice mea scripto, me supscripsi et ipsum meo signo solito signavi requisitus.\n"
        },
        {
            "type": "edition",
            "value": "Jean-Marie Vidal, <i>Bullaire de l\u2019Inquisition fran\u00e7aise au XIV<sup>e<\/sup> si\u00e8cle et jusqu'\u00e0 la fin du Grand Schisme<\/i>, Paris : Letouzey et An\u00e9, 1913, n. 111 bis, p. 172-174"
        },
        {
            "type": "sources_manuscrites",
            "value": "<i>Diversorum Miscell.<\/i>, armar. XXXIV, t. <span class=\"smal-caps\">ii<\/span>, fol. 33."
        },
        {
            "type": "date",
            "value": "1331\/06\/14",
            "children": {
                "date_deb_annee": "1331",
                "date_deb_mois": "06",
                "date_deb_jour": "14"
            },
            "range": {
                "date_apres": 13310614,
                "date_avant": 13310614
            }
        },
        {
            "type": "genre",
            "value": "Bulle"
        }
    ]
}