{
    "id": 23873,
    "name": "aposcripta-1059",
    "type": "acte",
    "url": "http:\/\/telma-chartes.irht.cnrs.fr\/aposcripta\/notice\/23873",
    "project_slug": "aposcripta",
    "project_label": "APOSCRIPTA \u2013 Lettres des papes",
    "user": "j_theryastruc",
    "last_update": "2020-10-19 16:27:19",
    "licence": "Attribution - Pas d\u2019Utilisation Commerciale - Partage dans les M\u00eames Conditions 3.0 France (CC BY-NC-SA 3.0 FR) ",
    "licence_url": "https:\/\/creativecommons.org\/licenses\/by-nc-sa\/3.0\/fr\/",
    "elements": [
        {
            "type": "pape",
            "value": "Gr\u00e9goire IX (1227-1241)"
        },
        {
            "type": "destinataire",
            "value": "Les pr\u00e9lats du royaume de France et des provinces circumvoisines"
        },
        {
            "type": "date_libre",
            "value": "XII kalendas maii, anno septimo"
        },
        {
            "type": "date",
            "value": "1233\/04\/20",
            "children": {
                "date_deb_jour": "20",
                "date_deb_mois": "04",
                "date_deb_annee": "1233"
            },
            "range": {
                "date_apres": 12330420,
                "date_avant": 12330420
            }
        },
        {
            "type": "date_lieu",
            "value": "Latran"
        },
        {
            "type": "analyse",
            "value": "Gr\u00e9goire [IX], d\u00e9sirant combattre l'h\u00e9r\u00e9sie qui a fait des progr\u00e8s inqui\u00e9tants, informe les archev\u00eaques et \u00e9v\u00eaques de France et des provinces voisines qu'en raison du poids de leurs nombreuses charges, il a confi\u00e9 la lutte contre les h\u00e9r\u00e9tiques aux fr\u00e8res Pr\u00eacheurs, particuli\u00e8rement qualifi\u00e9s pour ce r\u00f4le ; il les exhorte \u00e0 leur apporter le concours n\u00e9cessaire \u00e0 l'accomplissement de leurs t\u00e2ches [Dossat]. \nEl papa Gregori IX informa als arquebisbes i bisbes de Fran\u00e7a i de les prov\u00edncies ve\u00efnes que ha confiat la lluita contra els heretges als frares predicadors, particularment qualificats per a aquesta tasca, i els exhorta a aportar l\u2019ajuda necess\u00e0ria per a acomplir-la [Torras, Berga, Cingolani]. "
        },
        {
            "type": "edition",
            "value": "Ici reprise d'Yves Dossat, <i>Les crises de l'Inquisition toulousaine au XIII<sup>e<\/sup> si\u00e8cle (1233-1273)<\/i>, Bordeaux, Bi\u00e8re, 1959, n. 1, p. 325-327, d'apr\u00e8s F."
        },
        {
            "type": "sources_manuscrites",
            "value": "F. FRANCE, Marseille, Archives d\u00e9partementales des Bouches-du-Rh\u00f4ne, H Pr\u00eacheurs d'Arles, liasse 1, n. 4. Copie, d'apr\u00e8s une exp\u00e9dition, avec deux autres lettres de Gr\u00e9goire IX, dans un vidimus, dat\u00e9 du 6 d\u00e9cembre 1242, fait par l'\u00e9v\u00eaque de Maguelonne Jean de Montlaur \u00e0 la demande des inquisiteurs Ferrier et Peire de Marseillan (vidimus \u00e9dit\u00e9 par Dossat, <i>Les crises de l'Inquisition toulousaine au XIII<sup>e<\/sup> si\u00e8cle (1233-1273)<\/i>, Bordeaux, Bi\u00e8re, 1959, n. 20, p. 347-348.",
            "children": {
                "type_source": "Autre copie m\u00e9di\u00e9vale"
            }
        },
        {
            "type": "sources_manuscrites",
            "value": "G. Copie authentique d'une autre exp\u00e9dition dat\u00e9e du 15 avril 1233 et conserv\u00e9e au XVII<sup>e<\/sup> si\u00e8cle dans les archives des fr\u00e8res Pr\u00eacheurs de Toulouse, connue par l'\u00e9dition partielle de Percin, non retrouv\u00e9e. FAIRE UNE NOTICE PARTICULIERE POUR CETTE EXPEDITION",
            "children": {
                "type_source": "Autre copie m\u00e9di\u00e9vale"
            }
        },
        {
            "type": "sources_manuscrites",
            "value": "H. Copie du d\u00e9but du XIV<sup>e<\/sup> si\u00e8cle dans un registre de 247 feuillets en parchemin conserv\u00e9 au XVII<sup>e<\/sup> si\u00e8cle dans les archives de l'Inquisition de Carcassonne et utilis\u00e9 par les copistes de la Collection Doat, non retrouv\u00e9. ",
            "children": {
                "type_source": "Autre copie m\u00e9di\u00e9vale"
            }
        },
        {
            "type": "sources_manuscrites",
            "value": "I. FRANCE, Paris, Biblioth\u00e8que nationale de France, Collection Doat 31, fol. 21-23, copie collationn\u00e9e du 15 octobre 1669, sign\u00e9e par greffier Gratian Capot, d'apr\u00e8s H.",
            "children": {
                "type_source": "Copie moderne"
            }
        },
        {
            "type": "transcription",
            "value": "<?xml version=\"1.0\" encoding=\"UTF-8\"?>\nGregorius episcopus, servus servorum Dei, venerabilibus fratribus archiepiscopis et episcopis ac dilectis filiis aliis ecclesiarum prelatis in regno Francie et circumjacentibus provinciis constitutis, salutem et apostolicam benedictionem. Ille humani generis pervicax inimicus quem de suppremis ab ima superbia sua prostraxit, non contentus quod sue fraudis nequitia hominem produxit ad casum erumpnis et miseriis applicandum, callide nititur eum pestiferis retibus irretire, astute sibi parans insidias ne resurgat locum a quo ipse ceciderat obtenturus. Novissime autem diebus istis fidem nisus perfidia depravare, per ministros suos iniquitatis operarios venena sparsit mortifera, seditiose considerans quod familiaris hostis sit efficax ad nocendum, qui quasi dulcia premittentes cauda pungunt, ut scorpio, in aureo tandem calice Babilonis virus pestilentie infusuri. Licet autem heretici diutius hactenus latitantes, sicut cancer, serperent in occulto et velut vulpes latenter niterentur vineam Domini demolliri, jam tamen, peccatis exigentibus, in aperto quasi equi parati ad prelium presumunt manifeste insurgere contra eam, querentes in cibum simplices et in predam edoctos, ac illaqueare nichilominus fideles quoslibet suis circumventionibus cupientes, facti magistri erroris qui numquam fuerant discipuli veritatis. Unde expedit quod insurgatur viriliter contra eos, ut eorum omnino heresi confutata per totum vigeat fides Christi. Nam corona sequetur premii temptationibus resistentes. Cum igitur dudum resplenduerit in regno Francie et circumjacentibus provinciis fida fides ac per hoc formidemus ibi potius animalia venenosa, ne forte simplices ipsorum callidis seductionibus circumventi et astuti pravis circumventionibus periculose decepti in profundum deveniant peccatorum sicque violetur ibidem fidei firmamentum, nos, qui circa horam undecimam inter operarios immo verius supra operarios vinee Domini simusa a patre familias evangelico deputati, tacti dolore cordis intrinsecus non valentes tantum sustinere injuriam Creatoris ac volentes tot animarum periculis obviare, multipharie multisque modis ad extirpandam pravitatem hereticam diligenter intendere non cessamus. Cum autem miserator et misericors Dominus, qui neminem vult perire, attendens quod messis erat multa, operarii autem pauci, dilectorum filiorum Predicatorum ordinem suscitarit et qui non sua sed que Jhesu Christi querentes tam contra profugandas hereses quam contra pestes alias mortiferas se dedicarunt evangelizationi verbi Dei in abjectione voluntarie paupertatis, nos, considerantes quod vos, diversis occupationum turbinibus agitati, vix valetis inter mundantium sollicitudinum angustias respirare ac per hoc dignum ducentes ut onera vestra cum aliis dividantur, cum honus per plures divisim facilius supportetur, ejus instructi exemplo qui et duodecim apostolos et alios septuaginta duos elegit et binos ante faciem suam ad predicandum direxit, dictos fratres Predicatores contra hereticos in regno Francie et circumjacentes provincias duximus destinandos, ideoque universitatem vestram rogamus, monemus et hortamus attente per apostolica vobis scripta districte precipiendo mandantes quatinus ipsos pro reverentia divina apostolice Sedis ac nostra benigne recipientes et honeste tractantes eis in hiis et aliis consilium, auxilium et favorem taliter impendatis quod ipsi commissum sibi officium exequi valeant inoffense et nos sinceritatis vestre zelum possimus merito commendare. Datum Laterani, XII kalendas maii, pontificatus nostri anno septimo.\n"
        },
        {
            "type": "apparat_critique",
            "value": "<i>Sic pour<\/i> sumus.",
            "children": {
                "numero_note": "a"
            }
        },
        {
            "type": "edition_autre",
            "value": "(Abr\u00e9g\u00e9e et fautive) Jean-Jacques Percin, <i>Monumenta conventus Tholosani. Opusculum de Inquisitionis nomine<\/i>, Toulouse : Joannes et Guillelmus Pech, 1693, p. 92, d'apr\u00e8s G <a target=\"_blank\" href=\"https:\/\/tolosana.univ-toulouse.fr\/fr\/notice\/075570726\"> [en ligne]<\/a>."
        },
        {
            "type": "edition_autre",
            "value": "Louis Tanon, <i>Histoire des tribunaux de l'Inquisition en France<\/i>, Paris : L. Larose et Forcel, 1893, p. 173, note 1, \u00e9dition abr\u00e9g\u00e9e, d'apr\u00e8s I."
        },
        {
            "type": "edition_autre",
            "value": "Paul Fredericq, <i>Corpus documentorum inquisitionis haereticae pravitatis Neerlandicae<\/i>, Gand, 5 vol., 1889-1906, I, n. 89 <a target=\"_blank\" href= \" https:\/\/archive.org\/stream\/corpusdocumentor01fruoft#page\/88\/\"> [en ligne]<\/a>, d'apr\u00e8s Percin."
        },
        {
            "type": "bibliographie_generale",
            "value": "Henry Charles Lea, <i>History of the Inquisition in the Middle Ages<\/i>, New York : Harper & Brothers, 1887, 3 vol. (trad. fr. Salomon Reinach, <i>Histoire de l'Inquisition au Moyen \u00c2ge<\/i>, Paris : Soci\u00e9t\u00e9 nouvelle de Librairie et d'\u00e9dition, 1900, r\u00e9\u00e9d. Grenoble : J\u00e9r\u00f4me Millon, 1986-1988), I, \u00a7 329-330 et note 24."
        },
        {
            "type": "bibliographie_generale",
            "value": "C\u00e9lestin Douais, <i>Documents pour servir \u00e0 l\u2019histoire de l\u2019Inquisition dans le Languedoc<\/i>, Paris : Imprimerie nationale, 1900, I, p. 9."
        },
        {
            "type": "bibliographie_generale",
            "value": "Henri Maisonneuve,  <i>\u00c9tudes sur les origines de l'Inquisition<\/i>, 2<sup>e<\/sup> \u00e9d. revue et corrig\u00e9e, Paris : Vrin, 1960."
        },
        {
            "type": "genre",
            "value": "Mandement (littere cum filo canapis)"
        },
        {
            "type": "regeste",
            "value": "Potthast, <i>Regesta Pontificum Romanorum<\/i> <a target=\"_blank\" href=\"https:\/\/archive.org\/details\/RegestaPontificumRomanorum\"> [en ligne]<\/a>, n. 9143."
        },
        {
            "type": "bibliographie_generale",
            "value": "Lothar Kolmer, Ad capiendum vulpes. <i>Die Ketzerbek\u00e4mpfung in S\u00fcd-frankreich in der ersten H\u00e4lfte des 13. Jahrhunderts und die Ausbildung des Inquisitionsverfahrens<\/i>, Bonn : Ludwig R\u00f6hrscheid Verlag, 1982, p. 126-127."
        },
        {
            "type": "edition_autre",
            "value": "Thomas Ripoll, Antonin Br\u00e9mond, <i>Bullarium Ordinis Fratrum Praedicatorum<\/i>, Rome : ex Typographia Hieronymi Mainardi, 1729-1740, 8 vol., I, n. 71, p. 47 <a target=\"_blank\" href=\" https:\/\/archive.org\/details\/bub_gb_oiLZ5D32BUMC\/page\/n117\"> [en ligne]<\/a>."
        },
        {
            "type": "edition_autre",
            "value": "Sergi Grau Torras, Eduard Berga Salom\u00f3, Stefan\u00f3 M. Cingolani, <i>L\u2019Her\u00e8tica Pravitat a la Corona d\u2019Arag\u00f3 : documents sobre c\u00e0tars, valdesos i altres heretges (1155-1324)<\/i>, I, Barcelone : Fundaci\u00f3 Noguera, 2015, n. 87, p. 183-185, d'apr\u00e8s Dossat."
        }
    ]
}