{
    "id": 25380,
    "name": "aposcripta-2477",
    "type": "acte",
    "url": "http:\/\/telma-chartes.irht.cnrs.fr\/aposcripta\/notice\/25380",
    "project_slug": "aposcripta",
    "project_label": "APOSCRIPTA \u2013 Lettres des papes",
    "user": "lettrespontificalesadmin",
    "last_update": "2020-10-19 16:27:43",
    "licence": "Attribution - Pas d\u2019Utilisation Commerciale - Partage dans les M\u00eames Conditions 3.0 France (CC BY-NC-SA 3.0 FR) ",
    "licence_url": "https:\/\/creativecommons.org\/licenses\/by-nc-sa\/3.0\/fr\/",
    "elements": [
        {
            "type": "pape",
            "value": "Urbain III (1185-1187)"
        },
        {
            "type": "destinataire",
            "value": "( )",
            "children": {
                "numero_note": "0"
            }
        },
        {
            "type": "date_lieu",
            "value": "n.c."
        },
        {
            "type": "date_libre",
            "value": "1185, 16 d\u00e9cembre"
        },
        {
            "type": "date",
            "value": " 1185\/12\/16",
            "children": {
                "date_deb_annee": "1185",
                "date_deb_mois": "12",
                "date_deb_jour": "16"
            },
            "range": {
                "date_apres": 11851216,
                "date_avant": 11851216
            }
        },
        {
            "type": "analyse",
            "value": "X pape<br\/>PRIVILEGIUM URBANI PAP\u00c6 III, QUO CONFIRMAT OMNIA BONA, ET JURA PRIORATUS SANCTI PETRI DE CONSIACO, SUB OBEDIENTIA MONASTERII CLUNIACENSIS. PRIVILEGIUM URBANI PAP\u00c6 III. per quod confirmat omnia bona, jura, et possessiones Prioratus S. Petri de Consiaco suessionen. Dioc. sub Cluniacensis Monasterii obedientia et subjectione."
        },
        {
            "type": "transcription",
            "value": "<?xml version=\"1.0\" encoding=\"UTF-8\"?>\n[Urbanus Episcopus servus servorum Dei, dilectis filiis Joanni Priori de Consiaco, ejusque fratribus tam pr\u00e6sentibus qu\u00e0m futuris regularem vitam professis in perpetuum, Quoties \u00e0 nobis petitur quod honestati et religioni convenire dignoscitur, animo nos decet libenti concedere, et petentium desideriis congruum suffragium impartiri. Eapropter, dilecti in Domino filii, vestris justis postulationibus clementer annuimus, et Ecclesiam S. Petri de Consiaco, in qua divino mancipati estis obsequio, sub beati Petri et nostra protectione suscipimus, et pr\u00e6sentis scripti privilegio communimus. In primis siquidem statuentes ut ordo Monasticus, qui secundum Deum et beati Benedicti regulam in eodem loco institutus esse dignoscitur, perpetuis ibidem temporibus inviolabiliter observetur. Pr\u00e6tere\u00e0 quascumque possessiones, qu\u00e6cumque bona eadem Ecclesia impr\u00e6sentiarum just\u00e8 et Canonic\u00e8 possidet, aut infuturum concessione Pontificum, largitione Regum vel Principum, oblatione fidelium, seu aliis justis modis pr\u00e6stante Domino poterit adipisci, firma vobis, vestrisque successoribus, et illibata permaneant. In quibus h\u00e6c propriis duximus exprimenda vocabulis: locum ipsum, in quo pr\u00e6fata Ecclesia sita est, cum omnibus pertinentiis suis. Altare de vico Duroman. Altare de Curte Roberti. Altare de Gentovillari. Altare de Sarmasia. Altare de Besona. Quatuor Altaria, qu\u00e6 vobis dedit bon\u00e6 memori\u00e6 Hugo Suessionensis Episcopus, scilicet de Saponiaco, de Runcheriis, de Berniaco, de Espargo. Et quatuor Altaria, qu\u00e6 vobis dedit Lisiardus bon\u00e6 memori\u00e6 Suessionensis Episcopus, scilicet de Cresenci, de Condez, de Vulcenis, de Calte. Ecclesiam S. Petri de Calte, cum pertinentiis suis. Minutam decimam de Parochia S. Leodegarii Suessionensis. Ecclesiam de Bruclio, cum appendiciis suis. Ecclesiam S. Mari\u00e6 de Fonce, cum appendiciis suis, et homines ad Altare ejusdem Ecclesi\u00e6 pertinentes ubicumque sint. Altare Despalx. Altare de Ascerpiniaco, cum appendiciis suis, et omni decima, de qua Sacerdos eisdem Altaribus deserviens habet in unoquoque anno duos modios hyemalis annon\u00e6, et unum modium Aven\u00e6. Decimam de Luy magnam et minutam. Decimam de S. Remigio de Yvery; et quicquid habuerunt Joannes de Brumes, et Hugo Cognomento Punarque in Altari et decima de Vuescli. Decimam de Maisiaco. Altare de Raoulcourt. Altare de Carcobio. Decimam de Armenteria, et de Cursabro. In decima de Cugny unum modium hiemalis annon\u00e6 de eleemosyna Hugonis de Magny. Dimidium modium frumenti, de Terragiis de Ton, de eleemosyna Joannis Christion. Unum modium hiemalis annon\u00e6 apud Asunliz, de eleemosyna Guidonis de Conce. Quidquid Joannes de Ulcheio cognomento Vicecomes possidebat in terragiis de Ulanzi, et nemore. Decimam de Sarmasia, et de Ciriaco magnam et minutam. Omnem magnam de partibus decimam, et tertiam partem minut\u00e6 decim\u00e6. Decimam de Berciaco sancti Basoli. Decimam de Bernerda, et omnem tractum. Decimam de Grisoltis, et de Raoulcourt. Unum modium frumenti in decima de Aucensvilla, de eleemosyna Lisiardi Teuvagia de Lasteli; et omnem censum de omnibus masuris, qu\u00e6 sunt in atrio, et quod habetis in altari de Duro magno omni die tres partes oblationum omnium, quarta autem Sacerdotis est, cum oblatione nummi et candel\u00e6 die Dominica pro pane benedicto, et cum oblatione nubentium post Miss\u00e6 celebrationem, cum oblationibus etiam et benedictione peregrinantium, et quicquid mulier purificanda manu sua obtulerit. De minutis decimis, vino scilicet, fabis, pisis, lana, lino, f\u0153no, pecudibus, et volatilibus, vos tres partes; Presbyter autem quartam; de magna ver\u00f2 decima vos septem partes et omnem tractum habetis, Presbyter ver\u00f2 octavam, exceptis decimis Caltararum Comitis, de quibus Sacerdos nihil accipit; tres partes omnium candelarum, qu\u00e6 per totum annum offeruntur, excepta illa Dominicali candela qu\u00e6 Sacerdotis est. Si ver\u00f2 incensum vel candela in Ecclesia deficiunt, seu defecerint, de communi oblatione comparabuntur. Quicquid etiam Petrus de Noroy apud Vismolin. possidebat, et modium unum vini apud Palie, viginti solidos ad Bac. Apud Pontuert unum modium annon\u00e6, medietatem frumenti et reliquum aven\u00e6, de eleemosyna Oilardi Armigeri. Quicquid Guido de Brenna habebat apud Berniacum et apud Crucem, Altare scilicet cum appendiciis suis, et homines ad Altare pertinentes cum universis consuetudinibus quas ei debebant. Apud longam-villam, quicquid habebat pr\u00e6ter capita hominum. Apud Cresanciacum, quidquid habebat in Briennensi pago. Allodium suum de curte Roberti. Allodium de Vverdon et omnia ipsis Allodiis, in hominibus, f\u0153minabus, terris, pratis, aquis, molendinis et sylvis pertinentia, et manum firmam de Jamvillari, villam scilicet cum omnibus appendiciis suis. Apud Roncherias in decimis magnis et minutis duas partes; in villa de omnibus redditibus et proventibus, quoquo modo evenerint, tertiam partem; in nemoribus ver\u00f2 et Pascuis ad villam pertinentibus, ubicumque sint, tertiam partem, exceptis masuris, quarum census singulariter vester est, et masura cum omnimoda justitia. Partem vill\u00e6 propri\u00e6 vestr\u00e6 qu\u00e6 incipit \u00e0 domibus, qu\u00e6 sunt subter viam qu\u00e6 subjacet domui vestr\u00e6, et tendit usque ad viculum illum qui vertitur ad fontem Vberti: ex alia ver\u00f2 parte vertitur per publicum aggerem qui tendit Castellionem usque ad nemus de Campo-vicini, et inde per fossatum quod dicitur Brunechildis tendit usque ad fontem Boel, inde autem revertitur usque ad angulum antiqui nemoris, quod est ad exitum vill\u00e6 versus Castellionem, et Ecclesiam de sancto Fidolo cum omnibus pertinentiis suis, sicut eam de donatione bon\u00e6 memori\u00e6 Philippi quondam Trecensis Episcopi rationabiliter possidetis. Item apud sanctum Fidolum, quod vobis et Ecclesi\u00e6 vestr\u00e6 bon\u00e6 memori\u00e6 Comes Theobaldus, et filius ejus Hugo quondam Trecensis Comes in eleemosynam pia concessione dederunt, sicut in eorum scripto authentico continetur, cum his qu\u00e6 in altari de Sticourt et Toncourt possidetis. Libertatem vill\u00e6 vestr\u00e6, in qua Ecclesia vestra fundata est, sicut eam quondam Theobaldus Comes antiquior, et postmodum filius ejus Comes Stephanus vobis pia concessione donarunt. Altare quoque de Misiaco cum magna et minuta decima. Libertatem vill\u00e6 de Vlcenis ab Hugone Trecensi Comite vobis concessam. Altare et personatum de Glisoliis cum omnibus appendiciis suis. Apud Boncherias Terragia de Carruragio vestro sine parte militis et Vice-comitatum ejusdem vill\u00e6, Terragia, et census, et omnem plenariam justitiam ejusdem Vice-comitatus sine militis reclamatione vel advocatione. San\u00e8 Novalium vestrorum, qu\u00e6 propriis manibus aut sumptibus colitis, sive de nutrimentis animalium vestrorum, nullus \u00e0 vobis decimas exigere vel extorquere pr\u00e6sumat. Liceat vobis clericos vel la\u00efcos \u00e8 s\u00e6culo fugientes liberos et absolutos ad conversionem recipere, et eos absque contradictione aliqua retinere. Cum generale autem interdictum terr\u00e6 fuerit, liceat vobis clausis januis, exclusis excommunicatis et interdictis, non pulsatis campanis, suppressa voce divina celebrare. In Parochialibus ver\u00f2 Ecclesiis, quas tenetis, liceat vobis Sacerdotes eligere et Di\u0153cesano Episcopo pr\u00e6sentare, quibus, si idonei fuerint, Episcopus curam animarum committat, et ei de spiritualibus, vobis autem de temporalibus debeant respondere. Libertates pr\u00e6terea et immunitates antiquas, et rationabiles consuetudines Monasterio vestro concessas, et hactenus observatas ratas habemus, et eas futuris temporibus illibatas manere censemus. Chrisma ver\u00f2, oleum sanctum, consecrationes altarium seu basilicarum, ordinationes clericorum seu Monachorum, qui ad sacros ordines fuerint promovendi, \u00e0 Di\u0153cesano suscipiatis Episcopo, siquidem Catholicus fuerit, et gratiam atque communionem Apostolic\u00e6 Sedis habuerit, et ea vobis gratis et absque pravitate aliqua voluerit exhibere; alioqui liceat vobis quemcumque malueritis adire antistitem, qui nostra fultus auctoritate, quod postulatur indulgeat. Sepulturam pr\u00e6terea illius loci liberam esse decernimus, ut eorum quoque devotioni et extrem\u00e6 voluntati, qui se illic sepeliri deliberaverint, nisi fort\u00e8 excommunicati fuerint vel interdicti nullus obsistat, salva tamen justitia Ecclesiarum illarum, \u00e0 quibus mortuorum corpora assumuntur. Quia ver\u00f2 decim\u00e6 tam veteri qu\u00e0m nova lege Ministris Ecclesiarum sunt conc\u00e9ss\u00e6, auctoritate Apostolica prohibemus, ne ullus la\u00efcus \u00e0 vobis decimas exigere vel extorquere pr\u00e6sumat. Prohibemus etiam ne cui liceat infra terminos Parochiarum vestrarum Ecclesiam vel Oratorium sine assensu Di\u0153cesani Episcopi, et Abbatis, et Capituli Cluniacensis, de novo construere, salvis tamen privilegiis Romanorum Pontificum. Inhibemus etiam ne Ecclesias, aut terras, seu quodlibet beneficium Ecclesi\u00e6 vestr\u00e6 ullatenus liceat alicui personaliter dari, sive alio modo alienari, sine consensu totius Capituli, aut majoris et sanioris partis. Si qu\u00e6 ver\u00f2 donationes aliter qu\u00e0m dictum est, fact\u00e6 fuerint, eas irritas esse censemus. Paci quoque et tranquillitati vestr\u00e6 paterna sollicitudine providere volentes, auctoritate Apostolica prohibemus, ut infra clausuras locorum seu grangiarum vestrarum nullus violentiam vel rapinam furtumve committere, ignem apponere, hominem cap\u00e8re vel interficere aliqua temeritate pr\u00e6sumat. Locus autem ipse cum omnibus pertinentiis suis, sicut hactenus fuisse cognoscitur, sub Cluniacensis Monasterii obedientia et subjectione perpetu\u00f2 consistat. Decernimus ergo ut nulli omnin\u00f2 hominum fas sit pr\u00e6fatum locum temer\u00e8 perturbare, aut ejus possessiones auferre, vel ablatas retinere, minuere, seu quibuslibet vexationibus fatigare: sed omnia integra conserventur eorum, pro quorum gubernatione ac sustentatione concessa sunt, usibus omnimodis profutura, salva Sedis Apostolic\u00e6 auctoritate, et Di\u0153cesani Episcopi canonica justitia, Si qua igitur in futurum Ecclesiastica s\u00e6cularisve persona hanc nostr\u00e6 constitutionis paginam sciens, contra eam temer\u00e8 venire tentaverit, secund\u00f2 terti\u00f3ve commonita, nisi reatum suum satisfactione congrua correxerit, potestatis honorisque sui dignitate careat, reamque se divino judicio existere de perpetrata iniquitate cognoscat, et \u00e0 sacratissimo Corpore ac Sanguine Dei et Domini Redemptoris nostri Jesu Christi aliena fiat, atque in extremo examine district\u00e6 ultioni subjaceat. Cunctis autem eidem loco sua jura servantibus sit pax Domini nostri Jesu Christi, quatinus et hic fructum bon\u00e6 actionis percipiant, et apud districtum Judicem pr\u00e6mia \u00e6tern\u00e6 pacis inveniant. Amen. Amen. Amen. Ego URBANUS Catholic\u00e6 Ecclesi\u00e6 Episcopus. Ego Therdinus Portuensis et sanct\u00e6 Barsinensis Sedis Episcopus. Ego Henricus Albanensis Episcopus. Ego Theobaldus Hostiensis et Velletrensis Episcopus. Ego Joannes Presbyter Cardinalis tituli sancti Marci. Ego Laborans Presbyter Cardin. S. Mari\u00e6 trans Tiberim tit. Calixti. Ego Pandulphus tit. duodecim Apostolorum. Ego Albinus tit. S. Crucis in Jerusalem Presbyter Cardinalis. Ego Melior Presb. Card. SS. Joannis et Pauli tit. Pammachii. Ego Ardicio Diac. Card. S. Theodori. Ego Gratianus SS. Cosm\u00e6 et Damiani Diaconus Cardinalis. Ego Sofredus S. Mari\u00e6 in via-lata Diac. Cardinalis. Ego Rolandus S. Mari\u00e6 in Porticu Diaconus Card. Ego Petrus Diaconus Cardinalis S. Nicolai in Carcere Tulliano. Ego Radulphus S. Georgii ad velum aureum Diaconus Cardinalis. Datum Veron\u00e6 per manum Transimundi S.R. Ecclesi\u00e6 Notarii XVII. Kalendas Januarii indictione IV. Incarnationis Dominic\u00e6 anno M. C. LXXXV. Pontificatus autem Domni Urbani Pap\u00e6 tertii anno primo.]\n"
        },
        {
            "type": "edition",
            "value": "Ici tir\u00e9e du projet <i>CBMA - Corpus Burgundiae Medii Aevi<\/i>, document 5734. Site du projet Corpus de la Bourgogne du Moyen \u00c2ge, [En ligne] <a href=\"http:\/\/www.cbma-project.eu\" target=\"_blank\">http:\/\/www.cbma-project.eu<\/a>  "
        },
        {
            "type": "sources_manuscrites",
            "value": "\u00e0 renseigner."
        },
        {
            "type": "remarques",
            "value": "\r\n\r\nIndications dans l'\u00e9dition des Chartes de Cluny quand Bernard et Bruel n'ont pas repris le texte : Urbanus, etc. Quotiens a nobis petitur, etc. (Bull. Clun., p.\u00a085, col.\u00a01, n\u00ba\u00a02.)."
        },
        {
            "type": "edition_autre",
            "value": "Ici reprise de Auguste Bernard, Alexandre Bruel, <i>Recueil des chartes de l'abbaye de Cluny<\/i>. V. <i>1091-1210<\/i>, Paris\u00a0: Imprimerie nationale, 1894 <a href=\"http:\/\/gallica.bnf.fr\/ark:\/12148\/bpt6k28911f?rk=64378;0\" target=\"_blank\">[en ligne]<\/a>, p. 659, n\u00b0 4295.",
            "children": {
                "numero_note": "0"
            }
        },
        {
            "type": "edition_autre",
            "value": "Pierre Simon, <i>Bullarium sacri Ordinis cluniacensis, complectens plurima privilegia per summos pontifices tum ipsi cluniacensi abbatiae, tum ei subditis monasteriis hactenus concessa<\/i>, Lyon : Jullieron, 1680, p. 85, col. 1-87, col. 1",
            "children": {
                "numero_note": "1"
            }
        },
        {
            "type": "genre",
            "value": "Bulle"
        },
        {
            "type": "genre",
            "value": "Lettre"
        }
    ]
}