{
    "id": 149539,
    "name": "aposcripta-9102",
    "type": "acte",
    "url": "http:\/\/telma-chartes.irht.cnrs.fr\/aposcripta\/notice\/149539",
    "project_slug": "aposcripta",
    "project_label": "APOSCRIPTA \u2013 Lettres des papes",
    "user": "lettrespontificalesadmin",
    "last_update": "2020-10-19 16:40:00",
    "licence": "Attribution - Pas d\u2019Utilisation Commerciale - Partage dans les M\u00eames Conditions 3.0 France (CC BY-NC-SA 3.0 FR) ",
    "licence_url": "https:\/\/creativecommons.org\/licenses\/by-nc-sa\/3.0\/fr\/",
    "elements": [
        {
            "type": "pape",
            "value": "Innocent IV (1243-1254)"
        },
        {
            "type": "destinataire",
            "value": "G. Sancti Eustachii diacono cardinali, apostolice sedis legato"
        },
        {
            "type": "date_libre",
            "value": "IV nonas septembris, anno XII"
        },
        {
            "type": "date",
            "value": " 1254\/09\/02",
            "children": {
                "date_deb_annee": "1254",
                "date_deb_mois": "09",
                "date_deb_jour": "02"
            },
            "range": {
                "date_apres": 12540902,
                "date_avant": 12540902
            }
        },
        {
            "type": "date_lieu",
            "value": "Anagnie"
        },
        {
            "type": "sources_manuscrites",
            "value": "R. CIT\u00c9 DU VATICAN, Archivio Segreto Vaticano, <hi rend=\"italic\">Registra Vaticana<\/hi> ... Inn.\u00a0IV Reg. Vol.\u00a0III, 210-211; Lib.\u00a0XII, cur.\u00a011. Pertzii exemplar, suppletum ex Raynaldi Ann. eccl. a. 1254, \u00a7\u00a048, cum Regestis contulit V. Cl. Monacci.",
            "children": {
                "type_source": "Registre de la chancellerie apostolique"
            }
        },
        {
            "type": "genre",
            "value": "Mandement (littere cum filo canapis)"
        },
        {
            "type": "analyse",
            "value": "Innocentius IV papa eidem varias potestates ad temporalem regni Siciliae administrationem spectantes concedit [Rodenberg]."
        },
        {
            "type": "transcription",
            "value": "<?xml version=\"1.0\" encoding=\"UTF-8\"?>\nG. Sancti Eustachii diacono cardinali, apostolice sedis legato.Votivum cunctis ecclesie filiis instans Sicilie regni negocium precipue residet cordi nostro, quo sic ab aliorum undique nobis incumbentium cura subducimur, ut apostolice vigilantie in ceteris sollicitudine intermissa nostris illud affectibus inter cuncta nos urgentia singulariter comendemus, tanto ad preconceptam promotionem et prosecutionem ipsius continuam promptiores effectu, quanto ex hoc ipsi regno reparationis solamina, pacis comoda et libertatis provenire speramus gaudia potiora. Tantus autem profectus dum in pectore nostro iugi meditatione revolvitur, dumque infra nos ipsos imminentis negocii eminentia cogitatione sedula circumfertur, indagamus attente, cui tante rei curam confidenter committere cuiusque humeris tam grandis sarcinam oneris secure imponere valeamus. Quia igitur te in ecclesie firmamento claritate morum, scientie lumine, limpiditate consilii et insingnis splendore prudentie novimus prefulgere, tibi tamquam inter alios preelecto huius tam ardui executionem negocii tota duximus fiducia committendam, ut illud tue magne providentie studio adiutore Christo et preduce prospere ac salubriter dirigatur. Verum quia eo tutius et efficatius ipsum prosequi poteris, quo de auxilio securus ecclesie pleniori circa illud fueris potestate munitus, nos discretioni tue, quam firmiter et pro certo tenere volumus, quod nos et fratres nostri te ac predictum negocium in omni eventu constanter manutenebimus tibique pro eo auxilia continua impendemus, presentium tenore concedimus, ut possis pro eodem negotio nostro et ecclesie Romane nomine contrahere mutuum quantumcunque a mercatoribus Romanis vel aliis et obligare propter hoc Romanam ecclesiam et castra et possessiones ecclesiarum Urbis, Campanie ac Maritime, nec non castra et possessiones circumadiacentium locorum et regni Sicilie supradicti; possis etiam pro ipsius promotione negocii fructus et proventus omnes ecclesiarum, tam cathedralium quam aliarum, in eodem regno vacantium libere accipere ac etiam non vacantium, si earum prelati negotium ipsum non iuverint iuxta tuum beneplacitum et mandatum. Imponendi quoque ac exigendi collectas in eodem regno, si expedire videris, et novam ibi cudi faciendi monetam ac exheredandi omnes de regno ipso quondam Fr. olim Romanorum imperatoris vel natorum suorum fautores, qui ad mandatum ecclesie post denuntiationem eis super hoc auctoritate nostra factam minime redierunt, et cunctos alios, qui postquam ipsis denunciaveris, redire contempserint, omnia insuper curie demania, et quecunque sive in comitatibus sive baroniis seu feudis vel scadentiis aut quibuslibet aliis sunt in eodem regno concessa, libere revocandi, privandi preterea universos ipsius regni, quos ecclesie proditores esse constiterit, si ad eius mandatum redire noluerint, omnibus suis feudis et illa concedendi fidelibus, ac accipiendi rebellium de regno ipso deposita, ubicumque sunt vel fuerint, et faciendi reddi in eodem regno, cum necesse fuerit, per illius pares iudicia tribuimus tibi plenariam potestatem. Ideoque prudentie tue per apostolica scripta mandamus, quatinus ad eiusdem prosecutionem negotii de divino et apostolico confisus suffragio forti assurgens animo, circa illud cunctis invigiles studiis, et ut optate promotionis favente Deo incrementa suscipiat, instanti sollicitudine ac sollicita instantia elabores.Dat. Anagnie, IIII Nonas Septembris, anno XII\u00b0.\n"
        },
        {
            "type": "edition",
            "value": "Ici reprise de Karl Rodenberg, Epistolae s. XIII e regestis pontificum romanorum selectae, III, Berlin : Weidmann (MGH), 1894, n.\u00a0311a, p.\u00a0277."
        },
        {
            "type": "edition_autre",
            "value": "?"
        },
        {
            "type": "regeste",
            "value": "?"
        },
        {
            "type": "bibliographie_generale",
            "value": "?"
        },
        {
            "type": "apparat_critique",
            "value": "?",
            "children": {
                "numero_note": "a"
            }
        },
        {
            "type": "apparat_critique",
            "value": "?",
            "children": {
                "numero_note": "b"
            }
        },
        {
            "type": "apparat_critique",
            "value": "?",
            "children": {
                "numero_note": "c"
            }
        },
        {
            "type": "apparat_critique",
            "value": "?",
            "children": {
                "numero_note": "d"
            }
        },
        {
            "type": "apparat_critique",
            "value": "?",
            "children": {
                "numero_note": "e"
            }
        },
        {
            "type": "apparat_critique",
            "value": "?",
            "children": {
                "numero_note": "f"
            }
        },
        {
            "type": "notes_historiques",
            "value": "?",
            "children": {
                "numero_note": "1"
            }
        },
        {
            "type": "notes_historiques",
            "value": "?",
            "children": {
                "numero_note": "2"
            }
        },
        {
            "type": "notes_historiques",
            "value": "?",
            "children": {
                "numero_note": "3"
            }
        }
    ]
}