{
    "id": 20874,
    "name": "aposcripta-861",
    "type": "acte",
    "url": "http:\/\/telma-chartes.irht.cnrs.fr\/aposcripta\/notice\/20874",
    "project_slug": "aposcripta",
    "project_label": "APOSCRIPTA \u2013 Lettres des papes",
    "user": "lettrespontificalesadmin",
    "last_update": "2020-10-19 16:26:54",
    "licence": "Attribution - Pas d\u2019Utilisation Commerciale - Partage dans les M\u00eames Conditions 3.0 France (CC BY-NC-SA 3.0 FR) ",
    "licence_url": "https:\/\/creativecommons.org\/licenses\/by-nc-sa\/3.0\/fr\/",
    "elements": [
        {
            "type": "pape",
            "value": "Lucius III (1181-1185)"
        },
        {
            "type": "date_lieu",
            "value": "n.c."
        },
        {
            "type": "date_libre",
            "value": "1181-85"
        },
        {
            "type": "analyse",
            "value": "Lucius\u00a0III T(heobaldum) episcopum Ambianensem et magistrum R. Polet iudices constituit inter ecclesiam Atrebatensem et episcopum Morinensem."
        },
        {
            "type": "transcription",
            "value": "<?xml version=\"1.0\" encoding=\"UTF-8\"?>\nLucius episcopus servus servorum Dei venerabili fratri T(heobaldo) Ambianensi episcopo eta dilecto filio magistro R. Polet salutem et apostolicam benedictionem. Ex parte venerabilis fratris nostri episcopi1 et dilectorum filiorum canonicorum Atrebatensium querelam accepimus, quod, cum monasterium de Zoches infra terminos eorum diocesis positum ad ipsos et Atrebatensem ecclesiam spectet, venerabilis frater noster Morinensis episcopus2, cenobium dicens illud ad se pertinere, post appellationem ad nos factam ipsum contra voluntatem eorum dedicare praesumpsit. Nos itaque iuri utriusque partis providere volentes, ne episcopatuum fines propter dissensiones et altercationes huiusmodi confundantur, discretioni vestrae per apostolica scripta mandamus, quatinus ad iam dictum locum pariter accedentes, quae vobis ab utraque parte proposita fuerint, diligentius audiatis et inter eos, quod iustum fuerit, iudicetis et praecipiatis, quod iudicatum fuerit, ab utraque parte appellatione remota servari.\n"
        },
        {
            "type": "edition",
            "value": "Samuel Loewenfeld, <i>Epistolae pontificum romanorum ineditae<\/i>, Leipzig : Veit et Comp., 1885, n. 362, p. 219-220"
        },
        {
            "type": "sources_manuscrites",
            "value": "Bibl. nat. Paris. Chartul. Atrebat. s.\u00a0<span class=\"smal-caps\">xiii.<\/span> ms. lat.\u00a09930. fol.\u00a07.",
            "children": {
                "type_source": "Cartulaire"
            }
        },
        {
            "type": "notes_historiques",
            "value": "Frumoldi \u2020\u00a01183 sive Petri.",
            "children": {
                "numero_note": "1"
            }
        },
        {
            "type": "notes_historiques",
            "value": "Desiderius.",
            "children": {
                "numero_note": "2"
            }
        },
        {
            "type": "apparat_critique",
            "value": "et <i>addidi<\/i>.",
            "children": {
                "numero_note": "a"
            }
        },
        {
            "type": "date",
            "value": "apr\u00e8s 1181 - avant 1185",
            "children": {
                "date_deb_annee": "1181",
                "date_deb_type": "apres",
                "date_fin_annee": "1185",
                "date_fin_type": "avant"
            },
            "range": {
                "date_apres": 11810000,
                "date_avant": 11859999
            }
        },
        {
            "type": "genre",
            "value": "Bulle"
        }
    ]
}