{
    "id": 24476,
    "name": "aposcripta-1627",
    "type": "acte",
    "url": "http:\/\/telma-chartes.irht.cnrs.fr\/aposcripta\/notice\/24476",
    "project_slug": "aposcripta",
    "project_label": "APOSCRIPTA \u2013 Lettres des papes",
    "user": "lettrespontificalesadmin",
    "last_update": "2020-10-19 16:27:30",
    "licence": "Attribution - Pas d\u2019Utilisation Commerciale - Partage dans les M\u00eames Conditions 3.0 France (CC BY-NC-SA 3.0 FR) ",
    "licence_url": "https:\/\/creativecommons.org\/licenses\/by-nc-sa\/3.0\/fr\/",
    "elements": [
        {
            "type": "pape",
            "value": "Alexandre IV (1254-1261)"
        },
        {
            "type": "date_lieu",
            "value": "Latran"
        },
        {
            "type": "date_libre",
            "value": "XVI kalendas februarii, anno secundo"
        },
        {
            "type": "date",
            "value": " 1256\/01\/17",
            "children": {
                "date_deb_annee": "1256",
                "date_deb_mois": "01",
                "date_deb_jour": "17"
            },
            "range": {
                "date_apres": 12560117,
                "date_avant": 12560117
            }
        },
        {
            "type": "analyse",
            "value": "Alexandre\u00a0IV accorde \u00e0 l\u2019\u00e9v\u00eaque de Maguelone le pouvoir d\u2019excommunier ceux qui attaquent le comt\u00e9 de Melgueil\u00a0: seuls l\u2019\u00e9v\u00eaque ou le Pape pourront les absoudre."
        },
        {
            "type": "transcription",
            "value": "<?xml version=\"1.0\" encoding=\"UTF-8\"?>\nAlexander episcopus, servus servorum Dei, venerabili fratri, episcopo Magalonensi, salutem et apostolicam benedictionem.Cum sicut tua nobis fraternitas intimavit, comitatus Melgorii et Montisferrandi, quem ab Ecclesia Romana sub annuo censu tenes in feudum, in medio prave ac perverse nationisa existat, et ex hoc a malefactoribus jurisdictiones, jura, necnon possessiones usurpentur, et diripiantur\u00a0; ipsius vassalli quoque ac homines tui continuis afflictionibusb et molestiis agitentur, non absque Apostolice Sedis prejudicio et injuria manifesta\u00a0; nec sit aliquis, qui pro comitatu ipso super hiis contra malefactores hujusmodi defensionis clippeum se opponat\u00a0; et grave tibi sit nimis ac dispendiosum propter hoc semper Apostolicam Sedem adire, tum propter malitiam temporis nunc existentis, tum etiamc propter alios diversos eventus, nos, indempnitati comitatus predicti volentes paterna sollicitudine precavere, ad instar felicis recordationisd Gregorii Pape, predecessoris nostri, presentiume tibi auctoritate concedimus, ut in malefactores, invasores, raptores et perturbatores bonorum ipsius, ac receptatores, fautores, coadjutores eorum, si, a te moniti, contempserint satisfacere de dampnis et injuriis irrogatis, libere valeas, sublato appellationis obstaculo, censuram ecclesiasticam exercere, non obstante si eorum aliquibus, quod excommunicari aut interdici nequeant a Sede Apostolica est indultum\u00a0; eadem auctoritate districtius inhibentes, ne quis ob hoc excommunicatos vel interdictos a te presumat absolvere absque tua seu Apostolice Sedis licentiaf speciali\u00a0; decernendo, si secus actum fuerit, non valere.Nulli ergo omnino hominum liceat hanc paginam nostre concessionis et inhibitionis infringere, vel ei ausu temerario contraire. Si quis autem hoc attemptare presumpserit, indignationemg omnipotentis Dei et beatorum Petri et Pauli, apostolorum ejus, se noverit incursurum.Datum Laterani, xvi kalendas februarii, pontificatus nostri anno secundo.\n"
        },
        {
            "type": "edition",
            "value": "Julien Rouquette, Augustin Villemagne, <i>Bullaire de l'\u00c9glise de Maguelone<\/i>, Paris, Montpellier : Picard, Valat, 1911-1914, II, n. 451-CCCXVIII, p. 322-322"
        },
        {
            "type": "remarques",
            "value": ""
        },
        {
            "type": "apparat_critique",
            "value": "Cart.\u00a0: <i>nacionis<\/i>.",
            "children": {
                "numero_note": "a"
            }
        },
        {
            "type": "apparat_critique",
            "value": "Cart.\u00a0: <i>affliccionibus<\/i>.",
            "children": {
                "numero_note": "b"
            }
        },
        {
            "type": "apparat_critique",
            "value": "Cart.\u00a0: <i>eciam<\/i>.",
            "children": {
                "numero_note": "c"
            }
        },
        {
            "type": "apparat_critique",
            "value": "Cart.\u00a0: <i>recordacionis<\/i>.",
            "children": {
                "numero_note": "d"
            }
        },
        {
            "type": "apparat_critique",
            "value": "Cart.\u00a0: <i>presencium<\/i>.",
            "children": {
                "numero_note": "e"
            }
        },
        {
            "type": "apparat_critique",
            "value": "Cart.\u00a0: <i>licencia<\/i>.",
            "children": {
                "numero_note": "f"
            }
        },
        {
            "type": "apparat_critique",
            "value": "Cart.\u00a0: <i>indignacionem<\/i>.",
            "children": {
                "numero_note": "g"
            }
        },
        {
            "type": "bibliographie_generale",
            "value": "<i>Cart. de Maguelone<\/i>, reg.\u00a0F, fol.\u00a0119\u00a0r\u00b0.",
            "children": {
                "numero_note": "0"
            }
        },
        {
            "type": "genre",
            "value": "Titre, g\u00e9n\u00e9ral (littere gratiose, cum filo serico)"
        },
        {
            "type": "sources_manuscrites",
            "value": "<i>Cart. de Maguelone<\/i>, reg. F, fol. 119.",
            "children": {
                "type_source": "Cartulaire"
            }
        }
    ]
}