{
    "id": 20266,
    "name": "aposcripta-253",
    "type": "acte",
    "url": "http:\/\/telma-chartes.irht.cnrs.fr\/aposcripta\/notice\/20266",
    "project_slug": "aposcripta",
    "project_label": "APOSCRIPTA \u2013 Lettres des papes",
    "user": "lettrespontificalesadmin",
    "last_update": "2020-10-19 16:26:47",
    "licence": "Attribution - Pas d\u2019Utilisation Commerciale - Partage dans les M\u00eames Conditions 3.0 France (CC BY-NC-SA 3.0 FR) ",
    "licence_url": "https:\/\/creativecommons.org\/licenses\/by-nc-sa\/3.0\/fr\/",
    "elements": [
        {
            "type": "pape",
            "value": "Jean XXII (1316-1334)"
        },
        {
            "type": "date_lieu",
            "value": "Avignon"
        },
        {
            "type": "date_libre",
            "value": "7 avril 1330"
        },
        {
            "type": "analyse",
            "value": "Le pape ordonne \u00e0 l\u2019\u00e9v\u00eaque d\u2019Amiens et \u00e0 l\u2019inquisiteur de France de faire conduire sous bonne garde, \u00e0 Avignon, l\u2019h\u00e9r\u00e9tique Fran\u00e7ois de Todi. Il \u00e9crit au roi de France sur le m\u00eame objet."
        },
        {
            "type": "transcription",
            "value": "<?xml version=\"1.0\" encoding=\"UTF-8\"?>\nLettre 2 : Eidem regi (Francie). \u2014 Cum nos venerabili, (etc. ut pr\u00e6dictis personis de securo conductu faciat provideri). \u2014 Datum Avinioni, vii idus aprilis, anno quartodecimo.\n"
        },
        {
            "type": "edition",
            "value": "Jean-Marie Vidal, <i>Bullaire de l\u2019Inquisition fran\u00e7aise au XIV<sup>e<\/sup> si\u00e8cle et jusqu'\u00e0 la fin du Grand Schisme<\/i>, Paris : Letouzey et An\u00e9, 1913, n. 94-95, p. 149"
        },
        {
            "type": "sources_manuscrites",
            "value": "Lettre 1 :<i>Reg. Vat.<\/i>, t. <span class=\"smal-caps\">cxv<\/span>, fol. 320 v\u00b0, n. 1655. Lettre 2 :<i>Ibid.<\/i>, n. 1656"
        },
        {
            "type": "sources_manuscrites",
            "value": "L. Fumi, <i>Eretici e ribelli, etc.<\/i>, dans <i>Bollettino di storia patria per l\u2019Umbria<\/i>, an. <span class=\"smal-caps\">v<\/span>, p. 40 (<i>in ext.<\/i>)."
        },
        {
            "type": "notes_historiques",
            "value": "Jean de Cherchemont : voir n. 89, note 1",
            "children": {
                "numero_note": "1"
            }
        },
        {
            "type": "notes_historiques",
            "value": "Aubert de Ch\u00e2lons : voir n. 89, note 2.",
            "children": {
                "numero_note": "2"
            }
        },
        {
            "type": "date",
            "value": "1330\/04\/07",
            "children": {
                "date_deb_annee": "1330",
                "date_deb_mois": "04",
                "date_deb_jour": "07"
            },
            "range": {
                "date_apres": 13300407,
                "date_avant": 13300407
            }
        },
        {
            "type": "genre",
            "value": "Bulle"
        }
    ]
}