{
    "id": 25745,
    "name": "aposcripta-2842",
    "type": "acte",
    "url": "http:\/\/telma-chartes.irht.cnrs.fr\/aposcripta\/notice\/25745",
    "project_slug": "aposcripta",
    "project_label": "APOSCRIPTA \u2013 Lettres des papes",
    "user": "lettrespontificalesadmin",
    "last_update": "2020-10-19 16:27:48",
    "licence": "Attribution - Pas d\u2019Utilisation Commerciale - Partage dans les M\u00eames Conditions 3.0 France (CC BY-NC-SA 3.0 FR) ",
    "licence_url": "https:\/\/creativecommons.org\/licenses\/by-nc-sa\/3.0\/fr\/",
    "elements": [
        {
            "type": "pape",
            "value": "Boniface VIII (1294-1303)"
        },
        {
            "type": "destinataire",
            "value": "( )",
            "children": {
                "numero_note": "0"
            }
        },
        {
            "type": "date_lieu",
            "value": "n.c."
        },
        {
            "type": "date_libre",
            "value": "1298, 2 juin"
        },
        {
            "type": "date",
            "value": " 1298\/06\/02",
            "children": {
                "date_deb_annee": "1298",
                "date_deb_mois": "06",
                "date_deb_jour": "02"
            },
            "range": {
                "date_apres": 12980602,
                "date_avant": 12980602
            }
        },
        {
            "type": "analyse",
            "value": "X pape<br\/>CONSERVATORIA A BONIFACIO PAPA VIII AD ABBATEM SANCT\u00c6 COLUMB\u00c6 SENONENSIS DIRECTA, PRO CLUNIACENSIBUS. CONSERVATORIA PER BONIFACIUM Papam VIII. ad Abbatem Sanct\u00e6 Columb\u00e6 Senonensis directa pro Cluniacensibus."
        },
        {
            "type": "transcription",
            "value": "<?xml version=\"1.0\" encoding=\"UTF-8\"?>\n[Bonifacius Episcopus servus servorum Dei, dilecto filio Abbati Monasterii sanct\u00e6 Columb\u00e6 Senonensis salutem et Apostolicam benedictionem. Sub Religionis habitu vacantibus pi\u00e6 vit\u00e6 studio ita debemus esse propitii, ut in divinis placitis exequendis malignorum non possint obstaculis impediri. Cum igitur dilecti filii Abbas et conventus Monasterii Cluniacensis ad Romanam Ecclesiam nullo medio pertinentis Matisconen. Di\u0153c. \u00e0 nonnullis, sicut accepimus, qui nomen Domini in vacuum recipere non formidant, multiplices patientur injurias et jacturas. Nos volentes dictorum Abbatis et conventus providere quieti, et molestatorum ipsorum malitiis obviare, discretioni tu\u00e6 per Apostolica scripta mandamus, quatenus eosdem Abbatem et conventum, pro nostra et Apostolic\u00e6 Sedis reverentia, favoris opportuni pr\u00e6sidio prosequens, ipsos contr\u00e0 indulta Privilegiorum Sedis ejusdem non permittas ab aliquibus indebite molestari, molestatores hujusmodi per censuram Ecclesiasticam appellatione postposita compescendo: attentius provisurus ne de his, super quibus lis est fort\u00e8 jam mota, vel qu\u00e6 caus\u00e6 cognitionem exigunt, et qu\u00e6 indulta hujusmodi non contingunt, te aliquatenus intromittas, nec in Episcopos, aliosue superiores Pr\u00e6latos excommunicationis vel suspensionis, aut in universitatem aliquam seu collegium interdicti sententias promulgare pr\u00e6sumas. Nos enim si secus pr\u00e6sumpseris, tam pr\u00e6sentes litteras, quam etiam processum, quem per te illarum auctoritate haberi contigerit, omnin\u00f2 carere viribus, et nullius fore decernimus firmitatis. Hujusmodi ergo mandatum nostrum sic prudenter et fideliter exequaris, ut ejus fines quomodolibet non excedas: pr\u00e6sentibus post triennium non valituris. Datum Rom\u00e6 apud sanctum Petrum decimo Kalandas Julii. Pontificatus nostri anno quarto. Est et alia similis conservatoria ejusdem directa ad Abbatem Monasterii Trenorchiensis, data Idibus Iunii anno etiam quarto.]\n"
        },
        {
            "type": "edition",
            "value": "Ici tir\u00e9e du projet <i>CBMA - Corpus Burgundiae Medii Aevi<\/i>, document 6953. Site du projet Corpus de la Bourgogne du Moyen \u00c2ge, [En ligne] <a href=\"http:\/\/www.cbma-project.eu\" target=\"_blank\">http:\/\/www.cbma-project.eu<\/a>  "
        },
        {
            "type": "sources_manuscrites",
            "value": "\u00e0 renseigner."
        },
        {
            "type": "remarques",
            "value": "\r\n\r\nIndications dans l'\u00e9dition des Chartes de Cluny quand Bernard et Bruel n'ont pas repris le texte : Bonifacius, etc. Sub religionis habitu, etc. (Bull. Clun., p.\u00a0163, col.\u00a02, n\u00ba\u00a01.)."
        },
        {
            "type": "edition_autre",
            "value": "Ici reprise de Auguste Bernard, Alexandre Bruel, <i>Recueil des chartes de l'abbaye de Cluny<\/i>. VI. <i>1211-1300<\/i>, Paris\u00a0: Imprimerie nationale, 1903 <a href=\"http:\/\/gallica.bnf.fr\/ark:\/12148\/bpt6k367019?rk=21459;2\" target=\"_blank\">[en ligne]<\/a>, p. 881, n\u00b0 5468.",
            "children": {
                "numero_note": "0"
            }
        },
        {
            "type": "edition_autre",
            "value": "Pierre Simon, <i>Bullarium sacri Ordinis cluniacensis, complectens plurima privilegia per summos pontifices tum ipsi cluniacensi abbatiae, tum ei subditis monasteriis hactenus concessa<\/i>, Lyon : Jullieron, 1680, p. 163, col. 2",
            "children": {
                "numero_note": "1"
            }
        },
        {
            "type": "genre",
            "value": "Bulle"
        },
        {
            "type": "genre",
            "value": "Lettre"
        }
    ]
}