{
    "id": 148603,
    "name": "aposcripta-8203",
    "type": "acte",
    "url": "http:\/\/telma-chartes.irht.cnrs.fr\/aposcripta\/notice\/148603",
    "project_slug": "aposcripta",
    "project_label": "APOSCRIPTA \u2013 Lettres des papes",
    "user": "m_filimonova",
    "last_update": "2020-10-19 16:39:47",
    "licence": "Attribution - Pas d\u2019Utilisation Commerciale - Partage dans les M\u00eames Conditions 3.0 France (CC BY-NC-SA 3.0 FR) ",
    "licence_url": "https:\/\/creativecommons.org\/licenses\/by-nc-sa\/3.0\/fr\/",
    "elements": [
        {
            "type": "pape",
            "value": "Cl\u00e9ment VII (antipape ; 1378-1394)"
        },
        {
            "type": "date_libre",
            "value": "Idus februarii, anno septimo"
        },
        {
            "type": "date",
            "value": "1385\/02\/10",
            "children": {
                "date_deb_annee": "1385",
                "date_deb_mois": "02",
                "date_deb_jour": "10"
            },
            "range": {
                "date_apres": 13850210,
                "date_avant": 13850210
            }
        },
        {
            "type": "date_lieu",
            "value": "Avignon"
        },
        {
            "type": "genre",
            "value": "Bulle (ad perpetuam rei memoriam)"
        },
        {
            "type": "analyse",
            "value": "Clemens VII dagvaardt opnieuw Arnold van Hoorn, bisschop van Luik, Floris van Wevelichoven, bisschop van Utrecht, Potho van Pothenstein, bisschop van Munster, en hunne aanhangers, om 2(?) Juni a.s. in het openbaar Consistorie te verschijnen. [Brom]"
        },
        {
            "type": "sources_manuscrites",
            "value": "Vaticaansch arch. Castel S. Angelo, Arm. D. fasc. I no. 1. Oorspr. op perkament, door vocht en slijtage op de vouwen zeer beschadigd en dikwijls onleesbaar. Het looden zegel hangt aan geschonden zijden draden. Op den rug: \u2018Citacio\u2019.... - Wanneer de tekst onleesbaar was of onduidelijk, zijn hier de lacunes zoo goed mogelijk tusschen [ ] aan gevuld, in aansluiting met de ongeveer gelijk luidende bijlagen IX en XVII."
        },
        {
            "type": "edition",
            "value": "Ici reprise de G. Brom, \u00ab De Tegenpaus Clemens VII en het bisdom Utrecht \u00bb, <i>Bijdragen en mededeelingen van het Historisch Genootschap (gevestigd te Utrecht)<\/i>, 28, 1907, p. 1-102 <a target=\"_blank\" href=\"https:\/\/dspace.library.uu.nl\/handle\/1874\/254074\"> [en ligne]<\/a>, aux p. 86-91."
        },
        {
            "type": "transcription",
            "value": "<?xml version=\"1.0\" encoding=\"UTF-8\"?>\nClemens episcopus, servus servorum Dei, ad futuram rei memoriam. Cum dudum dampnationis filii Arnoldus de Horne in Leodiensem, Florencius de Wivelchoven (sic) in Trajectensem et Potho de Pothestain in Monasteriensem ecclesias pretextu litterarum viri pestiferi Bartholomei olim Barensis archiepiscopi, qui per violenciam et impressionem notorias in Sede apostolica intrusus erat et eam [occupare dampnabiliter contendebat] ac Urbem et nonnullas alias civitates et terras ad nos et Romanam ecclesiam pertinentes occupaverat et occupabat, se temere intrusissent et ipse ac Eccardus et.. abbas monasterii de Bontlo(?) Cisterciensis ordinis Trajectensis diocesis et Jacobus Dordani, qui se gerit pro clerico Salernitano et persona ecclesiastica, tunc in Flandria moram trahens, contra nos et eandem Romanam ecclesiam insurgentes(?), eidem Bartholomeo etiam post et contra processus nostros, contra eum [propter] intrusionem suam hujusmodi et alia ejus gravissima excessus et scelera ac ejus fautores et complices de fratrum nostrorum consilio auctoritate apostolica factos, diversas excommunicationis, suspensionis et interdicti ac alias penas et sentencias continentes, totis conatibus adhererent sibique in occupatione hujusmodi assistere ac consilium et auxilium prebere et alia gravia et enormia excessus et crimina contra nos et prefatam Romanam ecclesiam committere [veriti non fuissent nec etiam vererentur, nos] contra eosdem Arnoldum, Florencium, Pothonem, Gerardum et Jacobum duximus auctoritate predicta de eorundem fratrum consilio procedendum et per [nostras] sentencias, ipsis Arnoldo, Florencio, Pothone, Gerardo et Jacobo aliisque [fautoribus, quamquam hujusmodi ipsorum intrusiones], adhesiones [et alia crimina] adeo essent notoria, quod nulli inficiationi locus esset, ad eorum convincendam [malitiam legitime] evocatis, de nostrorum fratrum consilio [inter cetera] pronuntiavimus hactenus et de[claravimus, predictos Arnoldum, Florencium, Pothonem, Gerardum et Jacobum in excommunicationis, anathematis et alias sentencias atque censuras, tam a jure quam per prefatos predecessores nostros contra talia attemptantes ac in dictis nostris processibus contra [fautores et complices predictos promulgatas incidisse ac eisdem penis] et sentenciis [inno]datos fuisse et esse. Et demum, cum prefati Arnoldus, Florencius, Gerardus et Jacobus, relegato ab eis penitudinis spiritu, emendationis sue nulla signa prebuissent nec preberent, quamquam, ut converterentur, per plura ditationes et terminos misericorditer expectassemus eosdem, sed in profundum malorum demersi, predictas sententias nedum per unum, sed per duos annos et ultra, pertinaciter sustinuissent et sustinerent animis induratis, divinorum celebrationi se continue immiscendo et in suis ordinibus ministrando et claves [ecclesie] contempnendo et quasi per inextinguibilitatem impunitatem consequi arbitrantes de malo, sine intermissione in penis procederent, adeo quod hujusmodi eorum pertinacia scrupulo non careret heretice pravitatis, nos, qui ferventi desiderio salutem querimus singulorum, cupientes ipsorum Arnoldi, Florencii, Pothonis, Gerardi et Jacobi animarum [curare] languores, eosdem Arnoldum, Florencium, Pothonem, Gerardum et Jacobum per publice citationis edictum, presente fidelium multitudine copiosa, apostolica auctoritate citaverimus, ut certo competenti peremptorio termino tunc concesso coram nobis comparerent, super fide responsuri et juri parituri. Ac voluimus et auctoritate predicta decrevimus, quod citacio hujusmodi perinde valeret ac plenam obtineret roboris firmitatem eosdemque Arnoldum, Florencium, Pothonem, Gerardum et Jacobum perinde artaret, quacumque constitutione contraria non obstante, ac si eis intimata et insinuata personaliter extitisset, prefatis Arnaldo, Florencio, Pothoni, Gerardo et Jacobo securitatem veniendi, standi et redeundi cum oportunis clausulis concessimus, ut est moris. Et demum in eosdem Arnaldum, Florencium, Pothonem, Gerardum et Jacobum, quia in eodem termino comparere coram nobis contumaciter recusarunt, excommunicationis sententiam cogente justicia duximus promulgandam, prout in nostris inde confectis litteris, quas in valvis palacii apostolici Avinionensis et aliis locis publicis affigi fecimus, plenius continetur. Cum autem prefati Arnaldus, Florencius, Potho, Gerardus et Jacobus hujusmodi excommunicationis sentenciam per annum et amplius sustinuerint, prout sustinent animo pertinaci, nosque propter hujusmodi pertinaciam eorum, que suspitioni presumptionem adicit vehementem ad condempnandum eos velut hereticos, possemus procedere contra ipsos, volentes tamen eorum maliciam [relaxare?] in hac parte, eosdem Arnaldum, Florencium, Pothonem, Gerardum et Jacobum per hujusmodi publice citationis edictum, presente fidelium multitudine copiosa, auctoritate predicta citavimus, ut die [secu]nda mensis Junii proxime futuri in Consistorio publico, ubicumque tunc essemus, [si eo] die Consistorium ipsum fuerit, alioquin prima die extunc immediate sequente, qua Consistorium publicum esse contingeret, hora consistoriali, non obstantibus quibuscumque feriis indicendis, quos quidem diem et horam eis et eorum cuilibet pro peremptorio termino assignamus, personaliter compareant coram nobis ad judicium,...... se condempnari velut hereticos et alias contra eos procedi, prout eorum demerita exigent, suadebit justicia et nobis videbitur expedire. Ceterum volumus et auctoritate predicta decernimus, quod actum hujusmodi perinde valeat et plenam obtineat roboris firmitatem ac eosdem citatos perinde artet, quacunque constitutione contraria non obstante, ac si eis et eorum cuilibet intimata et insinuata personaliter extitisset, quem citationis modum ex certis causis rationabilibus animum nostrum moventibus duximus eligendum; et si prefati citati ipsam Romanam curiam, communem omnibus patriam, locum eis minus tutum aut propter inimicicias vel ex aliis causis imminere sibi periculum veniendo ad dictam curiam vel recedendo ab ipsa ad excusationis sue velamen seu pallium forsan allegent, universos et singulos patriarchas, archiepiscopos, episcopos et alios ecclesiarum et monasteriorum prelatos ac personas ecclesiasticas, necnon principes, duces, comites, barones, potestates, capitaneos et officiales alios eorumque locatenentes necnon comunia (sic) civitatum, universitates opidorum et aliorum quorumcunque locorum auctoritate apostolica requirimus et hortamur, ipsisque patriarchis, episcopis, prelatis et aliis personis ecclesiasticis ceterisque subditis nostris districte precipiendo mandamus, quatinus prefatis citatis in veniendo ad dictam curiam, morando in ea [et ab] illa recedendo in personis aut bonis aut rebus eorum nullam inferant molestiam vel offensam nec ab aliis, quantum in eis est, inferri permittant eisque et eorum sociis et familiaribus pro eorum pecuniis provideant de victualibus, hospiciis et aliis oportunis, non obstante nostra inhibitione quacunque contraria facta, quam alias volumus in suo robore permanere. Et ut processus noster hujusmodi ad dictorum citatorum noticiam deducatur, cartas seu membranas, processum continentes eundem, super litteras......... [valvis predictis affigi faciemus, que plenius cum prefatis] litteris processum ipsum suo quasi sonoro preconio et patulo inditio publicabunt, [ne aliquam] possint excusationem pretendere vel ignoranciam allegare, quod processus hujusmodi ad eos non pervenerit vel ignoraverint eundem, cum non sit verisimile quoad eos remanere incognitum vel occultum, quod tam patenter omnibus publicatur. Nulli ergo omnino hominum liceat hanc paginam nostre cautionis, assignati \u2016 onis, voluntatis, constitutionis, requisitionis, hortationis et mandati infringere vel ei ausu temerario contraire. Si quis autem hoc attemptare presumpserit, indignacionem Omnipotentis Dei et beatorum Petri en Pauli apostolorum ejus se noverit incursurum. Datum et actum Avinione, Id. Februarii, pontificatus nostri anno septimo.\n"
        }
    ]
}