{
    "id": 25761,
    "name": "aposcripta-2858",
    "type": "acte",
    "url": "http:\/\/telma-chartes.irht.cnrs.fr\/aposcripta\/notice\/25761",
    "project_slug": "aposcripta",
    "project_label": "APOSCRIPTA \u2013 Lettres des papes",
    "user": "lettrespontificalesadmin",
    "last_update": "2020-10-19 16:27:48",
    "licence": "Attribution - Pas d\u2019Utilisation Commerciale - Partage dans les M\u00eames Conditions 3.0 France (CC BY-NC-SA 3.0 FR) ",
    "licence_url": "https:\/\/creativecommons.org\/licenses\/by-nc-sa\/3.0\/fr\/",
    "elements": [
        {
            "type": "pape",
            "value": "Innocent IV (1243-1254)"
        },
        {
            "type": "destinataire",
            "value": "( )",
            "children": {
                "numero_note": "0"
            }
        },
        {
            "type": "date_lieu",
            "value": "n.c."
        },
        {
            "type": "date_libre",
            "value": "1254, 8 mai"
        },
        {
            "type": "date",
            "value": " 1254\/05\/08",
            "children": {
                "date_deb_annee": "1254",
                "date_deb_mois": "05",
                "date_deb_jour": "08"
            },
            "range": {
                "date_apres": 12540508,
                "date_avant": 12540508
            }
        },
        {
            "type": "analyse",
            "value": "X pape<br\/>BULLA INNOCENTII PAP\u00c6 IV, QUA ALBERTO NOTARIO SUO MANDAT UT ECCLESIAM ET C\u0152METERIUM DE THOLON A DUCE BURGUNDI\u00c6 OCCUPATA ABBATI CLUNIACENSI ETIAM PER EXCOMMUNICATIONEM RESTITUI FACIAT."
        },
        {
            "type": "transcription",
            "value": "<?xml version=\"1.0\" encoding=\"UTF-8\"?>\nInnocentius, etc. Ex parte dilectorum filiorum, etc... Datum Asisii, VIII idus maii, pontificatus nostri anno XI.\n"
        },
        {
            "type": "edition",
            "value": "Ici tir\u00e9e du projet <i>CBMA - Corpus Burgundiae Medii Aevi<\/i>, document 7007. Site du projet Corpus de la Bourgogne du Moyen \u00c2ge, [En ligne] <a href=\"http:\/\/www.cbma-project.eu\" target=\"_blank\">http:\/\/www.cbma-project.eu<\/a>  "
        },
        {
            "type": "sources_manuscrites",
            "value": "\u00e0 renseigner."
        },
        {
            "type": "remarques",
            "value": "\r\n\r\n (Arch. nat. L.\u00a0248, n\u00ba\u00a0254.)"
        },
        {
            "type": "edition_autre",
            "value": "Ici reprise de Auguste Bernard, Alexandre Bruel, <i>Recueil des chartes de l'abbaye de Cluny<\/i>. VI. <i>1211-1300<\/i>, Paris\u00a0: Imprimerie nationale, 1903 <a href=\"http:\/\/gallica.bnf.fr\/ark:\/12148\/bpt6k367019?rk=21459;2\" target=\"_blank\">[en ligne]<\/a>, p. 942, n\u00b0 4960 bis",
            "children": {
                "numero_note": "0"
            }
        },
        {
            "type": "genre",
            "value": "Bulle"
        },
        {
            "type": "genre",
            "value": "Lettre"
        }
    ]
}