{
    "id": 26360,
    "name": "aposcripta-3439",
    "type": "acte",
    "url": "http:\/\/telma-chartes.irht.cnrs.fr\/aposcripta\/notice\/26360",
    "project_slug": "aposcripta",
    "project_label": "APOSCRIPTA \u2013 Lettres des papes",
    "user": "lettrespontificalesadmin",
    "last_update": "2020-10-19 16:27:59",
    "licence": "Attribution - Pas d\u2019Utilisation Commerciale - Partage dans les M\u00eames Conditions 3.0 France (CC BY-NC-SA 3.0 FR) ",
    "licence_url": "https:\/\/creativecommons.org\/licenses\/by-nc-sa\/3.0\/fr\/",
    "elements": [
        {
            "type": "pape",
            "value": "Alexandre III (1159-1181)"
        },
        {
            "type": "date_lieu",
            "value": "Paris"
        },
        {
            "type": "date_libre",
            "value": "1163 April 5"
        },
        {
            "type": "date",
            "value": " 1163\/04\/05",
            "children": {
                "date_deb_annee": "1163",
                "date_deb_mois": "04",
                "date_deb_jour": "05"
            },
            "range": {
                "date_apres": 11630405,
                "date_avant": 11630405
            }
        },
        {
            "type": "analyse",
            "value": "Alexander III nimmt das Kloster Yerres (D. Paris) in apostolischen Schutz und best\u00e4tigt ihm seine Besitzth\u00fcmer<a class=\"note\" href=\"#note-1\">1<\/a>."
        },
        {
            "type": "transcription",
            "value": "<?xml version=\"1.0\" encoding=\"UTF-8\"?>\nAlexander episcopus servus servorum dei dilectis in Christo filiabus Clementi\u0229, abbatiss\u0229 monasterii sanct\u0229 Mari\u0229 de Hedera, eiusque sororibus tam presentibus quam futuris regularem vitam professis in ppm. \u2014 | Religiosis desideriis dignum est facilem prebere consensum, ut fidelis devotio celerem sortiatur effectum. Eapropter, dilect\u0229 in domino fili\u0229, tuis (!) iustis postulationibus clementer | annuimus et predecessorum nostrorum, felicis memori\u0229 Innocentii et Eugenii, Romanorum pontificum, vestigiis inherentes, prefatum beat\u0229 Mari\u0229 monasterium, in quo divino estis famulatui mancipat\u0229, sub beati Petri et nostra protectione suscipimus et presentis scripti privilegio communimus. Statuentes, ut quascumque possessiones, quecumque bona idem monasterium in presentiarum iuste et canonice possidet aut in futurum concessione pontificum, largitione regum vel principum, oblatione fidelium seu aliis iustis modis deo propitio poterit adipisci, firma vobis et eis, qu\u0229 post vos successerint, et illibata permaneant, in quibus hec propriis duximus exprimenda vocabulis : ex dono illustris memori\u0229 Ludoici, regis Francorum, terram de Amaro bosco, et totam terram de Uriovillari cum omnibus suis pertinentiis liberas et ab omni exactione quietas, et decem et octo sextaria annon\u0229 in molendino suo de Calliaco singulis annis, ex dono Ludovici regis, filii predicti regis, terram de mansionillo Ricuini, item in eodem loco aliam terram de dono Theoderici de Bovilla et quicquid ibi habebat, vinaticum apud villam qu\u0229 Cons vocatur, et quicquid pro eodem vinatico redditur, item ex dono predicti regis Ludovici iunioris, quotienscumquea rex Parisius fuerit, decimam totius panis qui ad curiam eius defertur vobis in perpetuum concessam, ex concessione eiusdem regis Ludovici quicquid accipere debet in capiceria ecclesi\u02292 Parisiensis, vacante sede et episcopatu existente in manu regia, usque ad ipsam diem qua fiet electio, et interim ipsius capiceri\u0229 et altaris tam in luminaribus quam aliis necessitatibus, sicut est consuetudo ecclesi\u0229, expensas facietis, molendinum quoque, quod prope monasterium est liberum et quietum, ex dono Hugonis, filii Guarneri, in molendino suo apud Brenmacum modium frumenti vel alterius annon\u0229, quecumque ibi melior fuerint, et quantum duo asini poterunt portare de lignis nemoris sui quod ibidem est singulis diebus ad faciendum ignem, ex dono Eremburgis decem alpennos terr\u0229 apud Succi, et sex solidos et dimidium census de pratis de Bretiniaco, ex dono bon\u0229 memori\u0229 Stephani, Parisiensis episcopi, ecclesiam de Villa abbatis cum decima, decimam de Genuliaco, decimam de Silviniaco, ecclesiam de Everiaco et decimam, decimam de Cramuele, decimam de Athiis, decimam de Calendre, decimam de Concisso, decimam vini de Cons, decimam vini de Centeniaco, ecclesiam de Edera et tertiam partem decim\u0229, ecclesiam de Altaribus et decimam, decimam de Braio, ecclesiam de Loco sancto cum decima, duas partes decim\u0229 de Darratio, partem nemoris apud Mossiacum, monasterium de Gif3 cum omnibus suis appenditiis. Idem quoqueb episcopus prefatum monasterium de Hedera ab omni exactione liberum esse concessit, ex concessione Theobaldi, quondam Parisiensis episcopi4, decimam totius tenetur\u02295 quam Gislebertus vicecomes de Corbolio apudc Silinniacum habebat, cunctique terragii quod ab ipso proveniebatc, ex concessione eiusdem .T[heobaldi], Parisiensis episcopi, decimam de sancto Teoldo magnam et parvam, ex dono Isembardi de Villa nova quicquid habebat ad Vilersim Melodunensi pago, quartam videlicet partem totius vill\u0229 cum omnibus appenditiis suis, exceptis feodo Guidonis Sagitt\u0229 et feodo Oddonis Paliz, ex dono Mathei Ternel medietatem cuiusdam molendini, ex concessione Petri, quondamd Parisiensis episcopi6, duas partes minoris decim\u0229 de Borneio, medietatem minoris decim\u0229 de villa Crana, medietatem decim\u0229 de Ciancort, duas partes minoris decim\u0229 de Santoni, ex dono Simonis Strabonis de Corbolio duos modios annon\u0229, unum hyemalem et alium marcesche7, ex dono Emeline, uxoris Ferrici Briardi, tres modios annon\u0229 in grangia de Orval, ex dono Masceline, vicecomitisse Corbolii, unum modium annon\u0229, apud Mesum prope Miledunum medietatem frumenti et aliam medietatem ordei, ex dono Ansellie de Corbias terram de Cothe qu\u0229 est inter Cociniacum et Capriacum, compositionemf autem super decimam de Bono loco inter vos et ecclesiam sancti Petri virorum8 per manum Manasse, Aurelianensis episcopi9, et Buchardi, eiusdem ecclesi\u0229 sancti Petri virorum decani, rationabiliter factam et eorum scripto firmatam, nichilominus confirmamus, compositionem etiam super commutationem, qu\u0229 facta est inter vos et abbatem de Calmis10 de molendino de Maceriis quod habebat prope ecclesiam vestram, et quinque solidos censualibus quos habebat apud Cantum lupi, super duobus quoque modiis annon\u0229 quos annuatim accipiebatis in grangiam monachorum de Calinis apud Bicciacum et terram et pratum quod habebatis apud Varenellas, per manum Mauritii. Parisiensis episcopi11, rationabiliter factam et scripto notatam, ratam habemus et presenti pagina roboramus, ex dono Henrici, Senonensis archiepiscopi, decimas de Merbois et de Mosennai et omnem decimam de Govilla et ecclesiam de Villari. In episcopatu Carnotensi12 ex dono Simonis de Gaserant et filiorum eius locum qui Pomerium dicitur, in quo .G(oslenus ?), Carnotensis episcopus, cappellam fieri concessit, item ex dono prefati Senonensis archiepiscopi decimam quam minutam vocant de Cavennes et decimam vini, decimam totius terr\u0229 quam Hugo Gurreth habet in suo dominio, decimam duorum arpennorum terr\u0229 quos idem Hugo vobis donavit, et decimam de Chosel, ex dono ipsius Hugonis dimidium modium frumenti et dimidium ordei de horreo suo singulis annis et censum sex nummorum. Preterea quatuor arpennos terr\u0229, in qua monasterium vestrum fundatum est, terram de Rareto, quicquid Eustachia habebat apud Cantalupum, septem sextaria annon\u0229 qu\u0229 Fredericus comes habebat in molendinis apud villam qu\u0229 dicitur Valles, medietatem molendini de Pampiluna, apud Corbolium quartam partem molendini de pontello sancti Exuperii, apud Nonamg medietatem molendini, sextam partem portus de Villa nova, apud aliam Villam novam decimam de Contit. Sane novalium vestrorum, qu\u0229 propriis manibus aut sumptibus colitis, sive de nutrimentis vestrorum animalium nullus decimas exigere presumat. Decernimus ergo, ut nulli omnino hominum liceat, prefatum monasterium temere perturbare aut eius possessiones auferre vel ablatas retinere, minuere aut aliquibus vexationibus fatigare, sed omnia integra conserventur earum, pro quarum gubernatione et sustentatione concessa sunt, usibus omnimodis profutura, salva sedis apostolic\u0229 auctoritate et diocesanorum episcoporum canonica iustitia. Si qua igitur in futurum ecclesiastica secularisve persona hanc nostr\u0229 constitutionis paginam sciens contra eam temere venire temptaverit, secundo tertiove commonita, si non satisfactione congrua emendaverit, potestatis honorisque sui dignitate careat, reamque se divino iudicio existere de perpetrata iniquitate cognoscat, et a | sacratissimo corpore ac sanguine dei et domini redemptoris nostri Jesu Christi aliena fiat, atque in extremo examine district\u0229 ultioni subiaceat. Conservantes autem hec omnipotentis dei benedictionem et gratiam consequantur. Amen. Am. Amen.(R) Ego Alexander catholice ecclesie episcopus ss. (M)\u2020 Ego Hubaldus Hostiensis episcopus ss.\u2020 Ego Bernardus Portuensis et sancte Rufine episcopus ss.\u2020 Ego Gualterius Albanensis episcopus ss. (3)\u2014 \u2020 Ego Hubaldus presbiter cardinalis tit. sancte Crucis in Jerusalem ss. (1)\u2020 Ego Johannes presbiter cardinalis tit. sancte Anastasie ss.\u2020 Ego Albertus presbiter cardinalis tit. sancti Laurentii in Lucina ss.\u2020 Ego Guillelmus presbiter cardinalis tit. sancti Petri ad vincula ss. (2)\u2014 \u2020 Ego Jacintus diaconus cardinalis sancte Marie in Cosmydyn ss.\u2020 Ego Oddo diaconus cardinalis sancti Nicholai in carcere Tulliano ss.\u2020 Ego Ardicius diaconus cardinalis sancti Theodori ss.\u2020 Ego Boso diaconus cardinalis sanctorum Cosme et Damiani ss.\u2020 Ego Cinthyus diaconus cardinalis sancti Adriani ss.\u2020 Ego Johannes diaconus cardinalis sanct\u0229 Mari\u0229 in porticu ss.\u2020 Ego Manfredus diaconus cardinalis sancti Georgii ad velum aureum ss.Dat. Parisius, per manum Hermanni, sancte Romane ecclesi\u0229 subdiaconi et notarii. Non. Aprilis. Indictione ... Incarnationis dominice anno mclxiii. Pontificatus vero domni Alexandri pp iii anno iiii. \u2014\n"
        },
        {
            "type": "edition",
            "value": "Julius von Pflugk-Harttung, <i>Acta pontificum Romanorum inedita<\/i>, T\u00fcbingen, 1880, I, n. 251, p. 233-234"
        },
        {
            "type": "sources_manuscrites",
            "value": "Or. im Archive des D\u00e9p. Seine-et-Oise zu Versailles."
        },
        {
            "type": "remarques",
            "value": "Perg. wohl s\u00fcdfranz\u00f6sisch, br. 0,525, lang 0,725, schmal umgeschlagen, Bullirung durch 2 L\u00f6cher, Schnur und Bulle verloren, Faltung der Privilegien. Ringkreuz und p\u00e4pstl. Unterschrift scheinen von gleicher Hand, die Diakonen alle von ein und demselben Schreiber herzur\u00fchren."
        },
        {
            "type": "apparat_critique",
            "value": "a.\u2002quotitienscumque",
            "children": {
                "numero_note": "a"
            }
        },
        {
            "type": "apparat_critique",
            "value": "b.\u2002quo",
            "children": {
                "numero_note": "b"
            }
        },
        {
            "type": "apparat_critique",
            "value": "c.\u2002<i>Von<\/i> olio apud <i>bis<\/i> veniebat <i>auf Rasur<\/i>.",
            "children": {
                "numero_note": "c"
            }
        },
        {
            "type": "apparat_critique",
            "value": "d.\u2002<i>Auf Rasur.<\/i>",
            "children": {
                "numero_note": "d"
            }
        },
        {
            "type": "apparat_critique",
            "value": "e.\u2002x dono Anselli <i>auf Rasur<\/i>.",
            "children": {
                "numero_note": "e"
            }
        },
        {
            "type": "apparat_critique",
            "value": "f.\u2002composionem.",
            "children": {
                "numero_note": "f"
            }
        },
        {
            "type": "apparat_critique",
            "value": "g.\u2002Honam : <i>1158 M\u00e4rz 18<\/i>.",
            "children": {
                "numero_note": "g"
            }
        },
        {
            "type": "notes_historiques",
            "value": "<i>Vergl. die Urk. vom 18 M\u00e4rz 1159 und 28 Jan. 1164\u20131165.<\/i>",
            "children": {
                "numero_note": "1"
            }
        },
        {
            "type": "notes_historiques",
            "value": "<i>Capitium, Capiceria : das Presbyterium, vergl. oben S. 71 Anm. 2 ; Brinckmeier, Gloss. I S. 462.<\/i>",
            "children": {
                "numero_note": "2"
            }
        },
        {
            "type": "notes_historiques",
            "value": "<i>Ste.-Vierge de Gif<\/i> (<i>D. Paris<\/i>).",
            "children": {
                "numero_note": "3"
            }
        },
        {
            "type": "notes_historiques",
            "value": "<i>Theobald, Bischof v. Paris c. 1144\u20131158.<\/i>",
            "children": {
                "numero_note": "4"
            }
        },
        {
            "type": "notes_historiques",
            "value": "<i>Tenementum, Tenetura, Teneura : praedium, quod quis sibi haeredibusque suis a domino sub certis conditionibus ac praestationibus traditum, tenet atque possidet ;<\/i> \u201e<i>Tenure<\/i>\u201c (<i>F\u00e9od, Mouvance<\/i>). <i>Auch<\/i> (<i>Tenetura<\/i>) : <i>Forma, qua tenementum de domino per vasallum tenetur seu possidetur. Du Cange VI p. 536 ; Encycl. M\u00e9th. Jur. VII p. 15 ; Gu\u00e9rard, Polyptyque II p. 444, 457 ; Bescherelle, Dict. Nat. II p. 1454 ; Littr\u00e9, Dict. IV p. 2191.<\/i>",
            "children": {
                "numero_note": "5"
            }
        },
        {
            "type": "notes_historiques",
            "value": "<i>Petrus Lombardus, Bischof v. Paris, 1158\u20131160.<\/i>",
            "children": {
                "numero_note": "6"
            }
        },
        {
            "type": "notes_historiques",
            "value": "<i>Marceschia, Marcescha : Martium seu trimestre frumentum quod Martio mense seritur ;<\/i> \u201e<i>Mars, Mars\u00e9s, Marsois, bl\u00e9 Marsois<\/i>\u201c<i>; Sommerkorn : Gerste, Hafer, Hirse etc. Du Cange IV p. 278 ; Bescherelle, II p. 455 ; Littr\u00e9, III p. 459.<\/i>",
            "children": {
                "numero_note": "7"
            }
        },
        {
            "type": "notes_historiques",
            "value": "<i>St.-Pierre-en-Pont<\/i> (<i>D. Orl\u00e9ans<\/i>).",
            "children": {
                "numero_note": "8"
            }
        },
        {
            "type": "notes_historiques",
            "value": "<i>Manasse II, de Garlande, Bischof v. Orl\u00e9ans, 1146\u2013c. 1185.<\/i>",
            "children": {
                "numero_note": "9"
            }
        },
        {
            "type": "notes_historiques",
            "value": "<i>La Chaume<\/i> (<i>D. Sens<\/i>).",
            "children": {
                "numero_note": "10"
            }
        },
        {
            "type": "notes_historiques",
            "value": "<i>Mauritius de Sully, Bischof v. Paris, 1160\u20131196.<\/i>",
            "children": {
                "numero_note": "11"
            }
        },
        {
            "type": "notes_historiques",
            "value": "<i>Chartres.<\/i>",
            "children": {
                "numero_note": "12"
            }
        },
        {
            "type": "genre",
            "value": "Bulle"
        }
    ]
}