{
    "id": 25964,
    "name": "aposcripta-3061",
    "type": "acte",
    "url": "http:\/\/telma-chartes.irht.cnrs.fr\/aposcripta\/notice\/25964",
    "project_slug": "aposcripta",
    "project_label": "APOSCRIPTA \u2013 Lettres des papes",
    "user": "lettrespontificalesadmin",
    "last_update": "2020-10-19 16:27:51",
    "licence": "Attribution - Pas d\u2019Utilisation Commerciale - Partage dans les M\u00eames Conditions 3.0 France (CC BY-NC-SA 3.0 FR) ",
    "licence_url": "https:\/\/creativecommons.org\/licenses\/by-nc-sa\/3.0\/fr\/",
    "elements": [
        {
            "type": "pape",
            "value": "Cl\u00e9ment VI (1342-1352)"
        },
        {
            "type": "destinataire",
            "value": "L'abb\u00e9 et la communaut\u00e9 du monast\u00e8re de Cluny",
            "children": {
                "numero_note": "0"
            }
        },
        {
            "type": "date_lieu",
            "value": "Avignon"
        },
        {
            "type": "date_libre",
            "value": "kalendis aprilis, anno primo"
        },
        {
            "type": "date",
            "value": " 1343\/04\/01",
            "children": {
                "date_deb_annee": "1343",
                "date_deb_mois": "04",
                "date_deb_jour": "01"
            },
            "range": {
                "date_apres": 13430401,
                "date_avant": 13430401
            }
        },
        {
            "type": "analyse",
            "value": "Privilegium Clementis pape VI pro exemptione monasteriorum ordinis Cluniacensis ab omni jurisdictione ordinariorum."
        },
        {
            "type": "transcription",
            "value": "<?xml version=\"1.0\" encoding=\"UTF-8\"?>\nClemens episcopus, servus servorum Dei, dilectis filiis abbati et conventui monasterii Cluniacensis ad Romanam Ecclesiam nullo medio pertinentis, Matisconensis di\u0153cesis, salutem et apostolicam benedictionem. Sacrosancta Romana Ecclesia mater cunctorum fidelium et magistra in agro virtutum vestri Ordinis, cui Altissimus benedixit, et in decore sanct\u00e6 religionis, sub qua virtutum Domino gratum impenditis famulatum, exultat et jubilat, pr\u00e6sertim dum prospicit qu\u00f2d vos ad alta virtutum gradibus, per exercitium bonorum operum, et pr\u00e6clara sanctitatis merita conscendentes, trahitis ad divin\u00e6 majestatis obsequia alios per exemplum, vitam ducendo purissimam, hospitalitatem servando, et divin\u00e6 Laudis frequenti\u00e6, celebrisque venerationis instanti\u00e6, ex qua gloria divin\u00e6 majestatis attollitur, devotissime insistendo ; propter qu\u00e6 nos Ordinem vestrum pr\u00e6fatum, quem erga nos et eamdem Ecclesiam devotionis claritate pr\u00e6lucere conspicimus, infra claustra nostri pectoris paternis affectibus complectentes, circa bonum statum ipsius totis studiis vigilamus, ut Deo propitio protegatur \u00e0 noxiis, salubria semper incrementa suscipiat, necnon pacis et tranquillitatis affluat Ubertate, ips\u00e9que et person\u00e6 ipsius ab omni sint perturbatione secur\u00e6, ac a jugo cujuslibet oppressionis serventur ill\u00e6s\u00e6, pr\u00e6rogativa libertatis apostolic\u00e6 communimus. Sane petitio vestra nobis nuper exhibita continebat, quod licet vestrum Monasterium cum Abbatiis, Prioratibus, Decanatibus, et aliis membris suis eidem immediat\u00e8, seu mediat\u00e8 subjectis, ubilibet constitutis, ab olim reputatum fuerit, et adhuc etiam reputetur communiter fore \u00e0 jurisdictione quorumlibet judicum ordinariorum exemptum, ac soli immediat\u00e8 Sedi Apostolic\u00e6 subjacere, cum personis degentibus in eisdem: tamen nobis humiliter supplicastis ut ad evitandum cujuslibet molesti\u00e6 ac inquietationis materiam, qu\u00e6 vobis contra hujusmodi exemptionis libertatem posset inferri, et ut cujuslibet proptere\u00e0 tollatur contra vos occasio malignandi, Monasterium vestrum cum Abbatiis, Prioratibus, Decanatibus, et membris et personis pr\u00e6dictis pro incremento boni status Monasterii et membrorum, ac pace et tranquillitate personarum degentium in eisdem de novo eximere totaliter auctoritate Apostolica dignaremur. Nos igitur, qui in Monasterio vestro plen\u00e8 novimus pr\u00e6missa et alia multa bona opera et sanctitatis clarere insignia, cultumque Divinum, Regularem observantiam, et Religionis normam inter alia Monasteria relucere, illudque multipliciter reflorere in spiritualibus, volentes paci et tranquillitati vestr\u00e6 perpetu\u00e6, ac membrorum et personarum eorumdem providere salubriter, vosque ac Monasterium et alia membra vestra pr\u00e6rogativa specialis favoris et gratias insignire, illaque decorare singularis privilegii titulo intendentes, hujusmodi supplicationibus inclinati pr\u00e6fatum vestrum Monasterium cum omnibus aliis et singulis Monasteriis, Prioratibus, Decanatibus, et aliis quibuscumque membris suis utriusque sexus ipsi vestro Monasterio immediat\u00e8 vel mediat\u00e8 subjectis habitis et habendis cum omnibus personis regularibus vestrorum Ordinis et Religionis degentibus in eisdem pr\u00e6sentibus et futuris ab omni ordinaria jurisdictione, dominio, visitatione, et potestate qualibet omnium et singulorum Patriarcharum, Archiepiscoporum, Episcoporum, et aliorum quorumlibet judicum ordinariorum Ecclesiasticorum de specialis dono grati\u00e6 de novo eximimus et totaliter liberamus, illaque in jus et proprietatem Beati Petri et Sedis ejusdem, et sub eorum speciali et immediata protectione suscipientes et nostra, decernimus Monasterium vestrum et omnia et singula alia Monasteria, Prioratus, Decanatus, et alia membra et personas pr\u00e6dicta soli et immediat\u00e8 Sedi Apostolic\u00e6 subjacere, quodque locorum Ordinarii Di\u0153cesani, vel alia qu\u00e6vis persona Ecclesiastica in vos, Monasteria, Prioratus, Decanatus, et alia membra et personas pr\u00e6fata ut pote prorsus exempta non possint auctoritate ordinaria excommunicationis, suspensionis, aut interdicti sententias promulgare, vel ali\u00e0s etiam ratione delicti seu contractus vel rei, de qua agetur, ubicumque committatur delictum, ineatur contractus, aut res ipsa consistat, potestatem seu jurisdictionem aliquam quomodolibet exercere, felicis memori\u00e6 Innocentii Pap\u00e6 quarti pr\u00e6decessoris nostri circa exemptionem edita, qu\u00e6 incipit volentes, et omnibus aliis constitutionibus Apostolicis in contrarium editis non obstantibus quibuscumque. Nos enim quaslibet excommunicationum, suspensionum, et interdicti sententias, et quoscumque processus quasvis p\u0153nas et sententias continentes, quas et quos contra vos, Monasteria, Prioratus, Decanatus, et alia membra, et personas pr\u00e6dicta contra tenorem et formam exemptionis hujusmodi quomodolibet promulgari et haberi contigerit, irritos decernimus et inanes. Volumus autem qu\u00f2d vos, in signum percept\u00e6 ab eadem Ecclesia Romana libertatis et exemptionis hujusmodi, unam unciam auri dict\u00e6 Roman\u00e6 Ecclesi\u00e6 in festo Beatorum Apostolorum Petri et Pauli solvere perpetu\u00f2 teneamini annuatim: quodque per pr\u00e6sentem exemptionem et alia supradicta libertatibus, privilegiis, et immunitatibus aliis vestris et Ordinis vestri nullum pr\u00e6judicium generetur, quin im\u00f2 volumus quod illa in sua plena remaneant firmitate. C\u0153terum non intendimus alicui vel aliquibus per exemptionem et libertatem pr\u00e6fatas in vestrarum, ac Monasteriorum, Prioratuum, ac Decanatuum, et membrorum pr\u00e6dictorum Ecclesiarum Parochialium visitationibus, necnon in perceptionibus tam earum, qu\u00e6 ratione visitationis pr\u00e6dict\u00e6 debentur, qu\u00e0m aliarum antiquarum et solitarum procurationum, seu alias absque visitatione debitarum aliquatenus derogare. Nulli ergo omnino hominum liceat hanc paginam nostrarum exemptionis, liberationis, susceptionis, constitutionum et voluntatum infringere vel ei ausu temerario contraire. Si quis autem hoc attentare pr\u00e6sumpserit, indignationem omnipotentis Dei et beatorum Petri et Pauli apostolorum ejus se noverit incursurum. Datum Avenioni, kalendis aprilis, pontificatus nostri anno primo.\n"
        },
        {
            "type": "edition",
            "value": "Ici tir\u00e9e du projet <i>CBMA - Corpus Burgundiae Medii Aevi<\/i>, document 11101. Site du projet Corpus de la Bourgogne du Moyen \u00c2ge, [En ligne] <a href=\"http:\/\/www.cbma-project.eu\" target=\"_blank\">http:\/\/www.cbma-project.eu<\/a>  "
        },
        {
            "type": "sources_manuscrites",
            "value": "\u00e0 renseigner."
        },
        {
            "type": "remarques",
            "value": ""
        },
        {
            "type": "edition_autre",
            "value": "Ici reprise de Pierre Simon, <i>Bullarium sacri Ordinis cluniacensis, complectens plurima privilegia per summos pontifices tum ipsi cluniacensi abbatiae, tum ei subditis monasteriis hactenus concessa<\/i>, Lyon : Jullieron, 1680, p. 173, col. 2-174, col. 1.",
            "children": {
                "numero_note": "0"
            }
        },
        {
            "type": "genre",
            "value": "Titre, g\u00e9n\u00e9ral (littere gratiose, cum filo serico)"
        }
    ]
}