{
    "id": 143475,
    "name": "aposcripta-5119",
    "type": "acte",
    "url": "http:\/\/telma-chartes.irht.cnrs.fr\/aposcripta\/notice\/143475",
    "project_slug": "aposcripta",
    "project_label": "APOSCRIPTA \u2013 Lettres des papes",
    "user": "b_oury",
    "last_update": "2020-10-19 16:38:49",
    "licence": "Attribution - Pas d\u2019Utilisation Commerciale - Partage dans les M\u00eames Conditions 3.0 France (CC BY-NC-SA 3.0 FR) ",
    "licence_url": "https:\/\/creativecommons.org\/licenses\/by-nc-sa\/3.0\/fr\/",
    "elements": [
        {
            "type": "pape",
            "value": "Innocent IV (1243-1254)"
        },
        {
            "type": "destinataire",
            "value": "Tous les fid\u00e8les du Christ qui regarderont ces lettres"
        },
        {
            "type": "date_libre",
            "value": "II kalendas decembris, anno primo"
        },
        {
            "type": "date",
            "value": "1243\/11\/30",
            "children": {
                "date_deb_annee": "1243",
                "date_deb_mois": "11",
                "date_deb_jour": "30"
            },
            "range": {
                "date_apres": 12431130,
                "date_avant": 12431130
            }
        },
        {
            "type": "date_lieu",
            "value": "Latran"
        },
        {
            "type": "genre",
            "value": "Titre, g\u00e9n\u00e9ral (littere gratiose, cum filo serico)"
        },
        {
            "type": "analyse",
            "value": "Le pape Innocent IV accorde une indulgence de quarante jours \u00e0 tous ceux qui, aux f\u00eates de la sainte Vierge et \u00e0 l\u2019anniversaire de la D\u00e9dicace, visiteront l\u2019\u00e9glise cath\u00e9drale d\u00e9di\u00e9e \u00e0 Notre-Dame, et o\u00f9 sont conserv\u00e9es tant de reliques des saints."
        },
        {
            "type": "sources_manuscrites",
            "value": "F. FRANCE, Caen, Archives d\u00e9partementales du Calvados, Biblioth\u00e8que du chapitre de Bayeux 0193,\u00a0<i>Cartulaire de la cath\u00e9drale Notre-Dame de Bayeux, Livre noir, Antiquus cartularius ecclesiae Baiocensis<\/i>, fol. 78. Copie du XIVe\u00a0si\u00e8cle.",
            "children": {
                "type_source": "Cartulaire"
            }
        },
        {
            "type": "edition",
            "value": "Ici reprise de  Valentin Bourrienne, <i>Antiquus cartularius ecclesi\u00e6 Baiocensis (Livre noir)<\/i>, Rouen-Paris : Lestringant-Picard (Soci\u00e9t\u00e9 de l\u2019histoire de Normandie), 1902-1903, 2 vol., t. 2, n. CCCXXXII, p. 53-54 <a target=\"_blank\" href=\"https:\/\/gallica.bnf.fr\/ark:\/12148\/bpt6k5740420x\/f61 \"> [en ligne]<\/a>, num\u00e9ris\u00e9e par Pierre Bauduin (dir.), <i>SCRIPTA. Base des actes normands m\u00e9di\u00e9vaux<\/i>, Caen, CRAHAM-MRSH, 2010-2016, <a target=\"_blank\" href=\"https:\/\/www.unicaen.fr\/scripta\/acte\/1122\"> [en ligne]<\/a>, Acte 1122."
        },
        {
            "type": "transcription",
            "value": "<?xml version=\"1.0\" encoding=\"UTF-8\"?>\nInnocentius, episcopus, servus servorum Dei, universis Christi fidelibus has litteras inspecturis, salutem et apostolicam benedictionem. Si populus Israeliticus, qui sub legis umbra vivebat, frequenter accedens oraturus ad locum quem elegit Dominus ut ibi poneret nomen suum, vota et donaria plurima offerebat, tanto forcius populus christianus, cui apparuit benignitas et humanitas Salvatoris, tenentura ecclesias, in quibus Christus ad abolendam nostrorum criminum corruptelam immortaliter et incorruptibiliter vivens cotidie immolatur, congruis honoribus frequentare ac ibidem offerre munera cum animi puritate, quanto certiora sunt experimenta rerum quam enigmata figurarum. Cum igitur cathedralis ecclesia Baiocensis in honorem beatissime Virginis sit constructa ibique multorum sanctorum preciosissime reliquie requiescant, universitatem vestram rogamus, monemus et hortamur attente, in remissionem vobis peccaminum injungentes, quatinus cum debita devotione accedentes ad eandem ecclesiam in sollempnitatibus ejusdem Virginis, imploraturi ejus suffragia, digna ibidem vota et munera pro peccatorum vestrorum remediis offeratis. Nos enim de omnipotentis Dei misericordia et beatorum Petri et Pauli apostolorum ejus ac ea quam ipse nobis concessit auctoritate confisi omnibus vere p\u0153nitentibus et confessis qui ad eam in singulis sollempnitatibus ejusdem glorios\u00e6 Virginis ac dedicatione ipsius ecclesi\u00e6 accesserint quadraginta dies de injuncta sibi p\u0153nitencia misericorditer relaxamus. Datum Laterani, duo kalendas decembris, pontificatus nostri anno primo.\n"
        },
        {
            "type": "apparat_critique",
            "value": "<i>sic<\/i>. ",
            "children": {
                "numero_note": "a"
            }
        }
    ]
}