{
    "id": 25984,
    "name": "aposcripta-3081",
    "type": "acte",
    "url": "http:\/\/telma-chartes.irht.cnrs.fr\/aposcripta\/notice\/25984",
    "project_slug": "aposcripta",
    "project_label": "APOSCRIPTA \u2013 Lettres des papes",
    "user": "lettrespontificalesadmin",
    "last_update": "2020-10-19 16:27:52",
    "licence": "Attribution - Pas d\u2019Utilisation Commerciale - Partage dans les M\u00eames Conditions 3.0 France (CC BY-NC-SA 3.0 FR) ",
    "licence_url": "https:\/\/creativecommons.org\/licenses\/by-nc-sa\/3.0\/fr\/",
    "elements": [
        {
            "type": "pape",
            "value": "Jean XXIII (1410-1415)"
        },
        {
            "type": "destinataire",
            "value": "( )",
            "children": {
                "numero_note": "0"
            }
        },
        {
            "type": "date_lieu",
            "value": "n.c."
        },
        {
            "type": "date_libre",
            "value": "1413, Oct 20"
        },
        {
            "type": "date",
            "value": " 1413\/10\/20",
            "children": {
                "date_deb_annee": "1413",
                "date_deb_mois": "10",
                "date_deb_jour": "20"
            },
            "range": {
                "date_apres": 14131020,
                "date_avant": 14131020
            }
        },
        {
            "type": "analyse",
            "value": "X pape<br\/>PRIVILEGIUM IOANNIS PAP\u00c6 XXIII. quod officia Claustralia Monasteriorum Ordinis Cluniacens. qu\u00e6 et manualia hic dicuntur per litteras Apostolicas nullatenus valeant conferri."
        },
        {
            "type": "transcription",
            "value": "<?xml version=\"1.0\" encoding=\"UTF-8\"?>\nIoannes Episcopus servus servorum Dei, ad perpetuam Rei memoriam. Pro singulorum fidelium, pr\u00e6sertim Religiosarum personarum statu salubriter dirigendo, prout ex debito injuncti Pastoralis tenemur officii, sollicit\u00e6 considerationis intuitum extendentes, ad ea, per qu\u00e6 earum dispendiis occurritur, libenter adhibemus sollicitudinis nostr\u00e6 partes. Hinc est quod nos dilectorum filiorum Abbatis, et conventus Monasterii Cluniacensis, Matisconensis Di\u0153cesis, in hac parte supplicationibus inclinati auctoritate Apostolica tenore pr\u00e6sentium statuimus, et etiam ordinamus, quod nulli, sive Cluniacensis, sive sancti Benedicti, seu cujuslibet alterius Ordinis professores, aut etiam quicumque alii cujuscumque status, gradus, aut conditionis existant, vigore quarumcumque litterarum super collationibus, et provisionibus de Beneficiis Ecclesiasticis cum cura, vel sine cura per Monachos dicti Cluniacensis Ordinis gubernari consuetis, etiamsi Prioratus, aut Decanatus, non tamen conventuales, vel administrationes, vel officia forent, ad collationem, provisionem, pr\u00e6sentationem, electionem, seu quamvis aliam dispositionem Cluniacensis pr\u00e6dicti, necnon aliorum ipsius Cluniacensis Ordinis Monasteriorum, Abbatum, et Priorum, necnon Decanorum, ac conventuum quorumlibet, communiter, vel divisim pertinentibus, vacantibus, vel vacaturis, ipsis, aut eorum alicui pro tempore faciendis, sub quacumque verborum forma hactenus obtentarum, seu in posterum obtinendarum, ac processuum qui per illas habiti pro tempore censebuntur, officia qu\u00e6cumque manualia, seu Claustralia, qu\u00e6 in eisdem Monasteriis, ac Prioratibus, et Decanatibus pro tempore vacare contigerit antedictis, acceptare, seu de illis sibi per Executores dictarum litterarum \u00e0 Sede pr\u00e6dicta ipsis deputatos, et etiam deputandos, necnon subexecutores illorum facere valeant aliquatenus provideri. Decernentes hujusmodi litteras, atque processus ad Officia pr\u00e6dicta non debere aliquatenus extendi, ac irritos, et inanes pr\u00e6dictos, ac alios quoscumque processus, necnon excommunicationis, suspensionis, et interdicti sententias, si quos, contra hujusmodi nostrorum statuti, ac Ordinationis tenorem, per litteras easdem etiam adversus Abbates, Priores, ac Decanos pr\u00e6fatos haberi contigerit, aut etiam promulgari: nonobstantibus dictis, et quibuscumque aliis clausulis eis derogatoriis, in ipsis litteris forsan contentis; etiamsi de illis de verbo ad verbum pr\u00e6sentibus mentio foret habenda; aut aliis gratiis quibuscumque. Nulli ergo, etc. Datum apud sanctum Antonium extra Muros Florentinenses XIII. Kalendas Novembris, Pontificatus nostri anno IV.\n"
        },
        {
            "type": "edition",
            "value": "Ici tir\u00e9e du projet <i>CBMA - Corpus Burgundiae Medii Aevi<\/i>, document 11122. Site du projet Corpus de la Bourgogne du Moyen \u00c2ge, [En ligne] <a href=\"http:\/\/www.cbma-project.eu\" target=\"_blank\">http:\/\/www.cbma-project.eu<\/a>  "
        },
        {
            "type": "sources_manuscrites",
            "value": "\u00e0 renseigner."
        },
        {
            "type": "remarques",
            "value": ""
        },
        {
            "type": "edition_autre",
            "value": "Ici reprise de Pierre Simon, <i>Bullarium sacri Ordinis cluniacensis, complectens plurima privilegia per summos pontifices tum ipsi cluniacensi abbatiae, tum ei subditis monasteriis hactenus concessa<\/i>, Lyon : Jullieron, 1680, p. 185, col. 2-186, col. 1.",
            "children": {
                "numero_note": "0"
            }
        },
        {
            "type": "genre",
            "value": "Bulle"
        },
        {
            "type": "genre",
            "value": "Lettre"
        }
    ]
}