{
    "id": 147431,
    "name": "aposcripta-7058",
    "type": "acte",
    "url": "http:\/\/telma-chartes.irht.cnrs.fr\/aposcripta\/notice\/147431",
    "project_slug": "aposcripta",
    "project_label": "APOSCRIPTA \u2013 Lettres des papes",
    "user": "l_valliere",
    "last_update": "2020-10-19 16:39:31",
    "licence": "Attribution - Pas d\u2019Utilisation Commerciale - Partage dans les M\u00eames Conditions 3.0 France (CC BY-NC-SA 3.0 FR) ",
    "licence_url": "https:\/\/creativecommons.org\/licenses\/by-nc-sa\/3.0\/fr\/",
    "elements": [
        {
            "type": "pape",
            "value": "Cl\u00e9ment IV (1265-1268)"
        },
        {
            "type": "destinataire",
            "value": "Le prieur provincial de l'ordre des fr\u00e8res Pr\u00eacheurs en Lombardie"
        },
        {
            "type": "date_libre",
            "value": "XV kalendas novembris, anno primo"
        },
        {
            "type": "date",
            "value": "1265\/10\/18",
            "children": {
                "date_deb_annee": "1265",
                "date_deb_mois": "10",
                "date_deb_jour": "18"
            },
            "range": {
                "date_apres": 12651018,
                "date_avant": 12651018
            }
        },
        {
            "type": "date_lieu",
            "value": "P\u00e9rouse"
        },
        {
            "type": "genre",
            "value": "Mandement (littere cum filo canapis)"
        },
        {
            "type": "analyse",
            "value": "Priori provinciali fratrum ord. Praedic. in Lombardia mandat ut eligat octo fratres suae provinciae eisque praecipiat ut inquisitionis officium in Lombardia et marchia Ianuensi diligenter exequantur."
        },
        {
            "type": "edition",
            "value": "Thom\u00e1s Ripoll, <i>Bullarium ordinis FF. Praedicatorum<\/i>, Rome, 1729-1740, 8 vol., t. I, n. 29, p. 460."
        },
        {
            "type": "regeste",
            "value": "Potthast, <i>Regesta pontificum Romanorum<\/i>, n. 19406 <a target=\"_blank\" href=\" http:\/\/opacplus.bsb-muenchen.de\/title\/BV004241514\/ft\/bsb11316018?page=635\"> [en ligne]<\/a>."
        },
        {
            "type": "transcription",
            "value": "<?xml version=\"1.0\" encoding=\"UTF-8\"?>\nLicet ex omnibus...\n"
        },
        {
            "type": "notes_historiques",
            "value": "Repetit Potthast, <i>Regesta pontificum Romanorum<\/i>, n. 18256 <a target=\"_blank\" href=\" http:\/\/opacplus.bsb-muenchen.de\/title\/BV004241514\/ft\/bsb11316018?page=550\"> [en ligne]<\/a>.",
            "children": {
                "numero_note": "1"
            }
        }
    ]
}