{
    "id": 24244,
    "name": "aposcripta-1395",
    "type": "acte",
    "url": "http:\/\/telma-chartes.irht.cnrs.fr\/aposcripta\/notice\/24244",
    "project_slug": "aposcripta",
    "project_label": "APOSCRIPTA \u2013 Lettres des papes",
    "user": "lettrespontificalesadmin",
    "last_update": "2020-10-19 16:27:26",
    "licence": "Attribution - Pas d\u2019Utilisation Commerciale - Partage dans les M\u00eames Conditions 3.0 France (CC BY-NC-SA 3.0 FR) ",
    "licence_url": "https:\/\/creativecommons.org\/licenses\/by-nc-sa\/3.0\/fr\/",
    "elements": [
        {
            "type": "pape",
            "value": "Innocent III (1198-1216)"
        },
        {
            "type": "date_lieu",
            "value": "n.c."
        },
        {
            "type": "date_libre",
            "value": "22\u00a0f\u00e9vrier 1215-16\u00a0juillet 1216"
        },
        {
            "type": "date",
            "value": "apr\u00e8s 1215\/02\/22 - avant 1216\/07\/16",
            "children": {
                "date_deb_annee": "1215",
                "date_deb_mois": "02",
                "date_deb_jour": "22",
                "date_deb_type": "apr\u00e8s",
                "date_fin_annee": "1216",
                "date_fin_mois": "07",
                "date_fin_jour": "16",
                "date_fin_type": "avant"
            },
            "range": {
                "date_apres": 12150222,
                "date_avant": 12160716
            }
        },
        {
            "type": "analyse",
            "value": "Innocent\u00a0III \u00e9crit aux habitants de Montpellier en faveur de Jacques d\u2019Aragon."
        },
        {
            "type": "transcription",
            "value": "<?xml version=\"1.0\" encoding=\"UTF-8\"?>\n"
        },
        {
            "type": "edition",
            "value": "Julien Rouquette, Augustin Villemagne, <i>Bullaire de l'\u00c9glise de Maguelone<\/i>, Paris, Montpellier : Picard, Valat, 1911-1914, I, n. 208, p. 389 <a target=\"_blank\" href= \" http:\/\/gallica.bnf.fr\/ark:\/12148\/bpt6k95550z\/f427.image\"> [en ligne]<\/a>."
        },
        {
            "type": "remarques",
            "value": "Innocent\u00a0III demande aux habitants de Montpellier de vouloir bien prendre sur les revenus de leur ville la part qui revient au jeune roi d\u2019Aragon, et de les envoyer au ma\u00eetre de la milice du Temple en Espagne, charg\u00e9 de l\u2019\u00e9ducation du jeune prince.\n\n[Rouquette-Villemagne]"
        },
        {
            "type": "bibliographie_generale",
            "value": "<span class=\"small-caps\">Potthast<\/span>, n\u00b0\u00a05183, d\u2019apr\u00e8s <span class=\"small-caps\">Theiner<\/span>.",
            "children": {
                "numero_note": "0"
            }
        },
        {
            "type": "regeste",
            "value": "Potthast, n\u00b0 5183, d\u2019apr\u00e8s Theiner 65, n. 68. https:\/\/archive.org\/stream\/RegestaPontificumRomanorum\/ph#page\/n463\/"
        },
        {
            "type": "genre",
            "value": "Bulle"
        }
    ]
}