{
    "id": 147002,
    "name": "aposcripta-6630",
    "type": "acte",
    "url": "http:\/\/telma-chartes.irht.cnrs.fr\/aposcripta\/notice\/147002",
    "project_slug": "aposcripta",
    "project_label": "APOSCRIPTA \u2013 Lettres des papes",
    "user": "tgirard",
    "last_update": "2020-10-19 16:39:25",
    "licence": "Attribution - Pas d\u2019Utilisation Commerciale - Partage dans les M\u00eames Conditions 3.0 France (CC BY-NC-SA 3.0 FR) ",
    "licence_url": "https:\/\/creativecommons.org\/licenses\/by-nc-sa\/3.0\/fr\/",
    "elements": [
        {
            "type": "pape",
            "value": "Lucius III (1181-1185)"
        },
        {
            "type": "destinataire",
            "value": "L'archev\u00eaque de Pise et l\u00e9gat apostolique, Ubaldo, et ses successeurs"
        },
        {
            "type": "date_libre",
            "value": "II idus novembris, indictione XV, MCLXXX"
        },
        {
            "type": "date",
            "value": "1181\/11\/12",
            "children": {
                "date_deb_annee": "1181",
                "date_deb_mois": "11",
                "date_deb_jour": "12"
            },
            "range": {
                "date_apres": 11811112,
                "date_avant": 11811112
            }
        },
        {
            "type": "date_lieu",
            "value": "Latran"
        },
        {
            "type": "genre",
            "value": "Privil\u00e8ge solennel"
        },
        {
            "type": "analyse",
            "value": "Lucius III best\u00e4tigt dem Erzbischofe Hubald von Pisa seine Metropolitan- und sonstigen Vorrechte."
        },
        {
            "type": "edition",
            "value": "Ici reprise de Julius von Pflugk-Harttung, <i>Acta pontificum Romanorum inedita.<\/i> III. <i>Urkunden der P\u00e4pste vom Jahre 590 bis zum Jahre 1197<\/i>, III, Stuttgart : W. Kohlhammer, 1886, n. 318, p. 289-290."
        },
        {
            "type": "transcription",
            "value": "<?xml version=\"1.0\" encoding=\"UTF-8\"?>\nLucius episcopus, servus servorum Dei, venerabili fratri Hubaldo, Pisano archiepiscopo, apostolice sedis legato, eiusque successoribus, canonice substituendis, in perpetuum. Tunc apostolice Sedis et Romanorum pontificum honor integre custoditur si unicuique ecclesie sua dignitas conservatur. Romane siquidem Ecclesie consueta benignitas et discreta humilitas, quos devotos et mansuetos filios repperit, alios dignitatibus et honoribus sibi amplius facit obnoxios, alios familiaritatis et dilectionis prerogativa sublimat. Equum enim et rationabile est ut quorum beneficia et obsequia se recolit suscepisse eorum devotioni non mensura pari nec quantitate equali, sed ex habundantis gratiae benivolentia libenti animo studeat respondere. Predecessor siquidem noster, felicis memorie papa Innocentius1, de discordia et guerra que inter Pisanam et Ianuensem civitates extiterant multas hominum clades et christianorum captivitates innumeras provenisse considerans, utriusque partis saluti tam spiritualiter, quam temporaliter, paterna sollicitudine studuit providere, atque pro bono pacis et recompensatione episcopatuum, quos, utique a predecessoribus nostris, Romanis pontificibus, ecclesie Pisane concessos, [in] insula Corsice, a predecessore tuo, bone memorie arch[iepisco]po Humberto2, accepit in Gallurensi iudicatu duos episcopatus, Galtelinensem videlicet et Civitatensem, et Popoliniensem episcopatum, sibi suisque successoribus et per eos ecclesie Pisane concessit et metropolitico iure subiecit. Nos itaque, qui in Sedis apostolice amministratione, licet indigni, disponente domino, sibi successimus, eandem concessionem antecessoris nostri, felicis memorie Alexandri pape3, vestigiis inherentes, auctoritate apostolica confirmamus et ratam manere censemus. Predecessorum quoque nostrorum vestigiis inherentes, vobis primatus honorem Turritane provincie confirmamus. Ad maiorem etiam honoris cumulum Pisane civitatis, ut Pisana ecclesia cum universo eiusdem civitatis populo in fidelitate atque devotione sacrosancte Romane ecclesie iugiter perseveret et in ipsa cotidie augmentetur, pro devotione quoque et honestate tua, frater Hubalde, Pisane archiepiscope, personam tuam et per te Pisanam ecclesiam ampliore munere volumus decorari. Tibi ergo tuisque successoribus primatum super Caralitanam et Arborensem provincias datum concedimus et auctoritate sedis apostolice confirmamus, ita quidem, ut eos ad concilium vocandi, excessus eorum corrigendi et in doctrina apostolica confirmandi, atque cetera omnia, que ad ius primatus pertinent, in eos exercendi habeatis liberam facultatem. Veruntamen supradictarum duarum provinciarum archiepiscopos ad concilium non vocabitis Pisas sine conscientia Romani pontificis. Super Turritanam vero provinciam dignitatem primatus, sicut a predecessoribus nostris ecclesie Pisane concessum est, habeatis. Legationem quoque Sardinie, a predecessore nostro, papa Urbano, predecessoribus tuis concessam et felicis recordationis Innocentii, Eugenii, Anastasii atque Alexandri, Romanorum pontificum, privilegiis in perpetuum roboratam, tibi tuisque successoribus presentis scripti pagina confirmamus et confirmationem ipsam ratam et inconvulsam perpetuis temporibus decernimus permanere. Denique, ut Pisana civitas, quea favore celestis numinis de inimicis christia[ni] nominis victoriam frequenter obtinuit et eorum urbes plurimas subiugavit, amplius honoretur, equo albo cum naccob albo in processionibus utendi et crucem, vexillum scilicet dominicum, per subiectas vobis provincias portandi et per spatium illud Vulterranensis episcopatus, quo de Pisano episcopatu ad Popoloniensem transitur, tibi tuisque successoribus licentiam damus. Pallei quoque usum fraternitati tue concedimus, ut videlicet eo secundum consuetudinem Pisane ecclesie perfruaris et in consecrationibus trium episcoporum in Corsica, Alleriensis scilicet, Aiacensis et Saguntini, ac predictorum duorum in Sardinia et Popoloniensis episcopi, quorum metropolitanus existis. Si qua igitur in posterum ecclesiastica secularisve personam ... Cunctis autem ... inveniant. Amen. A-m. Amen. [R] Ego Lucius catholice ecclesie episcopus ss. [M] \u2020 Ego Theodinus Portuensis et sancte Rufine sedis episcopus ss. \u2020 Ego Paulus Prenestinus episcopus ss. (7) \u2020 Ego Petrus tit. sancte Sus[ann]e presbiter cardinalis ss. \u2020 Ego Vivianus presbiter cardinalis tit. sancti Stephani in Celio monte ss. (1) \u2020 Ego Hugo presbiter cardinalis TiT. sancti Clementis ss. \u2020 Ego Arduinus presbiter cardinalis tit. sancte Crucis in Ierusalem ss. (2) \u2020 Ego Matheus presbiter cardinalis tit. sancti Marcelli ss. (1) \u2020 Ego Laborans presbiter cardinalis sancte Marie Transtiberim tit. Calixti ss. \u2020 Ego Iacinctus diaconus cardinalis sancte Marie in Cosmydyn ss. \u2020 Ego Rainerius diaconus cardinalis sancti Georgii ad Velum aureum ss. \u2020 Ego Gratianus sanctorum Cosme et Damiani cardinalis ss. \u2020 Ego Rainerius diaconus cardinalis sancti Adriani ss. \u2020 Ego Matheus sancte Marie nove diaconus cardinalis ss. Datum Laterani per manum Alberti, sancte Romane Ecclesie presbiteri cardinalis et cancellarii, II idus novembris, indictione XV, Incarnationis dominice anno MCLXXX .....\n"
        },
        {
            "type": "regeste",
            "value": "Philippe Jaff\u00e9, Wilhelm Wattenbach, Samuel Loewenfeld, Ferdinand Kaltenbrunner, Paul Ewald, <i>Regesta pontificum Romanorum ab condita ecclesia ad annum post Christum natum MCXCVIII<\/i>, 2<sup>e<\/sup> \u00e9d. Leipzig : Veit, 1885-1888, 2 vol., n. 14514 <a target=\"_blank\" href= \"https:\/\/archive.org\/details\/regestapontificu02cath\/page\/432\">[en ligne]<\/a>."
        },
        {
            "type": "notes_historiques",
            "value": "Urkunde vom 22 April 1138.",
            "children": {
                "numero_note": "1"
            }
        },
        {
            "type": "notes_historiques",
            "value": "Hubert, Erzbischof von Pisa, 1132\u20131137.",
            "children": {
                "numero_note": "2"
            }
        },
        {
            "type": "notes_historiques",
            "value": "Vergl. Jaff\u00e9, Reg. 8426. Or. im Arch. di Stato zu Pisa.",
            "children": {
                "numero_note": "3"
            }
        },
        {
            "type": "sources_manuscrites",
            "value": "A. ITALIE, Pise, Archivio di Stato, Atti publici 1181 Nov. 12. Perg. ital., br. 0,492, lang 0,625, das Umgeschlagene und ein St\u00fcck rechts und links sind abgeschnitten, durch zwei L\u00f6cher ging die Schnur, welche mit dem Bleisiegel verloren. Faltung der Bullen. Ringkreuz und E der Unterschrift f\u00fchren dunkle Dinte f\u00fcr sich, Umschrift hellere. Unterschrift und Datirung r\u00fchren vom Hauptk\u00f6rperschreiber her, das A Alberts scheint in letzterer mit dunklerer Dinte nachgetragen zu sein. Die Zeugenfirmen sind zum gr\u00f6ssten Theile von derselben Hand und Dinte ausgef\u00fchrt. Auf der Linie unterhalb des Presbyters Arduin ist eine ganze Singnatur wegradirt.",
            "children": {
                "type_source": "Original"
            }
        },
        {
            "type": "apparat_critique",
            "value": "<i>Im<\/i> q <i>radirt<\/i>",
            "children": {
                "numero_note": "a"
            }
        },
        {
            "type": "apparat_critique",
            "value": "nacoo.",
            "children": {
                "numero_note": "b"
            }
        },
        {
            "type": "remarques",
            "value": "Vergl. die Urkunde vom 31 Mai 1157."
        }
    ]
}