{
    "id": 25530,
    "name": "aposcripta-2627",
    "type": "acte",
    "url": "http:\/\/telma-chartes.irht.cnrs.fr\/aposcripta\/notice\/25530",
    "project_slug": "aposcripta",
    "project_label": "APOSCRIPTA \u2013 Lettres des papes",
    "user": "lettrespontificalesadmin",
    "last_update": "2020-10-19 16:27:45",
    "licence": "Attribution - Pas d\u2019Utilisation Commerciale - Partage dans les M\u00eames Conditions 3.0 France (CC BY-NC-SA 3.0 FR) ",
    "licence_url": "https:\/\/creativecommons.org\/licenses\/by-nc-sa\/3.0\/fr\/",
    "elements": [
        {
            "type": "pape",
            "value": "Innocent IV (1243-1254)"
        },
        {
            "type": "destinataire",
            "value": "( )",
            "children": {
                "numero_note": "0"
            }
        },
        {
            "type": "date_lieu",
            "value": "Lyon"
        },
        {
            "type": "date_libre",
            "value": "1248, 9 septembre"
        },
        {
            "type": "date",
            "value": " 1248\/09\/09",
            "children": {
                "date_deb_annee": "1248",
                "date_deb_mois": "09",
                "date_deb_jour": "09"
            },
            "range": {
                "date_apres": 12480909,
                "date_avant": 12480909
            }
        },
        {
            "type": "analyse",
            "value": "X pape<br\/>EPISTOLA INNOCENTII PAP\u00c6 IV AD ARCHIEPISCOPUM BITURICENSEM, ETC., CONTRA INVASORES POSSESSIONUM CLUNIACENSIS ECCLESI\u00c6. EPISTOLA INNOCENTII PAP\u00c6 IV. ad Archiepiscopum Bituricensem, ejusque suffraganeos, et alios Pr\u00e6latos Provinci\u00e6 Bituricensis ut excommunicent Laicos, Clericos ver\u00f2 suspendant, qui invaserint res, bona, seu possessiones Cluniacensium fratrum, vel hominum suorum, aut eos excommunicarint et interdixerint, vel ab eis decimas nutrimentorum suorum extorserint."
        },
        {
            "type": "transcription",
            "value": "<?xml version=\"1.0\" encoding=\"UTF-8\"?>\n[Innocentius Episcopus servus servorum Dei, venerabilibus fratribus Archiepiscopo Bituricensi, et ejus suffraganeis, ac dilectis filiis Abbatibus, Prioribus, Decanis, Archidiaconis, Archipresbyteris, Pr\u00e6positis, et aliis Ecclesiarum Pr\u00e6latis per Bituricensem Provinciam constitutis salutem et Apostolicam benedictionem. Non absque dolore cordis et plurima turbatione didicimus, quod ita in plerisque partibus Ecclesiastica censura dissolvitur, et Canonic\u00e6 sententi\u00e6 severitas enervatur, ut Religiosi et ii maxim\u00e8, qui per Sedis Apostolic\u00e6 Privilegia majori donati sunt libertate, passim \u00e0 malefactoribus suis injurias sustineant et rapinas, dum vix invenitur qui congrua illis protectione subveniat, et pro fovenda pauperum innocentia se murum defensionis opponat. Specialiter autem dilecti filii Abbas et fratres Monasterii Clun. tam de frequentibus injuriis, qu\u00e0m de ipso quotidiano defectu justiti\u00e6 conquerentes, universitatem vestram litteris petierunt Apostolicis excitari: ut vos ita videlicet eis in tribulationibus suis contra malefactores eorum prompta debeatis magnanimitate consurgere, quod ab augustiis quas sustinent et pressuris vestro possint pr\u00e6sidio respirare. Ideoque universitati vestr\u00e6 per Apostolica scripta mandamus atque pr\u00e6cipimus, quatinus illos, qui possessiones, vel res, seu domos pr\u00e6dictorum fratrum, vel hominum suorum irreverenter invaserint, aut ea injust\u00e8 detinuerint, qu\u00e6 pr\u00e6dictis fratribus ex Testato decedentium relinquuntur, seu in fratres ipsos, vel ipsorum aliquem, contra Apostolic\u00e6 Sedis indulta, sententiam excommunicationis aut interdicti pr\u00e6sumpserint promulgare, vel decimas de nutrimentis animalium suorum, spretis Apostolic\u00e6 Sedis privilegiis, extorquere; monitione pr\u00e6missa, si Laici fuerint, public\u00e8 candelis accensis singuli vestrum in Di\u0153cesibus et Ecclesiis vestris Excommunicationis sententia percellatis: si ver\u00f2 Clerici, vel Canonici regulares, seu Monachi fuerint, eos appellatione remota ab Officiis et Beneficiis suspendatis, neutram relaxaturi sententiam, donec pr\u00e6dictis fratribus plenari\u00e8 satisfaciant, et tam Laici, qu\u00e0m Clerici seculares, qui pro violenta manuum injectione in fratres eosdem vel ipsorum aliquem, Anathematis vinculo fuerint innodati, cum Di\u0153cesani Episcopi litteris ad Sedem Apostolicam venientes ab eodem vinculo mereantur absolvi. Datum Lugduni. V. Idus Septembris. Pontificatus nostri anno VI.]\n"
        },
        {
            "type": "edition",
            "value": "Ici tir\u00e9e du projet <i>CBMA - Corpus Burgundiae Medii Aevi<\/i>, document 6385. Site du projet Corpus de la Bourgogne du Moyen \u00c2ge, [En ligne] <a href=\"http:\/\/www.cbma-project.eu\" target=\"_blank\">http:\/\/www.cbma-project.eu<\/a>  "
        },
        {
            "type": "sources_manuscrites",
            "value": "\u00e0 renseigner."
        },
        {
            "type": "remarques",
            "value": "\r\n\r\nIndications dans l'\u00e9dition des Chartes de Cluny quand Bernard et Bruel n'ont pas repris le texte : Innocentius, etc. Non absque dolore, etc. (Bull. Clun., p.\u00a0121, col.\u00a01.).(E.\u00a0137, VIxx IX.)"
        },
        {
            "type": "edition_autre",
            "value": "Ici reprise de Auguste Bernard, Alexandre Bruel, <i>Recueil des chartes de l'abbaye de Cluny<\/i>. VI. <i>1211-1300<\/i>, Paris\u00a0: Imprimerie nationale, 1903 <a href=\"http:\/\/gallica.bnf.fr\/ark:\/12148\/bpt6k367019?rk=21459;2\" target=\"_blank\">[en ligne]<\/a>, p. 406, n\u00b0 4907.",
            "children": {
                "numero_note": "0"
            }
        },
        {
            "type": "edition_autre",
            "value": "Pierre Simon, <i>Bullarium sacri Ordinis cluniacensis, complectens plurima privilegia per summos pontifices tum ipsi cluniacensi abbatiae, tum ei subditis monasteriis hactenus concessa<\/i>, Lyon : Jullieron, 1680, p. 121, col. 1",
            "children": {
                "numero_note": "1"
            }
        },
        {
            "type": "genre",
            "value": "Lettre"
        }
    ]
}