{
    "id": 148530,
    "name": "aposcripta-8138",
    "type": "acte",
    "url": "http:\/\/telma-chartes.irht.cnrs.fr\/aposcripta\/notice\/148530",
    "project_slug": "aposcripta",
    "project_label": "APOSCRIPTA \u2013 Lettres des papes",
    "user": "l_valliere",
    "last_update": "2020-10-19 16:39:46",
    "licence": "Attribution - Pas d\u2019Utilisation Commerciale - Partage dans les M\u00eames Conditions 3.0 France (CC BY-NC-SA 3.0 FR) ",
    "licence_url": "https:\/\/creativecommons.org\/licenses\/by-nc-sa\/3.0\/fr\/",
    "elements": [
        {
            "type": "pape",
            "value": "Alexandre IV (1254-1261)"
        },
        {
            "type": "destinataire",
            "value": "Les fr\u00e8res Mineurs inquisiteurs de la d\u00e9pravation h\u00e9r\u00e9tique en Italie"
        },
        {
            "type": "date_libre",
            "value": "Idus decembris, anno quarto"
        },
        {
            "type": "date",
            "value": "1258\/12\/13",
            "children": {
                "date_deb_annee": "1258",
                "date_deb_mois": "12",
                "date_deb_jour": "13"
            },
            "range": {
                "date_apres": 12581213,
                "date_avant": 12581213
            }
        },
        {
            "type": "date_lieu",
            "value": "Anagni"
        },
        {
            "type": "genre",
            "value": "Lettre, g\u00e9n\u00e9ral (apr\u00e8s 1198, littere cum filo canapis)"
        },
        {
            "type": "analyse",
            "value": "Papst Alexander IV. an die in Italien als <i>Inquisitores haereticae pravitatis<\/i> th\u00e4tigen Mitglieder des Franciscanerordens bestimmt auf eine von Seiten dieser Inquisitoren an ihn gerichtete Anfrage, dass sie sich mit der Verfolgung von Divinatores und Sortilegi nur dann zu befassen h\u00e4tten, wenn deren Vergehen '<i>manifeste saperent haeresim<\/i>\u2019 [Hansen].\nFratribus ord. Minor. inquisitoribus haereticae pravitatis in partibus Italiae super nonnullis quaestionum articulis, in quibus causa fidei tangitur, consulentibus graviter respondet [Potthast]. "
        },
        {
            "type": "edition",
            "value": "Ici reprise de celle, partielle, de Joseph Hansen, <i>Quellen und Untersuchungen zur Geschichte des Hexenwahns und der Hexenverfolgung im Mittelalter<\/i>, Bonn, 1901 (reprint Hildesheim 1963 et 2003), n. 1, p. 1 <a target=\"_blank\" href=\"https:\/\/archive.org\/details\/b24863932\/page\/n15\/mode\/2up\"> [en ligne]<\/a>."
        },
        {
            "type": "edition_autre",
            "value": "Luke Wadding, <i>Annales Minorum seu trium ordinum a S. Francisco institutorum<\/i>, 2e \u00e9d., 19 vol., Rome, 1731-1745, t. IV, p. 89-91 <a target=\"_blank\" href=\" https:\/\/archive.org\/details\/bub_gb_gQmHhuWBcsgC\/page\/n103\/mode\/2up \"> [en ligne]<\/a>."
        },
        {
            "type": "edition_autre",
            "value": "Giovanni Giacinto Sbaraglia, <i>Bullarium Franciscanum<\/i>, Rome, 1759-1768, 4 vol., t. II, n. 162, p. 316-318 <a target=\"_blank\" href=\" https:\/\/archive.org\/stream\/bub_gb_aIY5JaccTd4C#page\/n347\/mode\/2up\"> [en ligne]<\/a>."
        },
        {
            "type": "regeste",
            "value": "Potthast, <i>Regesta pontificum Romanorum<\/i>, n. 17436 <a target=\"_blank\" href=\" https:\/\/opacplus.bsb-muenchen.de\/Vta2\/bsb11316018\/bsb:BV004241514?page=639\"> [en ligne]<\/a>."
        },
        {
            "type": "transcription",
            "value": "<?xml version=\"1.0\" encoding=\"UTF-8\"?>\nQuod super nonnullis quaestionum articulis, in quibus causa fidei tangitur, nos consulere voluistis, solicitudinis vestre prudentiam in domino commendamus \u2026 Ad illud autem, quod quaeritur, utrum ad inquisitores heresis pertineat, de divinationibus et sortilegiis, que contra aliquos sibi denunciantur, cognoscere ac punire talia exercentes? breviter respondetur... Cum negotium fidei, quod summe privilegiatum existit, per occupationes alias non debeat impediri, inquisitores ipsi de iis, nisi manifeste haeresim saperent, ratione huiusmodi ofiicii sibi commissi se nullatenus intromittant, sed eos relinquant suis iudicibus pena debita castigandos.\n"
        },
        {
            "type": "bibliographie_generale",
            "value": "Nicolas Eymerich, <i>Directorium inquisitorum<\/i>, 1585, p. 30 (<i>Viterbi, V Kalendas Octobris ... anno 4<\/i>)."
        },
        {
            "type": "remarques",
            "value": "\u00e0 compl\u00e9ter en reprenant l'\u00e9d. de Sbaraglia.\nAbsente des registres (5 lettres enregistr\u00e9es \u00e0 cette date).\nVoir APOSCRIPTA n. 8140."
        },
        {
            "type": "edition_autre",
            "value": "<i>VI<\/i>, 5, 2, 8, \u00e9d. Emil Frieberg, <i>Corpus Iuris Canonici<\/i>. II. <i>Decretalium collectiones<\/i>, Leipzig : B. Tauchnitz, 1879 (r\u00e9imp. anast. Graz : Akademische druck. U. Verlagsanstalt, 1959), c. 1071-1072."
        }
    ]
}