{
    "id": 147622,
    "name": "aposcripta-7246",
    "type": "acte",
    "url": "http:\/\/telma-chartes.irht.cnrs.fr\/aposcripta\/notice\/147622",
    "project_slug": "aposcripta",
    "project_label": "APOSCRIPTA \u2013 Lettres des papes",
    "user": "tgirard",
    "last_update": "2020-10-19 16:39:34",
    "licence": "Attribution - Pas d\u2019Utilisation Commerciale - Partage dans les M\u00eames Conditions 3.0 France (CC BY-NC-SA 3.0 FR) ",
    "licence_url": "https:\/\/creativecommons.org\/licenses\/by-nc-sa\/3.0\/fr\/",
    "elements": [
        {
            "type": "pape",
            "value": "Innocent IV (1243-1254)"
        },
        {
            "type": "destinataire",
            "value": "Les archev\u00eaques et \u00e9v\u00eaques auxquels ces lettres parviendront"
        },
        {
            "type": "date_libre",
            "value": "V nonas julii, anno tercio"
        },
        {
            "type": "date_lieu",
            "value": "Lyon"
        },
        {
            "type": "genre",
            "value": "Mandement (littere cum filo canapis)"
        },
        {
            "type": "analyse",
            "value": "Innocent IV d\u00e9fend d'imposer des peines p\u00e9cuniaires aux tenanciers des Hospitaliers"
        },
        {
            "type": "sources_manuscrites",
            "value": "E. FRANCE, Lyon, Archives d\u00e9partementales du Rh\u00f4ne, 48 H 26, n. 9.",
            "children": {
                "type_source": "Exp\u00e9dition"
            }
        },
        {
            "type": "transcription",
            "value": "<?xml version=\"1.0\" encoding=\"UTF-8\"?>\nDilecti filii...\n"
        },
        {
            "type": "bibliographie_generale",
            "value": "George Guigue, <i>Inventaire sommaire des archives d\u00e9partementales ant\u00e9rieures \u00e0 1790. Rh\u00f4ne. Archives eccl\u00e9siastiques. S\u00e9rie H.<\/i>, Lyon : H. Georg, 1895, I, p. 10."
        },
        {
            "type": "date",
            "value": "1245\/07\/03",
            "children": {
                "date_deb_annee": "1245",
                "date_deb_mois": "07",
                "date_deb_jour": "03"
            },
            "range": {
                "date_apres": 12450703,
                "date_avant": 12450703
            }
        },
        {
            "type": "remarques",
            "value": "Inconnue des registres (une seule lettre \u00e0 cette date, n. 1374). Inconnue de Potthast (une seule lettre \u00e0 cette date, n. 11705)."
        }
    ]
}