{
    "id": 25274,
    "name": "aposcripta-2371",
    "type": "acte",
    "url": "http:\/\/telma-chartes.irht.cnrs.fr\/aposcripta\/notice\/25274",
    "project_slug": "aposcripta",
    "project_label": "APOSCRIPTA \u2013 Lettres des papes",
    "user": "lettrespontificalesadmin",
    "last_update": "2020-10-19 16:27:42",
    "licence": "Attribution - Pas d\u2019Utilisation Commerciale - Partage dans les M\u00eames Conditions 3.0 France (CC BY-NC-SA 3.0 FR) ",
    "licence_url": "https:\/\/creativecommons.org\/licenses\/by-nc-sa\/3.0\/fr\/",
    "elements": [
        {
            "type": "pape",
            "value": "Innocent II (1130-1143)"
        },
        {
            "type": "destinataire",
            "value": "( )",
            "children": {
                "numero_note": "0"
            }
        },
        {
            "type": "date_lieu",
            "value": "n.c."
        },
        {
            "type": "date_libre",
            "value": "1131, 31 octobre"
        },
        {
            "type": "date",
            "value": " 1131\/10\/31",
            "children": {
                "date_deb_annee": "1131",
                "date_deb_mois": "10",
                "date_deb_jour": "31"
            },
            "range": {
                "date_apres": 11311031,
                "date_avant": 11311031
            }
        },
        {
            "type": "analyse",
            "value": "X pape<br\/>PRIVILEGIUM INNOCENTII PAP\u00c6 II, QUO CONFIRMAT MONASTERIO CLUNIACENSI DONATIONEM LOCI, QUI DICITUR PRINS. PRIVILEGIUM INNOCENTII PAP\u00c6 II. ad Petrum Venerabilem, per quod confirmat donationem factam Monasterio Cluniacensi de loco qui dicitur Prins."
        },
        {
            "type": "transcription",
            "value": "<?xml version=\"1.0\" encoding=\"UTF-8\"?>\n[Innocentius Episcopus, servus servorum Dei, dilectis in Christo filiis Petro Abbati, et Monachis Cluniacensibus in perpetuum. Ex Apostolic\u00e6 Sedis administratione, qu\u00e6 extraordinaria sunt, volumus corrigere, et qu\u00e6 ordinata ad meliorem statum deducere, et ut in sua bonitatis firmitate permaneant, vigore Ecclesiastico roborare. Eapropter, dilecti in Domino filii, donationem \u00e0 Girino et fratribus, de loco qui dicitur Prins cum suis pertinentiis, Remis in Palatio venerabilis fratris nostri Rainaldi Archiepiscopi nobis factam, vobis concedimus, donamus, et tradimus, ac per pr\u00e6sentis scripti paginam confirmamus. Nulli ergo omnin\u00f2 hominum fas sit pr\u00e6fatum locum temer\u00e8 perturbare, aut ejus possessiones auferre, vel ablatas retinere, minuere, vel aliquibus vexationibus fatigare: sed omnia dominio et possessioni Cluniacensi Monasterii perpetu\u00f2 integra conserventur. Si quis autem huic nostr\u00e6 constitutioni temerario ausu contra\u00efre tentaverit, si reatum suum non correxerit, \u00e0 sacratissimo Corpore et Sanguine Dei et Domini nostri Jesu Christi aliena fiat, atque in extremo examine district\u00e6 ultioni subjaceat. Conservantibus autem sit pax Domini nostri Jesu Christi, quatenus intervenientibus beatorum Apostolorum Petri et Pauli meritis \u00e6tern\u00e6 vit\u00e6 pr\u00e6mia cum sanctis omnibus percipere mereantur. Datum Remis II. Kalendas Novembris.]\n"
        },
        {
            "type": "edition",
            "value": "Ici tir\u00e9e du projet <i>CBMA - Corpus Burgundiae Medii Aevi<\/i>, document 5460. Site du projet Corpus de la Bourgogne du Moyen \u00c2ge, [En ligne] <a href=\"http:\/\/www.cbma-project.eu\" target=\"_blank\">http:\/\/www.cbma-project.eu<\/a>  "
        },
        {
            "type": "sources_manuscrites",
            "value": "\u00e0 renseigner."
        },
        {
            "type": "remarques",
            "value": "\r\n\r\nIndications dans l'\u00e9dition des Chartes de Cluny quand Bernard et Bruel n'ont pas repris le texte : Innocentius, etc. Ex apostolic\u00e6 sedis, etc. (Bibl. Clun., col.\u00a01408; Bull. Clun., p.\u00a045, col.\u00a01, etc.).(E.\u00a095, IIIIxxvii.)"
        },
        {
            "type": "edition_autre",
            "value": "Ici reprise de Auguste Bernard, Alexandre Bruel, <i>Recueil des chartes de l'abbaye de Cluny<\/i>. V. <i>1091-1210<\/i>, Paris\u00a0: Imprimerie nationale, 1894 <a href=\"http:\/\/gallica.bnf.fr\/ark:\/12148\/bpt6k28911f?rk=64378;0\" target=\"_blank\">[en ligne]<\/a>, p. 382, n\u00b0 4025.",
            "children": {
                "numero_note": "0"
            }
        },
        {
            "type": "edition_autre",
            "value": "Pierre Simon, <i>Bullarium sacri Ordinis cluniacensis, complectens plurima privilegia per summos pontifices tum ipsi cluniacensi abbatiae, tum ei subditis monasteriis hactenus concessa<\/i>, Lyon : Jullieron, 1680, p. 45, col. 1-2",
            "children": {
                "numero_note": "1"
            }
        },
        {
            "type": "genre",
            "value": "Bulle"
        },
        {
            "type": "genre",
            "value": "Lettre"
        }
    ]
}