{
    "id": 25534,
    "name": "aposcripta-2631",
    "type": "acte",
    "url": "http:\/\/telma-chartes.irht.cnrs.fr\/aposcripta\/notice\/25534",
    "project_slug": "aposcripta",
    "project_label": "APOSCRIPTA \u2013 Lettres des papes",
    "user": "lettrespontificalesadmin",
    "last_update": "2020-10-19 16:27:45",
    "licence": "Attribution - Pas d\u2019Utilisation Commerciale - Partage dans les M\u00eames Conditions 3.0 France (CC BY-NC-SA 3.0 FR) ",
    "licence_url": "https:\/\/creativecommons.org\/licenses\/by-nc-sa\/3.0\/fr\/",
    "elements": [
        {
            "type": "pape",
            "value": "Innocent IV (1243-1254)"
        },
        {
            "type": "destinataire",
            "value": "( )",
            "children": {
                "numero_note": "0"
            }
        },
        {
            "type": "date_lieu",
            "value": "Lyon"
        },
        {
            "type": "date_libre",
            "value": "1249, 3 ao\u00fbt"
        },
        {
            "type": "date",
            "value": " 1249\/08\/03",
            "children": {
                "date_deb_annee": "1249",
                "date_deb_mois": "08",
                "date_deb_jour": "03"
            },
            "range": {
                "date_apres": 12490803,
                "date_avant": 12490803
            }
        },
        {
            "type": "analyse",
            "value": "X pape<br\/>BULLA INNOCENTII PAP\u00c6 IV, QUOD ECCLESI\u00c6 IN QUIBUS ABBAS CLUNIACENSIS HABET JUS PATRONATUS PER LITTERAS APOSTOLICAS CONFERRI NON VALEANT, NISI FIAT IN EIS MENTIO HUJUS INDULGENTI\u00c6. PRIVILEGIUM INNOCENTII PAP\u00c6 IV. ut Ecclesi\u00e6, in quibus Abbas Clun. habet jus Patronatus, per litteras Apostolicas conferri non valeant, nisi fiat in eis mentio hujus indulgenti\u00e6."
        },
        {
            "type": "transcription",
            "value": "<?xml version=\"1.0\" encoding=\"UTF-8\"?>\n[Innocentius Episcopus servus servorum Dei, dilecto filio Abbati Cluniacensi, salutem et Apostolicam benedictionem. Exigentibus tu\u00e6 devotionis meritis, votis tuis libenter annuimus, et petitiones tuas quantum cum deo possumus favorabiliter exaudimus. Cum igitur, sicut ex parte tua fuit propositum coram nobis, Cluniacensi Ordini \u00e0 Sede Apostolica sit indultum, ut ejus person\u00e6 ad provisionem alicujus per litteras Apostolicas, vel legatorum Apostolic\u00e6 Sedis nequeant coarctari: Nos volentes tibi facere gratiam pleniorem, ut Ecclesi\u00e6, in quibus tu jus Patronatus habes, conferri per hujusmodi Litteras minim\u00e8 valeant, auctoritate tibi pr\u00e6sentium indulgemus, nisi litter\u00e6 ips\u00e6 plenam et expressam fecerint de hac indulgentia mentionem. Nulli ergo, etc. Datum Lugduni. III. Nonas Augusti. Pontificatus nostri anno VII.]\n"
        },
        {
            "type": "edition",
            "value": "Ici tir\u00e9e du projet <i>CBMA - Corpus Burgundiae Medii Aevi<\/i>, document 6394. Site du projet Corpus de la Bourgogne du Moyen \u00c2ge, [En ligne] <a href=\"http:\/\/www.cbma-project.eu\" target=\"_blank\">http:\/\/www.cbma-project.eu<\/a>  "
        },
        {
            "type": "sources_manuscrites",
            "value": "\u00e0 renseigner."
        },
        {
            "type": "remarques",
            "value": "\r\n\r\nIndications dans l'\u00e9dition des Chartes de Cluny quand Bernard et Bruel n'ont pas repris le texte : Innocentius, etc. Exigentibus tu\u00e6 devotionis, etc. (Bull. Clun., p.\u00a0120, col.\u00a01, n\u00ba\u00a01.)."
        },
        {
            "type": "edition_autre",
            "value": "Ici reprise de Auguste Bernard, Alexandre Bruel, <i>Recueil des chartes de l'abbaye de Cluny<\/i>. VI. <i>1211-1300<\/i>, Paris\u00a0: Imprimerie nationale, 1903 <a href=\"http:\/\/gallica.bnf.fr\/ark:\/12148\/bpt6k367019?rk=21459;2\" target=\"_blank\">[en ligne]<\/a>, p. 416, n\u00b0 4916.",
            "children": {
                "numero_note": "0"
            }
        },
        {
            "type": "edition_autre",
            "value": "Pierre Simon, <i>Bullarium sacri Ordinis cluniacensis, complectens plurima privilegia per summos pontifices tum ipsi cluniacensi abbatiae, tum ei subditis monasteriis hactenus concessa<\/i>, Lyon : Jullieron, 1680, p. 120, col. 1, n\u00b01",
            "children": {
                "numero_note": "1"
            }
        },
        {
            "type": "genre",
            "value": "Lettre"
        }
    ]
}