{
    "id": 148752,
    "name": "aposcripta-8322",
    "type": "acte",
    "url": "http:\/\/telma-chartes.irht.cnrs.fr\/aposcripta\/notice\/148752",
    "project_slug": "aposcripta",
    "project_label": "APOSCRIPTA \u2013 Lettres des papes",
    "user": "lettrespontificalesadmin",
    "last_update": "2020-10-19 16:39:49",
    "licence": "Attribution - Pas d\u2019Utilisation Commerciale - Partage dans les M\u00eames Conditions 3.0 France (CC BY-NC-SA 3.0 FR) ",
    "licence_url": "https:\/\/creativecommons.org\/licenses\/by-nc-sa\/3.0\/fr\/",
    "elements": [
        {
            "type": "pape",
            "value": "Alexandre IV (1254-1261)"
        },
        {
            "type": "destinataire",
            "value": "Le s\u00e9n\u00e9chal de Lyon, Barth\u00e9lemy de Fuer"
        },
        {
            "type": "date_libre",
            "value": "III kalendas augusti, anno primo"
        },
        {
            "type": "date",
            "value": " 1255\/07\/15",
            "children": {
                "date_deb_annee": "1255",
                "date_deb_mois": "07",
                "date_deb_jour": "15"
            },
            "range": {
                "date_apres": 12550715,
                "date_avant": 12550715
            }
        },
        {
            "type": "date_lieu",
            "value": "Anagni"
        },
        {
            "type": "analyse",
            "value": "Bulle du pape Alexandre IV portant confirmation de la sentence qui maintient Barth\u00e9lemy de Fuer s\u00e9n\u00e9chal de Lyon, malgr\u00e9 les pr\u00e9tentions du doyen et du pr\u00e9centeur de Lyon."
        },
        {
            "type": "sources_manuscrites",
            "value": "Archives du Rh\u00f4ne. \u2014 Fonds du chapitre m\u00e9tropolitain. \u2014 Armoire Adam, vol. 1, n. 3.",
            "children": {
                "type_source": "Exp\u00e9dition"
            }
        },
        {
            "type": "edition",
            "value": "Ici reprise de Marie-Claude Guigue, <i>Cartulaire lyonnais<\/i>, II, Lyon : Association typographique, 1893, n. 520, p. 17-23."
        },
        {
            "type": "transcription",
            "value": "<?xml version=\"1.0\" encoding=\"UTF-8\"?>\nAlexander episcopus, servus servorum Dei, dilecto filio Bartholomeo de Fuer, civi Lugdunensi, salutem et apostolicam benedictionem. Ea que judicio vel concordia terminantur firma debent et illibata persistere et, ne in recidive contentionis scrupulum relabantur, apostolico convenit presidio communiri. Sane, orta dudum inter te, ex parte una, et decanum et H., precentorem Lugdunenses, super senescalcia civitatis Lugdunensis et omnibus ad ipsam spectantibus, ex altera, questione ac lite in ea, coram felicis recordationis Innocentio papa, predecessore nostro legitime contestata, tamdem idem predecessor dilectum filium nostrum G., Sancti Eustachii diaconum cardinalem, concessit in illa partibus auditorem, qui demum, cognitis cause meritis et, juris ordine observato, ac altera parte citata, ut decuit, ad sententiam audiendam, cum tuus presens existeret procurator, et intellecto decanum debitum nature solvisse, contra eundem precentorem, ipsius abs entia Dei repleta presentia, pro te diffinitivam sententiam promulgavit, prout in ipsius cardinalis litteris confectis exinde suoque sigillo signatis plenius continetur, nos itaque, tuis supplicationibus, inclinati sententiam ipsam ratam habentes, eam auctoritate apostolica confirmamus et presentis scripti patrocinio communimus, tenorem predictarum litterarum presentibus inseri facientes, qui talis est : \u00ab In nomine Patris et Filii et Spiritus Sancti, amen. Guillelmus, miseratione divina Sancti Eustachii diaconus cardinalis, omnibus in perpetuum.  Inter Bartholomeum de Fuer, civem Lugdunensem, ex parte una, et discretos viros bone memoire Arnulphum, tunc decanum, et Hugonem de Vallibus, precentorem Lugdunensem, tenentes tunc comitatum Lugdunensem, pro tribus partibus ipsius comitatus contingentibus capitulum Lugdunense, ex altera, orta dudum, dum adhuc Lugduni curia resideret, materia questionis coram felicis recordationis domino Innocentio papa IIII, in presentia fratrum libellus porrectus extitit continentie talis. Dicit et proponit Bartholomeus de Fuer, civis Lugdunensis, contra decanum et cantorem Lugdunenses, quod cum ad ipsum pertineat jus quoddam, quod dicitur senescalchia, in civitate Lugdunensi cum omnibus ad ipsam spectantibus ut jure concessa patri suo, cui ipse in ea successit, qua etiam usus fuit pater ipsius et ipse, et in cujus etiam possessione vel quasi fuit tam pater ipsius quam ipse et ratione ejus pars proventuum et obventionum comitatus Lugdunensis et jura sicut omnia inferius exprimuntur et declarantur decanus et cantor contra iusticiam impediunt quominus idem B. uti possit libere dicta senescalchia et predicta percipere et aliqua de dictis obventionibus idem decanus et cantor perceperunt. Quare petit predictis decano et cantori sententialiter inhiberi quod decetero non impediant quominus possit uti dicta senescalchia ac predicta ratione senescalchie percipere ac ipsos condempnari et compelli ad cavendum ne impediant in futurum. Petit quoque dictos decanum et cantorem condempnari ad ea sive eorum extimationem que perceperunt et ad extimationem dampnorum que dictus B., propter impedimentum eorum incurrit, que omnia extimat mille et quingentas libras fortium veterum, et hec petit salvo jure et cetera. Ea vero que spectant ad dictam senescalchiam sunt hec : scilicet quod in causis que ventilantur in curia archiepiscopali vel senescalci pertinentibus ad archiepiscopum et comitatum, quando dies assignantur, prepositus comitatus debet certiorari et per eum senescalcus et uterque eorum si voluerit juditiis et concordiis interesse, et in omnibus que inde ad partem comitatus perveniunt tertiam partem idem senescalcus percipit. In omnibus clamoribus et bannis ad archiepiscopum et comitatum pertinentibus habet in parte comitatus tertiam partem, excepto banno pedagii furati et leide retente. In pladiamentis riperiarum, atriorum, scalariorum et plateorum debet senescalcus comitatus interesse, et tertiam partem in parte comitatus percipere. \u2014 In omnibus rebus que ad comitatum tantum pertinent, si aliquid vendatur vel obligetur vel permitetur aut laudes pro hiis rebus dentur, quando laudes fiunt, debet senescalcus comitatus interesse et inde tertiam partem percipere, preterquam in clauso, quod dicitur Comitale, et in hiis laudibus nichil percipit preprepositus comitatus preter drualia. \u2014 Sciendum quoque quod prepositus comitatus debet homagium facere et fidelitatem senescalco comitatus, salva fidelitate domini comitatus. \u2014 Hanc autem sepedictus senescalcus habet libertatem quod si, in domo sua quam inhabitat, aliquid furatum fuerit bannum insolidum ejus est sicut canonici hoc habent et domis claustri. Et facta coram eodem domino litiscontestatione, idem dominus nos in eodem negocio concessit partibus auditorem. Comparentibus igitur partibus coram nobis, juratum extitit de calumpnia per eundem B., ex una parte, et dictos decanum et precentorem, ex altera, et facte positiones hinc inde, ac responsiones ad eas per quas nichil efficax probatum extitit pro alterutra partium. Confessus fuit tamen decanus quod inhibuerat et inhibebat Bartholomeum percipere ratione senescalcie ea que in libello expressa sunt et declarata et cantor quod inhibuit aliquibus et adjecit uterque causam, scilicet quia non est senescalcia, et ideo utraque pars usa est probationibus aliis, et dati fuerunt articuli, ad quos probandos utraque pars testes induxit, curia existente Lugduni. Pendente autem examinatione, contigit decanum debitum nature persolvere, et discretus vir Anthelmus Rigaldi in decanatu ac parte quam in comitatu tenebat extitit substitutus eidem. Dicto vero Antelmo, substituto decano, allegante per mortem predecessoris sui finitum juditium, quod cum eo fuerat inchoatum, pars Bartholomei contrarium asserebat, petens ipsum substitutum decanum compelli ad procedendum in causa. Cumque super hiis fuisset aliquamdiu altercatum, nos, facta relatione Summo Pontifici in fratrum presentia, et habita inter ipsos discussione plenaria, de speciali domini pape mandato, decanum substitutum et precentorem nec non et capitulum Lugdunense ac executores defuncti decani vocari fecimus coram nobis, et de predicti domini similiter speciali mandato, inter cetera pronunciavimus judicium non finitum et ipsum substitutum judicium debere subire. Predicto Antelmo igitur substituto decano subeunte et prefato Hugone, precentore, prosequente judicium, induxit Bartholomeus duo instrumenta ad suam intentionem fundandam, sigillo archiepiscopi Raginaldi et capituli Lugdunensis sigillata per quorum alterum inter cetera probari videbatur Durandum, patrem ipsius Bartholomei, acquisivisse senescalchiam de qua agitur cum juribus et pertinentiis suis titulo emptionis, de voluntate et consensu Reginaldi, tunc archiepiscopi, et totius capituli Lugdunensis ; per reliquum vero illa esse jura senescalchie que Bartholomeus in suo libello expressit. Pars vero decani et cantoris dicta instrumenta multipliciter impugnabat, asserens sigilla predictis instrumentis appensa vera non esse ; propter quod nos etiam per comparationis indaginem, vocatis ad hanc discussionem sigillorum fabricatoribus, presentibus partibus, diligenter circa hoc inquisivimus veritatem ; cumque nichil inveniremus efficax contra sigilla ipsis instrumentis appensa, quia pars Bartholomei asserebat sibi imminere periculum, propter viarum discrimina, cum immineret recessus curie de Lugduno, nos, ad ipsius instantiam, post predictam examinationem instrumenta ipsa sub sigillo nostro fecimus publicari. Sane examinatores testium deputati a nobis, in commisso sibi negocio procedentes, receperunt omnes testes quos pars Bartholomei et quos pars decani et cantoris, curia adhuc existente Lugduni, produxit. Demum curia veniente Perusium procuratoribus partium comparentibus coram nobis, petebat instanter procurator Bartholomei publicari atestationes et in causa procedi, procuratore predictorum decani et cantoris allegante in contrarium ac petente adhuc testes productos admitti ; et licet super hoc fuisset, primo coram nobis ac demum coram prefato domino summo pontifice, litigatum, tandem idem dominus Lugdun. duos tabelliones de curia destinavit, dans eis inter cetera suis litteris in mandatis ut infra tres menses et octo dies, postquam Lugdun. pervenirent, super articulis, quos nos una cum interrogatoriis partis adverse sub nostro sigillo fecimus assignari, capere ac diligenter examinare curarent, assignaturi eis, infra sex dies, postquam Lugdun. pervenirent, si vellent reprobare testes ab altera parte productos spatium octo dierum ad exceptiones in personas testium proponendas, et tunc demum, infra spatium aliorum duorum mensium, quos terminos eis peremptorie assignari mandabat, testes quos super hujusmodi reprobatione producerent, reciperent et examinarent secundum interrogatoria que pars adversa daret eisdem, et si partes vellent positiones aliquas facere ipsis ab eisdem partibus facerent responderi per juramenta ipsorum. Prefati vero examinatores, Lugdunum accedentes, predictos terminos assignarunt juxta traditam sibi formam, sed pars decani et cantoris licet duos testes super principali produxerit et exceptiones contra testes adverse partis obtulerit, nullos tamen testes curavit inducere ad probationem ipsarum, nec partis adverse posicionibus respondere, propter quod dicti examinatores, lapsis omnibus terminis partibus assignatis, peremptorie citaverunt partes ut in crastinum apostolorum Philippi et Jacobi tunc proximo secuturum, quem eis peremptorium assignarunt per se vel procuratores idoneos cum actis, privilegiis, juribus, rationibus et munimentis earum, coram nobis comparerent juxta domini pape mandatum, depositiones etiam duorum testium predictorum nobis dicti examinatores remittere curaverunt. Quibus receptis et adveniente termino ab eisdem examinatoribus partibus assignato, comparuit coram nobis magister Johannes de Lemovic., domini pape subdiaconus, procurator predicti Bartholomei, pro parte decani et precentoris nemine comparente, et ideo citari pluries fecimus in audientia publica partem eorumdem decani et cantoris diutius expectatam, cumque post citationes varias et peremptorias nullus coram nobis pro eis comparere curaret, nos vocatis ex habundanti et comparentibus coram nobis advocatis ipsorum, attestationes fecimus publicari et rubricas pro parte ipsorum decani et precentoris per personas fide dignas juratas fieri, et tam ipsas quam rubricas partis adverse examinare fecimus diligenter. Pro quibus omnibus, tam illi qui rubricas fecit quam etiam examinatori earumdem satisfieri fecimus a procuratore dicti Bartholomei, consentiente in hoc ne causam contingeret hac occasione differi. Predictas vero rubricas utriusque partis et cetera acta curiose discussimus, necnon et quedam alia instrumenta, que prefatus procurator Bartholomei produxit per que probari videtur quod ipse Bartholomeus patri suo in dicta senescalchia successit, quod coheredes sui omne jus, si quod haberent in dicta senescalchia, cesserunt ac quittaverunt eidem et ratum habuerunt et habent judicium ab ipso Bartholomeo, super dicta senescalchia, suo solum nomine inchoatum. Super quibus omnibus et aliis causam contingentibus pro utraque parte, habita diligenti deliberatione ac discussione plenaria cum prudentibus viris jurisperitis de curia, de ipsorum consilio, citationes peremptorias in audiencia publica fieri fecimus, ut si aliquis esset in curia pro dictis decano et cantore compareret coram nobis ad sententiam audiendam. Et licet pro eis nullus comparuerit nos, a sanctissimo patre domino Alexandro papa IIII recepto speciali mandato, ad sententiam proferendum, quia audivimus predictum Antelmum substitutum decanum humane sortis subisse judicium quantum ad ipsum decanum ad presens procedere distulimus. Predicti vero Hugonis, precentoris Lugdunensis, absentia, Dei repleta presentia, quia constitit nobis intentionem dicti Bartholomei fore plene fundatam, nullo efficaci pro altera parte probato, sententialiter declaramus senescalchiam de qua agitur et ratione dicte senescalchie jura in libello designata ad dictum Bartholomeum seu procuratorem nomine ipsius spectare. Sententialiter etiam inhibemus dicto Hugoni, precentori, quod decetero non impediat quominus idem Bartholomeus seu procurator predictus ejus nomine libere possit in senescalchia de qua agitur, et percipere jura in libello designata. Condempnamus etiam ipsum Hugonem, precentorem, ad cavendum dicto procuratori, ipsius Bartholomei nomine, seu ipsi Bartholomeo, ne ipsum impediat in futurum. Sane petiit dictus procurator, nomine perceptorum de dicta senescalchia et dampnorum que dictus Bartholomeus incurrerat, que omnia mille quingentas libras fortium veterum et longe amplius extimabat, dictum precentorem pro medietate ipsum contingente, sententialiter condempnari, et ad condempnationem expensarum post litem contestatam factarum, quas estimat mille quingentas libras Turonensium contra ipsum cantorem pro medietate similiter ipsum contingente ex officio nostro procedi. Nos autem, licet aperta dicti cantoris convinci videretur calumpnia in eo etiam quod instrumenta prefata sigillis archiepiscopi et capituli Lugdunensis sigillata calumpniose impugnaverat et causam tamdiu maliciose protractam, ut ex defectu probationum apparet, tamdem contumaciter deseruit, elegimus tamen quantum sine gravi offensa dicti Bartholomei potuimus benigne procedere contra ipsum et nomine dampnorum que dictus B. incurrit et perceptorum de dicta senescalchia necnon expensarum post litem contestatam factarum, usque ad quingentas libras fortium veterum, pro parte cantorem contingente, taxatione premissa et ab eodem procuratore, habente ad hoc mandatum, usque ad eandem quantitatem prestito iuramento eundem Hugonem de Vallibus, precentorem Lugdunensem, pro rata ipsum contingente, dicto Bartholomeo seu magistro Johanni ipsius procuratori, ejus nomine, in quingentas libras fortium veterum sententialiter condempnamus. Lata est hec sententia per predictum dominum cardinalem, Anagnie, in hospitio ejus, idibus julii, anno Domini MoCCoLV, pontificatus domini Alexandri pape IIII, anno primo, indictione XIII, in presentia mei Helye Brunot, publici notarii, qui prolationi ejusdem sententie interfui ac meo signo signavi, presentibus etiam venerabile patre domino electo Parmensi, abbate Sancti Victoris Massiliensis, domino Hugone Rubeo, preposito Remensi, magistro Aymerico Cortuni, magistro R., decano Pictavensi, domino Gerardo Cossa Doca, domini pape capellanis, magistro Juliano, cantore Legionensi, et magistris Antonio de Mediolano et Mayneto, capellanis ejusdem domini cardinalis, et pluribus aliis ad hoc vocatis et rogatis. Idem autem dominus cardinalis ad majorem cautelam presenti sententie suum sigillum mandavit apponi. Ego qui supra Helyas Brunot, publicus notarius, prolationi predicte sententie interfui de mandato domini cardinalis et eam scripsi et in publicam formam, de ejusdem cardinalis mandato, redegi. \u00bb Nulli ergo omnino hominum liceat hanc paginam nostre confirmationis infringere vel ei ausu temerario contraire. Si quis autem hoc attemptare presumpserit indignationem omnipotentis Dei et beatorum Petri et Pauli, apostolorum ejus, se noverit incursurum.  Datum Anagnie, III kalendas augusti, pontificatus nostri anno primo.\n"
        },
        {
            "type": "genre",
            "value": "Titre, g\u00e9n\u00e9ral (littere gratiose, cum filo serico)"
        }
    ]
}