{
    "id": 144377,
    "name": "aposcripta-5633",
    "type": "acte",
    "url": "http:\/\/telma-chartes.irht.cnrs.fr\/aposcripta\/notice\/144377",
    "project_slug": "aposcripta",
    "project_label": "APOSCRIPTA \u2013 Lettres des papes",
    "user": "j_theryastruc",
    "last_update": "2020-10-19 16:38:59",
    "licence": "Attribution - Pas d\u2019Utilisation Commerciale - Partage dans les M\u00eames Conditions 3.0 France (CC BY-NC-SA 3.0 FR) ",
    "licence_url": "https:\/\/creativecommons.org\/licenses\/by-nc-sa\/3.0\/fr\/",
    "elements": [
        {
            "type": "pape",
            "value": "Cl\u00e9ment VI (1342-1352)"
        },
        {
            "type": "destinataire",
            "value": "Le ministre et les fr\u00e8res du couvent Saint-Mathurin de Paris, de l\u2019ordre des Trinitaires"
        },
        {
            "type": "date_libre",
            "value": "X kalendas aprilis, anno secundo"
        },
        {
            "type": "date",
            "value": "1344\/03\/23",
            "children": {
                "date_deb_annee": "1344",
                "date_deb_mois": "03",
                "date_deb_jour": "23"
            },
            "range": {
                "date_apres": 13440323,
                "date_avant": 13440323
            }
        },
        {
            "type": "date_lieu",
            "value": "Avignon"
        },
        {
            "type": "genre",
            "value": "Titre, g\u00e9n\u00e9ral (littere gratiose, cum filo serico)"
        },
        {
            "type": "analyse",
            "value": "Cl\u00e9ment VI confirme au couvent Saint-Mathurin de Paris, de l\u2019ordre des Trinitaires, les privil\u00e8ges obtenus des papes ses pr\u00e9d\u00e9cesseurs (<i>libertates et immunitates<\/i>) et des la\u00efques (<i>libertates<\/i> et <i>exemptiones secularium exactionum<\/i>)."
        },
        {
            "type": "sources_manuscrites",
            "value": "E. FRANCE, Paris, Archives nationales de France, L 307\/15.  Fac-simil\u00e9 interacif sur le site Theleme de l'Ecole nationale des chartes, <a target=\"_blank\" href=\" http:\/\/theleme.enc.sorbonne.fr\/dossiers\/vue49.php \">dossier n. 49<\/a>. ",
            "children": {
                "type_source": "Exp\u00e9dition"
            }
        },
        {
            "type": "edition",
            "value": "Ici reprise de l'\u00e9dition d'Olivier Guyotjeannin et Cl\u00e9ment Pieyre pour le site Theleme de l'Ecole nationale des chartes, <a target=\"_blank\" href=\" http:\/\/theleme.enc.sorbonne.fr\/dossiers\/notice49.php \">dossier n. 49<\/a>. "
        },
        {
            "type": "regeste",
            "value": "Bernard Barbiche, Les actes pontificaux originaux des Archives nationales de Paris, Vatican, 3 vol., 1975-1982, t. III, n\u00b0 2883"
        },
        {
            "type": "transcription",
            "value": "<?xml version=\"1.0\" encoding=\"UTF-8\"?>\nClemens episcopus, servus servorum Dei, dilectis filiis .. ministro et fratribus domus Sancti Maturini Parisiensis, ordinis sancte Trinitatis et redemptionis captivorum, salutem et apostolicam benedictionem. Cum a nobis petitur quod justum est et honestum, tam vigor equitatis quam ordo exigit rationis ut id per solicitudinem officii nostri ad debitum perducatur effectum. Eapropter, dilecti in Domino filii, vestris justis postulationibus grato concurrentes assensu, omnes libertates et immunitate[s] a predecessoribus nostris Romanis pontificibus sive per privilegia seu alias indulgentias vobis et domui vestre concessas necnon libertates et exemptiones secularium exactionum a regibus et principibus et aliis Christi fidelibus rationabiliter vobis indultas, sicut eas juste ac pacifice obtinetis, vobis et per vos eidem domui auctoritate apostolica confirmamus et presentis scripti patrocinio communimus. Nulli ergo omnino hominum liceat hanc paginam nostre confirmationis infringere vel ei ausu temerario contraire. Si quis autem hoc attemptare presumpserit, indignationem omnipotentis Dei et beatorum Petri et Pauli apostolorum ejus se noverit incurs[ur]um. Datum Avinione, X kalendas aprilis, pontificatus nostri anno secundo.\n"
        },
        {
            "type": "traduction_source",
            "value": "Ici reprise d'Olivier Guyotjeannin et Cl\u00e9ment Pieyre pour le site Theleme de l'Ecole nationale des chartes, <a target=\"_blank\" href=\" http:\/\/theleme.enc.sorbonne.fr\/dossiers\/notice49.php \">dossier n. 49<\/a>. "
        },
        {
            "type": "remarques",
            "value": "Commentaire diplomatique d'Olivier Guyotjeannin et Cl\u00e9ment Pieyre sur le site Theleme de l'Ecole nationale des chartes, <a target=\"_blank\" href=\" http:\/\/theleme.enc.sorbonne.fr\/dossiers\/diplomatique49-1.php \"> dossier n. 49<\/a>."
        }
    ]
}