{
    "id": 147587,
    "name": "aposcripta-7214",
    "type": "acte",
    "url": "http:\/\/telma-chartes.irht.cnrs.fr\/aposcripta\/notice\/147587",
    "project_slug": "aposcripta",
    "project_label": "APOSCRIPTA \u2013 Lettres des papes",
    "user": "j_theryastruc",
    "last_update": "2020-10-19 16:39:33",
    "licence": "Attribution - Pas d\u2019Utilisation Commerciale - Partage dans les M\u00eames Conditions 3.0 France (CC BY-NC-SA 3.0 FR) ",
    "licence_url": "https:\/\/creativecommons.org\/licenses\/by-nc-sa\/3.0\/fr\/",
    "elements": [
        {
            "type": "pape",
            "value": "Innocent IV (1243-1254)"
        },
        {
            "type": "destinataire",
            "value": "Le prieur de San Andrea de Sestri Ponente"
        },
        {
            "type": "date",
            "value": "1245\/06\/10",
            "children": {
                "date_deb_annee": "1245",
                "date_deb_mois": "06",
                "date_deb_jour": "10"
            },
            "range": {
                "date_apres": 12450610,
                "date_avant": 12450610
            }
        },
        {
            "type": "analyse",
            "value": "Innocenzo IV ordina al priore del monastero di S. Andrea di Sestri Ponente nella diocesi di Genova di provvedere un beneficio ecclesiastico nella stessa diocesi a Lanfranchino, figlio del notaio Guglielmo Vegio, che desidera entrare nella carriera ecclesiastica [Guerello]."
        },
        {
            "type": "sources_manuscrites",
            "value": "F. ITALIE, G\u00eanes, Archivio di Stato di Genova, Cartolare 21, I, c. 26v. Copia mutila inserta in atto del 25 agosto 1248, rogato a Genova dal notaio Giovanni Vegio. L\u2019inserto \u00e8 mutilo della data, terminando in tronco. Seguono dieci righe in bianco prima della conclusione dell\u2019atto.",
            "children": {
                "type_source": "Autre copie m\u00e9di\u00e9vale"
            }
        },
        {
            "type": "edition",
            "value": "Ici reprise de Franco Guerello, <i>Lettere di Innocenzo IV dai cartolari notarili genovesi<\/i> Rome : Pontificia Universit\u00e0 Gregoriana, 1961, n. 2, p. 33-34."
        },
        {
            "type": "transcription",
            "value": "<?xml version=\"1.0\" encoding=\"UTF-8\"?>\nInnocentius episcopus, servus servorum Dei, dilecto filio .. priori monasterii Sancti Stephania de Sexto, Ianuensis diocesis, salutem et apostolicam benedictionem. Presencium tibi auctoritate mandamus quatinus dilectum filium Lanfranchinum, scolarem, natum Wilielmi dicti Vegii, notarii Ianuensis, cupientem ut dicitur milicie clericali ascribi, recipi facias in aliqua ecclesiarum civitatis vel diocesis Ianuensis, cathedrali dumtaxat excepta, in canonicum et in fratrem eique de prebenda, si qua vacat ad presens vel quam primum ad id se facultas obtulerit, providere, non obstante certo canonicorum numero, iuramento vel alia firmitate vallato, aut si in ecclesia in qua sibi duxeris providendum direximus scripta nostra pro aliis, quibus auctoritate presencium nolumus preiudicum generari, contradictores per censuram ecclesiasticam, appellatione postposita, compescendo. Datum Lugduni, IIII idus iunii, pontificatus nostri anno...\n"
        },
        {
            "type": "genre",
            "value": "Mandement (littere cum filo canapis)"
        },
        {
            "type": "date",
            "value": "1246\/06\/10",
            "children": {
                "date_deb_annee": "1246",
                "date_deb_mois": "06",
                "date_deb_jour": "10"
            },
            "range": {
                "date_apres": 12460610,
                "date_avant": 12460610
            }
        },
        {
            "type": "date",
            "value": "1247\/06\/10",
            "children": {
                "date_deb_annee": "1247",
                "date_deb_mois": "06",
                "date_deb_jour": "10"
            },
            "range": {
                "date_apres": 12470610,
                "date_avant": 12470610
            }
        },
        {
            "type": "date",
            "value": "1248\/06\/10",
            "children": {
                "date_deb_annee": "1248",
                "date_deb_mois": "06",
                "date_deb_jour": "10"
            },
            "range": {
                "date_apres": 12480610,
                "date_avant": 12480610
            }
        },
        {
            "type": "apparat_critique",
            "value": "<i>evidentemente errato per<\/i> Andree, <i>come appare del documento notarile.<\/i>",
            "children": {
                "numero_note": "a"
            }
        },
        {
            "type": "date_libre",
            "value": "IV idus iunii, anno..."
        }
    ]
}