{
    "id": 26316,
    "name": "aposcripta-3395",
    "type": "acte",
    "url": "http:\/\/telma-chartes.irht.cnrs.fr\/aposcripta\/notice\/26316",
    "project_slug": "aposcripta",
    "project_label": "APOSCRIPTA \u2013 Lettres des papes",
    "user": "lettrespontificalesadmin",
    "last_update": "2020-10-19 16:27:58",
    "licence": "Attribution - Pas d\u2019Utilisation Commerciale - Partage dans les M\u00eames Conditions 3.0 France (CC BY-NC-SA 3.0 FR) ",
    "licence_url": "https:\/\/creativecommons.org\/licenses\/by-nc-sa\/3.0\/fr\/",
    "elements": [
        {
            "type": "pape",
            "value": "Eug\u00e8ne III (1145-1153)"
        },
        {
            "type": "date_lieu",
            "value": "Vignole (?)"
        },
        {
            "type": "date_libre",
            "value": "VI kalendas februarii"
        },
        {
            "type": "date",
            "value": " 1147\/01\/27",
            "children": {
                "date_deb_annee": "1147",
                "date_deb_mois": "01",
                "date_deb_jour": "27"
            },
            "range": {
                "date_apres": 11470127,
                "date_avant": 11470127
            }
        },
        {
            "type": "analyse",
            "value": "Eugen III best\u00e4tigt dem Kloster Gorze (D. Metz) den Urtheilsspruch einer Metzer Synode wegen der Kapelle Ste-Brigitte von Plappeville (bei Metz) und ausserdem den gesammten Zehnten, den sich Ritter Peter anmasste."
        },
        {
            "type": "transcription",
            "value": "<?xml version=\"1.0\" encoding=\"UTF-8\"?>\nEugenius episcopus, servus servorum Dei, dilectis filiis Isembaldo abbati Gorziensis monasterii eiusque fratribus, salutem et apostolicam benedictionem. Venientes ad nos duo de fratribus vestris, Albertus videlicet et Wirricus, litterarum venerabilis fratris nostri Stephani, Metensis episcopi1, rescriptum nobis representarunt. In quo continebatur, quod inter Wirricum, tunc Gorziensem abbatem, et sancti Simphoriani abbatem2 super capellam sancte Brigide de Papivilla questio orta est et ante ipsius presentiam ventilata3. Auditis autem utriusque partis rationibus et diligenter inquisitis, totius synodi iuditio iudicatum est, cappellam ipsam cum universis oblationibus et medietatem omnium decimarum de XVII a mansis et dimidio, et insuper medietatem minute decime eiusdem ville cum dote ipsius capelle ad ecclesiam sancti Quintini de Siex, que est mater ipsius capelle, et de iure Gorziensis monasterii esse dinoscitur specialiter pertinere. Quia igitur nostri officii est que iudicii veritate decisa sunt in sua stabilitate firmare, nos capellam ipsam cum supradictis prenominate ecclesie sancti Quintini et Gorziensi monasterio, sicut in eiusdem Metensis episcopi presentia per iuditium totius synodi iuste adiudicata est, confirmamus et presentis scripti pagina roboramus. Nichilominus et totam decimam alodii de Viculo Lasceib, quam, ad ius vestri monasterii pertinentem, Petrus miles violenter occupatam cum satisfactione reddidit, Gorziensi monasterio confirmamus. Si quis autem huius nostre confirmationis paginam sciens contra eam temere venire temptaverit, indignationem omnipotentis dei et beatorum Petri et Pauli apostolorum eius se noverit incursurum. Dat. apud Vicum4, VI kalendas februarii.\n"
        },
        {
            "type": "edition",
            "value": "Ici reprise de Julius von Pflugk-Harttung, <i>Acta pontificum Romanorum inedita<\/i>, T\u00fcbingen, 1880, I, n. 207, p. 190-191."
        },
        {
            "type": "sources_manuscrites",
            "value": "FRANCE, Metz, Biblioth\u00e8que municipale, Cartulaire de Gorze, n. 76, p. 216-217. Copie du XII<sup>e<\/sup> si\u00e8cle.",
            "children": {
                "type_source": "Autre copie m\u00e9di\u00e9vale"
            }
        },
        {
            "type": "remarques",
            "value": ""
        },
        {
            "type": "apparat_critique",
            "value": "a.\u2002<i>Es steht<\/i> <span class=\"small-caps\">xii<\/span>, <i>dar\u00fcber von anderer Dinte<\/i> <span class=\"small-caps\">v<\/span> ; <i>dass<\/i> <span class=\"small-caps\">xvii<\/span> <i>richtig ist, beweist Cart. de Gorze p. 214.<\/i>",
            "children": {
                "numero_note": "a"
            }
        },
        {
            "type": "apparat_critique",
            "value": "b.\u2002Viculo Lacey, <i>Cart. de Gorze p. 215.<\/i>",
            "children": {
                "numero_note": "b"
            }
        },
        {
            "type": "notes_historiques",
            "value": "<i>Stefan von Bar, Bischof von Metz, 1120\u20131163.<\/i>",
            "children": {
                "numero_note": "1"
            }
        },
        {
            "type": "notes_historiques",
            "value": "<i>Herbert.<\/i>",
            "children": {
                "numero_note": "2"
            }
        },
        {
            "type": "notes_historiques",
            "value": "<i>Die Urkunde, worin Stephan von Metz die betreffende Kapelle an Gorze \u00fcberweist, findet sich im Cart. de Gorze p. 213, 215, ausgestellt im Jahre 1143. Unter den Zeugen figurirt auch der eine der beiden Boten, welche an den Papst gesandt wurden,<\/i> Wirricus monachus et prepositus de Sye (<i>diese Propstei geh\u00f6rte zum Kloster Gorze<\/i>).",
            "children": {
                "numero_note": "3"
            }
        },
        {
            "type": "notes_historiques",
            "value": "<i>Vicus ist zun\u00e4chst Vic in Frankreich<\/i> (<i>Meurth<\/i>) <i>und Vigo in Spanien. Da Eugen der Regestenreihe zufolge aber im Jahre 1147 auf der Reise von Viterbo nach Lucca begriffen war, werden wir unser Vicum ungef\u00e4hr zwischen beiden Orten im Toskanischen zu suchen haben. Vignole liegt n\u00f6rdlich von Volterra. Vergl. Jaff\u00e9, Reg. 6285, 6285<\/i> <sup>a<\/sup>.",
            "children": {
                "numero_note": "4"
            }
        },
        {
            "type": "genre",
            "value": "Privil\u00e8ge mineur (avant 1198)"
        },
        {
            "type": "destinataire",
            "value": "L'abb\u00e9 de Gorze Isembald et les moines du monast\u00e8re"
        }
    ]
}