{
    "id": 146922,
    "name": "aposcripta-6551",
    "type": "acte",
    "url": "http:\/\/telma-chartes.irht.cnrs.fr\/aposcripta\/notice\/146922",
    "project_slug": "aposcripta",
    "project_label": "APOSCRIPTA \u2013 Lettres des papes",
    "user": "l_valliere",
    "last_update": "2020-10-19 16:39:24",
    "licence": "Attribution - Pas d\u2019Utilisation Commerciale - Partage dans les M\u00eames Conditions 3.0 France (CC BY-NC-SA 3.0 FR) ",
    "licence_url": "https:\/\/creativecommons.org\/licenses\/by-nc-sa\/3.0\/fr\/",
    "elements": [
        {
            "type": "pape",
            "value": "Cl\u00e9ment IV (1265-1268)"
        },
        {
            "type": "destinataire",
            "value": "Le ma\u00eetre ainsi que tous les prieurs et fr\u00e8res de l'ordre des Pr\u00eacheurs"
        },
        {
            "type": "date_libre",
            "value": "IV kalendas junii, anno primo"
        },
        {
            "type": "date",
            "value": "1265\/05\/09",
            "children": {
                "date_deb_annee": "1265",
                "date_deb_mois": "05",
                "date_deb_jour": "09"
            },
            "range": {
                "date_apres": 12650509,
                "date_avant": 12650509
            }
        },
        {
            "type": "date_lieu",
            "value": "P\u00e9rouse"
        },
        {
            "type": "genre",
            "value": "Titre, g\u00e9n\u00e9ral (littere gratiose, cum filo serico)"
        },
        {
            "type": "analyse",
            "value": "Inhibet ut nullus ecclesias aut loca eorum presumat infringere aut in illis violentiam exercere [Sailler]. "
        },
        {
            "type": "edition",
            "value": "\u00e0 faire"
        },
        {
            "type": "regeste",
            "value": "Potthast, <i>Regesta pontificum Romanorum<\/i>, n. 19137 <a target=\"_blank\" href=\" http:\/\/opacplus.bsb-muenchen.de\/title\/BV004241514\/ft\/bsb11316018?page=616\"> [en ligne]<\/a>."
        },
        {
            "type": "transcription",
            "value": "<?xml version=\"1.0\" encoding=\"UTF-8\"?>\nClemens episcopus, servus servorum Dei, dilectis filiis .. preceptori et fratribus domus militie Templi in Ispania, salutem et apostolicam benedictionem. Cum a nobis petitur quod justum est et honestum... Nulli ergo... Datum Perusii, V kalendas junii, pontificatus nostri anno primo.\n"
        },
        {
            "type": "edition_autre",
            "value": "<i>Liber collegii Nostre Domine : Registrum ecclesie B. V. Marie et S. Anne infra muros civitatis Glasguensis...<\/i>, \u00e9d. Joseph Robertson, Glasgow, 1846, p. 149."
        },
        {
            "type": "edition_autre",
            "value": "Johan Gustaf Liljegren, <i>Svenskt diplomatarium<\/i>, Stockholm, 1829-1867, 5 t. en 8 vol., I, n. 502, p. 425."
        },
        {
            "type": "edition_autre",
            "value": "<i>M\u00e9moires et documents publi\u00e9s par la soci\u00e9t\u00e9 d'histoire et d'arch\u00e9ologie de Gen\u00e8ve<\/i>, t. XIV, Gen\u00e8ve, 1862, n. 89, p. 75 (avec la date du 7 mai 1265)."
        },
        {
            "type": "regeste",
            "value": "\u00c9douard Jordan, <i>Les registres de Cl\u00e9ment IV (1265-1268)<\/i>, Paris, 1893-1945, n. 1615, d\u2019apr\u00e8s E."
        },
        {
            "type": "regeste",
            "value": "Bernard Barbiche, <i>Les actes pontificaux originaux des Archives Nationales de Paris<\/i>, Cit\u00e9 du Vatican, 1975-1982, II, n. 1298, p. 97, d'apr\u00e8s E."
        },
        {
            "type": "sources_manuscrites",
            "value": "E<sup>1<\/sup>. FRANCE, Paris, Archives nationales, L 258, n. 19 (olim 21). <i>Bulla cum filio ser. Recto, super plicam ad d.<\/i> : Jo. S. <i>sub plica ad s. taxa : tria puncta in linea<\/i> (= <i>III<\/i>) A tergo in medio margine sup.<\/i> : Predicatorum. <i>Cf.<\/i> SB 3401.",
            "children": {
                "type_source": "Exp\u00e9dition"
            }
        },
        {
            "type": "regeste",
            "value": "Z\u00f6llner, <i>PU Magdeburg<\/i>, n. 225, p. 120. "
        },
        {
            "type": "regeste",
            "value": "Schmidt, <i>SPU Baden-W\u00fcrttemberg<\/i>, I, n. 567, p. 259."
        },
        {
            "type": "regeste",
            "value": "Gerhard Sailler, <i>Papsturkunden in Portugal von 1198-1304. Ein Beitrag zum Censimento<\/i>, dissertation, Universtit\u00e4t Wien, 2008, n. 336, d'apr\u00e8s E."
        }
    ]
}