{
    "id": 24088,
    "name": "aposcripta-1240",
    "type": "acte",
    "url": "http:\/\/telma-chartes.irht.cnrs.fr\/aposcripta\/notice\/24088",
    "project_slug": "aposcripta",
    "project_label": "APOSCRIPTA \u2013 Lettres des papes",
    "user": "lettrespontificalesadmin",
    "last_update": "2020-10-19 16:27:23",
    "licence": "Attribution - Pas d\u2019Utilisation Commerciale - Partage dans les M\u00eames Conditions 3.0 France (CC BY-NC-SA 3.0 FR) ",
    "licence_url": "https:\/\/creativecommons.org\/licenses\/by-nc-sa\/3.0\/fr\/",
    "elements": [
        {
            "type": "pape",
            "value": "Eug\u00e8ne III (1145-1153)"
        },
        {
            "type": "date_lieu",
            "value": "n.c."
        },
        {
            "type": "date_libre",
            "value": "11\u00a0novembre 1146"
        },
        {
            "type": "date",
            "value": " 1146\/11\/11",
            "children": {
                "date_deb_annee": "1146",
                "date_deb_mois": "11",
                "date_deb_jour": "11"
            },
            "range": {
                "date_apres": 11461111,
                "date_avant": 11461111
            }
        },
        {
            "type": "analyse",
            "value": "Eug\u00e8ne\u00a0III exhorte l\u2019\u00e9v\u00eaque et les archidiacres de Maguelone \u00e0 prot\u00e9ger les moines d\u2019Aniane, qui veulent am\u00e9liorer leurs possessions aupr\u00e8s de Saint-Br\u00e8s."
        },
        {
            "type": "transcription",
            "value": "<?xml version=\"1.0\" encoding=\"UTF-8\"?>\nEugenius episcopus, servusa servorum Dei, venerabili fratri R[aimundo] episcopo, et archidiaconis Magalonensis Ecclesie, salutem et apostolicam benediccionem.Filius noster G[uillelmus], abbas Anianensis monasterii, cum quibusdam fratribus suis, ad nostram presenciam venit, et Sedis Apostolice patrocinium a predecessoribus nostris Anianensi monasterio jam diu concessum a nobis suppliciter impetravit.Inter cetera vero Ecclesie sue negocia significavit nobis, quod, in quadam possessione sui monasterii, que apud Sanctum Briciumb sita est, edificia facere et ea ad utilitatem ipsius monasterii meliorare intendit, sed a quibusdam illius terre hominibus prohibetur. Ideoque per apostolica vobis scripta precipiendo mandamus, quatinus possessionem ipsam ad commodum ipsius monasterii legitime meliorare nec ipsi prohibeatis, nec ab aliisc prohiberi vel impediri permittatis. Si quis autem hoc temere impedire presumpserit, debitam de ipso justiciam faciatis.Datumd Viterbiie, iii idus novembris.\n"
        },
        {
            "type": "edition",
            "value": "Julien Rouquette, Augustin Villemagne, <i>Bullaire de l'\u00c9glise de Maguelone<\/i>, Paris, Montpellier : Picard, Valat, 1911-1914, I, n. 49-XXX, p. 72-72"
        },
        {
            "type": "remarques",
            "value": "  Date. \u2014 Nous ferons la m\u00eame remarque pour cette bulle que pour la pr\u00e9c\u00e9dente. Les \u00e9diteurs du <i>Cartulaire d\u2019Aniane<\/i> la datent du 11\u00a0novembre 1145-1153. Elle est du 11\u00a0novembre 1146.\n\n[Rouquette-Villemagne]"
        },
        {
            "type": "apparat_critique",
            "value": "Cart. Aniane et \u00e9diteurs n\u2019ont pas le mot <i>servus<\/i>.",
            "children": {
                "numero_note": "a"
            }
        },
        {
            "type": "apparat_critique",
            "value": "Cart. Aniane et \u00e9diteurs\u00a0: <i>Bricium<\/i>. Les manuscrits de Paris, d\u2019apr\u00e8s une copie fournie par M. l\u2019abb\u00e9 <span class=\"small-caps\">Rouzi\u00e9s<\/span>, portent\u00a0: <i>Aricium<\/i>. <span class=\"small-caps\">Jaff\u00e9<\/span>, d\u2019apr\u00e8s <span class=\"small-caps\">Lowenfeld<\/span>, reproduit cette derni\u00e8re le\u00e7on, qui est fautive. Il n\u2019y a pas d\u2019<i>Aricium<\/i> dans le dioc\u00e8se de Maguelone, il faut lire <i>Bricium<\/i>.",
            "children": {
                "numero_note": "b"
            }
        },
        {
            "type": "apparat_critique",
            "value": "Cart. Aniane\u00a0: <i>aliis<\/i>\u00a0; \u00e9diteurs\u00a0: <i>alii<\/i>.",
            "children": {
                "numero_note": "c"
            }
        },
        {
            "type": "apparat_critique",
            "value": "Cart. Aniane\u00a0: <i>dat.<\/i>\u00a0; \u00e9diteurs\u00a0: <i>date<\/i>.",
            "children": {
                "numero_note": "d"
            }
        },
        {
            "type": "apparat_critique",
            "value": "Cart. Aniane\u00a0: <i>Viterbi<\/i>\u00a0; \u00e9diteurs\u00a0: <i>Viterbu<\/i>.",
            "children": {
                "numero_note": "e"
            }
        },
        {
            "type": "bibliographie_generale",
            "value": "<i>Cart. d\u2019Aniane<\/i>, fol.\u00a039\u00a0v\u00b0\u00a0; \u00e9dit., p.\u00a0112",
            "children": {
                "numero_note": "0"
            }
        },
        {
            "type": "bibliographie_generale",
            "value": "Bibl. nat., lat.\u00a012760, fol.\u00a0325, et 13816, fol.\u00a078 (fragment)",
            "children": {
                "numero_note": "1"
            }
        },
        {
            "type": "bibliographie_generale",
            "value": "<span class=\"small-caps\">Loewenfeld<\/span>, <i>Epistol\u00e6<\/i>, p.\u00a0102. \u2014 <span class=\"small-caps\">Jaff\u00e9<\/span> et <span class=\"small-caps\">Wattenbach<\/span>, n\u00b0\u00a08954.",
            "children": {
                "numero_note": "2"
            }
        },
        {
            "type": "genre",
            "value": "Bulle"
        }
    ]
}