{
    "id": 26369,
    "name": "aposcripta-3448",
    "type": "acte",
    "url": "http:\/\/telma-chartes.irht.cnrs.fr\/aposcripta\/notice\/26369",
    "project_slug": "aposcripta",
    "project_label": "APOSCRIPTA \u2013 Lettres des papes",
    "user": "lettrespontificalesadmin",
    "last_update": "2020-10-19 16:27:59",
    "licence": "Attribution - Pas d\u2019Utilisation Commerciale - Partage dans les M\u00eames Conditions 3.0 France (CC BY-NC-SA 3.0 FR) ",
    "licence_url": "https:\/\/creativecommons.org\/licenses\/by-nc-sa\/3.0\/fr\/",
    "elements": [
        {
            "type": "pape",
            "value": "Alexandre III (1159-1181)"
        },
        {
            "type": "date_lieu",
            "value": "Benevent"
        },
        {
            "type": "date_libre",
            "value": "1167\u20131169 October 28"
        },
        {
            "type": "date",
            "value": "apr\u00e8s 1167\/10\/28 - avant 1169\/10\/28",
            "children": {
                "date_deb_annee": "1167",
                "date_deb_mois": "10",
                "date_deb_jour": "28",
                "date_deb_type": "apr\u00e8s",
                "date_fin_annee": "1169",
                "date_fin_mois": "10",
                "date_fin_jour": "28",
                "date_fin_type": "avant"
            },
            "range": {
                "date_apres": 11671028,
                "date_avant": 11691028
            }
        },
        {
            "type": "analyse",
            "value": "Alexander III schreibt an das Kloster St.-Benigne von Dijon (D. Langres) wegen eines Bethauses und eines Kirchhofs der Templer innerhalb der Benigner Pfarre, er untersagt, dass Pfarrangeh\u00f6rige dort zum t\u00e4glichen Kirchendienste oder zum Begr\u00e4bnisse aufgenommen werden, wenn sie nicht in den Templerorden eingetreten seien."
        },
        {
            "type": "transcription",
            "value": "<?xml version=\"1.0\" encoding=\"UTF-8\"?>\n Alexander episcopus servus servorum dei [dilectis]a filiis, .Phylippo abbati et fratribus sanctib Be|nigni Divionensis, salutem et apostolicam benedictionem. Quoniam dilecti filii nostri, fratres militie | templi, quoddam oratorium infra terminos parrochie vestre pro se et familia sua construxisse noscuntur, ubi etiam cimiterium ad opus fratrum suorum tantum, servientium quoque, qui de familia et mensa domus sue fuerint, et peregrinorum, si qui venerint, mandavimus benedici vobis et ecclesie vestre cupimus in hoc utiliter precavere. Inde siquidem est, quod auctoritate apostolica presentibus litteris duximus inhibendum, ut predicti fratres parrochianos vestros ad officia cotidiana vel ad sepulturam, nisi habitum eorum assumpserint, recipere nullatenus audeant, nec fines privilegiorum suorum in detrimentum iuris vestri excedere aliqua ratione attemptarent. Decernimus ergo, ut nulli omnino hominum liceat, hanc paginam nostre prohibitionis infringere vel ei aliquatenus contraire. Si quis autem hoc attemptare presumpserit, indignationem omnipotentis dei et beatorum Petri et Pauli apostolo|rum eius se noverit incursurum. \u2014 Dat. Beneventi, v Kl. Novembr.\n"
        },
        {
            "type": "edition",
            "value": "Julius von Pflugk-Harttung, <i>Acta pontificum Romanorum inedita<\/i>, T\u00fcbingen, 1880, I, n. 260, p. 241"
        },
        {
            "type": "sources_manuscrites",
            "value": "Or. im Archive des D\u00e9p. C\u00f4te-d\u2019Or zu Dijon."
        },
        {
            "type": "remarques",
            "value": "Perg. ital., breit 0,193, lang 0,215, unten umgeschlagen, Bullirung durch 2 L\u00f6cher, Schnur und Bulle verloren. Faltung der Breven."
        },
        {
            "type": "apparat_critique",
            "value": "a.\u2002<i>Ist ausgerissen.<\/i>",
            "children": {
                "numero_note": "a"
            }
        },
        {
            "type": "apparat_critique",
            "value": "b.\u2002ribus sancti <i>auf Rasur<\/i>.",
            "children": {
                "numero_note": "b"
            }
        },
        {
            "type": "genre",
            "value": "Bulle"
        }
    ]
}