{
    "id": 20657,
    "name": "aposcripta-644",
    "type": "acte",
    "url": "http:\/\/telma-chartes.irht.cnrs.fr\/aposcripta\/notice\/20657",
    "project_slug": "aposcripta",
    "project_label": "APOSCRIPTA \u2013 Lettres des papes",
    "user": "lettrespontificalesadmin",
    "last_update": "2020-10-19 16:26:52",
    "licence": "Attribution - Pas d\u2019Utilisation Commerciale - Partage dans les M\u00eames Conditions 3.0 France (CC BY-NC-SA 3.0 FR) ",
    "licence_url": "https:\/\/creativecommons.org\/licenses\/by-nc-sa\/3.0\/fr\/",
    "elements": [
        {
            "type": "pape",
            "value": "Pascal II (1099-1118)"
        },
        {
            "type": "date_lieu",
            "value": "n.c."
        },
        {
            "type": "date_libre",
            "value": "1114 Nov 27"
        },
        {
            "type": "analyse",
            "value": "Paschalis\u00a0II cellam Gordanicensem, monachis Casae-dei abiudicatam, in possessione ac subiectione monasterii Anianensis permanere iubet."
        },
        {
            "type": "transcription",
            "value": "<?xml version=\"1.0\" encoding=\"UTF-8\"?>\nPaschalis episcopus servus servorum Dei dilecto filio Petro Anianensis monasterii abbati salutem et apostolicam benedictionem. Causam cellae de Gordanico nos ita firmaveramus, sicut ab episcopis definitam perceperamus, quos vice nostra iudices dederamus. Ceterum neque sic Casae Dei monachi quiescentes Anianensis monasterii monachos falsitatis apud nos accusare ceperunt, quod literas ex episcoporum judicum nominibus non veras sed fictas attulerunt, seque in ea re injuriam pati clamabant. Unde oportunum duximus, eandem causam repetita tractatione discutere, ut omnem litis fomitem ab utroque monasterio removeremus. Statuto igitur tempore partes utraeque ante nostram praesentiam redierunt. Iudices iidem, videlicet Arbertus Avinionensis, Ismio Diensis, Eustachius Valentinus episcopi suas ad nos literas remiserunt, sigillis propriis nominibusque signatas, in quibus se pro praecepto nostro Valentiam convenisse, causam inter monachos Casae Dei atque Anianenses discussisse, cellam de Gordanico, de qua lis erat, monachis Anianensibus habendam ac perpetuo possidendam, dictante iustitia, censuisse et inde eis cartam fecisse significabant, ubi manibus propriis scripserunt et quam sigillorum suorum impressione signaverunt. Cum has quoque literas Casae Dei monachi falsas assererent, Anianenses contra ad iustificandas iureiurando se paratos exhibuerunt. Ceterum fratribus nostris, qui nobiscum in tempore aderant, incongruum et plenum praeiudicio visum est, ut sigillis certis impressae literae aliis debeant probationibus certificari, cum etiam in pontificum decretis, transmarinos homines in clericatum suscipi cum episcoporum chirographis, permittatur. Sic igitur iterato iudicio statutum est, ut Anianensi monasterio cella eadem de Gordanico quieta semper et integra cum universis suis possessionibus conservetur\u00a0; monachis vero Casae Dei perpetuum super eodem negotio silentium est indictum. Nos itaque, omni iam seposito velamine falsitatis et manifeste per Dei gratiam iustitiae veritate aperta, tam episcoporum, qui Valentiae negotium tractaverunt, quam fratrum nostrorum episcoporum seu cardinalium, qui Lateranis causam retractaverunt, iudicium confirmantes, nostrae auctoritatis assertione corroboramus et sepedictam cellam de Gordanico tamquam prioratum in possessione ac subiectione Anianensis monasterii perpetuo permanere sancimus, omni deinceps monachorum Casae Dei calumnia, questione et contradictione seposita. Datum Laterani per manum Iohannis S.R.E. diaconi cardinalis ac bibliothecarii V Kalendas Decembris, indictione VIII, incarnationis dominicae anno MCXIIII, pontificatus autem domni Paschalis secundi papae anno XVI.\n"
        },
        {
            "type": "edition",
            "value": "Samuel Loewenfeld, <i>Epistolae pontificum romanorum ineditae<\/i>, Leipzig : Veit et Comp., 1885, n. 145, p. 72"
        },
        {
            "type": "sources_manuscrites",
            "value": "Bibl. nat. Paris. 1)\u00a0ms. lat.\u00a013816 s.\u00a0<span class=\"smal-caps\">xvii<\/span> fol.\u00a072<sup>b<\/sup>, 2)\u00a0Coll. Baluze 19 fol.\u00a0151 manu s.\u00a0<span class=\"smal-caps\">xvii<\/span>."
        },
        {
            "type": "date",
            "value": "1114\/11\/27",
            "children": {
                "date_deb_annee": "1114",
                "date_deb_mois": "11",
                "date_deb_jour": "27"
            },
            "range": {
                "date_apres": 11141127,
                "date_avant": 11141127
            }
        },
        {
            "type": "genre",
            "value": "Bulle"
        }
    ]
}