{
    "id": 24587,
    "name": "aposcripta-1738",
    "type": "acte",
    "url": "http:\/\/telma-chartes.irht.cnrs.fr\/aposcripta\/notice\/24587",
    "project_slug": "aposcripta",
    "project_label": "APOSCRIPTA \u2013 Lettres des papes",
    "user": "lettrespontificalesadmin",
    "last_update": "2020-10-19 16:27:32",
    "licence": "Attribution - Pas d\u2019Utilisation Commerciale - Partage dans les M\u00eames Conditions 3.0 France (CC BY-NC-SA 3.0 FR) ",
    "licence_url": "https:\/\/creativecommons.org\/licenses\/by-nc-sa\/3.0\/fr\/",
    "elements": [
        {
            "type": "pape",
            "value": "Gr\u00e9goire IX (1227-1241)"
        },
        {
            "type": "date_lieu",
            "value": "n.c."
        },
        {
            "type": "date_libre",
            "value": "4\u00a0avril 1239"
        },
        {
            "type": "date",
            "value": " 1239\/04\/04",
            "children": {
                "date_deb_annee": "1239",
                "date_deb_mois": "04",
                "date_deb_jour": "04"
            },
            "range": {
                "date_apres": 12390404,
                "date_avant": 12390404
            }
        },
        {
            "type": "analyse",
            "value": "Gr\u00e9goire\u00a0IX charge le sacriste, l\u2019archidiacre et le pr\u00e9centeur de Nimes de faire une enqu\u00eate sur le diff\u00e9rend qui existe entre le monast\u00e8re de Franquevaux et l\u2019\u00e9v\u00eaque de Maguelone, au sujet du mas de la Grange du Pin et de quelques possessions dans le comt\u00e9 de Melgueil, c\u00e9d\u00e9es \u00e0 ce monast\u00e8re par Raimond\u00a0VI."
        },
        {
            "type": "transcription",
            "value": "<?xml version=\"1.0\" encoding=\"UTF-8\"?>\nSacriste, archidiacono et precentori Neumasensibus.Dilecti filii abbas et conventus monasterii Francarum Vallium. Cisterciensis ordinis, sua nobis petitione monstrarunt, quod duduma venerabilis frater noster, Magalonensis episcopus, asserens quod quondam R[aimundus], comes Tolosanus, qui comitatum Melgorii et Montis Ferrandi tunc temporis detinebat, mansum de Pinu et quedam alia ad eundem pertinentia comitatum, alienare sine assensu Sedis Apostolice presumpsisset\u00a0; necnon quod dicti abbas et conventus eadem in Ecclesie Romane ac ipsius episcopi prejudicium detinerent, ad vos nostras impetravit litteras, continentes ut, inquisita super hiis de plano et sine strepitu judicii veritate, si rem inveneritis taliter se habere, ipsos ad restitutionem debitam predictorum, monitione premissa, per censuram ecclesiasticam, appellatione postposita, cogeretis, non obstantibus litteris confirmationum, vel aliis super hiis a Sede Apostolica impetratis, plenam de dictis litteris non facientibus mentionem.Et licet dicti abbas et conventus ad citationem vestram comparuerint coram vobis, nichilominus tamen, vestro pendente judicio, dictus episcopus, eisdem usum molendinorum in eodem manso existentium interdicens, fecit per bajulum proprium, per vicos, voce preconia et in vicinis ecclesiis inhiberi, ne quis illuc accederet ad molendum, alias eis super premissis gravis et injuriosus plurimum existendo.Quare memoratus abbas, nostram coactus adire presentiam, pro se ac conventu predicto nobis humiliter supplicavit, ut, cum ipsi predictum mansum et quasdam possessiones, ab eis justo emptionis et donationis titulo, accedente consensu dicti comitis, acquisitos, per triginta annos et amplius pacifice possedissent, ac pro ipsis possessionibus et manso, in quo grangiam, non absque magnis expensis et laboribus, construxerunt, dictus episcopus, postquam idem comitatus nomine Ecclesie Romane pervenerit ad eum, censum annuum receperit ab eisdem, eis super hoc paterna subvenire providentia curaremus.Nos igitur, sic jura comitatus ejusdem servare volentes, quod aliorum justitia, et precipue divine laudi vacantium, non ledatur, mandamus quatenus, si est ita, inhibitiones hujusmodi revocantes, et dictum episcopum ac ejus bajulos auctoritate nostra, ut ab eorum super hiis desistant injuriis, compescentes, de plano et sine strepitu judicii que sunt que alienata dicuntur, et de circumstantiis universis alienationem hujusmodi contingentibus, inquirentes plenius veritatem, que inveneritis, nobis fideliter rescribatis, prefigentes dictis abbati et conventui terminum peremptorium competentem, quo per procuratorem idoneum compareant coram nobis, ut super hoc quod expedire viderimus, disponamus.Quod si non omnes, etc.Dat. Laterani, ii nonas aprilis, anno terciodecimo.\n"
        },
        {
            "type": "edition",
            "value": "Julien Rouquette, Augustin Villemagne, <i>Bullaire de l'\u00c9glise de Maguelone<\/i>, Paris, Montpellier : Picard, Valat, 1911-1914, II, n. 574-371\u00a0a, p. 505-506"
        },
        {
            "type": "remarques",
            "value": ""
        },
        {
            "type": "apparat_critique",
            "value": "Ms.\u00a0: <i>quod cum dudum. Cum<\/i> est \u00e9videmment de trop et ne r\u00e9pond \u00e0 rien de ce qui suit (Note de <span class=\"small-caps\">M.L. Auvray<\/span>).",
            "children": {
                "numero_note": "a"
            }
        },
        {
            "type": "bibliographie_generale",
            "value": "<span class=\"small-caps\">L. Auvray<\/span>, <i>Registres de Gr\u00e9goire\u00a0IX<\/i>, Fasc.\u00a0XI, col.\u00a08.",
            "children": {
                "numero_note": "0"
            }
        },
        {
            "type": "genre",
            "value": "Bulle"
        }
    ]
}