{
    "id": 20817,
    "name": "aposcripta-804",
    "type": "acte",
    "url": "http:\/\/telma-chartes.irht.cnrs.fr\/aposcripta\/notice\/20817",
    "project_slug": "aposcripta",
    "project_label": "APOSCRIPTA \u2013 Lettres des papes",
    "user": "lettrespontificalesadmin",
    "last_update": "2020-10-19 16:26:53",
    "licence": "Attribution - Pas d\u2019Utilisation Commerciale - Partage dans les M\u00eames Conditions 3.0 France (CC BY-NC-SA 3.0 FR) ",
    "licence_url": "https:\/\/creativecommons.org\/licenses\/by-nc-sa\/3.0\/fr\/",
    "elements": [
        {
            "type": "pape",
            "value": "Alexandre III (1159-1181)"
        },
        {
            "type": "date_lieu",
            "value": "n.c."
        },
        {
            "type": "date_libre",
            "value": "1179 Mai Iun"
        },
        {
            "type": "analyse",
            "value": "Alexander\u00a0III capitulo Silvanectensi de superioribus ad Willelmum Remensem et Henricum Silvanectensem epistolis scribit. Prohibet, ne quem in canonicum recipiant, donec Iohanni po\u00ebtae praebenda integra collata sit."
        },
        {
            "type": "transcription",
            "value": "<?xml version=\"1.0\" encoding=\"UTF-8\"?>\nDecano1 et capitulo Silvanectensi. Per alias litteras nos meminimus vobis in virtute obedientie precepisse, ut nullum in canonicum, donec dilectus filius noster I(ohannes) poeta, clericus venerabilis fratris nostri Prenestini episcopi2 haberet in ecclesia vestra prebendam integram, recipere aliquatenus temptaretis. Accepimus autem, prebendam Hugonis de Oratorio nuper vacavisse, quam ei precepimus per episcopum vestrum3, non obstante concessione vel donatione alicui facta, conferri. Verecondum quidem nobis admodum et molestum existit, ut mandatum apostolicum tam rectum debito ulterius privetur effectu. Ideoque prefato episcopo in obedientie virtute precipimus, ut ei prescriptam prebendam, occasione contradictione et appellatione remota, conferat et assignet. Ipsum quoque per venerabilem fratrem nostrum Remensem archiepiscopum4, sancte Sabine cardinalem, apostolice sedis legatum, si apostolicum exequi mandatum omiserit, a donatione prebendarum suspendi iubemus, donec idem Io(hannes) prebendam fuerit, quam diximus, assecutus. Vobis autem in virtute obedientie prohibemus, ne quemquam, antequam mandatum apostolicum impleatur, recipere in canonicum vel donationi alicuius prebende assentire sub occasione aliqua presumatis. Tibi quoque, fili decanea, sub pena honoris et officii interdicimus, ne cuiquam stallum in choro tanquam canonico per te audeas vel alium assignare. Nos enim donationem vel receptionem, si qua est vel fuerit contra preceptum apostolicum attemptata, auctoritate, qua fungimur, decernimus non tenere.\n"
        },
        {
            "type": "edition",
            "value": "Samuel Loewenfeld, <i>Epistolae pontificum romanorum ineditae<\/i>, Leipzig : Veit et Comp., 1885, n. 305, p. 178"
        },
        {
            "type": "sources_manuscrites",
            "value": "Reg. Alex. fragm. ep.\u00a059, l.\u00a0l. fol.\u00a0126<sup>b<\/sup>."
        },
        {
            "type": "notes_historiques",
            "value": "Stephano.",
            "children": {
                "numero_note": "1"
            }
        },
        {
            "type": "notes_historiques",
            "value": "Berneredi.",
            "children": {
                "numero_note": "2"
            }
        },
        {
            "type": "notes_historiques",
            "value": "Henricum.",
            "children": {
                "numero_note": "3"
            }
        },
        {
            "type": "notes_historiques",
            "value": "Willelmum.",
            "children": {
                "numero_note": "4"
            }
        },
        {
            "type": "apparat_critique",
            "value": "<i>Si scripsi pro<\/i> cantor <i>cod.<\/i>",
            "children": {
                "numero_note": "a"
            }
        },
        {
            "type": "date",
            "value": "apr\u00e8s 1179\/05 - avant 1179\/06",
            "children": {
                "date_deb_annee": "1179",
                "date_deb_mois": "05",
                "date_deb_type": "apres",
                "date_fin_annee": "1179",
                "date_fin_mois": "06",
                "date_fin_type": "avant"
            },
            "range": {
                "date_apres": 11790500,
                "date_avant": 11790699
            }
        },
        {
            "type": "genre",
            "value": "Bulle"
        }
    ]
}