{
    "id": 149670,
    "name": "aposcripta-9233",
    "type": "acte",
    "url": "http:\/\/telma-chartes.irht.cnrs.fr\/aposcripta\/notice\/149670",
    "project_slug": "aposcripta",
    "project_label": "APOSCRIPTA \u2013 Lettres des papes",
    "user": "lettrespontificalesadmin",
    "last_update": "2020-10-19 16:40:02",
    "licence": "Attribution - Pas d\u2019Utilisation Commerciale - Partage dans les M\u00eames Conditions 3.0 France (CC BY-NC-SA 3.0 FR) ",
    "licence_url": "https:\/\/creativecommons.org\/licenses\/by-nc-sa\/3.0\/fr\/",
    "elements": [
        {
            "type": "pape",
            "value": "Alexandre IV (1254-1261)"
        },
        {
            "type": "destinataire",
            "value": ". . episcopo Cameracensi"
        },
        {
            "type": "date_libre",
            "value": "XIII kalendas februarii, anno secundo"
        },
        {
            "type": "date",
            "value": " 1256\/01\/20",
            "children": {
                "date_deb_annee": "1256",
                "date_deb_mois": "01",
                "date_deb_jour": "20"
            },
            "range": {
                "date_apres": 12560120,
                "date_avant": 12560120
            }
        },
        {
            "type": "date_lieu",
            "value": "Lateran."
        },
        {
            "type": "sources_manuscrites",
            "value": "R. CIT\u00c9 DU VATICAN, Archivio Segreto Vaticano, <hi rend=\"italic\">Registra Vaticana<\/hi> ... Al.\u00a0IV Reg. Vol.\u00a0I, 133; Lib.\u00a0II, 72. Exemplar, quod Meerman, l. c. t.\u00a0V, p.\u00a0227 edidit, cum Regestis contulit V. Cl. Monacci.",
            "children": {
                "type_source": "Registre de la chancellerie apostolique"
            }
        },
        {
            "type": "genre",
            "value": "Mandement (littere cum filo canapis)"
        },
        {
            "type": "analyse",
            "value": "Alexander IV papa [Nicolao] episcopo Cameracensi mandat, ne molestet Eustachium iuniorem de Rodio et Agnetem de Trasegnies, nobiles Hanoniae, super matrimonio contracto, de quo cum eis dispensatum sit [Rodenberg]."
        },
        {
            "type": "transcription",
            "value": "<?xml version=\"1.0\" encoding=\"UTF-8\"?>\n. . episcopo Cameracensi.Petitio dilectorum filiorum nobilis viri Eustachii iunioris de Rodio et nobilis mulieris Agnetis de Trasegnies uxoris eius tue diocesis nobis exhibita continebat, quod cum felicis recordationis I. papa predecessor noster dilecto filio nostro H. tituli Sancte Sabine presbytero cardinali, tunc in regno Alamanie apostolice sedis legato, sub certa forma per suas litteras commisisset, ut cum quodam nobili de Hanonia, quod quandam nobilem mulierem quarta linea consanguinitatis eum attingentem sibi posset copulare matrimonialiter, dispensaret, si ecclesie et carissimi in Christo filii nostri W. regis Romanorum illustris videret negotio expedire, idem cardinalis fratri Michaeli ordinis fratrum Predicatorum Insulensium commisit, ut super hoc iuxta formam huiusmodi cum eodem nobili dispensaret. Set dicto fratre Michaele in negotio ipso procedere differente ac eodem predecessore viam universe carnis ingresso, dictus cardinalis de speciali mandato nostro ei viva voce facto predicto fratri Michaeli per suas litteras iterato commisit, ut iuxta formam ab eodem cardinali sibi traditam procederet in negotio memorato. Porro idem frater Michael cum eisdem E. et A., qui sunt de Hanonia, ut \u2014 non obstante quod attinent sibi adinvicem quarto consanguinitatis gradu \u2014 possent matrimonialiter copulari, auctoritate concessionis huiusmodi dispensavit, sicque pretextu talis dispensationis iidem inter se per verba de presenti matrimonium contraxerunt, carnali copula subsecuta. Verum tu vel officialis tuus, ad quem prout asseritur delatum fuit, quod huiusmodi matrimonium subsistere non valebat, fecisti eos propter hoc ad tuam personam evocari. Quare dicti nobiles nobis humiliter supplicarunt, ut providere ipsis super hoc paterna sollicitudine curaremus. Nos igitur, volentes ut quod super hoc ab eodem fratre Michaele pretextu commissionis sibi facte a predicto cardinali auctoritate nostra factum est, robur obtineat firmitatis, processum per predictum fratrem Michaelem super hoc habitum ratum et gratum habentes, illum per nostras litteras duximus confirmandum, nichilominus cum eisdem nobilibus ad cautelam auctoritate apostolica dispensantes, ut \u2014 gradu non obstante predicto \u2014 possint in sic contracto matrimonio licite remanere. Ideoque mandamus, quatinus ipsos nobiles super hoc aliquatenus decetero non molestes. Alioquin damus venerabili fratri nostro . . Remensi archiepiscopo nostris litteris in mandatis, ut te a molestatione huiusmodi monitione premissa auctoritate nostra sublato appellationis impedimento cognita veritate compescat.Dat. Lateran., XIII Kalendas Februarii, anno secundo.\n"
        },
        {
            "type": "edition",
            "value": "Ici reprise de Karl Rodenberg, Epistolae s. XIII e regestis pontificum romanorum selectae, III, Berlin : Weidmann (MGH), 1894, n.\u00a0423, p.\u00a0380."
        },
        {
            "type": "edition_autre",
            "value": "?"
        },
        {
            "type": "regeste",
            "value": "?"
        },
        {
            "type": "bibliographie_generale",
            "value": "?"
        },
        {
            "type": "apparat_critique",
            "value": "?",
            "children": {
                "numero_note": "a"
            }
        },
        {
            "type": "apparat_critique",
            "value": "?",
            "children": {
                "numero_note": "b"
            }
        },
        {
            "type": "apparat_critique",
            "value": "?",
            "children": {
                "numero_note": "c"
            }
        },
        {
            "type": "apparat_critique",
            "value": "?",
            "children": {
                "numero_note": "d"
            }
        },
        {
            "type": "apparat_critique",
            "value": "?",
            "children": {
                "numero_note": "e"
            }
        },
        {
            "type": "apparat_critique",
            "value": "?",
            "children": {
                "numero_note": "f"
            }
        },
        {
            "type": "notes_historiques",
            "value": "?",
            "children": {
                "numero_note": "1"
            }
        },
        {
            "type": "notes_historiques",
            "value": "?",
            "children": {
                "numero_note": "2"
            }
        },
        {
            "type": "notes_historiques",
            "value": "?",
            "children": {
                "numero_note": "3"
            }
        }
    ]
}