{
    "id": 26168,
    "name": "aposcripta-3247",
    "type": "acte",
    "url": "http:\/\/telma-chartes.irht.cnrs.fr\/aposcripta\/notice\/26168",
    "project_slug": "aposcripta",
    "project_label": "APOSCRIPTA \u2013 Lettres des papes",
    "user": "lettrespontificalesadmin",
    "last_update": "2020-10-19 16:27:55",
    "licence": "Attribution - Pas d\u2019Utilisation Commerciale - Partage dans les M\u00eames Conditions 3.0 France (CC BY-NC-SA 3.0 FR) ",
    "licence_url": "https:\/\/creativecommons.org\/licenses\/by-nc-sa\/3.0\/fr\/",
    "elements": [
        {
            "type": "pape",
            "value": "Urbain II (1088-1099)"
        },
        {
            "type": "date_lieu",
            "value": "Anagni"
        },
        {
            "type": "date_libre",
            "value": "1092 Januar 26"
        },
        {
            "type": "date",
            "value": " 1092\/01\/26",
            "children": {
                "date_deb_annee": "1092",
                "date_deb_mois": "01",
                "date_deb_jour": "26"
            },
            "range": {
                "date_apres": 10920126,
                "date_avant": 10920126
            }
        },
        {
            "type": "analyse",
            "value": "Urban II best\u00e4tigt dem Abte Sigfried von Allerheiligen bei Schaffhausen (D. Konstanz) die Besitzth\u00fcmer und Rechte seines Klosters, welches er r\u00f6mischem Rechte und Schutze unterstellt, wof\u00fcr es j\u00e4hrlich eine Unze Gold an den Lateranischen Palast zu entrichten hat<a class=\"note\" href=\"#note-1\">1<\/a>."
        },
        {
            "type": "transcription",
            "value": "<?xml version=\"1.0\" encoding=\"UTF-8\"?>\nUrbanus episcopus servus servorum dei dilectissimo filio Sigefredo, abbati monasterii sancti salvatoris in villa Scaphusa siti, eiusque successoribus regularitera substituendis, in perpetuum. \u2014 | Iustis votis assensum prebere piisque peticionibus aures accommodare nos convenit, qui, licet indigni, iustici\u0229 custodes atque precones in excelsa apostolorum Petri et Pavli principum specula positi, domino disponente, videmur existere. | Tuis igitur tuorumque fratrum, fili in Christo dilectissime Sigefrede, et Burchardi comitis2 iustis petitionibus et religiosis votis annuentes atque predecessoris nostri pi\u0229 memori\u0229 Gregorii privilegii formam sequentes3, c\u0229nobium sancti salvatoris, in villa Scaphusa ab Evrardo comite in honore sanctorum omnium constructum4, in ius perpetuum5 et tutelam apostolic\u0229 sedis spetialiter, sicut predictus noster predecessor suscepit, et nos suscipimus, et quicquid prefato monasterio concessit, huius nostri decreti pagina concedimus et corroboramus. Tibi itaque tuisque legitimis successoribus idem monasterium regendum ac regulariter disponendum cum omnibus, qu\u0229 ei iam ex predictorum comitum facultatibus seu aliorum fidelium oblatione iam concessa sunt vel in posterum iuste et legaliter concedentur, presentis privilegii nostri auctoritate confirmamus. Preterea, ut prefati monasterii fratres sine inquietudine propositum suum valeant securius et propensius exequi et omnipotenti domino debiteb devotionis obsequium gratanter exsolvere, statuimus et apostolica auctoritate interdicimus, ut nullus sacerdotum, regum, ducum aut comitum, seu qu\u0229libet magna aut parva persona presumat, sibi in eo loco aliquas proprietatis conditionesc non hereditarii iuris, non advocati\u0229, non investitur\u0229, non cuiuslibet potestatis, qu\u0229 libertati monasterii noceat, vendicare, non ornamenta ecclesi\u0229 sive possessiones invadere, minuere vel alienare, sed ita sit ab omni potestate securusd et Roman\u0229 sedis libertate quietus, sicut constat Cluniacense et Massiliense6 monasterium manere. Cellulas autem, sanct\u0229 Agnetis qu\u0229 in Scaphusa sita est, et sanct\u0229 Mari\u0229 qu\u0229 Guachinhusine dicitur, precipimus et apostolica auctoritate interdicimus, ut nullus occasione qualibet a prefati monasterii proprietate alienare audeat, sed in eo ordine maneantf, quo a te fili Sigefrede institut\u0229 sunt. Constituentes quoque, ut neque tu vel quilibet tuorum successorum prefatas cellulas destruere vel ea, que illis iam iuste concessa sunt seu concedentur, temere et violenter presumat imminuereg vel auferre. Obeunte vero te, nunc eiusdem loci abbate vel tuorum quolibet successorum, nullus ibi qualibet surreptionis astutia seu violentia preponatur, nisi quem fratres communi consensu vel fratrum pars consilii sanioris elegerint. Consecrationes altarium (et) basilicarumh, ordinationesi clericorum, krisma, oleum sanctum et cetera, ad episcopale officium pertinentia, ab episcopo Constantiensi, in cuius estis diocesi, accipietis, si tamen catholicus est et gratiam et communionem apostolic\u0229 sedis habuerit, et si ea gratis et sine pravitate impendere voluerit. Alias vero liceat vobis, catholicum, quem volueritis, adire antistitem et ab eo consecrationum sacramenta suscipere, vel ad sedem apostolicam recurrere, qui, apostolica fultusd auctoritate, postulata indulgeat. Abbas autem cum fratribus advocatum quem voluerit, instituat, qui, si postmodum monasterio inutilis fuerit, remoto illo, alium preficiat. Vos igitur, filii in Christo dilectissimi, oportet, regularis disciplin\u0229 institutioni sollicitius ac devotius insudare, ut quanto estis a secularibus tumultibus liberi, tanto studiosius placere deo totius mentis et corporis viribus anheletis, precipue studentes, Roman\u0229 ecclesi\u0229 decreta veneranda servare, cuius patrocinio ab omni iugo viventium estis, donante domino, premuniti. Ad indicium autem precept\u0229 huius a Romana ecclesia libertatis, resoluta qu\u0229 prius posita fueratj pensione, per singulos annos unciam auri Lateranensi pallatio persolvetis. Si quis sane deinceps archiepiscopus, episcopus, imperator aut rex, princeps aut dux, comes aut vicecomes, iudex aut persona qu\u0229libet, potens vel impotens, huius nostri privilegii paginam sciens contra eam temere venire et eorum, qu\u0229 concessa vel statuta sunt, quicquam irritum facere temptaverit, secundo et tercio commonitus, si non satisfactione | congrua emendaverit, aeterno se anathemate innodatum et a corpore Christi et ecclesi\u0229 auctoritate potestatis apostolic\u0229 segregatum cognoscat. Conservantibus autem pax a deo et misericordia presentibus et futuris seculis | conservetur. Am. Amen. Amen.(R) (M)Datum vii Kal. Februarii, Anagnis. Anno dominic\u0229 incarnationis millesimo nonagesimo iii k. Indictione xv. Pontificatus domni Urbani secundi pp. iiii. \u2014 Scriptum per manus Lanfranci, vicem agentis cancellarii sacri palacii.\n"
        },
        {
            "type": "edition",
            "value": "Julius von Pflugk-Harttung, <i>Acta pontificum Romanorum inedita<\/i>, T\u00fcbingen, 1880, I, n. 59, p. 57"
        },
        {
            "type": "sources_manuscrites",
            "value": "Or. und Original-Nachbildung im Kantonsarchive zu Schaffhausen."
        },
        {
            "type": "remarques",
            "value": "Or. Perg. ital., besch\u00e4digt, breit. 0,53, lang 0,625, unten umgeschlagen, durch 2 L\u00f6cher geht eine gelb und weisse, geflochtene Seidenschnur, an der, sp\u00e4ter theilweise durch eine Hanfschnur ersetzt, die Bulle h\u00e4ngt, Faltung der Privilegien, Liniirung bis kurz vor die Datirung. Schrift des Contextes : die fr\u00e4nkische Curiale der Urbanischen Kanzlei, etwas eigenartig durch modificirte Her\u00fcbernahme des altcurialen a, welches in dieser Schrift sonst ganz vereinzelt vorzukommen pflegt. Rota : Nr. 2 mit lateinischem Kreuz ; Monogramm Nr. 2, mit ausgef\u00fclltem Verbindungsstriche des N. Die Datum-Scriptumzeile k\u00f6nnte vom Schreiber des Contextes herr\u00fchren, der eine spitzere Feder genommen und mit Anbequemung an die gew\u00f6hnliche Johanneszeile kleiner und mehr in B\u00fccherminuskel geschrieben hat. \u2014 Orig.-Nachbildung bezw. Copialurk., auf nicht. ital. Perg., br. 0,44, lang 0,68, nach der Schrift wohl dem 14 Jahrh. angeh\u00f6rend, unten nicht umgeschlagen und bullirt."
        },
        {
            "type": "apparat_critique",
            "value": "a.\u2002regulaliter",
            "children": {
                "numero_note": "a"
            }
        },
        {
            "type": "apparat_critique",
            "value": "b.\u2002<i>Von<\/i> b <i>an Loch<\/i>.",
            "children": {
                "numero_note": "b"
            }
        },
        {
            "type": "apparat_critique",
            "value": "c.\u2002conditines, <i>mit<\/i> ti <i>schliesst die Zeile<\/i>.",
            "children": {
                "numero_note": "c"
            }
        },
        {
            "type": "apparat_critique",
            "value": "d.\u2002<i>Wechsel der Person.<\/i>",
            "children": {
                "numero_note": "d"
            }
        },
        {
            "type": "apparat_critique",
            "value": "e.\u2002<i>Cop.<\/i> Wagenhusen.",
            "children": {
                "numero_note": "e"
            }
        },
        {
            "type": "apparat_critique",
            "value": "f.\u2002mamaneant, <i>mit dem ersten<\/i> ma <i>schliesst die Zeile<\/i>.",
            "children": {
                "numero_note": "f"
            }
        },
        {
            "type": "apparat_critique",
            "value": "g.\u2002<i>Es steht<\/i> presumati\u2019 minuere.",
            "children": {
                "numero_note": "g"
            }
        },
        {
            "type": "apparat_critique",
            "value": "h.\u2002<i>Zwischen<\/i> altarium <i>und<\/i> basilicarum <i>ist ein kleiner Punkt gemacht, entweder ist wie oben zu lesen oder<\/i> altarium basilicarum <i>geh\u00f6rt zusammen<\/i>.",
            "children": {
                "numero_note": "h"
            }
        },
        {
            "type": "apparat_critique",
            "value": "i.\u2002ordinettiones, <i>das<\/i> a <i>und Zeichen f\u00fcr<\/i> et <i>sind verwechselt<\/i>.",
            "children": {
                "numero_note": "i"
            }
        },
        {
            "type": "apparat_critique",
            "value": "j.\u2002fuat",
            "children": {
                "numero_note": "j"
            }
        },
        {
            "type": "apparat_critique",
            "value": "k.\u2002<i>Die<\/i> III <i>ist im Original unleserlich und deshalb der Nachbildung entnommen<\/i>.",
            "children": {
                "numero_note": "k"
            }
        },
        {
            "type": "notes_historiques",
            "value": "<i>Vergl. Schweiz. Urk. Reg. I Nr. 1445 und die Urk. vom 8. Oct. 1096.<\/i>",
            "children": {
                "numero_note": "1"
            }
        },
        {
            "type": "notes_historiques",
            "value": "<i>Burchard, Graf v. Nellenburg, 1063\u20131102.<\/i>",
            "children": {
                "numero_note": "2"
            }
        },
        {
            "type": "notes_historiques",
            "value": "<i>Vergl. die als Orig.-Nachbildung im Archive zu Schaffhausen aufbewahrte Urk. Gregors VII. Fickler, Quellen und Forsch. S. 21 Nr. 10. F\u00e4lschung.<\/i>",
            "children": {
                "numero_note": "3"
            }
        },
        {
            "type": "notes_historiques",
            "value": "<i>Eberhard der Selige, Graf v. Nellenburg ; der Bau des Klosters geschah von c. 1050\u20131064. Fickler. Quellen und Forsch. S.<\/i> <span class=\"small-caps\">xxxviii<\/span>.",
            "children": {
                "numero_note": "4"
            }
        },
        {
            "type": "notes_historiques",
            "value": "<i>Wegen<\/i> \u201e<i>apostolicum ius<\/i>\u201c <i>vergl. das im Nachworte zu Nr. 28 Gesagte.<\/i>",
            "children": {
                "numero_note": "5"
            }
        },
        {
            "type": "notes_historiques",
            "value": "<i>St.-Victor de Marseille ist gemeint.<\/i>",
            "children": {
                "numero_note": "6"
            }
        },
        {
            "type": "genre",
            "value": "Bulle"
        }
    ]
}