{
    "id": 26196,
    "name": "aposcripta-3275",
    "type": "acte",
    "url": "http:\/\/telma-chartes.irht.cnrs.fr\/aposcripta\/notice\/26196",
    "project_slug": "aposcripta",
    "project_label": "APOSCRIPTA \u2013 Lettres des papes",
    "user": "lettrespontificalesadmin",
    "last_update": "2020-10-19 16:27:56",
    "licence": "Attribution - Pas d\u2019Utilisation Commerciale - Partage dans les M\u00eames Conditions 3.0 France (CC BY-NC-SA 3.0 FR) ",
    "licence_url": "https:\/\/creativecommons.org\/licenses\/by-nc-sa\/3.0\/fr\/",
    "elements": [
        {
            "type": "pape",
            "value": "Pascal II (1099-1118)"
        },
        {
            "type": "date_lieu",
            "value": "Lateran"
        },
        {
            "type": "date_libre",
            "value": "1104 Februar 2 <a class=\"note\" href=\"#note-2\">2<\/a>"
        },
        {
            "type": "date",
            "value": " 1104\/02\/02",
            "children": {
                "date_deb_annee": "1104",
                "date_deb_mois": "02",
                "date_deb_jour": "02"
            },
            "range": {
                "date_apres": 11040202,
                "date_avant": 11040202
            }
        },
        {
            "type": "analyse",
            "value": "Paschalis II klagt den Anh\u00e4ngern in Schwaben und Baiern die Machtentfaltung seiner Gegner, er fordert sie auf, dieselben zu bek\u00e4mpfen, das gesch\u00e4digte Kloster Schaffhausen und die vertriebenen Bisch\u00f6fe von Konstanz und Passau zu besch\u00fctzen<a class=\"note\" href=\"#note-1\">1<\/a>."
        },
        {
            "type": "transcription",
            "value": "<?xml version=\"1.0\" encoding=\"UTF-8\"?>\nP(aschalis) episcopus servus servorum dei ducibus ac principibus ceterisque tam maioribus quam minoribus | per Sueviam et Bavariam catholicis salutem et apostolicam benedictionem. Dolemus graviter in provinciis vestris | scismaticorum p[ravitatem] adeo excrevisse, ut dei servos, viros sanctos, qui pro [vestris] et totius populi [peccatis] divine maiestatis misericordiam interpellant, non solum infestare, sed etiam sedibus suis [nitantur] excludere, ne ullus sit, qui se pro vobis divine indignationi possit opponere ; et eoruma detestabilis audacia iam eo usque prevaluit, ut gentis vestre luminaria, dei apostolorumque [vi]carii, Gebeardus Constantiensis3 atque Odelricus Pataviensis episcopi4, a suis cathedris exulent. Super h\u0229c venerabilem Scaphusensis monasterii locum, specialem apostolorum Petri et Pauli [thalam]um sacrilega [manu, quod ab]sit, conantur evertere. Cuius persecutionis no[vum caput] as[seritur] hereticus ille Ar(noldus), Constantiensis [inv]as[or] ecclesie5, que[m nimi]rum cum fautoribus immo patronis suis, Hen[rico6 et Ottone]7, sancti spiritus iudicio anathematizatum vobis omnibus nu[ntiam]us, et per sanctorum apostolorum obedientiam in peccatorum remissionem precipimus, ut huiusmodi hereticos non solum caveatis, sed etiam acerrime impugnetis. Supradictos autem fratres et tam Scaphusensis quam ceterorum religiosorum monasteriorum abbates attentissime tueamini, ut et vos apostolice protectio|nis tutelam divine pietatis gratiam mereamini. \u2014 Dat. Laterani. iiii Non. Febr.\n"
        },
        {
            "type": "edition",
            "value": "Julius von Pflugk-Harttung, <i>Acta pontificum Romanorum inedita<\/i>, T\u00fcbingen, 1880, I, n. 87, p. 79"
        },
        {
            "type": "sources_manuscrites",
            "value": "Or. im Kantonsarchive zu Schaffhausen. \u2014 Davon neuere Abschrift im f\u00fcrstl. F\u00fcrstenbergischen Hauptarchive zu Donaueschingen<a class=\"note\" href=\"#note-8\">8<\/a>."
        },
        {
            "type": "remarques",
            "value": "Perg. ital., in der Kalkschicht der Schriftseite stark zerst\u00f6rt, breit 0,145\u20130,157, lang 0,113, unten umgeschlagen, durch 2 L\u00f6cher ging die Schnur, welche mit der Bulle verloren, Faltung der Breven. Die Urkunde ist in gew\u00f6hnlicher Brevenminuskel geschrieben, in der nicht erbreiterten Datirung von der Hand des Contextes herr\u00fchrend. Unter der Datirung von der Falze \u00fcberdeckt stehen die Buchstaben a d b i a mit dunklerer Dinte als der Text geschrieben, \u00fcber deren Urspr\u00fcnglichkeit sich nicht sicher urtheilen l\u00e4sst, wahrscheinlich sind sie j\u00fcnger."
        },
        {
            "type": "apparat_critique",
            "value": "a.\u2002<i>Baumann liest<\/i> : Quorum, <i>doch ist Obiges wahrscheinlicher, da von der Unter-, bezw. Oberl\u00e4nge des q nichts zu entdecken ist<\/i>.",
            "children": {
                "numero_note": "a"
            }
        },
        {
            "type": "notes_historiques",
            "value": "<i>Vergl. Jaff\u00e9, Reg. 4448, 4449, die beide in das Jahr 1104 geh\u00f6ren.<\/i>",
            "children": {
                "numero_note": "1"
            }
        },
        {
            "type": "notes_historiques",
            "value": "<i>Die Jahreszahl ergiebt sich aus S. 79 Anm. 2.<\/i>",
            "children": {
                "numero_note": "2"
            }
        },
        {
            "type": "notes_historiques",
            "value": "<i>Gebhard III, v. Z\u00e4hringen, Bischof v. Konstanz, 1084\u20131110.<\/i>",
            "children": {
                "numero_note": "3"
            }
        },
        {
            "type": "notes_historiques",
            "value": "<i>Ulrich v. Hoeft, Bischof v. Passau, 1092\u20131121.<\/i>",
            "children": {
                "numero_note": "4"
            }
        },
        {
            "type": "notes_historiques",
            "value": "<i>Arnold v. Heiligenberg, kaiserlicher Gegenbischof v. Konstanz seit c. 1086. Am 2 Februar 1103 drang er in Konstanz ein, wo er sich bis 1105 behauptete. Chron. v. Petershausen in Mon. SS.<\/i> <span class=\"small-caps\">xx<\/span> <i>p. 657 ; vergl. auch Giesebrecht, Kaiserzeit III S. 723, 1185<\/i>.",
            "children": {
                "numero_note": "5"
            }
        },
        {
            "type": "notes_historiques",
            "value": "<i>Kaiser Heinrich IV.<\/i>",
            "children": {
                "numero_note": "6"
            }
        },
        {
            "type": "notes_historiques",
            "value": "<i>Ungewiss wer gemeint ist ; an Otto v. Bamberg darf kaum gedacht werden<\/i> (<i>Giesebrecht III S. 723<\/i>), <i>in Betracht k\u00f6nnten kommen : Otto v. Rineck, Otto v. Habsburg, Otto v. Regensburg, Otto v. Kirchberg, f\u00fcr letzteren, Grafen im Linzgau, d\u00fcrfte am meisten sprechen.<\/i>",
            "children": {
                "numero_note": "7"
            }
        },
        {
            "type": "notes_historiques",
            "value": "<i>Nach freundlicher Mittheilung des Herrn Dr. Baumann zu Donaueschingen.<\/i>",
            "children": {
                "numero_note": "8"
            }
        },
        {
            "type": "genre",
            "value": "Bulle"
        }
    ]
}