{
    "id": 149976,
    "name": "aposcripta-9539",
    "type": "acte",
    "url": "http:\/\/telma-chartes.irht.cnrs.fr\/aposcripta\/notice\/149976",
    "project_slug": "aposcripta",
    "project_label": "APOSCRIPTA \u2013 Lettres des papes",
    "user": "lettrespontificalesadmin",
    "last_update": "2020-10-19 16:40:07",
    "licence": "Attribution - Pas d\u2019Utilisation Commerciale - Partage dans les M\u00eames Conditions 3.0 France (CC BY-NC-SA 3.0 FR) ",
    "licence_url": "https:\/\/creativecommons.org\/licenses\/by-nc-sa\/3.0\/fr\/",
    "elements": [
        {
            "type": "pape",
            "value": "Cl\u00e9ment VII (1523-1534)"
        },
        {
            "type": "destinataire",
            "value": "Le chanoine de Bologne, Bernard de Pino"
        },
        {
            "type": "date_libre",
            "value": "IIJa. novembris 1524 anno primo"
        },
        {
            "type": "date",
            "value": " 1524\/11\/03",
            "children": {
                "date_deb_annee": "1524",
                "date_deb_mois": "11",
                "date_deb_jour": "03"
            },
            "range": {
                "date_apres": 15241103,
                "date_avant": 15241103
            }
        },
        {
            "type": "date_lieu",
            "value": "Rome"
        },
        {
            "type": "genre",
            "value": "160190"
        },
        {
            "type": "analyse",
            "value": "Bernardo de Pino canonico bolognese \u00e8 aggiunto giudice col vicelegato e coll\u2019 inquisitore di Bologna pel sollecito disbrigo del processo di Giampietro Collevato, Riulfo de Bernardi e Nicol\u00f2 Ferrario, imputati di eresia, alla Mirandola."
        },
        {
            "type": "sources_manuscrites",
            "value": "Arch. secr. Vatic. Clem. VII brev. min. a. MDXXIV, II, 7, breve 567.",
            "children": {
                "type_source": "Original"
            }
        },
        {
            "type": "edition",
            "value": "Ici reprise de B. Fontana, \u00ab Documenti vaticani contro l'eresia luterana in Italia \u00bb <hi rend=\"italic\">Archivio della Reale Societ\u00e0 Romana di Storia Patria<\/hi>, 15, 1892, 15, n. 1, p. 87-88."
        },
        {
            "type": "transcription",
            "value": "<?xml version=\"1.0\" encoding=\"UTF-8\"?>\nDilecto filio Bernardo de Pinu canonico Bononiensi Clemens pp. VIJ.Dilecte fili salutem etc. Exponi nobis nuper fecerunt dilecti filij Joannes Petrus Collevatus, Aiulphus de Bernardis et Nicolaus Ferrarius, omnes de Mirandula, laici diocesis Regiensis, quod cum alias ipsi de crimine heresj ab inquisitore heretice pravitatis provincie Lombardie et diocesis Regiensis essent indebite et iniuste condempnati, et ipsi Mirandule per novem et Bononie per sex menses in carceribus fuerint dicta occasione detentj, prout ad presens iniuste detinentur ; nosque super dicto crimine heresis ad venerabilem fratrem Altobellum episcopum Pollensem vicelegatum Bononie, ut una cum inquisitore heretice pravitatis Bononie inquirere deberet, primo quasdam nostras in forma brevis sub data decima octava januarij, deinde alias sub die duodecima martij priorum executivas, quarum tenores pro sufficienter expressis habemus[1], scripserimus, nichilominus tamen ipsi dictam causam, quia sunt in eorum opinionibus discordes, adhuc expedire noluerunt, non sine dictorum exponentium maximo detrimento. Quare nobis fuit humiliter supplicatum, ut super his de opportuno remedio providere de benignitate apostolica dignaremur. Nos itaque volentes quantum cum Deo possumus afflictis juris tramite opem afferre, supplicationibus eorum inclinatj, te de cuius probitate et sufficientia plurimum in Domino confidimus in judicem et collegam in dicta causa una cum supra dictis judicibus auctoritate apostolica tenore praesentium deputamus causamque ipsam tibj per te et alios collegas, si concordes fueritis, alias duobus vestrum in omnibus et per omnia iuxta tenorem priorum litterarum in forma brevis, ut praemittitur, decidendam committimus et in ea procedj mandamus, constitutionibus et ordinationibus apostolicis et alijs, que in praedictis litteris concessum est non obstare, non obstantibus quibuscunque.Datum Rome etc. .IIJa. novembris 1524 anno primo.Videtur concedendum constito de eorum discordia Innocentio cardinali Cibo.\n"
        },
        {
            "type": "notes_historiques",
            "value": "Il ms. habentes",
            "children": {
                "numero_note": "1"
            }
        }
    ]
}