{
    "id": 146923,
    "name": "aposcripta-6552",
    "type": "acte",
    "url": "http:\/\/telma-chartes.irht.cnrs.fr\/aposcripta\/notice\/146923",
    "project_slug": "aposcripta",
    "project_label": "APOSCRIPTA \u2013 Lettres des papes",
    "user": "l_valliere",
    "last_update": "2020-10-19 16:39:24",
    "licence": "Attribution - Pas d\u2019Utilisation Commerciale - Partage dans les M\u00eames Conditions 3.0 France (CC BY-NC-SA 3.0 FR) ",
    "licence_url": "https:\/\/creativecommons.org\/licenses\/by-nc-sa\/3.0\/fr\/",
    "elements": [
        {
            "type": "pape",
            "value": "Cl\u00e9ment IV (1265-1268)"
        },
        {
            "type": "destinataire",
            "value": "Le g\u00e9n\u00e9ral, les prieurs et les fr\u00e8res de l'ordre de Notre-Dame du Mont-Carmel"
        },
        {
            "type": "date_libre",
            "value": "VII idus maii, anno primo"
        },
        {
            "type": "date",
            "value": "1265\/05\/09",
            "children": {
                "date_deb_annee": "1265",
                "date_deb_mois": "05",
                "date_deb_jour": "09"
            },
            "range": {
                "date_apres": 12650509,
                "date_avant": 12650509
            }
        },
        {
            "type": "date_lieu",
            "value": "P\u00e9rouse"
        },
        {
            "type": "genre",
            "value": "Titre, g\u00e9n\u00e9ral (littere gratiose, cum filo serico)"
        },
        {
            "type": "analyse",
            "value": "Generali, prioribus ac fratribus ordinis b. Mariae de Monte Carmen concedit ne ultra duas diaetas a domibus suis in iudicium trahi possint."
        },
        {
            "type": "edition",
            "value": "<i>Bullarium Carmelitanum<\/i>, \u00e9d. Eliseo Monsignano, t. 1, Rome, 1715, n. 1, p. 29."
        },
        {
            "type": "regeste",
            "value": "Potthast, <i>Regesta pontificum Romanorum<\/i>, n. 19138 <a target=\"_blank\" href=\" http:\/\/opacplus.bsb-muenchen.de\/title\/BV004241514\/ft\/bsb11316018?page=616\"> [en ligne]<\/a>."
        },
        {
            "type": "transcription",
            "value": "<?xml version=\"1.0\" encoding=\"UTF-8\"?>\nMeritis vestrae religionis...\n"
        }
    ]
}