{
    "id": 25782,
    "name": "aposcripta-2879",
    "type": "acte",
    "url": "http:\/\/telma-chartes.irht.cnrs.fr\/aposcripta\/notice\/25782",
    "project_slug": "aposcripta",
    "project_label": "APOSCRIPTA \u2013 Lettres des papes",
    "user": "lettrespontificalesadmin",
    "last_update": "2020-10-19 16:27:48",
    "licence": "Attribution - Pas d\u2019Utilisation Commerciale - Partage dans les M\u00eames Conditions 3.0 France (CC BY-NC-SA 3.0 FR) ",
    "licence_url": "https:\/\/creativecommons.org\/licenses\/by-nc-sa\/3.0\/fr\/",
    "elements": [
        {
            "type": "pape",
            "value": "Anastase IV (1153-1154)"
        },
        {
            "type": "destinataire",
            "value": "( )",
            "children": {
                "numero_note": "0"
            }
        },
        {
            "type": "date_lieu",
            "value": "n.c."
        },
        {
            "type": "date_libre",
            "value": "1153 Mars 21"
        },
        {
            "type": "date",
            "value": " 1153\/03\/21",
            "children": {
                "date_deb_annee": "1153",
                "date_deb_mois": "03",
                "date_deb_jour": "21"
            },
            "range": {
                "date_apres": 11530321,
                "date_avant": 11530321
            }
        },
        {
            "type": "analyse",
            "value": "X pape<br\/>Le pape Anastase\u00a0IV met sous la protection apostolique et confirme les biens poss\u00e9d\u00e9s par le prieur\u00e9 de S\u00e9zanne, dans les dioc\u00e8ses de Troyes, Reims et Soissons; les droits de pr\u00e9sentation de pr\u00eatres \u00e0 l\u2019\u00e9v\u00eaque pour les \u00e9glises et chapelles soumises au prieur\u00e9; l\u2019exemption de la juridiction \u00e9piscopale, sauf dans les cas r\u00e9serv\u00e9s."
        },
        {
            "type": "transcription",
            "value": "<?xml version=\"1.0\" encoding=\"UTF-8\"?>\nAnastasius episcopus servus servorum Dei, dilectis filiis nostris priori sancti Juliani de Sezanna, ejusque fratribus, tam pr\u00e6sentibus quam futuris, regularem vitam professis imperpetuum. Quoniam sine ver\u00e6 cultu religionis nec charitatis unitas potest subsistere, nec Deo gratum exhibere servitium expedit apostolica authoritate religiosas personas diligere et earum quieti et utilitati, auxiliante domino, salubriter providere. Ea propter, dilecti in domino filii, vestris postulationibus clementer annuimus, et pr\u00e6dictam ecclesiam sancti Juliani de Sezanna, in quo divino mancipati estis obsequio, sub beati Petri et nostra protectione suscipimus, et pr\u00e6sentis scripti privilegio communimus, statuentes ut quascunque possessiones, qu\u00e6cunque bona eadem ecclesia impr\u00e6sentiarum juste et canonice possidet aut in futurum concessione pontificum, largitione regum vel principum, oblatione fidelium seu aliis justis modis, Deo propitio, poterit adipisci, firma vobis vestrisque successoribus et illibata permaneant. In quibus h\u00e6c propriis duximus exprimenda vocabulis: In castro eodem, ecclesiam Sanct\u00e6 Mari\u00e6, ecclesiam Sancti Petri et ecclesiam Sancti Nicola\u00ef cum pertinentiis suis, et decimam ipsius castri. Quidquid habetis ex dono Stephani comitis et Adil\u00e6 comitiss\u00e6 uxoris ipsius. Ecclesiam de Vualer comitis cum appenditiis suis. Totam decimam campi Guidonis. Ecclesiam de Sclavella cum appenditiis suis, et medietatem decim\u00e6 ipsius vill\u00e6 et censum Atrii. Decimam de sancto Martino de Bucenciaco. Decimam de sancto Remigio. Decimam de Angleura et censum Atrii. Decimam de Soogne totam et censum Atrii. Medietatem decim\u00e6 de Tachis. Decimam de Trefex. Decimam de Verseio. Decimam de Castellione. Totam piscationem aqu\u00e6 de Marenciaco. Censum quem habetis Provini et medietatem furni. Villam de Saulz cum appenditiis suis. Domum de Grangiis cum pertinentiis. Alodium de Maesueio. Molendinum sancti Juliani. Molendinum de Bernardo. Molendinum de Prato. Molendinum de Cleto. Molendinum de Chesia. Molendina de Varciaco. Triginta sextaria frumenti molendini Longuiardi et piscaturam. Molendinum de Crosleriis. Pr\u00e6terea liceat vobis in ecclesiis quas tenetis secundum decretum pr\u00e6decessoris nostri bon\u00e6 memori\u00e6 Urbani pap\u00e6 secundi, sacerdotes eligere et episcopis in quorum parrochiis sit\u00e6 sunt pr\u00e6sentare, qui si idonei fuerint animarum curam ab ipsis suscipiant eisque de plebis cura respondeant; vobis vero pro rebus temporalibus ad ipsum monasterium pertinentibus debitam subjectionem exhibeant. Ad h\u00e6c adjicientes statuimus, ut ecclesi\u00e6 vestr\u00e6 et cimiteria ab omni episcoporum exactione sint libera pr\u00e6ter consuetam episcopi..... et justitiam in presbyteros qui adversus sui ordinis dignitatem offenderint. Decernimus ergo ut nulli omnino hominum liceat pr\u00e6fatam ecclesiam temere perturbare, aut ejus possessiones auferre vel ablatas retinere, minuere, seu quibuslibet vexationibus fatigare. Sed omnia integra conserventur eorum pro quorum gubernatione ac sustentatione concessa sunt usibus omnimodis profutura, salva sedis apostolic\u00e6 aucthoritate et diocesanorum episcoporum canonica justitia. Si qu\u00e6 igitur in futurum ecclesiastica s\u00e6cularisve persona hanc nostr\u00e6 constitutionis paginam sciens contra eam temere venire tentaverit, secundo tertiove commonita, si non satisfactione congrua emendaverit, potestatis honorisve sui dignitate careat, reamque se divino judicio existere de perpetrata iniquitate cognoscat, et a sacratissimo corpore ac sanguine Dei et Domini redemptoris nostri Jesu Christi aliena fiat, atque in extremo examine district\u00e6 ultioni subjaceat. Cunctis autem eidem loco justa servantibus sit pax Domini nostri Jesu Christi, quatenus et hic fructum bon\u00e6 actionis percipiant et apud districtum judicem pr\u00e6mia \u00e6tern\u00e6 pacis inveniant. Amen. Datum Laterani per manum Rolandi, sanct\u00e6 Roman\u00e6 ecclesi\u00e6 presbyteri, cardinalis et cancellarii. XII Kalendarum aprilis, indictione secunda, Incarnationis Dominic\u00e6 anno M.C.LIII\u00ba pontificatus vero domini Anastasii pap\u00e6 quarti primo anno.\n"
        },
        {
            "type": "edition",
            "value": "Ici tir\u00e9e du projet <i>CBMA - Corpus Burgundiae Medii Aevi<\/i>, document 7599. Site du projet Corpus de la Bourgogne du Moyen \u00c2ge, [En ligne] <a href=\"http:\/\/www.cbma-project.eu\" target=\"_blank\">http:\/\/www.cbma-project.eu<\/a>  "
        },
        {
            "type": "sources_manuscrites",
            "value": "\u00e0 renseigner. Texte pr\u00e9c\u00e9d\u00e9 de la rubrique: <i>BULLA DOMINI ANASTASII PAP\u00c6 IIII PRO SANCTO JULIANO DE SEZANNA.<\/i>"
        },
        {
            "type": "remarques",
            "value": ""
        },
        {
            "type": "edition_autre",
            "value": "Ici reprise de Ren\u00e9 de Lespinasse, <i>Cartulaire du prieur\u00e9 de la Charit\u00e9-sur-Loire (Ni\u00e8vre), ordre de Cluni<\/i>, Nevers, Paris\u00a0: Morin-Boutillier, Honor\u00e9 Champion, 1887 <a href=\"http:\/\/gallica.bnf.fr\/ark:\/12148\/bpt6k56197710.r\" target=\"_blank\">[en ligne]<\/a>, p. 25-28, n\u00b0 VI.",
            "children": {
                "numero_note": "0"
            }
        },
        {
            "type": "genre",
            "value": "Bulle"
        },
        {
            "type": "genre",
            "value": "Lettre"
        }
    ]
}