{
    "id": 149983,
    "name": "aposcripta-9546",
    "type": "acte",
    "url": "http:\/\/telma-chartes.irht.cnrs.fr\/aposcripta\/notice\/149983",
    "project_slug": "aposcripta",
    "project_label": "APOSCRIPTA \u2013 Lettres des papes",
    "user": "lettrespontificalesadmin",
    "last_update": "2020-10-19 16:40:07",
    "licence": "Attribution - Pas d\u2019Utilisation Commerciale - Partage dans les M\u00eames Conditions 3.0 France (CC BY-NC-SA 3.0 FR) ",
    "licence_url": "https:\/\/creativecommons.org\/licenses\/by-nc-sa\/3.0\/fr\/",
    "elements": [
        {
            "type": "pape",
            "value": "Cl\u00e9ment VII (1523-1534)"
        },
        {
            "type": "destinataire",
            "value": "Le vicaire de l'\u00e9v\u00eaque de Ferrare et le prieur de Certosa"
        },
        {
            "type": "date_libre",
            "value": "Die .XXIJ. Martii .MDXXVIII. pontificatus nostri anno quinto"
        },
        {
            "type": "date",
            "value": " 1528\/03\/22",
            "children": {
                "date_deb_annee": "1528",
                "date_deb_mois": "03",
                "date_deb_jour": "22"
            },
            "range": {
                "date_apres": 15280322,
                "date_avant": 15280322
            }
        },
        {
            "type": "date_lieu",
            "value": "Orvieto"
        },
        {
            "type": "genre",
            "value": "Bref commun"
        },
        {
            "type": "analyse",
            "value": "Al vicario del vescovo di Ferrara e al priore della Certosa perch\u00e8 riformino le monache della <hi rend=\"italic\">Ca bianca<\/hi>."
        },
        {
            "type": "sources_manuscrites",
            "value": "Arch. secr. Vatic. Clem. VII brev. min. a. MDXXVIII, III, 20, breve 1228.",
            "children": {
                "type_source": "Original"
            }
        },
        {
            "type": "edition",
            "value": "Ici reprise de B. Fontana, \u00ab Documenti vaticani contro l'eresia luterana in Italia \u00bb <hi rend=\"italic\">Archivio della Reale Societ\u00e0 Romana di Storia Patria<\/hi>, 15, 1892, 15, n. 1, p. 101-102."
        },
        {
            "type": "transcription",
            "value": "<?xml version=\"1.0\" encoding=\"UTF-8\"?>\nDilectis filijs vicario venerabilis fratris episcopi Ferrariensis ac priori monasterij Cartusiensis et eorum alteri Clemens papa VIJs.Dilecti filij salutem et apostolicam benedictionem. Nuper per nos accepto, quod monasterium monialium, de la Ca biancha nominatum, Ferrariense ordinis Servorum tam in capite quam in membris deformatum est, ex eo quod moniales et sorores in illo degentes a plurimis annis citra, regularis observantiae norma et contemplationis iugo postpositis, vitam a religione alienam ducunt, in animarum suarum periculum et divine maiestatis offensam ac Ferrariensis populi schandalum, Nos premissis occurrere volentes, motu proprio et ex certa nostra scientia, vobis committimus et mandamus, ut nisi generalis dicti ordinis Servorum, sub cuius cura correctioneque dictum monasterium existit, infra .XV. dies dictas moniales et sorores, ac alias personas tam in capite quam in membris iuxta canonicas sanctiones et regularia dicti ordinis instituta reformaverit, correxerit et clauserit ; vos vel alter vestrum elapso dicto tempore, si monasterium reformatum non fuerit, solum Deum prae oculis habentes, dictum monasterium adeatis, sive alter vestrum adeat, ac moniales, sorores et alias personas dicti monasterii in capite et in membris iuxta canonicas sanctiones et secularia instituta dicti ordinis inquirere, reformare, corrigere et emendare, ac in eo inviolabilem clausuram observari facere curetis, atque omnia et singula in premissis et circha ea ordinatis et faciatis, quae pro Dei honore, civitatis istius decore atque animarum illarum saluti necessaria et opportuna cognoveritis, super quibus omnibus et singulis vobis vel alteri vestrum plenam et liberam auctoritatem et facultatem concedimus per presentes ; contradictores quoslibet sive moniales renitentes per censuras et poenas ecclesiasticas ac alia opportuna remedia appellatione postposita compescendo ; invocato si opus fuerit a dilecto filio nobili viro Alfonso duce Ferrariae vel ab alijs prout expedire cognoveritis auxilio brachij secularis. Non obstantibus... etc. Caeterisque contrarijs quibuscunque, Aut si dicto ordini... etc. de indulto huiusmodi mentionem. Datum in civitate nostra Urbevetana sub annulo piscatoris. Die .XXIJ. Martii .MDXXVIII. pontificatus nostri anno quinto.Evangelista.\n"
        }
    ]
}