{
    "id": 20603,
    "name": "aposcripta-590",
    "type": "acte",
    "url": "http:\/\/telma-chartes.irht.cnrs.fr\/aposcripta\/notice\/20603",
    "project_slug": "aposcripta",
    "project_label": "APOSCRIPTA \u2013 Lettres des papes",
    "user": "lettrespontificalesadmin",
    "last_update": "2020-10-19 16:26:51",
    "licence": "Attribution - Pas d\u2019Utilisation Commerciale - Partage dans les M\u00eames Conditions 3.0 France (CC BY-NC-SA 3.0 FR) ",
    "licence_url": "https:\/\/creativecommons.org\/licenses\/by-nc-sa\/3.0\/fr\/",
    "elements": [
        {
            "type": "pape",
            "value": "Alexandre II (1061-1073)"
        },
        {
            "type": "analyse",
            "value": "Alexander\u00a0II Mediolanensibus (canonicis\u00a0?) respondet de sacerdotibus, a Widone archiepiscopo ab officio suspensis."
        },
        {
            "type": "transcription",
            "value": "<?xml version=\"1.0\" encoding=\"UTF-8\"?>\nMediolanensisa. Inquisitum est a quibusdam religiosis Mediolanensibus, quod sancte apostolice sedi videretur super illis sacerdotibus, quos venerabilis confrater noster Wido archiepiscopus ab officio suspendit. Quibus nimirum merito consulentesb apostolica auctoritate precipimus ut sic ei obedire studeant, quemadmodum beato Petro apostolorum principi, qui usque in finem seculi in successoribus suis presidet, qualescumque fuerint, obedire studebit.\n"
        },
        {
            "type": "edition",
            "value": "Ici reprise de Samuel Loewenfeld, <i>Epistolae pontificum romanorum ineditae<\/i>, Leipzig : Veit et Comp., 1885, n. 91, p. 46-47."
        },
        {
            "type": "sources_manuscrites",
            "value": "Coll. Brit. Alex. ep.\u00a025, in cod. Mus. Brit. Add.\u00a08873 s.\u00a0<span class=\"smal-caps\">xii<\/span> in. fol.\u00a042<sup>b<\/sup>.",
            "children": {
                "type_source": "Collection canonique, collection de d\u00e9cr\u00e9tales"
            }
        },
        {
            "type": "apparat_critique",
            "value": "<i>Inscriptio, sine dubio mutila, supplenda videtur<\/i> canonicis ecclesiae Med.",
            "children": {
                "numero_note": "a"
            }
        },
        {
            "type": "apparat_critique",
            "value": "<i>melius placeret<\/i> consulentibus.",
            "children": {
                "numero_note": "b"
            }
        },
        {
            "type": "date",
            "value": "apres 1064 - avant 1064",
            "children": {
                "date_deb_annee": "1064",
                "date_deb_type": "apres",
                "date_fin_annee": "1064",
                "date_fin_type": "avant"
            },
            "range": {
                "date_apres": 10640000,
                "date_avant": 10649999
            }
        },
        {
            "type": "genre",
            "value": "Lettre, g\u00e9n\u00e9ral (avant 1198)"
        }
    ]
}