{
    "id": 20574,
    "name": "aposcripta-561",
    "type": "acte",
    "url": "http:\/\/telma-chartes.irht.cnrs.fr\/aposcripta\/notice\/20574",
    "project_slug": "aposcripta",
    "project_label": "APOSCRIPTA \u2013 Lettres des papes",
    "user": "lettrespontificalesadmin",
    "last_update": "2020-10-19 16:26:51",
    "licence": "Attribution - Pas d\u2019Utilisation Commerciale - Partage dans les M\u00eames Conditions 3.0 France (CC BY-NC-SA 3.0 FR) ",
    "licence_url": "https:\/\/creativecommons.org\/licenses\/by-nc-sa\/3.0\/fr\/",
    "elements": [
        {
            "type": "pape",
            "value": "\u00c9tienne V (885-891)"
        },
        {
            "type": "date_lieu",
            "value": "n.c."
        },
        {
            "type": "date_libre",
            "value": "887-888"
        },
        {
            "type": "analyse",
            "value": "Stephanus\u00a0V in Romanum archiepiscopum invehitur, quod contra canones successorem sibi eligere fecerit.<a class=\"note\" href=\"#note-1\">1<\/a>"
        },
        {
            "type": "transcription",
            "value": "<?xml version=\"1.0\" encoding=\"UTF-8\"?>\nItem. Nos statuta antecessorum nostrorum inviolabilia observare studentes, mandamus tibi et auctoritate apostolica modis omnibus interdicimus, ut, quod ex hac reprehensibili causa factum est, quod sacris videtur canonibus contrarium et sapientibus viris odibile, radicitus amputes et ita curiosius destruasb, ut de cetero nec quid inde iam fieri valeat, nec amplius in ecclesia tua dedecus crescat, nec amodo ad aures nostrasd perveniat.\n"
        },
        {
            "type": "edition",
            "value": "Samuel Loewenfeld, <i>Epistolae pontificum romanorum ineditae<\/i>, Leipzig : Veit et Comp., 1885, n. 62, p. 36"
        },
        {
            "type": "sources_manuscrites",
            "value": "Coll. Brit. Steph. ep.\u00a016, l.\u00a0l. fol.\u00a0155<sup>b<\/sup>."
        },
        {
            "type": "notes_historiques",
            "value": "Cf. Jaff\u00e9 ed. sec.\u00a03435.",
            "children": {
                "numero_note": "1"
            }
        },
        {
            "type": "notes_historiques",
            "value": "Ravennati.",
            "children": {
                "numero_note": "2"
            }
        },
        {
            "type": "apparat_critique",
            "value": "quorum <i>c.<\/i>",
            "children": {
                "numero_note": "a"
            }
        },
        {
            "type": "apparat_critique",
            "value": "destrue <i>cod. eadem<\/i> (<i>?<\/i>) <i>manu est correctum in<\/i> destruas.",
            "children": {
                "numero_note": "B"
            }
        },
        {
            "type": "apparat_critique",
            "value": "<i>an<\/i> nec <i>corrigendum\u00a0?<\/i>",
            "children": {
                "numero_note": "c"
            }
        },
        {
            "type": "apparat_critique",
            "value": "tuas <i>cod., sed eadem manus supra scripsit<\/i> nostras.",
            "children": {
                "numero_note": "d"
            }
        },
        {
            "type": "date",
            "value": "apr\u00e8s 0887 - avant 0888",
            "children": {
                "date_deb_annee": "0887",
                "date_deb_type": "apres",
                "date_fin_annee": "0888",
                "date_fin_type": "avant"
            },
            "range": {
                "date_apres": 8870000,
                "date_avant": 8889999
            }
        },
        {
            "type": "genre",
            "value": "Bulle"
        }
    ]
}