{
    "id": 149141,
    "name": "aposcripta-8706",
    "type": "acte",
    "url": "http:\/\/telma-chartes.irht.cnrs.fr\/aposcripta\/notice\/149141",
    "project_slug": "aposcripta",
    "project_label": "APOSCRIPTA \u2013 Lettres des papes",
    "user": "l_valliere",
    "last_update": "2020-10-19 16:39:54",
    "licence": "Attribution - Pas d\u2019Utilisation Commerciale - Partage dans les M\u00eames Conditions 3.0 France (CC BY-NC-SA 3.0 FR) ",
    "licence_url": "https:\/\/creativecommons.org\/licenses\/by-nc-sa\/3.0\/fr\/",
    "elements": [
        {
            "type": "pape",
            "value": "Cl\u00e9ment IV (1265-1268)"
        },
        {
            "type": "destinataire",
            "value": "Le pr\u00e9cepteur et les fr\u00e8res de la chevalerie du Temple en France"
        },
        {
            "type": "date_libre",
            "value": "III kalendas martii, anno secundo"
        },
        {
            "type": "date",
            "value": "1266\/02\/27",
            "children": {
                "date_deb_annee": "1266",
                "date_deb_mois": "02",
                "date_deb_jour": "27"
            },
            "range": {
                "date_apres": 12660227,
                "date_avant": 12660227
            }
        },
        {
            "type": "date_lieu",
            "value": "P\u00e9rouse"
        },
        {
            "type": "genre",
            "value": "Titre, g\u00e9n\u00e9ral (littere gratiose, cum filo serico)"
        },
        {
            "type": "analyse",
            "value": "Clemens (IV) \u00ab dilectis filiis .. preceptori et fratribus militie Templi in Francia \u00bb : eis indulget ut de blado, vino, lana, lignis, lapidibus et aliis que aliquotiens pro suis utilitatibus emere eos contingit, nulla pedagia, vinagia, minagia et roagia que pro hiis a secularibus exiguntur solvere teneantur [Barbiche]."
        },
        {
            "type": "sources_manuscrites",
            "value": "E<sup>1<\/sup>. FRANCE, Paris, Archives nationales, L 260, n. 68 (olim n. 80). Original, bulle sur lacs de soie rouge et jaune (<i> preceptori et fratribus militie Templi in Francia<\/i>).",
            "children": {
                "type_source": "Exp\u00e9dition"
            }
        },
        {
            "type": "regeste",
            "value": "Auguste de Loisne, \u00ab Bulles de papes pour l\u2019ordre du Temple conserv\u00e9es aux Archives Nationales (1155-1312) \u00bb, <i>Bulletin philologique et historique du Comit\u00e9 des travaux historiques et scientifiques<\/i>, 1917, p. 171-236, n. 140-141, \u00e0 la p. 223."
        },
        {
            "type": "regeste",
            "value": "Bernard Barbiche, <i>Les actes pontificaux originaux des Archives Nationales de Paris<\/i>, Cit\u00e9 du Vatican, 1975-1982, II, n. 1377-1378, p. 131-132, d'apr\u00e8s E<sup>1<\/sup> et E<sup>2<\/sup>."
        },
        {
            "type": "transcription",
            "value": "<?xml version=\"1.0\" encoding=\"UTF-8\"?>\nDevotionis vestre precibus... Datum Perusii, III kalendas martii, pontificatus nostri anno secundo.\n"
        },
        {
            "type": "destinataire",
            "value": "Le pr\u00e9cepteur et les fr\u00e8res de la chevalerie du Temple en Aquitaine"
        },
        {
            "type": "sources_manuscrites",
            "value": "E<sup>2<\/sup>. FRANCE, Paris, Archives nationales, L 260, n. 67 (olim n. 79). Original, bulle sur lacs de soie rouge et jaune (<i> preceptori et fratribus militie Templi in Aquitania<\/i>).",
            "children": {
                "type_source": "Exp\u00e9dition"
            }
        }
    ]
}