{
    "id": 26408,
    "name": "aposcripta-3487",
    "type": "acte",
    "url": "http:\/\/telma-chartes.irht.cnrs.fr\/aposcripta\/notice\/26408",
    "project_slug": "aposcripta",
    "project_label": "APOSCRIPTA \u2013 Lettres des papes",
    "user": "lettrespontificalesadmin",
    "last_update": "2020-10-19 16:28:00",
    "licence": "Attribution - Pas d\u2019Utilisation Commerciale - Partage dans les M\u00eames Conditions 3.0 France (CC BY-NC-SA 3.0 FR) ",
    "licence_url": "https:\/\/creativecommons.org\/licenses\/by-nc-sa\/3.0\/fr\/",
    "elements": [
        {
            "type": "pape",
            "value": "Alexandre III (1159-1181)"
        },
        {
            "type": "date_lieu",
            "value": "Lateran"
        },
        {
            "type": "date_libre",
            "value": "1178\u20131179 Mai 25"
        },
        {
            "type": "date",
            "value": "apr\u00e8s 1178\/05\/25 - avant 1179\/05\/25",
            "children": {
                "date_deb_annee": "1178",
                "date_deb_mois": "05",
                "date_deb_jour": "25",
                "date_deb_type": "apr\u00e8s",
                "date_fin_annee": "1179",
                "date_fin_mois": "05",
                "date_fin_jour": "25",
                "date_fin_type": "avant"
            },
            "range": {
                "date_apres": 11780525,
                "date_avant": 11790525
            }
        },
        {
            "type": "analyse",
            "value": "Alexander III schreibt dem Abte Wolfram von Werden an der Ruhr (D. K\u00f6ln), dass er dessen Kloster mitsammt Besitzungen in apostolischen Schutz nehme, ihm die Kirche von Leuze (im Hennegau) und das Kloster Helmstedt (D. Halberstadt), seine bisch\u00f6flichen Bekleidungsst\u00fccke und die fr\u00fcheren p\u00e4pstlichen Privilegien best\u00e4tige<a class=\"note\" href=\"#note-1\">1<\/a>."
        },
        {
            "type": "transcription",
            "value": "<?xml version=\"1.0\" encoding=\"UTF-8\"?>\n Alexander episcopus servus servorum dei dilecto filio Wlfrano, Verdunensi abbati2, salutem | et apostolicam benedictionem. Votis et desideriis religiosorum, que rationi consonant promta volumus benignita|te annuere et ea pro nostri officii debito effectu prosequente complere. Hac itaque ratione inducti et ecclesie, cui preesse dinosceris, apostolice tuitionis presidium impertiri volentes, eandem ecclesiam cum decimis et reliquis possessionibus suis, quas iuste possidet aut in futurum iustis modis deo propitio poterit adipisci, sub beati Petri et nostra protectione suscipimus, specialiter autem ecclesiam, que Lothusen3 dicitur, in Flandria sitam, et monasterium Helmestedunum, in Saxonia positum, cum omnibus pertinentiis suis, sicut ea canonice possidet, auctoritate apostolica confirmamus et presentis scripti patrocinio communimus. Statuentes, ut pontificalibus, quibus hactenus uti consuevisti, sicut in autenticis ecclesie tue privilegiis continetur, libere possis uti. Privilegia quoque a predecessoribus nostris ecclesie tue indulta et hactenus observata, integra et illibata decernimus permanere. Nulli ergo omnino hominum liceat, hanc paginam nostre protectionis et confirmationis infringere vel ei ausu temerario contraire. Si quis autem hoc attemptare presumpserit, indignationem omnipotentis dei et beatorum Petri et Pauli apostolorum eius se noverit incursurum. \u2014 Dat. Laterani, viii Kalendas Junii.\n"
        },
        {
            "type": "edition",
            "value": "Julius von Pflugk-Harttung, <i>Acta pontificum Romanorum inedita<\/i>, T\u00fcbingen, 1880, I, n. 299, p. 268"
        },
        {
            "type": "sources_manuscrites",
            "value": "Or. im Landeshauptarchive zu Wolfenb\u00fcttel."
        },
        {
            "type": "remarques",
            "value": "Perg. ital., breit 0,19, lang 0,187, unten umgeschlagen, durch 2 L\u00f6cher geht die roth und gelbe Seidenschnur, an der die Bulle h\u00e4ngt, Faltung der Breven. Die Datumangaben r\u00fchren vielleicht von schw\u00e4rzerer Dinte her."
        },
        {
            "type": "notes_historiques",
            "value": "<i>Die Abschrift dieser Urk. verdanke ich Herrn Archivsekret\u00e4r Dr. Zimmermann zu Wolfenb\u00fcttel.<\/i>",
            "children": {
                "numero_note": "1"
            }
        },
        {
            "type": "notes_historiques",
            "value": "<i>Wolfram von Kyrburg, Abt von Werden und Helmst\u00e4dt, 1175\u20131183.<\/i>",
            "children": {
                "numero_note": "2"
            }
        },
        {
            "type": "notes_historiques",
            "value": "<i>Vergl. Lacomblet, Niederrhein. Urkb. I S. 14, F\u00f6rstemann, Altdeutsches Namenb. II S. 1022 ; Sickel, Urkunden der Karolinger II S. 441.<\/i>",
            "children": {
                "numero_note": "3"
            }
        },
        {
            "type": "genre",
            "value": "Bulle"
        }
    ]
}