{
    "id": 149965,
    "name": "aposcripta-9528",
    "type": "acte",
    "url": "http:\/\/telma-chartes.irht.cnrs.fr\/aposcripta\/notice\/149965",
    "project_slug": "aposcripta",
    "project_label": "APOSCRIPTA \u2013 Lettres des papes",
    "user": "lettrespontificalesadmin",
    "last_update": "2020-10-19 16:40:07",
    "licence": "Attribution - Pas d\u2019Utilisation Commerciale - Partage dans les M\u00eames Conditions 3.0 France (CC BY-NC-SA 3.0 FR) ",
    "licence_url": "https:\/\/creativecommons.org\/licenses\/by-nc-sa\/3.0\/fr\/",
    "elements": [
        {
            "type": "pape",
            "value": "Cl\u00e9ment VII (1523-1534)"
        },
        {
            "type": "destinataire",
            "value": "Nuntio Venetiarum"
        },
        {
            "type": "date_libre",
            "value": "XII. januari 1524 anno primo"
        },
        {
            "type": "date",
            "value": " 1524\/01\/12",
            "children": {
                "date_deb_annee": "1524",
                "date_deb_mois": "01",
                "date_deb_jour": "12"
            },
            "range": {
                "date_apres": 15240112,
                "date_avant": 15240112
            }
        },
        {
            "type": "date_lieu",
            "value": "Rome"
        },
        {
            "type": "genre",
            "value": "Bref commun"
        },
        {
            "type": "analyse",
            "value": "Al nunzio a Venezia affinch\u00e8 circa il predicare e circa l\u2019impressione di libri nuovi faccia osservare i decreti del quinto concilio Lateranense."
        },
        {
            "type": "sources_manuscrites",
            "value": "Arch. secr. Vatic. Clem. VII brev. min. a. MDXXIV, I, 6, breve 54.",
            "children": {
                "type_source": "Original"
            }
        },
        {
            "type": "edition",
            "value": "Ici reprise de B. Fontana, \u00ab Documenti vaticani contro l'eresia luterana in Italia \u00bb <hi rend=\"italic\">Archivio della Reale Societ\u00e0 Romana di Storia Patria<\/hi>, 15, 1892, 15, n. 1, p. 76."
        },
        {
            "type": "transcription",
            "value": "<?xml version=\"1.0\" encoding=\"UTF-8\"?>\nNuntio Venetiarum.Venerabilis frater. Nuper, ut notum fraternitatj tuae esse debet, sacro Lateranense Concilio temporibus felicis recordationis Julij IJ et Leonis X praedecessorum nostrorum proxime habito[1], inter alia salubria statuta ad communem Christj fidelium utilitatem et animarum salutem duo edita fuerunt, unum videlicet circa predicatores verbi Dei, et aliud circa impressionem novorum librorum, quorum amborum exemplum (si forte librum ipsum Concilij, qui iamdudum impressus et publicatus est, fraternitas tua non haberet) ex libro ipso excerptum et de verbo ad verbum impressum praesentibus alligari iussimus, decuplicatum quidem ut inter episcopos istius Dominij ea distribuas. Cum autem nostri officij et intentionis sit ut statuta ipsa ubique quidem, verum maxime istic, ubi nonnullos contra ausos accepimus, inviolabiliter observentur, fraternitati tuae mandamus, ut eadem statuta per venerabilem fratrem patriarcham Venetiarum, de cuius pietate et erga hanc S.tam Sedem observantia plene confidimus, ac omnes archiepiscopos episcopos abbates prelatos eorumque vicarios officiales et locatenentes in toto isto inclyto Dominio, in quo nuntius noster es constitutus, sub suspensionis a divinis quo ad prelatos, quo vero ad alios sub penis in preinsertis statutis contentis facias et cures inviolabiliter et efficaciter observarj. Quod si aliam provisionem desuper necessariam duxeris et a nobis obtaveris, nobis quamprimum significare curabis, ut iuxta rerum emergentium qualitatem desuper providere, tuamque pietatem et diligentiam in Domino commendare possimus. Datum Rome .XII. januari 1524 anno primo. Sanctorum 4.\n"
        },
        {
            "type": "notes_historiques",
            "value": "Il concilio Lateranense quinto fu aperto il 3 di maggio nel 1512, e dopo sole dodici sessioni fu sciolto il 16 marzo del 1517. Abolita la prammatica sanzione di Carlo VII re di Francia (1438), fu segnato il concordato con Francesco I (1516). La rivoluzione religiosa di Germania ebbe principio in questo medesimo anno, cio\u00e8 nel 1517, in cui fu chiuso il concilio.",
            "children": {
                "numero_note": "1"
            }
        }
    ]
}