{
    "id": 23974,
    "name": "aposcripta-1145",
    "type": "acte",
    "url": "http:\/\/telma-chartes.irht.cnrs.fr\/aposcripta\/notice\/23974",
    "project_slug": "aposcripta",
    "project_label": "APOSCRIPTA \u2013 Lettres des papes",
    "user": "l_valliere",
    "last_update": "2020-10-19 16:27:20",
    "licence": "Attribution - Pas d\u2019Utilisation Commerciale - Partage dans les M\u00eames Conditions 3.0 France (CC BY-NC-SA 3.0 FR) ",
    "licence_url": "https:\/\/creativecommons.org\/licenses\/by-nc-sa\/3.0\/fr\/",
    "elements": [
        {
            "type": "pape",
            "value": "Alexandre IV (1254-1261)"
        },
        {
            "type": "destinataire",
            "value": "Le roi de France Louis IX"
        },
        {
            "type": "date_libre",
            "value": "II nonas decembris, anno quarto"
        },
        {
            "type": "date",
            "value": " 1258\/12\/04",
            "children": {
                "date_deb_jour": "04",
                "date_deb_mois": "12",
                "date_deb_annee": "1258"
            },
            "range": {
                "date_apres": 12581204,
                "date_avant": 12581204
            }
        },
        {
            "type": "date_lieu",
            "value": "Anagni"
        },
        {
            "type": "analyse",
            "value": "Alexander papa IV Ludovico regi Franciae concedit ut cujuscumque ordinis monasteria ingredi valeat, fratribus Praedicatoribus vel Minoribus eum comitantibus."
        },
        {
            "type": "sources_manuscrites",
            "value": "E. FRANCE, Paris, Archives nationales, J 687\/94. Original scell\u00e9 (bulle de plomb sur lacs de soie rouge et jaune ; <i>Inventaire<\/i>, n. 6049). "
        },
        {
            "type": "edition",
            "value": "Ici d'apr\u00e8s Joseph de Laborde, <i>Layettes du Tr\u00e9sor des chartes<\/i>, III, Paris : Henri Plon, 1875 <a target=\"_blank\" href=\"http:\/\/digi.ub.uni-heidelberg.de\/diglit\/teulet1875bd3\/0528\"> [en ligne]<\/a>, n. 4458, p. 442 <a target=\"_blank\"href=\"https:\/\/francearchives.fr\/fr\/facomponent\/223ddf5d959d79f763545635343bfcabbc2777e4\">[num\u00e9ris\u00e9e sur le site des Archives de France]<\/a>, d'apr\u00e8s E."
        },
        {
            "type": "transcription",
            "value": "<?xml version=\"1.0\" encoding=\"UTF-8\"?>\nAlexander episcopus, servus servorum Dei, carissimo in Christo filio .. Ludovico illustri regi Francie, salutem et apostolicam benedictionem. Tuis votis, illis precipue que sapiunt opera pietatis, favore benivolo concurrentes, magnitudini tue ut quociens te aliqua monasteria seu alia loca religiosa cujuscumque ordinis ingredi causa devocionis contigerit, liceat tibi fratres Predicatorum seu Minorum ordinum qui in tua tunc fuerint comitiva introducere tecum in monasteria et loca hujusmodi, contrariis predictorum ordinum consuetudinibus vel statutis nequaquam obstantibus, auctoritate presentium indulgemus. Nulli ergo omnino hominum liceat hanc paginam nostre concessionis infringere vel ei ausu temerario contraire. Si quis autem hoc attemptare presumpserit, indignacionem omnipotentis Dei et beatorum Petri et Pauli apostolorum ejus, se noverit incursurum. Datum Anagnie, II nonas decembris, pontificatus nostri anno quarto.\n"
        },
        {
            "type": "edition",
            "value": "Partielle : Adolfe et Joseph Tardif, <i>Privil\u00e8ges accord\u00e9s \u00e0 la Couronne de France par le Saint-Si\u00e8ge, publi\u00e9s d'apr\u00e8s les originaux conserv\u00e9s aux Archives de l'Empire et \u00e0 la Biblioth\u00e8que imp\u00e9riale<\/i>, Paris :  Imprimerie nationale, 1855,  p. 18, n. 24 <a target=\"_blank\" href= \"https:\/\/archive.org\/stream\/privilgesaccor00cath#page\/18\/\"> [en ligne]<\/a>, d'apr\u00e8s E. "
        },
        {
            "type": "genre",
            "value": "Titre, g\u00e9n\u00e9ral (littere gratiose, cum filo serico)"
        }
    ]
}