{
    "id": 25227,
    "name": "aposcripta-2324",
    "type": "acte",
    "url": "http:\/\/telma-chartes.irht.cnrs.fr\/aposcripta\/notice\/25227",
    "project_slug": "aposcripta",
    "project_label": "APOSCRIPTA \u2013 Lettres des papes",
    "user": "lettrespontificalesadmin",
    "last_update": "2020-10-19 16:27:42",
    "licence": "Attribution - Pas d\u2019Utilisation Commerciale - Partage dans les M\u00eames Conditions 3.0 France (CC BY-NC-SA 3.0 FR) ",
    "licence_url": "https:\/\/creativecommons.org\/licenses\/by-nc-sa\/3.0\/fr\/",
    "elements": [
        {
            "type": "pape",
            "value": "Pascal II (1099-1118)"
        },
        {
            "type": "destinataire",
            "value": "Cluny (Saint-Pierre et Saint-Paul) ( abbaye de)",
            "children": {
                "numero_note": "0"
            }
        },
        {
            "type": "date_lieu",
            "value": "Latran"
        },
        {
            "type": "date_libre",
            "value": "1105, 28 octobre"
        },
        {
            "type": "date",
            "value": " 1105\/10\/28",
            "children": {
                "date_deb_annee": "1105",
                "date_deb_mois": "10",
                "date_deb_jour": "28"
            },
            "range": {
                "date_apres": 11051028,
                "date_avant": 11051028
            }
        },
        {
            "type": "analyse",
            "value": "Le pape Pascal confirme les privil\u00e8ges et possessions de l'abbaye de Cluny. <br\/>PRIVILEGIUM PASCHALIS PAP\u00c6 II, QUO CONCEDIT MONACHIS CLUNIACENSIBUS DECIMAS LABORUM SUORUM, ETC. PRIVILEGIUM PASCHALIS PAP\u00c6 II. per quod concedit Cluniacensibus decimas laborum suorum: et ut Chrisma vel oleum sanctum infra Cluniacense Monasterium faciant consecrari, confirmatque cellas acquisitas tempore S. Hugonis Abbatis Clun. quas h\u00ecc enumerat."
        },
        {
            "type": "transcription",
            "value": "<?xml version=\"1.0\" encoding=\"UTF-8\"?>\n[Paschalis Episcopus servus servorum Dei Reverendissimo Fatri Hugoni Cluniacensi Abbati et ejus Fratribus, salutem et Apostolicam benedictionem. Sancti Spiritus per Apostolum Paulum vera est et aperta sententia: quoniam si gloriatur unum membrum congaudent omnia membra; Et ejusdem de charitate assignatio: charitas benigna est, non gaudet super iniquitate, congaudet autem veritati. In charitate igitur Domini membra vos nostri corporis gloriosa propendetis. Et si vobis corpore absens sim, spiritu vobiscum sum gaudens et videns ordinem vestrum, et firmamentum ejus, qu\u00e6 in Christo est, fidei vestr\u00e6, quod videlicet firmamentum ut semper in Domino robustius augeatur, quietem vobis et tranquillitatem, eodem Domino annuente, providere, optamus. Ut enim Monachorum Magister Beatus Maurus dixisse legitur, observatio Monastici ordinis summam deposcit quietem. Pr\u00e6sentis igitur decreti pagina, fratrum nostrorum Episcoporum seu Episcopalium ministrorum injurias \u00e0 congregatione vestra, per Apostolic\u00e6 sedis authoritatem removere curamus. Decimas enim laborum vestrorum, pro quibus t\u00e0m vos qu\u00e0m alios monastic\u00e6 Religionis viros inquietare gravius consuescunt, illorum videlicet laborum, quos dominicaturas appellant, qui vestro sumptu ac monasterii seu cellarum vestrarum clientibus excoluntur, vobis deinceps quietius habere, sine omni Episcoporum et Episcopalium ministrorum contradictione concedimus. Vos enim per omnipotentis Dei gratiam non mod\u00f2 decimarum partes, sed pen\u00e8 omnia, qu\u00e6 superesse possunt, peregrinis fratribus et pauperibus erogatis. Quum ergo, ne propter chrismatis opportunitatem fratribus vestris longius progredi necessarium sit, hoc quoque vobis ampliori dilectione concedimus, ut in die sancto c\u0153n\u00e6 Dominic\u00e6, si adeo expedire videbitur, chrisma vel oleum sanctum infra Monasterium Cluniacense, \u00e0 quolibet Catholico faciatis Episcopo consecrari, qui nostra fultus authoritate, quod postulatur indulgeat. Confirmamus pr\u00e6tere\u00e0 vobis vestrisque successoribus cellas vestris temporibus acquisitas; scilicet in Episcopatu Cameracensi Monasterium sancti Salvii de Valencinis; in Suessionensi Monasterium Bricmurci; in Eduensi, Ecclesiam sancti Juliani apud Briennium; in Guapicensi, Ecclesiam Devenit; in Belvacensi Ecclesiam de Consiaco; in Tullensi, Frotvillam; in Mettensi Tusiecurte; in Lingonensi, Monasterium de Trivolt, et quicquid in futurum concessione Pontificum, liberalitate Principum, vel oblatione fidelium vestro Monasterio dari offerrive contigerit, firmum vobis vestrisque successoribus et illibatum permaneat. Si quis igitur in crastinum Archiepiscopus aut Episcopus, Imperator aut Rex, Princeps aut Dux, Comes, Vicecomes, Judex aut Ecclesiastica qu\u00e6libet s\u00e6cularisve persona hanc nostr\u00e6 constitutionis paginam sciens contra eam temer\u00e8 venire tentaverit, secund\u00f2 terti\u00f3ve commonita, si non satisfactione congrua emendaverit, potestatis honorisque sui dignitate careat, reamque se divino judicio existere de perpetrata iniquitate, cognoscat; et \u00e0 sacratissimo corpore ac sanguine Dei et Domini Redemptoris nostri Jesu Christi aliena fiat, atque in extremo examine district\u00e6 ultioni subjaceat. Cunctis autem eidem loco justa servantibus, sit pax Domini nostri Jesu Christi, quatinus et hic fructum bon\u00e6 actionis percipiant, et apud districtum judicem pr\u00e6mia \u00e6tern\u00e6 pacis inveniant. Amen. Amen. Scriptum per manum Rainerii Scriniarii Regionarii, et Notarii sacri Palatii. Datum Laterani per manum Joannis sanct\u00e6 Roman\u00e6 Ecclesi\u00e6 Diaconi Cardinalis 5. Calendas Novembris, Indictione 13. Incarn. Dominic\u00e6 anno millesimo centesimo quinto, Pontificatus autem Domni Paschalis secundi Pap\u00e6 VII.]\n"
        },
        {
            "type": "edition",
            "value": "Ici tir\u00e9e du projet <i>CBMA - Corpus Burgundiae Medii Aevi<\/i>, document 5266. Site du projet Corpus de la Bourgogne du Moyen \u00c2ge, [En ligne] <a href=\"http:\/\/www.cbma-project.eu\" target=\"_blank\">http:\/\/www.cbma-project.eu<\/a>  "
        },
        {
            "type": "sources_manuscrites",
            "value": "\u00e0 renseigner."
        },
        {
            "type": "remarques",
            "value": "Indications dans l'\u00e9dition des Chartes de Cluny quand Bernard et Bruel n'ont pas repris le texte : Paschalis, etc. Sancti Spiritus per apostolum, etc. (Bull. Clun., p.\u00a0211, col.\u00a01.)(Bibl. nat. coll. de Bourg., t.\u00a086, pi\u00e8ce 78; E.\u00a048, XLII.)"
        },
        {
            "type": "edition_autre",
            "value": "Ici reprise de Auguste Bernard, Alexandre Bruel, <i>Recueil des chartes de l'abbaye de Cluny<\/i>. V. <i>1091-1210<\/i>, Paris\u00a0: Imprimerie nationale, 1894 <a href=\"http:\/\/gallica.bnf.fr\/ark:\/12148\/bpt6k28911f?rk=64378;0\" target=\"_blank\">[en ligne]<\/a>, p. 195, n\u00b0 3836.",
            "children": {
                "numero_note": "0"
            }
        },
        {
            "type": "edition_autre",
            "value": "Pierre Simon, <i>Bullarium sacri Ordinis cluniacensis, complectens plurima privilegia per summos pontifices tum ipsi cluniacensi abbatiae, tum ei subditis monasteriis hactenus concessa<\/i>, Lyon : Jullieron, 1680, p. 211, col. 1-2",
            "children": {
                "numero_note": "1"
            }
        },
        {
            "type": "genre",
            "value": "Bulle"
        }
    ]
}