{
    "id": 20543,
    "name": "aposcripta-530",
    "type": "acte",
    "url": "http:\/\/telma-chartes.irht.cnrs.fr\/aposcripta\/notice\/20543",
    "project_slug": "aposcripta",
    "project_label": "APOSCRIPTA \u2013 Lettres des papes",
    "user": "lettrespontificalesadmin",
    "last_update": "2020-10-19 16:26:50",
    "licence": "Attribution - Pas d\u2019Utilisation Commerciale - Partage dans les M\u00eames Conditions 3.0 France (CC BY-NC-SA 3.0 FR) ",
    "licence_url": "https:\/\/creativecommons.org\/licenses\/by-nc-sa\/3.0\/fr\/",
    "elements": [
        {
            "type": "pape",
            "value": "P\u00e9lage I (556-561)"
        },
        {
            "type": "date_lieu",
            "value": "n.c."
        },
        {
            "type": "date_libre",
            "value": "558 Sept-560"
        },
        {
            "type": "analyse",
            "value": "Pelagius\u00a0I Opilioni defensori mandat, ut adveniente episcopo Catinensi Marum presbyterum in \u201eeodem\u201c monasterio abbatem faciat aut Cresciturum diaconum ibidem restituat. Non licere monachis, pro suo arbitrio abbates expellere aut ordinare, addit.<a class=\"note\" href=\"#note-1\">1<\/a>"
        },
        {
            "type": "transcription",
            "value": "<?xml version=\"1.0\" encoding=\"UTF-8\"?>\nOpilioni defensori. Experientie tuae presentibus mandamus affatibus, ut veniente aecclesiae Catinensis episcopo aut eundem Marum presbiterum in eodem faciasa monasterio senodochyoque per eos, quos Saturninus illustris memorie vobis presentibus presentaverit, abbatem fieri, aut Cresciturum diaconum ibidem reformari, nullam potestatem cet. ut in Gratiani decr. C. XVII qu.\u00a02. c.\u00a09.\n"
        },
        {
            "type": "edition",
            "value": "Samuel Loewenfeld, <i>Epistolae pontificum romanorum ineditae<\/i>, Leipzig : Veit et Comp., 1885, n. 31, p. 17-18"
        },
        {
            "type": "sources_manuscrites",
            "value": "Coll. Brit. Pel. ep.\u00a029, l.\u00a0l. fol.\u00a029<sup>b<\/sup>."
        },
        {
            "type": "notes_historiques",
            "value": "Cf. Jaff\u00e9 ed. sec.\u00a01001.",
            "children": {
                "numero_note": "1"
            }
        },
        {
            "type": "apparat_critique",
            "value": "facies <i>c.<\/i>",
            "children": {
                "numero_note": "a"
            }
        },
        {
            "type": "date",
            "value": "apr\u00e8s 0558\/09 - avant 0560",
            "children": {
                "date_deb_annee": "0558",
                "date_deb_mois": "09",
                "date_deb_type": "apres",
                "date_fin_annee": "0560",
                "date_fin_type": "avant"
            },
            "range": {
                "date_apres": 5580900,
                "date_avant": 5609999
            }
        },
        {
            "type": "genre",
            "value": "Bulle"
        }
    ]
}