{
    "id": 27180,
    "name": "aposcripta-3987",
    "type": "acte",
    "url": "http:\/\/telma-chartes.irht.cnrs.fr\/aposcripta\/notice\/27180",
    "project_slug": "aposcripta",
    "project_label": "APOSCRIPTA \u2013 Lettres des papes",
    "user": "l_valliere",
    "last_update": "2020-10-19 16:28:10",
    "licence": "Attribution - Pas d\u2019Utilisation Commerciale - Partage dans les M\u00eames Conditions 3.0 France (CC BY-NC-SA 3.0 FR) ",
    "licence_url": "https:\/\/creativecommons.org\/licenses\/by-nc-sa\/3.0\/fr\/",
    "elements": [
        {
            "type": "pape",
            "value": "Innocent IV (1243-1254)"
        },
        {
            "type": "destinataire",
            "value": "L'\u00e9v\u00eaque de Paris Guillaume d'Auvergne"
        },
        {
            "type": "date_libre",
            "value": "idibus januarii, anno secundo"
        },
        {
            "type": "date",
            "value": " 1245\/01\/13",
            "children": {
                "date_deb_jour": "13",
                "date_deb_mois": "01",
                "date_deb_annee": "1245"
            },
            "range": {
                "date_apres": 12450113,
                "date_avant": 12450113
            }
        },
        {
            "type": "date_lieu",
            "value": "Lyon"
        },
        {
            "type": "genre",
            "value": "Titre, g\u00e9n\u00e9ral (littere gratiose, cum filo serico)"
        },
        {
            "type": "analyse",
            "value": "Innocent IV accorde \u00e0 Guillaume le privil\u00e8ge de ne pouvoir \u00eatre excommuni\u00e9, interdit ou \u00e9cart\u00e9 des saints lieux par un d\u00e9l\u00e9gu\u00e9 du Saint-Si\u00e8ge, \u00e0 moins d'un ordre expr\u00e8s du pape faisant mention de la pr\u00e9sente indulgence."
        },
        {
            "type": "sources_manuscrites",
            "value": "R. CIT\u00c9 DU VATICAN, Archivio segreto Vaticano, <i>Registra Vaticana<\/i> 21, ep. 128, fol. 132v.",
            "children": {
                "type_source": "Registre"
            }
        },
        {
            "type": "sources_manuscrites",
            "value": "S. FRANCE, Paris, Biblioth\u00e8que nationale, fonds Moreau, La Porte du Theil, ms. 1194, fol. 351 (copie par La Porte du Theil). ",
            "children": {
                "type_source": "Copie"
            }
        },
        {
            "type": "edition",
            "value": "No\u00ebl\u00a0Valois,\u00a0<i>Guillaume d'Auvergne, \u00e9v\u00eaque de Paris (1228-1249) : sa vie et ses ouvrages<\/i>, Paris, 1880, n. 95, p. 379-380 <a target=\"_blank\" href=\"http:\/\/gallica.bnf.fr\/ark:\/12148\/bpt6k5739404b\/f390\">[en ligne]<\/a>, d\u2019apr\u00e8s S."
        },
        {
            "type": "regeste",
            "value": "\u00c9lie Berger, <i>Les registres d'Innocent IV<\/i>, Paris, 1884-1921, n. 878, d'apr\u00e8s R."
        },
        {
            "type": "transcription",
            "value": "<?xml version=\"1.0\" encoding=\"UTF-8\"?>\nInnocentius episcopus, servus servorum Dei, venerabili fratri nostro episcopo Parisiensi, salutem et apostolicam benedictionem. Apostolice Sedis benignitas, provide pensans merita singulorum, illos quos in sua devotione proraptos invenerit et ferventes favore benivolo prosequi consuevit et eos quibusdam titulis decentius decorare. Ut igitur ex speciali devotione quam ad personam nostram et Romanam ecclesiam habere dinosceris et ex sincere opinionis odore quem emittis ad proximos, traditum tibi ministerium laudabililer adimplendo, favorem tibi apostolicum sentias accrevisse, auctoritate tibi presentium indulgemus ut nullus delegatus a nobis vel subdelegatus, executor, aut etiam conservator auctoritate Sedis apostolice vel legatorum ipsius in personam tuam excommunicationis, suspensionis aut etiam interdicti sententias promulgare aut interdicere tibi ingressum ecclesie valeat absque mandato Sedis apostolice faciente plenam de hac indulgentia mentionem. Nulli ergo etc. Si quis etc. Datum Lugduni, idibus januarii, pontificatus nostri anno secundo.\n"
        },
        {
            "type": "remarques",
            "value": "Inconnue de Potthast"
        }
    ]
}