{
    "id": 25447,
    "name": "aposcripta-2544",
    "type": "acte",
    "url": "http:\/\/telma-chartes.irht.cnrs.fr\/aposcripta\/notice\/25447",
    "project_slug": "aposcripta",
    "project_label": "APOSCRIPTA \u2013 Lettres des papes",
    "user": "lettrespontificalesadmin",
    "last_update": "2020-10-19 16:27:44",
    "licence": "Attribution - Pas d\u2019Utilisation Commerciale - Partage dans les M\u00eames Conditions 3.0 France (CC BY-NC-SA 3.0 FR) ",
    "licence_url": "https:\/\/creativecommons.org\/licenses\/by-nc-sa\/3.0\/fr\/",
    "elements": [
        {
            "type": "pape",
            "value": "Honorius III (1216-1227)"
        },
        {
            "type": "destinataire",
            "value": "Dijon (Saint-B\u00e9nigne) ( abbaye de)",
            "children": {
                "numero_note": "0"
            }
        },
        {
            "type": "date_lieu",
            "value": "Laterani (Datum Laterani)"
        },
        {
            "type": "date_libre",
            "value": "1222, (12 janvier?)"
        },
        {
            "type": "date",
            "value": "circa 1222\/01\/12",
            "children": {
                "date_deb_annee": "1222",
                "date_deb_mois": "01",
                "date_deb_jour": "12",
                "date_deb_type": "circa"
            },
            "range": {
                "date_apres": 12220112,
                "date_avant": 12220112
            }
        },
        {
            "type": "analyse",
            "value": "Bulle d'Honorius III pape adress\u00e9e \u00e0 l'abb\u00e9 de Saint-B\u00e9nigne de Dijon au sujet de l'excommunication lanc\u00e9e par l'\u00e9v\u00eaque de Nevers envers le prieur de Saint-\u00c9tienne de Nevers.<br\/>BULLA HONORII PAP\u00c6 III, AD ABBATEM ET PRIOREM SANCTI BENIGNI DIVIONENSIS, UT REVOCENT SENTENTIAM EXCOMMUNICATIONIS A NIVERNENSI DIOCESANO IN PRIOREM SANCTI STEPHANI NIVERNENSIS LATAM. RESCRIPTUM HONORII PAP\u00c6 III. ad Abbatem et Priorem sancti Benigni Divionen. ut revocent sententiam excommunicationis latam per Nivernensem Di\u0153cesanum in Priorem sancti Stephani Nivernensis."
        },
        {
            "type": "transcription",
            "value": "<?xml version=\"1.0\" encoding=\"UTF-8\"?>\n[Honorius Episcopus servus servorum Dei, dilectis filiis Abbati et Priori sancti Benigni et Decano Capell\u00e6 Ducis Divionensis Lingonensis Di\u0153cesis, salutem et Apostolicam benedictionem. Gravem nobis dilecti filii Abbas et Conventus Cluniacensis obtulere querelam, quod Nivernensis Di\u0153cesanus electus, Priorem sancti Stephani Cluniacensis ordinis de facto, cum de jure nequiverit, excommunicatum fecit public\u00e8 nunciari, ac Ecclesiarum suarum homines supposuit sententi\u00e6 interdicti, contra privilegia eis ab Apostolica sede concessa temer\u00e8 veniendo, nec iis contentus, omnes etiam illos excommunicare pr\u00e6sumpsit qui in furnis eorum coquerent, vel in eorum molerent molendinis, propter quod damna gravia se asserunt incurrisse. Nolentes igitur indignum Ecclesi\u00e6 Cluniacensi gravamen sub dissimulatione transire, discretioni vestr\u00e6, per Apostolica rescripta mandamus, quatenus sententias quas in dictum Priorem, et ejus homines contra privilegia Pontificum Romanorum ab ipso Electo, vel alio vice ipsius latas esse constiterit, penitus irritas nunciantes authoritate nostra moneatis eumdem electum ut sententiam quam tulit in eos qui in furnis coquerent vel in molendinis molerent eorumdem sine difficultate relaxans, nec similes de c\u00e6tero promulgare pr\u00e6sumens dicto Priori congru\u00e8 satisfaciat de damnis qu\u00e6 occasione hujus sententi\u00e6 et excommunicationis incurrit. Quod si facere non curaverit infra terminum quem sibi duxeritis pr\u00e6figendum vos eamdem sententiam authoritate nostra, juxta formam Ecclesi\u00e6 relaxantes, audiatis qu\u00e6 partes super damnis pr\u00e6dictis aut aliis duxerint proponenda, et quod justum fuerit appellatione postposita decernatis. Facientes quod decreveritis per censuram Ecclesiasticam firmiter observari, testes autem qui fuerint nominati, si ex gratia, odio vel timore subtraxerint, per censuram eamdem appellatione postposita cogatis veritati testimonium perhibere. Quod si non omnes iis exequendis potueritis interesse, duo vestrum ea nihilominus exequantur. Datum Laterani XI. Idus Januarii Pontificatus nostri Anno sexto.]\n"
        },
        {
            "type": "edition",
            "value": "Ici tir\u00e9e du projet <i>CBMA - Corpus Burgundiae Medii Aevi<\/i>, document 5986. Site du projet Corpus de la Bourgogne du Moyen \u00c2ge, [En ligne] <a href=\"http:\/\/www.cbma-project.eu\" target=\"_blank\">http:\/\/www.cbma-project.eu<\/a>  "
        },
        {
            "type": "sources_manuscrites",
            "value": "\u00e0 renseigner."
        },
        {
            "type": "remarques",
            "value": "\r\n\r\nIndications dans l'\u00e9dition des Chartes de Cluny quand Bernard et Bruel n'ont pas repris le texte : Honorius, etc. Gravem nobis dilecti, etc. (Bull. Clun., p.\u00a0105, col.\u00a02, n\u00ba\u00a01.)."
        },
        {
            "type": "edition_autre",
            "value": "Ici reprise de Auguste Bernard, Alexandre Bruel, <i>Recueil des chartes de l'abbaye de Cluny<\/i>. VI. <i>1211-1300<\/i>, Paris\u00a0: Imprimerie nationale, 1903 <a href=\"http:\/\/gallica.bnf.fr\/ark:\/12148\/bpt6k367019?rk=21459;2\" target=\"_blank\">[en ligne]<\/a>, p. 82, n\u00b0 4533.",
            "children": {
                "numero_note": "0"
            }
        },
        {
            "type": "edition_autre",
            "value": "Pierre Simon, <i>Bullarium sacri Ordinis cluniacensis, complectens plurima privilegia per summos pontifices tum ipsi cluniacensi abbatiae, tum ei subditis monasteriis hactenus concessa<\/i>, Lyon : Jullieron, 1680, p. 105, col. 2, n\u00b01",
            "children": {
                "numero_note": "1"
            }
        },
        {
            "type": "genre",
            "value": "Bulle"
        }
    ]
}