{
    "id": 20734,
    "name": "aposcripta-721",
    "type": "acte",
    "url": "http:\/\/telma-chartes.irht.cnrs.fr\/aposcripta\/notice\/20734",
    "project_slug": "aposcripta",
    "project_label": "APOSCRIPTA \u2013 Lettres des papes",
    "user": "lettrespontificalesadmin",
    "last_update": "2020-10-19 16:26:52",
    "licence": "Attribution - Pas d\u2019Utilisation Commerciale - Partage dans les M\u00eames Conditions 3.0 France (CC BY-NC-SA 3.0 FR) ",
    "licence_url": "https:\/\/creativecommons.org\/licenses\/by-nc-sa\/3.0\/fr\/",
    "elements": [
        {
            "type": "pape",
            "value": "Adrien IV (1154-1159)"
        },
        {
            "type": "date_lieu",
            "value": "n.c."
        },
        {
            "type": "date_libre",
            "value": "1155 Ian 19"
        },
        {
            "type": "analyse",
            "value": "Hadrianus\u00a0IV episcopum Elenensem iudicem constituit inter fratres Anianenses et episcopum Biterrensem super ecclesia de Valeliis litigantes."
        },
        {
            "type": "transcription",
            "value": "<?xml version=\"1.0\" encoding=\"UTF-8\"?>\nEadem de re scribit episcopo Biterrensi.\n"
        },
        {
            "type": "edition",
            "value": "Samuel Loewenfeld, <i>Epistolae pontificum romanorum ineditae<\/i>, Leipzig : Veit et Comp., 1885, n. 222, p. 120-121"
        },
        {
            "type": "sources_manuscrites",
            "value": "F. FRANCE, Paris, Bibl. nat. Paris. ms. at.\u00a013816 (s. XVII), fol.\u00a080.",
            "children": {
                "type_source": "Copie moderne"
            }
        },
        {
            "type": "notes_historiques",
            "value": "Artaldo.",
            "children": {
                "numero_note": "1"
            }
        },
        {
            "type": "notes_historiques",
            "value": "Guillelmus.",
            "children": {
                "numero_note": "2"
            }
        },
        {
            "type": "date",
            "value": "1155\/01\/19",
            "children": {
                "date_deb_annee": "1155",
                "date_deb_mois": "01",
                "date_deb_jour": "19"
            },
            "range": {
                "date_apres": 11550119,
                "date_avant": 11550119
            }
        },
        {
            "type": "genre",
            "value": "Mandement (littere cum filo canapis)"
        }
    ]
}