{
    "id": 24601,
    "name": "aposcripta-1752",
    "type": "acte",
    "url": "http:\/\/telma-chartes.irht.cnrs.fr\/aposcripta\/notice\/24601",
    "project_slug": "aposcripta",
    "project_label": "APOSCRIPTA \u2013 Lettres des papes",
    "user": "lettrespontificalesadmin",
    "last_update": "2020-10-19 16:27:32",
    "licence": "Attribution - Pas d\u2019Utilisation Commerciale - Partage dans les M\u00eames Conditions 3.0 France (CC BY-NC-SA 3.0 FR) ",
    "licence_url": "https:\/\/creativecommons.org\/licenses\/by-nc-sa\/3.0\/fr\/",
    "elements": [
        {
            "type": "pape",
            "value": "Gr\u00e9goire IX (1227-1241)"
        },
        {
            "type": "date_lieu",
            "value": "n.c."
        },
        {
            "type": "date_libre",
            "value": "11\u00a0mars 1241"
        },
        {
            "type": "date",
            "value": " 1241\/03\/11",
            "children": {
                "date_deb_annee": "1241",
                "date_deb_mois": "03",
                "date_deb_jour": "11"
            },
            "range": {
                "date_apres": 12410311,
                "date_avant": 12410311
            }
        },
        {
            "type": "analyse",
            "value": "Gr\u00e9goire\u00a0IX \u00e9crit sur cette m\u00eame affaire aux habitants du comt\u00e9 de Melgueil et du dioc\u00e8se de Maguelone."
        },
        {
            "type": "transcription",
            "value": "<?xml version=\"1.0\" encoding=\"UTF-8\"?>\n"
        },
        {
            "type": "edition",
            "value": "Julien Rouquette, Augustin Villemagne, <i>Bullaire de l'\u00c9glise de Maguelone<\/i>, Paris, Montpellier : Picard, Valat, 1911-1914, II, n. 588-380\u00a0g, p. 518"
        },
        {
            "type": "remarques",
            "value": "Mentionn\u00e9e seulement\u00a0: \u00ab\u00a0In eundem modum <i>nobilibus viris et aliis universis, per comitatum Melgorii et Magalonensem diocesim constitutis<\/i>.\u00a0\u00bb\n\n[Rouquette-Villemagne]"
        },
        {
            "type": "bibliographie_generale",
            "value": "<span class=\"small-caps\">L. Auvray<\/span>, <i>Registres de Gr\u00e9goire\u00a0IX<\/i>, Fasc.\u00a0XII, col.\u00a0383.",
            "children": {
                "numero_note": "0"
            }
        },
        {
            "type": "genre",
            "value": "Bulle"
        }
    ]
}