{
    "id": 25379,
    "name": "aposcripta-2476",
    "type": "acte",
    "url": "http:\/\/telma-chartes.irht.cnrs.fr\/aposcripta\/notice\/25379",
    "project_slug": "aposcripta",
    "project_label": "APOSCRIPTA \u2013 Lettres des papes",
    "user": "lettrespontificalesadmin",
    "last_update": "2020-10-19 16:27:43",
    "licence": "Attribution - Pas d\u2019Utilisation Commerciale - Partage dans les M\u00eames Conditions 3.0 France (CC BY-NC-SA 3.0 FR) ",
    "licence_url": "https:\/\/creativecommons.org\/licenses\/by-nc-sa\/3.0\/fr\/",
    "elements": [
        {
            "type": "pape",
            "value": "Lucius III (1181-1185)"
        },
        {
            "type": "destinataire",
            "value": "( )",
            "children": {
                "numero_note": "0"
            }
        },
        {
            "type": "date_lieu",
            "value": "n.c."
        },
        {
            "type": "date_libre",
            "value": "[1184-1185], 23 octobre"
        },
        {
            "type": "date",
            "value": "apr\u00e8s 1184\/10\/23 - avant 1185\/10\/23",
            "children": {
                "date_deb_annee": "1184",
                "date_deb_mois": "10",
                "date_deb_jour": "23",
                "date_deb_type": "apr\u00e8s",
                "date_fin_annee": "1185",
                "date_fin_mois": "10",
                "date_fin_jour": "23",
                "date_fin_type": "avant"
            },
            "range": {
                "date_apres": 11841023,
                "date_avant": 11851023
            }
        },
        {
            "type": "analyse",
            "value": "X pape<br\/>PRIVILEGIUM LUCII PAP\u00c6 III, QUO CONFIRMAT MONACHIS CLUNIACENSIBUS ECCLESIAM SANCTI JOHANNIS EVANGELIST\u00c6, \u00c6DIFICATAM IN SYLVA DE GRON, EX CONCESSIONE JOCERANNI GROSSI. PRIVILEGIUM LUCII PAP\u00c6 III. per quod confirmat Ecclesiam S. Ioannis Evangelist\u00e6 \u00e6dificatam in sylva de Gron, ex concessione Ioceranni Grossi facta Cluniacensi Monasterio."
        },
        {
            "type": "transcription",
            "value": "<?xml version=\"1.0\" encoding=\"UTF-8\"?>\n[Lucius Episcopus, servus servorum Dei, dilectis filiis Abbati et conventui Cluniacensi, salutem et Apostolicam benedictionem. Justis petentium desideriis dignum est nos facilem pr\u00e6bere consensum, et vota qu\u00e6 a rationis tramite non discordant, effectu prosequente complere. Quapropter, dilecti in Domino filii, vestris justis postulationibus grato concurrentes assensu, locum quem vobis nobilis vir Jocerannus Grossus consentiente uxore sua, in allodio proprio et sylva de Gron, ubi Ecclesia in honorem sancti Joannis Evangelist\u00e6 \u00e6dificata dignoscitur, pia largitione concessit secundum limitationes terminorum, qui in scripto authentico ipsius continentur, et sicut locus ipse \u00e0 vobis cum appendiciis just\u00e8 et pacific\u00e8 possidetur, vobis et Monasterio vestro auctoritate Apostolica confirmamus, et pr\u00e6sentis scripti patrocinio communimus. Nulli ergo, etc, Datum Veron\u00e6 X. Kalendas Novembris.]\n"
        },
        {
            "type": "edition",
            "value": "Ici tir\u00e9e du projet <i>CBMA - Corpus Burgundiae Medii Aevi<\/i>, document 5733. Site du projet Corpus de la Bourgogne du Moyen \u00c2ge, [En ligne] <a href=\"http:\/\/www.cbma-project.eu\" target=\"_blank\">http:\/\/www.cbma-project.eu<\/a>  "
        },
        {
            "type": "sources_manuscrites",
            "value": "\u00e0 renseigner."
        },
        {
            "type": "remarques",
            "value": "\r\n\r\nIndications dans l'\u00e9dition des Chartes de Cluny quand Bernard et Bruel n'ont pas repris le texte : Lucius etc. Justis petentium desideriis, etc. (Bull. Clun., p.\u00a077, col.\u00a02, n\u00ba\u00a02.).(Bibl. nat. or.\u00a0272; cop.\u00a086-60; B. s.\u00a029, fol.\u00a0297\u00a0v\u00ba.)"
        },
        {
            "type": "edition_autre",
            "value": "Ici reprise de Auguste Bernard, Alexandre Bruel, <i>Recueil des chartes de l'abbaye de Cluny<\/i>. V. <i>1091-1210<\/i>, Paris\u00a0: Imprimerie nationale, 1894 <a href=\"http:\/\/gallica.bnf.fr\/ark:\/12148\/bpt6k28911f?rk=64378;0\" target=\"_blank\">[en ligne]<\/a>, p. 659, n\u00b0 4294.",
            "children": {
                "numero_note": "0"
            }
        },
        {
            "type": "edition_autre",
            "value": "Pierre Simon, <i>Bullarium sacri Ordinis cluniacensis, complectens plurima privilegia per summos pontifices tum ipsi cluniacensi abbatiae, tum ei subditis monasteriis hactenus concessa<\/i>, Lyon : Jullieron, 1680, p. 77, col. 2, n\u00b02",
            "children": {
                "numero_note": "1"
            }
        },
        {
            "type": "genre",
            "value": "Bulle"
        },
        {
            "type": "genre",
            "value": "Lettre"
        }
    ]
}