{
    "id": 20164,
    "name": "aposcripta-151",
    "type": "acte",
    "url": "http:\/\/telma-chartes.irht.cnrs.fr\/aposcripta\/notice\/20164",
    "project_slug": "aposcripta",
    "project_label": "APOSCRIPTA \u2013 Lettres des papes",
    "user": "lettrespontificalesadmin",
    "last_update": "2020-10-19 16:26:45",
    "licence": "Attribution - Pas d\u2019Utilisation Commerciale - Partage dans les M\u00eames Conditions 3.0 France (CC BY-NC-SA 3.0 FR) ",
    "licence_url": "https:\/\/creativecommons.org\/licenses\/by-nc-sa\/3.0\/fr\/",
    "elements": [
        {
            "type": "pape",
            "value": "Cl\u00e9ment V (1305-1314)"
        },
        {
            "type": "date_lieu",
            "value": "Poitiers"
        },
        {
            "type": "date_libre",
            "value": "Idibus julii, anno tertio"
        },
        {
            "type": "analyse",
            "value": "Cl\u00e9ment V commet trois cardinaux pour dirimer le litige existant entre Guillaume, fils de Jean de Pecquigny, vidame d\u2019Amiens<a class=\"note\" href=\"#note-1\">1<\/a>, et l\u2019inquisiteur de Toulouse, Geoffroi d\u2019Ablis<a class=\"note\" href=\"#note-2\">2<\/a>, au sujet de l\u2019excommunication lanc\u00e9e par ce dernier contre le vidame."
        },
        {
            "type": "transcription",
            "value": "<?xml version=\"1.0\" encoding=\"UTF-8\"?>\nVenerabili fratri Petro, episcopo Penestrino3, et dilectis filiis Berengario, tituli sanctorum Nerei et Achillei4, ac Stephano, tituli sancti Ciriaci in Termis5, presbyteris cardinalibus. Causam que vertebatur et vertitur seu verti poterat inter dilectos filios Guillelmum, natum quondam Johannis, domini de Pinquenio, militis, vicedomini Ambianensis, clericum, et suos ex una parte, et fratrem Gaufridum de Ablusiis, ordinis predicatorum, inquisitorem heretice pravitatis in regno Francie per Sedem apostolicam deputatum, ex altera, super eo videlicet, quod idem inquisitor olim pretendens, dictum vicedominum tamquam fautorem hereticorum seu hereticalium personarum et impeditorem officii pravitatis ejusdem, in excommunicationis sententias latas a canone incidisse, ipsum denunciavit et fecit excommunicatum publice nuntiari, vobis audiendam ac diffiniendam de plano sine strepitu et figura judicii, non obstantibus quibuscumque commissionibus alias de causa ipsa in romana Curia factis, commisimus oraculo vive vocis. Comparentibus siquidem, prout ex tenore vestre insinuationis accepimus, dictis partibus in judicio coram vobis, dictus Guillelmus, ad justificandum et anullandum hujusmodi denuntiationem seu denuntiationes inquisitoris ejusdem, nonnullas rationes, idemque inquisitor, ad justificandum denuntiationes easdem rationes alias et articulos etiam producere curaverunt ; ac nichilominus super hiis nonnullis allegationibus et disputationibus coram vobis factis et habitis per advocatos partium earumdem, demum per utramque ipsarum partium nonnulla instrumenta, littere, acta, jura et munimenta exhibita et producta in causa hujusmodi extiterunt. Verum, quia, prout nobis exponere curavistis, causa eadem tam longum habet de sui qualitate progressum, quod, si in ea secundum juris ordinem procedatur, ad totalem cognitionem seu decisionem ipsius sine gravibus et magnis expensis ac laboribus aliisque dispendiis ipsarum partium non poterat perveniri, nos, qui finem litibus libenter imponimus, premissis omnibus benigna meditatione pensatis, volentes utriusque partium earumdem quieti paterna diligentia providere, dictisque laboribus, expensis et dispendiis obviare, discretioni vestre, de quorum experta prudentia et fidei circumspectione confidimus, per apostolica scripta mandamus quatinus vos, in hiis solum Deum habendo pre oculis, in dicta denuntiationis seu denuntiationum causa et ipsam contingentibus ac dependentibus ab eisdem auctoritate nostra, simpliciter et de plano, sine strepitu et figura judicii, servato vel omisso juris ordine procedentes, causam, negotium, contingentia et dependentia hujusmodi totaliter terminare, prout vestre discretioni videbitur, procuretis ; proviso tamen quod per hoc nichil in favorem hereticorum aut pravitatis heretice quomodolibet faciatis. Datum Pictavis, idus julii, anno tertio.\n"
        },
        {
            "type": "edition",
            "value": "Ici reprise de Jean-Marie Vidal, <i>Bullaire de l\u2019Inquisition fran\u00e7aise au XIV<sup>e<\/sup> si\u00e8cle et jusqu'\u00e0 la fin du Grand Schisme<\/i>, Paris : Letouzey et An\u00e9, 1913, n. 4, p. 14-15 <a target=\"_blank\" href= \"http:\/\/gallica.bnf.fr\/ark:\/12148\/bpt6k6213406r\/f107\/\">[en ligne]<\/a>."
        },
        {
            "type": "sources_manuscrites",
            "value": "R. CIT\u00c9 DU VATICAN, Archivio segreto Vaticano, <i>Registra Vaticana<\/i> 55, n. 25, fol. 227.",
            "children": {
                "type_source": "Registre de la chancellerie apostolique"
            }
        },
        {
            "type": "notes_historiques",
            "value": "La cause de ce conflit, nous l\u2019avons d\u00e9j\u00e0 expos\u00e9e p. 4, note 2. Ce fut le coup de force contre les prisons inquisitoriales de Carcassonne, perp\u00e9tr\u00e9 en ao\u00fbt 1303. Aussit\u00f4t Geoffroi d\u2019Ablis engagea la lutte contre le vidame. Il lui fit un proc\u00e8s pour obstruction au Saint-Office. Pecquigny n\u00e9gligeant de compara\u00eetre, Geoffroi l\u2019excommunia (29 septembre 1303). Cette sentence fut promulgu\u00e9e \u00e0 Paris et dans le Languedoc, malgr\u00e9 les efforts tent\u00e9s pour \u00e9touffer l\u2019affaire. Le vidame en appela au pape et partit pour l\u2019Italie. Geoffroi se fit repr\u00e9senter par Guillaume de Mori\u00e8res, inquisiteur de Toulouse. Mais Beno\u00eet XI, favorable aux dominicains, mourut le 7 juillet 1304, et Mori\u00e8res et Pecquigny le suivirent de pr\u00e8s dans la tombe. L\u2019affaire \u00e9tait \u00e0 peine engag\u00e9e. Geoffroi, fort contre son adversaire, d\u00e9c\u00e9d\u00e9 le 29 septembre 1304, c\u2019est-\u00e0-dire exactement une ann\u00e9e apr\u00e8s son excommunication, le traita d\u00e9sormais en h\u00e9r\u00e9tique contumax et demanda que ses restes fussent exhum\u00e9s et br\u00fbl\u00e9s. Mais Guillaume de Pecquigny s\u2019\u00e9tait charg\u00e9 de poursuivre la r\u00e9habilitation de son p\u00e8re. L\u2019exp\u00e9dition de la pr\u00e9sente bulle marque son premier succ\u00e8s. Le 23 juillet suivant, justice \u00e9tait faite. Les cardinaux annul\u00e8rent l\u2019anath\u00e8me de l\u2019inquisiteur. C\u2019est en vain que celui-ci en r\u00e9f\u00e9ra au pape. <i>Hist. de Lang.<\/i>, t. <span class=\"smal-caps\">ix<\/span>, p. 257-260 ; Haur\u00e9au, <i>Bernard D\u00e9licieux<\/i> p. 48 sq.",
            "children": {
                "numero_note": "1"
            }
        },
        {
            "type": "notes_historiques",
            "value": "Geoffroi d\u2019Ablis, ou d\u2019Abluses, originaire du pays chartrain, fit ses premi\u00e8res \u00e9tudes dans le couvent des dominicains de Chartres, o\u00f9 il pronon\u00e7a ses v\u0153ux. On lui confia dans divers couvents la mission d\u2019enseigner la th\u00e9ologie. En 1303, il fut appel\u00e9 \u00e0 la charge d\u2019inquisiteur de Carcassonne, \u00e0 la place de Nicolas d\u2019Abbeville. Il exer\u00e7a des poursuites et pronon\u00e7a des sentences \u00e0 Carcassonne, \u00e0 Albi, \u00e0 Pamiers, \u00e0 Cordes et ailleurs. Il mourut \u00e0 Lyon, le 10 septembre 1316. Voir, sur ses travaux et les manuscrits contenant le texte des proc\u00e8s ou des sentences qui lui appartiennent : Qu\u00e9tif et \u00c9chard, <i>Scriptores ord. praed.<\/i>, Paris, 1719, p. 532-533 ; Molinier, <i>L\u2019Inquisition dans le Midi<\/i>, Toulouse, 1880, p. 126-127 et notes ; <i>Hist. litt\u00e9r. de la France<\/i>, t. <span class=\"smal-caps\">xxx<\/span>, p. 416-421 ; Douais, <i>Documents<\/i>, p. <span class=\"smal-caps\">cxcviii-cciii<\/span>.",
            "children": {
                "numero_note": "2"
            }
        },
        {
            "type": "notes_historiques",
            "value": "Pierre de la Chapelle-Taillefer ; voir p. 13, note 2.",
            "children": {
                "numero_note": "3"
            }
        },
        {
            "type": "notes_historiques",
            "value": "B\u00e9renger Fr\u00e9dol ; voir p. 13, note 3.",
            "children": {
                "numero_note": "4"
            }
        },
        {
            "type": "notes_historiques",
            "value": "\u00c9tienne de Suisy, vice-chancelier de Philippe le Bel, archidiacre de Bruges ; fait cardinal du titre de Saint-Cyriaque, le 15 d\u00e9cembre 1305 ; mort le 10 d\u00e9cembre 1311. Baluze, <i>Vitae<\/i>, t. <span class=\"smal-caps\">i<\/span>, col. 638 ; Ciacconius, <i>Vitae... pontif. rom.<\/i>, etc., Rome, 1677, t. <span class=\"smal-caps\">ii<\/span>, col. 376 ; Eubel, <i>Hier.<\/i>, t. <span class=\"smal-caps\">i<\/span>, p. 13.",
            "children": {
                "numero_note": "5"
            }
        },
        {
            "type": "date",
            "value": "1308\/07\/15",
            "children": {
                "date_deb_annee": "1308",
                "date_deb_mois": "07",
                "date_deb_jour": "15"
            },
            "range": {
                "date_apres": 13080715,
                "date_avant": 13080715
            }
        },
        {
            "type": "genre",
            "value": "Mandement (littere cum filo canapis)"
        },
        {
            "type": "edition_autre",
            "value": "<i>Regestum Clementis papae quinti<\/i>, n. 3569."
        }
    ]
}