{
    "id": 20803,
    "name": "aposcripta-790",
    "type": "acte",
    "url": "http:\/\/telma-chartes.irht.cnrs.fr\/aposcripta\/notice\/20803",
    "project_slug": "aposcripta",
    "project_label": "APOSCRIPTA \u2013 Lettres des papes",
    "user": "lettrespontificalesadmin",
    "last_update": "2020-10-19 16:26:53",
    "licence": "Attribution - Pas d\u2019Utilisation Commerciale - Partage dans les M\u00eames Conditions 3.0 France (CC BY-NC-SA 3.0 FR) ",
    "licence_url": "https:\/\/creativecommons.org\/licenses\/by-nc-sa\/3.0\/fr\/",
    "elements": [
        {
            "type": "pape",
            "value": "Alexandre III (1159-1181)"
        },
        {
            "type": "date_lieu",
            "value": "n.c."
        },
        {
            "type": "date_libre",
            "value": "1178"
        },
        {
            "type": "analyse",
            "value": "Alexander\u00a0III Henricum Remensem thesaurarium rogat, ut, quo B. cancellarius Carnotensis a sese investitus sit, archidiaconatum Aurelianensem pacifice ei possidendum relinquat."
        },
        {
            "type": "transcription",
            "value": "<?xml version=\"1.0\" encoding=\"UTF-8\"?>\nHenrico Remensi thesaurario. Ex litteris Aurelianensis episcopi1 et aliorum multorum et dilecti filii nostri Petri tituli sancti Grisogonia presbyteri cardinalis, apostolicae sedis legati, auribus nostris insonuit, quod idem episcopus post resignationem Herberti quondam Aurelianensis archidiaconi eundem archidiaconatum vacantem tibi contulit, priusquam dilectus filius noster B. Carnotensis cancellarius nostras ei litteras presentasset. Verum quia idem cancellarius ante nuntiorum tuorum adventum diutius expectaverat et praefatus episcopus ei frequenter illuserat, ne ipsius tergiversationibus ulterius posset indebite fatigari, eum de communi fratrum nostrorum consilio de prescripto archidiaconatu per anulum aureum investivimus. Ipse quidem constanter asseruit nec in presentia nuntiorum tuorum verbum mutavit, quod, cum praefato episcopo litteras nostras exhibuit et semper donec vixit idem Herbertus, se ut archidiaconum gessit\u00a0; nec unquam in exhibitione litterarum nostrarum aliquid fuit de tua investitura propositum. Quoniam igitur nobis esset admodum verecundum, si factum nostrum caliditate cuiuslibet solveretur, et tibi expedit plurimum, nobis in hac parte deferre, cum promotioni tue consideratione karissimi in Christo filii nostri L(udovici) illustris Francorum regis et tui ipsius, quem sincere diligimus, velimus intendere diligenter, discretionem tuam, sicut unquam possumus, rogamus monentes attentius et hortamur, quatinus honorem ipsum, precum nostrarum intuitu et quia tibi dubium est subire iudicium, praedicto cancellario relinquas pacifice possidendum.\n"
        },
        {
            "type": "edition",
            "value": "Samuel Loewenfeld, <i>Epistolae pontificum romanorum ineditae<\/i>, Leipzig : Veit et Comp., 1885, n. 291, p. 168"
        },
        {
            "type": "sources_manuscrites",
            "value": "Reg. Alex. fragm. ep.\u00a01, l.\u00a0l. fol.\u00a0108.",
            "children": {
                "type_source": "Registre de la chancellerie apostolique"
            }
        },
        {
            "type": "notes_historiques",
            "value": "Manassis.",
            "children": {
                "numero_note": "1"
            }
        },
        {
            "type": "apparat_critique",
            "value": "Grisogonen\u0304<i>cod.<\/i>",
            "children": {
                "numero_note": "a"
            }
        },
        {
            "type": "date",
            "value": "apres 1178 - avant 1178",
            "children": {
                "date_deb_annee": "1178",
                "date_deb_type": "apres",
                "date_fin_annee": "1178",
                "date_fin_type": "avant"
            },
            "range": {
                "date_apres": 11780000,
                "date_avant": 11789999
            }
        },
        {
            "type": "genre",
            "value": "Bulle"
        }
    ]
}