{
    "id": 24973,
    "name": "aposcripta-2100",
    "type": "acte",
    "url": "http:\/\/telma-chartes.irht.cnrs.fr\/aposcripta\/notice\/24973",
    "project_slug": "aposcripta",
    "project_label": "APOSCRIPTA \u2013 Lettres des papes",
    "user": "l_valliere",
    "last_update": "2020-10-19 16:27:37",
    "licence": "Attribution - Pas d\u2019Utilisation Commerciale - Partage dans les M\u00eames Conditions 3.0 France (CC BY-NC-SA 3.0 FR) ",
    "licence_url": "https:\/\/creativecommons.org\/licenses\/by-nc-sa\/3.0\/fr\/",
    "elements": [
        {
            "type": "pape",
            "value": "Gr\u00e9goire IX (1227-1241)"
        },
        {
            "type": "destinataire",
            "value": "Le roi de France Louis IX"
        },
        {
            "type": "date_libre",
            "value": "idus novembris, anno decimo"
        },
        {
            "type": "date",
            "value": " 1236\/11\/13",
            "children": {
                "date_deb_jour": "13",
                "date_deb_mois": "11",
                "date_deb_annee": "1236"
            },
            "range": {
                "date_apres": 12361113,
                "date_avant": 12361113
            }
        },
        {
            "type": "date_lieu",
            "value": "Terni"
        },
        {
            "type": "genre",
            "value": "Titre, g\u00e9n\u00e9ral (littere gratiose, cum filo serico)"
        },
        {
            "type": "analyse",
            "value": "Gregorius papa IX carissimo in Christo filio L[udovico] regi Francorum indulget ut nulli liceat capellas regias ecclesiastico supponere interdicto nisi de licentia Sedis Apostolice speciali."
        },
        {
            "type": "sources_manuscrites",
            "value": "E. FRANCE, Paris, Archives nationales, J 686\/69 <i>bis<\/i>. Original scell\u00e9 (bulle de plomb sur lacs de soie rouge et jaune ; cf. <i>Inventaire<\/i>, n. 6047).",
            "children": {
                "type_source": "",
                "source_edition": ""
            }
        },
        {
            "type": "sources_manuscrites",
            "value": "R. CIT\u00c9 DU VATICAN, Archivio segreto Vaticano, <i>Registra Vaticana<\/i> 18, ep. 263, fol. 204v."
        },
        {
            "type": "regeste",
            "value": "Alexandre Teulet, <i>Layettes du Tr\u00e9sor des chartes<\/i>, II, Paris : Henri Plon, 1866 <a target=\"_blank\" href=\"http:\/\/gallica.bnf.fr\/ark:\/12148\/bpt6k31580p\/f416.image\"> [en ligne]<\/a>, n. 2465, p. 327 <a target=\"_blank\" href=\"https:\/\/francearchives.fr\/fr\/facomponent\/9ca93946d456c3c2ec4cba855c19c615d763f55e\">[num\u00e9ris\u00e9e sur le site des Archives de France]<\/a>, d'apr\u00e8s E."
        },
        {
            "type": "regeste",
            "value": "Potthast, <i>Regesta pontificum Romanorum<\/i>, n. 10260 <a target=\"_blank\" href=\"https:\/\/archive.org\/stream\/RegestaPontificumRomanorum\/ph#page\/n883\/mode\/2up\"> [en ligne]<\/a>."
        },
        {
            "type": "regeste",
            "value": "Lucien Auvray, <i>Les registres de Gr\u00e9goire IX<\/i>, Paris, 1890-1955, n. 3375, d'apr\u00e8s R."
        },
        {
            "type": "regeste",
            "value": "Bernard Barbiche, <i>Les actes pontificaux originaux des Archives Nationales de Paris<\/i>, Cit\u00e9 du Vatican, 1975-1982, II, n. 398, p. 155, d\u2019apr\u00e8s E."
        },
        {
            "type": "transcription",
            "value": "<?xml version=\"1.0\" encoding=\"UTF-8\"?>\nIlla filialis devotio... Datum apud Interamnem, idus novembris, pontificatus nostri anno decimo.\n"
        },
        {
            "type": "remarques",
            "value": "\u00e0 \u00e9diter"
        }
    ]
}