{
    "id": 20200,
    "name": "aposcripta-187",
    "type": "acte",
    "url": "http:\/\/telma-chartes.irht.cnrs.fr\/aposcripta\/notice\/20200",
    "project_slug": "aposcripta",
    "project_label": "APOSCRIPTA \u2013 Lettres des papes",
    "user": "lettrespontificalesadmin",
    "last_update": "2020-10-19 16:26:46",
    "licence": "Attribution - Pas d\u2019Utilisation Commerciale - Partage dans les M\u00eames Conditions 3.0 France (CC BY-NC-SA 3.0 FR) ",
    "licence_url": "https:\/\/creativecommons.org\/licenses\/by-nc-sa\/3.0\/fr\/",
    "elements": [
        {
            "type": "pape",
            "value": "Jean XXII (1316-1334)"
        },
        {
            "type": "date_lieu",
            "value": "Avignon"
        },
        {
            "type": "date_libre",
            "value": "30 novembre 1321"
        },
        {
            "type": "analyse",
            "value": "Le pape charge l\u2019\u00e9v\u00eaque de Valence de faire une enqu\u00eate sur la vie des religieux massacr\u00e9s, sur leur martyre et la profession de foi qui l\u2019a pr\u00e9c\u00e9d\u00e9, et les miracles qui se produisent \u00e0 leur tombeau, dans l\u2019\u00e9glise des fr\u00e8res mineurs de Valence<a class=\"note\" href=\"#note-1\">1<\/a>."
        },
        {
            "type": "transcription",
            "value": "<?xml version=\"1.0\" encoding=\"UTF-8\"?>\nVenerabili fratri .. episcopo Valentin. \u2014 Vox sanguinis innocentis... \u2014 Datum ut supra.\n"
        },
        {
            "type": "edition",
            "value": "Jean-Marie Vidal, <i>Bullaire de l\u2019Inquisition fran\u00e7aise au XIV<sup>e<\/sup> si\u00e8cle et jusqu'\u00e0 la fin du Grand Schisme<\/i>, Paris : Letouzey et An\u00e9, 1913, n. 35, p. 66-67"
        },
        {
            "type": "sources_manuscrites",
            "value": "<i>Reg. Vat.<\/i>, t. <span class=\"smal-caps\">lxxiii<\/span>, n. 43, <i>de Cur."
        },
        {
            "type": "sources_manuscrites",
            "value": "Reg. Aven.<\/i>, t. <span class=\"smal-caps\">xvii<\/span>, fol. 382 v\u00b0"
        },
        {
            "type": "sources_manuscrites",
            "value": "Wadding, <i>loc. cit.<\/i>, n. <span class=\"smal-caps\">xxiv<\/span> (<i>in ext.<\/i>)"
        },
        {
            "type": "sources_manuscrites",
            "value": "Raynaldi, <i>Annales<\/i>, adann. 1321, n. <span class=\"smal-caps\">xvii<\/span>"
        },
        {
            "type": "sources_manuscrites",
            "value": "Eubel, <i>Bull.<\/i>, n. 454 (<i>in ext.<\/i>)"
        },
        {
            "type": "sources_manuscrites",
            "value": "Coulon, n. 1336 (anal.)"
        },
        {
            "type": "sources_manuscrites",
            "value": "Mollat, n. 16124 (anal.)."
        },
        {
            "type": "notes_historiques",
            "value": "Un ancien <i>provincial<\/i> des fr\u00e8res mineurs dit en parlant de cette \u00e9glise : <i>Ubi frater Petrus et frater Cathalanus ab haereticis martirizati requiescunt, qui in hora mortis suae apparuerunt cuidam sanctimoniali infirmae, primo sanguinolenti transeuntes ante illam, postea totaliter gloriosi, innuentes ei quod in crastino iret<\/i> <i>obviam corporibus eorum pro recuperanda salute ; quo facto perfecte curata est<\/i>. Eubel, <i>Bull.<\/i>, p. 588, note 96 ; cf. <i>Chron. XXIV gener.<\/i>, p. 479- dernier chroniqueur suppose que le proc\u00e8s de canonisation de ces deux fr\u00e8res fut arr\u00eat\u00e9 \u00e0 cause des troubles suscit\u00e9s dans l\u2019ordre par les fraticelles.",
            "children": {
                "numero_note": "1  , p 479-480"
            }
        },
        {
            "type": "date",
            "value": "1321\/11\/30",
            "children": {
                "date_deb_annee": "1321",
                "date_deb_mois": "11",
                "date_deb_jour": "30"
            },
            "range": {
                "date_apres": 13211130,
                "date_avant": 13211130
            }
        },
        {
            "type": "genre",
            "value": "Mandement (littere cum filo canapis)"
        },
        {
            "type": "destinataire",
            "value": "L'\u00e9v\u00eaque de Valence"
        }
    ]
}