{
    "id": 149642,
    "name": "aposcripta-9205",
    "type": "acte",
    "url": "http:\/\/telma-chartes.irht.cnrs.fr\/aposcripta\/notice\/149642",
    "project_slug": "aposcripta",
    "project_label": "APOSCRIPTA \u2013 Lettres des papes",
    "user": "lettrespontificalesadmin",
    "last_update": "2020-10-19 16:40:02",
    "licence": "Attribution - Pas d\u2019Utilisation Commerciale - Partage dans les M\u00eames Conditions 3.0 France (CC BY-NC-SA 3.0 FR) ",
    "licence_url": "https:\/\/creativecommons.org\/licenses\/by-nc-sa\/3.0\/fr\/",
    "elements": [
        {
            "type": "pape",
            "value": "Alexandre IV (1254-1261)"
        },
        {
            "type": "destinataire",
            "value": ". . abbati in Lennin Cisterciensis ordinis Brandeburgensis diocesis et . . priori provinciali fratrum Predicatorum Alamannie"
        },
        {
            "type": "date_libre",
            "value": "nonis maii, anno I"
        },
        {
            "type": "date",
            "value": " 1255\/05\/07",
            "children": {
                "date_deb_annee": "1255",
                "date_deb_mois": "05",
                "date_deb_jour": "07"
            },
            "range": {
                "date_apres": 12550507,
                "date_avant": 12550507
            }
        },
        {
            "type": "date_lieu",
            "value": "Neapoli"
        },
        {
            "type": "sources_manuscrites",
            "value": "R. CIT\u00c9 DU VATICAN, Archivio Segreto Vaticano, <hi rend=\"italic\">Registra Vaticana<\/hi> ... Al.\u00a0IV Reg. Vol.\u00a0I, 54; Lib.\u00a0I, 369. Exemplar, quod Ripoll, Bull. Praedicat. t.\u00a0I, p.\u00a0282, n.\u00a028 edidit, contulimus cum Regestis.",
            "children": {
                "type_source": "Registre de la chancellerie apostolique"
            }
        },
        {
            "type": "genre",
            "value": "Mandement (littere cum filo canapis)"
        },
        {
            "type": "analyse",
            "value": "Alexander IV papa abbati in Lenin et priori provinciali Praedicatorum Alamanniae propter servitia ab [Alberto] duce Saxoniae et Iohanne marchione Brandeburgensi W[illelmi] regis Romanorum negotio generali impensa mandat, ut cum marchione et [Iutta] nata ducis super matrimonio contrahendo dispensent [Rodenberg]."
        },
        {
            "type": "transcription",
            "value": "<?xml version=\"1.0\" encoding=\"UTF-8\"?>\n. . abbati in Lennin Cisterciensis ordinis Brandeburgensis diocesis et . . priori provinciali fratrum Predicatorum Alamannie.Ex parte dilectorum filiorum nobilium virorum . . ducis Saxonie ac Iohannis marchionis Brandeburgensis fuit nobis humiliter supplicatum, ut eidem marchioni et nobili mulieri . . nate dicti ducis contrahendi matrimonium ad invicem et confirmandi contractum ac in eo licite remanendi \u2014 non obstante quod iidem tertia consanguinitatis linea sunt coniuncti \u2014 licentiam de benignitate sedis apostolice largiremur. Licet igitur coniugalis contractum copule inter tales fieri canones districtius interdicant et raro vel numquam, nisi ex magne utilitatis et necessitatis causa, sedes ipsa consueverit impedimentum huiusmodi per dispensationis gratiam submovere, quia tamen plura, propter que sedis eiusdem clementia potest honeste ad predictam inclinari gratiam, fuerunt proposita coram nobis, presertim prompta exhibitio utilium et magnorum servitiorum ab eisdem nobilibus in ecclesie ac carissimi in Christo filii nostri W. regis Romanorum illustris generali negotio impensorum et odiorum preteritorum fomitis in illis partibus extinctio salutaris et cautela, qua per hoc futuris malis posse dicitur precaveri, nos, eisdem nobilibus omnem quam cum Deo possumus gratiam facere suadentibus eorum meritis intendentes, discretioni vestre, de qua plenam in Domino fiduciam obtinemus, per apostolica scripta mandamus, quatinus, propositis huiusmodi servitiorum et aliarum necessitatum utilibus causis diligentius inquisitis et attente perspectis, eisdem auctoritate nostra petitam licentiam concedatis, cum ipsis super impedimento consanguinitatis huiusmodi dispensando, prout vestra circumspectio secundum Deum viderit expedire. Quod si non omnes etc.Dat. Neapoli, Nonis Maii, anno I\u00b0.\n"
        },
        {
            "type": "edition",
            "value": "Ici reprise de Karl Rodenberg, Epistolae s. XIII e regestis pontificum romanorum selectae, III, Berlin : Weidmann (MGH), 1894, n.\u00a0399, p.\u00a0358."
        },
        {
            "type": "edition_autre",
            "value": "?"
        },
        {
            "type": "regeste",
            "value": "?"
        },
        {
            "type": "bibliographie_generale",
            "value": "?"
        },
        {
            "type": "apparat_critique",
            "value": "?",
            "children": {
                "numero_note": "a"
            }
        },
        {
            "type": "apparat_critique",
            "value": "?",
            "children": {
                "numero_note": "b"
            }
        },
        {
            "type": "apparat_critique",
            "value": "?",
            "children": {
                "numero_note": "c"
            }
        },
        {
            "type": "apparat_critique",
            "value": "?",
            "children": {
                "numero_note": "d"
            }
        },
        {
            "type": "apparat_critique",
            "value": "?",
            "children": {
                "numero_note": "e"
            }
        },
        {
            "type": "apparat_critique",
            "value": "?",
            "children": {
                "numero_note": "f"
            }
        },
        {
            "type": "notes_historiques",
            "value": "?",
            "children": {
                "numero_note": "1"
            }
        },
        {
            "type": "notes_historiques",
            "value": "?",
            "children": {
                "numero_note": "2"
            }
        },
        {
            "type": "notes_historiques",
            "value": "?",
            "children": {
                "numero_note": "3"
            }
        }
    ]
}