{
    "id": 147044,
    "name": "aposcripta-6672",
    "type": "acte",
    "url": "http:\/\/telma-chartes.irht.cnrs.fr\/aposcripta\/notice\/147044",
    "project_slug": "aposcripta",
    "project_label": "APOSCRIPTA \u2013 Lettres des papes",
    "user": "l_valliere",
    "last_update": "2020-10-19 16:39:26",
    "licence": "Attribution - Pas d\u2019Utilisation Commerciale - Partage dans les M\u00eames Conditions 3.0 France (CC BY-NC-SA 3.0 FR) ",
    "licence_url": "https:\/\/creativecommons.org\/licenses\/by-nc-sa\/3.0\/fr\/",
    "elements": [
        {
            "type": "pape",
            "value": "Cl\u00e9ment IV (1265-1268)"
        },
        {
            "type": "destinataire",
            "value": "Le cardinal-pr\u00eatre de San Lorenzo <i>in Lucina<\/i> Gui, l\u00e9gat du Si\u00e8ge apostolique"
        },
        {
            "type": "date_libre",
            "value": "idibus junii, anno primo"
        },
        {
            "type": "date",
            "value": "1265\/06\/13",
            "children": {
                "date_deb_annee": "1265",
                "date_deb_mois": "06",
                "date_deb_jour": "13"
            },
            "range": {
                "date_apres": 12650613,
                "date_avant": 12650613
            }
        },
        {
            "type": "date_lieu",
            "value": "P\u00e9rouse"
        },
        {
            "type": "genre",
            "value": "Titre, g\u00e9n\u00e9ral (littere gratiose, cum filo serico)"
        },
        {
            "type": "analyse",
            "value": "G[uidoni] tit. S. Laurentii in lucina presb. card. apostolicae Sedis legato in regno Daciae concedit facultatem puniendi poena canonica litterarum abusores apostolicarum, sed cum moderamine."
        },
        {
            "type": "edition",
            "value": "Holger Frederik R\u00f6rdam, Thomas Skat R\u00f6rdam, <i>Ny kirkehistoriske Samlinger<\/i>, Copenhague, 1864-1866, t. III, n. 46, p. 116."
        },
        {
            "type": "regeste",
            "value": "Potthast, <i>Regesta pontificum Romanorum<\/i>, n. 19201 <a target=\"_blank\" href=\" http:\/\/opacplus.bsb-muenchen.de\/title\/BV004241514\/ft\/bsb11316018?page=621\"> [en ligne]<\/a>."
        },
        {
            "type": "transcription",
            "value": "<?xml version=\"1.0\" encoding=\"UTF-8\"?>\nCum de tue...\n"
        }
    ]
}