{
    "id": 20906,
    "name": "aposcripta-893",
    "type": "acte",
    "url": "http:\/\/telma-chartes.irht.cnrs.fr\/aposcripta\/notice\/20906",
    "project_slug": "aposcripta",
    "project_label": "APOSCRIPTA \u2013 Lettres des papes",
    "user": "lettrespontificalesadmin",
    "last_update": "2020-10-19 16:26:54",
    "licence": "Attribution - Pas d\u2019Utilisation Commerciale - Partage dans les M\u00eames Conditions 3.0 France (CC BY-NC-SA 3.0 FR) ",
    "licence_url": "https:\/\/creativecommons.org\/licenses\/by-nc-sa\/3.0\/fr\/",
    "elements": [
        {
            "type": "pape",
            "value": "Cl\u00e9ment III (1187-1191)"
        },
        {
            "type": "date_lieu",
            "value": "Latran"
        },
        {
            "type": "date_libre",
            "value": "1189 Mart 14"
        },
        {
            "type": "analyse",
            "value": "Clemens\u00a0III Maioris-monasterii constitutionem, qua hospitibus non carnes sed pisces aliaeque res proponantur, confirmat."
        },
        {
            "type": "transcription",
            "value": "<?xml version=\"1.0\" encoding=\"UTF-8\"?>\nClemens episcopus, servus servorum Dei, dilectis filiis abbati1 et capitulo Maioris monasterii, salutem et apostolicam benedictionem. Ea quae ad propositum sanctae religionis adiiciuntur quanto de maioris mediocritatis et honestatis amore emanare videntur tanto lubentius amplectimur et iuxta postulantium desiderium effectu volumus subsecutivo complere. Eapropter, dilecti in Domino filii, vestris iustis postulationibus grato concurrentes assensu, constitutionem quam ad honestatem et mediocritatem servandam praesente olim in capitulo vestro bonae memoriae H[enrico] Albanensi episcopo provida discretione fecistis, scilicet quod infra septa monasterii vestri de cetero carnes hospitibus non apponantur sed piscium vel aliarum rerum quas vobis fidelibus suis Deus concesserit vel facultas monasterii ministraverit esu quilibet sit contentus, auctoritate apostolica confirmamus, iuxta praefatum statutum carnium epulas in vestro monasterio districtius prohibens. Nulli ergo omnino hominum liceat hanc paginam nostrae confirmationis infringere vel ei ausu temerario contraire. Si quis autem hoc attentare praesumserit, indignationem omnipotentis Dei et beatorum Petri et Pauli apostolorum eius se noverit incursurum. Datum Lateranis, II idus martii, pontificatus nostri anno secundo.\n"
        },
        {
            "type": "edition",
            "value": "Samuel Loewenfeld, <i>Epistolae pontificum romanorum ineditae<\/i>, Leipzig : Veit et Comp., 1885, n. 394, p. 242"
        },
        {
            "type": "sources_manuscrites",
            "value": "Bibl. nat. Paris. ms. lat.\u00a012879. fol.\u00a0195. Descripsit Martene ex autographo."
        },
        {
            "type": "notes_historiques",
            "value": "Geoffrido.",
            "children": {
                "numero_note": "1"
            }
        },
        {
            "type": "date",
            "value": "1189\/03\/14",
            "children": {
                "date_deb_annee": "1189",
                "date_deb_mois": "03",
                "date_deb_jour": "14"
            },
            "range": {
                "date_apres": 11890314,
                "date_avant": 11890314
            }
        },
        {
            "type": "genre",
            "value": "Lettre"
        },
        {
            "type": "genre",
            "value": "Bulle"
        }
    ]
}