{
    "id": 149382,
    "name": "aposcripta-8945",
    "type": "acte",
    "url": "http:\/\/telma-chartes.irht.cnrs.fr\/aposcripta\/notice\/149382",
    "project_slug": "aposcripta",
    "project_label": "APOSCRIPTA \u2013 Lettres des papes",
    "user": "lettrespontificalesadmin",
    "last_update": "2020-10-19 16:39:57",
    "licence": "Attribution - Pas d\u2019Utilisation Commerciale - Partage dans les M\u00eames Conditions 3.0 France (CC BY-NC-SA 3.0 FR) ",
    "licence_url": "https:\/\/creativecommons.org\/licenses\/by-nc-sa\/3.0\/fr\/",
    "elements": [
        {
            "type": "pape",
            "value": "Innocent IV (1243-1254)"
        },
        {
            "type": "destinataire",
            "value": ". . episcopo Placentino"
        },
        {
            "type": "date_libre",
            "value": "VII idus februarii, anno X"
        },
        {
            "type": "date",
            "value": " 1253\/02\/07",
            "children": {
                "date_deb_annee": "1253",
                "date_deb_mois": "02",
                "date_deb_jour": "07"
            },
            "range": {
                "date_apres": 12530207,
                "date_avant": 12530207
            }
        },
        {
            "type": "date_lieu",
            "value": "Perusii"
        },
        {
            "type": "sources_manuscrites",
            "value": "R. CIT\u00c9 DU VATICAN, Archivio Segreto Vaticano, <hi rend=\"italic\">Registra Vaticana<\/hi> ... Inn.\u00a0IV Reg. Vol.\u00a0II, 236; Lib.\u00a0X, 410. Exemplar tabularii contulimus cum Regestis.",
            "children": {
                "type_source": "Registre de la chancellerie apostolique"
            }
        },
        {
            "type": "genre",
            "value": "Mandement (littere cum filo canapis)"
        },
        {
            "type": "analyse",
            "value": "Innocentius IV papa [Alberto] episcopo Placentino facultatem concedit, ut cum propter discordiam inter cives Placentinos exortam in civitate sua morari non possit, ea, quae ad officium suum spectent, alibi existens, capitulo non requisito, ordinet [Rodenberg]."
        },
        {
            "type": "transcription",
            "value": "<?xml version=\"1.0\" encoding=\"UTF-8\"?>\n. . episcopo Placentino.Sincere devotionis affectus, quem ad nos et Romanam ecclesiam habere dinosceris, merito nos inducit, ut tuis petitionibus, quantum cum Deo possumus, favorabiliter annuamus. Cum igitur, sicut in nostra proposuisti presentia constitutus, propter gravem discordiam olim inter cives Placentinos exortam comode non possis ad presens in eadem civitate morari, nos, tuis devotis supplicationibus inclinati, tibi in nostra curia seu etiam alibi existenti cognoscendi de causis, quas inter subditos tuos moveri contigerit, comitendi eas aliis lege tibi diocesana subiectis ac statuendi et ordinandi de ecclesiis ac instituendi et destituendi, prout ad tuum officium spectat, clericos Placentine civitatis et diocesis, secundum quod utilius et melius expedire videris, capitulo Placentino minime requisito, ac si in eadem civitate personaliter resideres, donec secure ad illam redire valeas et ibidem comode commorari, auctoritate presentium concedimus facultatem. Nulli ergo \u2014 nostre concessionis etc.Dat. Perusii, VII Idus Februarii, anno X\u00b0.\n"
        },
        {
            "type": "edition",
            "value": "Ici reprise de Karl Rodenberg, Epistolae s. XIII e regestis pontificum romanorum selectae, III, Berlin : Weidmann (MGH), 1894, n.\u00a0185, p.\u00a0155."
        },
        {
            "type": "edition_autre",
            "value": "?"
        },
        {
            "type": "regeste",
            "value": "?"
        },
        {
            "type": "bibliographie_generale",
            "value": "?"
        },
        {
            "type": "apparat_critique",
            "value": "?",
            "children": {
                "numero_note": "a"
            }
        },
        {
            "type": "apparat_critique",
            "value": "?",
            "children": {
                "numero_note": "b"
            }
        },
        {
            "type": "apparat_critique",
            "value": "?",
            "children": {
                "numero_note": "c"
            }
        },
        {
            "type": "apparat_critique",
            "value": "?",
            "children": {
                "numero_note": "d"
            }
        },
        {
            "type": "apparat_critique",
            "value": "?",
            "children": {
                "numero_note": "e"
            }
        },
        {
            "type": "apparat_critique",
            "value": "?",
            "children": {
                "numero_note": "f"
            }
        },
        {
            "type": "notes_historiques",
            "value": "?",
            "children": {
                "numero_note": "1"
            }
        },
        {
            "type": "notes_historiques",
            "value": "?",
            "children": {
                "numero_note": "2"
            }
        },
        {
            "type": "notes_historiques",
            "value": "?",
            "children": {
                "numero_note": "3"
            }
        }
    ]
}