{
    "id": 149914,
    "name": "aposcripta-9477",
    "type": "acte",
    "url": "http:\/\/telma-chartes.irht.cnrs.fr\/aposcripta\/notice\/149914",
    "project_slug": "aposcripta",
    "project_label": "APOSCRIPTA \u2013 Lettres des papes",
    "user": "lettrespontificalesadmin",
    "last_update": "2020-10-19 16:40:06",
    "licence": "Attribution - Pas d\u2019Utilisation Commerciale - Partage dans les M\u00eames Conditions 3.0 France (CC BY-NC-SA 3.0 FR) ",
    "licence_url": "https:\/\/creativecommons.org\/licenses\/by-nc-sa\/3.0\/fr\/",
    "elements": [
        {
            "type": "pape",
            "value": "Cl\u00e9ment IV (1265-1268)"
        },
        {
            "type": "destinataire",
            "value": "Ad perpetuam rei memoriam"
        },
        {
            "type": "date_libre",
            "value": "IV nonas aprilis, indictione IX, MCCLXVI, anno secundo"
        },
        {
            "type": "date",
            "value": " 1266\/04\/02",
            "children": {
                "date_deb_annee": "1266",
                "date_deb_mois": "04",
                "date_deb_jour": "02"
            },
            "range": {
                "date_apres": 12660402,
                "date_avant": 12660402
            }
        },
        {
            "type": "date_lieu",
            "value": "Perusii"
        },
        {
            "type": "sources_manuscrites",
            "value": "R. CIT\u00c9 DU VATICAN, Archivio Segreto Vaticano, <hi rend=\"italic\">Registra Vaticana<\/hi> ... Clem.\u00a0IV Reg. Vol.\u00a0I, 116; Lib.\u00a0II, cur.\u00a01. Epistolam ex Regestis descripsit V. Cl. Monaci.",
            "children": {
                "type_source": "Registre de la chancellerie apostolique"
            }
        },
        {
            "type": "genre",
            "value": "Mandement (littere cum filo canapis)"
        },
        {
            "type": "analyse",
            "value": "Clemens IV papa confirmat ordinationem cum Carolo rege Siciliae ante collationem regni Siciliae a. 1265, Iun. 21 de senatu Urbis habitam [Rodenberg]."
        },
        {
            "type": "transcription",
            "value": "<?xml version=\"1.0\" encoding=\"UTF-8\"?>\nAd perpetuam rei memoriam.Quanto maiora maiori consilio indigent et cum maturiori sunt providentia peragenda, tanto circa ea, ne vacillent in posterum vel cavillationi subiaceant aut quomodolibet possint in dubium revocari, maior est cautele discretio adhibenda, ut qualibet ambiguitate vel obscuritate summota sic lucida sint et clara, sic auctoritate, cui refragari non liceat, communita, ut debitum robur firmitatis obtineant nec sit fas vel facile contra ea agere vel venire. Sane, licet carissimus in Christo filius noster Karolus Sicilie rex illustris dudum, antequam ipsius regni Sicilie collationem seu concessionem et investituram a dilectis filiis nostris Anibaldo Basilice Duodecim Apostolorum presbytero, Riccardo Sancti Angeli, Iohanne Sancti Nicolai in Carcere Tulliano et Iacobo Sancte Marie in Cosmidin diaconis cardinalibus auctoritate nostra, que super hoc specialiter ipsis cardinalibus a nobis concessa fuerat, reciperet, dum adhuc in comitatu suo Provincie moraretur, presentibus dilecto filio nostro S[imone] tituli Sancte Cecilie presbytero cardinali et venerabili fratre nostro B[artholomeo] archiepiscopo Cusentino ac dilecto filio magistro Petro notario nostro, nostram ordinationem super senatus articulo acceptasset et fecisset ac complevisset omnia in eadem ordinatione contenta, que tunc facienda et complenda imminebant eidem, et super acceptatione huiusmodi suas litteras predicto exhibuisset legato, prout etiam ipse Karolus coram prefatis cardinalibus et pluribus aliis fidedignis constanter asseruit et publice confessus extitit ac insuper infrascripti tenor indicat instrumenti: quia tamen huiusmodi littere propter viarum discrimina non potuerant ad sedem apostolicam pervenire, idem Karolus, postmodum existens in Urbe, ad habundantem cautelam et omne tollendum dubium, et ut omnia fierent clare, simpliciter, explicite ac aperte, omni prorsus protestatione et obscuritate sublatis, ordinationem prefatam de novo per singulos eius articulos coram ipso distincte ac per ordinem lectos scienter, sponte ac libere acceptavit et etiam approbavit, iurans tactis sacrosanctis evangeliis et sub fide prestiti iuramenti promittens se facturum et per omnia impleturum ea, que in ordinatione huiusmodi continentur, prout in publico instrumento exinde confecto, ipsius Karoli et predicti archiepiscopi Cusentini ac venerabilis fratris nostri Bertrandi Avinionensis episcopi sigillis pendentibus communito, plenius continetur. Nos igitur, ut nulla super hiis possit dubitatio exoriri, sed predicta eo validiori vigeant firmitate, quo fortius apostolico fuerint munimine roborata, quod super premissis a prefato rege ante factam sibi concessionem regni predicti ac etiam postmodum in Urbe prefata factum est, ratum habentes et firmum, id auctoritate apostolica confirmamus et presentis scripti patrocinio communimus. Tenores autem ordinationis et instrumenti predictorum de verbo ad verbum presentibus fecimus annotari. Tenor quidem ordinationis prefate talis est:\u2018Nobilis vir Karolus Andegavie ac Provincie comes prestito iuramento promittat, quod dabit operam bona fide, ut Romanis non iuret regere Urbem ad vitam.Item quod finito triennio, a die quo fiet ei regni Sicilie concessio computando, vel si infra triennium ipsum totum predictum regnum vel maiorem eius partem, cui minor non possit resistere, acquisierit, vel si forte, quod absit, illud acquirere non poterit et de hoc liquido constiterit, senatum omnino dimittet, illum extunc per se vel per alium nullatenus resumpturus, nec procuraturus quomodolibet, quod senatum ipsum quivis alius perpetuo ad vitam habeat, aut quod ad illum aliquis etiam usque ad certum tempus absque licentia Romani pontificis assumatur.Item quod dabit operam bona fide, ut idem senatus ad dispositionem et ordinationem Romane ecclesie revertatur, cives scilicet Romanos ad hoc, sicut melius et honestius poterit, inducendo.Item quod dum senatum tenuerit, nichil scienter in terris ipsius ecclesie, demaniis scilicet et feudis, in eiusdem ecclesie vel suorum preiudicium faciet contra ecclesiam ipsam et ecclesiasticam libertatem; et si ipse vel sui quicquam tale fecerint, id sine more dispendio revocabit.Huiusmodi autem iuramentum prestabit idem comes in presentia fidedignarum personarum, quarum tres vel due ad minus sint pontificali predite dignitate, dabitque super hiis, videlicet super iuramento et promissione huiusmodi, suas patentes litteras, sigillis tam suo quam huiusmodi trium vel duorum pontificum sigillatas, in quibus utique litteris nomina personarum, coram quibus dictum iuramentum prestabitur, exprimentur; ac se nichilominus per easdem litteras obligabit ad infrascriptas penas, quas incurrat, si contra premissa vel eorum aliquod fecerit, videlicet quod preter reatum periurii, quod incurret, eo ipso idem excommunicationis et terra sua ubilibet constituta interdicti sententiis subiaceant; quas utique sententias si dictus comes per mensem sustinuerit, eo ipso cadat a iure senatus, et si postea de facto senatum tenere contenderit seu intromiserit se de illo, cadat similiter eo ipso ab omni iure, quod erit ei in regno Sicilie acquisitum. Duplicentur autem huiusmodi littere ad cautelam propter viarum discrimina et sic duplicate assignentur dilecto filio nostro S. tituli Sancte Cecilie presbytero cardinali, apostolice sedis legato, si presens fuerit, vel alii persone, quam ad hoc duxerimus deputandam, ita quod earundem litterarum altere deferantur vel mittantur ad nos et relique nostro et ecclesie Romane nomine in aliquo tuto loco fideliter deponantur, inibi ad opus nostrum et ipsius ecclesie conservande.\u2019Instrumenti vero predicti tenor talis est:\u2018In nomine Domini amen. Nos Karolus filius regis Francie, Dei gratia alme Urbis senator illustris, Andegavie, Provincie et Folkalkerii comes ac marchio Provincie, notum esse volumus universis, quod licet nos nuper in comitatu nostro Provincie existentes, in presentia venerabilium patrum dominorum S. tituli Sancte Cecilie presbyteri cardinalis, apostolice sedis legati, et B. archiepiscopi Cusentini necnon providi viri magistri Petri domini pape notarii, nuntiorum eiusdem sedis, acceptaverimus ordinationem a sanctissimo patre nostro et domino, domino C. divina providentia sacrosancte Romane et universalis ecclesie summo pontifice, super senatus articulo factam, cuius ordinationis tenor inferius est insertus, ac fecerimus et compleverimus omnia contenta in ordinatione predicta, que tunc nobis facienda et complenda imminebant, et super acceptatione huiusmodi et hiis omnibus nostras patentes litteras predicto legato duxerimus exhibendas, quia tamen propter viarum discrimina huiusmodi nostre littere nondum potuerunt ad sedem apostolicam pervenire, nos, ad habundantem cautelam et omne tollendum dubium, et ut omnia fiant clare, simpliciter, explicite et aperte, omni prorsus protestatione et obscuritate sublatis, predictam ordinationem tenore presentium acceptamus et etiam approbamus. Tenor autem ordinationis eiusdem talis est:\u201cNobilis vir Karolus Andegavie ac Provincie comes prestito iuramento promittat, etc. ut p.\u00a0660, lin.\u00a01-34 usque: conservande.\u201dIuramus igitur tactis sacrosanctis evangeliis et sub fide prestiti iuramenti promittimus, quod dabimus operam bona fide etc. mutatis mutandis ut p.\u00a0660, lin.\u00a02-16 usque: sine more dispendio curabimus revocare. Obligamus etiam nos ad infrascriptas penas, quas incurramus et incurrere volumus ipso facto, si contra premissa etc. mutatis mutandis ut p.\u00a0660, lin.\u00a023-28 usque: acquisitum. Huiusmodi autem acceptationem, approbationem, iuramentum, promissionem, obligationem et omnia premissa facimus in presentia venerabilium patrum dominorum Anibaldi Basilice Duodecim Apostolorum presbyteri, Riccardi Sancti Angeli, Iohannis Sancti Nicolai in Carcere Tulliano et Iacobi Sancte Marie in Cosmedyn diaconorum cardinalium, ac Bartholomei archiepiscopi Cusentini, Bertrandi episcopi Avinionensis, et fratris Paparoni electi Fuliginatis, necnon coram discretis viris magistris Iordano cantore Carnotensi, germano predicti domini Iohannis cardinalis, Gaufrido de Bellomonte cancellario Baiocensi, et Andrea de Spiliato domini pape capellanis, ac Bernardo de Littera canonico Ambianensi, Iohanne de Braysilva marescallo et Roberto de Baro familiaribus nostris, testibus ad hoc vocatis et rogatis. In cuius rei testimonium, munimen perpetuum et cautelam presens publicum instrumentum per subscriptum notarium exinde fieri et tam nostro quam predictorum archiepiscopi et episcopi sigillis fecimus sigillari et etiam duplicari et sic duplicatum assignavimus cardinalibus supradictis, ita quod huiusmodi instrumentorum alterum deferatur vel mittatur ad dominum papam et reliquum ipsius domini pape et ecclesie Romane nomine in aliquo tuto loco fideliter deponatur, inibi ad opus eiusdem domini pape et ipsius ecclesie conservandum.Actum Rome in claustro interiori ecclesie sancte Marie de Capitolio, anno Domini MCCLXV\u00b0, die Dominico XI Kalendas Iulii, indictione VIIIa, pontificatus domini Clementis pape IIII anno primo.Et ego Alexander de Verulis, publicus apostolice sedis auctoritate notarius, qui predictis omnibus interfui, de mandato prefati domini comitis presens publicum instrumentum propria manu scripsi et in publicam formam redegi meoque signo signavi rogatus.\u2019Nulli ergo \u2014 nostre confirmationis etc.Dat. Perusii per manum magistri Michaelis sancte Romane ecclesie vicecancellarii, IIII Nonas Aprilis, indictione VIIIIa, incarnationis Dominice anno MCCLXVI\u00b0, pontificatus vero domini Clementis pape IIII anno secundo.\n"
        },
        {
            "type": "edition",
            "value": "Ici reprise de Karl Rodenberg, Epistolae s. XIII e regestis pontificum romanorum selectae, III, Berlin : Weidmann (MGH), 1894, n.\u00a0652, p.\u00a0659."
        },
        {
            "type": "edition_autre",
            "value": "?"
        },
        {
            "type": "regeste",
            "value": "?"
        },
        {
            "type": "bibliographie_generale",
            "value": "?"
        },
        {
            "type": "apparat_critique",
            "value": "?",
            "children": {
                "numero_note": "a"
            }
        },
        {
            "type": "apparat_critique",
            "value": "?",
            "children": {
                "numero_note": "b"
            }
        },
        {
            "type": "apparat_critique",
            "value": "?",
            "children": {
                "numero_note": "c"
            }
        },
        {
            "type": "apparat_critique",
            "value": "?",
            "children": {
                "numero_note": "d"
            }
        },
        {
            "type": "apparat_critique",
            "value": "?",
            "children": {
                "numero_note": "e"
            }
        },
        {
            "type": "apparat_critique",
            "value": "?",
            "children": {
                "numero_note": "f"
            }
        },
        {
            "type": "notes_historiques",
            "value": "?",
            "children": {
                "numero_note": "1"
            }
        },
        {
            "type": "notes_historiques",
            "value": "?",
            "children": {
                "numero_note": "2"
            }
        },
        {
            "type": "notes_historiques",
            "value": "?",
            "children": {
                "numero_note": "3"
            }
        }
    ]
}