{
    "id": 149778,
    "name": "aposcripta-9341",
    "type": "acte",
    "url": "http:\/\/telma-chartes.irht.cnrs.fr\/aposcripta\/notice\/149778",
    "project_slug": "aposcripta",
    "project_label": "APOSCRIPTA \u2013 Lettres des papes",
    "user": "lettrespontificalesadmin",
    "last_update": "2020-10-19 16:40:04",
    "licence": "Attribution - Pas d\u2019Utilisation Commerciale - Partage dans les M\u00eames Conditions 3.0 France (CC BY-NC-SA 3.0 FR) ",
    "licence_url": "https:\/\/creativecommons.org\/licenses\/by-nc-sa\/3.0\/fr\/",
    "elements": [
        {
            "type": "pape",
            "value": "Urbain IV (1261-1264)"
        },
        {
            "type": "destinataire",
            "value": "Universis nostris et ecclesie Romane ceterisque Christi fidelibus"
        },
        {
            "type": "date_libre",
            "value": "III idus novembris, anno II"
        },
        {
            "type": "date",
            "value": " 1262\/11\/11",
            "children": {
                "date_deb_annee": "1262",
                "date_deb_mois": "11",
                "date_deb_jour": "11"
            },
            "range": {
                "date_apres": 12621111,
                "date_avant": 12621111
            }
        },
        {
            "type": "date_lieu",
            "value": "Urbemveterem"
        },
        {
            "type": "sources_manuscrites",
            "value": "R. CIT\u00c9 DU VATICAN, Archivio Segreto Vaticano, <hi rend=\"italic\">Registra Vaticana<\/hi> ... Urb.\u00a0IV Reg. Vol.\u00a0I, 52; Lib.\u00a0II, f.\u00a05, ep.\u00a013. Exemplar Raynaldi, Ann. eccl. a. 1262, \u00a7\u00a065-71, contulimus cum Regestis.",
            "children": {
                "type_source": "Registre de la chancellerie apostolique"
            }
        },
        {
            "type": "genre",
            "value": "Mandement (littere cum filo canapis)"
        },
        {
            "type": "analyse",
            "value": "Urbanus IV papa universis Christi fidelibus notum facit se die coenae Domini proximo praeterito Manfredum quondam principem Tarentinum citasse, ut Kal. Augusti coram se compareret; quo facto idem per quosdam familiares suos petivisset, ut cum personaliter venire vellet, plenaria securitas veniendi sibi concederetur; quae cum ei data fuerit, inhibet, ne quis illum ad sedem apostolicam accedentem offendat [Rodenberg]."
        },
        {
            "type": "transcription",
            "value": "<?xml version=\"1.0\" encoding=\"UTF-8\"?>\nUniversis nostris et ecclesie Romane ceterisque Christi fidelibusOlim in die cene Domini proximo preterito, quo videlicet die annis singulis apud sedem apostolicam de universis mundi partibus innumerabilis fidelium convenit multitudo, Manfredum quondam principem Tarentinum super certis articulis presente ipsa multitudine manifeste citavimus, ut in Kalendis Augusti proximo preteritis coram nobis per se vel per sollempnes procuratores cum sufficienti mandato comparere curaret, facturus et recepturus super illis, quod iustitia suaderet: videlicet super destructione civitatis Arianensis, quam per Sarracenos fecit funditus dissipari, et super interfectione turpissima Thomasii de Oria et Thomasii de Salice ac super crudeli et proditiosa occisione Petri de Calabria comitis Catanzarii et horrenda effusione sanguinis multorum fidelium; nec non super eo, quod in derogationem auctoritatis ecclesiastice vel censure, que fulcimentum est catholice fidei atque robur, et in ipsius debilitationem ac detractionem fidei pluribus iam annis sibi fecit et facit adhuc publice celebrari vel, quantum in eo est, potius prophanari divina, quod non caret scrupulo heretice pravitatis, et citatus propter hoc a felicis recordationis Alexandro papa predecessore nostro, quia in prefixo ei termino nec post etiam comparere curavit, fuit per predecessorem eundem excommunicationis vinculo hac de causa specialiter innodatus; super eo etiam, quod ipse, Sarracenorum ritus amplectens illosque in suis cotidianis obsequiis notabiliter secum tenens et preferens Christianis in obprobrium fidei orthodoxe, regnum ipsum Sicilie ad servilem et ignominiosum statum redegit, eius incolis et habitatoribus propter acerbas et intolerabiles exactiones vix valentibus respirare; ac super dira nece proximis sibi sanguine illata per ipsum; super eo insuper, quod Conradum Bussarii nuntium et vassallum Conradi pueri, nati quondam Conradi filii quondam Fr. olim Romanorum imperatoris, fecit proditionaliter trucidari; et super enormibus et fedis eius excessibus, de quibus manifesta infamia denotatur, et pluribus aliis, que in huiusmodi nostre citationis forma plenius continentur.Sed idem Manfredus quosdam suos nuntios tunc ad presentiam nostram misit, qui aliqua pro eo in nostro consistorio proponentes, nisi sunt eundem multipliciter excusare. Nos autem, auditis et intellectis que iidem proposuere nuntii, diximus fore in negotio per viam inquisitionis in hiis, in quibus oportunum foret, et alias etiam procedendum, prout videremus secundum iustitiam expedire. Verumtamen, quia quidam ex fratribus nostris absentes erant, et plures ex hiis, qui tunc aderant, non erant moram continuaturi nobiscum, huiusmodi nostrum processum usque ad octavas festivitatis beati Martini proximo future duximus suspendendum, predicentes quod extunc in prefato negotio, prout suaderet iustitia, procedere curaremus. Eodem igitur appropinquante termino, idem Manfredus iudicem Aytardum de Venusio et Iohannem de Brundusio notarium, familiares suos, ad sedem apostolicam destinavit, qui a nobis et predictis fratribus cum instantia petierunt, ut cum idem Manfredus tam arduum tamque grave ac grande negotium aliquibus committere nuntiis seu procuratoribus non intendat, set velit pro illo personaliter nostro se conspectui presentare, securitatem ei plenariam et licentiam veniendi ad nos tute per terram et districtum ecclesie largiremur.Nos autem, volentes super hiis, presertim cum fidei negotium agatur, specialiter in hac parte cum ea maturitate ac gravitate procedere, ut processus noster nequeat aliquorum detractorum morsibus vel obloquiis subiacere, petitam securitatem eidem Manfredo de fratrum nostrorum consilio sub certa forma, inferius annotata, in veniendo hac vice pro eodem negotio et morando ac per octo dies, in quibus exire possit terram ecclesie, postquam a nobis licentiam redeundi habuerit, tenore presentium elargimur, dantes ei licentiam et liberam facultatem ingrediendi propter hoc terram et districtum ecclesie ac tute ad nos per terram et districtum huiusmodi veniendi et universis nostris et ipsius ecclesie fidelibus firmiter inhibentes, ne ipsum, cum infrascripto armatorum ac personarum et evectionum numero ad nostram presentiam accedentem, in persona vel rebus turbare vel offendere seu quomodolibet molestare aut impedire presumant. Verum quia ipse tamquam temerarius ad terram ecclesie, sicut evidenter apparet de marchia Anconitana et nonnullis aliis terris ad ecclesiam ipsam spectantibus, violentas manus extendit, volumus ad presens hoc saltem modo nobis et eidem ecclesie ab huiusmodi suis temeritatibus precavere, quod non in occulto, sed in dilectorum filiorum fratris Gualasci de ordine fratrum Minorum penitentiarii et Iacobi prepositi Ebredunensis capellani nostrorum, has litteras deferentium, et plurium aliorum presentia corporale iuramentum exhibeat vel per alium in animam suam faciat exhiberi, quod nullos armatos nullasque personas et evectiones ducet nec patietur venire secum ultra numerum infrascriptum, et quod sic veniendo vel morando aut redeundo ecclesiam vel terram seu fideles ipsius non offendet nec per suos offendi faciet vel permittet, neque operabitur vel machinabitur aliquid in dispendium ecclesie, terre aut fidelium predictorum, quodque moram nisi tantum in predictis octo diebus in terra eiusdem ecclesie non faciet plus, quam ei fuerit de licentia nostra permissum.Ceterum, quia ubi de negotio fidei agitur, omnis sinistre suspicionis, violentie vel impressionis cuiuslibet est prorsus amovenda materia, ne labores et studia, que pro laude Dei et prospero statu suorum fidelium impenduntur, in eorum, quod absit, dispendium convertantur, propter quod sic intendimus eidem Manfredo in huiusmodi suo ad nos adventu de oportuna securitate consulere, quod in turbationem ipsius negotii non redundet ac tranquillus status terrarum eiusdem ecclesie non turbetur: ipsi Manfredo auctoritate apostolica districtius prohibemus, ne ultra octingentarum personarum, de quibus possint esse centum dumtaxat armate, et septingentarum evectionum numerum, quem eis auctoritate predicta taxamus, ad sedem apostolicam secum ducat; immo quod contra formam prohibitionis huiusmodi terram ipsius ecclesie aliquatenus ingredi non attemptet. Si enim contra huiusmodi taxationem nostram terram ingrederetur eandem, tunc manifestum esset et liquidum, quod ipse non ad subeundum ecclesie iudicium ut pacificus et quietus accederet, set potius tamquam hostis ad impedimentum et confusionem negotii fidei orthodoxe, quod agitur, ne in eo debitus posset haberi processus, et ad turbationem status ipsius terre ac eorundem fidelium prosiliret; propter quod si id fieri contingeret, liquidius et evidentius de pravitate heretica suspectus et notabilis redderetur, nosque liberius et rationabilius possemus super hoc procedere contra eum, cum impedire vel confundere dictum negotium esset evidenter fovere huiusmodi hereticam pravitatem. Quod si forte ingredi terram eandem [presumpserit] huiusmodi non prestito, ut dictum est, iuramento, vel plures armatos, personas et evectiones duxerit vel secum venire permiserit, quam taxatio predicta contineat, spreta prohibitione predicta, aut longiorem moram, nisi solum in prefatis octo diebus, traxerit in eadem terra, postquam a nobis habuerit licentiam redeundi, vel in veniendo aut morando seu redeundo ecclesiam aut terram vel fideles ipsius offenderit vel fecerit seu per suos permiserit offendi, aut operatus vel machinatus fuerit aliquid in dispendium ecclesie, terre seu fidelium predictorum: eo ipso sit anathematis vinculo innodatus, et nichilominus huiusmodi nostre securitatis littere vacue sint penitus et inanes, nullam ei securitatem quomodolibet tribuentes. Predictos autem penitentiarium et capellanum, viros utique providos et discretos et nobis ac fratribus nostris acceptos, ad eundem Manfredum duximus destinandos, ut ei litteras easdem assignent et referant sibi nichilominus ex parte nostra premissa omnia viva voce, quodque predictum iuramentum in eorum prestetur presentia, sicut superius est expressum.Dat. apud Urbemveterem, III Idus Novembris, anno II\u00b0.\n"
        },
        {
            "type": "edition",
            "value": "Ici reprise de Karl Rodenberg, Epistolae s. XIII e regestis pontificum romanorum selectae, III, Berlin : Weidmann (MGH), 1894, n.\u00a0527, p.\u00a0496."
        },
        {
            "type": "edition_autre",
            "value": "?"
        },
        {
            "type": "regeste",
            "value": "?"
        },
        {
            "type": "bibliographie_generale",
            "value": "?"
        },
        {
            "type": "apparat_critique",
            "value": "?",
            "children": {
                "numero_note": "a"
            }
        },
        {
            "type": "apparat_critique",
            "value": "?",
            "children": {
                "numero_note": "b"
            }
        },
        {
            "type": "apparat_critique",
            "value": "?",
            "children": {
                "numero_note": "c"
            }
        },
        {
            "type": "apparat_critique",
            "value": "?",
            "children": {
                "numero_note": "d"
            }
        },
        {
            "type": "apparat_critique",
            "value": "?",
            "children": {
                "numero_note": "e"
            }
        },
        {
            "type": "apparat_critique",
            "value": "?",
            "children": {
                "numero_note": "f"
            }
        },
        {
            "type": "notes_historiques",
            "value": "?",
            "children": {
                "numero_note": "1"
            }
        },
        {
            "type": "notes_historiques",
            "value": "?",
            "children": {
                "numero_note": "2"
            }
        },
        {
            "type": "notes_historiques",
            "value": "?",
            "children": {
                "numero_note": "3"
            }
        }
    ]
}