{
    "id": 149026,
    "name": "aposcripta-8592",
    "type": "acte",
    "url": "http:\/\/telma-chartes.irht.cnrs.fr\/aposcripta\/notice\/149026",
    "project_slug": "aposcripta",
    "project_label": "APOSCRIPTA \u2013 Lettres des papes",
    "user": "j_theryastruc",
    "last_update": "2020-10-19 16:39:52",
    "licence": "Attribution - Pas d\u2019Utilisation Commerciale - Partage dans les M\u00eames Conditions 3.0 France (CC BY-NC-SA 3.0 FR) ",
    "licence_url": "https:\/\/creativecommons.org\/licenses\/by-nc-sa\/3.0\/fr\/",
    "elements": [
        {
            "type": "pape",
            "value": "Boniface VIII (1294-1303)"
        },
        {
            "type": "destinataire",
            "value": "L'\u00e9v\u00eaque de Pamiers Bernard Saisset"
        },
        {
            "type": "date_libre",
            "value": "III kalendas martis, anno quinto"
        },
        {
            "type": "date",
            "value": "1299\/02\/27",
            "children": {
                "date_deb_annee": "1299",
                "date_deb_mois": "02",
                "date_deb_jour": "27"
            },
            "range": {
                "date_apres": 12990227,
                "date_avant": 12990227
            }
        },
        {
            "type": "date_lieu",
            "value": "Latran"
        },
        {
            "type": "genre",
            "value": "Mandement (littere cum filo canapis)"
        },
        {
            "type": "analyse",
            "value": "Boniface [VIII] mande \u00e0 l'\u00e9v\u00eaque de Pamiers Bernard Saisset de lever l'excommunication qui p\u00e8se sur le comte de Foix [Roger-Bernard] et l'interdit qui p\u00e8se sur ses terres."
        },
        {
            "type": "sources_manuscrites",
            "value": "F. Copie dans l'acte dress\u00e9 lors de l'absolution du comte de Foix \u00e0 Pamiers, dans le r\u00e9fectoire des Pr\u00eacheurs de la ville, le 25 juin 1300.",
            "children": {
                "type_source": "Autre copie m\u00e9di\u00e9vale"
            }
        },
        {
            "type": "sources_manuscrites",
            "value": "Reg. Vat. 49, ep. 33, fol. 144v.",
            "children": {
                "type_source": "Registre de la chancellerie apostolique"
            }
        },
        {
            "type": "edition",
            "value": "Jacques Ourgaud, <i>Histoire de Pamiers<\/i>, 1865, r\u00e9\u00e9d. N\u00eemes : Lacour, 1995, p. 283-284."
        },
        {
            "type": "edition_autre",
            "value": "Digard, n. 2922."
        },
        {
            "type": "transcription",
            "value": "<?xml version=\"1.0\" encoding=\"UTF-8\"?>\nBonifacius episcopus, servus servorum Dei, venerabili fratri Bernardo, episcopo Appamiarum, salutem et apostolicam benedictionem. Olim occasione discordie inter te et dilectosa filios capitulum Appamiarum, ex parte una, et nobilem virum Rogerium comitem Fuxi, ex altera, super civitate Appamiarum et ejus jurisdictione ac aliis quibusdam articulis suscitate, nonnulle per venerabiles fratres nostros .. Auxitanieb archiepiscopum et .. episcopum Carcasonensem auctoritate nostra in personam ipsius comitis excommunicationum et in terram ejus interdicti sententie fuerunt hactenus diversis temporibus promulgate. Cum autem, cooperante Illo qui pacis est Actor et opera pacis amat, inter te et capitulum ac comitem supradictos amicabilis compositio super premissis intervenire noscatur, nosque illam pro tuo et capituli ac comitis eorundem statu pacifico et tranquilloc auctoritate apostolica ex certa scientia duxerimus confirmandam, fraternitati tue per apostolica scripta mandamus quatinus prefatum comitem per te vel per alium quem ad hoc reputabis idoneum auctoritate nostra juxta formam Ecclesie ab hujusmodi vinculis excommunicationum absolvas et in eadem terra predicti comitis, civitate Appamiarum dumtaxatd excepta, prefatas relaxes sententias interdicti. Volumus tamen quod antequam per te vel per alium super hujusmodi absolutionis et relaxationis negotio procedatur, idem comes de dampnis et injuriis ecclesie Appamiarum illatis si in predicta compositione non satisfecite, de ipsis ecclesie supradicte competentem satisfactionem exhibeat prout tua discretiof viderit expedire. Datum Lateranig, III calendas martii, pontificatus nostri anno quinto.\n"
        },
        {
            "type": "apparat_critique",
            "value": "dilctos <i>Ourgaud<\/i>.",
            "children": {
                "numero_note": "a"
            }
        },
        {
            "type": "apparat_critique",
            "value": "<i>Sic Ourgaud pour<\/i> Auxitanum.",
            "children": {
                "numero_note": "b"
            }
        },
        {
            "type": "apparat_critique",
            "value": "traquillo <i>Ourgaud<\/i>.",
            "children": {
                "numero_note": "c"
            }
        },
        {
            "type": "apparat_critique",
            "value": "duntaxat <i>Ourgaud<\/i>.",
            "children": {
                "numero_note": "d"
            }
        },
        {
            "type": "apparat_critique",
            "value": "<i>Sic Ourgaud pour<\/i> satisfecerit.",
            "children": {
                "numero_note": "e"
            }
        },
        {
            "type": "apparat_critique",
            "value": "si... discretio] si in predicta compositione satisfactionem exhibeant prout tua discreptio <i>Digard<\/i>.",
            "children": {
                "numero_note": "f"
            }
        },
        {
            "type": "apparat_critique",
            "value": "Lateranensi <i>Ourgaud<\/i>.",
            "children": {
                "numero_note": "g"
            }
        },
        {
            "type": "bibliographie_generale",
            "value": "Jean-Marie Vidal, \u00ab Bernard Saisset \u00bb, <i>Revue des Sciences religieuses<\/i>, 5, 1925, p. 417-438, 565-590 et 6, 1926, p. 50-77, 177-198, 371-393, repris dans Idem, <i>Bernard Saisset (1232-1311)<\/i>, Toulouse, Paris, 1926."
        },
        {
            "type": "bibliographie_generale",
            "value": "Joseph R. Strayer, <i>The Reign of Philip the Fair<\/i>, Princeton 1980, p. 260-267.\n\nAgostino Paravicini-Baglini, <i>Boniface VIII, un pape h\u00e9r\u00e9tique ?<\/i>, Paris, Payot & Rivages, 2003, p. 279-286. "
        },
        {
            "type": "bibliographie_generale",
            "value": "Alessandro Barbero, \u00ab Bonifacio VIII e la casa di Francia \u00bb, dans <i>Bonifacio VIII. Atti del XXXIX Convegno storico internazionale, Todi, 13-16 ottobre 2002<\/i>, Spol\u00e8te : Centro italiano di studi sull'alto medioevo), 2003, p. 273-327, aux p. 301-309."
        },
        {
            "type": "bibliographie_generale",
            "value": "Jeffrey H. Denton, \u00ab Bernard Saisset and the Franco-Papal Rift of December 1301 \u00bb, <i>Revue d\u2019histoire eccl\u00e9siastique<\/i>, 102, 2007, p. 399-426."
        },
        {
            "type": "bibliographie_generale",
            "value": "Julien Th\u00e9ry, \u00ab Allo scoppio del conflitto tra Filippo il Bello di Francia e Bonifacio VIII : l\u2019affare Saisset (1301). Primi spunti per una rilettura \u00bb, dans <i>I poteri universali e la fondazione dello <\/i>Studium Urbis<i>. Il pontefice Bonifacio VIII dalla Unam sanctam allo schiaffo di Anagni<\/i>, \u00e9d. Giovanni Minnucci, Rome : Monduzzi (Archivio per la storia del diritto medioevale e moderno, 1), 2008, p. 21-68<a target=\"_blank\" href=\"http:\/\/www.academia.edu\/528878\/_Allo_scoppio_del_conflitto_tra_Filippo_il_Bello_di_Francia_e_Bonifacio_VIII_l_affare_Saisset_1301_._Primi_spunti_per_una_rilettura_dans_I_poteri_universali_e_la_fondazione_dello_Studium_Urbis._Il_pontefice_Bonifacio_VIII_dalla_Unam_sanctam_allo_schiaffo_di_Anagni_\"> [en ligne]<\/a>."
        },
        {
            "type": "bibliographie_generale",
            "value": "Julien Th\u00e9ry, Le pionnier de la th\u00e9ocratie pontificale. Guillaume de Nogaret et les conflits de Philippe le Bel avec la papaut\u00e9\u2019, dans <i>Guillaume de Nogaret, un Languedocien au service de la monarchie cap\u00e9tienne<\/i>, \u00e9d. Bernard Moreau, N\u00eemes : Lucie \u00c9ditions, 2012, p. 101-128 <a target=\"_blank\" href=\" https:\/\/www.academia.edu\/1998079\/_Le_pionnier_de_la_th%C3%A9ocratie_royale_Guillaume_de_Nogaret_et_les_conflits_de_Philippe_le_Bel_avec_la_papaut%C3%A9_dans_Guillaume_de_Nogaret_Un_languedocien_au_service_de_la_monarchie_cap%C3%A9tienne_dir_B_Moreau_N%C3%AEmes_Lucie_Editions_2012_p_101_128\"> [en ligne]<\/a>."
        },
        {
            "type": "bibliographie_generale",
            "value": "Julien Th\u00e9ry, \u00ab The Pioneer of Royal Theocracy. Guillaume de Nogaret and the conflicts between Philip the Fair and the Papacy \u00bb, dans <i>The Capetian Century, 1214-1314<\/i>, \u00e9d. William Chester Jordan, Jenna Rebecca Phillips, Brepols, 2017, p. 219-259 <a target=\"_blank\" href=\"https:\/\/www.academia.edu\/29217362\/_The_Pioneer_of_Royal_Theocracy_Guillaume_de_Nogaret_and_the_conflicts_between_Philip_the_Fair_and_the_Papacy_dans_The_Capetian_Century_1214_1314_ed_William_Chester_Jordan_Jenna_Rebecca_Phillips_Brepols_2017_p_219_259\"> [en ligne]<\/a>. "
        }
    ]
}