{
    "id": 24224,
    "name": "aposcripta-1375",
    "type": "acte",
    "url": "http:\/\/telma-chartes.irht.cnrs.fr\/aposcripta\/notice\/24224",
    "project_slug": "aposcripta",
    "project_label": "APOSCRIPTA \u2013 Lettres des papes",
    "user": "lettrespontificalesadmin",
    "last_update": "2020-10-19 16:27:26",
    "licence": "Attribution - Pas d\u2019Utilisation Commerciale - Partage dans les M\u00eames Conditions 3.0 France (CC BY-NC-SA 3.0 FR) ",
    "licence_url": "https:\/\/creativecommons.org\/licenses\/by-nc-sa\/3.0\/fr\/",
    "elements": [
        {
            "type": "pape",
            "value": "Innocent III (1198-1216)"
        },
        {
            "type": "date_lieu",
            "value": "Segni"
        },
        {
            "type": "date_libre",
            "value": "III idus septembris, anno quinto decimo"
        },
        {
            "type": "date",
            "value": " 1212\/09\/11",
            "children": {
                "date_deb_annee": "1212",
                "date_deb_mois": "09",
                "date_deb_jour": "11"
            },
            "range": {
                "date_apres": 12120911,
                "date_avant": 12120911
            }
        },
        {
            "type": "analyse",
            "value": "Innocent\u00a0III r\u00e9pond \u00e0 l\u2019\u00e9v\u00eaque de Maguelone, qui avait offert 500 marcs, plus un cens annuel de 20 marcs pour le comt\u00e9 de Melgueil, de s\u2019entendre sur ce point avec Pierre Marc\u00a0: le Pape approuvera ce qu\u2019ils d\u00e9cideront."
        },
        {
            "type": "transcription",
            "value": "<?xml version=\"1.0\" encoding=\"UTF-8\"?>\nDilectus filius frater Constantinus, conversus Carthusiensis, nobis proposuit quod tu quingentas marcas pro comitatu Melgoriensi, tibi et Ecclesi\u00e6 tu\u00e6 a nobis sub annua pensione viginti marcarum locando, ei nostro nomine obtulisti. Cum igitur dilecto filio magistro Petro Marco, subdiacono nostro, correctori litterarum nostrarum, super hoc mandatum dederimus speciale, volumus ut cum ipso tractatum super eo habeas diligentem. Quidquid enim idem, secundum mandatum nostrum, provide tecum duxerit faciendum nos ratum habentes volumus firmiter observari. Datum Signi\u00e6, III idus septembris, pontificatus nostri anno quinto decimo.\n"
        },
        {
            "type": "edition",
            "value": "Julien Rouquette, Augustin Villemagne, <i>Bullaire de l'\u00c9glise de Maguelone<\/i>, Paris, Montpellier : Picard, Valat, 1911-1914, I, n. 187, p. 335-336"
        },
        {
            "type": "remarques",
            "value": "  Nous avons d\u00e9j\u00e0 dit, et nous le constaterons encore, que Montpellier fut, pendant la croisade dirig\u00e9e contre les Albigeois, le quartier g\u00e9n\u00e9ral des Crois\u00e9s. Ce fut dans ses murs que se tinrent plusieurs r\u00e9unions ou conciles, et c\u2019est de cette ville catholique, remarquable parmi les villes du Midi par la puret\u00e9 de la foi, que Dominique sortit pieds nus pour aller pr\u00eacher aux h\u00e9r\u00e9tiques. Il est remarquable que le r\u00f4le de l\u2019\u00e9v\u00eaque apparaisse si effac\u00e9 pendant toute cette \u00e9poque\u00a0; il n\u2019appara\u00eet sur la sc\u00e8ne que le jour o\u00f9 il faut tirer profit des d\u00e9pouilles du comte de Toulouse.\n\nNous savons d\u00e9j\u00e0 quelle avait \u00e9t\u00e9 la situation faite au comt\u00e9 de Melgueil depuis le jour o\u00f9 Innocent\u00a0III avait ordonn\u00e9 \u00e0 ses l\u00e9gats de le confisquer\u00a0: il fut afferm\u00e9 \u00e0 Jean Bocados (Voir n\u00b0\u00a0184). Nous savons aussi que les habitants furent heureux et satisfaits de se trouver d\u00e9sormais plac\u00e9s directement sous la suzerainet\u00e9 pontificale, et qu\u2019ils demand\u00e8rent au Pape de ne plus ali\u00e9ner le comt\u00e9 pour l\u2019inf\u00e9oder \u00e0 aucune autre personne, d\u00e9sir bien l\u00e9gitime sans doute, mais qui \u00e9tait bien difficile \u00e0 satisfaire (Voir N\u00b0\u00a0185).\n\nSi Guillaume d\u2019Autignac \u00e9tait rest\u00e9 dans l\u2019ombre pendant les premi\u00e8res ann\u00e9es de la guerre albigeoise, il crut le moment opportun d\u2019en sortir quand le comte de Toulouse fut d\u00e9poss\u00e9d\u00e9 de ses \u00c9tats. Il semblait impossible que le Pape gard\u00e2t par devers lui le comt\u00e9 confisqu\u00e9\u00a0: il devait l\u2019inf\u00e9oder. L\u2019\u00e9v\u00eaque de Maguelone paraissait l\u2019homme le plus apte \u00e0 recevoir cette inf\u00e9odation. De tout temps n\u2019avait-il pas \u00e9t\u00e9 le repr\u00e9sentant officiel du Saint-Si\u00e8ge pour le comt\u00e9, charg\u00e9 de par ses fonctions d\u2019en d\u00e9fendre les int\u00e9r\u00eats\u00a0? Depuis deux ans et plus, n\u2019avait-il pas la garde du ch\u00e2teau de Montferrand\u00a0? La population de Montpellier, les plus puissants seigneurs du voisinage, ainsi que nous le dirons, faisaient des v\u0153ux pour que le Pape pos\u00e2t sur la t\u00eate de l\u2019\u00e9v\u00eaque la couronne de comte. Enfin c\u2019\u00e9tait \u00e0 lui que Innocent\u00a0III avait confi\u00e9 le soin de faire justice \u00e0 Bocados, et de lui rendre facile la perception des revenus du comt\u00e9.\n\nBien des raisons, on le voit, militaient en faveur de Guillaume d\u2019Autignac\u00a0; mais, il y avait plus, l\u2019\u00e9v\u00eaque avait d\u00e9j\u00e0 pris en main l\u2019administration du comt\u00e9\u00a0; et, de fait, depuis 1211, il s\u2019en attribuait les pr\u00e9rogatives.\n\nNous ne pouvons, dans une note, analyser tous les actes de cet \u00e9v\u00eaque, depuis 1211 jusqu\u2019en 1215, ni dire longuement comment il s\u2019acquitta des fonctions que lui attribuaient les bulles pontificales. Nous ne citerons qu\u2019un fait\u00a0: Guillaume d\u2019Autignac s\u2019empara tout d\u2019abord de l\u2019atelier mon\u00e9taire, et la frappe de cette monnaie, si r\u00e9pandue dans la province, continua, comme par le pass\u00e9, pendant cette p\u00e9riode de quatre ans\u00a0; et il le fit avec grande h\u00e2te, car ce fut au mois de mai 1211 qu\u2019il commen\u00e7a \u00e0 battre monnaie. Or la bulle ordonnant la saisie du comt\u00e9 est du 15\u00a0avril de cette m\u00eame ann\u00e9e.\n\nOn nous permettra de nous arr\u00eater sur ce point, car l\u2019acte du <i>Cartulaire de Maguelone<\/i> (reg. C., fol.\u00a0228\u00a0r\u00b0) que nous allons analyser, expliquera peut-\u00eatre la conduite de l\u2019\u00e9v\u00eaque, et pourquoi, enchant\u00e9 des recettes que lui a procur\u00e9es l\u2019atelier mon\u00e9taire, ne s\u2019apercevant pas que les temps sont chang\u00e9s, il ach\u00e8tera assez cher la couronne de comte. De mai 1211 \u00e0 P\u00e2ques 1212, il fit frapper 8.060 livres melgoires, sur lesquelles il per\u00e7ut 5 deniers par livre, soit, d\u2019apr\u00e8s le <i>Cartulaire<\/i>, 3.333 sols et 4 deniers, \u2014 erreur du copiste, en r\u00e9alit\u00e9 il per\u00e7ut 3.358 sols et 4 deniers. L\u2019ann\u00e9e suivante il fit frapper 13.740 livres, sur lesquelles il retint 4 deniers par livre ou 4.580 sols\u00a0; la troisi\u00e8me ann\u00e9e 17.550 livres, sur lesquelles il per\u00e7ut, \u00e0 raison de 2 deniers par livre, la somme de 4.387 sols et 6 deniers, soit, en trois ans, un total de 12.325 sols et 10 deniers.\n\n  Ainsi Guillaume d\u2019Autignac avait pu faire son apprentissage, et, par lui-m\u00eame, appr\u00e9cier quelques-uns des principaux revenus du comt\u00e9.\n\nCette conduite de l\u2019\u00e9v\u00eaque, et d\u2019autres actes que nous pourrions citer, expliquent, nous semble-t-il, la d\u00e9marche qu\u2019il fit aupr\u00e8s du Pape, probablement dans le courant de l\u2019\u00e9t\u00e9 de 1212. Innocent\u00a0III \u00e9tait tout dispos\u00e9 \u00e0 l\u2019\u00e9couter, ainsi qu\u2019il ressort de sa lettre\u00a0; mais, plac\u00e9 loin des lieux, ayant sur les bras assez de travaux, il le renvoya \u00e0 Pierre Marc. Celui-ci \u00e9tait originaire de Nimes, et avait \u00e9t\u00e9 charg\u00e9 par le Pape de la mission de lever les cens dus \u00e0 l\u2019\u00c9glise Romaine dans les provinces de Narbonne, d\u2019Arles, d\u2019Aix et d\u2019Embrun et dans les dioc\u00e8ses d\u2019Agen, de Cahors, de Rodez et d\u2019Albi (Cf. sur ce personnage, <span class=\"small-caps\">Potthast<\/span>, n<sup>os<\/sup>\u00a04591 \u00e0 4593, 4596, 4606 et 4622\u00a0; \u2014 <span class=\"small-caps\">Vaissete<\/span>, <i>Hist. g\u00e9n. de Languedoc<\/i>, t.\u00a0VI, p.\u00a0392\u00a0; \u2014 et <span class=\"small-caps\">Compayr\u00e9<\/span>, <i>\u00c9tudes historiques sur l\u2019Albigeois<\/i>, p.\u00a0295).\n\nIl est probable que Pierre Marc trouva la somme insuffisante, car, dans les 500 marcs qu\u2019il offrait, Guillaume d\u2019Autignac devait comprendre tous les d\u00e9bours qu\u2019il aurait \u00e0 faire \u00e0 la chancellerie pontificale. Nous verrons bient\u00f4t que cette somme fut plus que doubl\u00e9e.\n\nMais encore ici un point doit nous retenir\u00a0: aux yeux d\u2019Innocent\u00a0III le comt\u00e9 de Melgueil est confisqu\u00e9, et pour toujours. Il \u00e9tablit, en effet, une grande diff\u00e9rence entre le comt\u00e9 et les autres domaines de Raimond\u00a0VI. En cette m\u00eame ann\u00e9e 1212, malgr\u00e9 les d\u00e9crets du concile d\u2019Arles, il ordonne \u00e0 ses l\u00e9gats de recevoir la justification du comte de Toulouse, et refuse de donner ses \u00c9tats \u00e0 ses comp\u00e9titeurs. Cette conduite du Pape a \u00e9t\u00e9 mise en relief par dom <span class=\"small-caps\">Vaissete<\/span> d\u2019abord, puis, de nos jours, par <span class=\"small-caps\">M. Luchaire<\/span>\u00a0; et il importe de bien la souligner, pour appr\u00e9cier sainement les faits et r\u00e9tablir les responsabilit\u00e9s.\n\nCette mod\u00e9ration du Chef de la chr\u00e9tient\u00e9 envers un homme que ses l\u00e9gats lui d\u00e9peignaient sous les plus noires couleurs, dispara\u00eet quand il s\u2019agit du comt\u00e9 de Melgueil. Il n\u2019oppose pas un refus \u00e0 l\u2019\u00e9v\u00eaque\u00a0; il accepte m\u00eame ses conditions\u00a0; mais auparavant les soumet \u00e0 l\u2019approbation de son envoy\u00e9. Il y a donc dans la conduite d\u2019Innocent\u00a0III au sujet des \u00c9tats de Raymond\u00a0VI une diff\u00e9rence notable. Bien que Chef de la chr\u00e9tient\u00e9, ayant, d\u2019apr\u00e8s le droit de l\u2019\u00e9poque, le pouvoir de d\u00e9lier les sujets de leur serment de fid\u00e9lit\u00e9 envers leur souverain, m\u00eame de d\u00e9tr\u00f4ner ce dernier et de donner ses domaines au premier occupant, il n\u2019use de son autorit\u00e9 que pour le seul comt\u00e9 de Melgueil, et Philippe-Auguste ne proteste pas. C\u2019est que, fid\u00e8le \u00e0 la conduite de ses pr\u00e9d\u00e9cesseurs, il consid\u00e8re ce comt\u00e9 comme appartenant en toute suzerainet\u00e9 \u00e0 l\u2019\u00c9glise Romaine.\n\n[Rouquette-Villemagne]"
        },
        {
            "type": "bibliographie_generale",
            "value": "Baluze, <i>Innocent\u00a0III epistol\u00e6<\/i>, t.\u00a0II, p.\u00a0683.",
            "children": {
                "numero_note": "0"
            }
        },
        {
            "type": "bibliographie_generale",
            "value": "<span class=\"small-caps\">Bouquet<\/span>, <i>Recueil<\/i>, t.\u00a0XIX, p.\u00a0560",
            "children": {
                "numero_note": "1"
            }
        },
        {
            "type": "bibliographie_generale",
            "value": "Migne, t. III, col. 693.",
            "children": {
                "numero_note": "2"
            }
        },
        {
            "type": "bibliographie_generale",
            "value": "<span class=\"small-caps\">Germain<\/span>, <i>\u00c9tude historique sur les comtes de Melgueil<\/i>, p.\u00a071.",
            "children": {
                "numero_note": "3"
            }
        },
        {
            "type": "genre",
            "value": "Mandement (littere cum filo canapis)"
        },
        {
            "type": "regeste",
            "value": "Potthast, n. 4594."
        }
    ]
}