{
    "id": 25919,
    "name": "aposcripta-3016",
    "type": "acte",
    "url": "http:\/\/telma-chartes.irht.cnrs.fr\/aposcripta\/notice\/25919",
    "project_slug": "aposcripta",
    "project_label": "APOSCRIPTA \u2013 Lettres des papes",
    "user": "lettrespontificalesadmin",
    "last_update": "2020-10-19 16:27:50",
    "licence": "Attribution - Pas d\u2019Utilisation Commerciale - Partage dans les M\u00eames Conditions 3.0 France (CC BY-NC-SA 3.0 FR) ",
    "licence_url": "https:\/\/creativecommons.org\/licenses\/by-nc-sa\/3.0\/fr\/",
    "elements": {
        "0": {
            "type": "pape",
            "value": "Alexandre III (1159-1181)"
        },
        "1": {
            "type": "destinataire",
            "value": "( )",
            "children": {
                "numero_note": "0"
            }
        },
        "2": {
            "type": "date_lieu",
            "value": "n.c."
        },
        "3": {
            "type": "date_libre",
            "value": "1159-1181"
        },
        "4": {
            "type": "date",
            "value": "apr\u00e8s 1159 - avant 1181",
            "children": {
                "date_deb_annee": "1159",
                "date_deb_type": "apr\u00e8s",
                "date_fin_annee": "1181",
                "date_fin_type": "avant"
            },
            "range": {
                "date_apres": 11590000,
                "date_avant": 11819999
            }
        },
        "6": {
            "type": "transcription",
            "value": "<?xml version=\"1.0\" encoding=\"UTF-8\"?>\nAlexander Episcopus servus servorum Dei, venerabilibus fratribus .. Bituricensi, &amp; ... Bisuntino Archiepiscopis, &amp; J. Pictavensi Episcopo Apostolic\u00e6 Sedis Legato, &amp; aliis Episcopis in quorum Episcopatibus Ecclesi\u00e6 &amp; possessiones monasterii Trenorchiensis consistunt, salutem &amp; apostolicam benedictionem. Cum dilecti filii nostri Abbas &amp; fratres Trenorchienses \u00e0 parrochianis vestris multa se asserant gravamina sustinere, decet nos pastoralem sollicitudinem gerere, n\u00e8 pro negligentia vestra bona pr\u00e6dictorum fratrum exponantur direptionibus malignorum. Ind\u00e8 est qu\u00f2d discretioni vestr\u00e6 per Apostolica scripta mandamus atque pr\u00e6cipimus, quatinus si quando adversus parrochianos vestros eorumdem fratrum qu\u00e6rimoniam recipitis, malefactores eorum ad procurandam satisfactionem congruam de commissis, vel ad justitiam exhibendam, sine dilatione frustratoria moneatis, &amp; per excommunicationis sententiam compellatis. Ita mandatum nostrum efficaciter exequamini, qu\u00f2d nec vos possitis de negligentia reprehendi, nec eidem fratres cogantur ad nos merit\u00f2 laborare. Datum Laterani III. Idus Martii. In plumbo, ALEXANDER Papa III. Il y a de semblables Brefs adress\u00e9s aux Archev\u00eaques de Vienne, &amp; de Lyon, &amp; \u00e0 leurs suffragans.\n"
        },
        "7": {
            "type": "edition",
            "value": "Ici tir\u00e9e du projet <i>CBMA - Corpus Burgundiae Medii Aevi<\/i>, document 9523. Site du projet Corpus de la Bourgogne du Moyen \u00c2ge, [En ligne] <a href=\"http:\/\/www.cbma-project.eu\" target=\"_blank\">http:\/\/www.cbma-project.eu<\/a>  "
        },
        "8": {
            "type": "sources_manuscrites",
            "value": "\u00e0 renseigner."
        },
        "9": {
            "type": "remarques",
            "value": ""
        },
        "10": {
            "type": "edition_autre",
            "value": "Ici reprise de Pierre Ju\u00e9nin, <i>Nouvelle Histoire de l'abbaye royale et coll\u00e9giale de Saint-Filibert et de la ville de Tournus...<\/i>, Dijon : Preuves, 1733, p. 177-178.",
            "children": {
                "numero_note": "0"
            }
        },
        "11": {
            "type": "genre",
            "value": "Lettre"
        }
    }
}