{
    "id": 25865,
    "name": "aposcripta-2962",
    "type": "acte",
    "url": "http:\/\/telma-chartes.irht.cnrs.fr\/aposcripta\/notice\/25865",
    "project_slug": "aposcripta",
    "project_label": "APOSCRIPTA \u2013 Lettres des papes",
    "user": "lettrespontificalesadmin",
    "last_update": "2020-10-19 16:27:49",
    "licence": "Attribution - Pas d\u2019Utilisation Commerciale - Partage dans les M\u00eames Conditions 3.0 France (CC BY-NC-SA 3.0 FR) ",
    "licence_url": "https:\/\/creativecommons.org\/licenses\/by-nc-sa\/3.0\/fr\/",
    "elements": [
        {
            "type": "pape",
            "value": "Alexandre III (1159-1181)"
        },
        {
            "type": "destinataire",
            "value": "( )",
            "children": {
                "numero_note": "0"
            }
        },
        {
            "type": "date_lieu",
            "value": "n.c."
        },
        {
            "type": "date_libre",
            "value": "(Vers l\u2019an 1175, 20 avril)"
        },
        {
            "type": "date",
            "value": "circa 1175\/04\/20",
            "children": {
                "date_deb_annee": "1175",
                "date_deb_mois": "04",
                "date_deb_jour": "20",
                "date_deb_type": "circa"
            },
            "range": {
                "date_apres": 11750420,
                "date_avant": 11750420
            }
        },
        {
            "type": "analyse",
            "value": "X pape<br\/>Le pape confirme l\u2019abbaye dans la possession de ses biens, savoir: l\u2019\u00e9glise de Saint-Aignan et les chapelles de Saint-Pierre et Saint-Micomer de Tonnerre; \u2014 droit d\u2019\u00e9talage au march\u00e9 de cette ville, etc."
        },
        {
            "type": "transcription",
            "value": "<?xml version=\"1.0\" encoding=\"UTF-8\"?>\nAlexander episcopus, servus servorum Dei, dilectis abbati et fratribus Molismensis salutem et apostolicam benedictionem. Justis petentium desideriis decet nos facilem prebere consensum, et vota que a rationis tramite non discordant effectu sunt prosequente complenda. Eapropter, dilecti in Domino filii, vestris justis postulationibus annuentes, ecclesiam Sancti-Aniani apud Tornodorum castrum sitam, cum capella Sancti-Petri et ceteris capellis que sunt in eodem castro, et capellam Sancti-Micomeris extra castrum, et cuncta ad ipsam pertinencia, omnes scilicet decimationes, oblationes quoque et sepulturas, silvam etiam et terras, et aquarum decursus, et piscationem aque que dicitur Blismodis, sicut canonici qui in eadem ecclesia precesserunt antea obtinebant; et salagium de mercato, et virgultum Guillelmi, comitis Tornodorensis, et quecunque bona ecclesie vestre a bone memorie Roberto et Jocerando, Lingonensis episcopis et comitibus Nivernensis collata sunt et firmata, sive que in futurum, prestante Domino, justis modis adipisci poteritis, vobis auctoritate apostolica confirmamus, et presentis scripti patrocinio communimus; statuentes ut nulli omnino hominum liceat hanc nostre confirmationis paginam infringere, vel ei aliquatenus contraire. Si quis autem hoc attemptare presumpserit, indignationem omnipotentis Dei et beatorum Petri et Pauli apostolorum ejus se noverit incursurum. Datum Verulis, XII kalendas maii.\n"
        },
        {
            "type": "edition",
            "value": "Ici tir\u00e9e du projet <i>CBMA - Corpus Burgundiae Medii Aevi<\/i>, document 8439. Site du projet Corpus de la Bourgogne du Moyen \u00c2ge, [En ligne] <a href=\"http:\/\/www.cbma-project.eu\" target=\"_blank\">http:\/\/www.cbma-project.eu<\/a>  "
        },
        {
            "type": "sources_manuscrites",
            "value": "\u00e0 renseigner. Texte pr\u00e9c\u00e9d\u00e9 de la rubrique: <i>BULLE DU PAPE ALEXANDRE III, EN FAVEUR DE L\u2019ABBAYE DE MOL\u00caME.<\/i>"
        },
        {
            "type": "remarques",
            "value": "\r\n\r\n Cartul. de Mol\u00eame, Ms. du XIIIe si\u00e8cle; t.\u00a0II, f\u00ba\u00a0LXIII, v\u00ba; Archives de la C\u00f4te-d\u2019Or."
        },
        {
            "type": "edition_autre",
            "value": "Ici reprise de Maximilien Quantin, <i>Cartulaire g\u00e9n\u00e9ral de l'Yonne, Recueil de documents authentiques pour servir \u00e0 l'histoire des pays qui forment ce d\u00e9partement<\/i>, II, Auxerre : Perriquet, Soci\u00e9t\u00e9 des sciences historiques et naturelles de l'Yonne, 1854-1860, p. , n\u00b0 CCLXXIV.",
            "children": {
                "numero_note": "0"
            }
        },
        {
            "type": "genre",
            "value": "Bulle"
        },
        {
            "type": "genre",
            "value": "Lettre"
        }
    ]
}