{
    "id": 25948,
    "name": "aposcripta-3045",
    "type": "acte",
    "url": "http:\/\/telma-chartes.irht.cnrs.fr\/aposcripta\/notice\/25948",
    "project_slug": "aposcripta",
    "project_label": "APOSCRIPTA \u2013 Lettres des papes",
    "user": "lettrespontificalesadmin",
    "last_update": "2020-10-19 16:27:50",
    "licence": "Attribution - Pas d\u2019Utilisation Commerciale - Partage dans les M\u00eames Conditions 3.0 France (CC BY-NC-SA 3.0 FR) ",
    "licence_url": "https:\/\/creativecommons.org\/licenses\/by-nc-sa\/3.0\/fr\/",
    "elements": [
        {
            "type": "pape",
            "value": "L\u00e9on IX (1049-1054)"
        },
        {
            "type": "destinataire",
            "value": "( )",
            "children": {
                "numero_note": "0"
            }
        },
        {
            "type": "date_lieu",
            "value": "n.c."
        },
        {
            "type": "date_libre",
            "value": "1050, Oct 26"
        },
        {
            "type": "date",
            "value": " 1050\/10\/26",
            "children": {
                "date_deb_annee": "1050",
                "date_deb_mois": "10",
                "date_deb_jour": "26"
            },
            "range": {
                "date_apres": 10501026,
                "date_avant": 10501026
            }
        },
        {
            "type": "analyse",
            "value": "X pape<br\/>PRIVILEGIUM LEONIS PAP\u00c6 IX. ad sanctum Hugonem de Ecclesia de Raningis."
        },
        {
            "type": "transcription",
            "value": "<?xml version=\"1.0\" encoding=\"UTF-8\"?>\nLeo Episcopus servus servorum Dei Hugoni venerabili Abbati Cluniacensis C\u0153nobii, ejusque successoribus in perpetuum. Quoniam postulasti \u00e0 nobis, frater charissime, confirmari Apostolica auctoritate qu\u00e6dam bona concessa \u00e0 quibusdam viris Deum timentibus nostr\u00e6 Cluniacensi Ecclesi\u00e6; per hanc nostr\u00e6 pr?ceptionis paginam confirmamus illa tibi, tuisque successoribus, secundum petitionem tuam, quoniam eam rationabilem conspeximus et honestam. Proinde scuto nostr\u00e6 defensionis corroboramus pr\u00e6dicto C\u0153nobio Ecclesiam cum pr\u00e6dio, quod dicitur Raningas, sub nomine cell\u00e6 constructam, quam dedit bon\u00e6 memori\u00e6 Riquinus de Dornejo, consentiente uxore sua Lanceda nomine nostro pr\u00e6fato Monasterio; videlicet ipsum pr\u00e6dium Raningas cum omnibus appendiciis suis, terris cultis et incultis, pratis, silvis, aquis, aquarumque decursibus, pascuis, servis, ancillis, et omnibus usuaribus, qu\u00e6cumque ibi visi sunt possidere: Ecclesias, servos, et ancillas, pr\u00e6dia quoque, sicut sunt \u00e0 pr\u00e6dicto Riquino scripta, laudante et consentiente Tullensis Ecclesi\u00e6 Pontifice; salva tamen auctoritate et honore su\u00e6 Ecclesi\u00e6, confirmamus tibi in perpetuum. Pr\u00e6dium etiam, quod Hugo de longa aqua dedit sancto Petro Cluniacensis Ecclesi\u00e6, qui caput est hujus vestr\u00e6 cell\u00e6, confirmamus tibi. Insuper et alia qu\u00e6cumque \u00e0 bonis hominibus pr\u00e6dicto loco poste\u00e0 sunt concessa vel just\u00e8 adquisita, vel in futuro poterunt adquiri, eodem modo laudamus et confirmamus; statuentes Apostolica censura ut nullus Rex, Archiepiscopus, Episcopus, Dux, Comes, Vicecomes, vel aliqua alia judicialis persona audeat aliquam inferre calumniam contra hanc nostram defensatricem paginam, quam quicumque studuerit servare et custodire ill\u00e6sam, habeat nostram benedictionem cumulatam: qui autem contrarius extiterit, anathematis nostri jaculo percussus, in morte anim\u00e6 jacens ad vitam \u00e6ternam nunquam, nisi resipuerit, mereatur resurgere. Data 7. Kalendas Novembris per manus Udonis Tullensis Primicerii sanct\u00e6 Apostolic\u00e6 sedis Cancellarii et Bibliothecarii, anno Domini. Leonis IX. Indictione 4.\n"
        },
        {
            "type": "edition",
            "value": "Ici tir\u00e9e du projet <i>CBMA - Corpus Burgundiae Medii Aevi<\/i>, document 11085. Site du projet Corpus de la Bourgogne du Moyen \u00c2ge, [En ligne] <a href=\"http:\/\/www.cbma-project.eu\" target=\"_blank\">http:\/\/www.cbma-project.eu<\/a>  "
        },
        {
            "type": "sources_manuscrites",
            "value": "\u00e0 renseigner."
        },
        {
            "type": "remarques",
            "value": ""
        },
        {
            "type": "edition_autre",
            "value": "Ici reprise de Pierre Simon, <i>Bullarium sacri Ordinis cluniacensis, complectens plurima privilegia per summos pontifices tum ipsi cluniacensi abbatiae, tum ei subditis monasteriis hactenus concessa<\/i>, Lyon : Jullieron, 1680, p. 12, col. 2-13, col. 1.",
            "children": {
                "numero_note": "0"
            }
        },
        {
            "type": "genre",
            "value": "Bulle"
        },
        {
            "type": "genre",
            "value": "Lettre"
        }
    ]
}