{
    "id": 148299,
    "name": "aposcripta-7914",
    "type": "acte",
    "url": "http:\/\/telma-chartes.irht.cnrs.fr\/aposcripta\/notice\/148299",
    "project_slug": "aposcripta",
    "project_label": "APOSCRIPTA \u2013 Lettres des papes",
    "user": "j_theryastruc",
    "last_update": "2020-10-19 16:39:44",
    "licence": "Attribution - Pas d\u2019Utilisation Commerciale - Partage dans les M\u00eames Conditions 3.0 France (CC BY-NC-SA 3.0 FR) ",
    "licence_url": "https:\/\/creativecommons.org\/licenses\/by-nc-sa\/3.0\/fr\/",
    "elements": [
        {
            "type": "pape",
            "value": "Nicolas V (1447-1455)"
        },
        {
            "type": "destinataire",
            "value": "Le cardinal d'Albano Pierre de Foix le vieux, vicaire g\u00e9n\u00e9ral du Comtat Venaissin"
        },
        {
            "type": "date_libre",
            "value": "MCDXLVII, quarto idus maii, anno primo"
        },
        {
            "type": "date",
            "value": "1447\/05\/12",
            "children": {
                "date_deb_annee": "1447",
                "date_deb_mois": "05",
                "date_deb_jour": "12"
            },
            "range": {
                "date_apres": 14470512,
                "date_avant": 14470512
            }
        },
        {
            "type": "date_lieu",
            "value": "Rome, Saint-Pierre"
        },
        {
            "type": "analyse",
            "value": "Le pape nomme le cardinal d'Albano Pierre de Foix le vieux son vicaire g\u00e9n\u00e9ral au temporel dans le Comtat Venaissin."
        },
        {
            "type": "sources_manuscrites",
            "value": "FRANCE, Marseille, Archives d\u00e9partementales des Bouches-du-Rh\u00f4ne, B 1221, fol. 903-906 (Proc\u00e8s du Rh\u00f4ne, 1500).",
            "children": {
                "type_source": "Copie moderne"
            }
        },
        {
            "type": "bibliographie_generale",
            "value": "J. Annat, \u00ab Quatre bulles relatives \u00e0 Pierre de Foix Le vieux \u00bb, <i>Revue de Gascogne<\/i>, 1903, p. 233-261, \u00e0 la p. 233 <a target=\"_blank\" href=\"https:\/\/gallica.bnf.fr\/ark:\/12148\/bpt6k5742951t\/f227.image\"> [en ligne]<\/a>. "
        },
        {
            "type": "genre",
            "value": "Mandement (littere cum filo canapis)"
        },
        {
            "type": "edition",
            "value": "Joseph Hyacinthe Alban\u00e8s, Ulysse Joseph Chevalier, <i>Gallia christiana novissima. Histoire des archev\u00each\u00e9s, \u00e9v\u00each\u00e9s et abbayes de France. 3. Arles<\/i>, Valence, 1901, doc. 733, col. 282 <a target=\"_blank\" href=\"https:\/\/archive.org\/details\/galliachristiana03albauoft\/page\/1386\/mode\/2up\"> [en ligne]<\/a>."
        },
        {
            "type": "transcription",
            "value": "<?xml version=\"1.0\" encoding=\"UTF-8\"?>\nNicolaus episcopus, servus servorum Dei, venerabili fratri Petro, episcopo Albanensi, in civitate nostra Avinionensi et Comitatu Venayssini et districtu pertinentiisque eorumdem pro nobis et Romana Ecclesia in temporalibus vicario generali, salutem et apostolicam benedictionem. Dum onus universalis gregis Domini superna dispositione... \u00e0 compl\u00e9ter ...palmam et gloriam consequi merearis. Datum Rome, apud Sanctum Petrum, anno Incarnationis dominice millesimo quadringentesimo quadragesimo septimo, quarto ydus maii, pontificatus nostri anno primo.\n"
        }
    ]
}