{
    "id": 26550,
    "name": "aposcripta-3629",
    "type": "acte",
    "url": "http:\/\/telma-chartes.irht.cnrs.fr\/aposcripta\/notice\/26550",
    "project_slug": "aposcripta",
    "project_label": "APOSCRIPTA \u2013 Lettres des papes",
    "user": "lettrespontificalesadmin",
    "last_update": "2020-10-19 16:28:02",
    "licence": "Attribution - Pas d\u2019Utilisation Commerciale - Partage dans les M\u00eames Conditions 3.0 France (CC BY-NC-SA 3.0 FR) ",
    "licence_url": "https:\/\/creativecommons.org\/licenses\/by-nc-sa\/3.0\/fr\/",
    "elements": [
        {
            "type": "pape",
            "value": "C\u00e9lestin III (1191-1198)"
        },
        {
            "type": "date_lieu",
            "value": "Lateran"
        },
        {
            "type": "date_libre",
            "value": "1196 December 12"
        },
        {
            "type": "date",
            "value": " 1196\/12\/12",
            "children": {
                "date_deb_annee": "1196",
                "date_deb_mois": "12",
                "date_deb_jour": "12"
            },
            "range": {
                "date_apres": 11961212,
                "date_avant": 11961212
            }
        },
        {
            "type": "analyse",
            "value": "C\u00f6lestin III verbietet den Kanonikern von Ste.-Croix de Cambrai, in Zukunft andere als frei gewordene Pr\u00e4benden zu verleihen, es sei denn, dass sie daf\u00fcr ein apostolisches Specialmandat erhielten."
        },
        {
            "type": "transcription",
            "value": "<?xml version=\"1.0\" encoding=\"UTF-8\"?>\n Celestinus episcopus servus servorum dei dilectis filiis, canonicis sancte Crucis Cameracensis, salutem et | apostolicam benedictionem. Cum omnium ecclesiarum nobis, licet inmeritis, cura sit et sollicitudo commissa, sic ad eas | tenemur aciem nostre considerationis extendere et indempnitati earum paterna sollicitudine providere, ne molestantium incursibus agitentur vel earum possit quomodolibet libertatibus derogari. Sane ad apostolatus nostri audientiam quorundam relatione pervenit, quod potentum terre vestre et ecclesiasticarum personarum precibus et instantiis urgentissimis quandoque devicti, compellimini, personis aliquibus prebendas concedere non vacantes, in ecclesie vestre et iuris canonici dispendium et gravamen. Cum igitur iuxta Lateranensis statuta concilii, nullum beneficium nisi vacans alicui persone debeat assignari, volentes ecclesie vestre sollicitudine paterna consulere, auctoritate vobis presentium districtius inhibemus, ne alicui persone prebendam in ecclesia vestra, donec vacet, presumatis concedere, nisi mandatum apostolicum super hoc receperitis spetiale. Nulli ergo omnino hominum liceat, hanc nostre paginam inhibitionis infringere vel ei ausu temerario contraire. Si quis autem hoc attemptare presumpserit, indignationem omnipotentis dei et beatorum Petri et | Pauli apostolorum eius se noverit incursurum. \u2014 Dat. Laterani, ii Idus | Decembr. Pontificatus nostri anno sexto.\n"
        },
        {
            "type": "edition",
            "value": "Julius von Pflugk-Harttung, <i>Acta pontificum Romanorum inedita<\/i>, T\u00fcbingen, 1880, I, n. 441, p. 377"
        },
        {
            "type": "sources_manuscrites",
            "value": "Or. im Archive des D\u00e9p. Nord zu Lille (Fonds de Ste.-Croix de Cambrai)."
        },
        {
            "type": "remarques",
            "value": "Perg. ital., breit 0,215, lang 0,182, unten umgeschlagen, durch 2 L\u00f6cher geht die gelb und rosa Seidenschnur, Bulle verloren, Faltung der Breven."
        },
        {
            "type": "genre",
            "value": "Bulle"
        }
    ]
}