{
    "id": 149631,
    "name": "aposcripta-9194",
    "type": "acte",
    "url": "http:\/\/telma-chartes.irht.cnrs.fr\/aposcripta\/notice\/149631",
    "project_slug": "aposcripta",
    "project_label": "APOSCRIPTA \u2013 Lettres des papes",
    "user": "lettrespontificalesadmin",
    "last_update": "2020-10-19 16:40:01",
    "licence": "Attribution - Pas d\u2019Utilisation Commerciale - Partage dans les M\u00eames Conditions 3.0 France (CC BY-NC-SA 3.0 FR) ",
    "licence_url": "https:\/\/creativecommons.org\/licenses\/by-nc-sa\/3.0\/fr\/",
    "elements": [
        {
            "type": "pape",
            "value": "Alexandre IV (1254-1261)"
        },
        {
            "type": "destinataire",
            "value": ". . archiepiscopo Salernitano"
        },
        {
            "type": "date_libre",
            "value": "XI kalendas aprilis, anno I"
        },
        {
            "type": "date",
            "value": " 1255\/03\/22",
            "children": {
                "date_deb_annee": "1255",
                "date_deb_mois": "03",
                "date_deb_jour": "22"
            },
            "range": {
                "date_apres": 12550322,
                "date_avant": 12550322
            }
        },
        {
            "type": "date_lieu",
            "value": "Neapoli"
        },
        {
            "type": "sources_manuscrites",
            "value": "R. CIT\u00c9 DU VATICAN, Archivio Segreto Vaticano, <hi rend=\"italic\">Registra Vaticana<\/hi> ... Al.\u00a0IV Reg. Vol.\u00a0I, 31-32; Lib.\u00a0I, 238. Pertzii exemplar contulimus cum Regestis.",
            "children": {
                "type_source": "Registre de la chancellerie apostolique"
            }
        },
        {
            "type": "genre",
            "value": "Mandement (littere cum filo canapis)"
        },
        {
            "type": "analyse",
            "value": "Alexander IV papa [Caesareo] archiepiscopo Salernitano contrahendi mutuum pro redemptione castri Olibani, quod a quodam Teutonico detineatur, facultatem concedit [Rodenberg]."
        },
        {
            "type": "transcription",
            "value": "<?xml version=\"1.0\" encoding=\"UTF-8\"?>\n. . archiepiscopo Salernitano.Constitutus in nostra presentia nobis humiliter supplicasti, ut cum pro redemptione castri Olibani, quod specialiter ad ecclesiam tuam pertinens a quodam Theutonico detinetur, sit tibi ducentarum et quinquaginta unciarum auri quantitas oportuna, providere super hoc paterna sollicitudine curaremus. Nos itaque, tuis supplicationibus inclinati, contrahendi propter hoc mutuum usque ad quantitatem predictam et omnia bona eiusdem ecclesie creditoribus obligandi plenam tibi auctoritate presentium concedimus facultatem, volentes ut ad solvendas easdem uncias dicta ecclesia teneatur et illis qui eas tibi mutuaverint, quod in utilitatem ipsius ecclesie sint converse, pretextu alicuius constitutionis canonice vel civilis probandi necessitas non incumbat.Dat. Neapoli, XI Kalendas Aprilis, anno I\u00b0.\n"
        },
        {
            "type": "edition",
            "value": "Ici reprise de Karl Rodenberg, Epistolae s. XIII e regestis pontificum romanorum selectae, III, Berlin : Weidmann (MGH), 1894, n.\u00a0388, p.\u00a0347."
        },
        {
            "type": "edition_autre",
            "value": "?"
        },
        {
            "type": "regeste",
            "value": "?"
        },
        {
            "type": "bibliographie_generale",
            "value": "?"
        },
        {
            "type": "apparat_critique",
            "value": "?",
            "children": {
                "numero_note": "a"
            }
        },
        {
            "type": "apparat_critique",
            "value": "?",
            "children": {
                "numero_note": "b"
            }
        },
        {
            "type": "apparat_critique",
            "value": "?",
            "children": {
                "numero_note": "c"
            }
        },
        {
            "type": "apparat_critique",
            "value": "?",
            "children": {
                "numero_note": "d"
            }
        },
        {
            "type": "apparat_critique",
            "value": "?",
            "children": {
                "numero_note": "e"
            }
        },
        {
            "type": "apparat_critique",
            "value": "?",
            "children": {
                "numero_note": "f"
            }
        },
        {
            "type": "notes_historiques",
            "value": "?",
            "children": {
                "numero_note": "1"
            }
        },
        {
            "type": "notes_historiques",
            "value": "?",
            "children": {
                "numero_note": "2"
            }
        },
        {
            "type": "notes_historiques",
            "value": "?",
            "children": {
                "numero_note": "3"
            }
        }
    ]
}