{
    "id": 146678,
    "name": "aposcripta-6308",
    "type": "acte",
    "url": "http:\/\/telma-chartes.irht.cnrs.fr\/aposcripta\/notice\/146678",
    "project_slug": "aposcripta",
    "project_label": "APOSCRIPTA \u2013 Lettres des papes",
    "user": "tgirard",
    "last_update": "2020-10-19 16:39:21",
    "licence": "Attribution - Pas d\u2019Utilisation Commerciale - Partage dans les M\u00eames Conditions 3.0 France (CC BY-NC-SA 3.0 FR) ",
    "licence_url": "https:\/\/creativecommons.org\/licenses\/by-nc-sa\/3.0\/fr\/",
    "elements": [
        {
            "type": "pape",
            "value": "C\u00e9lestin III (1191-1198)"
        },
        {
            "type": "destinataire",
            "value": "Toute la communaut\u00e9 du monast\u00e8re de San Bartolomeo de Carpineto"
        },
        {
            "type": "date_libre",
            "value": "IV kalendas octobris, anno quarto"
        },
        {
            "type": "date",
            "value": "1194\/09\/28",
            "children": {
                "date_deb_annee": "1194",
                "date_deb_mois": "09",
                "date_deb_jour": "28"
            },
            "range": {
                "date_apres": 11940928,
                "date_avant": 11940928
            }
        },
        {
            "type": "date_lieu",
            "value": "Latran"
        },
        {
            "type": "genre",
            "value": "Mandement (littere cum filo canapis)"
        },
        {
            "type": "analyse",
            "value": "C\u00f6lestin III erinnert den Konvent von San Bartolomeo di Carpineto (D. Penne) daran, dass er Walter m\u00f6glichst schnell zu ihrem Abte benedicirt und ihn ihnen empfohlen habe, sie m\u00f6chten ihn unterst\u00fctzen."
        },
        {
            "type": "sources_manuscrites",
            "value": "E. ITALIE, Rome, Biblioteca Chigiana, E. VI. 188. Perg. ital., br. 0,197\u20130,204, lang 0,182, unten 0,019 umgeschlagen, durch 2 L\u00f6cher ging die Schnur, welche mit dem Bleisiegel verloren. Faltung einmal der L\u00e4nge und einmal der Breite nach.",
            "children": {
                "type_source": "Original"
            }
        },
        {
            "type": "edition",
            "value": "Ici reprise de Julius von Pflugk-Harttung, <i>Acta pontificum Romanorum inedita.<\/i> III. <i>Urkunden der P\u00e4pste vom Jahre 590 bis zum Jahre 1197<\/i>, III, Stuttgart : W. Kohlhammer, 1886, n. 470, p. 396-397."
        },
        {
            "type": "transcription",
            "value": "<?xml version=\"1.0\" encoding=\"UTF-8\"?>\nCelestinus episcopus, servus servorum Dei, dilectis filiis universo conventui monasterii sancti Bartholomei de Carpeneto, salutem et apostolicam benedictionem. Cum dilectus filius noster Gualterius, nunc abbas, tunc electus vester, cum quibusdam ex fratribus vestris ad nostram presentiam accessisset et fratres ipsi, qui in eius venerant comitatu, ex parte vestra concordis electionis illius litteras presentassent, eos benigne recepimus et, communicato fratrum nostrorum consilio, super continentia litterarum illarum et desiderio vestro electionem illam ratam duximus et firmam habendam et, intellecto monasterii vestri gravamine ac inspecta insuper corporali molestia eiusdem electi, maturiusa ei fecimus munus benedictionisa impendi. Unde ipsum cum nostra et fratrum nostrorum gratia revertentem universitati vestre duximus propensius commendandum, mo[ne]ntes attentius ac per apostolica scripta precipiendo [man]dantes, quatinus eum benigno recipiatis affectu1 et ei tamquam vestro spirituali patri reverentiam et [obe]dientiam exhibeatis debitam et honorem. Et ita in agendis monasterii assistere procuretis, ut et monasterium ipsum ex utili provisione ipsius et vos omnes in spiritualibus et temporalibus auctore domino magis ac [ma]gis suscipiatis augmentum et idem abbas, faventibus vobis et amminiculantibus, studiose iniunctum sibi officium commode ac salubriter valeat exercere. Datum Laterani, IIII kalendas octubris, pontificatus nostri anno quarto.\n"
        },
        {
            "type": "apparat_critique",
            "value": "Von <i>maturius<\/i> bis <i>impendi<\/i> auf Rasur.",
            "children": {
                "numero_note": "a"
            }
        },
        {
            "type": "notes_historiques",
            "value": "Dieses Breve ist nicht erhalten.",
            "children": {
                "numero_note": "1"
            }
        },
        {
            "type": "regeste",
            "value": "Philippe Jaff\u00e9, Wilhelm Wattenbach, Samuel Loewenfeld, Ferdinand Kaltenbrunner, Paul Ewald, <i>Regesta pontificum Romanorum ab condita ecclesia ad annum post Christum natum MCXCVIII<\/i>, 2<sup>e<\/sup> \u00e9d. Leipzig, : Veit, 1885-1888, 2 vol., n. 17146 <a target=\"_blank\" href= \"https:\/\/archive.org\/details\/regestapontificu02cath\/page\/608\">[en ligne]<\/a>."
        }
    ]
}