{
    "id": 27254,
    "name": "aposcripta-4023",
    "type": "acte",
    "url": "http:\/\/telma-chartes.irht.cnrs.fr\/aposcripta\/notice\/27254",
    "project_slug": "aposcripta",
    "project_label": "APOSCRIPTA \u2013 Lettres des papes",
    "user": "j_theryastruc",
    "last_update": "2020-10-19 16:28:11",
    "licence": "Attribution - Pas d\u2019Utilisation Commerciale - Partage dans les M\u00eames Conditions 3.0 France (CC BY-NC-SA 3.0 FR) ",
    "licence_url": "https:\/\/creativecommons.org\/licenses\/by-nc-sa\/3.0\/fr\/",
    "elements": [
        {
            "type": "pape",
            "value": "Cl\u00e9ment IV (1265-1268)"
        },
        {
            "type": "destinataire",
            "value": "Le ma\u00eetre et les fr\u00e8res de la maison de l'H\u00f4pital de J\u00e9rusalem"
        },
        {
            "type": "sources_manuscrites",
            "value": "E<sup>1<\/sup>. FRANCE, Paris, Archives nationales de France, L. 258\/37 (original, bulle sur lacs de soie).",
            "children": {
                "type_source": "Exp\u00e9dition"
            }
        },
        {
            "type": "sources_manuscrites",
            "value": "E<sup>2<\/sup>. FRANCE, Paris, Archives nationales de France, L. 258\/37bis (original, bulle sur lacs de soie).",
            "children": {
                "type_source": "Exp\u00e9dition"
            }
        },
        {
            "type": "sources_manuscrites",
            "value": "F. AUTRICHE, Vienne, Deutschordenszentralarchiv, 1796 <a target=\"_blank\" href=\"http:\/\/monasterium.net\/augias\/viewer.xql?lang=eng&imagedata=\/mom\/service\/augiasviewer&archive-id=AT-DOZA&fond-id=Urkunden&charter-id=1796\"> [image en ligne]<\/a>. Lettre copi\u00e9e dans un vidimus r\u00e9dig\u00e9 \u00e0 Bologne le 19 mars 1345.",
            "children": {
                "type_source": "Vidimus"
            }
        },
        {
            "type": "regeste",
            "value": "Potthast, <i>Regesta pontificum Romanorum<\/i>, n. 19165 <a target=\"_blank\" href=\"https:\/\/archive.org\/stream\/RegestaPontificumRomanorum\/ph#page\/n1565\/mode\/2up\"> [en ligne]<\/a>."
        },
        {
            "type": "regeste",
            "value": "\u00c9douard Jordan, <i>Les registres de Cl\u00e9ment IV (1265-1268) : recueil des bulles de ce pape<\/i>, Paris, 1893-1945, n. 1669."
        },
        {
            "type": "regeste",
            "value": "Joseph Delaville Le Roulx, <i>Cartulaire g\u00e9n\u00e9ral de l'ordre des Hospitaliers de S. Jean de J\u00e9rusalem (1100-1310)<\/i>, Paris : E. Le Roux, 1894-1906, III, n. 3156."
        },
        {
            "type": "transcription",
            "value": "<?xml version=\"1.0\" encoding=\"UTF-8\"?>\nClemens episcopus, servus servorum Dei, dilectis filiis .. magistro et fratribus domus Hospitalis Jerosolimitani, salutem et apostolicam benedictionem. Devotionis vestre promeretur affectus ut quod a nobis suppliciter petitis ad exauditionis gratiam, quantum cum Deo posumusa, favorabilliterb admittamus. Eapropter, dilecti in Domino filii, vestris supplicationibus inclinati, ut ab aliquibus in causam trahi per literas apostolicas nisi plenam et expresamc de hac indulgentia et ordine vestro fecerint mentionem minime valeatis auctoritate vobis presentium indulgemus. Nulid ergo omnino hominum liceat hanc paginam nostre concessionis infringere vel ei ausu temerario contraire. Si quis autem hoc atemptaree presumpserit, indignationem omnipotentis Dei et beatorum Petri et Pauli apostolorum ejus se noverit incursurum. Datum Perusii, II kalendas junii, pontificatus nostri anno primo.\n"
        },
        {
            "type": "date",
            "value": " 1265\/05\/31",
            "children": {
                "date_deb_jour": "31",
                "date_deb_mois": "05",
                "date_deb_annee": "1265"
            },
            "range": {
                "date_apres": 12650531,
                "date_avant": 12650531
            }
        },
        {
            "type": "edition",
            "value": "Clara Lenne et Julien Th\u00e9ry pour APOSCRIPTA, d'apr\u00e8s F."
        },
        {
            "type": "edition_autre",
            "value": "Ernst Strelhke, <i>Tabulae ordinis Theutonici ex tabularii regii Berolinensis codice potissimum<\/i>, n. 638, p. 417<a target=\"_blank\" href=\"https:\/\/archive.org\/stream\/tabulaeextabula00ordegoog#page\/n432\/mode\/2up\"> [en ligne]<\/a> (Strelhke attribue le b\u00e9n\u00e9fice du privil\u00e8ge \u00e0 l'ordre teutonique)."
        },
        {
            "type": "apparat_critique",
            "value": "<i>sic<\/i>.",
            "children": {
                "numero_note": "a"
            }
        },
        {
            "type": "apparat_critique",
            "value": "<i>sic<\/i>.",
            "children": {
                "numero_note": "b"
            }
        },
        {
            "type": "apparat_critique",
            "value": "<i>sic<\/i>.",
            "children": {
                "numero_note": "c"
            }
        },
        {
            "type": "apparat_critique",
            "value": "<i>sic<\/i>.",
            "children": {
                "numero_note": "d"
            }
        },
        {
            "type": "regeste",
            "value": "Udo Arnold, Marian Tumler, <i>Die Urkunden des Deutschordenszentralarchivs in Wien. Regesten I-III<\/i> (=Quellen und Studien zur Geschichte des Deutschen Ordens 60\/I-III, Marburg 2006-2009), n. 1796."
        },
        {
            "type": "apparat_critique",
            "value": "<i>sic<\/i>.",
            "children": {
                "numero_note": "e"
            }
        },
        {
            "type": "genre",
            "value": "Titre, g\u00e9n\u00e9ral (littere gratiose, cum filo serico)"
        }
    ]
}