{
    "id": 146837,
    "name": "aposcripta-6467",
    "type": "acte",
    "url": "http:\/\/telma-chartes.irht.cnrs.fr\/aposcripta\/notice\/146837",
    "project_slug": "aposcripta",
    "project_label": "APOSCRIPTA \u2013 Lettres des papes",
    "user": "l_valliere",
    "last_update": "2020-10-19 16:39:23",
    "licence": "Attribution - Pas d\u2019Utilisation Commerciale - Partage dans les M\u00eames Conditions 3.0 France (CC BY-NC-SA 3.0 FR) ",
    "licence_url": "https:\/\/creativecommons.org\/licenses\/by-nc-sa\/3.0\/fr\/",
    "elements": [
        {
            "type": "pape",
            "value": "Cl\u00e9ment IV (1265-1268)"
        },
        {
            "type": "destinataire",
            "value": "Tous les fid\u00e8les du Christ"
        },
        {
            "type": "date_libre",
            "value": "XV kalendas maii, anno primo"
        },
        {
            "type": "date",
            "value": "1265\/04\/17",
            "children": {
                "date_deb_annee": "1265",
                "date_deb_mois": "04",
                "date_deb_jour": "17"
            },
            "range": {
                "date_apres": 12650417,
                "date_avant": 12650417
            }
        },
        {
            "type": "date_lieu",
            "value": "P\u00e9rouse"
        },
        {
            "type": "genre",
            "value": "Titre, g\u00e9n\u00e9ral (littere gratiose, cum filo serico)"
        },
        {
            "type": "analyse",
            "value": "Universis Christifidelibus ecclesiam fratrum Minorum de Certomundo Aretin. dioc. ad gloriam Mariae V. iam constructam et in proximo dedicandam in die dedicationis visitantibus indulgentiam unius anni et 40 dierum largitur."
        },
        {
            "type": "edition",
            "value": "Giovanni Giacinto Sbaraglia, <i>Bullarium Franciscanum Romanorum pontificum constitutiones, epistolas ac diplomata...<\/i>, 4 t., Rome, 1759-1768, t. III, n. 3, p. 3."
        },
        {
            "type": "regeste",
            "value": "Potthast, <i>Regesta pontificum Romanorum<\/i>, n. 19095 <a target=\"_blank\" href=\" http:\/\/opacplus.bsb-muenchen.de\/title\/BV004241514\/ft\/bsb11316018?page=613\"> [en ligne]<\/a>."
        },
        {
            "type": "transcription",
            "value": "<?xml version=\"1.0\" encoding=\"UTF-8\"?>\nSplendor paternae gloriae...\n"
        }
    ]
}