{
    "id": 147509,
    "name": "aposcripta-7136",
    "type": "acte",
    "url": "http:\/\/telma-chartes.irht.cnrs.fr\/aposcripta\/notice\/147509",
    "project_slug": "aposcripta",
    "project_label": "APOSCRIPTA \u2013 Lettres des papes",
    "user": "l_valliere",
    "last_update": "2020-10-19 16:39:32",
    "licence": "Attribution - Pas d\u2019Utilisation Commerciale - Partage dans les M\u00eames Conditions 3.0 France (CC BY-NC-SA 3.0 FR) ",
    "licence_url": "https:\/\/creativecommons.org\/licenses\/by-nc-sa\/3.0\/fr\/",
    "elements": [
        {
            "type": "pape",
            "value": "Cl\u00e9ment IV (1265-1268)"
        },
        {
            "type": "destinataire",
            "value": "Le roi de Sicile Charles I<sup>er<\/sup>"
        },
        {
            "type": "date_libre",
            "value": "III kalendas decembris, anno primo"
        },
        {
            "type": "date",
            "value": "1265\/11\/29",
            "children": {
                "date_deb_annee": "1265",
                "date_deb_mois": "11",
                "date_deb_jour": "29"
            },
            "range": {
                "date_apres": 12651129,
                "date_avant": 12651129
            }
        },
        {
            "type": "date_lieu",
            "value": "P\u00e9rouse"
        },
        {
            "type": "genre",
            "value": "Lettre, g\u00e9n\u00e9ral (apr\u00e8s 1198, littere cum filo canapis)"
        },
        {
            "type": "analyse",
            "value": "Carolum regem Siciliae rogat et monet ut Lucanorum ambaxiatores benigne recipiat [Potthast].\nClemens IV. an K\u00f6nig K(arl I.) von Sizilien: r\u00e4t ihm, auf die Vorschl\u00e4ge und Anliegen einer Gesandtschaft aus Lucca einzugehen, weil die Stadt auch nach dem Durchzug seiner Truppen f\u00fcr ihn wichtig sein k\u00f6nne [Thumser]."
        },
        {
            "type": "edition",
            "value": "Ici reprise de Mathias Thumser, <i>Die Briefe Papst Clemens\u2019 IV. (1265-1268)<\/i>, Vorl\u00e4ufige Edition, MGH, 2015, n. 116."
        },
        {
            "type": "regeste",
            "value": "Potthast, <i>Regesta pontificum Romanorum<\/i>, n. 19473 <a target=\"_blank\" href=\" http:\/\/opacplus.bsb-muenchen.de\/title\/BV004241514\/ft\/bsb11316018?page=640\"> [en ligne]<\/a>."
        },
        {
            "type": "transcription",
            "value": "<?xml version=\"1.0\" encoding=\"UTF-8\"?>\nCarissimo in Christo filio C[arolo] regi Sicilie illustri. Accedentes ad tuam presentiam Lucanorum ambassiatores benigne recipias et audias patienter. Nescimus enim, an via remaneat libera post militie tue transitum, quem prosperum Deus faciat, eorum vestigia secuturis vel a tuo exercitu ad sua pro tempore redituris. Non enim tibi sufficit transitus venientium, nisi viam aliquam habeant oportunam, qua venire valeant et redire nunc centum nunc pauciores vel plures, prout occasio se obtulerit, cum magnus exercitus, sicut recedentium minoratur absentia, sic novorum egeat supplemento. Sane, quia id per Ianuam esset commodius ac liberius et hii dicunt, quod eis est facile Ianuam etiam in hoc statu, quem contra beneplacitum nostrum habet, ad favorem tuum convertere, consulimus, quod eos intelligas et vias, quas tibi monstrabunt, diligenter scruteris et venerabili fratri nostro Avinionensi episcopo, que tibi utilia videbuntur, iniungas et, si a te petierint aliquatenus portabilia, non ea respuas, sed potius ad illa, que proficere posse videris, etsi non sint prorsus perspicua, te coaptes, cum ex hoc multa possent vitari contraria et multa commoda procurari. Datum Perusii, III Kalendas Decembris, anno I.\n"
        }
    ]
}