{
    "id": 149238,
    "name": "aposcripta-8801",
    "type": "acte",
    "url": "http:\/\/telma-chartes.irht.cnrs.fr\/aposcripta\/notice\/149238",
    "project_slug": "aposcripta",
    "project_label": "APOSCRIPTA \u2013 Lettres des papes",
    "user": "lettrespontificalesadmin",
    "last_update": "2020-10-19 16:39:55",
    "licence": "Attribution - Pas d\u2019Utilisation Commerciale - Partage dans les M\u00eames Conditions 3.0 France (CC BY-NC-SA 3.0 FR) ",
    "licence_url": "https:\/\/creativecommons.org\/licenses\/by-nc-sa\/3.0\/fr\/",
    "elements": [
        {
            "type": "pape",
            "value": "Innocent IV (1243-1254)"
        },
        {
            "type": "destinataire",
            "value": "W. regi Romanorum illustri"
        },
        {
            "type": "date_libre",
            "value": "XV kalendas martii, anno VIII"
        },
        {
            "type": "date",
            "value": " 1251\/02\/15",
            "children": {
                "date_deb_annee": "1251",
                "date_deb_mois": "02",
                "date_deb_jour": "15"
            },
            "range": {
                "date_apres": 12510215,
                "date_avant": 12510215
            }
        },
        {
            "type": "date_lieu",
            "value": "Lugduni"
        },
        {
            "type": "sources_manuscrites",
            "value": "R. CIT\u00c9 DU VATICAN, Archivio Segreto Vaticano, <hi rend=\"italic\">Registra Vaticana<\/hi> ... Inn.\u00a0IV Reg. Vol.\u00a0II, 83; Lib.\u00a0VIII, cur.\u00a015. Exemplar Raynaldi, Ann. eccl. a. 1251, \u00a7\u00a09, contulimus cum Regestis.",
            "children": {
                "type_source": "Registre de la chancellerie apostolique"
            }
        },
        {
            "type": "genre",
            "value": "Mandement (littere cum filo canapis)"
        },
        {
            "type": "analyse",
            "value": "Innocentius IV papa W[illelmum] regem Romanorum hortatur, ut praviloquiis aliquorum, qui caritatem, quam ad ecclesiam Romanam habeat, attenuare desiderent, auditum neget; nuntiat se in proximo ipsum ad coronam imperii sublimaturum esse [Rodenberg]."
        },
        {
            "type": "transcription",
            "value": "<?xml version=\"1.0\" encoding=\"UTF-8\"?>\nW. regi Romanorum illustri.Licet, postquam Dominus, servorum suorum humilium clamoribus excitatus, in christum suum ad liberandum devotos filios a iugo misere servitutis voluit te assumi, circa tuos profectus meditatione continua indefesse vigilaverit sedes apostolica mater tua, prout operum clara testimonia probaverunt: nunc tamen tanto amplius ad persone tue sublimationem [et] statum feliciter consumandum intendimus teque fovere proponimus auxiliis et favoribus oportunis, quanto prosperius negotium ecclesie ac imperii, circa quod multorum studia, que fervere debuerant, frigescebant, divina promovente dextera progressum attingit cum desiderio expectatum. Proinde, fili karissime, hortamur serenitatem tuam in Domino: labora sollicite per te ipsum et Excelsi dextere collabora, promove fideles in negotio, infideles ad fidem satage prudentia qua convenit revocare, gloriosius exinde proventurus ad Romani imperii diadema, quo te Deo propitio decorare tota intentione animi affectamus. Nec regalis excellentia credulitatis auditum accomodet praviloquiis aliquorum, in contrarium tibi forsan suggerentium et intendentium tortuosa veternosi calliditate serpentis venenum aliquod sinceris affectibus admiscere, ut eam, quam ad Romanam habes ecclesiam et qua ipsa te sincere complectitur, caritatem attenuent vel remittant et tuam magnificentiam reddant in prosecutione imminentis negotii negligentem. Omni autem a talibus cautele studio serva cor tuum, et aures tuas, ne blandis pareant susurronibus, spinis sepi, in ecclesie devotione crescere semper studens, que te pure dilexit et diligit ac materno affectu diligere non desistens ad coronam imperii Deo propitio ac vita comite in proximo sublimabit.Dat. Lugduni, XV Kalendas Martii, anno VIII\u00b0.\n"
        },
        {
            "type": "edition",
            "value": "Ici reprise de Karl Rodenberg, Epistolae s. XIII e regestis pontificum romanorum selectae, III, Berlin : Weidmann (MGH), 1894, n.\u00a060, p.\u00a047."
        },
        {
            "type": "edition_autre",
            "value": "?"
        },
        {
            "type": "regeste",
            "value": "?"
        },
        {
            "type": "bibliographie_generale",
            "value": "?"
        },
        {
            "type": "apparat_critique",
            "value": "?",
            "children": {
                "numero_note": "a"
            }
        },
        {
            "type": "apparat_critique",
            "value": "?",
            "children": {
                "numero_note": "b"
            }
        },
        {
            "type": "apparat_critique",
            "value": "?",
            "children": {
                "numero_note": "c"
            }
        },
        {
            "type": "apparat_critique",
            "value": "?",
            "children": {
                "numero_note": "d"
            }
        },
        {
            "type": "apparat_critique",
            "value": "?",
            "children": {
                "numero_note": "e"
            }
        },
        {
            "type": "apparat_critique",
            "value": "?",
            "children": {
                "numero_note": "f"
            }
        },
        {
            "type": "notes_historiques",
            "value": "?",
            "children": {
                "numero_note": "1"
            }
        },
        {
            "type": "notes_historiques",
            "value": "?",
            "children": {
                "numero_note": "2"
            }
        },
        {
            "type": "notes_historiques",
            "value": "?",
            "children": {
                "numero_note": "3"
            }
        }
    ]
}