{
    "id": 20302,
    "name": "aposcripta-289",
    "type": "acte",
    "url": "http:\/\/telma-chartes.irht.cnrs.fr\/aposcripta\/notice\/20302",
    "project_slug": "aposcripta",
    "project_label": "APOSCRIPTA \u2013 Lettres des papes",
    "user": "lettrespontificalesadmin",
    "last_update": "2020-10-19 16:26:47",
    "licence": "Attribution - Pas d\u2019Utilisation Commerciale - Partage dans les M\u00eames Conditions 3.0 France (CC BY-NC-SA 3.0 FR) ",
    "licence_url": "https:\/\/creativecommons.org\/licenses\/by-nc-sa\/3.0\/fr\/",
    "elements": [
        {
            "type": "pape",
            "value": "Jean XXII (1316-1334)"
        },
        {
            "type": "date_lieu",
            "value": "Avignon"
        },
        {
            "type": "date_libre",
            "value": "25 janvier 1333"
        },
        {
            "type": "analyse",
            "value": "Le pape confie \u00e0 trois commissaires la cause d\u2019Yves de K\u00e9rinou, pr\u00eatre du dioc\u00e8se de L\u00e9on, accus\u00e9 d\u2019avoir tenu des propos suspects d\u2019h\u00e9r\u00e9sie. Ce pr\u00eatre, d\u00e9nu\u00e9 de ressources, ne peut venir se d\u00e9fendre devant le cardinal Jacques Fournier, qui a \u00e9t\u00e9 charg\u00e9 de cette affaire."
        },
        {
            "type": "transcription",
            "value": "<?xml version=\"1.0\" encoding=\"UTF-8\"?>\nDilectis filiis .. archidiacono de Kementyli1 et magistro Guidomari, ac Guillelmo Evenok, canonicis ecclesie Leonen., salutem. \u2014 Sua nobis dilectus filius Yvo de Kerinou, rector parochialis ecclesie de Plebesizin2, Leonen. diocesis, petitione monstravit quod nos olim ad eiusdem Yvonis instantiam causas tam super dicta ecclesia quam etiam super quibusdam verbis per nonnullos emulos sibi impositis, que quidem verba apud quosdam heresim sapere dicebantur, dilecto filio nostro Jacobo3, tituli sancte Prisce, presbitero cardinali, apud Sedem apostolicam audiendam commisimus et fine debito terminandam ; coram quo inter ven. fratrem nostrum Petrum4, episcopum Leonen., et dilectos filios Guillelmum5, abbatem monasterii beati Mathei in Finisbus terrarum6, ordinis sancti Benedicti, ac magistrum Mauricium de Campoduro, rectorem ecclesie de Milifac7, dicte diocesis, decretorum doctorem, et Prigentium de Castrosapientis, ordinis fratrum predicatorum, ipsius episcopi commissarios et Bernardum Cadiaci, presbiterum, qui se asserit ipsius ecclesie de Plebesizin rectorem, ex parte una, et dictum Yvonem de Kerrinou, ex altera, fuit in causis processum multipliciter memoratis. Cum autem cause ipse nondum sint decise dictusque Yvo de Kerrinou, sicut asserit, paupertate depressus nequeat amplius apud Sedem predictam prosequi causas ipsas, discretioni vestre... mandamus quatinus partibus convocatis causas easdem auctoritate nostra, servatis legitimis processibus coram dicto cardinali habitis, audiatis et appellatione remota, fine debito decidatis... \u2014 Datum Avinioni, viii kalendas februarii, anno decimoseptimo.\n"
        },
        {
            "type": "edition",
            "value": "Jean-Marie Vidal, <i>Bullaire de l\u2019Inquisition fran\u00e7aise au XIV<sup>e<\/sup> si\u00e8cle et jusqu'\u00e0 la fin du Grand Schisme<\/i>, Paris : Letouzey et An\u00e9, 1913, n. 128, p. 190-191"
        },
        {
            "type": "sources_manuscrites",
            "value": "<i>Reg. Aven.<\/i>, t. <span class=\"smal-caps\">xliii<\/span>, fol. 539 v\u00b0."
        },
        {
            "type": "notes_historiques",
            "value": "L\u2019archidiacon\u00e9 de <i>Kemenet-Ili<\/i> s\u2019\u00e9tendait sur les cantons modernes de Lesneven, de Lannilis et de Landerneau, dans l\u2019arrond. de Brest (Finist\u00e8re).",
            "children": {
                "numero_note": "1"
            }
        },
        {
            "type": "notes_historiques",
            "value": "Probablement <i>Sizun<\/i> (<i>Plebs Sizun<\/i>), chef-lieu de canton, arrond. de Morlaix.",
            "children": {
                "numero_note": "2"
            }
        },
        {
            "type": "notes_historiques",
            "value": "Jacques Fournier ; voir n. 24, note 1.",
            "children": {
                "numero_note": "3"
            }
        },
        {
            "type": "notes_historiques",
            "value": "Pierre-Bernard de Guem\u00e9n\u00e9, \u00e9v\u00eaque de L\u00e9on, le 18 mai 1328 ; transf\u00e9r\u00e9 \u00e0 Saint-Malo, en 1349, et \u00e0 Rennes, le 14 janvier 1359 ; mort en 1362. <i>Gall. christ.<\/i>, t. <span class=\"smal-caps\">xiv<\/span>, col. 757, 978, 1007 ; Eubel, <i>Hier.<\/i>, t. <span class=\"smal-caps\">i<\/span>, p. 315, 333, 437.",
            "children": {
                "numero_note": "4"
            }
        },
        {
            "type": "notes_historiques",
            "value": "Guillaume I<sup>er<\/sup>. <i>Gall. christ.<\/i>, t. <span class=\"smal-caps\">xiv<\/span>, col. 988.",
            "children": {
                "numero_note": "5"
            }
        },
        {
            "type": "notes_historiques",
            "value": "Saint-Matthieu, ou Saint-Mah\u00e9, ancienne abbaye \u00e0 la pointe de Saint-Matthieu, cant. de Saint-Renan, arrond. de Brest.",
            "children": {
                "numero_note": "6"
            }
        },
        {
            "type": "notes_historiques",
            "value": "Probablement <i>Milizac<\/i> (Finist\u00e8re), cant. de Plabennec, arrond. de Brest.",
            "children": {
                "numero_note": "7"
            }
        },
        {
            "type": "date",
            "value": "1330\/01\/25",
            "children": {
                "date_deb_annee": "1330",
                "date_deb_mois": "01",
                "date_deb_jour": "25"
            },
            "range": {
                "date_apres": 13300125,
                "date_avant": 13300125
            }
        },
        {
            "type": "genre",
            "value": "Bulle"
        }
    ]
}