{
    "id": 25763,
    "name": "aposcripta-2860",
    "type": "acte",
    "url": "http:\/\/telma-chartes.irht.cnrs.fr\/aposcripta\/notice\/25763",
    "project_slug": "aposcripta",
    "project_label": "APOSCRIPTA \u2013 Lettres des papes",
    "user": "lettrespontificalesadmin",
    "last_update": "2020-10-19 16:27:48",
    "licence": "Attribution - Pas d\u2019Utilisation Commerciale - Partage dans les M\u00eames Conditions 3.0 France (CC BY-NC-SA 3.0 FR) ",
    "licence_url": "https:\/\/creativecommons.org\/licenses\/by-nc-sa\/3.0\/fr\/",
    "elements": [
        {
            "type": "pape",
            "value": "Alexandre IV (1254-1261)"
        },
        {
            "type": "destinataire",
            "value": "( )",
            "children": {
                "numero_note": "0"
            }
        },
        {
            "type": "date_lieu",
            "value": "n.c."
        },
        {
            "type": "date_libre",
            "value": "1258, 5 mai"
        },
        {
            "type": "date",
            "value": " 1258\/05\/05",
            "children": {
                "date_deb_annee": "1258",
                "date_deb_mois": "05",
                "date_deb_jour": "05"
            },
            "range": {
                "date_apres": 12580505,
                "date_avant": 12580505
            }
        },
        {
            "type": "analyse",
            "value": "X pape<br\/>BULLA ALEXANDRI PAP\u00c6 IV SANCTI DYONISII ET ATHANACENSI ABBATIBUS, UT DECIMAM OMNIUM FRUCTUUM, REDDITUUMQUE ABBATIARUM ET PRIORATUUM ORDINIS CLUNIACENSIS ANNUATIM USQUE AD TRIENNIUM AB IPSIS COLLECTAM IN SOLUTIONEM DEBITORUM OMNIUM MONASTERII CLUNIACENSIS PER MANUS SUAS CONVERTANT."
        },
        {
            "type": "transcription",
            "value": "<?xml version=\"1.0\" encoding=\"UTF-8\"?>\nAlexander, etc. Importabilis debitorum sarcina, etc... Datum Viterbii, III nonas maii, pontificatus nostri anno IV.\n"
        },
        {
            "type": "edition",
            "value": "Ici tir\u00e9e du projet <i>CBMA - Corpus Burgundiae Medii Aevi<\/i>, document 7011. Site du projet Corpus de la Bourgogne du Moyen \u00c2ge, [En ligne] <a href=\"http:\/\/www.cbma-project.eu\" target=\"_blank\">http:\/\/www.cbma-project.eu<\/a>  "
        },
        {
            "type": "sources_manuscrites",
            "value": "\u00e0 renseigner."
        },
        {
            "type": "remarques",
            "value": "\r\n\r\n (Arch. nat. L.\u00a0252, n\u00ba\u00a0157.)"
        },
        {
            "type": "edition_autre",
            "value": "Ici reprise de Auguste Bernard, Alexandre Bruel, <i>Recueil des chartes de l'abbaye de Cluny<\/i>. VI. <i>1211-1300<\/i>, Paris\u00a0: Imprimerie nationale, 1903 <a href=\"http:\/\/gallica.bnf.fr\/ark:\/12148\/bpt6k367019?rk=21459;2\" target=\"_blank\">[en ligne]<\/a>, p. 943, n\u00b0 4993 bis",
            "children": {
                "numero_note": "0"
            }
        },
        {
            "type": "genre",
            "value": "Bulle"
        },
        {
            "type": "genre",
            "value": "Lettre"
        }
    ]
}