{
    "id": 146878,
    "name": "aposcripta-6508",
    "type": "acte",
    "url": "http:\/\/telma-chartes.irht.cnrs.fr\/aposcripta\/notice\/146878",
    "project_slug": "aposcripta",
    "project_label": "APOSCRIPTA \u2013 Lettres des papes",
    "user": "l_valliere",
    "last_update": "2020-10-19 16:39:24",
    "licence": "Attribution - Pas d\u2019Utilisation Commerciale - Partage dans les M\u00eames Conditions 3.0 France (CC BY-NC-SA 3.0 FR) ",
    "licence_url": "https:\/\/creativecommons.org\/licenses\/by-nc-sa\/3.0\/fr\/",
    "elements": [
        {
            "type": "pape",
            "value": "Cl\u00e9ment IV (1265-1268)"
        },
        {
            "type": "destinataire",
            "value": "Les ministres, provinciaux, custodes et gardiens des fr\u00e8res Mineurs en Allemagne, Dacie, Su\u00e8de, Boh\u00eame et Pologne"
        },
        {
            "type": "date_libre",
            "value": "III kalendas maii, anno primo"
        },
        {
            "type": "date",
            "value": "1265\/04\/29",
            "children": {
                "date_deb_annee": "1265",
                "date_deb_mois": "04",
                "date_deb_jour": "29"
            },
            "range": {
                "date_apres": 12650429,
                "date_avant": 12650429
            }
        },
        {
            "type": "date_lieu",
            "value": "P\u00e9rouse"
        },
        {
            "type": "genre",
            "value": "Mandement (littere cum filo canapis)"
        },
        {
            "type": "analyse",
            "value": "Ministris, provincialibus et custodibus ac guardianis fratrum Minorum in Alamania, Datia, Suetia, Boemia et Polonia mandat, ut in Boemiae, Daciae, Sveciae ac Norvegiae regnis et in Frisiae, Poloniae, Pomeraniae et Gotlandiae regionibus etc. verbum crucis in subsidium Livoniae Curoniae ac Prusciae praedicent."
        },
        {
            "type": "regeste",
            "value": "Potthast, <i>Regesta pontificum Romanorum<\/i>, n. 19118 <a target=\"_blank\" href=\" http:\/\/opacplus.bsb-muenchen.de\/title\/BV004241514\/ft\/bsb11316018?page=615\"> [en ligne]<\/a>."
        },
        {
            "type": "transcription",
            "value": "<?xml version=\"1.0\" encoding=\"UTF-8\"?>\nGementibus olim dilectis...\n"
        }
    ]
}