{
    "id": 148970,
    "name": "aposcripta-8536",
    "type": "acte",
    "url": "http:\/\/telma-chartes.irht.cnrs.fr\/aposcripta\/notice\/148970",
    "project_slug": "aposcripta",
    "project_label": "APOSCRIPTA \u2013 Lettres des papes",
    "user": "j_theryastruc",
    "last_update": "2020-10-19 16:39:51",
    "licence": "Attribution - Pas d\u2019Utilisation Commerciale - Partage dans les M\u00eames Conditions 3.0 France (CC BY-NC-SA 3.0 FR) ",
    "licence_url": "https:\/\/creativecommons.org\/licenses\/by-nc-sa\/3.0\/fr\/",
    "elements": [
        {
            "type": "pape",
            "value": "Anaclet II (antipape ; 1130-1138)"
        },
        {
            "type": "destinataire",
            "value": "n. c."
        },
        {
            "type": "date_libre",
            "value": "n. c."
        },
        {
            "type": "date",
            "value": "n. c.",
            "children": {
                "date_deb_annee": "n. c."
            },
            "range": {
                "date_apres": 0,
                "date_avant": 0
            }
        },
        {
            "type": "date_lieu",
            "value": "n. c."
        },
        {
            "type": "genre",
            "value": "Lettre, g\u00e9n\u00e9ral (avant 1198)"
        },
        {
            "type": "analyse",
            "value": "Laudat amicum quod suum impugnaverit adversarium suamque ei promittit protectionem [Mart\u00e8ne, Durand]."
        },
        {
            "type": "sources_manuscrites",
            "value": "F. <i>ex ms. Cassinense<\/i>. ",
            "children": {
                "type_source": "Exp\u00e9dition"
            }
        },
        {
            "type": "edition",
            "value": "Ici reprise d'Edmund Mart\u00e8ne, Ursin Durand, <i>Veterum scriptorum et monumentorum historicorum, dogmaticorum, moralium amplissima collectio<\/i>, I, Paris : Montalant, 1724, c. 701-702 (<i>ex ms. Cassinense eruit Mabillonius<\/i>) <a target=\"_blank\" href=\" https:\/\/archive.org\/details\/bub_gb_Z7ov7aDKG_YC\/page\/n485\/mode\/2up\">[en ligne]<\/a>."
        },
        {
            "type": "transcription",
            "value": "<?xml version=\"1.0\" encoding=\"UTF-8\"?>\nAb ipso nostrae ordinationis primordio fraternitatem tuam comperimus circa nos devotam existere et oblatrantium vaniloquas falsitates solerti prodentia confectare. Propter quod tanto nunc liberiores grates rependimus quanto efficacius in B. servitio et amore nostro persistis et hostis nostri superbiam viriliter jam impugnare coepisti, tantaque cupimus deinceps te benevolentia confovere ut sive pacem sive aliud pro temporis ingruentia faciamus, tuis et ecclesiae commodis tamquam nostris et Romanae ecclesiae profectibus intendamus.\n"
        },
        {
            "type": "edition_autre",
            "value": "Jacques-Paul Migne, <i>Patrologie latine<\/i> 179, c. 714, d'apr\u00e8s Mart\u00e8ne et Durand."
        },
        {
            "type": "bibliographie_generale",
            "value": "Pier Fausto Palumbo, \u00ab La Cancelleria di Anacleto II \u00bb, <i>Studi Salentini<\/i>, 17, 1964, p. 3-53 [= <i>Scritti di paleografia e diplomatica in onore di Vincenzo Federici<\/i>, Florence, p. 1944, 81-131]."
        }
    ]
}