{
    "id": 24218,
    "name": "aposcripta-1369",
    "type": "acte",
    "url": "http:\/\/telma-chartes.irht.cnrs.fr\/aposcripta\/notice\/24218",
    "project_slug": "aposcripta",
    "project_label": "APOSCRIPTA \u2013 Lettres des papes",
    "user": "lettrespontificalesadmin",
    "last_update": "2020-10-19 16:27:25",
    "licence": "Attribution - Pas d\u2019Utilisation Commerciale - Partage dans les M\u00eames Conditions 3.0 France (CC BY-NC-SA 3.0 FR) ",
    "licence_url": "https:\/\/creativecommons.org\/licenses\/by-nc-sa\/3.0\/fr\/",
    "elements": [
        {
            "type": "pape",
            "value": "Innocent III (1198-1216)"
        },
        {
            "type": "date_lieu",
            "value": "Latran"
        },
        {
            "type": "date_libre",
            "value": "III idus novembris, anno duodecimo"
        },
        {
            "type": "date",
            "value": " 1209\/11\/11",
            "children": {
                "date_deb_annee": "1209",
                "date_deb_mois": "11",
                "date_deb_jour": "11"
            },
            "range": {
                "date_apres": 12091111,
                "date_avant": 12091111
            }
        },
        {
            "type": "analyse",
            "value": "Innocent\u00a0III \u00e9crit aux consuls de Montpellier et les engage \u00e0 combattre les h\u00e9r\u00e9tiques [Rouquette, Villemagne]. \nEl papa Innocenci III escriu als habitants de diverses ciutats del sud de Fran\u00e7a, entre els quals es troben els c\u00f2nsols de Montpeller i els habitants de Narbona, per impulsar-los a lluitar contra l\u2019heretgia [Torras, Berga, Cingolani]."
        },
        {
            "type": "transcription",
            "value": "<?xml version=\"1.0\" encoding=\"UTF-8\"?>\nGloriantes hactenus in malitia, et in sua iniquitate potentes destruere tandem incipiens, manus Dei miraculose jam fecit eos de suis tabernaculis emigrare, dum, eo terram populi sui misericorditer emundante, pestis h\u00e6retic\u00e6 pravitatis, qu\u00e6, serpens ut cancer, Provinciam pene totam infecerat, mortificata depellitur, captisque in potentissima manu sua numerosis castris et civitatibus, quas per possessos a se diabolus habitabat, in locis expulsorum h\u00e6reticorum Spiritui Paracleto, per repletos ab ipso, sanctum habitaculum pr\u00e6paratur. Super quo laudes et gratias Omnipotenti referimus, quod, in una eademque misericordi\u00e6 su\u00e6 causa, duo dignatus est justiti\u00e6 opera exercere, ita perfidis faciendo dignam supervenire perniciem, ut quam multi fideles meritam assequerentur ex ipsorum exterminatione mercedem, cum, etsi eos, in solo spiritu oris sui, potuisset quandocumque conterere, suorum tamen exercitui signatorum in illorum contritione dignatus sit salutis causam, imo salvationis occasionem pr\u00e6bere\u00a0: quo nuper sub nostrorum magisterio legatorum de ipsis mirabiliter triumphante, dilectus filius nobilis vir, Simon de Monteforti, vir utique strenuus et catholicus, terris a quibus illi depulsi sunt, provida est deliberatione pr\u00e6fectus, ut per prudentiam ejus, in his qu\u00e6 gesta sunt vel gerenda, negotium pacis et fidei possit ibidem efficacius promoveri. Quia igitur, etsi tant\u00e6 pietatis initia prospere hucusque processerint, fine tamen non sunt adhuc necessario solidata, universitatem vestram rogandam duximus et monendam, in remissionem vobis peccaminum injungentes, quatenus ad reliquias hujus pestis penitus exstirpandas, cum ad similitudinem hydr\u00e6, qu\u00e6 locupletior fertur fieri damno capitum, gravius possent, si neglect\u00e6 fuerint, reviviscere, tam per vos quam per vestra obsequium Deo devotum et auxilium opportunum Ecclesi\u00e6 impendatis, scientes remissionem peccaminum a Deo ejusque vicario universis indultam, qui, orthodox\u00e6 fidei zelo succensi, se ad opus accinxerint hujusmodi pietatis, ut eis labor tam sanctus ad operis satisfactionem sufficiat super illis offensis, pro quibus cordis contritionem et oris confessionem veram obtulerint vero Deo. Quapropter expergiscimini, boni filii, et ad palmam hujus gloriosi certaminis festinate, piaque p\u0153nitentia ducti quod tam secundis ejus principiis neglexeritis interesse, felicissimo fini vestram studeatis et operam et pr\u00e6sentiam exhibere\u00a0; quia, cum evangelicus retributor illis \u00e6qualiter retribuerit qui novissime venerunt in vineam, et qui primo, licet hi qui c\u0153perunt, forsan amplius laborarint, pr\u00e6cedentibus tamen atque sequentibus par merces pro pari devotione reddetur. Datum Laterani, III idus novembris, anno duodecimo.\n"
        },
        {
            "type": "edition",
            "value": "Julien Rouquette, Augustin Villemagne, <i>Bullaire de l'\u00c9glise de Maguelone<\/i>, Paris, Montpellier : Picard, Valat, 1911-1914, I, n. 181, p. 322-323"
        },
        {
            "type": "remarques",
            "value": ""
        },
        {
            "type": "bibliographie_generale",
            "value": "(Partielle) \u00c9tienne Baluze, <i>Epistolarum Innocentii III, Romani pontificis libri undecim<\/i>, Par\u00eds: Fran\u00e7ois Muguet, 2 vol., 1682, vol. 2, n. 137, p. 385 <a target=\"_blank\" href=\"https:\/\/books.google.fr\/books?id=XLmOmnjejh8C&printsec=frontcover&dq=Epistolarum+Innocentii+III,+Romani+pontificis+libri+undecim&hl=fr&sa=X&ved=0ahUKEwjkndvdjfvkAhWIsBQKHes1DysQ6AEIQzAE#v=onepage&q&f=false\"> [en ligne]<\/a>.",
            "children": {
                "numero_note": "0"
            }
        },
        {
            "type": "bibliographie_generale",
            "value": "(Partielle) <i>Recueil des Historiens des Gaules et de la France<\/i>, \u00e9d. Martin Bouquet et al., Paris : Acad\u00e9mie des Inscriptions et Belles Lettres, 25 vol., 1737-1904, vol. 19, 1880, p. 529 <a target=\"_blank\" href=\"https:\/\/gallica.bnf.fr\/ark:\/12148\/bpt6k50137m\/f646.image\"> [en ligne]<\/a>.",
            "children": {
                "numero_note": "1"
            }
        },
        {
            "type": "bibliographie_generale",
            "value": "Potthast, <i>Regesta pontificum Romanorum<\/i>, n. 3829 <a target=\"_blank\" href=\"https:\/\/archive.org\/stream\/RegestaPontificumRomanorum\/ph#page\/n341\/mode\/2up\"> [en ligne]<\/a>. \u2014 Cette bulle, ainsi qu\u2019on peut le voir dans <span class=\"small-caps\">Potthast<\/span> et dans <span class=\"small-caps\">Migne<\/span>, o\u00f9 nous l\u2019avons prise, n\u2019est pas sp\u00e9ciale aux habitants de Montpellier. Elle fut adress\u00e9e dans les m\u00eames termes aux habitants d\u2019Arles, de Nimes, de Tarascon, etc., etc.",
            "children": {
                "numero_note": "2"
            }
        },
        {
            "type": "genre",
            "value": "Lettre, g\u00e9n\u00e9ral (apr\u00e8s 1198, littere cum filo canapis)"
        },
        {
            "type": "sources_manuscrites",
            "value": "R. CIT\u00c9 DU VATICAN, Archivio segreto Vaticano, <i>Registra Vaticana<\/i> 7A, ep. 137, fol. 135v.",
            "children": {
                "type_source": "Registre de la chancellerie apostolique"
            }
        },
        {
            "type": "edition_autre",
            "value": "Partielle : Jacques Paul Migne, <i>Patrologie Latine<\/i>, Par\u00eds, 1844-1855 (r\u00e9imp. Turnhout : Brepols, 1970), t. 216, n. 137, col. 160 <a target=\"_blank\" href=\"https:\/\/archive.org\/details\/patrologiaecurs16unkngoog\/page\/n82\"> [en ligne]<\/a>."
        },
        {
            "type": "edition_autre",
            "value": "Andrea Sommerlechner, Othmar Hageneder, <i>Die Register Innocenz\u2019 III. 12. Pontifikatsjahr, 1209\/1210<\/i>, Rome, Vienne : Verlag der \u00d6sterreichischen Akademie, 2012, n. 137, p. 275-277."
        },
        {
            "type": "edition_autre",
            "value": "Sergi Grau Torras, Eduard Berga Salom\u00f3, Stefan\u00f3 M. Cingolani, <i>L\u2019Her\u00e8tica Pravitat a la Corona d\u2019Arag\u00f3 : documents sobre c\u00e0tars, valdesos i altres heretges (1155-1324)<\/i>, I, Barcelone : Fundaci\u00f3 Noguera, 2015, n. 51, p. 143-144."
        },
        {
            "type": "regeste",
            "value": "Mart\u00edn Alvira, <i>Pedro el Cat\u00f3lico, Rey de Arag\u00f3n y Conde de Barcelona (1196-1213). Documentos, testimonios y memoria hist\u00f3rica<\/i>, Saragossa: Instituci\u00f3n Fernando el Cat\u00f3lico, 2010, 6. vol., III, doc. 974, p. 1037."
        },
        {
            "type": "destinataire",
            "value": "Les consuls de Montpellier"
        }
    ]
}