{
    "id": 146298,
    "name": "aposcripta-6112",
    "type": "acte",
    "url": "http:\/\/telma-chartes.irht.cnrs.fr\/aposcripta\/notice\/146298",
    "project_slug": "aposcripta",
    "project_label": "APOSCRIPTA \u2013 Lettres des papes",
    "user": "j_theryastruc",
    "last_update": "2020-10-19 16:39:17",
    "licence": "Attribution - Pas d\u2019Utilisation Commerciale - Partage dans les M\u00eames Conditions 3.0 France (CC BY-NC-SA 3.0 FR) ",
    "licence_url": "https:\/\/creativecommons.org\/licenses\/by-nc-sa\/3.0\/fr\/",
    "elements": [
        {
            "type": "pape",
            "value": "Innocent IV (1243-1254)"
        },
        {
            "type": "destinataire",
            "value": "L'archev\u00eaque de Narbonne et les autres inquisiteurs de l'h\u00e9r\u00e9sie dans la province de Narbonne"
        },
        {
            "type": "date_libre",
            "value": "II nonas octobris, anno sexto"
        },
        {
            "type": "date",
            "value": "1248\/03\/19",
            "children": {
                "date_deb_annee": "1248",
                "date_deb_mois": "03",
                "date_deb_jour": "19"
            },
            "range": {
                "date_apres": 12480319,
                "date_avant": 12480319
            }
        },
        {
            "type": "date_lieu",
            "value": "Lyon"
        },
        {
            "type": "genre",
            "value": "Mandement (littere cum filo canapis)"
        },
        {
            "type": "sources_manuscrites",
            "value": "H. FRANCE, Paris, Biblioth\u00e8que nationale de France, Collection Doat, 33, fol. 67v. D'apr\u00e8s une copie du 22 juin 1309 des actes d'un proc\u00e8s de 1291.",
            "children": {
                "type_source": "Copie moderne"
            }
        },
        {
            "type": "edition",
            "value": "Ici reprise de Sergi Grau Torras, Eduard Berga Salom\u00f3, Stefan\u00f3 M. Cingolani, <i>L\u2019Her\u00e8tica Pravitat a la Corona d\u2019Arag\u00f3 : documents sobre c\u00e0tars, valdesos i altres heretges (1155-1324)<\/i>, I, Barcelone : Fundaci\u00f3 Noguera, 2015, n. 209, p. 378."
        },
        {
            "type": "transcription",
            "value": "<?xml version=\"1.0\" encoding=\"UTF-8\"?>\nInnocentius episcopus, servus servorum Dei, venerabili fratri archiepiscopo Narbonensi et dilectis filiis aliis inquisitoribus haereticae pravitatis in provincia Narbonensi, salutem et apostholicam benedictionem. Sincere devotionibus affectus quem carissimus in Christo filius noster, Aragonum rex illustris, ad personam nostram et Romanam gerit Ecclesiam nos inducit ut eius petitionibus quantum cum Deo possumus annuamus. Hinca est quod nos, ipsius precibus inclinati, authoritate praesentium inhibemus ut contra haereticos aliquos vel de haeresi infamatos, aut fautores seu receptores ipsorum de districtu eiusdem regis, authoritate nobis super hiis ab apostholica Sede commissa, occasione huiusmodi aliquatenus procedatis.  Datum Lugduni, secundo nonas octobris, pontificatus nostri anno sexto.\n"
        },
        {
            "type": "analyse",
            "value": "Innocent [IV] interdit \u00e0 l'archev\u00eaque de Narbonne et aux autres inquisiteurs de l'h\u00e9r\u00e9sie dans la province de Narbonne, \u00e0 la suite d'une demande du roi d'Aragon, de proc\u00e9der contre les h\u00e9r\u00e9tiques, les suspects d'h\u00e9r\u00e9sie ou leurs soutiens et h\u00f4tes issus de ses terres [APO]."
        },
        {
            "type": "remarques",
            "value": "Cf. APOSCRIPTA n. 6111"
        },
        {
            "type": "apparat_critique",
            "value": "Hic <i>Torras, Berga, Cingolani<\/i> [APO].",
            "children": {
                "numero_note": "a"
            }
        },
        {
            "type": "regeste",
            "value": "Potthast, <i>Regesta Pontificum Romanorum<\/i> <a target=\"_blank\" href=\"https:\/\/archive.org\/details\/RegestaPontificumRomanorum\/page\/n1111\"> [en ligne]<\/a>, n. 13040."
        },
        {
            "type": "edition_autre",
            "value": "Baluze, VII, 423, \u00e9d. Mansi, I, 210."
        },
        {
            "type": "bibliographie_generale",
            "value": "H\u00f6fler, n. 193, c. 165."
        }
    ]
}