{
    "id": 20304,
    "name": "aposcripta-291",
    "type": "acte",
    "url": "http:\/\/telma-chartes.irht.cnrs.fr\/aposcripta\/notice\/20304",
    "project_slug": "aposcripta",
    "project_label": "APOSCRIPTA \u2013 Lettres des papes",
    "user": "lettrespontificalesadmin",
    "last_update": "2020-10-19 16:26:47",
    "licence": "Attribution - Pas d\u2019Utilisation Commerciale - Partage dans les M\u00eames Conditions 3.0 France (CC BY-NC-SA 3.0 FR) ",
    "licence_url": "https:\/\/creativecommons.org\/licenses\/by-nc-sa\/3.0\/fr\/",
    "elements": [
        {
            "type": "pape",
            "value": "Jean XXII (1316-1334)"
        },
        {
            "type": "date_lieu",
            "value": "Avignon"
        },
        {
            "type": "date_libre",
            "value": "12 mars 1333"
        },
        {
            "type": "analyse",
            "value": "Jean XXII au roi de France. Il le met en garde de nouveau contre les rapports malveillants et l\u2019assure que le religieux incarc\u00e9r\u00e9 \u00e0 Avignon l\u2019a \u00e9t\u00e9 non par le pape, mais par les inquisiteurs, non pour avoir soutenu que les \u00e2mes des justes jouissent de la vue de l\u2019essence divine avant le jugement, mais parce qu\u2019il enseignait des h\u00e9r\u00e9sies dans ses discours. Il n\u2019est pas d\u00e9tenu dans une prison \u00e9troite, mais bien dans une chambre convenable<a class=\"note\" href=\"#note-1\">1<\/a>."
        },
        {
            "type": "transcription",
            "value": "<?xml version=\"1.0\" encoding=\"UTF-8\"?>\nEidem regi [Francie]. Innotuimus nuper... Sane quia, sicut intelleximus, viri mendaces non cessant mendaciis variis animum regium contra nos irritare, rogamus circumspectionem regiam ut nolit talibus fidem dare. Quicquid enim de fratre illo capto Avinioni exposuerunt, quantum ad hoc quod nos ipsum ceperimus aut captum teneamus, quodque captus est quia predicaverat sanctorum animas videre divinam essentiam, et quod in diro carcere detinetur, totum est veritati [contrarium] ; quia non per nos, sed per inquisitores heretice pravitatis captus extitit et captus detinetur ; nec ob hoc quod premissa predicaverat, cum nonnulli alii predicaverint et plures de hoc disputaverint, qui nequaquam fuerunt capti, sed quia in sermone suo dogmatizare hereses dicebatur, ideo ab inquisitoribus fuit captus et adhuc detinetur, non in diro carcere, sed in una honesta camera, de qua in suo ordine esset bene contentus... Datum IIII idus marcii, anno XIIIIo.\n"
        },
        {
            "type": "edition",
            "value": "Jean-Marie Vidal, <i>Bullaire de l\u2019Inquisition fran\u00e7aise au XIV<sup>e<\/sup> si\u00e8cle et jusqu'\u00e0 la fin du Grand Schisme<\/i>, Paris : Letouzey et An\u00e9, 1913, n. 130, p. 192-195"
        },
        {
            "type": "sources_manuscrites",
            "value": "<i>Reg. Vat.<\/i>, t. <span class=\"smal-caps\">cxvii<\/span>, fol. 109 v\u00b0, n. 541"
        },
        {
            "type": "sources_manuscrites",
            "value": "Denifle, <i>Chartul.<\/i>, t. <span class=\"smal-caps\">ii<\/span>, p. 417, n. 973 (<i>in ext.<\/i>)."
        },
        {
            "type": "notes_historiques",
            "value": "Voir la bulle pr\u00e9c\u00e9dente, note 3.",
            "children": {
                "numero_note": "1"
            }
        },
        {
            "type": "date",
            "value": "1333\/03\/12",
            "children": {
                "date_deb_annee": "1333",
                "date_deb_mois": "03",
                "date_deb_jour": "12"
            },
            "range": {
                "date_apres": 13330312,
                "date_avant": 13330312
            }
        },
        {
            "type": "genre",
            "value": "Bulle"
        },
        {
            "type": "destinataire",
            "value": "Le roi de France Philippe VI de Valois"
        }
    ]
}