{
    "id": 25442,
    "name": "aposcripta-2539",
    "type": "acte",
    "url": "http:\/\/telma-chartes.irht.cnrs.fr\/aposcripta\/notice\/25442",
    "project_slug": "aposcripta",
    "project_label": "APOSCRIPTA \u2013 Lettres des papes",
    "user": "lettrespontificalesadmin",
    "last_update": "2020-10-19 16:27:44",
    "licence": "Attribution - Pas d\u2019Utilisation Commerciale - Partage dans les M\u00eames Conditions 3.0 France (CC BY-NC-SA 3.0 FR) ",
    "licence_url": "https:\/\/creativecommons.org\/licenses\/by-nc-sa\/3.0\/fr\/",
    "elements": [
        {
            "type": "pape",
            "value": "Honorius III (1216-1227)"
        },
        {
            "type": "destinataire",
            "value": "Ch\u00e2lons (Saint-Pierre-au-Mont) ( abbaye de)",
            "children": {
                "numero_note": "0"
            }
        },
        {
            "type": "date_lieu",
            "value": "Urbem (Datum apud Vrbem Veterem)"
        },
        {
            "type": "date_libre",
            "value": "1220, 18 ao\u00fbt"
        },
        {
            "type": "date",
            "value": " 1220\/08\/18",
            "children": {
                "date_deb_annee": "1220",
                "date_deb_mois": "08",
                "date_deb_jour": "18"
            },
            "range": {
                "date_apres": 12200818,
                "date_avant": 12200818
            }
        },
        {
            "type": "analyse",
            "value": "Honorius III s'accorde avec l'abb\u00e9 et le prieur de l'abbaye Saint-Pierre-au-Mont de Ch\u00e2lons et Nicolaus archidiacre de Ch\u00e2lons \u00e0 propos de la taxation \u00e0 effectuer sur les pr\u00eatres desservant les \u00e9glises relevant de l'abbaye de Cluny et situ\u00e9es dans la province de Reims.<br\/>BULLA HONORII PAP\u00c6 III, AD ABBATEM ET PRIOREM SANCTI PETRI AD MONTES, ET ARCHIDIACONUM CATALAUNENSEM, PRO TAXATIONE CONGRU\u00c6 PORTIONIS PRESBYTERORUM ECCLESIARUM PARROCHIALIUM JURIS CLUNIACENSIUM IN PROVINCIA REMENSI. CONSERVATORIA HONORII PAP\u00c6 III. directa Abbati et Priori S. Petri ad montes et Archidiacono Catalaunensi pro taxatione congru\u00e6 portionis Presbyterorum Ecclesiarum Parochialium juris Cluniacensium in Provincia Remensi."
        },
        {
            "type": "transcription",
            "value": "<?xml version=\"1.0\" encoding=\"UTF-8\"?>\n[Honorius Episcopus servus servorum Dei, dilectis filiis Abbati, et Priori sancti Petri ad montes, et Magistro Nicolao Archidiacono Catalaunensi, salutem et Apostolicam benedictionem. Ex parte Cluniacensis Ecclesi\u00e6 fuit propositum coram nobis, quod quidam Presbyteri Ecclesiarum Rhemensis Provinci\u00e6, in quibus ipsi, vel Prioratus eorum jus obtinent Patronatus, occasione sumpta ex statuto Concilii Generalis, quo cavetur et Parochialium Ecclesiarum Presbyteris de illarum proventibus portio sufficiens assignetur, portiones suas, quibus consueverunt et possunt esse contenti, nitentes plus debito augmentare, super hoc eis graves et molesti existunt. Quocirca discretioni vestr\u00e6 per Apostolica scripta mandamus, quatinus congruis, provisionibus juxt\u00e0 qualitatem personarum, et Ecclesiarum facultates, statusque locorum, provida consideratione taxatis, Presbyteros ipsos faciatis illis esse contentos: contradictores, si qui fuerint, monitione pr\u00e6missa, per censuram Ecclesiasticam, appellatione remota, sicut justum fuerit compescentes, nullis litteris obstantibus harum tenore tacito \u00e0 Sede Apostolica impetratis. Quod si non omnes his exequendis potueritis interesse, duo vestrum ea nihilominus exequantur. Datum apud Vrbem Veterem, XV. Kalendas Septembris, Pontificatus nostri anno V. Habetur et alia similis conservatoria ejusdem Honorii III. Pap\u00e6 directa Abbatibus de insula barbara, ac de Saviniaco Lugdunen. Di\u0153cesis, pro taxationis congru\u00e6 portionis Presbyterorum Ecclesiarum Parochialium, qu\u00e6 sunt juris Patronatus Cluniacensium in Provincia Lugdunensi. Et est ejusdem dat\u00e6, quoad locum et annum, sed est de die vigesima Augusti.]\n"
        },
        {
            "type": "edition",
            "value": "Ici tir\u00e9e du projet <i>CBMA - Corpus Burgundiae Medii Aevi<\/i>, document 5974. Site du projet Corpus de la Bourgogne du Moyen \u00c2ge, [En ligne] <a href=\"http:\/\/www.cbma-project.eu\" target=\"_blank\">http:\/\/www.cbma-project.eu<\/a>  "
        },
        {
            "type": "sources_manuscrites",
            "value": "\u00e0 renseigner."
        },
        {
            "type": "remarques",
            "value": "\r\n\r\nIndications dans l'\u00e9dition des Chartes de Cluny quand Bernard et Bruel n'ont pas repris le texte : Honorius, etc. Ex parte Cluniacensis ecclesi\u00e6, etc. (Bull. Clun., p.\u00a0105, col.\u00a01, n\u00ba\u00a01.)."
        },
        {
            "type": "edition_autre",
            "value": "Ici reprise de Auguste Bernard, Alexandre Bruel, <i>Recueil des chartes de l'abbaye de Cluny<\/i>. VI. <i>1211-1300<\/i>, Paris\u00a0: Imprimerie nationale, 1903 <a href=\"http:\/\/gallica.bnf.fr\/ark:\/12148\/bpt6k367019?rk=21459;2\" target=\"_blank\">[en ligne]<\/a>, p. 76, n\u00b0 4521.",
            "children": {
                "numero_note": "0"
            }
        },
        {
            "type": "edition_autre",
            "value": "Pierre Simon, <i>Bullarium sacri Ordinis cluniacensis, complectens plurima privilegia per summos pontifices tum ipsi cluniacensi abbatiae, tum ei subditis monasteriis hactenus concessa<\/i>, Lyon : Jullieron, 1680, p. 105, col. 1, n\u00b01",
            "children": {
                "numero_note": "1"
            }
        },
        {
            "type": "genre",
            "value": "Bulle"
        },
        {
            "type": "genre",
            "value": "Lettre"
        }
    ]
}