{
    "id": 147115,
    "name": "aposcripta-6742",
    "type": "acte",
    "url": "http:\/\/telma-chartes.irht.cnrs.fr\/aposcripta\/notice\/147115",
    "project_slug": "aposcripta",
    "project_label": "APOSCRIPTA \u2013 Lettres des papes",
    "user": "v_sentis",
    "last_update": "2020-10-19 16:39:26",
    "licence": "Attribution - Pas d\u2019Utilisation Commerciale - Partage dans les M\u00eames Conditions 3.0 France (CC BY-NC-SA 3.0 FR) ",
    "licence_url": "https:\/\/creativecommons.org\/licenses\/by-nc-sa\/3.0\/fr\/",
    "elements": [
        {
            "type": "pape",
            "value": "Jean XXII (1316-1334)"
        },
        {
            "type": "destinataire",
            "value": "La reine de France Marie de Luxembourg"
        },
        {
            "type": "date_libre",
            "value": "IV nonas marcii anno octavo"
        },
        {
            "type": "date",
            "value": "1324\/03\/04",
            "children": {
                "date_deb_jour": "04",
                "date_deb_mois": "03",
                "date_deb_annee": "1324"
            },
            "range": {
                "date_apres": 13240304,
                "date_avant": 13240304
            }
        },
        {
            "type": "date_lieu",
            "value": "Avignon"
        },
        {
            "type": "genre",
            "value": "Lettre, g\u00e9n\u00e9ral (apr\u00e8s 1198, littere cum filo canapis)"
        },
        {
            "type": "analyse",
            "value": "Voir <a target=\"_blank\" href=\" http:\/\/telma-chartes.irht.cnrs.fr\/aposcripta\/notice-acte\/147112\"> APOSCRIPTA n. 6739<\/a>.\n"
        },
        {
            "type": "transcription",
            "value": "<?xml version=\"1.0\" encoding=\"UTF-8\"?>\nRegine Francie. Dilectum filium nobilem etc.  Datum ut supra.  In eundem modum Comiti Valesii. In eundem modum Comitissae Valesii.\n"
        },
        {
            "type": "sources_manuscrites",
            "value": "R. CIT\u00c9 DU VATICAN,  Archivio segreto Vaticano, <i>Registra Vaticana<\/i> 112, pars secunda, fol. 21, c. 599.",
            "children": {
                "type_source": "Registre de la chancellerie apostolique"
            }
        },
        {
            "type": "edition",
            "value": "Louis Gu\u00e9rard, <i>Documents pontificaux sur la Gascogne d'apr\u00e8s les archives du Vatican. Pontificat de Jean XXII<\/i>, Paris, Auch : Honor\u00e9 Champion, L\u00e9once Cocharaux, 1896-1903, 2 vol. <a target=\"_blank\" href=\" http:\/\/gallica.bnf.fr\/ark:\/12148\/bpt6k208777t.r=documents%20pontificaux%20gascogne%20jean%20gu%C3%A9rard?rk=128756;0\"> [en ligne]<\/a>, t. II, n. 299, p. 126."
        },
        {
            "type": "edition_autre",
            "value": "Auguste Coulon, Suzanne Cl\u00e9mencet, <i>Jean XXII : lettres secr\u00e8tes et curiales relatives \u00e0 la France<\/i>, Paris, 1906-1973, n. 1992, 1993, 1994."
        },
        {
            "type": "destinataire",
            "value": "Le comte de Valois Charles"
        },
        {
            "type": "destinataire",
            "value": "La comtesse de Valois"
        }
    ]
}