{
    "id": 146630,
    "name": "aposcripta-6255",
    "type": "acte",
    "url": "http:\/\/telma-chartes.irht.cnrs.fr\/aposcripta\/notice\/146630",
    "project_slug": "aposcripta",
    "project_label": "APOSCRIPTA \u2013 Lettres des papes",
    "user": "l_valliere",
    "last_update": "2020-10-19 16:39:21",
    "licence": "Attribution - Pas d\u2019Utilisation Commerciale - Partage dans les M\u00eames Conditions 3.0 France (CC BY-NC-SA 3.0 FR) ",
    "licence_url": "https:\/\/creativecommons.org\/licenses\/by-nc-sa\/3.0\/fr\/",
    "elements": [
        {
            "type": "pape",
            "value": "Gr\u00e9goire IX (1227-1241)"
        },
        {
            "type": "destinataire",
            "value": "L'\u00e9v\u00eaque d'Huesca"
        },
        {
            "type": "date_libre",
            "value": "V idus februarii, anno undecimo"
        },
        {
            "type": "date",
            "value": "1238\/02\/09",
            "children": {
                "date_deb_annee": "1238",
                "date_deb_mois": "02",
                "date_deb_jour": "09"
            },
            "range": {
                "date_apres": 12380209,
                "date_avant": 12380209
            }
        },
        {
            "type": "date_lieu",
            "value": "Latran"
        },
        {
            "type": "genre",
            "value": "Mandement (littere cum filo canapis)"
        },
        {
            "type": "analyse",
            "value": "El papa Gregori escriu al bisbe d\u2019Osca per demanar al rei d\u2019Arag\u00f3 que no permeti que s\u2019ataqui el negoci de la fe<a href=\"#note-1\"><sup>1<\/sup><\/a> [Torras, Berga, Cingolani]."
        },
        {
            "type": "sources_manuscrites",
            "value": "R. CIT\u00c9 DU VATICAN, Archivio segreto Vaticano, <i>Registra Vaticana<\/i> 18, ep. 382, fol. 355v.",
            "children": {
                "type_source": "Registre de la chancellerie apostolique"
            }
        },
        {
            "type": "sources_manuscrites",
            "value": "F. FRANCE, Paris, Biblioth\u00e8que nationale, <i>Fonds Moreau<\/i>, t. 1191, fol. 477 <a target=\"_blank\" href=\" https:\/\/gallica.bnf.fr\/ark:\/12148\/btv1b100359875\/f492.image\"> [en ligne]<\/a>.",
            "children": {
                "type_source": "Copie moderne"
            }
        },
        {
            "type": "edition",
            "value": "Ici reprise de Sergi Grau Torras, Eduard Berga Salom\u00f3, Stefan\u00f3 M. Cingolani, <i>L\u2019Her\u00e8tica Pravitat a la Corona d\u2019Arag\u00f3 : documents sobre c\u00e0tars, valdesos i altres heretges (1155-1324)<\/i>, I, Barcelone : Fundaci\u00f3 Noguera, 2015, n. 117, p. 242-243."
        },
        {
            "type": "edition_autre",
            "value": "Lucien Auvray, <i>Les registres de Gr\u00e9goire IX<\/i>, Paris, 1890-1955, n. 4070."
        },
        {
            "type": "transcription",
            "value": "<?xml version=\"1.0\" encoding=\"UTF-8\"?>\nElecto Oscensi. Sua nobis karissimus in Christo filius noster .. Aragonum rex illustris petitione monstravit quod quamplures milites terre sue, negotii fidei Christiane prosecutionem impedire dampnabiliter machinantes, colligationes et societates inter se facere ac de mutua defensione iuramenta prestare illicite non verentur, considerantes quod, si dictus rex vellet eos ad dissolvendum societates huiusmodi cohercere, per consequens retardaretur propositum fidei vel forsan penitus deperiret. Nolentes igitur quod ocassione huiusmodi negotium fidei valeat impediri, mandamus quatenus, si est ita, dictos milites ut colligationes et societates predictas dissolvant, non obstantibus iuramentis eisdem, monitione premissa, per censuram ecclesiasticam, appellatione remota, co[mpellas], et, in eos qui tales societates de cetero inire presumpserint, ex quibus possit negotium fidei impediri, auctoritate nostra generalem excommunicationis sententiam proferre procurans, ipsam eadem auctoritate facias, appellatione remota, usque ad satisfactionem condignam inviolabiliter observari; contra[ictores et cetera, n]on obstante constitutione de duabus dietis edita in concilio generali. Datum Laterani, V idus februarii, anno undecimo.\n"
        },
        {
            "type": "notes_historiques",
            "value": "Tot i que aquesta carta no fa refer\u00e8ncia directa a l\u2019heretgia, el document seg\u00fcent, tamb\u00e9 dirigit al bisbe d\u2019Osca, s\u00ed que hi fa [voir <a target=\"_blank\" href= \"http:\/\/telma-chartes.irht.cnrs.fr\/aposcripta\/notice\/146631\">APOSCRIPTA n. 6256<\/a>]. ",
            "children": {
                "numero_note": "1"
            }
        }
    ]
}