{
    "id": 26540,
    "name": "aposcripta-3619",
    "type": "acte",
    "url": "http:\/\/telma-chartes.irht.cnrs.fr\/aposcripta\/notice\/26540",
    "project_slug": "aposcripta",
    "project_label": "APOSCRIPTA \u2013 Lettres des papes",
    "user": "lettrespontificalesadmin",
    "last_update": "2020-10-19 16:28:02",
    "licence": "Attribution - Pas d\u2019Utilisation Commerciale - Partage dans les M\u00eames Conditions 3.0 France (CC BY-NC-SA 3.0 FR) ",
    "licence_url": "https:\/\/creativecommons.org\/licenses\/by-nc-sa\/3.0\/fr\/",
    "elements": [
        {
            "type": "pape",
            "value": "C\u00e9lestin III (1191-1198)"
        },
        {
            "type": "date_lieu",
            "value": "Lateran"
        },
        {
            "type": "date_libre",
            "value": "1195 Juli 29"
        },
        {
            "type": "date",
            "value": " 1195\/07\/29",
            "children": {
                "date_deb_annee": "1195",
                "date_deb_mois": "07",
                "date_deb_jour": "29"
            },
            "range": {
                "date_apres": 11950729,
                "date_avant": 11950729
            }
        },
        {
            "type": "analyse",
            "value": "C\u00f6lestin III best\u00e4tigt dem Domkapitel von Troyes die Verf\u00fcgung \u00fcber fremde Kanoniker, welche w\u00e4hrend eines halben Jahres keinen Dienst f\u00fcr die Kathedrale geleistet haben<a class=\"note\" href=\"#note-1\">1<\/a>."
        },
        {
            "type": "transcription",
            "value": "<?xml version=\"1.0\" encoding=\"UTF-8\"?>\n Celestinus episcopus servus servorum dei dilectis filiis, canonicis Trecensibusa, salutem et apostolicam benedictionem. Justis petentium | desideriis dignum est nos facilem prebere consensum, et vota, que a rationis tramite non discordant, effectu prosequente complere. Eapropter, dilecti in domino filii, vestris iustis postulationibus grato concurrentes assensu, institutionemb, quam de assensu bone memorie Barth(olomei), Trecensis episcopi2, in ecclesia vestra de forensibus canonicis statuistis, videlicet, ut illi, qui post institutionem ipsam in eadem ecclesia in canonicos sunt assumpti seu de cetero assumentur, si eidem ecclesie per anni dimidium non servierint, de fructibus prebende sue viginti tantum solidos et non amplius consequentur, vinum autem vinearum canonicorum de cetero decedentium inter canonicos mansionarios dividetur. Nos autem institutionem ipsam ratam habentes, sicut provide et sine pravitate facta est et hactenus observata, auctoritate apostolica confirmamus et presentis scripti patrocinio communimus. Nulli ergo omnino hominum liceat, hanc paginam nostre confirmationis infringere vel ei ausu temerario contraire. Si quis autem hoc attemptare presumpserit, indignationem omnipotentis dei et beatorum Petri et Pauli | apostolorum eius se noverit incursurum. \u2014 Dat. Laterani, iiii Kl. Aug. Pontificatus nostri anno quinto.\n"
        },
        {
            "type": "edition",
            "value": "Julius von Pflugk-Harttung, <i>Acta pontificum Romanorum inedita<\/i>, T\u00fcbingen, 1880, I, n. 431, p. 371"
        },
        {
            "type": "sources_manuscrites",
            "value": "Or. im Archive des D\u00e9p. Aube zu Troyes."
        },
        {
            "type": "remarques",
            "value": "Perg. ital., breit 0,24, lang 0,16, unten umgeschlagen. Bullirung durch 2 L\u00f6cher, Schnur und Bulle verloren. Faltung die gew\u00f6hnliche der Breven."
        },
        {
            "type": "apparat_critique",
            "value": "a.\u2002<i>Mit anderer Dinte geschrieben.<\/i>",
            "children": {
                "numero_note": "a"
            }
        },
        {
            "type": "apparat_critique",
            "value": "b.\u2002institutionem",
            "children": {
                "numero_note": "b"
            }
        },
        {
            "type": "notes_historiques",
            "value": "<i>Vergl. die Urk. vom 15 Aug. 1147.<\/i>",
            "children": {
                "numero_note": "1"
            }
        },
        {
            "type": "notes_historiques",
            "value": "<i>Bartholom\u00e4us, Bischof von Troyes, 1190\u20131193.<\/i>",
            "children": {
                "numero_note": "2"
            }
        },
        {
            "type": "genre",
            "value": "Bulle"
        }
    ]
}