{
    "id": 149257,
    "name": "aposcripta-8820",
    "type": "acte",
    "url": "http:\/\/telma-chartes.irht.cnrs.fr\/aposcripta\/notice\/149257",
    "project_slug": "aposcripta",
    "project_label": "APOSCRIPTA \u2013 Lettres des papes",
    "user": "lettrespontificalesadmin",
    "last_update": "2020-10-19 16:39:55",
    "licence": "Attribution - Pas d\u2019Utilisation Commerciale - Partage dans les M\u00eames Conditions 3.0 France (CC BY-NC-SA 3.0 FR) ",
    "licence_url": "https:\/\/creativecommons.org\/licenses\/by-nc-sa\/3.0\/fr\/",
    "elements": [
        {
            "type": "pape",
            "value": "Innocent IV (1243-1254)"
        },
        {
            "type": "destinataire",
            "value": "I.<lb n=\"\"\/>Consiliariis civitatum, oppidorum et villarum Alamanie, ad quos littere etc"
        },
        {
            "type": "date_libre",
            "value": "XI kalendas martii, anno VIII"
        },
        {
            "type": "date",
            "value": " 1251\/02\/19",
            "children": {
                "date_deb_annee": "1251",
                "date_deb_mois": "02",
                "date_deb_jour": "19"
            },
            "range": {
                "date_apres": 12510219,
                "date_avant": 12510219
            }
        },
        {
            "type": "date_lieu",
            "value": "Lugduni"
        },
        {
            "type": "sources_manuscrites",
            "value": "R. CIT\u00c9 DU VATICAN, Archivio Segreto Vaticano, <hi rend=\"italic\">Registra Vaticana<\/hi> ... Inn.\u00a0IV Reg. Vol.\u00a0II, 87; Lib.\u00a0VIII, cur.\u00a038 et 39. Pertzii exemplaria contulimus cum illis, quae Meerman, l. c. t.\u00a0V, p.\u00a093 edidit.",
            "children": {
                "type_source": "Registre de la chancellerie apostolique"
            }
        },
        {
            "type": "genre",
            "value": "Mandement (littere cum filo canapis)"
        },
        {
            "type": "analyse",
            "value": "Innocentius IV papa consiliariis civitatum et villarum Alamanniae mandat, ut curam apponant, ut populus ad sinum ecclesiae redeat et W[illelmo] regi Romanorum, in imperatorem in proximo sublimando, fidelitatis iuramentum praestet; alioquin ecclesiam et regem ipsos a gratia sua alienos facturos esse. \u2014 Idem consiliariis Spirensibus aliisque per litteras speciales scribit [Rodenberg]."
        },
        {
            "type": "transcription",
            "value": "<?xml version=\"1.0\" encoding=\"UTF-8\"?>\nI.Consiliariis civitatum, oppidorum et villarum Alamanie, ad quos littere etc.Nostri cordis affectum, quem vobis et populis per litteras speciales exprimimus, vestra de facili videre potest industria, si tamen faciente virtutum domino sit in vobis ratio luminosa. Rogamus vos itaque attentione qua possimus et obsecramus in Domino, mandantes ac in remissionem peccaminum iniungentes, quatinus pro divini honore nominis omnem curam et diligentiam apponatis, quod predictus populus ad sinum sancte matris ecclesie omni tarditate postposita revertatur et carissimo in Christo filio nostro W. illustri regi Romanorum, sublimando in proximo ad imperialis honoris fastigium, prestet fidelitatis debite iuramentum ac eidem in omnibus patenter faveant et potenter assistant, ita quod predicta ecclesia vobis et ipsis propter hoc ad gratiosi favoris premia teneatur et idem rex circa vos processu temporis habere possit affectum benivolentie specialis. Alias autem vobis graviter est timendum, quod et Deus, cuius in hac parte agi causa dinoscitur, in vos pro tanta culpa secundum sue potentie magnitudinem ulciscetur et ipsius ecclesia, que habet in votis devotos exaltare filios, vos pro vestra obstinata duritia una cum dicto rege reddet a sua gratia penitus alienos.Dat. ut supra.\n"
        },
        {
            "type": "edition",
            "value": "Ici reprise de Karl Rodenberg, Epistolae s. XIII e regestis pontificum romanorum selectae, III, Berlin : Weidmann (MGH), 1894, n.\u00a075a, p.\u00a060."
        },
        {
            "type": "edition_autre",
            "value": "?"
        },
        {
            "type": "regeste",
            "value": "?"
        },
        {
            "type": "bibliographie_generale",
            "value": "?"
        },
        {
            "type": "apparat_critique",
            "value": "?",
            "children": {
                "numero_note": "a"
            }
        },
        {
            "type": "apparat_critique",
            "value": "?",
            "children": {
                "numero_note": "b"
            }
        },
        {
            "type": "apparat_critique",
            "value": "?",
            "children": {
                "numero_note": "c"
            }
        },
        {
            "type": "apparat_critique",
            "value": "?",
            "children": {
                "numero_note": "d"
            }
        },
        {
            "type": "apparat_critique",
            "value": "?",
            "children": {
                "numero_note": "e"
            }
        },
        {
            "type": "apparat_critique",
            "value": "?",
            "children": {
                "numero_note": "f"
            }
        },
        {
            "type": "notes_historiques",
            "value": "?",
            "children": {
                "numero_note": "1"
            }
        },
        {
            "type": "notes_historiques",
            "value": "?",
            "children": {
                "numero_note": "2"
            }
        },
        {
            "type": "notes_historiques",
            "value": "?",
            "children": {
                "numero_note": "3"
            }
        }
    ]
}