{
    "id": 79822,
    "name": "aposcripta-4591",
    "type": "acte",
    "url": "http:\/\/telma-chartes.irht.cnrs.fr\/aposcripta\/notice\/79822",
    "project_slug": "aposcripta",
    "project_label": "APOSCRIPTA \u2013 Lettres des papes",
    "user": "l_valliere",
    "last_update": "2020-10-19 16:30:13",
    "licence": "Attribution - Pas d\u2019Utilisation Commerciale - Partage dans les M\u00eames Conditions 3.0 France (CC BY-NC-SA 3.0 FR) ",
    "licence_url": "https:\/\/creativecommons.org\/licenses\/by-nc-sa\/3.0\/fr\/",
    "elements": [
        {
            "type": "pape",
            "value": "Jean V (685-686)"
        },
        {
            "type": "destinataire",
            "value": "L'abb\u00e9 du monast\u00e8re Saint-B\u00e9nigne de Dijon Vulcefrannus et ses successeurs"
        },
        {
            "type": "date_libre",
            "value": "anno primo, mense nono"
        },
        {
            "type": "date",
            "value": " 685\/11",
            "children": {
                "date_deb_mois": "11",
                "date_deb_annee": "685"
            },
            "range": {
                "date_apres": 6851100,
                "date_avant": 6851199
            }
        },
        {
            "type": "date_lieu",
            "value": "n.c."
        },
        {
            "type": "genre",
            "value": "Lettre, g\u00e9n\u00e9ral (avant 1198)"
        },
        {
            "type": "analyse",
            "value": "Jean V, pape, accorde \u00e0 Vulfecrannus, abb\u00e9 de Saint-B\u00e9nigne de Dijon, que le cimeti\u00e8re de ce monast\u00e8re ne pourra \u00eatre transf\u00e9r\u00e9 ailleurs."
        },
        {
            "type": "sources_manuscrites",
            "value": "A. FRANCE, Paris, Biblioth\u00e8que nationale, nouv. acq. lat. 1609. Fac-simil\u00e9 publi\u00e9 par le projet \u00ab Chartes ant\u00e9rieures \u00e0 1121 conserv\u00e9es en France \u00bb<a target=\"_blank\" href=\" http:\/\/www.cn-telma.fr\/originaux\/charte2479\/\"> [en ligne]<\/a>. Fiabilit\u00e9 douteuse ; pseudo-original."
        },
        {
            "type": "edition",
            "value": "Ici reprise de l'acte n. 2479 dans \u00ab Chartes originales ant\u00e9rieures \u00e0 1121 conserv\u00e9es en France \u00bb, C\u00e9dric Giraud, Jean-Baptiste Renault et Beno\u00eet-Michel Tock, \u00e9ds., Nancy : Centre de M\u00e9di\u00e9vistique Jean Schneider ; \u00e9ds \u00e9lectronique Orl\u00e9ans : Institut de Recherche et d'Histoire des Textes, 2010 (Telma), avec fac-simil\u00e9 <a target=\"_blank\" href=\" http:\/\/www.cn-telma.fr\/originaux\/charte2479\/\"> [en ligne]<\/a>."
        },
        {
            "type": "edition_autre",
            "value": "L\u00e9opold Delisle, \u00ab Notice sur un papyrus de la biblioth\u00e8que de lord Ashburnham \u00bb, <i>Biblioth\u00e8que de l'Ecole des Chartes<\/i>, 1867, p. 456-466 <a target=\"_blank\" href=\" http:\/\/www.persee.fr\/doc\/bec_0373-6237_1867_num_28_1_446195\"> [en ligne]<\/a>."
        },
        {
            "type": "edition_autre",
            "value": "L\u00e9opold Delisle, <i>M\u00e9langes de pal\u00e9ographie et de bibliographie<\/i>, Paris, 1880, n. 3, p. 37-52 <a target=\"_blank\" href=\" https:\/\/archive.org\/details\/mlangesdepalogr00deligoog\/page\/n59\"> [en ligne]<\/a>."
        },
        {
            "type": "edition_autre",
            "value": "Georges Chevrier, Maurice Chaume, <i>Chartes et documents de Saint-B\u00e9nigne de Dijon, prieur\u00e9s et d\u00e9pendances des origines \u00e0 1300<\/i>, t. 1 : VIe-Xe si\u00e8cle, Dijon, 1986, t. 1, n. 16, p. 52-53."
        },
        {
            "type": "regeste",
            "value": "Jaff\u00e9-Loewenfeld, <i>Regesta pontificum Romanorum<\/i>, 2 vol., Leipzig, 1885-1888, n. 2128 <a target=\"_blank\" href=\" https:\/\/gallica.bnf.fr\/ark:\/12148\/bpt6k55983718\/f278.item\"> [en ligne]<\/a>."
        },
        {
            "type": "transcription",
            "value": "<?xml version=\"1.0\" encoding=\"UTF-8\"?>\nJOHANNES, EPISCOPUS, SERVUS SERVORUM DEI, DILECTO FILIO VULFECRANN[O], ABBATI DIVIONENSIS MONASTERII EJUSQUE SUCC[ESS]ORIBUS, SALUTEM ET APOSTOL[ICAM BENEDICTIONEM]. Officii nostri auctoritate monemur, viros honest[os in suis] petitio[ni]bu[s ex]audire, eisque congruum suffragium impertiri. Quapropter [carissime in Domino] fili Vulfecranne abbas, postulationes tuas dignas judicantes impleri, cymiterium v[estrum] in quo venerandus martyr Benignus corpore requiescit, vo[b]is c[eterisque] clericis [Divi]onensis castr[i perpetuo] unum const[ituimus habendum, et ne i]dem cymiterium alibi transfer[atur, aut aliud praeter ipsum constituatur, sub] ex[c]ommunicatione prohibemus, [et si post haec factum fuerit, nos illud auctoritate beati Petri et nostra dampnamus. Sane adicimus ne ab episcopo Lingonensi seu alio quoque idem cymiterium interdicatur aut temeretur, sed pro gloriosi martyris reverentia, qui locum ipsum et patriam adjacentem sui sanguinis aspersione sacravit, inviolabili gaudeat libertate, et semper sub istius sacrosancte et apostolice sedis protectione servetur. Si qua sane persona illud violare aut quocunque modo temerare presumpserit, nos eam anathematis sententia percutimus. Data per manus Joannis bibliothecarii, pontificatus domini Joannis pape anno primo, mense nono, in sacratissima beati Petri apostoli sede, indictione VI. Ego Johannes sancte catholice ecclesie episcopus subscripsi].\n"
        }
    ]
}