{
    "id": 20119,
    "name": "aposcripta-106",
    "type": "acte",
    "url": "http:\/\/telma-chartes.irht.cnrs.fr\/aposcripta\/notice\/20119",
    "project_slug": "aposcripta",
    "project_label": "APOSCRIPTA \u2013 Lettres des papes",
    "user": "lettrespontificalesadmin",
    "last_update": "2020-10-19 16:26:44",
    "licence": "Attribution - Pas d\u2019Utilisation Commerciale - Partage dans les M\u00eames Conditions 3.0 France (CC BY-NC-SA 3.0 FR) ",
    "licence_url": "https:\/\/creativecommons.org\/licenses\/by-nc-sa\/3.0\/fr\/",
    "elements": [
        {
            "type": "date_lieu",
            "value": "Avignon"
        },
        {
            "type": "date_libre",
            "value": "28 avril 1346"
        },
        {
            "type": "analyse",
            "value": "Clementis papae VI epistola<a class=\"note\" href=\"#note-1\">1<\/a> ad Philippum VI, regem Francorum, pro Nicolao Rogerii, archiepiscopo Rothomagensi."
        },
        {
            "type": "transcription",
            "value": "<?xml version=\"1.0\" encoding=\"UTF-8\"?>\nCarissimo in Christo filio Philippo regi Francie illustri. Super nonnullis detestandis et perniciosis excessibus per habitatores ville de Locoveris, Ebroicensis dyocesis, temporali jurisdictioni venerabilis fratris nostri Nicolai archiepiscopi Rothomagensis, subjecti vel majorem partem habitatorum ejusdem loci non sine multe temeritatis audacia in personas officialium et gentium archiepiscopi predicti, ac domos, res et bona ipsorum, ut asseritur, perpetratis gentes ipsius archiepiscopi habuerunt, ut intelleximus, et habent pro satisfactione prestanda super hiis debita civiliter in hac parte pro complemento justitie ad curiam regalem recursum. Quocirca magnificentiam regiam deprecamur quatinus tam zelo justitie quam precum interventu nostrarum super premissis habere velit gentes ejusdem archiepiscopi favorabiliter commendatas. Datum Avinione, IIIJ kalendas maii, anno quartoa.\n"
        },
        {
            "type": "edition",
            "value": "\u00c9tienne Baluze, Guillaume Mollat, <i>Vitae paparum Avenionensium. Nouvelle \u00e9dition revue d'apr\u00e8s les manuscrits et compl\u00e9t\u00e9e de notes critiques<\/i>, Paris : Letouzey et An\u00e9, 1914-1922, vol. 4, n. CXXX"
        },
        {
            "type": "sources_manuscrites",
            "value": "D\u2019apr\u00e8s le registre Vatican <i>139,<\/i> non foliot\u00e9, ep. 1122. Baluze s\u2019est servi du ms. latin pr\u00e9cit\u00e9.",
            "children": {
                "type_source": "Registre de la chancellerie apostolique"
            }
        },
        {
            "type": "notes_historiques",
            "value": "D\u2019apr\u00e8s le registre Vatican <i>139,<\/i> non foliot\u00e9, ep. 1122. Baluze s\u2019est servi du ms. latin pr\u00e9cit\u00e9.",
            "children": {
                "numero_note": "1"
            }
        },
        {
            "type": "apparat_critique",
            "value": "<i>Bal.<\/i>, <i>msLat.130.<\/i> (omission)",
            "children": {
                "numero_note": "a"
            }
        },
        {
            "type": "pape",
            "value": "Cl\u00e9ment VI (1342-1352)"
        },
        {
            "type": "date",
            "value": "1346\/04\/28",
            "children": {
                "date_deb_annee": "1346",
                "date_deb_mois": "04",
                "date_deb_jour": "28"
            },
            "range": {
                "date_apres": 13460428,
                "date_avant": 13460428
            }
        },
        {
            "type": "genre",
            "value": "Lettre, g\u00e9n\u00e9ral (avant 1198)"
        },
        {
            "type": "destinataire",
            "value": "Le roi de France Philippe VI de Valois"
        }
    ]
}