{
    "id": 148569,
    "name": "aposcripta-1044",
    "type": "acte",
    "url": "http:\/\/telma-chartes.irht.cnrs.fr\/aposcripta\/notice\/148569",
    "project_slug": "aposcripta",
    "project_label": "APOSCRIPTA \u2013 Lettres des papes",
    "user": "j_theryastruc",
    "last_update": "2020-10-19 16:39:46",
    "licence": "Attribution - Pas d\u2019Utilisation Commerciale - Partage dans les M\u00eames Conditions 3.0 France (CC BY-NC-SA 3.0 FR) ",
    "licence_url": "https:\/\/creativecommons.org\/licenses\/by-nc-sa\/3.0\/fr\/",
    "elements": [
        {
            "type": "pape",
            "value": "Gr\u00e9goire IX (1227-1241)"
        },
        {
            "type": "date_libre",
            "value": "II idus aprilis, anno septimo"
        },
        {
            "type": "date",
            "value": "1233\/04\/12",
            "children": {
                "date_deb_annee": "1233",
                "date_deb_mois": "04",
                "date_deb_jour": "12"
            },
            "range": {
                "date_apres": 12330412,
                "date_avant": 12330412
            }
        },
        {
            "type": "date_lieu",
            "value": "Latran"
        },
        {
            "type": "genre",
            "value": "Mandement (littere cum filo canapis)"
        },
        {
            "type": "sources_manuscrites",
            "value": "F. FRANCE, Paris, Biblioth\u00e8que nationale de France, Collection Baluze 82, fol. 126v-127<a target=\"_blank\" href=\"https:\/\/gallica.bnf.fr\/ark:\/12148\/btv1b10722567d\/f110.image\"> [en ligne]<\/a>. Extrait des archives de M. l'archev\u00eaque de Narbonne.",
            "children": {
                "type_source": "Copie moderne"
            }
        },
        {
            "type": "transcription",
            "value": "<?xml version=\"1.0\" encoding=\"UTF-8\"?>\nGregorius episcopus, servus servorum Dei, dilectis filiis nobili A., vicecomiti, et populo civitatis et burgi Narbonensis, salutem et apostolicam benedictionem.Mathathie laus in ecclesia frequentatur quod doluit videns quendam ad immolandum idolis accedentem et accensus secundum judicium legis zelo trucidavit sacrilegum super aram ; nec eo contentus, omnibus que habebat in civitate relictis aperte se contra regem Antiochum Dei cerimonias prophanantem cum filiis et amicis erexit, propter quod in eorum manu salute directa in benedictione sui memoriam reliquerunt. Sic et vos immensis estis laudibus extollendi, qui succensi zelo fidei christiane, roborati spiritus fortitudine, proposita vobis spe salutis eterne, adversus impios Albigenses inseparabiliter adhesistis Matri vestre, sponse Christi, Ecclesie sacrosancte, quibus viriliter usque ad sanguinem resistentes nec ad horam cedere voluistis. Quapropter erga vos, quos contra silvarum feras hereticos turrem David edificatam cum propugnaculis et fortium armatura munitam per testem omni exceptione majorem experientiam novimus, specialem gerentes dilectionis affectum, universitatem vestram rogamus, monemus et hortamur attente quatinus, habentes tunicam cum filio accrescente talarem, jungentes matutino sacrificio vespertinum, exhibentes vos in fide stabiles et in opere efficaces, sic in devotione Dei et Ecclesie sue sancte perseverare curetis ut Deo ad gloriam, nobis ad gaudium, ceteris ad exemplum et vobis ad cumulum proveniat meritorum. De nobis autem plenissime confidetis, consilium et auxilium nostrum in omni opportunitate fiducialiter requirentesDatum Laterani, II idus aprilis, pontificatus nostri anno septimo.\n"
        },
        {
            "type": "edition",
            "value": "Ici reprise de C\u00e9lestin Douais, <i>L'albig\u00e9isme et les fr\u00e8res Pr\u00eacheurs \u00e0 Narbonne<\/i>, Paris : Alphonse Picard et Fils, 1894, p. 125, d'apr\u00e8s \u00ab Arch. comm. de Narbonne, pi\u00e8ce non inventori\u00e9e \u00bb."
        },
        {
            "type": "remarques",
            "value": "Absente des registres (aucune lettre \u00e0 cette date). Ignor\u00e9e d'Alessandro Sala, <i>Lo sviluppo<\/i>."
        },
        {
            "type": "analyse",
            "value": "Lettre de Gr\u00e9goire IX au vicomte et au peuple de Narbonne [Douais]."
        },
        {
            "type": "destinataire",
            "value": "Le vicomte de Narbonne Aymeric et le peuple de la cit\u00e9 et du bourg de Narbonne"
        }
    ]
}