{
    "id": 146920,
    "name": "aposcripta-6549",
    "type": "acte",
    "url": "http:\/\/telma-chartes.irht.cnrs.fr\/aposcripta\/notice\/146920",
    "project_slug": "aposcripta",
    "project_label": "APOSCRIPTA \u2013 Lettres des papes",
    "user": "l_valliere",
    "last_update": "2020-10-19 16:39:24",
    "licence": "Attribution - Pas d\u2019Utilisation Commerciale - Partage dans les M\u00eames Conditions 3.0 France (CC BY-NC-SA 3.0 FR) ",
    "licence_url": "https:\/\/creativecommons.org\/licenses\/by-nc-sa\/3.0\/fr\/",
    "elements": [
        {
            "type": "pape",
            "value": "Cl\u00e9ment IV (1265-1268)"
        },
        {
            "type": "destinataire",
            "value": "L'archipr\u00eatre et le chapitre de Monza"
        },
        {
            "type": "date_libre",
            "value": "VII idus maii, anno primo"
        },
        {
            "type": "date",
            "value": "1265\/05\/09",
            "children": {
                "date_deb_annee": "1265",
                "date_deb_mois": "05",
                "date_deb_jour": "09"
            },
            "range": {
                "date_apres": 12650509,
                "date_avant": 12650509
            }
        },
        {
            "type": "date_lieu",
            "value": "P\u00e9rouse"
        },
        {
            "type": "genre",
            "value": "Titre, g\u00e9n\u00e9ral (littere gratiose, cum filo serico)"
        },
        {
            "type": "analyse",
            "value": "Archipresbyterum et capitulum Modoetienses protegendos suscipit ; specialiter autem omnes possessiones, iura, libertates et consuetudines eis confirmat."
        },
        {
            "type": "edition",
            "value": "Antonio Francesco Frisi, <i>Memorie della Chiesa Monzese<\/i>, Milan, 1774, t. III, p. 57."
        },
        {
            "type": "regeste",
            "value": "Potthast, <i>Regesta pontificum Romanorum<\/i>, n. 19135 <a target=\"_blank\" href=\" http:\/\/opacplus.bsb-muenchen.de\/title\/BV004241514\/ft\/bsb11316018?page=616\"> [en ligne]<\/a>."
        },
        {
            "type": "transcription",
            "value": "<?xml version=\"1.0\" encoding=\"UTF-8\"?>\nMonet nos apostolice...\n"
        },
        {
            "type": "edition_autre",
            "value": "Antonio Francesco Frisi, <i>Memorie storiche di Monza e sua corte<\/i>, Milan, 1794, 3 vol., t. II, n. 153, p. 131."
        },
        {
            "type": "edition_autre",
            "value": "Giuseppe Marimonti, <i>Memorie storiche della citt\u00e0 di Monza<\/i>, Monza, 1841, n. 47, p. 411."
        }
    ]
}