{
    "id": 149272,
    "name": "aposcripta-8835",
    "type": "acte",
    "url": "http:\/\/telma-chartes.irht.cnrs.fr\/aposcripta\/notice\/149272",
    "project_slug": "aposcripta",
    "project_label": "APOSCRIPTA \u2013 Lettres des papes",
    "user": "lettrespontificalesadmin",
    "last_update": "2020-10-19 16:39:56",
    "licence": "Attribution - Pas d\u2019Utilisation Commerciale - Partage dans les M\u00eames Conditions 3.0 France (CC BY-NC-SA 3.0 FR) ",
    "licence_url": "https:\/\/creativecommons.org\/licenses\/by-nc-sa\/3.0\/fr\/",
    "elements": [
        {
            "type": "pape",
            "value": "Innocent IV (1243-1254)"
        },
        {
            "type": "destinataire",
            "value": "Willelmo de Gado militi Gratiopolitane diocesis"
        },
        {
            "type": "date_libre",
            "value": "VIII idus martii, anno VIII"
        },
        {
            "type": "date",
            "value": " 1251\/03\/08",
            "children": {
                "date_deb_annee": "1251",
                "date_deb_mois": "03",
                "date_deb_jour": "08"
            },
            "range": {
                "date_apres": 12510308,
                "date_avant": 12510308
            }
        },
        {
            "type": "date_lieu",
            "value": "Lugduni"
        },
        {
            "type": "sources_manuscrites",
            "value": "R. CIT\u00c9 DU VATICAN, Archivio Segreto Vaticano, <hi rend=\"italic\">Registra Vaticana<\/hi> ... Inn.\u00a0IV Reg. Vol.\u00a0II, 54; Lib.\u00a0VIII, 395. Exemplar tabularii contulimus cum Regestis.",
            "children": {
                "type_source": "Registre de la chancellerie apostolique"
            }
        },
        {
            "type": "genre",
            "value": "Mandement (littere cum filo canapis)"
        },
        {
            "type": "analyse",
            "value": "Innocentius IV papa ad preces Rodulfi nati comitis Gebennensis personaliter supplicantis quandam dispensationem matrimonialem pro pace inter quosdam milites diocesis Gratianopolitane reformanda concedit [Rodenberg]."
        },
        {
            "type": "transcription",
            "value": "<?xml version=\"1.0\" encoding=\"UTF-8\"?>\nWillelmo de Gado militi Gratiopolitane diocesis.Cum, sicut accepimus, inter te ac Yscardum de Clais militem Gratiopolitane diocesis gravis olim discordia orta esset: ut tandem huiusmodi discordia sedaretur, Margaritam filiam tuam Yscardeto nato ipsius Y. promisisti dare iuramento prestito in uxorem. Sed cum iidem quarta consanguinitatis linea se contingant, petivisti super hoc apostolice sedis gratiam adhiberi. Tuis igitur et dilecti filii nobilis viri Rodulfi nati nobilis viri . . comitis Gebennensis, nobis super hoc personaliter supplicantis, cuius consanguineus diceris, precibus inclinati, quod predicti M. et Y. \u2014 impedimento huiusmodi non obstante \u2014 possint matrimonialiter copulari, cum ipsis auctoritate presentium de speciali gratia dispensamus. Nulli ergo etc.Dat. Lugduni, VIII Idus Martii, anno VIII\u00b0.\n"
        },
        {
            "type": "edition",
            "value": "Ici reprise de Karl Rodenberg, Epistolae s. XIII e regestis pontificum romanorum selectae, III, Berlin : Weidmann (MGH), 1894, n.\u00a089, p.\u00a069."
        },
        {
            "type": "edition_autre",
            "value": "?"
        },
        {
            "type": "regeste",
            "value": "?"
        },
        {
            "type": "bibliographie_generale",
            "value": "?"
        },
        {
            "type": "apparat_critique",
            "value": "?",
            "children": {
                "numero_note": "a"
            }
        },
        {
            "type": "apparat_critique",
            "value": "?",
            "children": {
                "numero_note": "b"
            }
        },
        {
            "type": "apparat_critique",
            "value": "?",
            "children": {
                "numero_note": "c"
            }
        },
        {
            "type": "apparat_critique",
            "value": "?",
            "children": {
                "numero_note": "d"
            }
        },
        {
            "type": "apparat_critique",
            "value": "?",
            "children": {
                "numero_note": "e"
            }
        },
        {
            "type": "apparat_critique",
            "value": "?",
            "children": {
                "numero_note": "f"
            }
        },
        {
            "type": "notes_historiques",
            "value": "?",
            "children": {
                "numero_note": "1"
            }
        },
        {
            "type": "notes_historiques",
            "value": "?",
            "children": {
                "numero_note": "2"
            }
        },
        {
            "type": "notes_historiques",
            "value": "?",
            "children": {
                "numero_note": "3"
            }
        }
    ]
}