{
    "id": 147710,
    "name": "aposcripta-7332",
    "type": "acte",
    "url": "http:\/\/telma-chartes.irht.cnrs.fr\/aposcripta\/notice\/147710",
    "project_slug": "aposcripta",
    "project_label": "APOSCRIPTA \u2013 Lettres des papes",
    "user": "f_delerue",
    "last_update": "2020-10-19 16:39:35",
    "licence": "Attribution - Pas d\u2019Utilisation Commerciale - Partage dans les M\u00eames Conditions 3.0 France (CC BY-NC-SA 3.0 FR) ",
    "licence_url": "https:\/\/creativecommons.org\/licenses\/by-nc-sa\/3.0\/fr\/",
    "elements": [
        {
            "type": "pape",
            "value": "Innocent IV (1243-1254)"
        },
        {
            "type": "destinataire",
            "value": "L'archev\u00eaque de Canterbury Boniface de Savoie"
        },
        {
            "type": "date_libre",
            "value": "secundo idus junii, anno octavio"
        },
        {
            "type": "date",
            "value": "1251\/06\/12",
            "children": {
                "date_deb_annee": "1251",
                "date_deb_mois": "06",
                "date_deb_jour": "12"
            },
            "range": {
                "date_apres": 12510612,
                "date_avant": 12510612
            }
        },
        {
            "type": "date_lieu",
            "value": "G\u00eanes"
        },
        {
            "type": "genre",
            "value": "Mandement (littere cum filo canapis)"
        },
        {
            "type": "analyse",
            "value": "Innocenzo IV ordina all\u2019arcivescovo di Cantorbery di provvedere un beneficio a Spineto, figlio di Lanfranco Usodimare."
        },
        {
            "type": "sources_manuscrites",
            "value": "F. ITALIE, G\u00eanes, Archivio di Stato di Genova, Cartolare 27 c. 177v. Copia inserta in atto del 14 giugno 1251, rogato a Genova dal notaio Bartolomeo Fornari.",
            "children": {
                "type_source": "Autre copie m\u00e9di\u00e9vale"
            }
        },
        {
            "type": "edition",
            "value": "Ici reprise de Franco Guerello, <i>Lettere di Innocenzo IV dai cartolari notarili genovesi<\/i>, Rome : Pontificia Universit\u00e0 Gregoriana, 1961, n. 77, p. 112-113."
        },
        {
            "type": "regeste",
            "value": "Giorgio Costamagna, \u00ab Documenti pontifici inseriti nelle imbreviature dei notai genovesi \u00bb, <i>Bollettino ligustico per la storia e la cultura regionale<\/i>, 5, 1953, p. 64-66, \u00e0 la p. 66."
        },
        {
            "type": "transcription",
            "value": "<?xml version=\"1.0\" encoding=\"UTF-8\"?>\nInnocentius episcopus, servus servorum Dei, venerabili fratri archiepiscopo Cantuariensi1, salutem et apostolicam benedictionem. Etsi Christi fidelibus universis nos esse deceat favorabiles et benignos, eos tamen qui eos adherent per specialis devotionis affectum confovere debemus condignis retributionibus gratiis. Cum igitur dilectus filiusa nobilis vir Lanfrancus Usus Maris, Ianuensis civis, erga nos devocionem habeat specialem, fraternitati tue per apostolica scripta mandamus quatenus dilecto filio Spineto, scolari, nato ipsius nobilis, in aliquo civitatis vel provincie beneficio ecclesiastico . . . . . . . . . . . . .b annexa provideri contingat eidem . . . . . . . . . . . .b contradictores per censuram ecclesiasticam, appellacione . . . . . . . . . . . .b vel statuto de certo canonicorum numero, iuramento seu quavis . . . . . . . . . . . . . .b de quibus eciam de verbo ad verbum fieri oporteat in presentibus mencionem, sive litteris nostris obtentis super provisionibus aliquorum, per quas executio mandati presentis inpediri posset aliquatenus vel differri, aut si aliquibus sit indultum quod ad receptionem alicuius minime teneantur, aut interdici seu suspendi vel excommunicari non possint absque mandato sedis apostolice speciali, sive quod dictus Spinetus presencialiter non existat ad prestandum de observandis illius ecclesie consuetudinibus iuramentum, vel si pro aliis ad eandem ecclesiam direximus scripta nostra vel si aliqui sunt ibidem apostolice sedis auctoritate recepti, quibus pretextu presencium nolumus preiudicium generari, seu constitutione de duabus dietis in generali concilio promulgata. Nos autem prebendam huiusmodi nichilominus nostre donationi servamus, decernentes irritum et inanne si quid (si quid) de ipsa contra tenorem presencium fuerit attemptatum. Tu vero nobis rescribere non postponas quicquid super hoc duxeris faciendum. Datum Ianue, secundo idus iunii, pontificatus nostri anno octavo.\n"
        },
        {
            "type": "apparat_critique",
            "value": "filius \u00e8 <i>in<\/i> sopralinea.",
            "children": {
                "numero_note": "a"
            }
        },
        {
            "type": "apparat_critique",
            "value": "<i>Il cartolare \u00e8 assai lacerato.<\/i>",
            "children": {
                "numero_note": "b"
            }
        },
        {
            "type": "notes_historiques",
            "value": "Bonifacio di Savoia, arcivescovo di Canterbury dal 1243 al 1270 (C. Eubel, p. 168).",
            "children": {
                "numero_note": "1"
            }
        }
    ]
}