{
    "id": 26510,
    "name": "aposcripta-3589",
    "type": "acte",
    "url": "http:\/\/telma-chartes.irht.cnrs.fr\/aposcripta\/notice\/26510",
    "project_slug": "aposcripta",
    "project_label": "APOSCRIPTA \u2013 Lettres des papes",
    "user": "lettrespontificalesadmin",
    "last_update": "2020-10-19 16:28:01",
    "licence": "Attribution - Pas d\u2019Utilisation Commerciale - Partage dans les M\u00eames Conditions 3.0 France (CC BY-NC-SA 3.0 FR) ",
    "licence_url": "https:\/\/creativecommons.org\/licenses\/by-nc-sa\/3.0\/fr\/",
    "elements": [
        {
            "type": "pape",
            "value": "Cl\u00e9ment III (1187-1191)"
        },
        {
            "type": "date_lieu",
            "value": "Lateran"
        },
        {
            "type": "date_libre",
            "value": "1189 Juli 15"
        },
        {
            "type": "date",
            "value": " 1189\/07\/15",
            "children": {
                "date_deb_annee": "1189",
                "date_deb_mois": "07",
                "date_deb_jour": "15"
            },
            "range": {
                "date_apres": 11890715,
                "date_avant": 11890715
            }
        },
        {
            "type": "analyse",
            "value": "Clemens III best\u00e4tigt der Kollegiatkirche Toussaint-en-l\u2019Ile (D. Ch\u00e2lons-sur-Marne) die w\u00f6rtlich aufgenommene Verf\u00fcgung des Bischofs Guido III von Ch\u00e2lons-sur-Marne<a class=\"note\" href=\"#note-1\">1<\/a>."
        },
        {
            "type": "transcription",
            "value": "<?xml version=\"1.0\" encoding=\"UTF-8\"?>\n Clemens episcopus servus servorum dei dilectis filiis, abbati et canonicis ecclesie omnium sanctorum de insula Catalaunensi, salutem et apostolicam benedictionem. Ea, que rationabiliter disposita fuerint et statuta, ne cuiusquam maliciosa presumptione temere immutentur, sed potius debita gaudeant firmitate, iuxta petentium voluntatem consentaneam rationi convenit apostolico munimine communiri. Eapropter, vestris iustis postulationibus annuentes, concessionem et constitucionem, quam venerabilis frater noster, Catalaunensis episcopus, super insula Catalaunensi et rebus aliis vobis et ecclesie vestre fecit, sicut rationabiliter facta est, et vos res concessas iuste et sine controversia possidetis et in scripto ipsius episcopi continetur, auctoritate apostolica confirmamus et presentis scripti patrocinio communimus. Ad maiorem autem firmitatem, ipsius scripti tenorem, de verbo ad verbum iussimus inserendum : In nomine sancte et individue trinitatis. Amen. Ego Wido dei gratia Catalaunensis episcopus2 notum facio tam futuris quam presentibus, quod dilectus filius noster Rogerus abbas ecclesie omnium sanctorum de insula Catalaunensi et canonici, inibi deo sub regula beati Augustini servientes, ad nos humiliter et devote venientes, maximis supplicacionibus impetrarunt, quatinus libertatem et iura sue ecclesie illibata servaremus. Nos vero, inspectis privilegiis et confirmationibus Romanorum pontificum et felicis memorie Ludovici, regis Francorum, sed et predecessorum nostrorum Gaufridi3 scilicet et Rogeri secundi4, qui eandem ecclesiam a fundamentis erexit, et totam insulam, eidem ecclesie adiacentem, precio a possessoribus redemptam, totam liberam sepefate ecclesie titulo elemosine contulit, iuste peticioni eorum benignum prebentes assensum et de nostra largitate bona illius ecclesie ampliare divine pietatis intuitu volentes, concessimus, per totam insulam domos ad habitandum de novo construi et pontem, per quem libere de insula transeatur in civitatem. Illis autem, qui super ripam domos edificabunt, concedimus duos cubitos5 in aquam, si necesse fuerit, stipites infigere ad sustentandum trabes et laquearia6 domorum vel ad alios usus sibi necessarios. Hoc tamen excepimus, quod homines episcopi et homines ecclesie beati Stephani, qui habent proprias domos in civitate, non habebunt potestatem transmeandi ad habitandum in ipsa insula. Prefatam vero insulam et bannum et habitatores eius, sicut prelibatum est, liberrimos esse censemus et ab omni consuetudine, tallia, questu et querela, que pro diversis occasionibus in civitate solent evenire frequenter, nostre dono largitionis emancipamus. Ut ergo hec immota illibataque permaneant, presentis scripti patrocinio et sigilli nostri testimonio confirmamus. Decernimus igitur, si quis, invidie sive malignitatis peste laborans, hanc nostre donationis elemosinam sciens contraire temptaverit, nisi presumptionem suam digna satisfactione correxerit, reum se de perpetrata iniquitate cognoscat et a sacratissimo corpore ac sanguine dei ac domini nostri Jesu Christi alienus fiat atque in extremo examine divine ultioni subiaceat. Nulli ergo hominum liceat, hanc nostre paginam confirmationis infringere vel ei ausu temerario contraire. Si quis autem hoc attemptare presumpserit, indignationem omnipotentis dei et beatorum Petri et Pauli apostolorum eius se noverit incursurum. \u2014 Dat. Laterani, Id. Julii. Pontificatus nostri anno secundo.\n"
        },
        {
            "type": "edition",
            "value": "Julius von Pflugk-Harttung, <i>Acta pontificum Romanorum inedita<\/i>, T\u00fcbingen, 1880, I, n. 401, p. 348"
        },
        {
            "type": "sources_manuscrites",
            "value": "Or. im Archive des D\u00e9p. Marne zu Ch\u00e2lons-sur-Marne."
        },
        {
            "type": "remarques",
            "value": ""
        },
        {
            "type": "notes_historiques",
            "value": "<i>Die Abschrift dieser Urkunde verdanke ich Herrn Archivar P\u00e9licier in Ch\u00e2lons-sur-Marne.<\/i>",
            "children": {
                "numero_note": "1"
            }
        },
        {
            "type": "notes_historiques",
            "value": "<i>Guido III de Joinville, Bischof von Ch\u00e2lons-sur-Marne, 1164\u20131190.<\/i>",
            "children": {
                "numero_note": "2"
            }
        },
        {
            "type": "notes_historiques",
            "value": "<i>Gottfried, Bischof von Ch\u00e2lons, 1131\u20131142.<\/i>",
            "children": {
                "numero_note": "3"
            }
        },
        {
            "type": "notes_historiques",
            "value": "<i>Roger II, Bischof v. Ch\u00e2lons, c. 1043\u20131065.<\/i>",
            "children": {
                "numero_note": "4"
            }
        },
        {
            "type": "notes_historiques",
            "value": "<i>Cubitus : mensura geometrica ; cubitus duorum fit palmorum ; cubitus habet pedem et dimidium.<\/i> (<i>M\u00e8tre, pied cube, mesure qui a un m\u00e8tre, un pied, dans les trois dimensions etc.<\/i>). <i>Der Cubitus<\/i> (\u201e<i>Cube<\/i>\u201c) <i>war in den verschiedenen Ortschaften und zu verschiedenen Zeiten verschieden, wie fast alle Maasse, mit denen wir zu thun haben. Du Cange, Gloss. II p. 685 ; Brinckmeier, Gloss. I p. 563 ; Littr\u00e9, Dict. I p. 922.<\/i>",
            "children": {
                "numero_note": "5"
            }
        },
        {
            "type": "notes_historiques",
            "value": "<i>Laquearium : Pi\u00e8ce de bois de sciage, solive, lambourde ; Laquearia : Get\u00e4fel. Dict. de Tr\u00e9voux, VII p. 266 ; Diefenbach, Nov. Gloss. 228.<\/i>",
            "children": {
                "numero_note": "6"
            }
        },
        {
            "type": "genre",
            "value": "Bulle"
        }
    ]
}