{
    "id": 146304,
    "name": "aposcripta-6118",
    "type": "acte",
    "url": "http:\/\/telma-chartes.irht.cnrs.fr\/aposcripta\/notice\/146304",
    "project_slug": "aposcripta",
    "project_label": "APOSCRIPTA \u2013 Lettres des papes",
    "user": "j_theryastruc",
    "last_update": "2020-10-19 16:39:17",
    "licence": "Attribution - Pas d\u2019Utilisation Commerciale - Partage dans les M\u00eames Conditions 3.0 France (CC BY-NC-SA 3.0 FR) ",
    "licence_url": "https:\/\/creativecommons.org\/licenses\/by-nc-sa\/3.0\/fr\/",
    "elements": [
        {
            "type": "pape",
            "value": "Innocent II (1130-1143)"
        },
        {
            "type": "destinataire",
            "value": "Le pr\u00e9v\u00f4t de l'\u00e9glise d'Albi Raimon, ses successeurs et les autres fr\u00e8res qui ont profess\u00e9 la vie canonique tant pr\u00e9sents que futurs"
        },
        {
            "type": "date_libre",
            "value": "II idus junii"
        },
        {
            "type": "date",
            "value": "1136\/06\/07",
            "children": {
                "date_deb_annee": "1136",
                "date_deb_mois": "06",
                "date_deb_jour": "07"
            },
            "range": {
                "date_apres": 11360607,
                "date_avant": 11360607
            }
        },
        {
            "type": "date_lieu",
            "value": "Pise"
        },
        {
            "type": "genre",
            "value": "Privil\u00e8ge solennel"
        },
        {
            "type": "analyse",
            "value": "Innocent [II] place l'\u00e9glise cath\u00e9drale Sainte-C\u00e9cile d'Albi et ses chanoines r\u00e9guliers sous sa protection."
        },
        {
            "type": "sources_manuscrites",
            "value": "B. FRANCE, Paris, Biblioth\u00e8que nationale de France, Collection Doat 105, fol. 46.",
            "children": {
                "type_source": "Copie moderne"
            }
        },
        {
            "type": "edition",
            "value": "Ici reprise de Eug\u00e8ne d'Auriac, <i>Histoire de l'ancienne cath\u00e9drale d'Alby depuis les premiers temps connus jusqu'\u00e0 la fondation de la nouvelle \u00e9glise Sainte-C\u00e9cile<\/i>, Paris : Imprimerie imp\u00e9riale, 1858, p. 197-199. A int\u00e9grer."
        },
        {
            "type": "edition_autre",
            "value": "Partielle : Ici reprise de Cl\u00e9ment Compayr\u00e9, <i>\u00c9tudes historiques et documents in\u00e9dits sur l\u2019Albigeois, le Castrais et l\u2019ancien dioc\u00e8se de Lavaur<\/i>, Albi, Maurice Papailhiau, 1841, p. 278 <a target=\"_blank\" href= \"http:\/\/gallica.bnf.fr\/ark:\/12148\/bpt6k28984n\/f284.image\"> [en ligne]<\/a>."
        },
        {
            "type": "regeste",
            "value": "JL \u2014"
        },
        {
            "type": "transcription",
            "value": "<?xml version=\"1.0\" encoding=\"UTF-8\"?>\nInnocentius episcopus, servus servorum Dei, dilectiis filiis Raimundo Albiensis ecclesiae preposito ejusque successoribus caeterisque fratribus canonicam vitam professis tam praesentibus quam futuris, in perpetuam memoriam. Piae postulatio voluntatis effectu debet pro sequente compleri, quatenus et devotionis sinceritas laudabiliter enitescat et utilitas postulata vires indubitanter assumat. Quia igitur dilectio vestra, ad Sedis apostolicae portum confugens, ejus tuitionem devotione debita requisivit, nos, supplicationibus vestris clementer annuimus et Albiensem beatae Ceciliae matricem ecclesiae, in qua, Deo auctore, vitam canonicam professis estis cum omnibus ad ipsam pertinentibus sub tutela apostolicae Sedis excipimus, quemadmodum a dilectis filiis nostris Sicardo, archidiacono, et Guirfredo et Guillelmo, sacrista, postulatum est. Per praesentis igitur privilegii paginam vobis vestrisque successoribus in perpetuum confirmamus ut regularis canonicorum ordo in ecclesia vestra semper vigeat et ut liberam eligendi pontificem et praepositum, remoto cujuscunque personae violentia, canonici regulariter viventes habeant facultatem et quaecumque vobis et ecclesiae vestrae largitione principum vel concessione pontificum collata sunt et quaecumque in futurum, largiente Deo, juste et atque canonice poteritis adipisci, in quibus haec propriis duximus nominibus annotanda, videlicet praeposituram, archidiaconatus, decaniam, sacristiam, caputscoliam, ecclesiam beati Eugenii de vico Viantii, ecclesiam beati Johannis de Prunet,.... Amen, amen, amen. Ego Innocentius catholicae Ecclesiae episcopus. Ego Guillelmus, Prenestinus episcopus, subscripsi. Ego Gregorius, diaconus cardinalis sanctorum Sergii et Bachi, subscripsi.Ego..... Data Pisis, per manum Aimerici, sanctae Romanae Ecclesiae diaconi cardinalis et cancellarii, secundo idus junii, indictione decima tertia, Incarnationis Dominicae anno millesimo centesimo tricesimo sexto, pontificatus vero domini Innocentii papae secundi anno sexto.\n"
        },
        {
            "type": "bibliographie_generale",
            "value": "Eug\u00e8ne d'Auriac, <i>Histoire de l'ancienne cath\u00e9drale d'Alby depuis les premiers temps connus jusqu'\u00e0 la fondation de la nouvelle \u00e9glise Sainte-C\u00e9cile<\/i>, Paris : Imprimerie imp\u00e9riale, 1858, p. 195."
        }
    ]
}