{
    "id": 23725,
    "name": "aposcripta-944",
    "type": "acte",
    "url": "http:\/\/telma-chartes.irht.cnrs.fr\/aposcripta\/notice\/23725",
    "project_slug": "aposcripta",
    "project_label": "APOSCRIPTA \u2013 Lettres des papes",
    "user": "j_theryastruc",
    "last_update": "2020-10-19 16:27:17",
    "licence": "Attribution - Pas d\u2019Utilisation Commerciale - Partage dans les M\u00eames Conditions 3.0 France (CC BY-NC-SA 3.0 FR) ",
    "licence_url": "https:\/\/creativecommons.org\/licenses\/by-nc-sa\/3.0\/fr\/",
    "elements": [
        {
            "type": "pape",
            "value": "Honorius III (1216-1227)"
        },
        {
            "type": "date",
            "value": " 1224\/04\/22",
            "children": {
                "date_deb_jour": "22",
                "date_deb_mois": "04",
                "date_deb_annee": "1224"
            },
            "range": {
                "date_apres": 12240422,
                "date_avant": 12240422
            }
        },
        {
            "type": "date_lieu",
            "value": "Latran"
        },
        {
            "type": "genre",
            "value": "Mandement (littere cum filo canapis)"
        },
        {
            "type": "analyse",
            "value": "Honorius papa III archiepiscopo Remensi et episcopo Silvanectensi mandat ut comitem Flandri\u00e6 excomunicationis sententia feriant si a conventionibus ab eo cum rege initis resiliat."
        },
        {
            "type": "transcription",
            "value": "<?xml version=\"1.0\" encoding=\"UTF-8\"?>\nHonorius episcopus, servus servorum Dei, venerabilibus fratribus archiepiscopo Remensi et episcopo Silvanectensi, salutem et apostolicam benedictionem. Pro captivis et afflictis quasi jugiter generalis orat Ecclesia et nos, qui ei, licet immeriti, presidemus, captivitatis incommoda patientibus non compati nequeuntes, tanto ad liberationem ipsorum libenter interponimus partes nostras, quanto captivantibus et captivis, vel potius liberatis et liberantibus, nos consulere salubrius arbitramur. Quare, licet alieno intuitu, karissimo in Christo filio nostro L. illustri regi Francorum preces dirigamus ad presens, ex eo tamen quod personam ejus speciali prerogativa dilectionis et gratie amplexantes, ipsum secundum utrumque hominem proficere affectamus, ea que ad salutem anime sue ac gloriam regie dignitatis proveniunt studiose intendimus suadere, ipsum ad mansuetudinem precibus et monitis invitando, scientes quod exaltat mansuetos Dominus in salutem, et sapiens filium ammonens ait : \u00ab In mansuetudine, fili, opera tua perfice, et super hominum gloriam dirigeris \u00bb. Sane intelecto quondam quod inter clare memorie Ph. patrem regis ejusdem et nobilem virum comitem Flandrensem convenerat ut idem comes pro certa se redimeret pecunie quantitate prestanda, sibi nihilominus de terra Flandrie, que ad dominium regis spectat, ea quam posset impendere cautione, nos alterius compassi miserie, ac miseration[e] alterius delectati, eundem regem nostris litteris rogavimus attentius et monuimus ut dictum comitem, divine pietatis intuitu, liberaret. Volentes quoque indempnitati regie precavere, ad postulationem ipsius comitis, vobis nostris dedimus litteris in mandatis ut, si prenominatus comes in regem, vel prolem seu terram suum, quod absit, insurgeret, nisi infra quadraginta dies postquam esset monitus in curia regia satisfactionem super hoc, juxta parium suorum judicium, exhiberet, eundem comitem excommunicationi ac terram suam interdicto supponere deberetis, donec ipse modo satisfaceret supradicto. Verum, nequitia diaboli bonis actibus invidente, predicto Ph. sublato de medio, conventio incompleta remansit et dicti comitis liberatio est hactenus prepedita. Quia vero nimis inhumanum videtur dictum comitem ulterius captivitatis squaloribus macerari, memoratum regem Lodovicum rogamus, monemus et hortamur attente ut, prudenter attendens quod misericordibus misericordiam Dominus pollicetur, et agnoscens quod obtimum vindicte genus est nolle punire cum possit, eo quod magnanimitatis est magnifice parcere, ad liberationem ipsius comitis cor suum clementer inflectat et ipsum redimi patiatur. Nos enim vobis nostris damus litteris in preceptis, que volumus etiam ad vestros successores extendi, ut, si forte comes vel comitissa Flandrie contra conventiones, que ipsius regis et ejusdem comitis ac comitisse sigillis apparuerint sigillate, venire presumpserint, vos et successores vestri in comitis et comitisse ac coadjutorum suorum personas excomunicationis et in terras eorum interdicti sententias, appellatione postposita, promulgetis et faciatis easdem inviolabiliter observari, donec id per judicium curie regie fuerit emendatum. Quod si non ambo hiis exequendis potueritis interesse, alter vestrum ea nichilominus exequatur. Datum Laterani, Xo kalendas maii, pontificatus nostri anno octavo.\n"
        },
        {
            "type": "edition",
            "value": "Ici d'apr\u00e8s Alexandre Teulet, <i>Layettes du Tr\u00e9sor des chartes<\/i>, II, Paris : Henri Plon, 1866<a target=\"_blank\" href=\"http:\/\/gallica.bnf.fr\/ark:\/12148\/bpt6k31580p\/f117.image\"> [en ligne]<\/a>, n. 1644, p. 28<a target=\"_blank\" href=\"https:\/\/francearchives.fr\/fr\/facomponent\/432282515c122356843375b6d1d7e124563e4ef1\"> [num\u00e9ris\u00e9e sur le site des Archives de France]<\/a>, d'apr\u00e8s E."
        },
        {
            "type": "sources_manuscrites",
            "value": "E. J. 533, Flandre, I, sac 3, n. 3. Original scell\u00e9, bulle de plomb sur cordelettes de chanvre, d\u00e9crite dans l'Inventaire sous le n. 6046.",
            "children": {
                "type_source": "Exp\u00e9dition"
            }
        },
        {
            "type": "destinataire",
            "value": "L'archev\u00eaque de Reims et l'\u00e9v\u00eaque de Senlis."
        }
    ]
}