{
    "id": 26190,
    "name": "aposcripta-3269",
    "type": "acte",
    "url": "http:\/\/telma-chartes.irht.cnrs.fr\/aposcripta\/notice\/26190",
    "project_slug": "aposcripta",
    "project_label": "APOSCRIPTA \u2013 Lettres des papes",
    "user": "lettrespontificalesadmin",
    "last_update": "2020-10-19 16:27:56",
    "licence": "Attribution - Pas d\u2019Utilisation Commerciale - Partage dans les M\u00eames Conditions 3.0 France (CC BY-NC-SA 3.0 FR) ",
    "licence_url": "https:\/\/creativecommons.org\/licenses\/by-nc-sa\/3.0\/fr\/",
    "elements": [
        {
            "type": "pape",
            "value": "Pascal II (1099-1118)"
        },
        {
            "type": "date_lieu",
            "value": "Lateran"
        },
        {
            "type": "date_libre",
            "value": "1102 Mai 29"
        },
        {
            "type": "date",
            "value": " 1102\/05\/29",
            "children": {
                "date_deb_annee": "1102",
                "date_deb_mois": "05",
                "date_deb_jour": "29"
            },
            "range": {
                "date_apres": 11020529,
                "date_avant": 11020529
            }
        },
        {
            "type": "analyse",
            "value": "* Paschalis II best\u00e4tigt dem Abte Ademar von St.-Martial de Limoges die Cluniacenser Regel, Besitzth\u00fcmer und weitgehende Rechte seines Klosters."
        },
        {
            "type": "transcription",
            "value": "<?xml version=\"1.0\" encoding=\"UTF-8\"?>\nPascalis episcopus servus servorum dei dilecto filio Ademaro, abbati Lemovicensis cenobii, quod in honore sancti Martialis edificatum est, eiusque successoribus regulariter substituendis, in perpetuum. Officii nostri nos hortatur auctoritas pro ecclesiarum statu sollicitos esse et, que recte statuta, iterum stabilire. Proindea nos religionis statum, qui per te potissimum statutum est in beati et apostolici confessoris Marcialis (monasterio), augeri et provehi cupientes, iuxta predecessoris nostri sancte memorie Urbani secundi statuta, presentis decreti pagina stabilimus locum ipsum, sicut hodie est et sicut ab episcopo et canonicis Lemovicensis ecclesie dispositum noscitur, semper sub disciplina, dispositione et custodia Cluniacensis abbatis persistere. Et ut, obeunte abbate, nullus ibi qualibet subreptionis astutia vel violentia proponatur, nisi quem prefatus abbas illic vel successores eius secundum dei timorem previderit eligendum. Porro pro tue religionis petitione et monasterium ipsum et quecumque ipsius sub tutela apostolice sedis perpetuo confovenda suscipimus. In quibus hec propriis nominibus duximus exprimenda : in Petragorisensi pago abbatiam sancti Sori confessoris, in pago Lemovicensi ecclesiam sancte Marie et sancti Nicolai in castro Albuzono (?) cum cimiterio et sepultura eiusdem castri et cetera, que predecessoris nostri supradicti Urbani secundi in privilegio continentur, quecumque preterea in presenti vestrum cenobium iuste possidet, sive in futurum iuste atque canonice poterit adipisci, firma vobis vestrisque successoribus et illibata permaneant. Decernimus ergo, ut nulli hominum omnino liceat, idem monasterium temere perturbare aut eius possessiones auferre vel ablatas retinere, minuere vel temerariis vexationibus fatigare, set omnia integra conserventur eorum, pro quorum sustentatione et gubernatione concessa sunt, usibus omnimodis profutura, salva Lemovicensis episcopi canonica reverentia, siquidem catholicus fuerit et gratiam atque communionem apostolice sedis habuerit ; alioquin quamdiu forte, quod absit, Lemovicensis ecclesia catholico pastore caruerit, vobis vestrisque successoribus liceat, ordinationum sive consecrationum gratiam quarumlibetb catholicum, quem malueritis, episcopum adire et ab eo, que sunt oportuna, suscipere. Item constituimus, ut secundum antique consuetudinis modum, absente episcopo, beati Martialis abbas precipue cum maioribus canonicis Lemovicensis ecclesie curam gerat et episcopalis electio ex eius potissimum arbitrio disponatur. Presente quoque episcopo, non sine eiusdem abbatis consilio graviora ipsius ecclesie negocia peragantur. Hoc quoque presenti capitulo subiniungimus, ne pro communi parrochie interdictione vel excommunicatione monasterium vestrum interdicto excommunicationive subdatur, ut cumc excommunicati illic vel interdicti nequaquam ad divina officia admittantur. Si qua sane ecclesiastica secularisve persona hanc nostre constitutionis paginam sciens contra eam temere venire attemptaverit, secundo terciove commonita, si non satisfactione congrua emendaverit, potestatis honorisque sui dignitate careat, reamque se divino iudicio existere de perpetrata iniquitate cognoscat, et a sacratissimo corpore ac saguine dei et domini redemptoris nostri Jesu Christi aliena fiat, atque in extremo examine districte ultioni subiaceat. Cunctis autem eidem loco iusta servantibus sit pax domini nostri Jesu Christi, quatinus et hic fructum bone actionis percipiant et apud districtum iudicem premia eterne pacis inveniant. Amen. Amen. Amen. \u2014 Scriptum per manum Baini (Rainerii ?), scrinarii, regionarii et notarii sacri palatii.Ego Pascalis secundus sancte Romane sedis episcopus.Data Laterani, per manum Johannis, sancte Romane ecclesie diaconi cardinalis. iiii Kal. Junii. Indictione x. Incarnationis dominice anno millesimo ciii. Pontificatus autem domni Pascalis secundi pape iii.\n"
        },
        {
            "type": "edition",
            "value": "Julius von Pflugk-Harttung, <i>Acta pontificum Romanorum inedita<\/i>, T\u00fcbingen, 1880, I, n. 81, p. 75"
        },
        {
            "type": "sources_manuscrites",
            "value": "Abschriften des MS. Moreau 41 fol. 94, 95, in der Bibl. Nat. zu Paris."
        },
        {
            "type": "remarques",
            "value": "\u201eTranscrite de mot \u00e0 autre suivant l\u2019autographe, qui se trouve Abbaye de Cluny au grand tr\u00e9sor \u2014 Tiroir : Abbaye St.-Martial de Limoges. Le dit original sur un placard de parchemin sain portant 12 pouces et demi (0,34 M) de hauteur sur six et demi (0,18 M) de largeur. Le 9 Avril 1781. Lamb. de Barive.\u201c \u2014 Nach der im MS. beigegebenen Schriftprobe haben wir kein Original vor uns. Der Name des Notars ist falsch, die p\u00e4pstliche Unterschrift unkanzleim\u00e4ssig, die Gruppirung, Wortstellung und Formulirung des Contextes ungew\u00f6hnlich, die Zugest\u00e4ndnisse zu weit gehend. Dennoch ist offenbar nach einer echten Vorlage gearbeitet, nur weiss man nicht, ob dieselbe gerade an St.-Martial adressirt gewesen."
        },
        {
            "type": "apparat_critique",
            "value": "a.\u2002Pio inde",
            "children": {
                "numero_note": "a"
            }
        },
        {
            "type": "apparat_critique",
            "value": "b.\u2002<i>Zwar verst\u00e4ndlich, doch vielleicht anders zu lesen<\/i>, gratia quemlibet ?",
            "children": {
                "numero_note": "b"
            }
        },
        {
            "type": "apparat_critique",
            "value": "c.\u2002ut <i>oder<\/i> cum <i>ist falsch, vielleicht ist eines von beiden zu streichen, vielleicht statt<\/i> cum ; tamen <i>oder dergl. zu lesen<\/i>.",
            "children": {
                "numero_note": "c"
            }
        },
        {
            "type": "genre",
            "value": "Bulle"
        }
    ]
}