{
    "id": 26452,
    "name": "aposcripta-3531",
    "type": "acte",
    "url": "http:\/\/telma-chartes.irht.cnrs.fr\/aposcripta\/notice\/26452",
    "project_slug": "aposcripta",
    "project_label": "APOSCRIPTA \u2013 Lettres des papes",
    "user": "lettrespontificalesadmin",
    "last_update": "2020-10-19 16:28:00",
    "licence": "Attribution - Pas d\u2019Utilisation Commerciale - Partage dans les M\u00eames Conditions 3.0 France (CC BY-NC-SA 3.0 FR) ",
    "licence_url": "https:\/\/creativecommons.org\/licenses\/by-nc-sa\/3.0\/fr\/",
    "elements": [
        {
            "type": "pape",
            "value": "Lucius III (1181-1185)"
        },
        {
            "type": "date_lieu",
            "value": "Velletri"
        },
        {
            "type": "date_libre",
            "value": "1182 Mai 9"
        },
        {
            "type": "date",
            "value": " 1182\/05\/09",
            "children": {
                "date_deb_annee": "1182",
                "date_deb_mois": "05",
                "date_deb_jour": "09"
            },
            "range": {
                "date_apres": 11820509,
                "date_avant": 11820509
            }
        },
        {
            "type": "analyse",
            "value": "Lucius III nimmt das St. Theodorenkloster zu Bamberg in apostolischen Schutz und best\u00e4tigt ihm seine Besitzth\u00fcmer und Rechte<a class=\"note\" href=\"#note-1\">1<\/a>."
        },
        {
            "type": "transcription",
            "value": "<?xml version=\"1.0\" encoding=\"UTF-8\"?>\nLucius episcopus servus servorum dei dilectis in Christo filiabus Irmingardia, abbatisse sancte Theodore Babenberge, eiusque sororibus, tam presentibus quam futuris, regularem vitam professis In ppm. | Prudentibus virginibus, que sub habitu religionis, accensis lampadibus, per opera sanctitatis iugiter se preparant ireb obviam sponso, se|des apostolica debet presidium impertiri, ne forte cuiuslibet temeritatis incursus aut eas a proposito revocet, aut robur, quod absit, sacre religionis infringat. Eapropter, dilecte in domino filie, vestrisc iustis postulationibus clementer annuimus, et monasterium sancte Theodored, in quo divino mancipate estis obsequio, sub beati Petri et nostra protectione suscipimus, et presentis scripti privilegio communimus. Statuentes, ut quascumque possessiones, quecumque bona idem monasterium in presentiarum iuste et canonice possidet aut in futurum concessione pontificum, largitione regum vel principum, oblatione fidelium seu aliis iustis modis prestante domino poterit adipisci, firma vobis vestrisque successoribus et illibata permaneant. In quibus hec propriis duximus exprimenda vocabulis : aream in qua monasterium et claustrum sita sunt, sicut eam episcopus Eberardus2 ad petitionem et conca(m)bium Gerdrudis, quondam palatine, nunc vero in eodem monasterio sanctimonialis, sancte Theodore contulit cum vineis et agris adiacentibus, silvis quoque et molendino, curiam in Oswae, Hintensprwnch, quatuor curtes in Snephenriute cum omnibus suis pertinentiis, curiam in Gundolteshaim cum omni iure, curiam in Mamelsdorf cum omnibus pertinentiis suis, predia in Bolnsze, predia in Puldesvelt, predia in Drosendorf cum decimis et omnibus pertinentiis, predia in Sescendorf, duas curtes in Hattenriute, villam in Treukendorf cum cultis et incultis, vineas in Dornhaim cum omnibus que prefatus episcopus Eberardus ad petitionem prenominate Gerdrudis, quondam palatine, sancte Theodore iuxta Urahe contulit, villam in P\u01d2che cum omnibus pertinentiis suis, villam Cliubesperch. Sane novalium vestrorum, que propriis manibus aut sumptibus colitis, sive de nutrimentis animalium vestrorum nullus a vobis decimas exigere vel extorquere presumat. Liceat quoque vobis, personas e seculo fugientes, liberas et absolutas absque alicuius contradictione ad conversionem recipere et in vestro monasterio retinere. Prohibemus insuper, ut nulli sororum vestrarumf post factam in eodem loco professionem sine abbatisse sueg licentia nisi arctioris religionis obtentu fas sit, de eodem loco discedere ; discedentem vero absque communium litterarum cautione nulla audeat retinere. Cum autem generale interdictum terre fuerit, liceat vobis, ianuis clausis, non pulsatis campanis, exclusis excommunicatis et interdictis, summissa voce divina officiah celebrare. In parrochialibusi insuper ecclesiis, quas habetis, liceat vobis, sacerdotes eligere et diocesano episcopo presentare, quibus, si idonei fuerint, episcopus curam animarum committat, ut ei de secularibus vobis vero de temporalibus debeant respondere. Obeunte vero te, nunc eiusdem loci abbatissa, vel aliqua earum, que tibi successerint, nulla ibi qualibet surreptionisj astutia seu violentia preponatur, nisi quamk sorores communi consensu vel sororum pars consilii sanioris secundum dei timorem et beati Benedicti regulam providerint eligendaml. Decernimus ergo, ut nulli omnino hominum liceat, monasterium vestrum temere perturbare aut eius possessiones auferre vel ablatas retinere, minuere seu quibuslibet vexationibus fatigare, sed omnia integra conserventur eorum, pro quorum gubernatione ac sustentatione concessa sunt, usibus omnimodis profutura, salva sedis apostolice auctoritate et diocesani episcopi canonica iustitia. Si qua igitur in futurum ecclesiastica secularisve persona hanc nostre constitutionism paginam sciens contra eam temere venire temptaverit, secundo tertiove commonita, nisi reatum suum digna satisfactione correxerit, potestatis honorisque sui dignitate careat, reamque se divino iudicio existere de perpetrata iniquitate cognoscat, et a sacratissimo corpore ac sanguine dei et domini redemptoris nostri Jesu Christi aliena fiat, atque in extremo examine divine ulctioni subiaceat. Cunctis autem eidem loco sua iura servantibus sit pax domini nostri Jesu Christi, quatinus et hic fructum bone actionis percipiant et apud distric|tum iudicem premia eterne pacis inveniant. Amen. Am. Amen. \u2014(R) Ego Lucius catholice ecclesie episcopus ss. (M)\u2020 Ego Chonradus Sabinensis episcopus, Salzburgensis ecclesie minister ss.\u2020 Ego Theodinus Portuensis et sancte Rufine sedis episcopus ss.\u2020 Ego Petrus Tusculanus episcopus ss.\u2020 Ego Paulus Prenestinus episcopus ss. (3)\u2014 \u2020 Ego Petrus tit. sancte Susanne presbiter cardinalis ss.\u2020 Ego Vivianus tit. sancti Stephani in Celio monte presbiter cardinalis ss.\u2020 Ego Cynthius presbiter cardinalis tit. sancte Cecilie ss. \u2020 Ego Arduinus presbiter cardinalis tit. sancte Crucis in Jerusalem ss.\u2020 Ego Matheus presbiter cardinalis tit. sancti Marcelli ss. (1)\u2020 Ego Laborans presbiter cardinalis sancte Marie trans Tiberim tit. Calixti ss.\u2014 \u2020 Ego Jacinthus diaconus cardinalis sancte Marie in Cosmidyn ss.\u2020 Ego Ardicio sancti Theodori diaconus cardinalis ss.\u2020 Ego Rainerius diaconus cardinalis sancti Georgii ad velum aureum ss.\u2020 Ego Gratianus sanctorum Cosme et Damiani diaconus cardinalis ss. (3)Dat. Velletri, per manum Alberti, sancte Romane ecclesie presbiteri cardinalis et cancellarii. vii Idus Madii. Indictione xv. Incarnationis dominice anno mclxxxii. Pontificatus vero domni Lucii pp iii anno i.\n"
        },
        {
            "type": "edition",
            "value": "Julius von Pflugk-Harttung, <i>Acta pontificum Romanorum inedita<\/i>, T\u00fcbingen, 1880, I, n. 343, p. 305-306"
        },
        {
            "type": "sources_manuscrites",
            "value": "Or. im allgemeinen Reichsarchive zu M\u00fcnchen."
        },
        {
            "type": "remarques",
            "value": "Perg. ital., br. 0,505, lang 0,645, unten 0,012 umgeschlagen, durch 2 L\u00f6cher geht die rosa und gelbe d\u00fcnnf\u00e4dige Seidenschnur, an der die Bulle h\u00e4ngt, Faltung der Privilegien. Der Hauptk\u00f6rper scheint mit zwei verschiedenen Federn, einer spitzeren und einer breiteren geschrieben und an einigen Stellen mit etwas dunklerer Dinte nachgearbeitet zu sein. Die erste Zeile ist gegen Ende stark zusammengedr\u00e4ngt und abbrevirt, um mit dem Verewigungszeichen abschliessen zu k\u00f6nnen, dieses misst nur 0,019 in der Breite. Das Ringkreuz scheint eine Dinte f\u00fcr sich, das E der p\u00e4pstlichen Unterschrift die des Contextes aufzuweisen, letzteres ist aber in der Mitte von der rothbraunen Dinte nachgezogen, in welcher die Umschrift und die \u00fcbrige Unterschrift ausgef\u00fchrt sind. Die Zeugen r\u00fchren theilweise von verschiedener Hand und Dinte her, sicher von gleicher z. B. die Presbiter Arduin und Matheus, nur dass das Kreuz Arduins andere Dinte als die Unterschrift zeigt. Feder und Dinte der Datirung ist von der des Contextes verschieden, bezw. erstere mit der spitzeren identisch, Hand unbestimmbar, das A Alberts vielleicht nachgetragen. Wie die erste Zeile, musste auch die Datirung gegen Ende stark zusammengedr\u00fcckt werden, um die Zeile nicht zu \u00fcberschreiten. Liniirung : links finden sich drei Seitenlinien (die erste war dem Rande zu nahe, die zweite schief gezogen), rechts stehen zwei Seitenlinien. Links setzen die Querlinien verschieden ein, rechts ist der \u00e4ussere Seitenstrich als Norm gew\u00e4hlt."
        },
        {
            "type": "apparat_critique",
            "value": "a.\u2002<i>Urspr\u00fcnglich<\/i> Soinice <i>oder dergl. mit ganz abweichender rothbrauner Dinte umcorrigirt<\/i>.",
            "children": {
                "numero_note": "a"
            }
        },
        {
            "type": "apparat_critique",
            "value": "b.\u2002<i>Auf Rasur.<\/i>",
            "children": {
                "numero_note": "b"
            }
        },
        {
            "type": "apparat_critique",
            "value": "c.\u2002e <i>corrigirt aus<\/i> o.",
            "children": {
                "numero_note": "c"
            }
        },
        {
            "type": "apparat_critique",
            "value": "d.\u2002<i>In dem Drucke der Kaiserurkunde Mon. Boic. XXIX p. 443 findet sich<\/i> sancti Theodori.",
            "children": {
                "numero_note": "d"
            }
        },
        {
            "type": "apparat_critique",
            "value": "e.\u2002Owa <i>\u00fcber dem<\/i> O <i>ein Kreuz und am linken Rande der Urk. wieder ein Kreuz mit einem<\/i> s",
            "children": {
                "numero_note": "e"
            }
        },
        {
            "type": "apparat_critique",
            "value": "f.\u2002a <i>aus<\/i> o <i>corrigirt<\/i>.",
            "children": {
                "numero_note": "f"
            }
        },
        {
            "type": "apparat_critique",
            "value": "g.\u2002e <i>aus<\/i> i <i>corrigirt<\/i>.",
            "children": {
                "numero_note": "g"
            }
        },
        {
            "type": "apparat_critique",
            "value": "h.\u2002<i>Das erste<\/i> f <i>aus<\/i> c <i>corrigirt<\/i>.",
            "children": {
                "numero_note": "h"
            }
        },
        {
            "type": "apparat_critique",
            "value": "i.\u2002p <i>aus<\/i> J <i>corrigirt<\/i>.",
            "children": {
                "numero_note": "i"
            }
        },
        {
            "type": "apparat_critique",
            "value": "j.\u2002<i>Das erste<\/i> r <i>durch Rasur hergestellt<\/i>.",
            "children": {
                "numero_note": "j"
            }
        },
        {
            "type": "apparat_critique",
            "value": "k.\u2002quem, <i>\u00fcber dem<\/i> e <i>ein<\/i> a <i>geschrieben<\/i>.",
            "children": {
                "numero_note": "k"
            }
        },
        {
            "type": "apparat_critique",
            "value": "l.\u2002a <i>aus<\/i> u <i>und im letzten<\/i> m \u2014 <i>Striche corrigirt<\/i>.",
            "children": {
                "numero_note": "l"
            }
        },
        {
            "type": "apparat_critique",
            "value": "m.\u2002<i>Im letzten<\/i> s <i>corrigirt<\/i>.",
            "children": {
                "numero_note": "m"
            }
        },
        {
            "type": "notes_historiques",
            "value": "<i>Vergl. Stumpf, Reichsk. 4346.<\/i>",
            "children": {
                "numero_note": "1"
            }
        },
        {
            "type": "notes_historiques",
            "value": "<i>Eberhard II, von Baiern, Bischof v. Bamberg 1146\u20131172 : Hier also einer jener F\u00e4lle, wo<\/i> bona memoria <i>oder<\/i> quondam <i>fehlt, vergl. oben S. 296 Anm. 2.<\/i>",
            "children": {
                "numero_note": "2"
            }
        },
        {
            "type": "genre",
            "value": "Bulle"
        }
    ]
}