{
    "id": 26766,
    "name": "aposcripta-3667",
    "type": "acte",
    "url": "http:\/\/telma-chartes.irht.cnrs.fr\/aposcripta\/notice\/26766",
    "project_slug": "aposcripta",
    "project_label": "APOSCRIPTA \u2013 Lettres des papes",
    "user": "l_valliere",
    "last_update": "2020-10-19 16:28:04",
    "licence": "Attribution - Pas d\u2019Utilisation Commerciale - Partage dans les M\u00eames Conditions 3.0 France (CC BY-NC-SA 3.0 FR) ",
    "licence_url": "https:\/\/creativecommons.org\/licenses\/by-nc-sa\/3.0\/fr\/",
    "elements": [
        {
            "type": "pape",
            "value": "Cl\u00e9ment V (1305-1314)"
        },
        {
            "type": "destinataire",
            "value": "Le roi de France Philippe IV le Bel"
        },
        {
            "type": "date_libre",
            "value": "IIII nonas septembris, anno tertio"
        },
        {
            "type": "date",
            "value": " 1308\/09\/02",
            "children": {
                "date_deb_jour": "02",
                "date_deb_mois": "09",
                "date_deb_annee": "1308"
            },
            "range": {
                "date_apres": 13080902,
                "date_avant": 13080902
            }
        },
        {
            "type": "date_lieu",
            "value": "La Fayolle"
        },
        {
            "type": "genre",
            "value": "Lettre, g\u00e9n\u00e9ral (apr\u00e8s 1198, littere cum filo canapis)"
        },
        {
            "type": "analyse",
            "value": "Le pape prie Philippe, cr\u00e9ancier de l\u2019\u00e9glise d\u2019Albi, pour une somme de 20.000 livres, de rendre \u00e0 ladite \u00e9glise les revenus que ses officiers ont per\u00e7us cette ann\u00e9e, ou tout au moins de se montrer bienveillant envers le nouvel \u00e9v\u00eaque<a href=\"#note-2\"><sup>2<\/sup><\/a>. "
        },
        {
            "type": "sources_manuscrites",
            "value": "E. FRANCE, Paris, Archives nationales, J 703\/166. Scell\u00e9, adresse au dos.",
            "children": {
                "type_source": "Original"
            }
        },
        {
            "type": "edition",
            "value": "Georges Lizerand, <i>Cl\u00e9ment V et Philippe le Bel<\/i>, Paris : Hachette, 1910, pi\u00e8ce just. n.  15, p. 446-448 <a target=\"_blank\" href=\"https:\/\/archive.org\/details\/LizerandGClementVEtPhilippeIVLeBel1910\/page\/n491\">[en ligne]<\/a>, d\u2019apr\u00e8s E."
        },
        {
            "type": "regeste",
            "value": "Bernard Barbiche, <i>Les actes pontificaux originaux des Archives Nationales de Paris<\/i>, Cit\u00e9 du Vatican, 1975-1982, III, n. 2349, p. 48, d\u2019apr\u00e8s E."
        },
        {
            "type": "notes_historiques",
            "value": "Vienne, arr. et cant. de Civray, commune de Saint-Saviol.",
            "children": {
                "numero_note": "1"
            }
        },
        {
            "type": "notes_historiques",
            "value": "Philippe fit droit \u00e0 cette requ\u00eate le 4 octobre 1308 (Archives nationale, JJ 41, n. 10 [r\u00e9f\u00e9rence fausse, \u00e0 corriger...]).",
            "children": {
                "numero_note": "2"
            }
        },
        {
            "type": "notes_historiques",
            "value": "Bernard de Castanet.",
            "children": {
                "numero_note": "3"
            }
        },
        {
            "type": "notes_historiques",
            "value": "Bertrand de Bordes.",
            "children": {
                "numero_note": "4"
            }
        },
        {
            "type": "remarques",
            "value": "Absente des registres"
        },
        {
            "type": "transcription",
            "value": "<?xml version=\"1.0\" encoding=\"UTF-8\"?>\nClemens, episcopus servus servorum Dei, carissimo in Christo filio Philippo regi Francorum illustri, salutem et apostolicam benedictionem. Pridem, Albiense ecclesia per translationem venerabilis fratris nostri Bernardi Anitiensis3, tunc Albiensis episcopi, vacante, nos, intendentes eidem ecclesie de persona utili et tibi grata providere, dilectum filium Bertrandum, decanum ipsius ecclesie Anitiensis, camerarium nostrum4, tui honoris fervidum zelatorem, prefecimus ipsi Albiensi ecclesie in episcopum et pastorem. Verum, cum prefata ecclesia Albiensis, ex certis causis, tibi per ipsum episcopum obligata in viginti milibus librarum Tunonensium asseratur, tuique officiales tanto tempore ecclesiam ipsam tenuerint ac perceperint eius redditus et proventus quod, ex illis multo maiorem pecuniam quam pecunie prefate sit quantitas, sicut a pluribus fidedignis accepimus, et propter diutinam detentionem ipsius est verisimile habuerunt, sicque memorata ecclesia propter malam administrationem habitam ex bonis eisdem in multis, sicut dilectus filius magister Petrus Amalvini, capellanus noster, lator presentium, tibi exponet oretenus, retevatione celeri indigere noscatur, magnitudinem tuam rogamus et hortamur attentius quatinus, ecclesie predicte bona, iura, proventus, et redditus et maxime presenti anno perceptos, qui pro relevatione huiusmodi ac propter quamplures expensas quas oportet electum eundem propter sui mutationem status, subito eidem electo sunt plurimum oportuni, benigne restitui facias, si tibi videatur quod satisfactum sit de debito supradicto. Quod si tibi forte tue conscientie puritas subministrat quod, eadem ecclesia sit tibi, ut predicitur, obligata, sic erga dictos electum et ecclesiam pro apostolice Sedis et nostra reverentia te in hac parte lib\u00e9ralem exhibeas sic te gratiosum ostendas quod idem electus preces nostrois in bac parte sibi sentiat efficaciter profuisse, ac prelatum electum reddas proinde ad obsequia tue magnitudinis obligatum, et ex ipsa ecclesia, et bonis ipsius officiales tuos, qui bona ipsius ecclesie enormiter consumere asseruntur, et quoscumque alios precipias amoveri. Datum in Fayolia1, prope Sanctum Johannem Angeliacensis Xanctonensis, IIII nonas septembris, pontificatus nostri anno tertio.\n"
        }
    ]
}