{
    "id": 25985,
    "name": "aposcripta-3082",
    "type": "acte",
    "url": "http:\/\/telma-chartes.irht.cnrs.fr\/aposcripta\/notice\/25985",
    "project_slug": "aposcripta",
    "project_label": "APOSCRIPTA \u2013 Lettres des papes",
    "user": "lettrespontificalesadmin",
    "last_update": "2020-10-19 16:27:52",
    "licence": "Attribution - Pas d\u2019Utilisation Commerciale - Partage dans les M\u00eames Conditions 3.0 France (CC BY-NC-SA 3.0 FR) ",
    "licence_url": "https:\/\/creativecommons.org\/licenses\/by-nc-sa\/3.0\/fr\/",
    "elements": [
        {
            "type": "pape",
            "value": "Jean XXIII (1410-1415)"
        },
        {
            "type": "destinataire",
            "value": "( )",
            "children": {
                "numero_note": "0"
            }
        },
        {
            "type": "date_lieu",
            "value": "n.c."
        },
        {
            "type": "date_libre",
            "value": "1413, Oct 20"
        },
        {
            "type": "date",
            "value": " 1413\/10\/20",
            "children": {
                "date_deb_annee": "1413",
                "date_deb_mois": "10",
                "date_deb_jour": "20"
            },
            "range": {
                "date_apres": 14131020,
                "date_avant": 14131020
            }
        },
        {
            "type": "analyse",
            "value": "X pape<br\/>PRIVILEGIUM IOANNIS PAP\u00c6 XXIII. per quod declarat Prioratus, Pr\u00e6posituras, Decanatus, et dignitates conventuales Ordinis Cluniacensis, in gratiis expectativis non comprehendi."
        },
        {
            "type": "transcription",
            "value": "<?xml version=\"1.0\" encoding=\"UTF-8\"?>\nIoannes Episcopus servus servorum Dei, ad perpetuam rei memoriam decens reputamus et congruum, ut cum de gratiis, et concessionibus Apostolicis ambigitur, quod oraculo Romani Pontificis declarentur, dudum si quidem in nostris Apostolatus primordiis omnes dignitates, prioratus, et pr\u00e6posituras conventuales ordinum quorumcumque tunc vacantes et in posterum vacaturas collationi, et dispositioni nostr\u00e6 reservantes declaravimus ex tunc irritum, et inane, si secus super iis \u00e0 quoquam quavis authoritate scienter, vel ignoranter, contigerit attentari. Cum itaque post modum nonnulli Cluniac. et sancti Benedicti ac c\u00e6teri alii quorumdam aliorum Ordinum professores de quorum numero dilectus filius Joannes Bosuaque Monachus Monasterii Fiscanensis dicti Ordinis sancti Benedicti Rothomagensis Di\u0153cesis existit expectativas gratias de Beneficiis Ecclesiasticis cum cura vel sine cura per Monachos dicti Clun. Ordinis gubernari consuetis, etiamsi inter alia Prioratus, pr\u00e6positur\u00e6 vel Decanatus, aut dignitates conventuales existerent ad dilectorum filiorum Cluniac. Matisconensis Di\u0153cesis ac quorumdam aliorum Monasteriorum, Abbatum, necnon Priorum, et Decanorum, Prioratuum, Decanatuum et conventuum ejusdem Cluniacensis Ordinis collationem, provisionem, pr\u00e6sentationem, electionem, seu quamvis aliam dispositionem communiter vel divisim pertinentibus ipsis in commendam vel titulum conferendi \u00e0 nobis hactenus reportarint, et quidquid expectantes Joannes videlicet pr\u00e6dictus Prioratum de Gornayo super Maternam Ordinis Cluniacensis Parisiensis Di\u0153cesis detinet occupatum, sibi et forsitan alii eis concessarum gratiarum pr\u00e6fatarum pr\u00e6textu plerosque ex Prioratibus aliis Decanatibus ac dignitatibus conventualibus eisdem forsitan fuerunt assecuti, in Abbatum, Priorum Decanorum, conventuum, Monasteriorum, necnon Prioratuum et Decanatuum pr\u00e6dictorum ut accepimus non modicum pr\u00e6 judicium atque damnum. Nos ad hujusmodi ambiguitatis tollendum dubium in pr\u00e6missis quod omnes grati\u00e6 supradict\u00e6, ac nostr\u00e6 litter\u00e6 confect\u00e6 sive conficiend\u00e6 super illis quod hujusmodi Prioratus, pr\u00e6posituras, Decanatus ac dignitates conventuales ex nostra scientia nulla hactenus emanarint, nosque per litteras, et gratias easdem reservationi et decreto pr\u00e6fatis non derogari voluisse sive velle nec Prioratus, pr\u00e6posituras, Decanatus ac dignitates pr\u00e6fatas sub hujusmoni gratiis atque litteris comprehendi debuisse sive debere authoritate Apostolica ex certa scientia tenore pr\u00e6sentium declaramus, decernentes per litteras Apostolicas personis quibusvis cujuscumque dignitatis, status, gradus, ordinis, vel conditionis existant sub quacumque verborum forma forsan in posterum concedendis ac etiam processus illarum vigore habendos ad conventuales Prioratus, pr\u00e6posituras, Decanatus sive dignitates pr\u00e6fatas penitus non extendi necnon Abbatem, Priores, sed Decanos eosdem admittentes aliquem vel aliquos illarum pr\u00e6textu ad Prioratus, pr\u00e6posituras, Decanatus ac dignitates hujusmodi aliquatenus non teneri non obstantibus quibuscumque generalibus et derogatoriis clausulis vel in eisdem litteris forsitan consecutis, etiamsi de illis de verbo ad verbum pr\u00e6sentibus habenda esset mentio specialis necnon aliis contrariis quibuscumque. Decernentes insuper prout est irritum et inane si secus super iis \u00e0 quoquam quavis authoritate scienter vel ignoranter attentatum forsan est hactenus vel imposterum contigerit attentari. Nulli ergo omnin\u00f2 hominum liceat hanc paginam nostr\u00e6 declarationis et constitutionis infringere vel ei ausu temerario contraire. Si quis autem hoc attentare pr\u00e6sumpserit indignationem omnipotentis Dei et beatorum Petri et Pauli Apostolorum ejus se noverit incursurum. Datum apud sanctum Antonium, extr\u00e0 Muros Florent. decimo tertio, Kalendas Novembris, Pontificatus nostri anno IV.\n"
        },
        {
            "type": "edition",
            "value": "Ici tir\u00e9e du projet <i>CBMA - Corpus Burgundiae Medii Aevi<\/i>, document 11123. Site du projet Corpus de la Bourgogne du Moyen \u00c2ge, [En ligne] <a href=\"http:\/\/www.cbma-project.eu\" target=\"_blank\">http:\/\/www.cbma-project.eu<\/a>  "
        },
        {
            "type": "sources_manuscrites",
            "value": "\u00e0 renseigner."
        },
        {
            "type": "remarques",
            "value": ""
        },
        {
            "type": "edition_autre",
            "value": "Ici reprise de Pierre Simon, <i>Bullarium sacri Ordinis cluniacensis, complectens plurima privilegia per summos pontifices tum ipsi cluniacensi abbatiae, tum ei subditis monasteriis hactenus concessa<\/i>, Lyon : Jullieron, 1680, p. 186, col. 1-2.",
            "children": {
                "numero_note": "0"
            }
        },
        {
            "type": "genre",
            "value": "Bulle"
        },
        {
            "type": "genre",
            "value": "Lettre"
        }
    ]
}