{
    "id": 24887,
    "name": "aposcripta-2022",
    "type": "acte",
    "url": "http:\/\/telma-chartes.irht.cnrs.fr\/aposcripta\/notice\/24887",
    "project_slug": "aposcripta",
    "project_label": "APOSCRIPTA \u2013 Lettres des papes",
    "user": "a_grunin",
    "last_update": "2020-10-19 16:27:36",
    "licence": "Attribution - Pas d\u2019Utilisation Commerciale - Partage dans les M\u00eames Conditions 3.0 France (CC BY-NC-SA 3.0 FR) ",
    "licence_url": "https:\/\/creativecommons.org\/licenses\/by-nc-sa\/3.0\/fr\/",
    "elements": {
        "0": {
            "type": "pape",
            "value": "Lucius III (1181-1185)"
        },
        "1": {
            "type": "date_libre",
            "value": "1182, 5 febbraio, I ind."
        },
        "2": {
            "type": "date",
            "value": " 1182\/02\/05",
            "children": {
                "date_deb_jour": "05",
                "date_deb_mois": "02",
                "date_deb_annee": "1182"
            },
            "range": {
                "date_apres": 11820205,
                "date_avant": 11820205
            }
        },
        "3": {
            "type": "date_lieu",
            "value": "Velletri"
        },
        "4": {
            "type": "genre",
            "value": "Privil\u00e8ge"
        },
        "5": {
            "type": "analyse",
            "value": " Lucio III, elogiando re Guglielmo II per la sua generosit\u00e0, istituisce la chiesa di Santa Maria Nova di Monreale arcivescovato, concedendo al suo metropolitano l\u2019uso del pallio, ogni diritto episcopale sul monastero di Maniace \u2013 appartenente fino a quel momento alla diocesi di Messina \u2013 ed assoggettandogli la diocesi di Catania<a href=\"#app-2\"><sup>(2)<\/sup><\/a>. Conferma inoltre tutte le propriet\u00e0 dell\u2019arcivescovato, in particolare i diritti ceduti dai prelati, e dichiara che vi si canter\u00e0 la messa solenne in trentadue feste specificate, oltre che alla consacrazione di vescovi e all\u2019ordinazione di sacerdoti. Conferma infine l\u2019uso delle elezioni canoniche secondo la regola benedettina e il censo annuo di 100 tar\u00ec da devolvere alla Santa Sede<a href=\"#app-3\"><sup>(3)<\/sup><\/a>."
        },
        "6": {
            "type": "sources_manuscrites",
            "value": "A. ITALIE, Palerme, Biblioteca centrale della Regione Siciliana, Tabulario di S. Maria Nuova di Monreale, perg. nr. Balsamo 116, di mm. 734+27\u00d7583."
        },
        "7": {
            "type": "sources_manuscrites",
            "value": "B. CITE DU VATICAN, Biblioteca apostolica Vaticana, ms lat. 3380, <i>Liber Privilegiorum<\/i> de Santa Maria Nuova  de Monreale (Sicile), fol. 25vb-27ra<a href=\"#app-1\"><sup>(1)<\/sup><\/a>."
        },
        "8": {
            "type": "edition",
            "value": "Ici tir\u00e9e de Serena Falletta, <a target=\"_blank\" href=\"http:\/\/vatlat3880.altervista.org\/\"> L'edizione Digitale del Liber Privilegiorum Sanctae Montis Regalis Ecclesiae, 2009<\/a>, document<a target=\"_blank\" href=\"http:\/\/vatlat3880.altervista.org\/documenti\/II.5.xml\"> II.5<\/a>, d'apr\u00e8s B."
        },
        "9": {
            "type": "edition_autre",
            "value": "Pirro R., <i>Sicilia Sacra disquisitionibus et noiiis illustrata<\/i>, 4 voll., Palermo 1644-47; nuova ed. riveduta e ampliata in 2 voll., Palermo 1733; rist. anast. con uno scritto di F. Giunta, 2 voll., Bologna 1987, I, p. 458."
        },
        "10": {
            "type": "edition_autre",
            "value": "Del Giudice M., <i>Descrizione del tempio e monasterio di S. Maria Nuova di Monreale. Vite dei suoi Arcivescovi, Abbati e Signori col Sommario dei Privilegi, della detta Santa Chiesa di Giovan Luigi Lello. Ristampata ad opera del padre Don Michele Del Giudice priore cassinese<\/i>, Palermo 1702, p. 39."
        },
        "11": {
            "type": "regeste",
            "value": "Lello G.L., <i>Historia della Chiesa di Monreale<\/i>, Palermo 1702, n. 42."
        },
        "12": {
            "type": "regeste",
            "value": "Garufi C.A., <i>Catalogo illustrato del Tabulario di Santa Maria Nuova in Monreale<\/i>, in <i>Documenti per servire alla Storia di Sicilia pubblicati a cura della Societ\u00e0 Siciliana per la Storia Patria<\/i>, XIX, Palermo 1902, n. 42, p. 24."
        },
        "13": {
            "type": "regeste",
            "value": "Jaff\u00e8-Loewenfeld P., <i>Regesta Pontificum Romanorum. Photomechanischer Nachdruck<\/i>, 2 voll., Graz 1956, n. 14834."
        },
        "14": {
            "type": "bibliographie_generale",
            "value": "Schir\u00f2 G., <i>Monreale: capitale normanna<\/i>, Palermo 1978, p. 29."
        },
        "15": {
            "type": "transcription",
            "value": "<?xml version=\"1.0\" encoding=\"UTF-8\"?>\nLucius episcopus servus servorum Dei. Venerabili fratri Guillelmo archiepiscopo Montis Regalis eiusque successoribus canonice substituendis. In perpetuum. Licet dominus Iesus Christus, Ecclesiam suam instituens dissipulisd suis eamdem super credentes ligandi ac solvendi dederit potestatem unum tamen in ea beatum scilicet Petrum apostolum voluit preminere dicens: \"Tu es Petrus et super hanc petram hedificabo Ecclesiam meam, et quodcumque ligaveris super terram erit ligatum et in celis, et quodcumque solveris super terram erit solutum et in celis\"e. Intelligendum ex hoc tribuens fidelibus universis quod, sicut unus erat mediator Dei et hominum homo Christus Iesus, pacificans que in celis erant et que super terram et dissolvens macheriarum parietem ac faciens utraque unum, sic et in ecclesia unum ex ipso et per ipsum omnium capud esset, nec in membris fieret ulla diversitas que non per unius auctoritatem ac providenciam capitis ad unam fidei veritatem eamdemque religionis regulam reducerentur et cultum; quod eciam in eo loco monstratur in quo et de confirmandis fratribus et de pascendis Dominicis ovibus preceptum a Domino nostro legitur ei datum. Ex hac utique potestate que ad beatum Petrum ex dominica traditione pervenit sacrosancta Romana ecclesia que per dominum Iesum Christum ab eodem beato Petro instituta est et fundata super universas ecclesias auctoritatem obtinuit ut, ubique ratum esset ac solidum quod ipsius providencia statuisset, quod etiam ab universis ecclesiis per orbem terrarum usquequam diffusis et receptum est et servatum, ita ut per eam et distribucio factam sit dignitatum et in dictum Christi fidelibus et diligenciusf ordinatum quod ad cultum per||tinere visum est pietatis; ex hac si quidem data beato Petro a Domino potestate ipse ac successores ipsius per diversa mundi loca constituerunt episcopos et dignitates per provincias diviserunt. Nos etiam qui eis licet impares meritis, Domino vocate successimus, in loco qui Mons Regalis dicitur pro multag utilitate populi Christiani metropoliticam sedem duximus statuendam, cum et enim karissimus in Christo filius noster Willelmus illustris Sicilie rex divine caritatis igne succensus ad gloriam Dei et salutem suam ac parentum suorum monasterum ibi fundasset, et primo locum ad id agendum beato Petro et Romane obtulisset ecclesie ab episcopali subiectione per auctoritatem predecessorish nostri felicis memorie Alexandri papae, assensumque venerabilis fratris nostri Gualterii Panormitani archiepiscopi liberum redidit et quietum ac sic hedificiis erigendis regiam curiam impendensi brevi tempore templum Domino multa dignum ammiratione construxit, castris munitissimis et reditibus ampliavit, libris et sacris vestibus et argento decoravit et auro, et tandem muliudinem monachorum de Cavensis ordine introduxit et in tantumj edificiis et rebus aliis extulit locum ipsum ut simile opus per aliquem regem factum non fuerit a diebus antiquis, et in ammirationem homines adducat ad quos exauditu solo potuerit quod factum est pervenire. Deinde ad opus bonum sicut cervus ad fontes aquarum anhelans et modicum reputansk, quidquid desiderio fecerat eternorum iusta id quod Sapientia dicit: \"Qui edunt me ad huc esurient et qui bibunt me ad huc sicient\"l, a predicto predecessore nostro et nobis ipsis ac fratribus nostris cum multa instancia postulavit ut eundem locum dignitatem metropolitam donaremus presertim cum et illuc populum congregare qui ex illa parte contra omnium inimicorum incursus inexpugnabile munimen possetm toti terre conferre. Postero nos deliberatione habita non parva cum fratribus et actendentes comunem utilitatem qui de incremento illius loci speratur, desiderio et peticioni eius non duximus abnuendum, ne ubi liberalissimus ipse de thesauro et tenimentis suis exierat, nos de hiis, que ad iniuncti nobis apostolatus adeo spectat officium existere difficiles videremur et tanta eius et nostra minueretur tarditate devocio, quanta nostro studio de bono congruebat ad melius incitari. Nam et hoc pro desiderio eius non parum facile videbatur quod licet esset insolitum quod due metropoles tam vicine consisterent, ex hac tamen nova constitutione nequequam ius minuebatur alterius, cum iam ante monasterium ipsum per archiepiscoposn et episcopos tam in se, quam in omnibus locis suis ab omni episcopali iure fuisset exemptum, et | plena in omnibus libertatum donatum, ita ut nulli archiepiscopo vel episcopo nisi tantum Romano pontifici subiaceret. Te itaque venerabilis in Christo fratero Willelme in eiusdem loci archiepiscopump nostris tamquam beati Petri manibus consecravimus, et pallii dignitate statuimus decorandum recipientes quidem eamdem ecclesiam ad honorem Domini Dei nostri et memoriam beate Marie semper virginis regia liberalitate fundatam sub apostolici tuitione muniminis, et nostro privilegio quod factum est roborantes; statuimus autem in primis ut ordo monasticusq qui secundum Dei timorem et beati Benedicti regulam et Cavensis monasterii observancias in eo loco institutus esse dinoscitur perpetuis ibidem temporibus inviolabiliter observetur; preterea quascumque possessiones et quecumque bona eadem ecclesia in presenciarum ex dono prenominati regis ac quorumlibet aliorum rationabiliter possidet aut in futurum concessione pontificumr, largiciones principum, oblationem fidelium seu aliis iustis modis poterit adipisci, firma eidem ecclesie in perpetuum et illibata permaneant. In quibus episcopatum Catheniensem proprio duximus vocabulo designandum quem nos de fratrum nostrorum communi consilio ad multam predicti regis instanciam tibi tuisquet successoribus sicut propriis archiepiscopis metropolitico in perpetuum constituimus iure subesse; episcopale quoqueu ius et omnia que in subscriptis locis ex concessione fratrum et coepiscoporum nostrorum habes, auctoritate apostolica tibi tuisque successoribus confirmamus, et firma et illibata perpetuis temporibus decernimus permanere; ex concessione scilicet venerabilis fratris nostri Gualterii Panormitani archiepiscopi, cum volunptate consilio et assensu omnium canonicorum suorum et regia eciam connivencia totam parrochiam et diocesim castelli Corilionis cum monasterio Sancte Marie Magdalene et aliis ecclesiis cum decimis et aliis iusticiis quas de baronibus et aliis hominibus ipsius castelli et pertinenciarum eius Panormitana ecclesia solebat percipere, et cum omni episcopali iure quod in eadem parrochia et dyocesi videbatur habere, ecclesiam preterea Sancti Silvestri que fuerat demania et propri iuris Panormitane ecclesie, quam pro eo quod ecclesie tue multum vicina erat et multum utilior ei quam Panormitane ecclesie iamdictus archiepiscopus sicut eius scripto autentico continetur de consilio et assensu omnium fratrum suorum eidem ecclesie libera et spontanea tradidit voluntate, cum omnibus tenimentis, villanis et possessionibus et omni iure suo; ex concessione bone memorie Nycolay quondam Messanensis archiepiscopi cum tocius capituli sui consensu omne ius episcopale quod ecclesia Messanensis deberet habere in monasterio et omnibus || pertinenciis eius quod illustris recordationis Margarita gloriosa, quondam regina, in loco qui dicitur Maniacium in dyocesim Messanensis ad honorem Dei et beatissime Marie semper virginis memoriam pro sua devocione construxit, et per dictum archiepiscopum ab omni debito Messanensis ecclesie liberum obtinuit et quietum; ex concessione Thome Regine archiepiscopi cum communi capituli sui consensu, totum ius episcopale vel quodcumquev aliud ad Reginam pertinebat ecclesiam in monasterio Sancti Salvatoris de Marcello, quod construxit Iohannes Calomenus regius quondam camerarius, et in monasterio monialium Sancti Iohannis Exocaliva, quod est extra muros civitatis Regii et cellis, obedienciis, possessionibus, tenimentis ac pertinenciis monasteriorumw ipsorum iuxta quod in iamdicti archiepiscopi privilegio continetur; ex concessione Bartholomei Agrigentini episcopi cum capituli sui asscensuy tam parrochiam et dyocesim quam universum ius episcopale, cum omnibus decimis et aliis iusticiis ac reditibus suis quos de baronibus et aliis hominibus castelli Bactallarii et pertinenciarum eius et casale Busakini nec non et omnes decimas et alios redditus quos Agrigentina ecclesia in castro Corilionis et pertinenciis eius habebat, sicut in scripto ipsius episcopi dinoscitur contineri; ex concessione Mathei Mazariensis episcopi, parrochiam ac diocesim et ius episcopale omnesquex decimas et alios redditus quos ecclesia Mazariense habebat in municipio Iati et municipio Kalathatrasi cunctisque pertinenciis ipsorum, sicut in scripto prefati episcopi manifestius continetur; ex concessione Raynaldi Anglonensis episcopi cum communi capituli sui assensu in monasterio Carbonis cellis, obedienciis et possessionibus eius totum episcopale ius, et quodcumque aliud in eo Anglonensis habebat ecclesia, sicut in ipsius episcopi scripto denotatur expressum; ex concessione Bisinianensis episcopi cum capituli sui ascensu ecclesiam Sancte Marie de Maccla cum episcopali iure et omnibus obedienciis et pertinenciis suis, sicut in eiusdem episcopi privilegio demostratur; ecclesiam quoque Sancti Martini constructam in tenimentisz ecclesie a Petro Indulfo quam ipse Petrus obtulit eidem ecclesie cum tenimentis, possessionibus et pertinenciis suis; pallium ad hec plenitudinem scilicet pontificalis officii fraternitati tue de Sedis Apostolice liberalitate largimur, quo intra ecclesiam tuam ad missarum sollemnia celebranda subscriptis diebus uti debebis nativitate sancti Domini, festo Sancti Stephani, octava nativitatis dominice, Epyphania Ypopanti, dominicaaa in ramis palmarum, cena Domini, sabbato sancto, Pasca et duobus diebus sequentibusbb, Ascentione, Pentecoste, tribus festivitatibus beate Dei genitricis et virginis Marie, natalicio Sancti Iohannis Baptiste, commemoratione Omnium Sanctorum, sollempnitatibus Omnium Apostolorum | et precipuis festis ecclesie tue, dedicationibus ecclesiarum, consecrationibus episcoporum, ordinationibus clericorum et anniversario tue consecrationis die. Provideas igitur quomodo huius indumenti honor modesta sit actuum vivacitate servandus ut ei morum tuorum ornamenta conveniant, et esse plus valeas bonis actibus quam huiusmodi ornamento auctore Deo conspicuus et quem pastoralis cure constringit officium dilectionem proberis fratribus exhibere, ut in humilitatiscc virtute fundatus nec elerevis prosperis, nec fatigeris adversis. Ipsi etiam adversarii propter mandatum Dominicum tuo circa te copulentur affectu et quantum in te fuerit pacem habeto cum omnibus et ad pacem studeto reducere discordantes fulgeat in pectore tuo rationale iudicii cum superhumeralis actione convinctum et ita in conspectu Dei procedas et hominum, quatenus commisso tibi gregi Dominico virtutis prestes exemplum et taliter opere precedas et verbo ut, videntes opera tua bona glorificent Patrem nostrum qui in cellis est, et gaudeant se talem rectorem habere per quem et erudiantur ad fidem et ad recta opera provocentur. Obeunte vero te aut tuorum quolibet successorum nullus ibi qualibet surreptionis astucia seu violencia proponatur, nisi quem monachi eiusdem loci vel maior pars consilii sanioris dedd ipso collegio si quidem ydoneus fuerit in eo repertus secundum Deum et canonicas sanciones crediderunt eligendum, quod si forte ydoneus ibi reperiri nequiverit, et alium defuerit assumendus per fratres ipsius loci monachusee eligatur, qui nimirum et regularibus cibis et indumentis utatur. Decernimus ergo, ut nulli omnino hominum liceat prefatam ecclesiam temere perturbare aut eius possessiones auferre vel oblatas retinere, minuere seu quibuslibet vexationibus fatigare, sed omnia integra conserventur eorum pro quorum gubernatione ac sustentatione concessa sunt, usibus omnimodis profutura; ad indicium sane devotionis sue ac demostrandum quod eadem ecclesia Romano tamen pontifici subiaceret supranominatus filius noster rex cum eam sub nomine monasterii fundare cepisset centum tarenos Romano pontifici annis singulis constituit persolvendos. Si qua igitur in futurum ecclesiastica secularisve persona hanc nostreff constitutionisgg paginam sciens contra eam temere venire temptaverit, secundo terciove commonita, nisi reatum suum digna satisfatione correxerit potestatis honorisque sui careat dignitate reamque se divino iudicio existere de perpetrata iniquitate cognoscat, et a sacratissimo corpore ac sanguine dei et domini redemptoris nostri Iesu Christi aliena fiat atque in extremo examine divine ultioni subiaceat. Cunctis autem eidem loco sua iura || servantibus, sit pax domini nostri Iesu Christi, quatinus et hic fructum bone actionis precipiant et apud districtum iudicem premia eterne pacis inveniant. (R)hh(BV) Ego Lucius Catholice Ecclesie episcopus subscripsi. \u2020 Ego Theodinus Portuensis et Sancte Rufine sedis episcopus subscripsi. \u2020 Ego Henricus Albanensis episcopus subscripsi. \u2020 Ego Paulus Prenestinus episcopus subscripsi. \u2020 Ego Petrus presbiter cardinalis tituli Sancte Susanneii subscripsi. \u2020 Ego Vivianus tituli Sancti Stephani in Celio Monte presbiter cardinalis subscripsi. \u2020 Ego Laborans presbiter cardinalis Sancte Marie Transtiberim tituli Sancti Calixti subscripsi. \u2020 Ego Ranerius presbiter cardinalis Sanctorum Iohannis et Pauli tituli Pamachii subscripsi. \u2020 Ego Hubertus presbiter cardinalis tituli Sancti Laurencii in Damaso subscripsi. \u2020 Ego Pandulfus presbiter cardinalis tituli Basilice duodecim Apostolorum subscripsi. \u2020 Ego Iacinthus diaconus cardinalis Sancte Marie in Cosmidin subscripsi. \u2020 Ego Ardicio diaconus cardinalis Sancti Theodori subscripsi. \u2020 Ego Gracianus Sanctorum Cosme et Damiani diaconus cardinalis subscripsi. \u2020 Ego Bobo diaconus cardinalis Sancti Angeli subscripsi. \u2020 Ego Gerardus Sancti Adriani diaconus cardinalis subscripsi. \u2020 Ego Octavianus diaconus cardinalis Sanctorum Sergi et Bachi subscripsi. \u2020 Ego Soffredus diaconus cardinalis Sancte Marie in Via Lata subscripsi. \u2020 Ego Abbinusjj diaconus cardinalis Sancte Marie Nove subscripsi. Datakk Velletri per manum Alberti Sancte Romane ecclesie presbiteri cardinalis et cancellarii, nonas februarii, indictionis Ie, incarnationis dominice anno M\u00b0C\u00b0LXXXII\u00b0, pontificatus vero domini Lucii papae III anno secundo.\n"
        },
        "17": {
            "type": "sources_manuscrites",
            "value": "C. ITALIE, Palerme, Biblioteca centrale della Regione Siciliana, Liber Pandectarum, ms. F.M. 14, f. 10'."
        },
        "18": {
            "type": "sources_manuscrites",
            "value": "D. ITALIE, Monreale (Sicile), Bibl. del Seminario Arcivescovile di Monreale, manoscritto XX.E.8."
        },
        "19": {
            "type": "notes_historiques",
            "value": "Le texte est pr\u00e9c\u00e9d\u00e9 de la rubrique suivante : <i> Tenor privilegii predicti Lucii pape III, in quo concedit(a) regi Guillelmo cum consensu et subscriptionibus omnium cardinalium quod Montis Regalis ecclesia sit archiepiscopalis(b), et utatur pallii dignitate, et subicit et Cathaniensem ecclesiam et dyocesim confirmat et approbat concessiones prelatorum Sicilie constitutorum citra et ultra Farum, specificando dictas concessiones particulariter et distincte, inter quas(c) totum ius episcopale quod Messanensis ecclesia habebat in monasterio Maniacii dicte Montis Regalis ecclesie est concessum. Capitulum v. <\/i>",
            "children": {
                "numero_note": "1"
            }
        },
        "20": {
            "type": "apparat_critique",
            "value": "<i>Nel codice, la<\/i> d <i>corretta su precedente<\/i> c.",
            "children": {
                "numero_note": "a"
            }
        },
        "21": {
            "type": "apparat_critique",
            "value": "<i>La seconda<\/i> a- <i>corretta su precedente<\/i> l.",
            "children": {
                "numero_note": "b"
            }
        },
        "22": {
            "type": "apparat_critique",
            "value": "<i>Nel cod., la<\/i> s <i>corretta su precedente<\/i> m.",
            "children": {
                "numero_note": "c"
            }
        },
        "23": {
            "type": "apparat_critique",
            "value": "<i>Cos\u00ec nel cod., s'intenda:<\/i> discipulis.",
            "children": {
                "numero_note": "d"
            }
        },
        "24": {
            "type": "apparat_critique",
            "value": "<i>Cit. Mt 16, 18-19.<\/i>",
            "children": {
                "numero_note": "e"
            }
        },
        "25": {
            "type": "apparat_critique",
            "value": "<i>La<\/i> d <i>corretta su precedente<\/i> l.",
            "children": {
                "numero_note": "f"
            }
        },
        "26": {
            "type": "apparat_critique",
            "value": "<i>Ma<\/i> mlta <i>nel codice.<\/i>",
            "children": {
                "numero_note": "g"
            }
        },
        "27": {
            "type": "apparat_critique",
            "value": "<i>Nel codice, la<\/i> i <i>\u00e8 corretta su precedente<\/i> e.",
            "children": {
                "numero_note": "h"
            }
        },
        "28": {
            "type": "apparat_critique",
            "value": "<i>Nel cod., tra la<\/i> d <i>e la <\/i>e <i>, il copista ha cancellato due lettere, di cui una<\/i> i.",
            "children": {
                "numero_note": "i"
            }
        },
        "29": {
            "type": "apparat_critique",
            "value": "<i>La seconda <\/i>t <i>corretta su precedente lettera, forse<\/i> d.",
            "children": {
                "numero_note": "j"
            }
        },
        "30": {
            "type": "apparat_critique",
            "value": "<i>Cit. Ps. 41, 1.<\/i>",
            "children": {
                "numero_note": "k"
            }
        },
        "31": {
            "type": "apparat_critique",
            "value": "<i>Cit. Ecl. 24, 29.<\/i>",
            "children": {
                "numero_note": "l"
            }
        },
        "32": {
            "type": "apparat_critique",
            "value": "<i>Nel codice, tra<\/i> po <i>e<\/i> sset <i>il copista ha cassato alcune lettere.<\/i>",
            "children": {
                "numero_note": "m"
            }
        },
        "33": {
            "type": "apparat_critique",
            "value": "<i>Nel cod., la seconda<\/i> o <i>\u00e8 corretta su precedente<\/i> u.",
            "children": {
                "numero_note": "n"
            }
        },
        "34": {
            "type": "apparat_critique",
            "value": "<i>Ma<\/i> f(rate)rr <i>nel codice.<\/i>",
            "children": {
                "numero_note": "o"
            }
        },
        "35": {
            "type": "apparat_critique",
            "value": "<i>La <\/i>m <i>finale \u00e8 corretta su precedente<\/i> o.",
            "children": {
                "numero_note": "p"
            }
        },
        "36": {
            "type": "apparat_critique",
            "value": "<i>Nel codice, la<\/i> u <i>corretta su precedente lettera.<\/i>",
            "children": {
                "numero_note": "q"
            }
        },
        "37": {
            "type": "apparat_critique",
            "value": "<i>La<\/i> m <i>finale \u00e8 corretta su precedente lettera.<\/i>",
            "children": {
                "numero_note": "r"
            }
        },
        "38": {
            "type": "apparat_critique",
            "value": "<i>Ma<\/i> largione <i>nel cod.<\/i>",
            "children": {
                "numero_note": "s"
            }
        },
        "39": {
            "type": "apparat_critique",
            "value": "<i>Nel codice, la<\/i> s <i>\u00e8 stata aggiunta nell'interlineo.<\/i>",
            "children": {
                "numero_note": "t"
            }
        },
        "40": {
            "type": "apparat_critique",
            "value": "<i>Segue una parola depennata e illegibile.<\/i>",
            "children": {
                "numero_note": "u"
            }
        },
        "41": {
            "type": "apparat_critique",
            "value": "<i>Ma nel codice<\/i> quodcum(m).",
            "children": {
                "numero_note": "v"
            }
        },
        "42": {
            "type": "apparat_critique",
            "value": "<i>Ma<\/i> monst(er)ior(um) <i>nel codice.<\/i>",
            "children": {
                "numero_note": "w"
            }
        },
        "43": {
            "type": "apparat_critique",
            "value": "<i>Cos\u00ec nel cod.<\/i>",
            "children": {
                "numero_note": "y"
            }
        },
        "44": {
            "type": "apparat_critique",
            "value": "<i>La<\/i> q <i>\u00e8 corretta su precedente lettera.<\/i>",
            "children": {
                "numero_note": "x"
            }
        },
        "45": {
            "type": "apparat_critique",
            "value": "<i>Nel cod., la prima<\/i> e <i>\u00e8 corretta su precedente lettera.<\/i>",
            "children": {
                "numero_note": "z"
            }
        },
        "46": {
            "type": "apparat_critique",
            "value": "<i>Nel codice, la<\/i> a <i>corretta su precedente lettera.<\/i>",
            "children": {
                "numero_note": "aa"
            }
        },
        "47": {
            "type": "apparat_critique",
            "value": "<i>Nel cod., la<\/i> b <i>\u00e8 preceduta da una s depennata.<\/i>",
            "children": {
                "numero_note": "bb"
            }
        },
        "48": {
            "type": "apparat_critique",
            "value": "<i>Ma<\/i> himilitatis <i>nel codice.<\/i>",
            "children": {
                "numero_note": "cc"
            }
        },
        "49": {
            "type": "apparat_critique",
            "value": "<i>Nel codice, segue nuovamente<\/i> de.",
            "children": {
                "numero_note": "dd"
            }
        },
        "50": {
            "type": "apparat_critique",
            "value": "<i>La<\/i> u <i>nell'interlineo corregge la<\/i> i<i>, che per\u00f2 non \u00e8 stata eliminata.<\/i>",
            "children": {
                "numero_note": "ee"
            }
        },
        "51": {
            "type": "apparat_critique",
            "value": "<i>Nel codice, la<\/i> e <i>finale \u00e8 corretta su precedente<\/i> a.",
            "children": {
                "numero_note": "ff"
            }
        },
        "52": {
            "type": "apparat_critique",
            "value": "<i>La terza<\/i> i <i>corretta su precedente<\/i> e.",
            "children": {
                "numero_note": "gg"
            }
        },
        "53": {
            "type": "apparat_critique",
            "value": "<i>Cos\u00ec la legenda nella cornice della Rota:<\/i> \u2020 Adiuva nos Deus salutaris noster, <i>cit. Ps. 78, 9. All'interno della Rota:<\/i> Sanctus Petrus | Sanctus Paulus | Luc|ius papae | III.",
            "children": {
                "numero_note": "hh"
            }
        },
        "54": {
            "type": "apparat_critique",
            "value": "<i>Nel cod., la<\/i> e <i>finale \u00e8 corretta su precedente<\/i> a.",
            "children": {
                "numero_note": "ii"
            }
        },
        "55": {
            "type": "apparat_critique",
            "value": "<i>Cos\u00ec nel codice, probabilmente da intendersi<\/i> Albinus.",
            "children": {
                "numero_note": "jj"
            }
        },
        "56": {
            "type": "apparat_critique",
            "value": "<i>Cos\u00ec nel cod., s'intenda:<\/i> Datum.",
            "children": {
                "numero_note": "kk"
            }
        },
        "57": {
            "type": "notes_historiques",
            "value": "Relativamente alla diocesi di Catania, suffraganea di Monreale, v. le successive conferma di Lucio III del 4 febbraio 1183 (doc. <a target=\"_blank\" href= \"http:\/\/vatlat3880.altervista.org\/documenti\/II.8.xml\">II.8<\/a>) (=<a target=\"_blank\" href= \"http:\/\/telma-chartes.irht.cnrs.fr\/aposcripta\/notice\/24890\"> APOSCRIPTA n. 2025<\/a>) e di Clemente III del 29 ottobre 1188 (doc. <a target=\"_blank\" href= \"http:\/\/vatlat3880.altervista.org\/documenti\/II.16.xml\">II.16<\/a>) (=<a target=\"_blank\" href= \"http:\/\/telma-chartes.irht.cnrs.fr\/aposcripta\/notice\/24879\"> APOSCRIPTA n. 2014<\/a>)",
            "children": {
                "numero_note": "2"
            }
        },
        "58": {
            "type": "notes_historiques",
            "value": "Il privilegio viene confermato dallo stesso Lucio III il 16 novembre 1184 (cfr. <a target=\"_blank\" href= \"http:\/\/vatlat3880.altervista.org\/documenti\/II.7.xml\">II.7<\/a>) (=<a target=\"_blank\" href= \"http:\/\/telma-chartes.irht.cnrs.fr\/aposcripta\/notice\/24891\"> APOSCRIPTA n. 2026<\/a>), da Clemente III il 28 ottobre 1188 (cfr. i documenti <a target=\"_blank\" href= \"http:\/\/vatlat3880.altervista.org\/documenti\/II.14.xml\">II.14<\/a> (=<a target=\"_blank\" href= \"http:\/\/telma-chartes.irht.cnrs.fr\/aposcripta\/notice\/24875\"> APOSCRIPTA n. 2010<\/a>), <a target=\"_blank\" href= \"http:\/\/vatlat3880.altervista.org\/documenti\/II.15.xml\">II.15<\/a> (=<a target=\"_blank\" href= \"http:\/\/telma-chartes.irht.cnrs.fr\/aposcripta\/notice\/24876\"> APOSCRIPTA n. 2011<\/a>) e <a target=\"_blank\" href= \"http:\/\/vatlat3880.altervista.org\/documenti\/II.17.xml\">II.17<\/a> (=<a target=\"_blank\" href= \"http:\/\/telma-chartes.irht.cnrs.fr\/aposcripta\/notice\/24877\"> APOSCRIPTA n. 2012<\/a>), da Innocenzo III il 27 aprile 1198 (<a target=\"_blank\" href= \"http:\/\/vatlat3880.altervista.org\/documenti\/II.20.xml\">II.20<\/a>) (=<a target=\"_blank\" href= \"http:\/\/telma-chartes.irht.cnrs.fr\/aposcripta\/notice\/24884\"> APOSCRIPTA n. 2019<\/a>). ",
            "children": {
                "numero_note": "3"
            }
        },
        "59": {
            "type": "genre",
            "value": "Bulle"
        }
    }
}