{
    "id": 149442,
    "name": "aposcripta-9005",
    "type": "acte",
    "url": "http:\/\/telma-chartes.irht.cnrs.fr\/aposcripta\/notice\/149442",
    "project_slug": "aposcripta",
    "project_label": "APOSCRIPTA \u2013 Lettres des papes",
    "user": "lettrespontificalesadmin",
    "last_update": "2020-10-19 16:39:58",
    "licence": "Attribution - Pas d\u2019Utilisation Commerciale - Partage dans les M\u00eames Conditions 3.0 France (CC BY-NC-SA 3.0 FR) ",
    "licence_url": "https:\/\/creativecommons.org\/licenses\/by-nc-sa\/3.0\/fr\/",
    "elements": [
        {
            "type": "pape",
            "value": "Innocent IV (1243-1254)"
        },
        {
            "type": "destinataire",
            "value": ". . preposito, . . decano et capitulo Herbipolensibus"
        },
        {
            "type": "date_libre",
            "value": "IV kalendas septembris, anno XI"
        },
        {
            "type": "date",
            "value": " 1253\/08\/29",
            "children": {
                "date_deb_annee": "1253",
                "date_deb_mois": "08",
                "date_deb_jour": "29"
            },
            "range": {
                "date_apres": 12530829,
                "date_avant": 12530829
            }
        },
        {
            "type": "date_lieu",
            "value": "Asisii"
        },
        {
            "type": "sources_manuscrites",
            "value": "R. CIT\u00c9 DU VATICAN, Archivio Segreto Vaticano, <hi rend=\"italic\">Registra Vaticana<\/hi> ... Inn.\u00a0IV Reg. Vol.\u00a0III, 17; Lib.\u00a0XI, 150. Epistolam ex Regestis descripsit V. Cl. Meynke.",
            "children": {
                "type_source": "Registre de la chancellerie apostolique"
            }
        },
        {
            "type": "genre",
            "value": "Mandement (littere cum filo canapis)"
        },
        {
            "type": "analyse",
            "value": "Innocentius IV papa capitulo Herbipolensi concedit, ut si ecclesiam Herbipolensem vacare contigerit, ad electionem seu postulationem episcopi procedere valeat [Rodenberg]."
        },
        {
            "type": "transcription",
            "value": "<?xml version=\"1.0\" encoding=\"UTF-8\"?>\n. . preposito, . . decano et capitulo Herbipolensibus.Exigentibus vestre devotionis meritis votis vestris libenter annuimus et petitiones vestras, quantum cum Deo possumus, favorabiliter exaudimus. Vestris itaque supplicationibus benignum impertientes assensum, presentium vobis auctoritate concedimus, ut si ecclesiam vestram vacare contigerit, ad electionem seu postulationem episcopi procedere libere valeatis \u2014 non obstantibus aliquibus reservationibus vel inhibitionibus litterarum nostrarum generalium seu etiam specialium auctoritate factis vel medio tempore faciendis, etiam si in ipsis dicatur litteris, quod earum impetratoribus aliqua sedis apostolice indulgentia non obsistat, que de eis plenam et expressam non fecerit mentionem. Nos enim sententias, si que predictarum litterarum auctoritate late sunt vel medio tempore fieri contigerit, penitus relaxamus. Nulli etc. nostre concessionis etc.Dat. Asisii, IIII Kalendas Septembris, anno XI\u00b0.. . abbas Sancti Stephani Herbipolensis datus est eis super hoc conservator; \u2014 non obstante si aliquibus de partibus illis, quod excommunicari, suspendi vel interdici aut trahi ad iudicium extra certa loca non valeant, a sede apostolica sit indultum.\n"
        },
        {
            "type": "edition",
            "value": "Ici reprise de Karl Rodenberg, Epistolae s. XIII e regestis pontificum romanorum selectae, III, Berlin : Weidmann (MGH), 1894, n.\u00a0227, p.\u00a0195."
        },
        {
            "type": "edition_autre",
            "value": "?"
        },
        {
            "type": "regeste",
            "value": "?"
        },
        {
            "type": "bibliographie_generale",
            "value": "?"
        },
        {
            "type": "apparat_critique",
            "value": "?",
            "children": {
                "numero_note": "a"
            }
        },
        {
            "type": "apparat_critique",
            "value": "?",
            "children": {
                "numero_note": "b"
            }
        },
        {
            "type": "apparat_critique",
            "value": "?",
            "children": {
                "numero_note": "c"
            }
        },
        {
            "type": "apparat_critique",
            "value": "?",
            "children": {
                "numero_note": "d"
            }
        },
        {
            "type": "apparat_critique",
            "value": "?",
            "children": {
                "numero_note": "e"
            }
        },
        {
            "type": "apparat_critique",
            "value": "?",
            "children": {
                "numero_note": "f"
            }
        },
        {
            "type": "notes_historiques",
            "value": "?",
            "children": {
                "numero_note": "1"
            }
        },
        {
            "type": "notes_historiques",
            "value": "?",
            "children": {
                "numero_note": "2"
            }
        },
        {
            "type": "notes_historiques",
            "value": "?",
            "children": {
                "numero_note": "3"
            }
        }
    ]
}