{
    "id": 147800,
    "name": "aposcripta-7422",
    "type": "acte",
    "url": "http:\/\/telma-chartes.irht.cnrs.fr\/aposcripta\/notice\/147800",
    "project_slug": "aposcripta",
    "project_label": "APOSCRIPTA \u2013 Lettres des papes",
    "user": "l_valliere",
    "last_update": "2020-10-19 16:39:37",
    "licence": "Attribution - Pas d\u2019Utilisation Commerciale - Partage dans les M\u00eames Conditions 3.0 France (CC BY-NC-SA 3.0 FR) ",
    "licence_url": "https:\/\/creativecommons.org\/licenses\/by-nc-sa\/3.0\/fr\/",
    "elements": [
        {
            "type": "pape",
            "value": "Cl\u00e9ment IV (1265-1268)"
        },
        {
            "type": "destinataire",
            "value": "Le roi de Sicile Charles"
        },
        {
            "type": "genre",
            "value": "Lettre, g\u00e9n\u00e9ral (apr\u00e8s 1198, littere cum filo canapis)"
        },
        {
            "type": "analyse",
            "value": "Hortatur C[arolum] regem Sicilie, ut questionem gabelle Rhodani cum [Ludovico] rege Francie per viam amicabilem ad finem congruum perducat ; et ejusdem regis nuncios pecuniam debitam petentes benigne audiat [Jordan].\nClemens IV. an K\u00f6nig K[arl I.] von Sizilien : mahnt ihn, mit einer Gesandtschaft K\u00f6nig [Ludwigs IX.] von Frankreich \u00fcber seine Schulden bei diesem zu verhandeln [Thumser]."
        },
        {
            "type": "sources_manuscrites",
            "value": "R<sup>1<\/sup>. CIT\u00c9 DU VATICAN, Archivio segreto Vaticano, <i>Registra Vaticana<\/i> 30, fol. 43v (<i>XVI kal. aug.<\/i>).",
            "children": {
                "type_source": "Formulaire, collection de lettres m\u00e9di\u00e9vale"
            }
        },
        {
            "type": "sources_manuscrites",
            "value": "R<sup>2<\/sup>. CIT\u00c9 DU VATICAN, Archivio segreto Vaticano, <i>Registra Vaticana<\/i> 33, ep. 240, fol. 43 (<i>XVI kal. aug.<\/i>).",
            "children": {
                "type_source": "Formulaire, collection de lettres m\u00e9di\u00e9vale"
            }
        },
        {
            "type": "sources_manuscrites",
            "value": "R<sup>3<\/sup>. CIT\u00c9 DU VATICAN, Archivio segreto Vaticano, <i>Registra Vaticana<\/i> 34, fol. 63 (<i>XVI kal. aug.<\/i>).",
            "children": {
                "type_source": "Formulaire, collection de lettres m\u00e9di\u00e9vale"
            }
        },
        {
            "type": "sources_manuscrites",
            "value": "R<sup>4<\/sup>. CIT\u00c9 DU VATICAN, Archivio segreto Vaticano, <i>Registra Vaticana<\/i> 35, ep. 242, fol. 48v (sans date).",
            "children": {
                "type_source": "Formulaire, collection de lettres m\u00e9di\u00e9vale"
            }
        },
        {
            "type": "edition",
            "value": "Ici reprise de Mathias Thumser, <i>Die Briefe Papst Clemens\u2019 IV. (1265\u20131268)<\/i>, Vorl\u00e4ufige Edition, MGH, 2015, n. 244."
        },
        {
            "type": "edition_autre",
            "value": "Edmond Mart\u00e8ne, Ursin Durand, <i>Thesaurus novus anecdotorum<\/i>, Paris, 1717, II, n. 334, col. 371 (<i>XVII kal. aug.<\/i>) <a target=\"_blank\" href=\"https:\/\/archive.org\/stream\/ThesaurusNovusAnecdotorum2\/Thesaurus_novus_anecdotorum_2#page\/n221\/mode\/2up\"> [en ligne]<\/a>."
        },
        {
            "type": "regeste",
            "value": "Potthast, <i>Regesta pontificum Romanorum<\/i>, n. 19748 <a target=\"_blank\" href=\"https:\/\/archive.org\/stream\/RegestaPontificumRomanorum\/ph#page\/n1609\/mode\/2up\"> [en ligne]<\/a>."
        },
        {
            "type": "regeste",
            "value": "\u00c9douard Jordan, <i>Les registres de Cl\u00e9ment IV (1265-1268)<\/i>, Paris, 1893-1945, n. 1113, d\u2019apr\u00e8s R<sup>1<\/sup>, R<sup>2<\/sup>, R<sup>3<\/sup> et R<sup>4<\/sup>."
        },
        {
            "type": "transcription",
            "value": "<?xml version=\"1.0\" encoding=\"UTF-8\"?>\nCarissimo in Christo filio C[arolo] regi Sicilie illustri. Quanto carissimo in Christo filio nostro regi Francie illustri germano tuo te novimus cariorem teque multis ex causis eidem ad vicissitudinem caritatis astrictum, tanto tibi propensius credimus laborandum, ut inter te et ipsum omnem materiam scandali, omnem causam dissensionis abscidas, in hiis precipue, que iuri sunt consona, quamquam ad alia, que gratiam saperent, facilem reddere te deberes. Novit sane tua serenitas, quotiens te litteris, quotiens viva voce, quotiens ministerio bonorum et fidelium nuntiorum excitandum duxerimus, ut questionem gabelle Rodani multis suspensam tractatibus, ex qua multa processerunt inepta multumque turbatus est animus fratris tui, per viam amicabilem ad finem perduci congruum procurares, quod quia factum non extitit, idem rex frater tuus satis egre ferre videtur, prout et littere nobis indicant aliquorum et verba nichilominus fidedigna. Nunc autem suos ad te destinat nuntios, qui super hoc te conveniant reverenter et, que fratri debes, insuper a te petant, scilicet VIII milia marcharum argenti de dote sibi cum carissima in Christo filia nostra uxore sua promissa et alia VII milia, que tibi credidit, ad bone memorie soceri tui debita persolvenda. Quocirca tuam duximus excellentiam monendam pariter et rogandam, quatenus eorundem nuntiorum verba et patienter audiens et benigne suscipiens non turberis, sed fraterne gratie non ingratus et eorum, que tibi liberaliter ultra mare donavit, memoriam semper habeas et debita repetenti satisfacias nunc, si potes, aut saltem sic respondeas, ut placari tuo responso debeat potius quam turbari. Datum Viterbii, XVI\/XV kalendas augusti, anno II.\n"
        },
        {
            "type": "date",
            "value": "apres 1266\/08\/17 - avant 1266\/08\/18",
            "children": {
                "date_deb_annee": "1266",
                "date_deb_mois": "08",
                "date_deb_jour": "17",
                "date_deb_type": "apres",
                "date_fin_annee": "1266",
                "date_fin_mois": "08",
                "date_fin_jour": "18",
                "date_fin_type": "avant"
            },
            "range": {
                "date_apres": 12660817,
                "date_avant": 12660818
            }
        },
        {
            "type": "date_libre",
            "value": "n.c."
        },
        {
            "type": "date_lieu",
            "value": "Viterbe"
        },
        {
            "type": "bibliographie_generale",
            "value": "Mathias Thumser, \u00ab Zur \u00dcberlieferungsgeschichte der Briefe Clemens'IV. (1265-1268) \u00bb, <i>Deutsches Archiv f\u00fcr Erforschung des Mittelalters<\/i>, 51\/1, 1995, p. 115-168."
        }
    ]
}