{
    "id": 26472,
    "name": "aposcripta-3551",
    "type": "acte",
    "url": "http:\/\/telma-chartes.irht.cnrs.fr\/aposcripta\/notice\/26472",
    "project_slug": "aposcripta",
    "project_label": "APOSCRIPTA \u2013 Lettres des papes",
    "user": "lettrespontificalesadmin",
    "last_update": "2020-10-19 16:28:01",
    "licence": "Attribution - Pas d\u2019Utilisation Commerciale - Partage dans les M\u00eames Conditions 3.0 France (CC BY-NC-SA 3.0 FR) ",
    "licence_url": "https:\/\/creativecommons.org\/licenses\/by-nc-sa\/3.0\/fr\/",
    "elements": [
        {
            "type": "pape",
            "value": "Lucius III (1181-1185)"
        },
        {
            "type": "date_lieu",
            "value": "n.c."
        },
        {
            "type": "date_libre",
            "value": "n. c."
        },
        {
            "type": "date",
            "value": "apr\u00e8s 1181 - avant 1185",
            "children": {
                "date_deb_annee": "1181",
                "date_deb_type": "apr\u00e8s",
                "date_fin_annee": "1185",
                "date_fin_type": "avant"
            },
            "range": {
                "date_apres": 11810000,
                "date_avant": 11859999
            }
        },
        {
            "type": "analyse",
            "value": "Lucius III theilt dem Bischofe von Noyon mit, dass er seinen Domkanonikern verbiete, unter dem Vorwande einer Beschwerde gegen den Bischof, den Gottesdienst einzustellen oder die Kirche zu interdiciren."
        },
        {
            "type": "transcription",
            "value": "<?xml version=\"1.0\" encoding=\"UTF-8\"?>\nLucius episcopus servus servorum dei venerabili fratri Noviomensi episcopo salutem et apostolicam benedictionem. Audivimus et audientes non potuimus non mirari, quod, quotiens ecclesie tue canonici adversum te movent aliquid questionis (?) in contumeliam dei et contemptum tuum a divinis cessant officiis et temeritate propria commissam tibi ecclesiam interdicunt. Nos igitur attendentes, quantum id indignum sit et obvium rationi, predictorum canonicorum usurpationi volentes occurrere, presentibus litteris artius interdicimus, ne iidem canonici questionis (?) obtentu, quam aliquando contra te se proponunt habere, a celebratione divinorum abstineant vel prescriptam ecclesiam interdicant. Cum super querelis suis coram metropolitano tuo aut etiam in presentia nostra vel iudicis delegati suam possint iusticiam obtinere. Nulli ergo omnino hominum etc.\n"
        },
        {
            "type": "edition",
            "value": "Julius von Pflugk-Harttung, <i>Acta pontificum Romanorum inedita<\/i>, T\u00fcbingen, 1880, I, n. 363, p. 319"
        },
        {
            "type": "sources_manuscrites",
            "value": "Abschrift vom Ende des 13 oder vom 14 Jahrh. des Cart. de l\u2019\u00e9v\u00each\u00e9 de Laon Nr. 4 und 104, im Archive des D\u00e9p. Aisne zu Laon.",
            "children": {
                "type_source": "Cartulaire"
            }
        },
        {
            "type": "remarques",
            "value": ""
        },
        {
            "type": "genre",
            "value": "Titre, g\u00e9n\u00e9ral (littere gratiose, cum filo serico)"
        },
        {
            "type": "destinataire",
            "value": "L'\u00e9v\u00eaque de Noyon"
        }
    ]
}