{
    "id": 149493,
    "name": "aposcripta-9056",
    "type": "acte",
    "url": "http:\/\/telma-chartes.irht.cnrs.fr\/aposcripta\/notice\/149493",
    "project_slug": "aposcripta",
    "project_label": "APOSCRIPTA \u2013 Lettres des papes",
    "user": "lettrespontificalesadmin",
    "last_update": "2020-10-19 16:39:59",
    "licence": "Attribution - Pas d\u2019Utilisation Commerciale - Partage dans les M\u00eames Conditions 3.0 France (CC BY-NC-SA 3.0 FR) ",
    "licence_url": "https:\/\/creativecommons.org\/licenses\/by-nc-sa\/3.0\/fr\/",
    "elements": [
        {
            "type": "pape",
            "value": "Innocent IV (1243-1254)"
        },
        {
            "type": "destinataire",
            "value": "B. Neapolitano electo, apostolice sedis legato"
        },
        {
            "type": "date_libre",
            "value": "VI idus aprilis, anno XI"
        },
        {
            "type": "date",
            "value": " 1254\/04\/08",
            "children": {
                "date_deb_annee": "1254",
                "date_deb_mois": "04",
                "date_deb_jour": "08"
            },
            "range": {
                "date_apres": 12540408,
                "date_avant": 12540408
            }
        },
        {
            "type": "date_lieu",
            "value": "Lateran."
        },
        {
            "type": "sources_manuscrites",
            "value": "R. CIT\u00c9 DU VATICAN, Archivio Segreto Vaticano, <hi rend=\"italic\">Registra Vaticana<\/hi> ... Inn.\u00a0IV Reg. Vol.\u00a0III, 80; Lib.\u00a0XI, 584. Pertzii exemplar contulimus cum illo, quod Gudenus, Cod. dipl. Mog. t.\u00a0I, p.\u00a0638 edidit quodque fortasse ex authentico sumptum est.",
            "children": {
                "type_source": "Registre de la chancellerie apostolique"
            }
        },
        {
            "type": "genre",
            "value": "Mandement (littere cum filo canapis)"
        },
        {
            "type": "analyse",
            "value": "Innocentius IV papa B[ernardo] electo Neapolitano legato mandat, ut Otakarum regem Bohemiae, si [Gerhardus] archiepiscopus Maguntinus, ut ab excommunicatione solvatur, satisfacere recusaverit, per aliquem ex suffraganeis ecclesiae Maguntinae coronari faciat [Rodenberg]."
        },
        {
            "type": "transcription",
            "value": "<?xml version=\"1.0\" encoding=\"UTF-8\"?>\nB. Neapolitano electo, apostolice sedis legato.Cum carissimus in Christo filius noster Otacharus rex Boemie illustris, sicut eo insinuante accepimus, regni diademate cupiat coronari, quia . . Maguntinus archiepiscopus, de cuius manibus deberet idem rex coronam suscipere, per dilectum filium nostrum H. tituli Sancte Sabine presbyterum cardinalem, tunc legatum apostolice sedis, excommunicationis vinculo dicitur innodatus, volumus et presentium tibi auctoritate mandamus, quatinus eidem archiepiscopo, ut libere ad eiusdem regis coronationem possit procedere, absolutionis beneficium, dummodo satisfaciat super hiis, pro quibus excommunicatus habetur, iuxta ecclesie formam exhiberi procures. Quod si recusaverit satisfacere, tu dilectis filiis capitulo Maguntino auctoritate nostra precipias, ut ipsi loco archiepiscopi et ecclesie Maguntine nomine per aliquem de suffraganeis sue ecclesie regem eundem faciant coronari, et si prefati capitulum id noluerint efficere, tu hoc uni de suffraganeis ipsius vel alicui alii pontifici, quem ad id idoneum fore cognoveris, eadem auctoritate committas, qui eiusdem archiepiscopi vice coronationis ipsius officium seu ministerium exequatur.Dat. Lateran., VI Idus Aprilis, anno XI\u00b0.\n"
        },
        {
            "type": "edition",
            "value": "Ici reprise de Karl Rodenberg, Epistolae s. XIII e regestis pontificum romanorum selectae, III, Berlin : Weidmann (MGH), 1894, n.\u00a0276, p.\u00a0240."
        },
        {
            "type": "edition_autre",
            "value": "?"
        },
        {
            "type": "regeste",
            "value": "?"
        },
        {
            "type": "bibliographie_generale",
            "value": "?"
        },
        {
            "type": "apparat_critique",
            "value": "?",
            "children": {
                "numero_note": "a"
            }
        },
        {
            "type": "apparat_critique",
            "value": "?",
            "children": {
                "numero_note": "b"
            }
        },
        {
            "type": "apparat_critique",
            "value": "?",
            "children": {
                "numero_note": "c"
            }
        },
        {
            "type": "apparat_critique",
            "value": "?",
            "children": {
                "numero_note": "d"
            }
        },
        {
            "type": "apparat_critique",
            "value": "?",
            "children": {
                "numero_note": "e"
            }
        },
        {
            "type": "apparat_critique",
            "value": "?",
            "children": {
                "numero_note": "f"
            }
        },
        {
            "type": "notes_historiques",
            "value": "?",
            "children": {
                "numero_note": "1"
            }
        },
        {
            "type": "notes_historiques",
            "value": "?",
            "children": {
                "numero_note": "2"
            }
        },
        {
            "type": "notes_historiques",
            "value": "?",
            "children": {
                "numero_note": "3"
            }
        }
    ]
}