{
    "id": 143476,
    "name": "aposcripta-5120",
    "type": "acte",
    "url": "http:\/\/telma-chartes.irht.cnrs.fr\/aposcripta\/notice\/143476",
    "project_slug": "aposcripta",
    "project_label": "APOSCRIPTA \u2013 Lettres des papes",
    "user": "b_oury",
    "last_update": "2020-10-19 16:38:49",
    "licence": "Attribution - Pas d\u2019Utilisation Commerciale - Partage dans les M\u00eames Conditions 3.0 France (CC BY-NC-SA 3.0 FR) ",
    "licence_url": "https:\/\/creativecommons.org\/licenses\/by-nc-sa\/3.0\/fr\/",
    "elements": [
        {
            "type": "pape",
            "value": "Innocent IV (1243-1254)"
        },
        {
            "type": "destinataire",
            "value": "Les abb\u00e9s, les prieurs, les doyens, les archidiacres, et tous les pr\u00e9lats de l'\u00e9glise de Bayeux ainsi que les moines et les clercs de la ville et du dioc\u00e8se de Bayeux"
        },
        {
            "type": "date_libre",
            "value": "septimo decimo kalendas junii, anno primo"
        },
        {
            "type": "date",
            "value": "1244\/05\/16",
            "children": {
                "date_deb_annee": "1244",
                "date_deb_mois": "05",
                "date_deb_jour": "16"
            },
            "range": {
                "date_apres": 12440516,
                "date_avant": 12440516
            }
        },
        {
            "type": "date_lieu",
            "value": "Latran"
        },
        {
            "type": "genre",
            "value": "Titre, g\u00e9n\u00e9ral (littere gratiose, cum filo serico)"
        },
        {
            "type": "analyse",
            "value": "Le pape Innocent IV accorde une indulgence de quarante jours \u00e0 tous ceux qui aideront \u00e0 l\u2019\u0153uvre de r\u00e9\u00e9dification de l\u2019\u00e9glise cath\u00e9drale<a class=\"note\" href=\"#note-1\">1<\/a>."
        },
        {
            "type": "sources_manuscrites",
            "value": "B. FRANCE, Caen, Archives d\u00e9partementales du Calvados, Biblioth\u00e8que du chapitre de Bayeux 0193,\u00a0<i>Cartulaire de la cath\u00e9drale Notre-Dame de Bayeux, Livre noir, Antiquus cartularius ecclesiae Baiocensis<\/i>, fol. 78. Copie du XIVe\u00a0si\u00e8cle.",
            "children": {
                "type_source": "Cartulaire"
            }
        },
        {
            "type": "edition",
            "value": "Ici reprise de Bourrienne Valentin (Abb\u00e9), <i>Antiquus cartularius ecclesi\u00e6 Baiocensis (Livre noir)<\/i>, Rouen-Paris, Lestringant-Picard (Soci\u00e9t\u00e9 de l\u2019histoire de Normandie), 1902-1903, 2 vol., n\u00b0 CCCXXXIII, t. 2, p. 54-55 <a target=\"_blank\" href=\" https:\/\/gallica.bnf.fr\/ark:\/12148\/bpt6k5740420x\/f62\"> [en ligne]<\/a>, num\u00e9ris\u00e9e par Pierre Bauduin (dir.), <i>SCRIPTA. Base des actes normands m\u00e9di\u00e9vaux<\/i>, Caen, CRAHAM-MRSH, 2010-2016, <a target=\"_blank\" href=\"https:\/\/www.unicaen.fr\/scripta\/acte\/1123\"> [en ligne]<\/a>, Acte 1123."
        },
        {
            "type": "transcription",
            "value": "<?xml version=\"1.0\" encoding=\"UTF-8\"?>\nInnocentius episcopus, servus servorum Dei, dilectis filiis abbatibus, prioribus, decanis, archidiaconis et aliis ecclesiarum pr\u00e6latis, conventibus, ac aliis clericis universis per Baiocensem civitatem et dyocesim constitutis, salutem et apostolicam benedictionem. Si filii, quos matribus natura humana produxit, seipsis obsequiales exhibent ut ab eis mereantur jugiter benedici, tanto forcius benedictionis filii spirituali matri, a qua spiritualia dona recipiunt, tenentur obsequi ejusque onera congruis subsidiis relevare, quanto spiritualia sunt corporalibus seu naturalibus digniora. Cum igitur Baiocensis ecclesia mater vestra, prout ex insinuatione venerabilis fratris nostri episcopi et dilectorum filiorum decani et capituli Baiocensis accepimus, jam dudum re\u00e6dificari funditus c\u0153perit opere non modicum sumptuoso, nec ad confirmationem tanti operis ipsorum sufficiant facultates, universitatem vestram rogamus, monemus et hortamur attente in remissionem vobis peccaminum injungentes quatinus, considerato prudenter quod vestra quodam modo interest ut perficiatur eadem ecclesia, tale ad id curetis de vestris facultatibus auxilium exhibere quod ipsa, vestro mediante subsidio feliciter confirmata, vobis provide tanquam benigna mater gratis atque devotis filiis respondere in vestris oportunitatibus grata vicissitudine teneatur, vosque, per h\u00e6c et alia bona qu\u00e6 Domino inspirante feceritis, ad \u00e6tern\u00e6 possitis felicitatis gaudia pervenire. Nos enim, de omnipotentis Dei misericordia et beatorum Petri et Pauli apostolorum ejus ac ea quam ipse nobis concessit auctoritate confisi, omnibus vere p\u0153nitentibus et confessis qui pr\u00e6fato operi manum porrexerint adjutricem quadraginta dies de injuncta sibi p\u0153nitencia misericorditer relaxamus. Datum Laterani, septimo decimo kalendas junii, pontificatus nostri anno primo.\n"
        },
        {
            "type": "notes_historiques",
            "value": "Voir aussi <a target=\"_blank\" href=\" http:\/\/telma-chartes.irht.cnrs.fr\/aposcripta\/notice-acte\/143477\"> APOSCRIPTA n. 5121<\/a>",
            "children": {
                "numero_note": "1"
            }
        },
        {
            "type": "remarques",
            "value": "Absente des registres."
        }
    ]
}