{
    "id": 149368,
    "name": "aposcripta-8931",
    "type": "acte",
    "url": "http:\/\/telma-chartes.irht.cnrs.fr\/aposcripta\/notice\/149368",
    "project_slug": "aposcripta",
    "project_label": "APOSCRIPTA \u2013 Lettres des papes",
    "user": "lettrespontificalesadmin",
    "last_update": "2020-10-19 16:39:57",
    "licence": "Attribution - Pas d\u2019Utilisation Commerciale - Partage dans les M\u00eames Conditions 3.0 France (CC BY-NC-SA 3.0 FR) ",
    "licence_url": "https:\/\/creativecommons.org\/licenses\/by-nc-sa\/3.0\/fr\/",
    "elements": [
        {
            "type": "pape",
            "value": "Innocent IV (1243-1254)"
        },
        {
            "type": "destinataire",
            "value": "Preposito et capitulo ecclesie Castellane ordinis sancti Augustini"
        },
        {
            "type": "date_libre",
            "value": "VII idus decembris, anno X"
        },
        {
            "type": "date",
            "value": " 1252\/12\/07",
            "children": {
                "date_deb_annee": "1252",
                "date_deb_mois": "12",
                "date_deb_jour": "07"
            },
            "range": {
                "date_apres": 12521207,
                "date_avant": 12521207
            }
        },
        {
            "type": "date_lieu",
            "value": "Perusii"
        },
        {
            "type": "sources_manuscrites",
            "value": "R. CIT\u00c9 DU VATICAN, Archivio Segreto Vaticano, <hi rend=\"italic\">Registra Vaticana<\/hi> ... Inn.\u00a0IV Reg. Vol.\u00a0II, 225; Lib.\u00a0X, 296. Damus Pertzii exemplar.",
            "children": {
                "type_source": "Registre de la chancellerie apostolique"
            }
        },
        {
            "type": "genre",
            "value": "Mandement (littere cum filo canapis)"
        },
        {
            "type": "analyse",
            "value": "Innocentius IV papa ecclesiae Castellanae confirmat concessionem Ottonis IV imperatoris, qua contra ipsam nulla praescriptio temporis nisi centenaria opponatur [Rodenberg]."
        },
        {
            "type": "transcription",
            "value": "<?xml version=\"1.0\" encoding=\"UTF-8\"?>\nPreposito et capitulo ecclesie Castellane ordinis sancti Augustini.Oblata nobis ex parte vestra petitio continebat, quod clare memorie Otto quartus Romanorum imperator primo anno imperii sui inter alias immunitates et libertates, quibus vos et ecclesiam vestram imperiali auctoritate munivit, specialiter eidem ecclesie vestre concessit, ut contra ipsam nulla prescriptio temporis nisi centenaria opponatur, prout in privilegio ipsius imperatoris inde confecto suo sigillo munito vidimus plenius contineri. Nos itaque, devotionis vestre precibus inclinati, concessionem huiusmodi de prescriptione centenaria, contra laicos tantummodo valituram, ratam habentes et gratam, ipsam auctoritate apostolica confirmamus etc. usque: communimus. Nulli ergo \u2014 nostre confirmationis etc.Dat. Perusii, VII Idus Decembris, anno X\u00b0.. . archipresbyter de Cortonio Aretine diocesis datus est eis super hoc conservator.\n"
        },
        {
            "type": "edition",
            "value": "Ici reprise de Karl Rodenberg, Epistolae s. XIII e regestis pontificum romanorum selectae, III, Berlin : Weidmann (MGH), 1894, n.\u00a0173, p.\u00a0146."
        },
        {
            "type": "edition_autre",
            "value": "?"
        },
        {
            "type": "regeste",
            "value": "?"
        },
        {
            "type": "bibliographie_generale",
            "value": "?"
        },
        {
            "type": "apparat_critique",
            "value": "?",
            "children": {
                "numero_note": "a"
            }
        },
        {
            "type": "apparat_critique",
            "value": "?",
            "children": {
                "numero_note": "b"
            }
        },
        {
            "type": "apparat_critique",
            "value": "?",
            "children": {
                "numero_note": "c"
            }
        },
        {
            "type": "apparat_critique",
            "value": "?",
            "children": {
                "numero_note": "d"
            }
        },
        {
            "type": "apparat_critique",
            "value": "?",
            "children": {
                "numero_note": "e"
            }
        },
        {
            "type": "apparat_critique",
            "value": "?",
            "children": {
                "numero_note": "f"
            }
        },
        {
            "type": "notes_historiques",
            "value": "?",
            "children": {
                "numero_note": "1"
            }
        },
        {
            "type": "notes_historiques",
            "value": "?",
            "children": {
                "numero_note": "2"
            }
        },
        {
            "type": "notes_historiques",
            "value": "?",
            "children": {
                "numero_note": "3"
            }
        }
    ]
}