{
    "id": 27702,
    "name": "aposcripta-4285",
    "type": "acte",
    "url": "http:\/\/telma-chartes.irht.cnrs.fr\/aposcripta\/notice\/27702",
    "project_slug": "aposcripta",
    "project_label": "APOSCRIPTA \u2013 Lettres des papes",
    "user": "l_valliere",
    "last_update": "2020-10-19 16:28:17",
    "licence": "Attribution - Pas d\u2019Utilisation Commerciale - Partage dans les M\u00eames Conditions 3.0 France (CC BY-NC-SA 3.0 FR) ",
    "licence_url": "https:\/\/creativecommons.org\/licenses\/by-nc-sa\/3.0\/fr\/",
    "elements": [
        {
            "type": "pape",
            "value": "Calixte II (1119-1124)"
        },
        {
            "type": "destinataire",
            "value": "Les \u00e9v\u00eaques d'Uz\u00e8s, Raymond, de Toulouse, Am\u00e9lius, et de N\u00eemes, Jean"
        },
        {
            "type": "date_libre",
            "value": "X kal. julii"
        },
        {
            "type": "date",
            "value": " 1121\/06\/22",
            "children": {
                "date_deb_jour": "22",
                "date_deb_mois": "06",
                "date_deb_annee": "1121"
            },
            "range": {
                "date_apres": 11210622,
                "date_avant": 11210622
            }
        },
        {
            "type": "date_lieu",
            "value": "Tivoli"
        },
        {
            "type": "genre",
            "value": "Lettre, g\u00e9n\u00e9ral (avant 1198)"
        },
        {
            "type": "analyse",
            "value": "Bulle de Calixte II dat\u00e9e de Tivoli, aux \u00e9v\u00eaques d'Uz\u00e8s, de Toulouse et de N\u00eemes, leur ordonnant de d\u00e9clarer excommuni\u00e9 le comte Alphonse, si, dans les quarante jours, il n'a pas cess\u00e9 ses violences contre l'abbaye de Saint-Gilles."
        },
        {
            "type": "sources_manuscrites",
            "value": "F. FRANCE, Paris, Biblioth\u00e8que nationale, Latin 11018, fol. 48 <a target=\"_blank\" href=\" https:\/\/gallica.bnf.fr\/ark:\/12148\/btv1b10542207v\/f103.image.r=latin%2011018\"> [en ligne]<\/a>. ",
            "children": {
                "type_source": "Formulaire, collection de lettres m\u00e9di\u00e9vale"
            }
        },
        {
            "type": "edition",
            "value": "Ici reprise de l'abb\u00e9 Goiffon, <i>Bullaire de l\u2019abbaye de Saint-Gilles<\/i>, N\u00eemes\u00a0: P. Jouve, 1882, XLIV, p. 63-64 <a target=\"_blank\" href=\" https:\/\/gallica.bnf.fr\/ark:\/12148\/bpt6k111623c\/f66.image\"> [en ligne]<\/a>."
        },
        {
            "type": "edition_autre",
            "value": "Martin Bouquet, <i>Recueil des historiens des Gaules et de la France<\/i>, Paris, 1869-1904, t. XV, XXIII, p. 239 -240<a target=\"_blank\" href=\"https:\/\/gallica.bnf.fr\/ark:\/12148\/bpt6k501337\/f276.image\"> [en ligne]<\/a>."
        },
        {
            "type": "edition_autre",
            "value": "L\u00e9on M\u00e9nard, <i>Histoire civile, eccl\u00e9siastique et litt\u00e9raire de la ville de Nismes<\/i>, Paris, 1744-1758, t. I, preuves, c. XVI, p. 30 <a target=\"_blank\" href=\" https:\/\/gallica.bnf.fr\/ark:\/12148\/bpt6k58468064\/f652.image\"> [en ligne]<\/a>."
        },
        {
            "type": "regeste",
            "value": "Ulysse Robert, <i>Etude sur les actes du pape Calixte II<\/i>, Paris, 1874, n. 176, p. 93 <a target=\"_blank\" href=\"https:\/\/archive.org\/stream\/EtudeSurLesActesDuPapeCalixteII\/Etude_sur_les_actes_du_pape_Calixte_II#page\/n97\/mode\/2up\"> [en ligne]<\/a>."
        },
        {
            "type": "regeste",
            "value": "Philippe Jaff\u00e9, <i>Regesta pontificum Romanorum<\/i>, 2 vol., Leipzig, 1885-1888, I, n. 6914 <a target=\"_blank\" href=\" https:\/\/gallica.bnf.fr\/ark:\/12148\/bpt6k55983718\/f836.item\"> [en ligne]<\/a>."
        },
        {
            "type": "transcription",
            "value": "<?xml version=\"1.0\" encoding=\"UTF-8\"?>\nCalixtus episcopus, servus servorum Dei, venerabilibus fratribus Raimundo Uceticensi, Amelio Tolosano et Johanni Nemausensi, episcopis, salutem et apostolicam benedictionem. Quot mala, quot perturbationes et injurias, Ildefonsus comes monasterio S. Egydii fratribusque intulerit, tanto ipsi melius nostis quanto propius habitatis ; unde nostris eum studuimus litteris commonere quatenus ablata restituat, et monasterium cum burgo et aliis pertinentiis suis abbati et fratribus liberum et quietum dimittat, et castrum quod ad ejusdem ville destruxionem construxit destruat. Si hoc infra quadraginta dies post earumdem litterarum acceptionem adimplere curaverit, Deo gratias referamus. Alioquin ex tunc in personam et consiliarios ejus excommunicationis sententiam, Domino cooperante, proferimus ; et in terris eorum divina omnia officia et sepulturam, preter infantium baptisma et morientium penitentias, interdicimus ; loca etiam ad quecumque ipsi pervenerint, quamdiu in eis fuerint, a divinis omnino precipimus vacare officiis. Mandamus igitur fraternitati vestre ut hanc datam a nobis sententiam et annuncietis, et donec comes satisfecerit, per totas vestras observari parochias faciatis. Datum in territorio Tiburtino, X. kal. julii.\n"
        },
        {
            "type": "edition_autre",
            "value": "Ulysse Robert, <i>Bullaire du pape Calixte II, 1119-1124. Essai de restitution<\/i>, 2 t., Paris, 1891, I. p. 357 <a target=\"_blank\" href=\" https:\/\/gallica.bnf.fr\/ark:\/12148\/bpt6k855876c\/f483.image\"> [en ligne]<\/a>."
        }
    ]
}