{
    "id": 24653,
    "name": "aposcripta-1804",
    "type": "acte",
    "url": "http:\/\/telma-chartes.irht.cnrs.fr\/aposcripta\/notice\/24653",
    "project_slug": "aposcripta",
    "project_label": "APOSCRIPTA \u2013 Lettres des papes",
    "user": "lettrespontificalesadmin",
    "last_update": "2020-10-19 16:27:32",
    "licence": "Attribution - Pas d\u2019Utilisation Commerciale - Partage dans les M\u00eames Conditions 3.0 France (CC BY-NC-SA 3.0 FR) ",
    "licence_url": "https:\/\/creativecommons.org\/licenses\/by-nc-sa\/3.0\/fr\/",
    "elements": [
        {
            "type": "pape",
            "value": "Nicolas IV (1288-1292)"
        },
        {
            "type": "date_lieu",
            "value": "n.c."
        },
        {
            "type": "date_libre",
            "value": "5\u00a0mars 1291"
        },
        {
            "type": "date",
            "value": " 1291\/03\/05",
            "children": {
                "date_deb_annee": "1291",
                "date_deb_mois": "03",
                "date_deb_jour": "05"
            },
            "range": {
                "date_apres": 12910305,
                "date_avant": 12910305
            }
        },
        {
            "type": "analyse",
            "value": "Nicolas\u00a0IV mande aux prieurs de Sainte-Marie de Plateria (dioc\u00e8se de Lyon) et de Saint-Jacques de Melgueil de faire payer au monast\u00e8re de Saint-Ruf les d\u00eemes des prieur\u00e9s qui en d\u00e9pendent, pour \u00eatre employ\u00e9es \u00e0 la d\u00e9fense de ce monast\u00e8re contre les envahissements du Rh\u00f4ne."
        },
        {
            "type": "transcription",
            "value": "<?xml version=\"1.0\" encoding=\"UTF-8\"?>\nDilectis filiis Beate Marie de Plateria Lugdunensis, ac Sancti Jacobi de Melgorio, Magalonensis diocesium, prioribus. Officii nostri debitum.Datum ut supra (id est apud Urbem veterem, iii nonas martii, anno quarto).\n"
        },
        {
            "type": "edition",
            "value": "Julien Rouquette, Augustin Villemagne, <i>Bullaire de l'\u00c9glise de Maguelone<\/i>, Paris, Montpellier : Picard, Valat, 1911-1914, II, n. 642-545\u00a0c, p. 550-550"
        },
        {
            "type": "remarques",
            "value": ""
        },
        {
            "type": "bibliographie_generale",
            "value": "<span class=\"small-caps\">E. Langlois<\/span>, <i>Registres de Nicolas\u00a0IV<\/i>, p.\u00a0669, 1<sup>re<\/sup>\u00a0col.",
            "children": {
                "numero_note": "0"
            }
        },
        {
            "type": "genre",
            "value": "Bulle"
        }
    ]
}