{
    "id": 147061,
    "name": "aposcripta-6686",
    "type": "acte",
    "url": "http:\/\/telma-chartes.irht.cnrs.fr\/aposcripta\/notice\/147061",
    "project_slug": "aposcripta",
    "project_label": "APOSCRIPTA \u2013 Lettres des papes",
    "user": "l_valliere",
    "last_update": "2020-10-19 16:39:26",
    "licence": "Attribution - Pas d\u2019Utilisation Commerciale - Partage dans les M\u00eames Conditions 3.0 France (CC BY-NC-SA 3.0 FR) ",
    "licence_url": "https:\/\/creativecommons.org\/licenses\/by-nc-sa\/3.0\/fr\/",
    "elements": [
        {
            "type": "pape",
            "value": "Cl\u00e9ment IV (1265-1268)"
        },
        {
            "type": "destinataire",
            "value": "Le ma\u00eetre et les fr\u00e8res de l'ordre des Pr\u00eacheurs"
        },
        {
            "type": "date_libre",
            "value": "XVII kalendas julii, anno primo"
        },
        {
            "type": "date",
            "value": "1265\/06\/15",
            "children": {
                "date_deb_annee": "1265",
                "date_deb_mois": "06",
                "date_deb_jour": "15"
            },
            "range": {
                "date_apres": 12650615,
                "date_avant": 12650615
            }
        },
        {
            "type": "date_lieu",
            "value": "P\u00e9rouse"
        },
        {
            "type": "genre",
            "value": "Titre, g\u00e9n\u00e9ral (littere gratiose, cum filo serico)"
        },
        {
            "type": "analyse",
            "value": "Magistro et fratribus ord. Praedic. indulget, ne ab aliquo legato, nisi de latere apostolicae Sedis misso, vel delegato aut subdelegato excommunicari, suspendi vel interdici possint [Potthast]."
        },
        {
            "type": "edition",
            "value": "Thom\u00e1s Ripoll, <i>Bullarium ordinis FF. Praedicatorum<\/i>, Rome, 1729-1740, 8 vol., t. I, n. 13, p. 454."
        },
        {
            "type": "regeste",
            "value": "Potthast, <i>Regesta pontificum Romanorum<\/i>, n. 19209 <a target=\"_blank\" href=\" http:\/\/opacplus.bsb-muenchen.de\/title\/BV004241514\/ft\/bsb11316018?page=622\"> [en ligne]<\/a>."
        },
        {
            "type": "transcription",
            "value": "<?xml version=\"1.0\" encoding=\"UTF-8\"?>\nExigentibus vestre devotionis...\n"
        },
        {
            "type": "regeste",
            "value": "\u00c9douard Jordan, <i>Les registres de Cl\u00e9ment IV (1265-1268)<\/i>, Paris, 1893-1945, n. 1705, d'apr\u00e8s E (avec l'adresse inexacte <i>ministro generali et fratribus ordinis Minorum<\/i>)."
        },
        {
            "type": "regeste",
            "value": "Bernard Barbiche, <i>Les actes pontificaux originaux des Archives Nationales de Paris<\/i>, Cit\u00e9 du Vatican, 1975-1982, II, n. 1328, p. 110, d'apr\u00e8s E."
        },
        {
            "type": "sources_manuscrites",
            "value": "E. FRANCE, Paris, Archives nationales, L 258, n. 43 (olim n. 49). Original, parchemin mutil\u00e9, bulle perdue, restes de lacs de soie rouge et jaune.",
            "children": {
                "type_source": "Exp\u00e9dition"
            }
        },
        {
            "type": "remarques",
            "value": "Voir APOSCRIPTA n. 6687 [fusionner les deux notices ?]."
        },
        {
            "type": "regeste",
            "value": "Tilmann Schmidt, <i>Die Originale der Papsturkunden in Baden-W\u00fcrttemberg,  1198-1417<\/i>, Citt\u00e0 del Vaticano : Biblioteca Apostolica Vaticana (Index actorum romanorum pontificum ab Innocentio 3 ad Martinum 5 electum, 6), 1993, 2 vol., II, n. 571, p. 261. "
        },
        {
            "type": "sources_manuscrites",
            "value": "E<sup>2<\/sup>. PORTUGAL, Lisbonne, Arquivo Nacional da Torre do Tombo, Colec\u00e7\u00e3o Esp., cx 3, n. 7. ",
            "children": {
                "type_source": "Exp\u00e9dition"
            }
        },
        {
            "type": "regeste",
            "value": "Gerhard Sailler, <i>Papsturkunden in Portugal von 1198-1304. Ein Beitrag zum Censimento<\/i>, dissertation, Universtit\u00e4t Wien, 2008, n. 341, d'apr\u00e8s E<sup>2<\/sup>."
        }
    ]
}