{
    "id": 144475,
    "name": "aposcripta-5677",
    "type": "acte",
    "url": "http:\/\/telma-chartes.irht.cnrs.fr\/aposcripta\/notice\/144475",
    "project_slug": "aposcripta",
    "project_label": "APOSCRIPTA \u2013 Lettres des papes",
    "user": "l_valliere",
    "last_update": "2020-10-19 16:39:00",
    "licence": "Attribution - Pas d\u2019Utilisation Commerciale - Partage dans les M\u00eames Conditions 3.0 France (CC BY-NC-SA 3.0 FR) ",
    "licence_url": "https:\/\/creativecommons.org\/licenses\/by-nc-sa\/3.0\/fr\/",
    "elements": [
        {
            "type": "pape",
            "value": "Honorius III (1216-1227)"
        },
        {
            "type": "destinataire",
            "value": "L'\u00e9v\u00eaque et le chapitre de Trente"
        },
        {
            "type": "date_libre",
            "value": "II kalendas iunii, anno secundo"
        },
        {
            "type": "date",
            "value": "1218\/05\/31",
            "children": {
                "date_deb_annee": "1218",
                "date_deb_mois": "05",
                "date_deb_jour": "31"
            },
            "range": {
                "date_apres": 12180531,
                "date_avant": 12180531
            }
        },
        {
            "type": "date_lieu",
            "value": "Rome, Saint-Pierre"
        },
        {
            "type": "genre",
            "value": "Titre, provisions de b\u00e9n\u00e9fice (littere gratiose, cum filo serico)"
        },
        {
            "type": "analyse",
            "value": "Onorio III al vescovo e al capitolo di Trento : ordina loro di accogliere come canonico prebendato Filippo, nipote di Raniero vicecancelliere papale."
        },
        {
            "type": "sources_manuscrites",
            "value": "R. CIT\u00c9 DU VATICAN, Archivio segreto Vaticano, <i>Registra Vaticana<\/i> 9, ep. 1142, fol. 261.",
            "children": {
                "type_source": "Registre de la chancellerie apostolique"
            }
        },
        {
            "type": "edition",
            "value": "Ici reprise d\u2019Emanuele Curzel, <i>Documenti papali per la storia trentina (fino al 1341)<\/i>, Bologne, 2004 (Annali dell\u2019Istituto storico italo-germanico. Fonti ; 1), n. 6, p. 79, d\u2019apr\u00e8s R."
        },
        {
            "type": "regeste",
            "value": "Pietro Pressutti, <i>Regesta Honorii papae III<\/i>, Rome, 1895, t. I, n. 1398, p. 232 <a target=\"_blank\" href=\" https:\/\/archive.org\/details\/RegestaHonoriiPapaeIII\/page\/n375\"> [en ligne]<\/a>."
        },
        {
            "type": "regeste",
            "value": "Leo Santifaller, <i>Urkunden und Forschungen zur Geschichte des Trientner Domkapitels im Mittelalter<\/i>. I. <i>1147-1500<\/i> (Ver\u00f6ffentlichungen des Instituts f\u00fcr \u00f6sterreichische Geschichtsforschung, 6), Wien 1948, n. 20."
        },
        {
            "type": "transcription",
            "value": "<?xml version=\"1.0\" encoding=\"UTF-8\"?>\nEpiscopo et capitulo Tridentinis. Ut plenum precantis affectum non tam ex inculcatione verborum quam ex aliis circumstanciis plenius cognoscatis et a vobis agnitum efficaciter impleatur, ecce pro dilecto filio Philippo, nepote dilecti filii Rainerii, vicecancellarii nostri, disciplinis scolasticis insistente, cui teneri nos reputamus ad gratiam qua solemus alios prevenire, devotionem vestram ro[gamus] d[istricti]us et mo[nemus] per apostolica scripta mandantes quatinus predictum Philippum ad prebendam, si qua in ecclesia vestra vacat, ob reverentiam divinam et nostram recipiatis in canonicum et fratrem, ita quod eundem vicecancellarium ad vestra obsequia promptiorem et nos vobis exinde reddatis favorabiles et benignos ; quod si forte non vacat ad presens, primam vacaturam nostre dominationi servamus persone ydonee conferendam, decernentes irritum et inane si quid de ipsa preter mandatum nostrum fuerit attemptatum; alioquin venerabili fratri nostro .. episcopo Paduano et dilecto filio Dainisio archidiacono Saccensi, Paduane diocesis, subdiacono nostro, damus nostris litteris in mandatis ut vos ad id, monitione premissa, per censuram ecclesiasticam, appellatione remota, compellant. Datum Rome apud Sanctum Petrum, II kalendas iunii, pontificatus nostri anno secundo. Scriptum est super hoc eisdem executoribus.\n"
        }
    ]
}