{
    "id": 20688,
    "name": "aposcripta-675",
    "type": "acte",
    "url": "http:\/\/telma-chartes.irht.cnrs.fr\/aposcripta\/notice\/20688",
    "project_slug": "aposcripta",
    "project_label": "APOSCRIPTA \u2013 Lettres des papes",
    "user": "lettrespontificalesadmin",
    "last_update": "2020-10-19 16:26:52",
    "licence": "Attribution - Pas d\u2019Utilisation Commerciale - Partage dans les M\u00eames Conditions 3.0 France (CC BY-NC-SA 3.0 FR) ",
    "licence_url": "https:\/\/creativecommons.org\/licenses\/by-nc-sa\/3.0\/fr\/",
    "elements": [
        {
            "type": "pape",
            "value": "Innocent II (1130-1143)"
        },
        {
            "type": "date_lieu",
            "value": "Cluny"
        },
        {
            "type": "date_libre",
            "value": "IV idus februarii"
        },
        {
            "type": "analyse",
            "value": "Innocentius\u00a0II abbati S. Iohannis Pratensi scribit, sese eius litem cum abbate S. Petri vivi Senonensi terminandam Eduensi et Altissiodorensi episcopis commisisse. Praecipit, ut evocatus ad eos adeat."
        },
        {
            "type": "transcription",
            "value": "<?xml version=\"1.0\" encoding=\"UTF-8\"?>\nInnocentius episcopus, servus servorum Dei, dilecto filio abbati sancti Ioannis de Prato, salutem et apostolicam benedictionem. Controversiam quae inter te et filium nostrum H[erbertum] abbatem sancti Petri vivi agitur, venerabilibus fratribus nostris Ste[phano] Eduensi et Hugo[ni] Altissiodorensi episcopis et dilecto filio nostro H[ugoni] abbati Pontiniacensi commisimus terminandam. Mandamus igitur tibi atque praecipimus quatinus loco et tempore quo ab eis vocatus fueris eorum praesentiam adeas et quod ab eis super eadem causa statutum fuerit, exequaris. Data Cluniaci IIII idus februarii.\n"
        },
        {
            "type": "edition",
            "value": "Samuel Loewenfeld, <i>Epistolae pontificum romanorum ineditae<\/i>, Leipzig : Veit et Comp., 1885, n. 176, p. 88-89"
        },
        {
            "type": "sources_manuscrites",
            "value": "F. FRANCE, Paris, Biblioth\u00e8que nationale de France, Collection Baluze 46, fol.\u00a0389 (manu s.\u00a0XVII).",
            "children": {
                "type_source": "Copie moderne"
            }
        },
        {
            "type": "date",
            "value": "1132\/02\/10",
            "children": {
                "date_deb_annee": "1132",
                "date_deb_mois": "02",
                "date_deb_jour": "10"
            },
            "range": {
                "date_apres": 11320210,
                "date_avant": 11320210
            }
        },
        {
            "type": "genre",
            "value": "Mandement (littere cum filo canapis)"
        },
        {
            "type": "destinataire",
            "value": "L'abb\u00e9 de Saint-Jean-du-Pr\u00e9"
        }
    ]
}