{
    "id": 148764,
    "name": "aposcripta-8334",
    "type": "acte",
    "url": "http:\/\/telma-chartes.irht.cnrs.fr\/aposcripta\/notice\/148764",
    "project_slug": "aposcripta",
    "project_label": "APOSCRIPTA \u2013 Lettres des papes",
    "user": "lettrespontificalesadmin",
    "last_update": "2020-10-19 16:39:49",
    "licence": "Attribution - Pas d\u2019Utilisation Commerciale - Partage dans les M\u00eames Conditions 3.0 France (CC BY-NC-SA 3.0 FR) ",
    "licence_url": "https:\/\/creativecommons.org\/licenses\/by-nc-sa\/3.0\/fr\/",
    "elements": [
        {
            "type": "pape",
            "value": "Martin IV (1281-1285)"
        },
        {
            "type": "destinataire",
            "value": "L'abb\u00e9 du monast\u00e8re de Savigny"
        },
        {
            "type": "date_libre",
            "value": "VII kalendas februarii, anno primo"
        },
        {
            "type": "date",
            "value": " 1282\/01\/27",
            "children": {
                "date_deb_annee": "1282",
                "date_deb_mois": "01",
                "date_deb_jour": "27"
            },
            "range": {
                "date_apres": 12820127,
                "date_avant": 12820127
            }
        },
        {
            "type": "date_lieu",
            "value": "Orvieto"
        },
        {
            "type": "analyse",
            "value": "Bulle du pape Martin IV enjoignant \u00e0 l\u2019abb\u00e9 de Savigny de faire publier l\u2019excommunication fulmin\u00e9e contre ceux qui avaient mis \u00e0 sac l\u2019\u00e9glise de Romans."
        },
        {
            "type": "sources_manuscrites",
            "value": "Archives du Rh\u00f4ne. \u2014 Fonds des Dominicains, 1er sac. Stephanus. A n\u00b0 87, pi\u00e8ce restitu\u00e9e le 4 d\u00e9cembre 1879.",
            "children": {
                "type_source": "Exp\u00e9dition"
            }
        },
        {
            "type": "edition",
            "value": "Ici reprise de Marie-Claude Guigue, <i>Cartulaire lyonnais<\/i>, II, Lyon : Association typographique, 1893, n. 771, p. 451-452."
        },
        {
            "type": "transcription",
            "value": "<?xml version=\"1.0\" encoding=\"UTF-8\"?>\nMartinus, episcopus, servus servorum Dei, dilecto filio abbati monasterii Savigniacensis Lugdunensis diocesis, salutem et apostolicam benedictionem. Sua nobis dilecti filii sacrista et capitulum ecclesie Romanensis ad Romanam ecclesiam nullo medio pertinentis Viennensis diocesis petitione monstrarunt quod Gerardus de Monte Ruffo, miles, Didarius de Bovaria, Petrus Vitalis, Petrus Alardi, Jacobus Dorerii, Guillelmus et Bernardus Ravais, Petrus Fabri, Martinus et Gibertus dicti Montfolli et Franciscus Corraterii, laici Viennensis, Grationopolitani et Lugdunensis diocesum, diabolico agitati spiritu, cum hominum armatorum multitudine, ad ecclesiam eandem Romanensem manu accedentes armata, ipsamque hostilibus aggressibus in sue salutis interitum impugnantes, tandem ostiis ipsius ecclesie excisis securibus et igne postea concrematis, et nonnullis clericis et laicis tunc infra eandem ecclesiam pro divinis audiendis officiis constitutis in hujusmodi aggressibus vulneratis graviter, ecclesiam intraverunt eandem, sicque post modum in signum victorie vexillis non sine ipsorum sacriste et capituli et ecclesie gravi injuria et ecclesiastici derogatione honoris positis super pinaculum ecclesie memorate, cruces, calices argenteos, jocalia aurea et argentea, paramenta et alia ornamenta ecclesiastica ac libros, vinum etiam, bladum et alia bona ejusdem ecclesie ac singulorum de dicto capitulo clericorum et familiarium eorumdem ibidem inventa secum exinde nequiter asportando, ac refectorium et quasdam alias domos et officinas dicte ecclesie ac quorumdam canonicorum et clericorum ipsius temere diruendo. Unde bone memorie A. episcopus Valentinensis, predictorum sacriste et capituli in eodem loco de Romanis et ejus districtu, in quibus ipsi sacrista et capitulum, sede Viennensi vacante, que tunc vacabat, de antiqua et approbata et hactenus pacifice observata consuetudine, omnimodam spiritualem jurisdictionem obtinent, vicarius, in militem et laicos ac homines predictos, tunc infra districtum hujusmodi existentes, quia ab eo moniti diligenter super premissis satisfacere competenter ac cruces, calices, libros, ornamenta, paramenta, vinum, bladum et alia bona predicta eisdem sacriste et capitulo ac ecclesie, clericis et familiaribus restituere contumaciter non curarunt, cum nichil racionabile proponerent, quare hoc facere non deberent et id esset ita notorium quod nulla posset tergiversatione celari, excommunicationis sentenciam, auctoritate predictorum sacriste et capituli, exigente justicia promulgavit. Sed miles et laici ac homines predicti eandem sentenciam dampnabiliter contempnentes eam per annum et amplius sustinuerunt animis induratis in animarum suarum periculum, dictorum sacriste et capituli prejudicium et scandalum plurimorum. Quare predicti sacrista et capitulum nobis humiliter supplicarunt ut sentenciam hujusmodi robur faceremus firmitatis debitum obtinere. Quocirca discretioni tue per apostolica scripta mandamus quatinus sentenciam ipsam sicut rationabiliter est prolata facias auctoritate nostra usque ad satisfactionem condignam, appellatione remota, inviolabiliter observari. Si vero miles, laici et homines prelibati eandem sentenciam per unum mensem postquam ipsam constiterit rationabiliter fore latam, pertinaciter tolerarint, ipsos ex tunc, donec super hiis congrue satisfecerint, singulis diebus dominicis et festivis, pulsatis campanis et candelis accensis excommunicatos publice nuncies et ab aliis per omnia loca in quibus expedire videris nunciari facias et ab omnibus arcius evitari. Datum apud Urbem Veterem, VII kalendas februarii, pontificatus nostri anno primo.\n"
        }
    ]
}