{
    "id": 20382,
    "name": "aposcripta-369",
    "type": "acte",
    "url": "http:\/\/telma-chartes.irht.cnrs.fr\/aposcripta\/notice\/20382",
    "project_slug": "aposcripta",
    "project_label": "APOSCRIPTA \u2013 Lettres des papes",
    "user": "lettrespontificalesadmin",
    "last_update": "2020-10-19 16:26:48",
    "licence": "Attribution - Pas d\u2019Utilisation Commerciale - Partage dans les M\u00eames Conditions 3.0 France (CC BY-NC-SA 3.0 FR) ",
    "licence_url": "https:\/\/creativecommons.org\/licenses\/by-nc-sa\/3.0\/fr\/",
    "elements": [
        {
            "type": "pape",
            "value": "Cl\u00e9ment VI (1342-1352)"
        },
        {
            "type": "date_lieu",
            "value": "Avignon"
        },
        {
            "type": "date_libre",
            "value": "27 mars 1348"
        },
        {
            "type": "analyse",
            "value": "Plusieurs officiers ou notaires de l\u2019Inquisition de Carcassonne ayant refus\u00e9 de payer les tailles impos\u00e9es par les consuls, ceux-ci ont pris des gages, mais ont \u00e9t\u00e9 frapp\u00e9s d\u2019excommunication et d\u2019interdit par l\u2019inquisiteur. Le pape ordonne que les gages soient rendus, que les censures soient lev\u00e9es et que les parties comparaissent devant son tribunal, dans la semaine de P\u00e2ques, pour travailler \u00e0 un accommodement."
        },
        {
            "type": "transcription",
            "value": "<?xml version=\"1.0\" encoding=\"UTF-8\"?>\nDilectis filiis .. archidiacono et officiali Carcassonen., salutem, etc. \u2014 Petitio Bernardi Corarie (?), Bernardi Mercerii, Pauli Tereni, Guillelmi Montanerii, Petri Perrerii, Guillermi de Fresenchis, Berengarii Montanerii et Raymundi Rogerii, consulum civitatis Carcassonen., nobis nuper exhibita continebat quod cum ipsi dilectos filios magistrum Bernardum Fontisgrive, legum doctorem, et Guillermum Nadini1, Guillermum Boerii et Arnaldum Siferedi2, notarios, ac Johannem Mercerii et quosdam alios cives Carcassonen., tam iure proprio quam vigore cuiusdam concessionis eisdem consulibus per carissimum in Christo filium nostrum Philippum regem Francie illustrem facte, in certa quantitate pecunie talliassent et imposuissent eisdem, magister Bernardus3, Guillermus Boerii et Arnaldus ac Johannes et alii predicti asserentes se consiliarios, ministros et servientes dilecti filii Aymonis de Calvomonte4, ordinis fratrum predicatorum, inquisitoris heretice pravitatis in provincia Carcasson. auctoritate apostolica deputati, existere ac se proinde a solutione ac prestatione talliarum et quorumdam aliorum onerum liberos et immunes, tallias huiusmodi eis impositas solvere dictis consulibus recusarunt ; quodque idem inquisitor contra dictos consules, pro eo quod magistrum Bernardum, Guillelmum Nadini, Guillermum Boerii et Arnaldum ac Johannem et alios predictos ad solvendum huiusmodi tallias compellentes, certa pignora receperant seu recipi fecerant ab eisdem, nonnullos processus excommunicationis et interdicti ac alias penas et sententias continentes fecit et habuit, a quibus pro parte dictorum consulum fuit ad Sedem apostolicam appellatum ; quare pro parte consulum eorumdem fuit nobis humiliter supplicatum ut providere ipsis super hoc de oportuno remedio dignaremur. Nos igitur... cupientes quod huiusmodi inter dictos consules et cives suborta dissensio sublatis litigiorum anfractibus amicabiliter terminetur, discretioni vestre... mandamus quatinus vos, vel alter vestrum, si ita est, huiusmodi pignora dictis magistro Bernardo, Guillermo Nadini, Guillermo Boerii, Arnaldo et Johanni, ac aliis quibuscumque consiliariis, servientibus et ministris inquisitoris eiusdem occasione huiusmodi accepta auctoritate nostra sub recredentia restitui faciatis, ac pignoribus ipsis ut predicitur restitutis, suspendatis huiusmodi processus ac penas et sententias contentas in illis usque ad unum mensem a festo Resurrectionis dominice futuro proxime computandum ; mandantes utrique partium predictarum quod infra octabas dicti festi per se vel procuratores eorum legitimos cum pleno et sufficienti mandato ad concordiam huiusmodi faciendam cum omnibus actis, iuribus et munimentis quibus voluerint in huiusmodi causa uti coram nobis studeant comparere, ut discussis iuribus eorundem, quod iustum fuerit valeat ordinari. Si autem pacis hostis faciente malicia partes ipse non possent interim amicabiliter concordari, non intendimus per mandatum nostrum huiusmodi processibus inquisitoris et appellationibus consulum predictorum preiudicare in aliquo ; quinimo quod eodem lapso mense, si partes ipse concordiam non duxerint invicem faciendam, processus necnon sententie et pene in eis contente ac appellationes huiusmodi in eorum permaneant firmitate, et quod predicta pignora in eo statu in quo nunc sunt reponantur ; super quibus quicquid faciendum duxeritis nobis per patentes vestras litteras formam presentium continentes fideliter intimare curetis. \u2014 Datum Avinioni, vi kalendas aprilis, anno sexto.\n"
        },
        {
            "type": "edition",
            "value": "Jean-Marie Vidal, <i>Bullaire de l\u2019Inquisition fran\u00e7aise au XIV<sup>e<\/sup> si\u00e8cle et jusqu'\u00e0 la fin du Grand Schisme<\/i>, Paris : Letouzey et An\u00e9, 1913, n. 205, p. 315-316"
        },
        {
            "type": "sources_manuscrites",
            "value": "<i>Reg. Aven.<\/i>, t. <span class=\"smal-caps\">xcviii<\/span> (Cl\u00e9m. VI, t. <span class=\"smal-caps\">xliv<\/span>), fol. 318 v\u00b0, n. 461"
        },
        {
            "type": "sources_manuscrites",
            "value": "double exp\u00e9dition, fol. 318, 318 v\u00b0."
        },
        {
            "type": "notes_historiques",
            "value": "Guillem Nadini (ou Naudi), de Carcassonne, \u00ab de par le roi notaire public, notaire de Monseigneur l\u2019\u00e9v\u00eaque, sp\u00e9cialement dans l\u2019office d\u2019Inquisition, \u00bb tient la plume aux s\u00e9ances du tribunal d\u2019Inquisition de Pamiers, de 1323 \u00e0 1325. Il figure dans quarante-six causes et dans une centaine d\u2019interrogatoires. La r\u00e9daction du derniers tiers du ms. Vat. lat. <i>4030<\/i> (<i>Registre de Jacques Fournier<\/i>, \u00e9v\u00eaque de Pamiers) lui appartient presque enti\u00e8rement. Voir Douais, <i>La formule Communicato<\/i>, p. 24, et J.-M. Vidal, <i>Le tribunal d\u2019Inquisition de Pamiers<\/i>, p. 102. Le 4 janvier 1346, Guillaume Nadini obtient du pape Cl\u00e9ment VI, pour lui-m\u00eame, pour sa femme C\u00e9cile et sa belle-m\u00e8re, Bernarde Rivi\u00e8re, l\u2019indulgence <i>in articulo mortis. Regest. Suppl. Clem. VI<\/i>, an. IV, t. <span class=\"smal-caps\">i<\/span>, fol. 153. Voir, sur une mission remplie par ce notaire, les n. 215-216.",
            "children": {
                "numero_note": "1"
            }
        },
        {
            "type": "notes_historiques",
            "value": "Au fol. 318, on lit Arnaldum <i>Sicredi<\/i>, qui para\u00eet \u00eatre la version vraie. Cet Arnaud Sicre \u00e9tait attach\u00e9 au tribunal de Carcassonne d\u00e8s l\u2019an 1329. Cf. Douais, <i>La formule, etc.<\/i>, p. 58, 62.",
            "children": {
                "numero_note": "2"
            }
        },
        {
            "type": "notes_historiques",
            "value": "Au fol. 318, le nom <i>Bernardus<\/i> est suivi de <i>Guillermus Nadini<\/i>.",
            "children": {
                "numero_note": "3"
            }
        },
        {
            "type": "notes_historiques",
            "value": "N. 162, note 1.",
            "children": {
                "numero_note": "4"
            }
        },
        {
            "type": "date",
            "value": "1348\/03\/27",
            "children": {
                "date_deb_annee": "1348",
                "date_deb_mois": "03",
                "date_deb_jour": "27"
            },
            "range": {
                "date_apres": 13480327,
                "date_avant": 13480327
            }
        },
        {
            "type": "genre",
            "value": "Bulle"
        },
        {
            "type": "destinataire",
            "value": "L'archidiacre et l'official de Carcassonne"
        }
    ]
}