{
    "id": 20066,
    "name": "aposcripta-53",
    "type": "acte",
    "url": "http:\/\/telma-chartes.irht.cnrs.fr\/aposcripta\/notice\/20066",
    "project_slug": "aposcripta",
    "project_label": "APOSCRIPTA \u2013 Lettres des papes",
    "user": "lettrespontificalesadmin",
    "last_update": "2020-10-19 16:26:44",
    "licence": "Attribution - Pas d\u2019Utilisation Commerciale - Partage dans les M\u00eames Conditions 3.0 France (CC BY-NC-SA 3.0 FR) ",
    "licence_url": "https:\/\/creativecommons.org\/licenses\/by-nc-sa\/3.0\/fr\/",
    "elements": [
        {
            "type": "date_lieu",
            "value": "Lyon"
        },
        {
            "type": "date_libre",
            "value": "29 janvier 1306"
        },
        {
            "type": "analyse",
            "value": "Clementis V bulla<a class=\"note\" href=\"#note-1\">1<\/a> pro Bernardo de Fargis, archidiacono Belvacensi."
        },
        {
            "type": "transcription",
            "value": "<?xml version=\"1.0\" encoding=\"UTF-8\"?>\nClemens, episcopus, servus servorum Dei, dilecto filio Bernardo de Fargis, archidiacono Belvacensi, salutem et apostolicam benedictionem. Virum experte probitatis claritate conspicuum te laudabilia tue probitatis indicia representant. Sic enim studiis virtutum insistis, sic laudabiliter dirigis actus tuos ad merita probitatum quod nos ad tui honoris promotionem invitas, et ad exhibitionem animas gratiarum. Propter quod dignum reputamus et debitum ut specialibus te favoribus et gratiis attollamus. Tuis itaque supplicationibus inclinati tecum ut defectu, quem pateris in etate,  cum, sicut asseris, in vicesimo quinto etatis tue anno vel circa illum constitutus esse noscaris, et quibusvis constitutionibus contrariis non obstantibus, quascumque dignitates episcopales vel archiepiscopales seu patriarchales aut alias, cum ad illas te successive contigerit canonice evocari, licite recipere ac libere retinere valeas, auctoritate apostolica, de speciali gratia dispensamus; proviso quod te facias, prout ipsarum dignitatum cura exegerit, statutis temporibus ad omnes superiores ordines promoveri. Nulli ergo omnino hominum liceat hanc paginam nostre dispensationis infringere vel ei ausu temerario contraire. Si quis autem hoc attemptare presumpserit, indignationem omnipotentis Dei et beatorum Petri et Pauli apostolorum ejus se noverit incursurum. Datum Lugduni, IIIJ kal. februarii, pontificatus nostri anno primo.\n"
        },
        {
            "type": "edition",
            "value": "\u00c9tienne Baluze, Guillaume Mollat, <i>Vitae paparum Avenionensium. Nouvelle \u00e9dition revue d'apr\u00e8s les manuscrits et compl\u00e9t\u00e9e de notes critiques<\/i>, Paris : Letouzey et An\u00e9, 1914-1922, vol. 3, n. XXII"
        },
        {
            "type": "sources_manuscrites",
            "value": "Ex archivo archiepiscopi Narbonensis, <i>Bal."
        },
        {
            "type": "sources_manuscrites",
            "value": "<\/i> pi\u00e8ce non retrouv\u00e9e."
        },
        {
            "type": "notes_historiques",
            "value": "Ex archivo archiepiscopi Narbonensis, <i>Bal.;<\/i> pi\u00e8ce non retrouv\u00e9e.",
            "children": {
                "numero_note": "1"
            }
        },
        {
            "type": "pape",
            "value": "Cl\u00e9ment V (1305-1314)"
        },
        {
            "type": "date",
            "value": "1306\/01\/29",
            "children": {
                "date_deb_annee": "1306",
                "date_deb_mois": "01",
                "date_deb_jour": "29"
            },
            "range": {
                "date_apres": 13060129,
                "date_avant": 13060129
            }
        },
        {
            "type": "genre",
            "value": "Bulle"
        }
    ]
}