{
    "id": 24062,
    "name": "aposcripta-1214",
    "type": "acte",
    "url": "http:\/\/telma-chartes.irht.cnrs.fr\/aposcripta\/notice\/24062",
    "project_slug": "aposcripta",
    "project_label": "APOSCRIPTA \u2013 Lettres des papes",
    "user": "lettrespontificalesadmin",
    "last_update": "2020-10-19 16:27:22",
    "licence": "Attribution - Pas d\u2019Utilisation Commerciale - Partage dans les M\u00eames Conditions 3.0 France (CC BY-NC-SA 3.0 FR) ",
    "licence_url": "https:\/\/creativecommons.org\/licenses\/by-nc-sa\/3.0\/fr\/",
    "elements": [
        {
            "type": "pape",
            "value": "Calixte II (1119-1124)"
        },
        {
            "type": "date_lieu",
            "value": "n.c."
        },
        {
            "type": "date_libre",
            "value": "22\u00a0avril 1122"
        },
        {
            "type": "date",
            "value": " 1122\/04\/22",
            "children": {
                "date_deb_annee": "1122",
                "date_deb_mois": "04",
                "date_deb_jour": "22"
            },
            "range": {
                "date_apres": 11220422,
                "date_avant": 11220422
            }
        },
        {
            "type": "analyse",
            "value": "Calixte\u00a0II \u00e9crit \u00e0 Galtier, \u00e9v\u00eaque de Maguelone, et \u00e0 quelques la\u00efques de vouloir bien pr\u00eater secours aux moines de Saint-Gilles contre Alphonse, comte de Toulouse, qu\u2019il a frapp\u00e9 d\u2019excommunication."
        },
        {
            "type": "transcription",
            "value": "<?xml version=\"1.0\" encoding=\"UTF-8\"?>\nCalixtus episcopus, servus servorum Dei, venerabili fratri Galterio, Magalonensi episcopo, et dilectis filiis Bernardo, Biterrensi vicecomiti. Bernardo de Andusia, Raimundo Decano de Poscheriis, salutem et apostolicam benedictionem.Beati Egidii monasterium cum omnibus rebus suis Romane Ecclesie juris est, et ad Sedem Apostolicam spectat. Unde qui locum ipsum et fratres, in eo Domino servientes, offendit, procul dubio nos offendit.Quia igitur Ildefonsus comes, filium nostrum Hugonem, abbatem et fratres ejus de monasterio ipso expulit, et monasterium cum burgo et aliis suis pertinentiis per secularem potentiam occupavit, nos in eum et in Raimundum de Baltio, Guillelmum de Sabrano, Elisiarium de Castriis. Guillelmum Rainoardi de Mezenas, vicecomites de Mezoaga et Rainonem de Castlar, et eorum in nequicia ista fautores et ei adjutores, excommunicationis, et in terras eorum interdictionis sententiam promulgavimus.Insuper comitis homines ab ejus ominio et fidelitate, missis litteris nostris, subtraximus, donec comes beati Egydii monasterium cum burgo et pertinentiis ejus jam dicto abbati et fratribus ejus restitutum, liberum, omnino quietum dimittat, castrum noviter contra ipsum edificatum destruat, et nobis de illatis injuriis satisfaciat. Rogamus itaque dilectionem vestram et monemus, ut, pro amore Dei et Romane Ecclesie reverentia, eumdem abbatem et fratres ejus ita juvare, manutenere ac sustentare curetis, quatenus a Deo et beato Petro, necnon et S. Egydio retributionem et a nobis plenam gratiam habeatis.Data Laterani, x kalendas maii.\n"
        },
        {
            "type": "edition",
            "value": "Julien Rouquette, Augustin Villemagne, <i>Bullaire de l'\u00c9glise de Maguelone<\/i>, Paris, Montpellier : Picard, Valat, 1911-1914, I, n. 23, p. 40-40"
        },
        {
            "type": "remarques",
            "value": "\u00ab\u00a0Galtier, dit l\u2019abb\u00e9 <span class=\"small-caps\">Goiffon<\/span> (<i>Bull. de Saint-Gilles<\/i>, p.\u00a065, note 3), remplissait dans nos contr\u00e9es les fonctions de l\u00e9gat du Saint-Si\u00e8ge\u00a0\u00bb. Cette note semblerait faire croire que, en 1122, Galtier \u00e9tait d\u00e9j\u00e0 l\u00e9gat. Nous ne le pensons pas.\n\nS\u2019il est indiscutable qu\u2019il a \u00e9t\u00e9 honor\u00e9 de ce titre, il para\u00eet \u00e0 peu pr\u00e8s s\u00fbr que ce fut en 1125 au plus t\u00f4t. Nous le concluons de plusieurs faits. En 1122 il assiste \u00e0 un plaid tenu au Caylar, dioc\u00e8se de Lod\u00e8ve (<i>Hist. g\u00e9n. de Languedoc<\/i>, t.\u00a0III, p.\u00a0660), et n\u2019y occupe que le second rang. En 1124 il ne l\u2019\u00e9tait pas non plus, quand \u00e9clat\u00e8rent les difficult\u00e9s entre le comte de Melgueil et le seigneur de Montpellier, puisque nous le voyons, en 1125, implorer l\u2019intervention du Souverain Pontife pour faire cesser cette guerre qui d\u00e9solait son dioc\u00e8se. Nous croyons que c\u2019est en cette ann\u00e9e qu\u2019il fut nomm\u00e9 l\u00e9gat, pour que ce titre lui donn\u00e2t une plus grande autorit\u00e9 sur les bellig\u00e9rants. \u2014 Voir, sur cette affaire, <i>Histoire g\u00e9n\u00e9rale de Languedoc<\/i> (t.\u00a0III, p.\u00a0660), o\u00f9 on verra aussi le motif de l\u2019intervention de Calixte\u00a0II et d\u2019Honorius\u00a0II dans les affaires du comt\u00e9 de Melgueil.\n\nSi le Pape lui adressa cette bulle, ce n\u2019\u00e9tait pas, semble-t-il, parce qu\u2019il \u00e9tait son l\u00e9gat, mais parce que ses qualit\u00e9s et son savoir le recommandaient aupr\u00e8s du Pape.\n\n[Rouquette-Villemagne]"
        },
        {
            "type": "genre",
            "value": "Bulle"
        }
    ]
}