{
    "id": 26322,
    "name": "aposcripta-3401",
    "type": "acte",
    "url": "http:\/\/telma-chartes.irht.cnrs.fr\/aposcripta\/notice\/26322",
    "project_slug": "aposcripta",
    "project_label": "APOSCRIPTA \u2013 Lettres des papes",
    "user": "lettrespontificalesadmin",
    "last_update": "2020-10-19 16:27:58",
    "licence": "Attribution - Pas d\u2019Utilisation Commerciale - Partage dans les M\u00eames Conditions 3.0 France (CC BY-NC-SA 3.0 FR) ",
    "licence_url": "https:\/\/creativecommons.org\/licenses\/by-nc-sa\/3.0\/fr\/",
    "elements": [
        {
            "type": "pape",
            "value": "Eug\u00e8ne III (1145-1153)"
        },
        {
            "type": "date_lieu",
            "value": "Auxerre"
        },
        {
            "type": "date_libre",
            "value": "1147 August 16"
        },
        {
            "type": "date",
            "value": " 1147\/08\/16",
            "children": {
                "date_deb_annee": "1147",
                "date_deb_mois": "08",
                "date_deb_jour": "16"
            },
            "range": {
                "date_apres": 11470816,
                "date_avant": 11470816
            }
        },
        {
            "type": "analyse",
            "value": "Eugen III best\u00e4tigt den Kanonikern von Troyes die Satzungen des Bischofs Hatto von Troyes und Alberich von Ostia, denen zu Folge die Kanoniker, welche sich im Dienste der Kirche nicht eifrig zeigen, nur 20 Solidi j\u00e4hrlichen Pr\u00e4bendeneinkommens erhalten, ausser den Br\u00fcdern von Cluny, welche Pr\u00e4benden der Kirche von Troyes \u00fcberwiesen erhielten ; auch soll niemand eine Einzelpr\u00e4bende besitzen<a class=\"note\" href=\"#note-1\">1<\/a>."
        },
        {
            "type": "transcription",
            "value": "<?xml version=\"1.0\" encoding=\"UTF-8\"?>\n Eugenius episcopus servus servorum dei dilectis filiis canonicis Trecensis \u0229cclesi\u0229 salutem et apostolicam benedictionem. | Sicut ea, qu\u0229 a nobis statuuntur firma volumus et illibata persistere, ita ea, qu\u0229 a fratribus | nostris episcopis rationabili providentia fiunt, ut in suo vigore permaneant, diligenti nos convenit sollicitudine providere. Quod ergo a discretione religiosi viri Attonis, episcopi vestri2, confirmante venerabili fratre nostro Alberico, Hostiensi episcopo3, tunc apostolic\u0229 sedis legato4, rationabiliter factum est et scriptorum utriusque munimine roboratum, nos quoque auctoritate apostolica confirmamus, ut videlicet, qui de cetero in \u0229cclesia vestra auctore domino statuentur canonici, nisi in \u0229cclesi\u0229 servitio assidui fuerint, nichil de prebendali beneficio preter viginti solidos annuatim recipiant, exceptis Cluniacensibus fratribus tantuma, quibus prebendam in vestra \u0229cclesia concessistis. De communitate etiam fratrum nullus omnino hominum singularem in posterum prebendam optineat, salva nimirum in omnibus apostolice sedis auctoritate. Si quis igitur huius nostr\u0229 confirmationis paginam sciens contra eam temere venire temptaverit, indignationem omnipotentis dei et beatorum Petri et | Pauli apostolorum eius se noverit incursurum. \u2014 Dat. Autisiodori, xvii Kl. Sept.\n"
        },
        {
            "type": "edition",
            "value": "Julius von Pflugk-Harttung, <i>Acta pontificum Romanorum inedita<\/i>, T\u00fcbingen, 1880, I, n. 213, p. 196"
        },
        {
            "type": "sources_manuscrites",
            "value": "Or. im Archive des D\u00e9p. Aube zu Troyes."
        },
        {
            "type": "remarques",
            "value": "Perg. italienisirt, breit 0,2, lang 0,185, unten umgeschlagen. Bullirung durch 2 L\u00f6cher. Schnur und Bulle verloren. Faltung der Breven."
        },
        {
            "type": "apparat_critique",
            "value": "a.\u2002fratribus tantum <i>meistens auf Rasur<\/i>.",
            "children": {
                "numero_note": "a"
            }
        },
        {
            "type": "notes_historiques",
            "value": "<i>Vergl. die Urk. v. 25 Jan. und 20 April 1171\u20131172, 4 Mai 1192, 29 Juli 1195.<\/i>",
            "children": {
                "numero_note": "1"
            }
        },
        {
            "type": "notes_historiques",
            "value": "<i>Hatto, Bischof von Troyes, c. 1123\u20131145.<\/i>",
            "children": {
                "numero_note": "2"
            }
        },
        {
            "type": "notes_historiques",
            "value": "<i>Alberich von Ostia, 1138\u20131147<\/i> (<i>1149<\/i>).",
            "children": {
                "numero_note": "3"
            }
        },
        {
            "type": "notes_historiques",
            "value": "<i>Alberich wurde von Lucius II als Legat abgeordnet, seine Reise nach Frankreich und England dauerte, dem Fehlen in der Zeugenliste auf p\u00e4pstlichen Urkunden zu Folge, vom Juni 1144 \u2014 December 1145.<\/i>",
            "children": {
                "numero_note": "4"
            }
        },
        {
            "type": "genre",
            "value": "Bulle"
        }
    ]
}