{
    "id": 149350,
    "name": "aposcripta-8913",
    "type": "acte",
    "url": "http:\/\/telma-chartes.irht.cnrs.fr\/aposcripta\/notice\/149350",
    "project_slug": "aposcripta",
    "project_label": "APOSCRIPTA \u2013 Lettres des papes",
    "user": "lettrespontificalesadmin",
    "last_update": "2020-10-19 16:39:57",
    "licence": "Attribution - Pas d\u2019Utilisation Commerciale - Partage dans les M\u00eames Conditions 3.0 France (CC BY-NC-SA 3.0 FR) ",
    "licence_url": "https:\/\/creativecommons.org\/licenses\/by-nc-sa\/3.0\/fr\/",
    "elements": [
        {
            "type": "pape",
            "value": "Innocent IV (1243-1254)"
        },
        {
            "type": "destinataire",
            "value": "Ad perpetuam rei memoriam"
        },
        {
            "type": "date_libre",
            "value": "X kalendas septembris, anno X"
        },
        {
            "type": "date",
            "value": " 1252\/08\/23",
            "children": {
                "date_deb_annee": "1252",
                "date_deb_mois": "08",
                "date_deb_jour": "23"
            },
            "range": {
                "date_apres": 12520823,
                "date_avant": 12520823
            }
        },
        {
            "type": "date_lieu",
            "value": "Perusii"
        },
        {
            "type": "sources_manuscrites",
            "value": "R. CIT\u00c9 DU VATICAN, Archivio Segreto Vaticano, <hi rend=\"italic\">Registra Vaticana<\/hi> ... Inn.\u00a0IV Reg. Vol.\u00a0II, 306; Lib.\u00a0X, cur.\u00a09. Exemplar Raynaldi, Ann. eccl. a. 1252, \u00a7\u00a01, contulimus cum Regestis.",
            "children": {
                "type_source": "Registre de la chancellerie apostolique"
            }
        },
        {
            "type": "genre",
            "value": "Mandement (littere cum filo canapis)"
        },
        {
            "type": "analyse",
            "value": "Innocentius IV papa omnes leges et ordinationes in regno Siciliae a quondam Fr[iderico II] ante et post eius depositionem et ab eius praedecessoribus regibus Siciliae in praeiudicium libertatis et iurium ecclesiasticorum editas irritat, singulis ecclesiis regni civitates, homines et bona ablata restituit et civitatem Beneventi speciali gratia effert [Rodenberg]."
        },
        {
            "type": "transcription",
            "value": "<?xml version=\"1.0\" encoding=\"UTF-8\"?>\nAd perpetuam rei memoriamQui pro regnorum clarissimo regno Sicilie dudum sub dira seu durissima posito servitute profundos gemitus et amara fudimus sepe suspiria, id semper in mente gerimus, quod libertatem ecclesiasticam ibi quasi ad nichilum iam redactum in statum pristinum auctore Domino reformemus, maxime cum regnum ipsum, iuris et proprietatis apostolice sedis existens, nunc rege careat et aliqua sibi, nisi per Deum et ecclesiam, resurgendi possibilitas non existat. Hinc est, quod nos, cum fratribus nostris diligenti consideratione prehabita, de consilio ipsorum omnes leges seu constitutiones aut statuta, ordinationes, dispositiones, iussiones et universa similia in derogationem vel preiudicium libertatis aut immunitatis, auctoritatis seu iurisdictionis ecclesiastice vel quorumcumque iurium ecclesiasticorum a persecutore libertatis eiusdem quondam Fr. imperatore ante vel post depositionem ipsius edita, necnon quaslibet consuetudines contra hec in eodem regno ab ipso vel suis predecessoribus regibus Sicilie aut quibuscumque aliis introductas, irritas omnino decernimus et inanes; singulis ecclesiis ipsius regni, tam secularibus quam regularibus, cathedralibus et aliis, ac domibus religiosis civitates, castra, villas, terras, predia, possessiones, homines, vassallos et cetera bona et iura, quibus eas idem F. et aliquis filiorum seu ministrorum eius per inquisitiones seu concessiones aut venditiones vel concambia sive quocumque alio modo iniuste destituit, restituentes plenarie, ab ipsis de cetero cum omnibus iuribus et pertinentiis suis integre possidenda. Eisdem etiam ecclesiis et domibus ac prelatis ipsarum reparandi et reedificandi de novo civitates, terras, villas et castra de mandato eiusdem F. aut filiorum seu fautorum ipsius in parte vel toto diruta seu destructa et faciendi inhabitata rehabitari concedimus liberam facultatem.Preterea, ut electa et predilecta civitas Beneventi, camera utique sedis apostolice specialis, quam eiusdem F. perversitas, eversa tandem prepotenti virtutis divine brachio, impia feritate destruxit, se per eiusdem sedis auxilium condigna gaudeat consolatione perfundi, eam in premissis omnibus et aliis libertatibus universis predicto regno parem reddimus et equalem, omnes sibi fidantias, quas olim alicui sine auctoritate sedis apostolice in preiudicium sue libertatis antique fecisse dinoscitur, nichilominus remittentes ac districte iniungentes illis, qui fidantias huiusmodi receperunt, quod eas sine omni dilatione ac difficultate remittant et ipsas de cetero exigere non presumant.Nulli ergo omnino hominum liceat hec nostra statuta infringere vel eis ausu quolibet contraire. Si quis autem hoc attemptare presumpserit, animadversione dura se noverit puniendum.Dat. Perusii, X Kalendas Septembris, anno X\u00b0.\n"
        },
        {
            "type": "edition",
            "value": "Ici reprise de Karl Rodenberg, Epistolae s. XIII e regestis pontificum romanorum selectae, III, Berlin : Weidmann (MGH), 1894, n.\u00a0156, p.\u00a0133."
        },
        {
            "type": "edition_autre",
            "value": "?"
        },
        {
            "type": "regeste",
            "value": "?"
        },
        {
            "type": "bibliographie_generale",
            "value": "?"
        },
        {
            "type": "apparat_critique",
            "value": "?",
            "children": {
                "numero_note": "a"
            }
        },
        {
            "type": "apparat_critique",
            "value": "?",
            "children": {
                "numero_note": "b"
            }
        },
        {
            "type": "apparat_critique",
            "value": "?",
            "children": {
                "numero_note": "c"
            }
        },
        {
            "type": "apparat_critique",
            "value": "?",
            "children": {
                "numero_note": "d"
            }
        },
        {
            "type": "apparat_critique",
            "value": "?",
            "children": {
                "numero_note": "e"
            }
        },
        {
            "type": "apparat_critique",
            "value": "?",
            "children": {
                "numero_note": "f"
            }
        },
        {
            "type": "notes_historiques",
            "value": "?",
            "children": {
                "numero_note": "1"
            }
        },
        {
            "type": "notes_historiques",
            "value": "?",
            "children": {
                "numero_note": "2"
            }
        },
        {
            "type": "notes_historiques",
            "value": "?",
            "children": {
                "numero_note": "3"
            }
        }
    ]
}