{
    "id": 149128,
    "name": "aposcripta-8694",
    "type": "acte",
    "url": "http:\/\/telma-chartes.irht.cnrs.fr\/aposcripta\/notice\/149128",
    "project_slug": "aposcripta",
    "project_label": "APOSCRIPTA \u2013 Lettres des papes",
    "user": "l_valliere",
    "last_update": "2020-10-19 16:39:53",
    "licence": "Attribution - Pas d\u2019Utilisation Commerciale - Partage dans les M\u00eames Conditions 3.0 France (CC BY-NC-SA 3.0 FR) ",
    "licence_url": "https:\/\/creativecommons.org\/licenses\/by-nc-sa\/3.0\/fr\/",
    "elements": [
        {
            "type": "pape",
            "value": "Cl\u00e9ment IV (1265-1268)"
        },
        {
            "type": "destinataire",
            "value": "Le doyen et le chapitre de Paris"
        },
        {
            "type": "date_libre",
            "value": "X kalendas novembris, anno primo"
        },
        {
            "type": "date",
            "value": "1265\/10\/23",
            "children": {
                "date_deb_annee": "1265",
                "date_deb_mois": "10",
                "date_deb_jour": "23"
            },
            "range": {
                "date_apres": 12651023,
                "date_avant": 12651023
            }
        },
        {
            "type": "date_lieu",
            "value": "P\u00e9rouse"
        },
        {
            "type": "genre",
            "value": "Titre, g\u00e9n\u00e9ral (littere gratiose, cum filo serico)"
        },
        {
            "type": "analyse",
            "value": "Clemens (IV) \u00ab dilectis filiis .. decano et capitulo Parisien. \u00bb : eis indulget ut nullus delegatus vel subdelegatus ab eo executor seu conservator a Sede apostolica deputatus possit in eos excommunicationis sententiam promulgare absque ipsius Sedis speciali mandato [Barbiche]."
        },
        {
            "type": "sources_manuscrites",
            "value": "E. FRANCE, Paris, Archives nationales, L 259, n. 56 (olim n. 67). Original, bulle sur lacs de soie rouge et jaune.",
            "children": {
                "type_source": "Exp\u00e9dition"
            }
        },
        {
            "type": "edition",
            "value": "\u00e0 \u00e9diter"
        },
        {
            "type": "regeste",
            "value": "\u00c9douard Jordan, <i>Les registres de Cl\u00e9ment IV (1265-1268)<\/i>, Paris, 1893-1945, n. 1840, d\u2019apr\u00e8s E."
        },
        {
            "type": "regeste",
            "value": "Bernard Barbiche, <i>Les actes pontificaux originaux des Archives Nationales de Paris<\/i>, Cit\u00e9 du Vatican, 1975-1982, II, n. 1355, p. 121-122, d'apr\u00e8s E."
        },
        {
            "type": "transcription",
            "value": "<?xml version=\"1.0\" encoding=\"UTF-8\"?>\nMeritis vestre devotionis... Datum Perusii, X kalendas novembris, pontificatus nostri anno primo.\n"
        },
        {
            "type": "remarques",
            "value": "inconnue de Potthast"
        }
    ]
}