{
    "id": 147266,
    "name": "aposcripta-6893",
    "type": "acte",
    "url": "http:\/\/telma-chartes.irht.cnrs.fr\/aposcripta\/notice\/147266",
    "project_slug": "aposcripta",
    "project_label": "APOSCRIPTA \u2013 Lettres des papes",
    "user": "l_valliere",
    "last_update": "2020-10-19 16:39:28",
    "licence": "Attribution - Pas d\u2019Utilisation Commerciale - Partage dans les M\u00eames Conditions 3.0 France (CC BY-NC-SA 3.0 FR) ",
    "licence_url": "https:\/\/creativecommons.org\/licenses\/by-nc-sa\/3.0\/fr\/",
    "elements": [
        {
            "type": "pape",
            "value": "Cl\u00e9ment IV (1265-1268)"
        },
        {
            "type": "destinataire",
            "value": "L'\u00e9v\u00eaque de Bayeux"
        },
        {
            "type": "date_libre",
            "value": "n.c."
        },
        {
            "type": "date",
            "value": "apres 1265\/08\/11 - avant 1265\/08\/13",
            "children": {
                "date_deb_annee": "1265",
                "date_deb_mois": "08",
                "date_deb_jour": "11",
                "date_deb_type": "apres",
                "date_fin_annee": "1265",
                "date_fin_mois": "08",
                "date_fin_jour": "13",
                "date_fin_type": "avant"
            },
            "range": {
                "date_apres": 12650811,
                "date_avant": 12650813
            }
        },
        {
            "type": "date_lieu",
            "value": "n.c."
        },
        {
            "type": "genre",
            "value": "Mandement (littere cum filo canapis)"
        },
        {
            "type": "analyse",
            "value": "Episcopum Baiocensem hortatur, ut in negotio quod inter ipsum et Robertum Maltum vertatur, cautum se reddat et sibi in eodem provideat [Potthast].\nClemens IV. an Bischof (Eudes de Lorry) von Bayeux: empfiehlt ihm, seinen Konflikt mit Robertus Maletus beizulegen [Thumser]."
        },
        {
            "type": "edition",
            "value": "Ici reprise de Mathias Thumser, <i>Die Briefe Papst Clemens\u2019 IV. (1265-1268)<\/i>, Vorl\u00e4ufige Edition, MGH, 2015, n. 80."
        },
        {
            "type": "regeste",
            "value": "Potthast, <i>Regesta pontificum Romanorum<\/i>, n. 19307 (avec fourchette de dates du 11 au 13 ao\u00fbt) <a target=\"_blank\" href=\" http:\/\/opacplus.bsb-muenchen.de\/title\/BV004241514\/ft\/bsb11316018?page=628\"> [en ligne]<\/a>."
        },
        {
            "type": "transcription",
            "value": "<?xml version=\"1.0\" encoding=\"UTF-8\"?>\nEpiscopo Baiocensi. Ad scribendum fraternitati tue super negotio, quod inter te et Robertum Maletum vertitur, nulla persone nos affectio impulit, sed dumtaxat zelus iustitie et pacis aviditas, quam coepiscopos et fratres nostros tam ferventer, tam provide vellemus amplecti, ut supervacaneis litibus non insisterent nec de sua potentia confidentes iustitiam alienam opprime-re sibi possibile iudicarent. Nos sane nec laqueum tibi inicere nec scandalum in ecclesia tua ponere volumus, sed te cautum sufficit reddidisse, ut sic tibi provideas in negotio, ne non sine tui honoris macula et sumptus amittas et causam, sciturus, quod nec offendimur nec turbamur, si ius tuum iuste prosequeris cum ea, que decet pontificem, honestate.\n"
        },
        {
            "type": "sources_manuscrites",
            "value": "R<sup>1<\/sup>. CIT\u00c9 DU VATICAN, Archivio segreto Vaticano, <i>Registra Vaticana<\/i> 30, fol. 14 (<i>Dat. ut supra<\/i>).",
            "children": {
                "type_source": "Formulaire, collection de lettres m\u00e9di\u00e9vale"
            }
        },
        {
            "type": "sources_manuscrites",
            "value": "R<sup>2<\/sup>. CIT\u00c9 DU VATICAN, Archivio segreto Vaticano, <i>Registra Vaticana<\/i> 33, fol. 15v (sans date).",
            "children": {
                "type_source": "Formulaire, collection de lettres m\u00e9di\u00e9vale"
            }
        },
        {
            "type": "sources_manuscrites",
            "value": "R<sup>3<\/sup>. CIT\u00c9 DU VATICAN, Archivio segreto Vaticano, <i>Registra Vaticana<\/i> 34, fol. 19v (sans date).",
            "children": {
                "type_source": "Formulaire, collection de lettres m\u00e9di\u00e9vale"
            }
        },
        {
            "type": "sources_manuscrites",
            "value": "R<sup>4<\/sup>. CIT\u00c9 DU VATICAN, Archivio segreto Vaticano, <i>Registra Vaticana<\/i> 35, ep. 79, fol. 16v (<i>VI kal. aug.<\/i>).",
            "children": {
                "type_source": "Formulaire, collection de lettres m\u00e9di\u00e9vale"
            }
        },
        {
            "type": "edition_autre",
            "value": "Edmond Mart\u00e8ne et Ursin Durand, <i>Thesaurus novus anecdotorum<\/i>, Paris, 1717, II, col. 181, n. 123 (sans date) <a target=\"_blank\" href=\"https:\/\/archive.org\/stream\/ThesaurusNovusAnecdotorum2\/Thesaurus_novus_anecdotorum_2#page\/n125\/mode\/2up\"> [en ligne]<\/a>."
        },
        {
            "type": "regeste",
            "value": "\u00c9douard Jordan, <i>Les registres de Cl\u00e9ment IV (1265-1268)<\/i>, Paris, 1893-1945, n. 949 (<i>VI kal. aug.<\/i>), d\u2019apr\u00e8s R<sup>1<\/sup>, R<sup>2<\/sup>, R<sup>3<\/sup> et R<sup>4<\/sup>."
        },
        {
            "type": "bibliographie_generale",
            "value": "Mathias Thumser, \u00ab Zur \u00dcberlieferungsgeschichte der Briefe Clemens'IV. (1265-1268) \u00bb, <i>Deutsches Archiv f\u00fcr Erforschung des Mittelalters<\/i>, 51\/1, 1995, p. 115-168."
        }
    ]
}