{
    "id": 20018,
    "name": "aposcripta-5",
    "type": "acte",
    "url": "http:\/\/telma-chartes.irht.cnrs.fr\/aposcripta\/notice\/20018",
    "project_slug": "aposcripta",
    "project_label": "APOSCRIPTA \u2013 Lettres des papes",
    "user": "lettrespontificalesadmin",
    "last_update": "2020-10-19 16:26:43",
    "licence": "Attribution - Pas d\u2019Utilisation Commerciale - Partage dans les M\u00eames Conditions 3.0 France (CC BY-NC-SA 3.0 FR) ",
    "licence_url": "https:\/\/creativecommons.org\/licenses\/by-nc-sa\/3.0\/fr\/",
    "elements": [
        {
            "type": "date_lieu",
            "value": "Bordeaux"
        },
        {
            "type": "date_libre",
            "value": "Nonis julii, anno primo"
        },
        {
            "type": "analyse",
            "value": "Clementis V epistola ad Philippum, regem Francorum, de negotio castri Malileonis, vulgo \u00ab Maul\u00e9on de Soule \u00bb."
        },
        {
            "type": "transcription",
            "value": "<?xml version=\"1.0\" encoding=\"UTF-8\"?>\nClemens, episcopus, servus servorum Dei, carissimo in Christo filio Philippo, regi Francie illustri, salutem et apostolicam benedictionem. Affectu paterno recepimus tue celsitudinis litteras preces regias pro filio nobilis viri Augerii de Maloleone, militis, continentes. Profecto, fili karissime, statim cum audivimus quod predictus Augerius ad tuam personaliter accesserat presentiam, disposuimus ad te super negocio castri de Maloleone, quod est inter te et regem Anglie, sicut nosti, specialem nostrum nuncium destinare. Sed quia postmodum scripsisti nobis quod eras ad nos tuos in proximo nuncios transmissurus, nos, credentes quod iidem nuncii super eodem negocio de mandato forent regio nobis aliquid relaturi, ab hujusmodi nostri nuncii missione usque ad adventum nunciorum tuorum fore providimus desistendum. Verum cum credamus quod adhuc dictus Augerius a tua presentia non recesserit, serenitatem regiam rogamus et hortamur attente quatinus nostrum ac Ecclesie romane, et tuum honorem, attenta meditatione, prospiciens, ac habens debitum ad Christianitatis bonum et Terre sancte passagii respectum, que a te precipuum remediaa consolationis expectat, considerans insuper gravia pericula que possent ex hujusmodi negocio predicti castri contingere, quodque nulla deveria tibi debita, sicut nosti, propterea differuntur, omnino procures et facias quod dictus miles, antequam a tua discedat presentia, prefatum castrum expeditum et liberum in tuis manibus dimittat, deliberet et assignet, ut de ipso disponere valeas secundum quod videris expedire. Ipso autem milite hoc efficaciter adimplente, nos super facto supplicationis tue pro dicto ejus filio sic gratiose agemus quod videre poteris bonam affectionem quam ad dictum negocium habuimus et habemus. Et quia scire cupimus qualiter in hac parte successerit, quod fieri contigerit super hoc per regias litteras celeriter scribas nobis. Sic autem in hiis regia se habeat excellentia quod digne possit exinde apud Deum et homines ac Sedem apostolicam de circumspectionis studio commendari. Super hiis etiam predicto militi per nostras scribimus litteras, quarum transcriptum magnificentie tue mittimus presentibus interclusum. Super eo vero quod nobis dudum scripsisti, quod postquam ordinatum Lugduni extitit quod duo pro parte tua et duo pro parte regis predicti ordinarentur qui omnia dampna data hinc et inde a tempore treuge inite et pacis etiam subsecute inter te et regem prefatum facerent emendari, unus ex illis pro parte ipsius regis deputatis prefato negocio recesserat imperfecto, et quod post ordinationem hujusmodi mercatores aliqui regni tui et eorum bona per prefatum regem Anglie et suos arrestati et bona predicta occupata fuerant et saisita, regia noverit celsitudo nos prefato regi nostras litteras direxisse, et ab eo super predictis responsionem habere ; quam tibi nunciare differimus, quia tuis nunciis, qui proxime sunt venturi, illam intendimus latius explicare ; ut per eos postmodum tibi que in responsione hujusmodi continentur plenius nota fiant. Datum Burdegalis, nonis julii, pontificatus nostri anno primo.\n"
        },
        {
            "type": "edition",
            "value": "\u00c9tienne Baluze, Guillaume Mollat, <i>Vitae paparum Avenionensium. Nouvelle \u00e9dition revue d'apr\u00e8s les manuscrits et compl\u00e9t\u00e9e de notes critiques<\/i>, Paris : Letouzey et An\u00e9, 1914-1922, III, p. 42-43, d'apr\u00e8s E."
        },
        {
            "type": "sources_manuscrites",
            "value": "E. FRANCE, Paris, Archives nationales de France, J 703\/149-1.",
            "children": {
                "type_source": "Exp\u00e9dition"
            }
        },
        {
            "type": "sources_manuscrites",
            "value": "F. FRANCE, Paris, Biblioth\u00e8que nationale de France, ms. lat. 10919, fol. 57 <a target=\"_blank\" href=\"http:\/\/gallica.bnf.fr\/ark:\/12148\/btv1b9065926v\/f60.image\">[en ligne]<\/a>.",
            "children": {
                "type_source": "Autre copie m\u00e9di\u00e9vale"
            }
        },
        {
            "type": "apparat_critique",
            "value": "<i>Mollat corrige en<\/i> remedium ; remedia <i>F<\/i>.",
            "children": {
                "numero_note": "a"
            }
        },
        {
            "type": "pape",
            "value": "Cl\u00e9ment V (1305-1314)"
        },
        {
            "type": "destinataire",
            "value": "Le roi de France Philippe le Bel"
        },
        {
            "type": "date",
            "value": "1306\/07\/07",
            "children": {
                "date_deb_annee": "1306",
                "date_deb_mois": "07",
                "date_deb_jour": "07"
            },
            "range": {
                "date_apres": 13060707,
                "date_avant": 13060707
            }
        },
        {
            "type": "genre",
            "value": "Mandement (littere cum filo canapis)"
        }
    ]
}