{
    "id": 27464,
    "name": "aposcripta-4146",
    "type": "acte",
    "url": "http:\/\/telma-chartes.irht.cnrs.fr\/aposcripta\/notice\/27464",
    "project_slug": "aposcripta",
    "project_label": "APOSCRIPTA \u2013 Lettres des papes",
    "user": "c_lenne",
    "last_update": "2020-10-19 16:28:14",
    "licence": "Attribution - Pas d\u2019Utilisation Commerciale - Partage dans les M\u00eames Conditions 3.0 France (CC BY-NC-SA 3.0 FR) ",
    "licence_url": "https:\/\/creativecommons.org\/licenses\/by-nc-sa\/3.0\/fr\/",
    "elements": [
        {
            "type": "pape",
            "value": "Innocent III (1198-1216)"
        },
        {
            "type": "destinataire",
            "value": "Le roi d'Aragon, Pierre"
        },
        {
            "type": "date",
            "value": " 1205\/06\/16",
            "children": {
                "date_deb_jour": "16",
                "date_deb_mois": "06",
                "date_deb_annee": "1205"
            },
            "range": {
                "date_apres": 12050616,
                "date_avant": 12050616
            }
        },
        {
            "type": "genre",
            "value": "Lettre, g\u00e9n\u00e9ral (apr\u00e8s 1198, littere cum filo canapis)"
        },
        {
            "type": "sources_manuscrites",
            "value": "R. Livre VIII, lettre 93. \u00e0 pr\u00e9ciser",
            "children": {
                "type_source": "Copie moderne"
            }
        },
        {
            "type": "edition",
            "value": "Ici reprise de L\u00e9opold Delisle, \u00ab Lettres in\u00e9dites d'Innocent III \u00bb, <i>Biblioth\u00e8que de l'Ecole des chartes<\/i>, 34, 1873, p. 397-419, n. 11, \u00e0 la p. 410 <a target=\"_blank\" href=\"https:\/\/www.persee.fr\/doc\/bec_0373-6237_1873_num_34_1_446509\">[en ligne]<\/a>."
        },
        {
            "type": "transcription",
            "value": "<?xml version=\"1.0\" encoding=\"UTF-8\"?>\nPetro, illustri regi Aragonie. Cum ad optinendam Majoricarum insulam viriliter te accingas, nobis humiliter supplicasti ut, si eandem in manibus luis dederit tibi Deus, sedem episcopalem ad divini nominis gloriam in eam instituere dignaremur. Nos autem tuis precibus inclinati, id duximus ex apostolica providentia pollicendum. Datum ut in alia.\n"
        },
        {
            "type": "date_libre",
            "value": "IV kalendas julii"
        },
        {
            "type": "regeste",
            "value": "Potthast, n. 2544."
        }
    ]
}