{
    "id": 24793,
    "name": "aposcripta-1931",
    "type": "acte",
    "url": "http:\/\/telma-chartes.irht.cnrs.fr\/aposcripta\/notice\/24793",
    "project_slug": "aposcripta",
    "project_label": "APOSCRIPTA \u2013 Lettres des papes",
    "user": "l_valliere",
    "last_update": "2020-10-19 16:27:34",
    "licence": "Attribution - Pas d\u2019Utilisation Commerciale - Partage dans les M\u00eames Conditions 3.0 France (CC BY-NC-SA 3.0 FR) ",
    "licence_url": "https:\/\/creativecommons.org\/licenses\/by-nc-sa\/3.0\/fr\/",
    "elements": [
        {
            "type": "pape",
            "value": "Cl\u00e9ment IV (1265-1268)"
        },
        {
            "type": "destinataire",
            "value": "Tous les archev\u00eaques, \u00e9v\u00eaques et abb\u00e9s, prieurs, doyens, archidiacres ainsi que prieurs de l'ordre des Pr\u00eacheurs, ministres, custodes ou gardiens de l'ordre Mineur et les autre personnes eccl\u00e9siastiques ou religieuses de toute la Chr\u00e9tient\u00e9."
        },
        {
            "type": "date_libre",
            "value": "V kalendas maii, anno primo"
        },
        {
            "type": "date",
            "value": " 1265\/04\/27",
            "children": {
                "date_deb_jour": "27",
                "date_deb_mois": "04",
                "date_deb_annee": "1265"
            },
            "range": {
                "date_apres": 12650427,
                "date_avant": 12650427
            }
        },
        {
            "type": "date_lieu",
            "value": "P\u00e9rouse"
        },
        {
            "type": "genre",
            "value": "Mandement (littere cum filo canapis)"
        },
        {
            "type": "analyse",
            "value": "Clemens IV universis scribit archiepiscopis et episcopis ac abbatibus, prioribus, decanis, archidiaconis, necnon prioribus ordinis Praedicatorum, ministris, custodibus seu guardianis ordinis Minorum, caeterisque personis ecclesiasticis vel religiosis, per omnia christiana regna mundi et provincias ad crucis negotium et ad colligenda subsidia pecuniaria pro Terrae sanctae subsidio a Sede apostolica deputatis et in posterum deputandis. Ad instar Urbani IV, eos monet ut ad executionem negotii pro Terra sancta suscepti diligenter procedant, pecuniam porro cunctaque alia collecta et colligenda AEgidio, archiepiscopo Tyrensi, et Johanni de Valencenis, domino Cayphae, Terrae Sanctae nuntiis, vel illis quos ad hoc deputaverint, integre assignent, papae rescripturi quid de hujusmodi subsidiis, et quantum, et quibus duxerint assignandum."
        },
        {
            "type": "sources_manuscrites",
            "value": "E<sup>1<\/sup>. FRANCE, Paris, Archives nationales, J 450\/136. Original scell\u00e9 (bulle de Cl\u00e9ment IV, sur cordelettes de chanvre. Au dos, en haut : <i>PRO TERRA SANCTA<\/i>).",
            "children": {
                "type_source": "Exp\u00e9dition"
            }
        },
        {
            "type": "sources_manuscrites",
            "value": "E<sup>2<\/sup>. FRANCE, Paris, Archives nationales, J 452 A\/1 (1). Original scell\u00e9 (bulle de Cl\u00e9ment IV, sur cordelettes de chanvre. Au dos, en haut : <i>PRO TERRA SANCTA<\/i>).",
            "children": {
                "type_source": "Exp\u00e9dition"
            }
        },
        {
            "type": "sources_manuscrites",
            "value": "E<sup>3<\/sup>. FRANCE, Paris, Archives nationales, J 452 A\/1 (2). Original scell\u00e9 (bulle de Cl\u00e9ment IV, sur cordelettes de chanvre. Au dos, en haut : <i>PRO TERRA SANCTA<\/i>).",
            "children": {
                "type_source": "Exp\u00e9dition"
            }
        },
        {
            "type": "sources_manuscrites",
            "value": "E<sup>4<\/sup>. FRANCE, Paris, Archives nationales, J 452 A\/1 (3). Original scell\u00e9 (bulle de Cl\u00e9ment IV, sur cordelettes de chanvre. Au dos, en haut : <i>PRO TERRA SANCTA<\/i>).",
            "children": {
                "type_source": "Exp\u00e9dition"
            }
        },
        {
            "type": "sources_manuscrites",
            "value": "E<sup>5<\/sup>. FRANCE, Paris, Archives nationales, J 452 A\/1 (4). Original scell\u00e9 (bulle de Cl\u00e9ment IV, sur cordelettes de chanvre. Au dos, en haut : <i>PRO TERRA SANCTA<\/i>).",
            "children": {
                "type_source": "Exp\u00e9dition"
            }
        },
        {
            "type": "sources_manuscrites",
            "value": "E<sup>6<\/sup>. FRANCE, Paris, Archives nationales, J 452 A\/1 (5). Original scell\u00e9 (bulle de Cl\u00e9ment IV, sur cordelettes de chanvre. Au dos, en haut : <i>PRO TERRA SANCTA<\/i>).",
            "children": {
                "type_source": "Exp\u00e9dition"
            }
        },
        {
            "type": "sources_manuscrites",
            "value": "E<sup>7<\/sup>. FRANCE, Paris, Archives nationales, J 452 A\/1 (6). Original scell\u00e9 (bulle de Cl\u00e9ment IV, sur cordelettes de chanvre. Au dos, en haut : <i>PRO TERRA SANCTA<\/i>).",
            "children": {
                "type_source": "Exp\u00e9dition"
            }
        },
        {
            "type": "sources_manuscrites",
            "value": "E<sup>8<\/sup>. FRANCE, Paris, Archives nationales, J 452 A\/1 (7). Original scell\u00e9 (bulle de Cl\u00e9ment IV, sur cordelettes de chanvre. Au dos, en haut : <i>PRO TERRA SANCTA<\/i>).",
            "children": {
                "type_source": "Exp\u00e9dition"
            }
        },
        {
            "type": "sources_manuscrites",
            "value": "E<sup>9<\/sup>. FRANCE, Paris, Archives nationales, J 452 A\/1 (8). Original scell\u00e9 (bulle de Cl\u00e9ment IV, sur cordelettes de chanvre. Au dos, en haut : <i>PRO TERRA SANCTA<\/i>).",
            "children": {
                "type_source": "Exp\u00e9dition"
            }
        },
        {
            "type": "sources_manuscrites",
            "value": "E<sup>10<\/sup>. FRANCE, Paris, Archives nationales, J 452 A\/1 (9). Original scell\u00e9 (bulle de Cl\u00e9ment IV, sur cordelettes de chanvre. Au dos, en haut : <i>PRO TERRA SANCTA<\/i>).",
            "children": {
                "type_source": "Exp\u00e9dition"
            }
        },
        {
            "type": "sources_manuscrites",
            "value": "E<sup>11<\/sup>. FRANCE, Paris, Archives nationales, J 452 A\/1 (10). Original scell\u00e9 (bulle de Cl\u00e9ment IV, sur cordelettes de chanvre. Au dos, en haut : <i>PRO TERRA SANCTA<\/i>).",
            "children": {
                "type_source": "Exp\u00e9dition"
            }
        },
        {
            "type": "sources_manuscrites",
            "value": "E<sup>12<\/sup>. FRANCE, Paris, Archives nationales, J 452 A\/1 (11). Original scell\u00e9 (bulle de Cl\u00e9ment IV, sur cordelettes de chanvre. Au dos, en haut : <i>PRO TERRA SANCTA<\/i>).",
            "children": {
                "type_source": "Exp\u00e9dition"
            }
        },
        {
            "type": "sources_manuscrites",
            "value": "E<sup>13<\/sup>. FRANCE, Paris, Archives nationales, J 452 A\/1 (12). Original scell\u00e9 (bulle de Cl\u00e9ment IV, sur cordelettes de chanvre. Au dos, en haut : <i>PRO TERRA SANCTA<\/i>).",
            "children": {
                "type_source": "Exp\u00e9dition"
            }
        },
        {
            "type": "sources_manuscrites",
            "value": "E<sup>14<\/sup>. FRANCE, Paris, Archives nationales, J 452 A\/1 (13). Original scell\u00e9 (bulle de Cl\u00e9ment IV, sur cordelettes de chanvre. Au dos, en haut : <i>PRO TERRA SANCTA<\/i>).",
            "children": {
                "type_source": "Exp\u00e9dition"
            }
        },
        {
            "type": "sources_manuscrites",
            "value": "E<sup>15<\/sup>. FRANCE, Paris, Archives nationales, J 452 A\/1 (14). Original scell\u00e9 (bulle de Cl\u00e9ment IV, sur cordelettes de chanvre. Au dos, en haut : <i>PRO TERRA SANCTA<\/i>).",
            "children": {
                "type_source": "Exp\u00e9dition"
            }
        },
        {
            "type": "sources_manuscrites",
            "value": "E<sup>16<\/sup>. FRANCE, Paris, Archives nationales, J 452 A\/1 (15). Original scell\u00e9 (bulle de Cl\u00e9ment IV, sur cordelettes de chanvre. Au dos, en haut : <i>PRO TERRA SANCTA<\/i>).",
            "children": {
                "type_source": "Exp\u00e9dition"
            }
        },
        {
            "type": "sources_manuscrites",
            "value": "E<sup>17<\/sup>. FRANCE, Paris, Archives nationales, J 452 A\/1 (16). Original scell\u00e9 (bulle de Cl\u00e9ment IV, sur cordelettes de chanvre. Au dos, en haut : <i>PRO TERRA SANCTA<\/i>).",
            "children": {
                "type_source": "Exp\u00e9dition"
            }
        },
        {
            "type": "sources_manuscrites",
            "value": "E<sup>18<\/sup>. FRANCE, Paris, Archives nationales, J 452 A\/1 (17). Original scell\u00e9 (bulle de Cl\u00e9ment IV, sur cordelettes de chanvre. Au dos, en haut : <i>PRO TERRA SANCTA<\/i>).",
            "children": {
                "type_source": "Exp\u00e9dition"
            }
        },
        {
            "type": "sources_manuscrites",
            "value": "E<sup>19<\/sup>. FRANCE, Paris, Archives nationales, J 452 A\/1 (18). Original scell\u00e9 (bulle de Cl\u00e9ment IV, sur cordelettes de chanvre. Au dos, en haut : <i>PRO TERRA SANCTA<\/i>).",
            "children": {
                "type_source": "Exp\u00e9dition"
            }
        },
        {
            "type": "sources_manuscrites",
            "value": "E<sup>20<\/sup>. FRANCE, Paris, Archives nationales, J 452 A\/1 (19). Original scell\u00e9 (bulle de Cl\u00e9ment IV, sur cordelettes de chanvre. Au dos, en haut : <i>PRO TERRA SANCTA<\/i>).",
            "children": {
                "type_source": "Exp\u00e9dition"
            }
        },
        {
            "type": "sources_manuscrites",
            "value": "E<sup>21<\/sup>. FRANCE, Paris, Archives nationales, J 452 A\/1 (20). Original scell\u00e9 (bulle de Cl\u00e9ment IV, sur cordelettes de chanvre. Au dos, en haut : <i>PRO TERRA SANCTA<\/i>).",
            "children": {
                "type_source": "Exp\u00e9dition"
            }
        },
        {
            "type": "sources_manuscrites",
            "value": "E<sup>22<\/sup>. FRANCE, Paris, Archives nationales, J 452 A\/1 (21). Original scell\u00e9 (bulle de Cl\u00e9ment IV, sur cordelettes de chanvre. Au dos, en haut : <i>PRO TERRA SANCTA<\/i>).",
            "children": {
                "type_source": "Exp\u00e9dition"
            }
        },
        {
            "type": "regeste",
            "value": "\u00c9lie Berger, <i>Layettes du Tr\u00e9sor des chartes<\/i>, IV, Paris : Henri Plon, 1902, n. 4997, p. 124 <a target=\"_blank\" href=\"http:\/\/digi.ub.uni-heidelberg.de\/diglit\/teulet1902bd4\/0210\"> [en ligne]<\/a>, <a target=\"_blank\"href=\"https:\/\/francearchives.fr\/fr\/facomponent\/f15cd0fac344f5ce19ff788ce39b83fb3d116b8a\">[num\u00e9ris\u00e9e sur le site des Archives de France]<\/a>, et n. 5003, p. 125, <a target=\"_blank\" href=\"http:\/\/digi.ub.uni-heidelberg.de\/diglit\/teulet1902bd4\/0211\"> [en ligne]<\/a>, <a target=\"_blank\"href=\"https:\/\/francearchives.fr\/fr\/facomponent\/7874f5409c19708006726c0c983fadf72b734541\">[num\u00e9ris\u00e9e sur le site des Archives de France]<\/a>, d'apr\u00e8s E<sup>1<\/sup> \u00e0 E<sup>22<\/sup>."
        },
        {
            "type": "regeste",
            "value": "\u00c9douard Jordan, <i>Les registres de Cl\u00e9ment IV (1265-1268)<\/i>, Paris, 1893-1945, n. 1559, d'apr\u00e8s E<sup>1<\/sup> \u00e0 E<sup>22<\/sup>."
        },
        {
            "type": "regeste",
            "value": "Bernard Barbiche, <i>Les actes pontificaux originaux des Archives Nationales de Paris<\/i>, Cit\u00e9 du Vatican, 1975-1982, II, n. 1265, p. 81-82 d'apr\u00e8s E<sup>1<\/sup> \u00e0 E<sup>22<\/sup>."
        },
        {
            "type": "transcription",
            "value": "<?xml version=\"1.0\" encoding=\"UTF-8\"?>\nEtsi ad universas... Datum Perusii, V kalendas maii, pontificatus nostri anno primo.\n"
        },
        {
            "type": "remarques",
            "value": "\u00e0 \u00e9diter - Inconnue de Potthast - Absente des registres"
        }
    ]
}