{
    "id": 26352,
    "name": "aposcripta-3431",
    "type": "acte",
    "url": "http:\/\/telma-chartes.irht.cnrs.fr\/aposcripta\/notice\/26352",
    "project_slug": "aposcripta",
    "project_label": "APOSCRIPTA \u2013 Lettres des papes",
    "user": "lettrespontificalesadmin",
    "last_update": "2020-10-19 16:27:59",
    "licence": "Attribution - Pas d\u2019Utilisation Commerciale - Partage dans les M\u00eames Conditions 3.0 France (CC BY-NC-SA 3.0 FR) ",
    "licence_url": "https:\/\/creativecommons.org\/licenses\/by-nc-sa\/3.0\/fr\/",
    "elements": [
        {
            "type": "pape",
            "value": "Adrien IV (1154-1159)"
        },
        {
            "type": "date_lieu",
            "value": "Lateran"
        },
        {
            "type": "date_libre",
            "value": "1157\u20131159 Februar 27"
        },
        {
            "type": "date",
            "value": "apr\u00e8s 1157\/02\/27 - avant 1159\/02\/27",
            "children": {
                "date_deb_annee": "1157",
                "date_deb_mois": "02",
                "date_deb_jour": "27",
                "date_deb_type": "apr\u00e8s",
                "date_fin_annee": "1159",
                "date_fin_mois": "02",
                "date_fin_jour": "27",
                "date_fin_type": "avant"
            },
            "range": {
                "date_apres": 11570227,
                "date_avant": 11590227
            }
        },
        {
            "type": "analyse",
            "value": "Hadrian IV best\u00e4tigt dem Abte Wilhelm von Auchy-les-Moines (D. T\u00e9rouane) die Kirche von Mailly (Aube), welche seinem Kloster vom Bischofe Hatto von Troyes \u00fcberwiesen worden<a class=\"note\" href=\"#note-1\">1<\/a>."
        },
        {
            "type": "transcription",
            "value": "<?xml version=\"1.0\" encoding=\"UTF-8\"?>\nAdrianus episcopus servus servorum dei dilecto filio Willelmo, abbati monasterii sancti Silvini de Auchi, salutem et apostolicam benedictionem. Ea, que a fratribus nostris episcopis piis et religiosis locis pietatis intuitu conferuntur, in sua debent stabilitate consistere, et ne ab aliquo auferri valeant vel minui, apostolice sedis munimine convenit roborari. Ea propter, dilecte in domino fili .W(illelme), tuis iustis postulationibus grato concurrentes assensu, ecclesiam de Malli cum omnibus pertinentiis suis, quam Atto, bone memorie Trecensis quondam episcopus2, monasterio tuo noscitur canonice contulisse et scripto proprio corroborasse, tibi tuisque successoribus et per vos iam dicto monasterio confirmamus. Statuentes, ut nulli omnino hominum liceat, hanc paginam nostre confirmationis infringere vel ei aliquatenus contraire. Si quis autem hoc attemptare presumpserit, indignationem omnipotentis dei et beatorum Petri et Pauli apostolorum eius se noverit incursurum. \u2014 Dat. Laterani, iii Kl. Mart.\n"
        },
        {
            "type": "edition",
            "value": "Julius von Pflugk-Harttung, <i>Acta pontificum Romanorum inedita<\/i>, T\u00fcbingen, 1880, I, n. 243, p. 227"
        },
        {
            "type": "sources_manuscrites",
            "value": "Abschrift vom 13 Jahrh. des Cart. de l\u2019abbaye d\u2019Auchy-les-Moines p. 20, im Archive des D\u00e9p. Pas-de-Calais zu Arras."
        },
        {
            "type": "remarques",
            "value": ""
        },
        {
            "type": "notes_historiques",
            "value": "<i>Vergl. die Urk. v. 5 Febr. 1123.<\/i>",
            "children": {
                "numero_note": "1"
            }
        },
        {
            "type": "notes_historiques",
            "value": "<i>Hatto, Bischof von Troyes, 1123\u20131145.<\/i>",
            "children": {
                "numero_note": "2"
            }
        },
        {
            "type": "genre",
            "value": "Bulle"
        }
    ]
}