{
    "id": 141899,
    "name": "aposcripta-4799",
    "type": "acte",
    "url": "http:\/\/telma-chartes.irht.cnrs.fr\/aposcripta\/notice\/141899",
    "project_slug": "aposcripta",
    "project_label": "APOSCRIPTA \u2013 Lettres des papes",
    "user": "b_oury",
    "last_update": "2020-10-19 16:38:36",
    "licence": "Attribution - Pas d\u2019Utilisation Commerciale - Partage dans les M\u00eames Conditions 3.0 France (CC BY-NC-SA 3.0 FR) ",
    "licence_url": "https:\/\/creativecommons.org\/licenses\/by-nc-sa\/3.0\/fr\/",
    "elements": [
        {
            "type": "pape",
            "value": "Innocent II (1130-1143)"
        },
        {
            "type": "destinataire",
            "value": "L'abb\u00e9 du monast\u00e8re San Savino de Piacenza Laurent et ses successeurs."
        },
        {
            "type": "date_libre",
            "value": "II idus julii, indictione X, MCXXXIII, anno III"
        },
        {
            "type": "date",
            "value": " 1132\/07\/14",
            "children": {
                "date_deb_jour": "14",
                "date_deb_mois": "07",
                "date_deb_annee": "1132"
            },
            "range": {
                "date_apres": 11320714,
                "date_avant": 11320714
            }
        },
        {
            "type": "date_lieu",
            "value": "Cr\u00e9mone"
        },
        {
            "type": "genre",
            "value": "Privil\u00e8ge solennel"
        },
        {
            "type": "analyse",
            "value": "Innocenz\u00a0II best\u00e4tigt dem Abte Laurentius von San Savino di Piacenza die Besitzth\u00fcmer und Rechte seines Klosters<a class=\"note\" href=\"#note-1\">1<\/a>."
        },
        {
            "type": "sources_manuscrites",
            "value": "B. ITALIE, Piacenza, Biblioteca Comunale, (St\u00fcck eines Chartulars) fol.\u00a016, aus dem Nachlasse des Grafen Palastrelli. Abschrift vom 13 Jahrhunderte",
            "children": {
                "type_source": "Cartulaire"
            }
        },
        {
            "type": "edition",
            "value": "Ici reprise de Julius von Pflugk-Harttung, <i>Acta pontificum Romanorum inedita. Urkunden der P\u00e4pste vom Jahre 748 bis zum Jahre 1197<\/i>, II, Stuttgart : W. Kohlhammer, 1884 <a target=\"_blank\" href=\" https:\/\/archive.org\/details\/actapontificumr00jahrgoog\/page\/n280\"> [en ligne]<\/a>, n. 309, p. 269-270."
        },
        {
            "type": "regeste",
            "value": "Philippe Jaff\u00e9, Wilhelm Wattenbach, Samuel Loewenfeld, Ferdinand Kaltenbrunner, Paul Ewald, <i>Regesta pontificum Romanorum ab condita ecclesia ad annum post Christum natum MCXCVIII<\/i>, 2<sup>e<\/sup> \u00e9d. Leipzig, : Veit, 1885-1888, 2 vol., n. 7582 <a target=\"_blank\" href= \"https:\/\/gallica.bnf.fr\/ark:\/12148\/bpt6k55983718\/f893.image\">[en ligne]<\/a>."
        },
        {
            "type": "transcription",
            "value": "<?xml version=\"1.0\" encoding=\"UTF-8\"?>\nInnocentius episcopus, servus servorum Dei, dilecto filio Laurentio, abbati monasterii sancti Savini, quod secus Placentiam situm est, eiusque successoribus regulariter substituendis, in perpetuum.  Desiderium, quod ad religionis propositum et animarum salutem pertinere monstratur, auctore deo sine aliqua est dilatione complendum. Proinde, dilecte in domino fili, Laurenti abbas, tuis rationabilibus postulationibus assensum prebentes, beati Savini monasterium, cui deo auctore preesse dinosceris, apostolice Sedis privilegio communimus. Statuimus enim, ut quascumque possessiones, quecumque bona idem monasterium in presentiarum iuste et legitime possidet, aut in futurum concessione pontificum, largitione regum vel principum, oblatione fidelium, seu aliis iustis modis, prestante domino, poterit adipisci, firma tibi tuisque successoribus et illibata permaneant. In quibus hec propriis (nominibus) annotanda subiunximus\u00a0: in Placentina civitate ecclesiam sancte Marie, ecclesiam sancte Victorie, et unum hospitale cum omnibus pertinentiis suis, ecclesiam sancti Bartholomei, ecclesiam sancte Trinitatis, ecclesiam sancti Ambrosii cum hospitali, ecclesiam sancti Salvatoris cum quodam hospitali et suis omnibus pertinentiis, curiam Robiani cum duabus ecclesiis, decimis et omnibus ad se pertinentibus. Quicquid etiam infra Castellum Arcuatum et extra possidetis vobis presenti scripto firmamus, castrum Besen\u00e7onis cum duabus ecclesiis et omnibus ad se pertinentibus, in curte Albiani duas ecclesias cum omnibus pertinentiis, in Pontenuro unam ecclesiam cum suis pertinentiis, curiam Paterne cum duabus ecclesiis, curiam de Turre cum una ecclesia et suis pertinentiis, curiam Conii cum ecclesia et aliis, que ibi iuste possidetis, in marca Ianuensi in valle scilicet Segestina monasterium sancte Victorie cum tribus capellis, quicquid insuper in ecclesiis (et) decimis rationabili discretione in Montearsitio frater noster bone recordationis Sigefredus, Placentinus episcopus2, vestro monasterio noscitur contulisse. In Visilano ecclesiam sancti Georgii, et quecumque alia ibi habetis, curiam Regiam cum ecclesia sancti Savini et omnibus ad eam pertinentibus, curiam Fabiani cum ecclesia sancti Stefani, curiam sanctorum Naboris et Felicis cum ecclesia sancti Savini, in Tavernaco ecclesiam sancte Marie, in curia Fontane petrose ecclesiam sanctorum Savini et Gregorii3 cum aliis omnibus, que iuste inibi possidetis, in Supra rivo ecclesiam sancte Marie cum decimis, hospitale de Trebia cum ecclesia sancti Nicolai, curiam Mose cum ecclesia sancti Savini et omnibus ad ipsam pertinentibus, decimas quoque vinee et brolii episcopi et alterius vinee, que est extra portam sancti Antonini, et piscationes, quas habetis in Pado, a portu Portario usque ad ora Rivi frigidi. Decernimus ergo, ut nulli omnino hominum liceat, prenominatum cenobium temere perturbare, aut eius possessiones auferre vel ablatas retinere, minuere aut aliquibus vexationibus fatigare, sed omnia integra conserventur eorum, pro quorum gubernatione et sustentatione concessa sunt, usibus profutura. Sepulturam sane ipsius loci omnino liberam esse sancimus, ut eorum, qui se illic sepeliri deliberaverint, devotioni et extreme voluntati, nisi forte excommunicati sint, nullus obsistat, salvo nimirum iure parochiane ecclesie. Obeunte vero te, nunc eiusdem loci abbate, vel tuorum quolibet successorum, [nullus] ibi qualibet surreptionis astutia seu violentia preponatur, nisi quem fratres communi consensu, vel fratrum pars consilii sanioris secundum Dei timorem et beati Benedicti regulam previderint eligendum. Si qua igitur in futurum ecclesiastica secularisve persona, hanc nostre constitutionis paginam sciens, contra eam temere venire temptaverit, secundo terciove commonita, si non satisfactione congrua emendaverit, potestatis honorisque sui dignitate careat, reamque se divino iudicio existere de perpetrata iniquitate cognoscat, et a sacratissimo corpore ac sanguine Dei et domini, redemptoris nostri Iesu Christi, aliena fiat, atque in extremo examine districte ultioni subiaceat. Conservantes autem, intervenientibus beatorum apostolorum Petri et Pauli (meritis), omnipotentis Dei gratiam et eterne vite premia consequantur. Amen. Amen. Amen. [Rota] Ego Innocentius catholice episcopus ss. [Monogramme] \u2020 Ego Anselmus presbiter cardinalis tit. sancti Laurentii in Lucina ss. \u2020 Ego Iorelmusa presbiter cardinalis tit. sancte Cecilie ss. \u2020 Ego Lucas presbiter cardinalis tit. sanctorum Iohannis et Pauli ss. \u2020 Ego Romanus diaconus cardinalis sancte Marie in porticu ss. \u2020 Ego Gregorius diaconus cardinalis sanctorum Sergii et Bachi ss. \u2020 Ego Stefanus diaconus cardinalis sancte Lucie in Horferib ss. \u2020 Ego Otto diaconus cardinalis sancti Georgii ss. \u2020 Ego Guido diaconus cardinalis sanctorum Cosme et Damiani ss. Dat. Cremone per manum Aimerici, sancte Romane Ecclesie diaconi cardinalis et cancellariii II idus iulii, indictione X, Incarnationis dominice anno MCXXXIII, pontificatus vero domni Innocentii pape II anno III.\n"
        },
        {
            "type": "apparat_critique",
            "value": "<i>Kommt in verschiedenen Namensformen vor, von denen einige auf mangelhaftem Lesen beruhen werden\u00a0<\/i>: Ioselmus, Goselmus, Goselinus, Iozelinus, Sozilinus. <i>Offenbar sind<\/i> Iozelinus <i>und <\/i>Goselinus <i>die besten Formen<\/i>",
            "children": {
                "numero_note": "a"
            }
        },
        {
            "type": "apparat_critique",
            "value": "<i>lies<\/i>\u00a0: Horbea (Orphea).",
            "children": {
                "numero_note": "b"
            }
        },
        {
            "type": "notes_historiques",
            "value": "Poggiali, <i>Mem. Stor. di Piacenza\u00a0IV<\/i>, p.\u00a0119. Vergl. die Urk. vom 26\u00a0M\u00e4rz 1179. Der Herr Bibliothekar Avv. Raffaele Gemmi war sehr entgegenkommend.",
            "children": {
                "numero_note": "1"
            }
        },
        {
            "type": "notes_historiques",
            "value": "Siegfried, Bischof von Piacenza, c.\u00a0997\u20131031.",
            "children": {
                "numero_note": "2"
            }
        },
        {
            "type": "notes_historiques",
            "value": "Jetzt ist die Kirche von Funtana Pradosa den Heiligen S. Savino und S. Antonio geweiht\u00a0; in der Urk. C\u00f6lestins\u00a0III\u00a0: <i>in curia Fontane Petrose ecclesiam sancti Savini et ecclesiam sancti Gregorii<\/i>.",
            "children": {
                "numero_note": "3"
            }
        },
        {
            "type": "remarques",
            "value": "Rota, Monogramm, Zeugenkreuze etc. der Originalvorlage gut nachgebildet\u00a0; danach ist das Monogramm Nr.\u00a02c"
        }
    ]
}