{
    "id": 25650,
    "name": "aposcripta-2747",
    "type": "acte",
    "url": "http:\/\/telma-chartes.irht.cnrs.fr\/aposcripta\/notice\/25650",
    "project_slug": "aposcripta",
    "project_label": "APOSCRIPTA \u2013 Lettres des papes",
    "user": "lettrespontificalesadmin",
    "last_update": "2020-10-19 16:27:47",
    "licence": "Attribution - Pas d\u2019Utilisation Commerciale - Partage dans les M\u00eames Conditions 3.0 France (CC BY-NC-SA 3.0 FR) ",
    "licence_url": "https:\/\/creativecommons.org\/licenses\/by-nc-sa\/3.0\/fr\/",
    "elements": [
        {
            "type": "pape",
            "value": "Jean XXI (1276-1277)"
        },
        {
            "type": "destinataire",
            "value": "( )",
            "children": {
                "numero_note": "0"
            }
        },
        {
            "type": "date_lieu",
            "value": "Viterbe"
        },
        {
            "type": "date_libre",
            "value": "1277, 9 janvier"
        },
        {
            "type": "date",
            "value": " 1277\/01\/09",
            "children": {
                "date_deb_annee": "1277",
                "date_deb_mois": "01",
                "date_deb_jour": "09"
            },
            "range": {
                "date_apres": 12770109,
                "date_avant": 12770109
            }
        },
        {
            "type": "analyse",
            "value": "X pape<br\/>CONSERVATORIA JOHANNIS PAP\u00c6 XXI, ABBATI SANCTI ANDRE\u00c6 AVENIONENSIS, ADVERSUS MOLESTATORES MONASTERIORUM ORDINIS CLUNIACENSIS IN ARELATENSI PROVINCIA. CONSERVATORIA IOANNIS PAP\u00c6 XXI. directa Abbati sancti Andre\u00e6 Avenionensis, adversus molestatores Monasteriorum Ordinis Clun. in Arelatensi Provincia."
        },
        {
            "type": "transcription",
            "value": "<?xml version=\"1.0\" encoding=\"UTF-8\"?>\n[Ioannes Espiscopus servus servorum Dei, dilecto filio Abbati Monasterii sancti Andre\u00e6 Avenionensis Di\u0153cesis, salutem et Apostolicam benedictionem. Pium esse dignoscitur ut glotiantibus in malitia p\u0153nis taliter obsistatur, quod compressis eorum insultibus vacantes divino cultui libentius possint sub observatione mandatorum Domini delectari. Cum itaque dilecti filii Abbas, et Conventus Monasterii Cluniacensis, sicut ex parte ipsorum fuit propositum coram nobis, ac eorum Abbates, Priores, Conventus, et Monachi Monasteriorum, Prioratuum, et membrorum Cluniacensis Ordinis, eidem Cluniacensi Monasterio in Arelatensi Provincia subjectorum, \u00e0 nonnullis, qui nomen Domini in vacuum accipere non formidant, super bonis suis multipliciter molestentur; nos volentes eorumdem Abbatum, Priorum, Conventuum, et Monachorum providere quieti, et molestatorum ipsorum malitiis obviare, discretioni tu\u00e6 per Apostolica scripta mandamus, quatenus pr\u00e6dictis Abbatibus, Prioribus, Conventibus, et Monachis contra raptorum, pr\u00e6donum, et invasorum audaciam opportuni favoris assistens pr\u00e6sidio, non permittas eos in personis, ac Prioratibus, domibus, et aliis bonis suis \u00e0 talibus molestari; molestatores hujusmodi per censuram Ecclesiasticam appellatione postposita compescendo, nonobstante constitutione de duabus dietis edita in Concilio generali, dummodo ultra tertiam, vel quartam aliqui extra suam Di\u0153cesim auctoritate pr\u00e6sentium non trahantur; attentius provisurus ne de iis, qu\u00e6 caus\u00e6 cognitionem exigunt, et qu\u00e6 personas, Prioratus, Domos, et bona non contingunt ipsorum, te aliquatenus intromittas. Nos enim, si secus pr\u00e6sumpseris, tam pr\u00e6sentes litteras, qu\u00e0m etiam processum, quem per te illarum auctoritate haberi contigerit, omnin\u00f2 carere viribus, ac nullius fore decernimus firmitatis. Hujusmodi ergo mandatum nostrum sic prudenter et fideliter exequaris, ut ejus fines quomolibet non excedas: pr\u00e6sentibus post triennium minim\u00e8 valituris. Datum Viterbii V. Idus Januarii, Pontificatus nostri anno primo.]\n"
        },
        {
            "type": "edition",
            "value": "Ici tir\u00e9e du projet <i>CBMA - Corpus Burgundiae Medii Aevi<\/i>, document 6702. Site du projet Corpus de la Bourgogne du Moyen \u00c2ge, [En ligne] <a href=\"http:\/\/www.cbma-project.eu\" target=\"_blank\">http:\/\/www.cbma-project.eu<\/a>  "
        },
        {
            "type": "sources_manuscrites",
            "value": "\u00e0 renseigner."
        },
        {
            "type": "edition_autre",
            "value": "Ici reprise de Auguste Bernard, Alexandre Bruel, <i>Recueil des chartes de l'abbaye de Cluny<\/i>. VI. <i>1211-1300<\/i>, Paris\u00a0: Imprimerie nationale, 1903 <a href=\"http:\/\/gallica.bnf.fr\/ark:\/12148\/bpt6k367019?rk=21459;2\" target=\"_blank\">[en ligne]<\/a>, p. 657, n\u00b0 5220.",
            "children": {
                "numero_note": "0"
            }
        },
        {
            "type": "edition_autre",
            "value": "Pierre Simon, <i>Bullarium sacri Ordinis cluniacensis, complectens plurima privilegia per summos pontifices tum ipsi cluniacensi abbatiae, tum ei subditis monasteriis hactenus concessa<\/i>, Lyon : Jullieron, 1680, p. 141, col. 1-2",
            "children": {
                "numero_note": "1"
            }
        },
        {
            "type": "genre",
            "value": "Mandement (littere cum filo canapis)"
        }
    ]
}