{
    "id": 148310,
    "name": "aposcripta-7924",
    "type": "acte",
    "url": "http:\/\/telma-chartes.irht.cnrs.fr\/aposcripta\/notice\/148310",
    "project_slug": "aposcripta",
    "project_label": "APOSCRIPTA \u2013 Lettres des papes",
    "user": "j_theryastruc",
    "last_update": "2020-10-19 16:39:44",
    "licence": "Attribution - Pas d\u2019Utilisation Commerciale - Partage dans les M\u00eames Conditions 3.0 France (CC BY-NC-SA 3.0 FR) ",
    "licence_url": "https:\/\/creativecommons.org\/licenses\/by-nc-sa\/3.0\/fr\/",
    "elements": [
        {
            "type": "pape",
            "value": "Nicolas V (1447-1455)"
        },
        {
            "type": "destinataire",
            "value": "Le cardinal d'Albano Pierre de Foix le vieux, vicaire g\u00e9n\u00e9ral au temporel du Comtat Venaissin"
        },
        {
            "type": "date_libre",
            "value": "millesimo quadringentesimo quadragesimo septimo, quinto nonas octobris, pontificatus nostri anno primo"
        },
        {
            "type": "date",
            "value": "1447\/10\/03",
            "children": {
                "date_deb_annee": "1447",
                "date_deb_mois": "10",
                "date_deb_jour": "03"
            },
            "range": {
                "date_apres": 14471003,
                "date_avant": 14471003
            }
        },
        {
            "type": "date_lieu",
            "value": "Rome, Saint-Pierre"
        },
        {
            "type": "genre",
            "value": "Lettre, g\u00e9n\u00e9ral (apr\u00e8s 1198, littere cum filo canapis)"
        },
        {
            "type": "analyse",
            "value": "Nicolas V accorde au cardinal Pierre de Foix, son l\u00e9gat, le pouvoir de donner une indulgence d'un an \u00e0 ceux qui assisteront aux messes solennelles qu'il dira ou fera dire devant lui."
        },
        {
            "type": "sources_manuscrites",
            "value": "E. CIT\u00c9 DU VATICAN, Archivio Segreto Vaticano... Mentions hors-teneur : <i>Pe. de Noxeto. P. Philippron. Gratis pro persona d. cardinalis. Registrata in camera apostolica. Cousin.<\/i>",
            "children": {
                "type_source": "Exp\u00e9dition"
            }
        },
        {
            "type": "edition",
            "value": "Ici reprise de Victor Dubarat, \u00ab Bulles pontificales relatives aux cardinal Pierre de Foix, Le vieux (XV<sup>e<\/sup> si\u00e8cle) \u00bb, <i>Bulletin de la Soci\u00e9t\u00e9 des sciences, lettres et arts de Pau<\/i>, II<sup>e<\/sup> s\u00e9rie, 31, 1903, p. 233-261, aux p. 247-248 <a target=\"_blank\" href=\"https:\/\/gallica.bnf.fr\/ark:\/12148\/bpt6k34283m\/f252.item\"> [en ligne]<\/a>. A compl\u00e9ter"
        },
        {
            "type": "transcription",
            "value": "<?xml version=\"1.0\" encoding=\"UTF-8\"?>\nNicolaus episcopus, servus servorum Dei, venerabili fratri Petro, episcopo Albanensi, apostolice Sedis legato, salutem et apostolicam benedictionem. Cum te in civitate nostra Avinionensi et certis aliis civitatibus, terris ac locis Sedis apostolice legatum de latere constituendum duxerimus, nos, optantes ut spiritualium largitione munerum incolas et habitatores partium earumdem reddas Deo et Sedi predicte plus devotas... ...ibidem presentibus, auctoritate apostolica annum unum de iniunctis eis penitentiis relaxare valeas, plenam et liberam tenore presentium concedimus facultatem.Datum Rome, apud Sanctum Petrum, anno Incarnationis dominice millesimo quadringentesimo quadragesimo septimo, quinto nonas octobris, pontificatus nostri anno primo.\n"
        }
    ]
}