{
    "id": 20626,
    "name": "aposcripta-613",
    "type": "acte",
    "url": "http:\/\/telma-chartes.irht.cnrs.fr\/aposcripta\/notice\/20626",
    "project_slug": "aposcripta",
    "project_label": "APOSCRIPTA \u2013 Lettres des papes",
    "user": "lettrespontificalesadmin",
    "last_update": "2020-10-19 16:26:51",
    "licence": "Attribution - Pas d\u2019Utilisation Commerciale - Partage dans les M\u00eames Conditions 3.0 France (CC BY-NC-SA 3.0 FR) ",
    "licence_url": "https:\/\/creativecommons.org\/licenses\/by-nc-sa\/3.0\/fr\/",
    "elements": [
        {
            "type": "pape",
            "value": "Alexandre II (1061-1073)"
        },
        {
            "type": "date_lieu",
            "value": "n.c."
        },
        {
            "type": "analyse",
            "value": "Alexander\u00a0II Odolrico episcopo Paduano respondet super penitentia Albizonis presbyteri, qui cum matre sua fornicatus sit."
        },
        {
            "type": "transcription",
            "value": "<?xml version=\"1.0\" encoding=\"UTF-8\"?>\nOdolrico episcopo1. Rogabas ut presbitero Albizoni presentium latori misericordiam impedentes officium misse concederemus. Significasti enim eum cum matre sua fornicatum fuisse et, ob hoc penitentia quindecim annorum accepta, septem iam annos explevisse, octo quidem adhuc superesse ; ex quibus unum sibi causa misericordie tueque dilectionis precibus indulsimus. Ceterum, licet iuxta canonum rigorem a sacerdotioa debeat omninob deponi vel, si qua ei misericordia sit impendenda pro merito religiosae conversationis, post peractam debeat penitentiam consequi, hoc tue discretionis arbitrio, solo respectu misericordiae, apostolica auctoritate relinquimus\u00a0; presertim cum per te valeat clarius inquiric quales penitentie exhibeat fructus quantumque utilitati Ecclesie sit necessarius.\n"
        },
        {
            "type": "edition",
            "value": "Ici reprise de Samuel Loewenfeld, <i>Epistolae pontificum romanorum ineditae<\/i>, Leipzig : Veit et Comp., 1885, n. 114, p. 57."
        },
        {
            "type": "sources_manuscrites",
            "value": "Col. Brit. Alex. ep.\u00a077, l.\u00a0l. fol.\u00a050<sup>b<\/sup>.",
            "children": {
                "type_source": "Collection canonique, collection de d\u00e9cr\u00e9tales"
            }
        },
        {
            "type": "notes_historiques",
            "value": "Paduano.",
            "children": {
                "numero_note": "1"
            }
        },
        {
            "type": "apparat_critique",
            "value": "serdotio <i>c.<\/i>",
            "children": {
                "numero_note": "a"
            }
        },
        {
            "type": "apparat_critique",
            "value": "omino <i>c.<\/i>",
            "children": {
                "numero_note": "b"
            }
        },
        {
            "type": "apparat_critique",
            "value": "<i>sic iam in ms. correctum ex<\/i> inquirere.",
            "children": {
                "numero_note": "c"
            }
        },
        {
            "type": "date",
            "value": "apr\u00e8s 1066 - avant 1067",
            "children": {
                "date_deb_annee": "1066",
                "date_deb_type": "apres",
                "date_fin_annee": "1067",
                "date_fin_type": "avant"
            },
            "range": {
                "date_apres": 10660000,
                "date_avant": 10679999
            }
        },
        {
            "type": "genre",
            "value": "Lettre, g\u00e9n\u00e9ral (avant 1198)"
        },
        {
            "type": "destinataire",
            "value": "L'\u00e9v\u00eaque de Padoue Odolrico"
        }
    ]
}