{
    "id": 148700,
    "name": "aposcripta-6249",
    "type": "acte",
    "url": "http:\/\/telma-chartes.irht.cnrs.fr\/aposcripta\/notice\/148700",
    "project_slug": "aposcripta",
    "project_label": "APOSCRIPTA \u2013 Lettres des papes",
    "user": "j_theryastruc",
    "last_update": "2020-10-19 16:39:48",
    "licence": "Attribution - Pas d\u2019Utilisation Commerciale - Partage dans les M\u00eames Conditions 3.0 France (CC BY-NC-SA 3.0 FR) ",
    "licence_url": "https:\/\/creativecommons.org\/licenses\/by-nc-sa\/3.0\/fr\/",
    "elements": [
        {
            "type": "pape",
            "value": "Gr\u00e9goire X (1271-1276)"
        },
        {
            "type": "destinataire",
            "value": "Le cardinal de Sainte-C\u00e9cile Simon de Brie, l\u00e9gat du Si\u00e8ge apostolique",
            "children": {
                "numero_note": "0"
            }
        },
        {
            "type": "date_lieu",
            "value": "Lyon"
        },
        {
            "type": "date_libre",
            "value": "kalendas augusti, anno tercio"
        },
        {
            "type": "date",
            "value": "1274\/08\/14",
            "children": {
                "date_deb_annee": "1274",
                "date_deb_mois": "08",
                "date_deb_jour": "14"
            },
            "range": {
                "date_apres": 12740814,
                "date_avant": 12740814
            }
        },
        {
            "type": "analyse",
            "value": "\t\n\nSimoni, tituli s. Caeciliae presbytero cardinali, apostolicae sedis legato, mandat ut decimam in terris suae legationis colligat per se vel per alium seu alios [Guiraud]."
        },
        {
            "type": "transcription",
            "value": "<?xml version=\"1.0\" encoding=\"UTF-8\"?>\nEidem legato. Cum pro negocio Terre sancte in civitate et dyocesi Lugdunensibus plene legationis officium... Datum Lugduni, kalendas augusti, pontificatus nostri anno tercio.\n"
        },
        {
            "type": "edition",
            "value": "A faire \u00e0 partir des copies dans Baluze."
        },
        {
            "type": "sources_manuscrites",
            "value": "F<sup>1<\/sup>. FRANCE, Paris, Biblioth\u00e8que nationale de France, Collection Baluze 389, n. 397<a target=\"_blank\" href=\"https:\/\/gallica.bnf.fr\/ark:\/12148\/btv1b9001546b\/f49.item.zoom\"> [en ligne]<\/a>. Copie dans un acte de l'archev\u00eaque de Rouen dat\u00e9 du 11 novembre 1279.",
            "children": {
                "type_source": "Autre copie m\u00e9di\u00e9vale"
            }
        },
        {
            "type": "genre",
            "value": "Mandement (littere cum filo canapis)"
        },
        {
            "type": "regeste",
            "value": "Jean Guiraud, <i>Registre de Gr\u00e9goire X<\/i>, n. 499."
        },
        {
            "type": "remarques",
            "value": "Inconnue de Potthast (une lettre r\u00e9pertori\u00e9e \u00e0 cette date, n. 20904)."
        },
        {
            "type": "sources_manuscrites",
            "value": "R.  CIT\u00c9 DU VATICAN, Archivio segreto Vaticano, <i>Registra Vaticana<\/i> 37, n. 22, fol. 186.",
            "children": {
                "type_source": "Registre de la chancellerie apostolique"
            }
        },
        {
            "type": "sources_manuscrites",
            "value": "F<sup>2<\/sup>. FRANCE, Paris, Biblioth\u00e8que nationale de France, Collection Baluze 389, n. 398<a target=\"_blank\" href=\"https:\/\/gallica.bnf.fr\/ark:\/12148\/btv1b9001546b\/f52.item.zoom\"> [en ligne]<\/a>. Copie dans un acte de l'archev\u00eaque de Narbonne dat\u00e9 du 2 f\u00e9vrier 1280.",
            "children": {
                "type_source": "Autre copie m\u00e9di\u00e9vale"
            }
        },
        {
            "type": "sources_manuscrites",
            "value": "F<sup>3<\/sup>. FRANCE, Paris, Biblioth\u00e8que nationale de France, Collection Baluze 389, n. 399<a target=\"_blank\" href=\"https:\/\/gallica.bnf.fr\/ark:\/12148\/btv1b9001546b\/f54.item.zoom\"> [en ligne]<\/a>. Copie dans un second exemplaire de les lettres de l'archev\u00eaque de Narbonne dat\u00e9es du 2 f\u00e9vrier 1280.",
            "children": {
                "type_source": "Autre copie m\u00e9di\u00e9vale"
            }
        }
    ]
}