{
    "id": 26942,
    "name": "aposcripta-3753",
    "type": "acte",
    "url": "http:\/\/telma-chartes.irht.cnrs.fr\/aposcripta\/notice\/26942",
    "project_slug": "aposcripta",
    "project_label": "APOSCRIPTA \u2013 Lettres des papes",
    "user": "j_theryastruc",
    "last_update": "2020-10-19 16:28:06",
    "licence": "Attribution - Pas d\u2019Utilisation Commerciale - Partage dans les M\u00eames Conditions 3.0 France (CC BY-NC-SA 3.0 FR) ",
    "licence_url": "https:\/\/creativecommons.org\/licenses\/by-nc-sa\/3.0\/fr\/",
    "elements": [
        {
            "type": "pape",
            "value": "Cl\u00e9ment IV (1265-1268)"
        },
        {
            "type": "destinataire",
            "value": "L'abb\u00e9 d'Arrouaise (dioc\u00e8se d'Arras)"
        },
        {
            "type": "date_libre",
            "value": "anno secundo"
        },
        {
            "type": "date",
            "value": "apres 1266\/02\/05 - avant 1267\/04\/24",
            "children": {
                "date_deb_jour": "05",
                "date_deb_mois": "02",
                "date_deb_annee": "1266",
                "date_deb_type": "apres",
                "date_fin_jour": "24",
                "date_fin_mois": "04",
                "date_fin_annee": "1267",
                "date_fin_type": "avant"
            },
            "range": {
                "date_apres": 12660205,
                "date_avant": 12670424
            }
        },
        {
            "type": "date_lieu",
            "value": "Viterbe"
        },
        {
            "type": "genre",
            "value": "Titre, g\u00e9n\u00e9ral (littere gratiose, cum filo serico)"
        },
        {
            "type": "analyse",
            "value": "Cl\u00e9ment IV autorise l'abb\u00e9 d'Arrouaise \u00e0 utiliser les censures eccl\u00e9siastiques \u00e0 l'\u00e9gard des religieux fugitifs ou expuls\u00e9s de l'ordre. "
        },
        {
            "type": "sources_manuscrites",
            "value": "F. BELGIQUE, Bruxelles, Biblioth\u00e8que royale, ms. 7749 (copie d'\u00e9rudit).",
            "children": {
                "type_source": "Copie moderne",
                "source_edition": ""
            }
        },
        {
            "type": "edition",
            "value": "Ici reprise de Beno\u00eet-Michel Tock, Ludo Milis, <i>Monumenta Arroasiensia<\/i>, Turnhout : Brepols, 2000 (Corpus Christianorum, Continuatio Mediaevalis, 175), n. 365, p. 559-560 (num\u00e9ris\u00e9e par <a target=\"_blank\" href=\"http:\/\/www.cn-telma.fr\/chartae-galliae\/charte201449\/\">Chartae Galliae, n. 201449<\/a>). "
        },
        {
            "type": "transcription",
            "value": "<?xml version=\"1.0\" encoding=\"UTF-8\"?>\nClemens episcopus, servus servorum Dei, dilecto filio abbati Arroasie, Attrebatensis dyocesis, salutem et apostolicam benedictionem.  Ordinis tui profectum totis desideriis affectantes, ea que ipsius honorem et commodum ac salutem personarum eius observantie astrictarum respiciunt libenti animo procuramus. De tua igitur circumspectione plenam in Domino fiduciam obtinentes, tibi, qui pater abbas ordinis Arroasie fore dignosceris, ut circa observationem statuti quod felicis recordationis Gregorius papa predecessor noster circa religiosos fugitivos et eiectos de suis ordinibus per presidentes capitulis celebrandis, seu patres abbates vel priores observandi noscitur edidisse, possis erga fugitivos et eiectos prefati ordinis Arroasie tibi subditos officii tui debitum ibi exequi authoritate presentium indulgemus ac contradictores per censuram ecclesiasticam coercere. Nulli ergo hominum liceat hanc paginam nostre concessionis infringere vel ei ausu temerario contraire. Si quis autem contra hoc attentare presumpserit, indignationem omnipotentis Dei et beatorum Petri et Pauli apostolorum eius se noverit incursurum. Datum Viterbii, anno pontificatus nostri secundo.\n"
        }
    ]
}