{
    "id": 149139,
    "name": "aposcripta-8704",
    "type": "acte",
    "url": "http:\/\/telma-chartes.irht.cnrs.fr\/aposcripta\/notice\/149139",
    "project_slug": "aposcripta",
    "project_label": "APOSCRIPTA \u2013 Lettres des papes",
    "user": "l_valliere",
    "last_update": "2020-10-19 16:39:54",
    "licence": "Attribution - Pas d\u2019Utilisation Commerciale - Partage dans les M\u00eames Conditions 3.0 France (CC BY-NC-SA 3.0 FR) ",
    "licence_url": "https:\/\/creativecommons.org\/licenses\/by-nc-sa\/3.0\/fr\/",
    "elements": [
        {
            "type": "pape",
            "value": "Cl\u00e9ment IV (1265-1268)"
        },
        {
            "type": "destinataire",
            "value": "Le ma\u00eetre et les fr\u00e8res de l'H\u00f4pital de Saint-Antoine-en-Viennois"
        },
        {
            "type": "date_libre",
            "value": "anno primo"
        },
        {
            "type": "date",
            "value": "apres 1265\/02\/15 - avant 1266\/02\/14",
            "children": {
                "date_deb_annee": "1265",
                "date_deb_mois": "02",
                "date_deb_jour": "15",
                "date_deb_type": "apres",
                "date_fin_annee": "1266",
                "date_fin_mois": "02",
                "date_fin_jour": "14",
                "date_fin_type": "avant"
            },
            "range": {
                "date_apres": 12650215,
                "date_avant": 12660214
            }
        },
        {
            "type": "date_lieu",
            "value": "P\u00e9rouse"
        },
        {
            "type": "genre",
            "value": "Titre, g\u00e9n\u00e9ral (littere gratiose, cum filo serico)"
        },
        {
            "type": "analyse",
            "value": "Clemens (IV) \u00ab dilectis filiis .. magistro et fratribus hospitalis S. Antonii Viennen. \u00bb :  ad instar Urbani IV<a href=\"#note-1\"><sup>1<\/sup><\/a>, inhibet ne quis, pro eo quod in oratoriis seu capellis que in grangiis suis habent interdum aliqui eorum celebrant, procurationes que ratione visitationis debentur ab eis exigere presumat [Barbiche]."
        },
        {
            "type": "sources_manuscrites",
            "value": "E. FRANCE, Paris, Archives nationales, L 258, n. 1 (olim 9 <i>bis<\/i>). Original, bulle sur lacs de soie rouge et jaune.",
            "children": {
                "type_source": "Exp\u00e9dition"
            }
        },
        {
            "type": "edition",
            "value": "\u00e0 \u00e9diter"
        },
        {
            "type": "regeste",
            "value": "\u00c9douard Jordan, <i>Les registres de Cl\u00e9ment IV (1265-1268)<\/i>, Paris, 1893-1945, n. 1941, d\u2019apr\u00e8s E."
        },
        {
            "type": "regeste",
            "value": "Bernard Barbiche, <i>Les actes pontificaux originaux des Archives Nationales de Paris<\/i>, Cit\u00e9 du Vatican, 1975-1982, II, n. 1374, p. 130, d'apr\u00e8s E."
        },
        {
            "type": "transcription",
            "value": "<?xml version=\"1.0\" encoding=\"UTF-8\"?>\nClemens episcopus, servus servorum Dei, dilectis filiis magistro et fratribus Hospitalis Sancti Antonii Viennensis salutem et apostolicam benedictionem. Exigentibus vestre devotionis... Datum Perusii... pontificatus nostri anno primo2.\n"
        },
        {
            "type": "notes_historiques",
            "value": "Bulle du 4 f\u00e9vrier 1264 (B. Barbiche, <i>op. cit.<\/i>, n. 1232).",
            "children": {
                "numero_note": "1"
            }
        },
        {
            "type": "notes_historiques",
            "value": "Les indications de jour et de mois sont effac\u00e9es ; on sait seulement que la bulle date de la premi\u00e8re ann\u00e9e du pontificat, au cours de laquelle Cl\u00e9ment IV a r\u00e9sid\u00e9 \u00e0 P\u00e9rouse, sauf du 31 juillet au 8 ou 10 ao\u00fbt 1265.",
            "children": {
                "numero_note": "2"
            }
        },
        {
            "type": "remarques",
            "value": "inconnue de Potthast - absente des registres"
        }
    ]
}