{
    "id": 26398,
    "name": "aposcripta-3477",
    "type": "acte",
    "url": "http:\/\/telma-chartes.irht.cnrs.fr\/aposcripta\/notice\/26398",
    "project_slug": "aposcripta",
    "project_label": "APOSCRIPTA \u2013 Lettres des papes",
    "user": "lettrespontificalesadmin",
    "last_update": "2020-10-19 16:28:00",
    "licence": "Attribution - Pas d\u2019Utilisation Commerciale - Partage dans les M\u00eames Conditions 3.0 France (CC BY-NC-SA 3.0 FR) ",
    "licence_url": "https:\/\/creativecommons.org\/licenses\/by-nc-sa\/3.0\/fr\/",
    "elements": [
        {
            "type": "pape",
            "value": "Alexandre III (1159-1181)"
        },
        {
            "type": "date_lieu",
            "value": "Venise, Rialto"
        },
        {
            "type": "date_libre",
            "value": "IV\/VI nonas junii"
        },
        {
            "type": "date",
            "value": "circa 1177\/06\/02",
            "children": {
                "date_deb_annee": "1177",
                "date_deb_mois": "06",
                "date_deb_jour": "02",
                "date_deb_type": "circa"
            },
            "range": {
                "date_apres": 11770602,
                "date_avant": 11770602
            }
        },
        {
            "type": "analyse",
            "value": "Alexander III bewilligt dem Abte Heinrich von F\u00e9camp (D. Rouen), innerhalb seiner Kirche bei Processionen, auf p\u00e4pstlichen Concilien und Synoden p\u00e4pstlicher Legaten den Gebrauch von Mitra, Ring und Sandalen<a class=\"note\" href=\"#note-1\">1<\/a>."
        },
        {
            "type": "transcription",
            "value": "<?xml version=\"1.0\" encoding=\"UTF-8\"?>\nAlexander episcopus servus servorum dei dilecto filio Henrico, abbati Fiscannensi, salutem et apostolicam benedictionem. Cum monasterium, tibi commissum, eo privilegio gaudeat libertatis, ut non nisi Romano pontifici sit subiectum, dignum est et conveniens, ut te speciali curemus gratia decorare, ne videamur circa honorem tuum et commodum praescripti monasterii negligentes existere, qui tibi, sicut devoto et speciali ecclesiae filio, specialiter adesse tenemur. Eapropter, dilecte in domino fili, nostri officii debitum prosequentes et attendentes fervorem devotionis, quam circa nos et Romanam ecclesiam exhibes, tibi et successoribus tuis usum mitrae, anuli et sandaliorum infra ecclesiam tuam, in processionibus eiusdem ecclesiae, in conciliis Romanorum pontificum et in synodis legatorum eius et in praecipuis sollempnitatibus de benignitate sedis apostolicae duximus indulgendum. \u2014 Dat. Venetiis in Rivo alto, vi (iv ?) Non. Junii.\n"
        },
        {
            "type": "edition",
            "value": "Julius von Pflugk-Harttung, <i>Acta pontificum Romanorum inedita<\/i>, T\u00fcbingen, 1880, I, n. 289, p. 263"
        },
        {
            "type": "sources_manuscrites",
            "value": "Moderne Abschrift des Cartular. abbatiae Fiscannensis (F\u00e9camp) MS. Y. 188 fol. 96, in der Bibl. zu Rouen."
        },
        {
            "type": "remarques",
            "value": ""
        },
        {
            "type": "notes_historiques",
            "value": "<i>Vergl. die Urk. vom 4 Juni 1186\u20131187.<\/i>",
            "children": {
                "numero_note": "1"
            }
        },
        {
            "type": "genre",
            "value": "Titre, g\u00e9n\u00e9ral (littere gratiose, cum filo serico)"
        },
        {
            "type": "destinataire",
            "value": "L'abb\u00e9 de F\u00e9camp Henri"
        }
    ]
}