{
    "id": 24571,
    "name": "aposcripta-1722",
    "type": "acte",
    "url": "http:\/\/telma-chartes.irht.cnrs.fr\/aposcripta\/notice\/24571",
    "project_slug": "aposcripta",
    "project_label": "APOSCRIPTA \u2013 Lettres des papes",
    "user": "lettrespontificalesadmin",
    "last_update": "2020-10-19 16:27:31",
    "licence": "Attribution - Pas d\u2019Utilisation Commerciale - Partage dans les M\u00eames Conditions 3.0 France (CC BY-NC-SA 3.0 FR) ",
    "licence_url": "https:\/\/creativecommons.org\/licenses\/by-nc-sa\/3.0\/fr\/",
    "elements": [
        {
            "type": "pape",
            "value": "Gr\u00e9goire IX (1227-1241)"
        },
        {
            "type": "date_lieu",
            "value": "Terni"
        },
        {
            "type": "date_libre",
            "value": "IIII kalendas martii, anno decimo"
        },
        {
            "type": "date",
            "value": " 1237\/02\/26",
            "children": {
                "date_deb_annee": "1237",
                "date_deb_mois": "02",
                "date_deb_jour": "26"
            },
            "range": {
                "date_apres": 12370226,
                "date_avant": 12370226
            }
        },
        {
            "type": "analyse",
            "value": "Gr\u00e9goire\u00a0IX mande \u00e0 l\u2019archev\u00eaque de Vienne, son l\u00e9gat, de se rendre \u00e0 Montpellier, et d\u2019y proc\u00e9der \u00e0 une enqu\u00eate sur quelques h\u00e9r\u00e9tiques\u00a0: il devra absoudre, sous certaines conditions, ceux qui reviendront \u00e0 la foi [Rouquette, Villemagne]. El papa Gregori IX ordena a l\u2019arquebisbe de Viena i legat apost\u00f2lic que vagi a Montpeller i procedeixi a fer una enquesta en relaci\u00f3 amb l\u2019heretgia i que absolgui, sota determinades condicions, aquells que tornin a la fe [Torras, Berga, Cingolani]."
        },
        {
            "type": "transcription",
            "value": "<?xml version=\"1.0\" encoding=\"UTF-8\"?>\nArchiepiscopo Viennensi, Apostolice Sedis legato.Ex parte consulum et populi Montis Pesulani fuit propositum coram nobis, quod ipsi, tanquam viri catholici, pro fide potenter et indefesse steterunt, eam contra pravitatem hereticam, sicut salutem suam et honorem proprium, deferentes.Unde, cum ipsi audierint famam quandam ortam de novo, quod in terra sua sint aliqui ex hereticis receptati, dolentes exinde graviter et valde tristes effecti, ad infamiam hujusmodi abolendam, nobis per suos nuntios in litteras obtulerunt terram ipsam ab omni infidelitatis spurcitia, juxta nostrum bene placitum, expurgare.Nos ergo, de persone tue prudentia confidentes, mandamus quatenus, personaliter accedens ad locum, super hoc solita discretione procedas, ita quod pestis illa mortifera impunita non transeat, et pena non teneat innocentes\u00a0: debent etenim eradicari zizania et avelli triticum non oportet.Ceterum, cum quibuscumque vere penitentibus promptos ad pietatis gratiam nos deceat inveniri, volumus et mandamus ut illis qui, heretica pravitate dimissa, sponte, ante inquisitionem aliquam de ipsis factam, ad ecclesiasticam redierunt vel redierint unitatem, ab excommunicationis sententia, que in hereticos ter, singulis annis, sollempniter a Romano Pontifice promulgatur, prius ab ipsis heresi publice abjurata, et recepta, quam prestare poterunt, cautione, ne ulterius in hereticorum contagia relabantur, auctoritate apostolica, juxta formam Ecclesie, beneficium absolutionis impendas, eisdem nichilominus, sicut fidelibus, sacramenta faciens ecclesiastica ministrari\u00a0; sicque fiat quod ipsi, ea que sunt matris, gaudentes apud Ecclesiam reperisse, prestante Domino, reddantur et in fide stabiles et in bonis operibus efficaces.Datum Interamne, iiii kalendas martii, anno decimo.\n"
        },
        {
            "type": "edition",
            "value": "Julien Rouquette, Augustin Villemagne, <i>Bullaire de l'\u00c9glise de Maguelone<\/i>, Paris, Montpellier : Picard, Valat, 1911-1914, II, n. 558-352\u00a0a, p. 495-496"
        },
        {
            "type": "remarques",
            "value": ""
        },
        {
            "type": "bibliographie_generale",
            "value": "<span class=\"small-caps\">L. Auvray<\/span>, <i>Registres de Gr\u00e9goire\u00a0IX<\/i>, t.\u00a0II, n. 3527, col.\u00a0571-572.",
            "children": {
                "numero_note": "0"
            }
        },
        {
            "type": "genre",
            "value": "Bulle"
        }
    ]
}