{
    "id": 20169,
    "name": "aposcripta-156",
    "type": "acte",
    "url": "http:\/\/telma-chartes.irht.cnrs.fr\/aposcripta\/notice\/20169",
    "project_slug": "aposcripta",
    "project_label": "APOSCRIPTA \u2013 Lettres des papes",
    "user": "lettrespontificalesadmin",
    "last_update": "2020-10-19 16:26:45",
    "licence": "Attribution - Pas d\u2019Utilisation Commerciale - Partage dans les M\u00eames Conditions 3.0 France (CC BY-NC-SA 3.0 FR) ",
    "licence_url": "https:\/\/creativecommons.org\/licenses\/by-nc-sa\/3.0\/fr\/",
    "elements": [
        {
            "type": "pape",
            "value": "Cl\u00e9ment V (1305-1314)"
        },
        {
            "type": "date_lieu",
            "value": "Vienne"
        },
        {
            "type": "date_libre",
            "value": "Idus martii, anno septimo"
        },
        {
            "type": "analyse",
            "value": "Procedat frater Geraldus, inquisitor pravitatis hereticae in Lugdunensi et Bisuntina provinciis, contra eos, qui se opponerent huius officii exercitio [<i>Regestum Clementis<\/i>].\nCl\u00e9ment V ordonne \u00e0 G\u00e9raud d\u2019Auxonne, inquisiteur dans les provinces de Lyon et de Besan\u00e7on, de r\u00e9primer l\u2019h\u00e9r\u00e9sie et de signaler au pape ceux qui s\u2019opposeraient au libre exercice de sa mission, ou qui, le devant, refuseraient d\u2019y concourir [Vidal]."
        },
        {
            "type": "transcription",
            "value": "<?xml version=\"1.0\" encoding=\"UTF-8\"?>\nDilecto filio fratri Geraldo de Aussona1, ordinis predicatorum, inquisitori pravitatis heretice in Lugdunensi et Bisuntinsi provinciis per Sedem apostolicam deputato. Pervenit ad audientiam nostram, quod in nonnullis partibus provinciarum Lugdunen. et Bisuntin. quedam inaudite hereses et nimis periculose sunt orte, que multorum simplicium animos infecerunt. Unde nos; ad earumdem heresium extirpationem efficaciter intendentes, per nostras litteras dominos temporales in ipsis partibus constitutos monemus et hortamur in Domino, nichilominus eis per apostolica scripta mandantes quatenus tibi in eisdem provinciis inquisitori pravitatis heretice per Sedem apostolicam deputato, ad extirpandas huiusmodi hereses, sic ad requisitionem tuam favoribus et auxiliis oportunis assistant, quod impedimentum nullum tibi circa tuum exequendum officium possit inferri et debitum super hiis tua inquisitio sortiatur effectum ; premunientes eos quod tibi damus litteris in mandatis, quod tuum impedientes officium et in executione illius non prebentes tibi ab eis per te possibile requisitum auxilium, nominatim intimare procures, ut nos contra ipsos iuxta censuram canonum, nostri officii debitum exequamur. Quocirca discretioni tue presentium tenore mandamus, quatenus ut si quos, eos vel alios officii tui in inquisitione huiusmodi facienda impeditores inveneris, aut ne idem tuum impediatur officium, et inquisitio debitum sortiatur effectum, non prebuerint per te ab eis possibile requisitum auxilium, nobis quantocius significare non tardes, contra eos prout iustum fuerit, processuris. Datum Vienne, idus martii, anno septimo.\n"
        },
        {
            "type": "edition",
            "value": "Ici reprise de <i>Regestum Clementis V<\/i>, n. 8766."
        },
        {
            "type": "sources_manuscrites",
            "value": "<i>Reg. Vat.<\/i>, t. <span class=\"smal-caps\">lix<\/span>, fol. 229, n. 15, <i>de Curia",
            "children": {
                "type_source": "Registre de la chancellerie apostolique"
            }
        },
        {
            "type": "notes_historiques",
            "value": "Auxonne (C\u00f4te-d\u2019Or), chef-lieu de cant., arr. de Dijon [Vidal].",
            "children": {
                "numero_note": "1"
            }
        },
        {
            "type": "date",
            "value": "1312\/03\/15",
            "children": {
                "date_deb_annee": "1312",
                "date_deb_mois": "03",
                "date_deb_jour": "15"
            },
            "range": {
                "date_apres": 13120315,
                "date_avant": 13120315
            }
        },
        {
            "type": "genre",
            "value": "Mandement (littere cum filo canapis)"
        },
        {
            "type": "destinataire",
            "value": "L'inquisiteur de la d\u00e9pravation h\u00e9r\u00e9tique dans les provinces de Lyon et de Besan\u00e7on G\u00e9rard d'Auxonne, OP"
        },
        {
            "type": "regeste",
            "value": "Jean-Marie Vidal, <i>Bullaire de l\u2019Inquisition fran\u00e7aise au XIV<sup>e<\/sup> si\u00e8cle et jusqu'\u00e0 la fin du Grand Schisme<\/i>, Paris : Letouzey et An\u00e9, 1913, n. 9, p. 22-24."
        }
    ]
}