{
    "id": 26178,
    "name": "aposcripta-3257",
    "type": "acte",
    "url": "http:\/\/telma-chartes.irht.cnrs.fr\/aposcripta\/notice\/26178",
    "project_slug": "aposcripta",
    "project_label": "APOSCRIPTA \u2013 Lettres des papes",
    "user": "lettrespontificalesadmin",
    "last_update": "2020-10-19 16:27:55",
    "licence": "Attribution - Pas d\u2019Utilisation Commerciale - Partage dans les M\u00eames Conditions 3.0 France (CC BY-NC-SA 3.0 FR) ",
    "licence_url": "https:\/\/creativecommons.org\/licenses\/by-nc-sa\/3.0\/fr\/",
    "elements": [
        {
            "type": "pape",
            "value": "Urbain II (1088-1099)"
        },
        {
            "type": "date_lieu",
            "value": "n.c."
        },
        {
            "type": "date_libre",
            "value": "1094 (?)\u20131099"
        },
        {
            "type": "date",
            "value": "apr\u00e8s 1094 - avant 1099",
            "children": {
                "date_deb_annee": "1094",
                "date_deb_type": "apr\u00e8s",
                "date_fin_annee": "1099",
                "date_fin_type": "avant"
            },
            "range": {
                "date_apres": 10940000,
                "date_avant": 10999999
            }
        },
        {
            "type": "analyse",
            "value": "Urban II befiehlt dem Bischofe Aribert von Avignon, das Kloster L\u00e9rins (D. Antibes) ruhig im alt\u00fcberlieferten Besitze der Kirche St.-Thomas de Laurade (Bouches-du-Rh\u00f4ne) zu lassen<a class=\"note\" href=\"#note-1\">1<\/a>."
        },
        {
            "type": "transcription",
            "value": "<?xml version=\"1.0\" encoding=\"UTF-8\"?>\nUrbanus episcopus servus servorum dei dilecto fratri A(riberto), Avennionensi2 episcopo, salutem et apostolicam benedictionem. Episcopalis officii interest, religiosis viris auxilium sue protectionis impendere. Unde plurimum de tua religione miramur, quoniam religiosos fratres Lirinensis monasterii, quod profecto nostri iuris est, diceris infestare. Ecclesiam quippe sancti Thome de castro Laurata, quam et multorum annorum possessione et Romani privilegii corroboratione tenuerunt, eis auferrea conaris. Mandamus igitur dilectioni tue, ut ecclesiam illam et ab interdicto absolutam et quietam eisdem fratribus, sicut hactenus habuere, permittas. Vale.\n"
        },
        {
            "type": "edition",
            "value": "Julius von Pflugk-Harttung, <i>Acta pontificum Romanorum inedita<\/i>, T\u00fcbingen, 1880, I, n. 69, p. 66"
        },
        {
            "type": "sources_manuscrites",
            "value": "Abschrift vom Ende des 12 Jahrh. (?) des Cart. de L\u00e9rins fol. 156, im Archive des D\u00e9p. Alpes-Maritimes zu Nizza. \u2014 Fehlerhafte neuere Abschrift des MS. lat. Nouv. Acq. 1155 p. 294, in der Bibl. Nat. zu Paris."
        },
        {
            "type": "remarques",
            "value": ""
        },
        {
            "type": "apparat_critique",
            "value": "a.\u2002offerre",
            "children": {
                "numero_note": "a"
            }
        },
        {
            "type": "notes_historiques",
            "value": "<i>Nach meiner Pariser Abschrift, freundlichst collationirt von Herrn Archivar H. de Flamare zu Nizza. Vergl. die Urk. Nr. 131.<\/i>",
            "children": {
                "numero_note": "1"
            }
        },
        {
            "type": "notes_historiques",
            "value": "<i>Albert wird von 1081\u20131094, Aribert<\/i> (<i>Arbert<\/i>) <i>bis 1118 als Bischof von Avignon angegeben, ob wir es dabei nicht vielleicht mit derselben Person, nur verschiedenen Namensformen zu thun haben, vermag ich mit<\/i> <i>den mir zu Gebote stehenden Mitteln nicht zu entscheiden. Dass wir event. nur an Aribert denken d\u00fcrfen, beweist die Urk. Nr. 131.<\/i>",
            "children": {
                "numero_note": "2"
            }
        },
        {
            "type": "genre",
            "value": "Bulle"
        }
    ]
}