{
    "id": 20834,
    "name": "aposcripta-821",
    "type": "acte",
    "url": "http:\/\/telma-chartes.irht.cnrs.fr\/aposcripta\/notice\/20834",
    "project_slug": "aposcripta",
    "project_label": "APOSCRIPTA \u2013 Lettres des papes",
    "user": "lettrespontificalesadmin",
    "last_update": "2020-10-19 16:26:53",
    "licence": "Attribution - Pas d\u2019Utilisation Commerciale - Partage dans les M\u00eames Conditions 3.0 France (CC BY-NC-SA 3.0 FR) ",
    "licence_url": "https:\/\/creativecommons.org\/licenses\/by-nc-sa\/3.0\/fr\/",
    "elements": [
        {
            "type": "pape",
            "value": "Alexandre III (1159-1181)"
        },
        {
            "type": "date_lieu",
            "value": "n.c."
        },
        {
            "type": "date_libre",
            "value": "1180 med"
        },
        {
            "type": "analyse",
            "value": "Alexander\u00a0III episcopo Trecensi mandat, moneat episcopum Meldensem, ut vacantium praebendarum unam Herveo canonico assignare aut dimidiam eius integrare ulterius non differat\u00a0; qui nisi fecerit, ipse mandatum apostolicum exequatur."
        },
        {
            "type": "transcription",
            "value": "<?xml version=\"1.0\" encoding=\"UTF-8\"?>\nTrecensi episcopo.1 Non sine iniuria apostolice sedis et sue fame dispendio frater noster Meldensis episcopus2 dilectum filium nostrum H(erveum), canonicum suum, clericum venerabilis fratris nostri B(erneredi) Prenestini episcopi, hactenus integrare omisit, quem licet nobis tacentibus integrare debuerit, contra prohibitionem nostram dimidium facit usque hodie remanere, preferens illi puerum3, quem scientia et temporis ordinatione precedit. In quo manifeste datur intelligi, quod in dispensatione sibi credita non eam tenet diligentiam, quam deberet. Quia igitur plures sicut accepimus prebende in iam dicta ecclesia vacant, nos attendentes, quod tempus prescripte integrationis advenit, fraternitati tue per apostolica scripta mandamus atque precipimus, quatinus prefatum episcopum ex parte nostra commoneas, ut unam predictarum prebendarum prefato H(erveo) vel cui ipse mandaverit nomine ipsius assignet vel eius dimidiam non differat de una ipsarum dimidia integrare. Ceterum si idem commonitus acquiescere forte noluerit, tu mandatum apostolicum, non obstante concessione vel donatione contra prohibitionem nostram cuiquam facta, auctoritate apostolica fretus, sublato appellationis obstaculo, exequaris, decano et capitulo ex parte nostra precipiens, ut, quod auctoritate apostolica feceris, habeant ratum et, nullius contradictione vel appellatione impediante, observent. Sane nolumus, quod aliquarum litterarum obtentu, si que sunt vel fuerint, harum tenore tacito, impetrate, aut occasione nuntii iam dicti episcopi, qui apud nos moratur, mandati huius executio postponatur.\n"
        },
        {
            "type": "edition",
            "value": "Samuel Loewenfeld, <i>Epistolae pontificum romanorum ineditae<\/i>, Leipzig : Veit et Comp., 1885, n. 322, p. 190"
        },
        {
            "type": "sources_manuscrites",
            "value": "Reg. Alex. fragm. ep.\u00a020, in cod. Coll. Trinitat. Cantabrig. R.\u00a09. 17. s.\u00a0<span class=\"smal-caps\">xii.<\/span> fol.\u00a0114<sup>b<\/sup>."
        },
        {
            "type": "notes_historiques",
            "value": "Matthaeo.",
            "children": {
                "numero_note": "1"
            }
        },
        {
            "type": "notes_historiques",
            "value": "Simon.",
            "children": {
                "numero_note": "2"
            }
        },
        {
            "type": "notes_historiques",
            "value": "filium nobilis viri G. de Cheureuse, vide supra ep.\u00a0319\u00a0sq.",
            "children": {
                "numero_note": "3"
            }
        },
        {
            "type": "date",
            "value": "apres 1180 - avant 1180",
            "children": {
                "date_deb_annee": "1180",
                "date_deb_type": "apres",
                "date_fin_annee": "1180",
                "date_fin_type": "avant"
            },
            "range": {
                "date_apres": 11800000,
                "date_avant": 11809999
            }
        },
        {
            "type": "genre",
            "value": "Bulle"
        },
        {
            "type": "destinataire",
            "value": "L'\u00e9v\u00eaque de Troyes"
        }
    ]
}