{
    "id": 25396,
    "name": "aposcripta-2493",
    "type": "acte",
    "url": "http:\/\/telma-chartes.irht.cnrs.fr\/aposcripta\/notice\/25396",
    "project_slug": "aposcripta",
    "project_label": "APOSCRIPTA \u2013 Lettres des papes",
    "user": "lettrespontificalesadmin",
    "last_update": "2020-10-19 16:27:44",
    "licence": "Attribution - Pas d\u2019Utilisation Commerciale - Partage dans les M\u00eames Conditions 3.0 France (CC BY-NC-SA 3.0 FR) ",
    "licence_url": "https:\/\/creativecommons.org\/licenses\/by-nc-sa\/3.0\/fr\/",
    "elements": [
        {
            "type": "pape",
            "value": "Cl\u00e9ment III (1187-1191)"
        },
        {
            "type": "destinataire",
            "value": "( )",
            "children": {
                "numero_note": "0"
            }
        },
        {
            "type": "date_lieu",
            "value": "n.c."
        },
        {
            "type": "date_libre",
            "value": "1188, 16 f\u00e9vrier"
        },
        {
            "type": "date",
            "value": " 1188\/02\/16",
            "children": {
                "date_deb_annee": "1188",
                "date_deb_mois": "02",
                "date_deb_jour": "16"
            },
            "range": {
                "date_apres": 11880216,
                "date_avant": 11880216
            }
        },
        {
            "type": "analyse",
            "value": "X pape<br\/>EPISTOLA CLEMENTIS PAP\u00c6 III, AD ARCHIEPISCOPOS ET EPISCOPOS IN QUORUM DI\u0152CESIBUS SUNT PRIORATUS ORDINIS CLUNIACENSIS, QUIBUS MANDAT UT REVOCENT POSSESSIONES A PRIORIBUS DISTRACTAS. EPISTOLA CLEMENTIS PAP\u00c6 III. ad Archiepiscopos et Episcopos, in quorum Di\u0153cesibus sunt Prioratus ordinis Cluniacensis, quibus mandat ut revocent possessiones distractas per priores."
        },
        {
            "type": "transcription",
            "value": "<?xml version=\"1.0\" encoding=\"UTF-8\"?>\n[Clemens Episcopus, servus servorum Dei, venerabilibus fratribus Archiepiscopis et Episcopis, in quorum Parochiis Prioratus et obedienti\u00e6 Ecclesi\u00e6 Cluniacensis existunt, salutem et Apostolicam benedictionem. Ea, qu\u00e6 in Ecclesiarum pr\u00e6judicium per Pr\u00e6latorum insolentiam attentantur, nostro imminent officio corrigenda; ne si in ipsarum fuerimus provisione remissi, et earum status grave sustineat detrimentum, et nos de negligentia possimus in extremo examine reprehendi. Unde quia ad audientiam Apostolatus nostri pervenit, quod Priores et Obedientiarii Cluniacen. fratrum, sine consilio Abbatis et Conventus possessiones Ecclesiarum suarum et contra institutionem Cluniacensis ordinis illicit\u00e8 distrahunt, et quasdam la\u00efcis conferentes, censum debitum in grave pr\u00e6judicium Ecclesiarum minuere non verentur. Nos fraternitati vestr\u00e6 pr\u00e6sentium auctoritate injungimus, firmiterque mandamus, quatenus detentores bonorum pr\u0119dictarum Ecclesiarum taliter distractorum, cum ad vos querela pervenerit, moneatis attentius, et (si necesse fuerit) excommunicatione pariter et interdicto, remota appellatione cogatis, ut possessiones in pr\u00e6judicium Ecclesiarum, Priorum seu aliorum Procuratorum temeritate distractas, sine difficultate restituant, et censum irrationabiliter imminutum non differant integrare. Datum Laterani XIV. Kalendas Martii. Pontificatus nostri anno primo.]\n"
        },
        {
            "type": "edition",
            "value": "Ici tir\u00e9e du projet <i>CBMA - Corpus Burgundiae Medii Aevi<\/i>, document 5757. Site du projet Corpus de la Bourgogne du Moyen \u00c2ge, [En ligne] <a href=\"http:\/\/www.cbma-project.eu\" target=\"_blank\">http:\/\/www.cbma-project.eu<\/a>  "
        },
        {
            "type": "sources_manuscrites",
            "value": "\u00e0 renseigner."
        },
        {
            "type": "remarques",
            "value": "\r\n\r\nIndications dans l'\u00e9dition des Chartes de Cluny quand Bernard et Bruel n'ont pas repris le texte : Clemens, etc. Ea, qu\u00e6 in ecclesiarum, etc. (Bull. Clun., p.\u00a088, col.\u00a01.).(E.\u00a075, LXVIII.)"
        },
        {
            "type": "edition_autre",
            "value": "Ici reprise de Auguste Bernard, Alexandre Bruel, <i>Recueil des chartes de l'abbaye de Cluny<\/i>. V. <i>1091-1210<\/i>, Paris\u00a0: Imprimerie nationale, 1894 <a href=\"http:\/\/gallica.bnf.fr\/ark:\/12148\/bpt6k28911f?rk=64378;0\" target=\"_blank\">[en ligne]<\/a>, p. 676, n\u00b0 4318.",
            "children": {
                "numero_note": "0"
            }
        },
        {
            "type": "edition_autre",
            "value": "Pierre Simon, <i>Bullarium sacri Ordinis cluniacensis, complectens plurima privilegia per summos pontifices tum ipsi cluniacensi abbatiae, tum ei subditis monasteriis hactenus concessa<\/i>, Lyon : Jullieron, 1680, p. 88, col. 1-2",
            "children": {
                "numero_note": "1"
            }
        },
        {
            "type": "genre",
            "value": "Bulle"
        },
        {
            "type": "genre",
            "value": "Lettre"
        }
    ]
}