{
    "id": 148897,
    "name": "aposcripta-8465",
    "type": "acte",
    "url": "http:\/\/telma-chartes.irht.cnrs.fr\/aposcripta\/notice\/148897",
    "project_slug": "aposcripta",
    "project_label": "APOSCRIPTA \u2013 Lettres des papes",
    "user": "l_valliere",
    "last_update": "2020-10-19 16:39:50",
    "licence": "Attribution - Pas d\u2019Utilisation Commerciale - Partage dans les M\u00eames Conditions 3.0 France (CC BY-NC-SA 3.0 FR) ",
    "licence_url": "https:\/\/creativecommons.org\/licenses\/by-nc-sa\/3.0\/fr\/",
    "elements": [
        {
            "type": "pape",
            "value": "Innocent IV (1243-1254)"
        },
        {
            "type": "destinataire",
            "value": "Le ministre g\u00e9n\u00e9ral, les ministres provinciaux et des fr\u00e8res de l'ordre des fr\u00e8res Mineurs"
        },
        {
            "type": "date_libre",
            "value": "Idibus januarii, anno tertio"
        },
        {
            "type": "date",
            "value": "1246\/01\/13",
            "children": {
                "date_deb_annee": "1246",
                "date_deb_mois": "01",
                "date_deb_jour": "13"
            },
            "range": {
                "date_apres": 12460113,
                "date_avant": 12460113
            }
        },
        {
            "type": "date_lieu",
            "value": "Lyon"
        },
        {
            "type": "genre",
            "value": "Titre, g\u00e9n\u00e9ral (littere gratiose, cum filo serico)"
        },
        {
            "type": "analyse",
            "value": "Bul van Innocentius IV gericht tot den generaal, de provincialen en de monniken der ininderbroedersorde over het aan- en afstellen van inquisiteurs. \u2014 De paus verleent aan den overste der orde en aan zijne opvolgers de noodige machten om de inquisiteurs onder zijne broeders aan- en af te stellen. Hetzelfde mogen de provincialen doen, elk in zijne provincie [Fredericq]."
        },
        {
            "type": "sources_manuscrites",
            "value": "R. CIT\u00c9 DU VATICAN, Archivio segreto Vaticano, <i>Registra Vaticana<\/i> 21, n. 625, fol. 298v.",
            "children": {
                "type_source": "Registre de la chancellerie apostolique"
            }
        },
        {
            "type": "edition",
            "value": "Ici reprise de Paul Fredericq, <i>Corpus documentorum inquisitionis haereticae pravitatis Neerlandicae<\/i>, Gand, 5 vol., 1889-1906, I, n. 122, p. 116 (<i>d'apr\u00e8s Wadding<\/i>) <a target=\"_blank\" href= \" https:\/\/archive.org\/details\/MN5018_01ucmf_0\/page\/n165\/mode\/2up\"> [en ligne]<\/a>."
        },
        {
            "type": "edition_autre",
            "value": "Luke Wadding, <i>Annales Minorum seu trium ordinum a S. Francisco institutorum<\/i>, 2e \u00e9d., 19 vol., Rome, 1731-1745, t. III, p. 144 <a target=\"_blank\" href=\" https:\/\/archive.org\/details\/bub_gb_dvvXZTUctWoC\/page\/n157\/mode\/2up\"> [en ligne]<\/a>."
        },
        {
            "type": "regeste",
            "value": "Potthast, <i>Regesta pontificum Romanorum<\/i>, n. 11993 <a target=\"_blank\" href=\" https:\/\/archive.org\/details\/RegestaPontificumRomanorum\/page\/n1031\/mode\/2up\"> [en ligne]<\/a>."
        },
        {
            "type": "regeste",
            "value": "\u00c9lie Berger, <i>Les registres d'Innocent IV<\/i>, Paris, 1884-1921, n. 1963."
        },
        {
            "type": "transcription",
            "value": "<?xml version=\"1.0\" encoding=\"UTF-8\"?>\nInnocentius etc., generali ac provincialibus ministris ac ceteris fratribus ordinis fratrum minorum. Odore suavi ordinis vestri continue recreati, cum non immerito favore speciali prosequimur et ipsius exaltationem plenis desideriis affectamus, quietem ei et alia diligenti procurare solertia intendentes, per quae semper optatum, auctore Domino, suscipere valeat incrementum. Hinc est quod nos, vestris supplicationibus annuentes, ut tu, fili generalis minister, tuique successores fratres tui ordinis, qui ad praedicandum crucem vel inquirendum contra pravitatem hereticam seu ad alia hujusmodi negotia sunt vel fuerint ubicumque a Sede apostolica deputati, removere, revocare, penitus transferre ipsisque quod supersedeant injungere aliosque substituere, cum expedire videretis, licite et libere valeatis, et in eos, si contravenerint, censuram ecclesiasticam exercere ; ac quilibet minister provincialis ejusdem ordinis, id ipsum in sua provincia circa fratres ipsius ordinis, quibus in illa similia contigerit ab eadem Sede committi, facere possit, auctoritate praesentium indulgemus. Nulli ergo omnino hominum liceat hanc paginam nostrae concessionis infringere vel ei ausu temerario contraire. Si quis autem hoc attentare praesumpserit, indignationem omnipotentis Dei ac beatorum Petri et Pauli apostolorum ejus se noverit incursurum. Datum Lugduni, idibus januarii, pontificatus nostri anno III.\n"
        }
    ]
}