{
    "id": 20806,
    "name": "aposcripta-793",
    "type": "acte",
    "url": "http:\/\/telma-chartes.irht.cnrs.fr\/aposcripta\/notice\/20806",
    "project_slug": "aposcripta",
    "project_label": "APOSCRIPTA \u2013 Lettres des papes",
    "user": "lettrespontificalesadmin",
    "last_update": "2020-10-19 16:26:53",
    "licence": "Attribution - Pas d\u2019Utilisation Commerciale - Partage dans les M\u00eames Conditions 3.0 France (CC BY-NC-SA 3.0 FR) ",
    "licence_url": "https:\/\/creativecommons.org\/licenses\/by-nc-sa\/3.0\/fr\/",
    "elements": [
        {
            "type": "pape",
            "value": "Alexandre III (1159-1181)"
        },
        {
            "type": "date_lieu",
            "value": "n.c."
        },
        {
            "type": "date_libre",
            "value": "n. c."
        },
        {
            "type": "analyse",
            "value": "Alexander\u00a0III domum hospitalem de Croden. tuendam suscipit eiusque possessiones ac iura quaedam confirmat."
        },
        {
            "type": "transcription",
            "value": "<?xml version=\"1.0\" encoding=\"UTF-8\"?>\nInfirmis domus hospitalis de Crode\u035en1 communem vitam ducentibus. Offitio pietatis inducimur, universis Dei fidelibus paterna provisione consulere, sed de ipsorum pace propensius cogitare, quos manus Domini incurabili lepre morbo percutiens gravius flagellavit, ut contra iniurias malignantium, qui per se non sufficiunt, protectionis apostolice clipeo muniantur. Hac itaque ratione inducti et vestris iustis postulationibus inclinati, prescriptam domum cum omnibus, que in presentiarum etc. usque communimus. Specialiter autem quecumque ab M. domino prescripti castri et burgensibus vobis rationabiliter sunt concessa et in presentiarum habetis, vobis et eidem domui etc. usque confirmamus, statuentes ut iuxta tenorem decreti nostri cimiterium et presbyterum per diocesani approbationem semper episcopi habeatis. Nulli ergo omnino hominum liceat prescriptam domum etc.\n"
        },
        {
            "type": "edition",
            "value": "Ici reprise de Samuel Loewenfeld, <i>Epistolae pontificum romanorum ineditae<\/i>, Leipzig : Veit et Comp., 1885, n. 294, p. 165-170."
        },
        {
            "type": "sources_manuscrites",
            "value": "Reg. Alex. fragm. ep.\u00a04, l.\u00a0l. fol.\u00a0108<sup>b<\/sup>.",
            "children": {
                "type_source": "Registre de la chancellerie apostolique"
            }
        },
        {
            "type": "notes_historiques",
            "value": "Videtur esse Croydon in comitatu Surrey, ut me docet F. Liebermann.",
            "children": {
                "numero_note": "1"
            }
        },
        {
            "type": "date",
            "value": "1178",
            "children": {
                "date_deb_annee": "1178"
            },
            "range": {
                "date_apres": 11780000,
                "date_avant": 11789999
            }
        },
        {
            "type": "genre",
            "value": "Titre, g\u00e9n\u00e9ral (littere gratiose, cum filo serico)"
        },
        {
            "type": "destinataire",
            "value": "Les malades de l'h\u00f4pital de Croydon (comit\u00e9 de Surrey)"
        }
    ]
}