{
    "id": 24043,
    "name": "aposcripta-1195",
    "type": "acte",
    "url": "http:\/\/telma-chartes.irht.cnrs.fr\/aposcripta\/notice\/24043",
    "project_slug": "aposcripta",
    "project_label": "APOSCRIPTA \u2013 Lettres des papes",
    "user": "lettrespontificalesadmin",
    "last_update": "2020-10-19 16:27:22",
    "licence": "Attribution - Pas d\u2019Utilisation Commerciale - Partage dans les M\u00eames Conditions 3.0 France (CC BY-NC-SA 3.0 FR) ",
    "licence_url": "https:\/\/creativecommons.org\/licenses\/by-nc-sa\/3.0\/fr\/",
    "elements": [
        {
            "type": "pape",
            "value": "Urbain II (1088-1099)"
        },
        {
            "type": "date_lieu",
            "value": "Rome"
        },
        {
            "type": "date_libre",
            "value": "14\u00a0d\u00e9cembre 1087"
        },
        {
            "type": "date",
            "value": " 1087\/12\/14",
            "children": {
                "date_deb_annee": "1087",
                "date_deb_mois": "12",
                "date_deb_jour": "14"
            },
            "range": {
                "date_apres": 10871214,
                "date_avant": 10871214
            }
        },
        {
            "type": "analyse",
            "value": "Urbain\u00a0II accepte, au nom de l\u2019\u00c9glise Romaine, la donation du comt\u00e9 de Melgueil et de l\u2019\u00e9v\u00each\u00e9 de Maguelone faite par le comte Pierre en 1085\u00a0; il nomme l\u2019\u00e9v\u00eaque son repr\u00e9sentant pour le comt\u00e9, et place l\u2019\u00e9v\u00each\u00e9 sous la libert\u00e9 romaine."
        },
        {
            "type": "transcription",
            "value": "<?xml version=\"1.0\" encoding=\"UTF-8\"?>\nUrbanusa episcopus, servus servorum Dei, Godefrido, dilectissimo fratri, Magalonensi episcopo, ejusque successoribus in perpetuumb.Universum sancte Ecclesie corpus, miserante Deoc, per Unigeniti sui et Redemptoris nostri sanguinem propriumd constate, et perpetua libertate donatum\u00a0; sed pravorum hominum astutiisf et pastorum negligentiag, quedam per orbem Ecclesie ditionih sunt secularium potestatum addicte. Superne autem miserationisi respectu, idcirco ad universale Sedis Apostolice regimenj promoti sumus, quatinus debeamus omnimodis que ad earum spectant salutem et gloriam providere ut, ab omni servitutis vinculo libere, sua semper libertate congaudeant. Ad hoc namque omnipotens Dominusk Romanam Ecclesiam Ecclesiarum matrem principemque constituit, ut, ea disponente, corrigantur in eis que malal sunt, et que recta sunt confirmentur\u00a0; idcirco ascendendumm ex adverso, et standum in prelio, et murus est pro domo Israel opponendus.Tibi itaque, frater Godefriden, Magalonensis episcope, Magalonensem Ecclesiam, tuisque successoribus canonicis, sub romana libertate specialiter permansuramo, jure perpetuo confirmamus. Quamp nimirum Ecclesiam pastores, qui illis in partibus fuerant, permittente incuria, multis temporibus ex nefanda consuetudineq, Substantionensesr comites sue jugo servitutis astrinxerants\u00a0; at bone memorie comes Petrus, Dei tandem timore compunctus, beato Petro ejusque vicariis ex toto episcopatum reddidit, et scripti actione refutavit.Comitatum quoque, qui sui juris erat, sub jure beati Petri ejusque vicariorum, per testamenti paginam dereliquitt, eo videlicet tenore ut heredes sui Romani Pontificisu milites fierent, et ex ejus manu comitatum obtinerent\u00a0: quod, si heredum successio destitisset, sub Romani Pontificis ordinationev, et Magalonensis cura episcopi habereturw\u00a0; quix etiamy censum, Lateranensi palatioz persolvendum ab ejusdemaa heredibus, auri unciam quotannis instituit.Magalonensis igitur episcopatus et Substantionensisab comitatus investituram ex manu fraternitatis tue, vice predicti comitis, per annulumac recipientes, et ejusdem comitis donationisad constituta religiosa firmantes, predictam Ecclesiam atque comitatum sub beati Petriae et Romane Ecclesie protectioneaf specialiter confovendosag suscipimusah, salva Narbonensis metropolitani auctoritate ac reverentiaai, siquidem legitime ordinatus fuerit, et quamdiu communionem Apostolice Sedis habuerit\u00a0; quod si nequaquam talisaj extiterit, ad Romanum Pontificem Magalonensis electus consecrandus accedat.Porro ipsam Ecclesiam tibi tuisqueak successoribus, canonice substitutis, regendam disponendamque perpetuo confirmamus\u00a0; et quecumqueal ad Magalonensem episcopatum seu adam fratrum ibidem degentiuman communiam, regum comitumve liberalitate, vel quorumcumqueao fidelium oblationeap, juste hactenus pertinuisse noscuntur, queque inposterumaq juste poterit adipisci in urbibus, in municipiis, in ecclesiis, in decimis ceterisve redditibus contradendo contradimus, et presentis nostri decretiar pagina constituimus atque sancimusas, quatinus nullus omnino sacerdotum aut cujuslibet ordinis clericorum, nullus imperatorat, regum aut comitum, nullus omnino qualibet preditus dignitate, de hiis, que eidem sancte Magalonensi Ecclesie a quibuslibet donata sunt, vel in futuro, Domino miseranteau, donabuntur, sub cujuslibet cause occasionisve specie, minuere vel auferreav, vel suis usibusaw applicareax, vel aliis quasi piis causis pro sue avaritieay audeat excusationeaz detrahereba\u00a0; sed cuncta ea tam a te quam ab aliis, qui in tuo officio locoque successerint, perempnibb tempore illibata et sine inquietudine volumus possideribc, eorum quidem usibus, pro quorum sustentatione et gubernationebd concessa sunt, modis omnibus profutura.Quia vero sepius contingerebe solet ut, invito clero et populo, seculares potestates sibi placitas nequiterbf nitantur intronisarebg personas, Sanctorum Patrum decreta sequentes, decernimus atque censemus ut te qui nunc ipsius loci, Deo ordinante, episcopus es, vel tuorum quolibet successorum obeunte, in substitutionebh pontificis, nullum sibi honorem, nullum fas potestas quelibetbi arroget secularis\u00a0; sed isbj secundum canonum scita constituatur, quem clerus et populus gratis communi consensu et sine pravitate elegerint.Preterea fraternitati tue tuisque successoribus, quamdiu tales fuerint ut Sedis Apostolice communionem et gratiam habere mereantur, predicti Substantionensisbk comitatus curam injungimus, ut vos censum annuum exigatis\u00a0; et, si predicti comitis Petri heredum successio desierit, nostri nostrorumve successorum vice, prenominatum comitatum regendo disponatis, nullique aliene liceat potestati aliquid ex eodem invaderebl, vel invasum retinere comitatum.Hibm autem qui ex eo quidpiambn invaserintbo, auctoritate denuntiamusbp apostolica ut totum restituant, si Apostolice Sedis gratiam et communionem habere voluerint\u00a0; quodbq si, secundo, tertiovebr commoniti, invasa redderebs distulerint, anathematis se noverint perpetuibt vinculis astringendos.Tuam ergo dilectionem oportet Sedis Apostolice statuta, cujus membrum specialiter effectus es, specialius observare, et Ecclesie tue clericis, ut ad canonicam vitam et religiosambu conversationembv, convertantur arguendo, obsecrandobw et increpando insistere.Ad ostensionembx autem specialisby hujus accepte a Romana Ecclesia libertatis, ex episcopatubz, unam auri unciam quotannis Lateranensi palatioca tu tuique successores persolvetis, quam una ex censu comitatus altera cum uncia presentarecb curabitis\u00a0: hoc sane nostre privilegium sanctioniscc.Si quis in crastinum archiepiscopus, aut episcopus, imperator aut rex, princeps, duxcd, marchio, comes, vel vicecomes, vel judex, vel persona quelibet, magna vel parva, potens aut impotens, temerario ausu, sciens infringere vel temerare presumpserit, secundo, tertiovece commonitus, si non congrue penitens satisfecerit, a Cristi et Ecclesie corpore auctoritatis eum potestate apostolice segregamuscf\u00a0; conservantibus autem pax a Deo et misericordiacg, presentibus ac futuris seculis, conservetur. Amen.Datum Rome, xix kalendas januarii, per manumch Johannis, diaconici Sancte Romane Ecclesie, prosignatoris domini Urbani secundi pape, anno Dominice Incarnationiscj millesimo octogesimock vii, indictione xi cl, anno pontificatus ejusdem domini Urbanicm primo.\n"
        },
        {
            "type": "edition",
            "value": "Julien Rouquette, Augustin Villemagne, <i>Bullaire de l'\u00c9glise de Maguelone<\/i>, Paris, Montpellier : Picard, Valat, 1911-1914, I, n. 4-III, p. 7-15"
        },
        {
            "type": "remarques",
            "value": "Cette bulle est trop importante pour qu\u2019elle ne nous arr\u00eate pas quelques instants. La main-mise de l\u2019\u00c9glise de Rome sur le comt\u00e9 de Melgueil et l\u2019\u00e9v\u00each\u00e9 de Maguelone domine l\u2019histoire de notre dioc\u00e8se. Il importe donc d\u2019\u00e9tablir la l\u00e9gitimit\u00e9 de cette prise de possession.\n\nLes historiens, qui ont trait\u00e9 la question avant nous, nous semblent avoir trop consid\u00e9r\u00e9 les avantages temporels que la Papaut\u00e9 allait retirer de la donation du comt\u00e9, et pas assez les avantages spirituels qui allaient r\u00e9sulter de la donation de l\u2019\u00e9v\u00each\u00e9. La renonciation du comte Pierre aux droits qu\u2019il pr\u00e9tendait avoir sur la nomination des \u00e9v\u00eaques de Maguelone, est, \u00e0 n\u2019en pas douter, ce que les Papes virent de plus clair dans la donation de 1085, t\u00e9moin la bulle d\u2019Urbain\u00a0II. Si, comme nous aimons \u00e0 le croire, Gr\u00e9goire\u00a0VII, sur son lit de mort, en exil, connut l\u2019acte de donation, il dut sentir dans son \u00e2me une consolation, et tourner ses regards de mourant et de pers\u00e9cut\u00e9 vers ce comt\u00e9 de Melgueil, dont le souvenir versait un peu de miel dans le calice d\u2019amertume qu\u2019il avait d\u00fb boire pour fonder la libert\u00e9 de l\u2019\u00c9glise. Dans l\u2019acte de donation, comt\u00e9 et \u00e9v\u00each\u00e9 sont toujours unis\u00a0; en retour, le comte ne re\u00e7oit en fief que le comt\u00e9 de la part de l\u2019\u00e9v\u00eaque d\u2019Albano, l\u00e9gat de Gr\u00e9goire\u00a0VII, et de Godefroid, \u00e9v\u00eaque de Maguelone.\n\nD\u00e8s lors deux questions se posent\u00a0: la situation de l\u2019\u00e9v\u00each\u00e9 avant 1085, et la l\u00e9gitimit\u00e9 de la donation de 1085.\n\nIl est hors de doute que les comtes de Maguelone nommaient les \u00e9v\u00eaques au moins depuis la fin du <span class=\"small-caps\">x<\/span>  <sup>e<\/sup> si\u00e8cle. Ceci nous explique pourquoi nous trouvons dans la liste \u00e9piscopale de Maguelone un fils de comte, et un \u00e9v\u00eaque que, au dire d\u2019<span class=\"small-caps\">Arnaud de Verdale<\/span>, suivi par tous les historiens, nous devons consid\u00e9rer comme simoniaque, bien qu\u2019aucun document ne nous permette de l\u2019affirmer. Le grand Arnaud, qui reconstruisit Maguelone, a trouv\u00e9 gr\u00e2ce devant <span class=\"small-caps\">Arnaud de Verdale<\/span> \u00e0 cause de ses travaux, sans doute. Nous croyons aussi avec <span class=\"small-caps\">Gariel<\/span>, que Godefroid, qui succ\u00e9da \u00e0 Bertrand, fut nomm\u00e9 par le comte, et non par le chapitre, bien que <span class=\"small-caps\">Gariel<\/span> se trompe sur le nom du comte. Le chapitre avait-il alors le droit de nommer l\u2019\u00e9v\u00eaque\u00a0? Tout semble d\u00e9montrer le contraire\u00a0: en tout cas, Urbain\u00a0II n\u2019y fait aucune allusion dans la bulle de ce jour adress\u00e9e au chapitre (voir N\u00b0\u00a05), et nous croyons que ce privil\u00e8ge si important lui a \u00e9t\u00e9 accorde par ce Pape quand il lui donna son statut organique (voir N\u00b0\u00a06).\n\n  Cette usurpation des comtes de Melgueil sur l\u2019\u00e9v\u00each\u00e9 nous semble d\u2019une certaine importance dans la question que nous devons traiter, \u00e0 savoir la l\u00e9gitimit\u00e9 de la donation du comt\u00e9 \u00e0 saint Pierre. Si le comte Pierre pr\u00e9tendait poss\u00e9der le comt\u00e9 et l\u2019\u00e9v\u00each\u00e9, s\u2019il pr\u00e9tendait avoir le droit de choisir pour \u00e9v\u00eaque le sujet qu\u2019il voulait, c\u2019est qu\u2019il revendiquait pour lui des pouvoirs vraiment royaux\u00a0; par cons\u00e9quent, il se consid\u00e9rait, de fait, comme ma\u00eetre absolu dans son comt\u00e9, qui \u00e9tait son alleu, c\u2019est-\u00e0-dire qu\u2019il ne reconnaissait, de fait, aucun suzerain.\n\nOr, en politique, un gouvernement se prescrit, tout comme dans la vie civile, une propri\u00e9t\u00e9. Pierre affirme que lui et ses pr\u00e9d\u00e9cesseurs poss\u00e9daient en alleu le comt\u00e9 avec l\u2019\u00e9v\u00each\u00e9. A quelle \u00e9poque avait eu lieu cette usurpation\u00a0? Rien ne nous permet de l\u2019\u00e9tablir d\u2019une mani\u00e8re satisfaisante\u00a0; mais nous serions assez dispos\u00e9 \u00e0 la faire remonter \u00e0 la fin du r\u00e8gne des Carolingiens au plus tard, par cons\u00e9quent vers 980. Il est certain en tout cas que, au commencement du <span class=\"small-caps\">x<\/span>  <sup>e<\/sup> si\u00e8cle, les comtes de Melgueil s\u2019\u00e9taient attribu\u00e9 un autre droit royal, celui de battre monnaie, et que leur monnaie avait cours dans toute la province.\n\nL\u2019historien se trouve donc, en 1085, en pr\u00e9sence de deux privil\u00e8ges royaux poss\u00e9d\u00e9s par les comtes de Melgueil depuis un temps tr\u00e8s ancien\u00a0: celui de battre monnaie et celui de nommer leur \u00e9v\u00eaque. Est-il surprenant, d\u00e8s lors, que le comte Pierre pr\u00e9tend\u00eet poss\u00e9der son comt\u00e9 en franc-alleu, et pouvoir en disposer \u00e0 sa fantaisie\u00a0?\n\nPersonne n\u2019a attaqu\u00e9 la l\u00e9gitimit\u00e9 de la donation de l\u2019\u00e9v\u00each\u00e9\u00a0: il semblerait que celle du comt\u00e9 fut aussi l\u00e9gitime, et que, par cons\u00e9quent, nous n\u2019ayons pas besoin de d\u00e9fendre cet acte de 1085. Il n\u2019en est rien. Les historiens les plus graves en ont contest\u00e9 la l\u00e9gitimit\u00e9, et n\u2019ont pu pardonner \u00e0 Pierre de Melgueil de s\u2019\u00eatre jet\u00e9 dans les bras du Pape pour \u00e9chapper \u00e0 la puissance sans cesse grandissante des marquis de Gothie, et aussi aux tracasseries de son vassal, entreprenant et r\u00e9calcitrant, le seigneur de Montpellier.\n\n\u00c9coutons dom <span class=\"small-caps\">Vaissete<\/span> (<i>Hist. g\u00e9n. de Languedoc<\/i>, t.\u00a0III, p.\u00a0445)\u00a0: \u00ab\u00a0On voit par cet acte que le comte de Substantion pr\u00e9tendait poss\u00e9der ses domaines <i>en alleu<\/i>, c\u2019est-\u00e0-dire sans les tenir d\u2019aucun seigneur\u00a0; mais si lui ou ses pr\u00e9d\u00e9cesseurs s\u2019\u00e9taient d\u00e9gag\u00e9s de la souverainet\u00e9 des marquis de Gothie,... on ne saurait disconvenir du moins que ce comt\u00e9 fut soumis \u00e0 la souverainet\u00e9 de nos rois, et qu\u2019ainsi il ne pouvait, sans leur consentement, se soustraire \u00e0 leur fid\u00e9lit\u00e9 et \u00e0 leur vasselage pour reconna\u00eetre une puissance \u00e9trang\u00e8re. Le comte Pierre donna donc \u00e0 l\u2019\u00c9glise Romaine ce qui ne lui appartenait pas\u00a0: aussi verrons-nous dans la suite que ses successeurs ne firent pas beaucoup de cas de sa donation.\u00a0\u00bb\n\nCette argumentation nous a paru un peu faible, et m\u00eame nous a surpris sous la plume de ce grave historien. Nous pr\u00e9f\u00e9rerions de beaucoup un document, or il n\u2019en apporte aucun\u00a0; et ses annotateurs, qui reprennent sa th\u00e8se \u00e0 propos d\u2019Innocent\u00a0III, sont, eux aussi, r\u00e9duits \u00e0 des arguments de peu de valeur.\n\nD\u2019abord l\u2019argument tir\u00e9 du peu de cas que les successeurs de Pierre auraient fait de la donation, nous surprend sous la plume du savant b\u00e9n\u00e9dictin. Serait-ce vrai, que cela ne d\u00e9montrerait rien contre la l\u00e9gitimit\u00e9 de l\u2019acte de 1085\u00a0; mais lui-m\u00eame nous apprendra que, si les h\u00e9ritiers furent r\u00e9calcitrants, ils se soumirent cependant, et que Raymond\u00a0VI lui-m\u00eame, tout marquis de Gothie qu\u2019il f\u00fbt, fit hommage au pape Innocent\u00a0III pour ce m\u00eame comt\u00e9 de Melgueil.\n\nDom <span class=\"small-caps\">Vaissete<\/span> dit que Pierre donna ce qui ne lui appartenait pas\u00a0; que par cons\u00e9quent Gr\u00e9goire\u00a0VII, par son l\u00e9gat, accepta un bien ill\u00e9gitime, et que les marquis de Gothie, ou au moins les rois de France, furent frustr\u00e9s de leur suzerainet\u00e9 sur le comt\u00e9 de Melgueil. Nous voudrions un peu plus de pr\u00e9cision, mais passons, et examinons quels \u00e9taient les droits des marquis de Gothie sur ce comt\u00e9, et ceux des rois de France.\n\nN\u2019oublions pas, tout d\u2019abord, que nous sommes au <span class=\"small-caps\">xi<\/span>  <sup>e<\/sup> si\u00e8cle et non au <span class=\"small-caps\">xviii<\/span>  <sup>e<\/sup> avec dom <span class=\"small-caps\">Vaissete<\/span>, et jugeons les \u00e9v\u00e9nements avec l\u2019esprit de l\u2019\u00e9poque.\n\nLe marquisat de Gothie (<i>Hist. g\u00e9n. de Languedoc<\/i>, t.\u00a0III, p.\u00a089) aurait compris, vers 918, la plus grande partie du dioc\u00e8se de Narbonne, ceux d\u2019Elne, de B\u00e9ziers, d\u2019Agde, de Lod\u00e8ve, de Maguelone et de Nimes\u00a0; mais il importe de remarquer que si d\u00e8s l\u2019origine (<span class=\"small-caps\">ix<\/span>  <sup>e<\/sup> si\u00e8cle) il a pu exister des comtes de B\u00e9ziers, de Lod\u00e8ve, etc., leur existence a \u00e9t\u00e9 \u00e9ph\u00e9m\u00e8re, et que, d\u00e8s le milieu du <span class=\"small-caps\">x<\/span>  <sup>e<\/sup> si\u00e8cle, il n\u2019y avait que deux comtes dans la province\u00a0: celui de Rouergue-Toulouse (nous unissons ces deux mots \u00e0 dessein) et celui de Substantion ou Melgueil.\n\nLe titre de marquis de Gothie, qui fut, vers 918, accord\u00e9 \u00e0 la famille de Rouergue-Toulouse, resta longtemps indivis, puis fut l\u2019apanage de la famille du comte de Rouergue, pour revenir dans la branche de Toulouse, ce titre-l\u00e0, disons-nous, donnait-il une suzerainet\u00e9 quelconque sur les comtes\u00a0? Sur les vicomtes, cela est certain\u00a0; mais nous avons cherch\u00e9 en vain, dans les documents de l\u2019\u00e9poque, une preuve quelconque pouvant confirmer l\u2019opinion de dom <span class=\"small-caps\">Vaissete<\/span>. Depuis le commencement du <span class=\"small-caps\">x<\/span>  <sup>e<\/sup> si\u00e8cle, \u00e0 l\u2019encontre de ce que font les vicomtes, les comtes de Melgueil disposent de leurs biens en ma\u00eetres absolus, et n\u2019ont pas besoin que le marquis de Gothie approuve leurs actes.\n\nDonc, d\u2019un c\u00f4t\u00e9, absence totale d\u2019exercice de juridiction, aussi haut que nous pouvons remonter\u00a0; de l\u2019autre, si, \u00e0 la fin du <span class=\"small-caps\">xi<\/span>  <sup>e<\/sup> si\u00e8cle, on peut nous citer des actes o\u00f9 les comtes de Toulouse, ducs de Narbonne, marquis de Gothie, ajoutent \u00e0 ces titres celui de Nimes, B\u00e9ziers, etc., nous n\u2019en connaissons aucun o\u00f9 ils se soient appel\u00e9s comtes de Melgueil, ou aient voulu d\u00e9montrer leur suzerainet\u00e9 sur cette partie de la province. Un pouvoir qui ne s\u2019exerce pas pendant plus de cent cinquante ans, nous para\u00eet bien pr\u00e9caire.\n\nEnfin, n\u2019oublions pas que le comte Pierre \u00e9tait le beau-fr\u00e8re du comte de Toulouse et du c\u00e9l\u00e8bre Raymond de Saint-Gilles. Il nous para\u00eet bien difficile d\u2019admettre que sa femme Almodis ait sign\u00e9, de ga\u00eet\u00e9 de c\u0153ur, un acte qui \u00e9tait contraire aux int\u00e9r\u00eats de sa famille, et que les deux fr\u00e8res n\u2019aient pas aussit\u00f4t protest\u00e9 contre une pareille donation. Ce silence des contemporains, int\u00e9ress\u00e9s dans l\u2019affaire, nous para\u00eet significatif. D\u2019ailleurs dom <span class=\"small-caps\">Vaissete<\/span> n\u2019insiste pas beaucoup sur la pr\u00e9tendue suzerainet\u00e9 des marquis de Gothie, mais beaucoup plus sur celle des rois de France.\n\nAu lieu d\u2019entrer dans le fond du d\u00e9bat, nous pourrions demander o\u00f9 se trouve la protestation du roi de France contre l\u2019acte de 1085. Donc nos rois ne se crurent pas beaucoup l\u00e9s\u00e9s par cette donation, puisqu\u2019ils se gard\u00e8rent bien de protester, et que nous devons arriver \u00e0 saint Louis pour enregistrer un tel acte.\n\nCe silence des premiers Cap\u00e9tiens devrait nous suffire\u00a0; mais nous croyons n\u00e9cessaire d\u2019appuyer davantage.\n\nEn politique, nous ne devons voir que le fait. Il est permis \u00e0 un peuple de revendiquer des droits sur une province au nom de la conqu\u00eate, ou de la g\u00e9ographie ou de l\u2019ethnographie\u00a0; mais, de fait, ces droits peuvent \u00eatre parfaitement chim\u00e9riques, pour ne pas dire ridicules. C\u2019est, croyons-nous, le cas en ce moment.\n\nNous admirons beaucoup ce passage o\u00f9 dom <span class=\"small-caps\">Vaissete<\/span> parle de la \u00ab\u00a0souverainet\u00e9 de <i>nos<\/i> rois\u00a0\u00bb sur le comt\u00e9 de Melgueil. Le savant B\u00e9n\u00e9dictin oublie qu\u2019il y avait quelque part une d\u00e9marcation entre le Languedoc et la France, d\u00e9marcation qui a exist\u00e9 jusqu\u2019\u00e0 la fin du <span class=\"small-caps\">xv<\/span>  <sup>e<\/sup> si\u00e8cle, et que <i>nos<\/i> rois allaient de France en Languedoc\u00a0; il oublie trop que les plus belles pages qu\u2019il a \u00e9crites, sont celles o\u00f9 il raconte l\u2019agonie de la patrie Occitanienne\u00a0; que c\u2019est lui qui, le premier, contrairement \u00e0 l\u2019opinion de ses contemporains, a os\u00e9 dire la v\u00e9rit\u00e9 sur la guerre des Albigeois et la ruine de la puissante famille de Toulouse.\n\nEn \u00e9crivant les lignes que nous avons cit\u00e9es plus haut, dom <span class=\"small-caps\">Vaissete<\/span> pouvait suivre ses sentiments personnels, \u2014 nous les connaissons \u2014, il oubliait son r\u00f4le d\u2019historien grave et impartial, auquel il nous a accoutum\u00e9.\n\nQuels droits Hugues Capet et ses successeurs pouvaient-ils revendiquer sur cette partie du littoral, que nous sommes habitu\u00e9s \u00e0 consid\u00e9rer comme faisant partie de la France\u00a0? Aucun, pas m\u00eame un droit purement chim\u00e9rique, par cons\u00e9quent, de fait, inutile. Vouloir nous repr\u00e9senter les premiers Cap\u00e9tiens comme les h\u00e9ritiers directs des Carolingiens, est une erreur qui n\u2019a m\u00eame pas pu na\u00eetre un instant dans l\u2019esprit de dom <span class=\"small-caps\">Vaissete<\/span>.\n\nHugues Capet est un usurpateur heureux\u00a0: la distance des si\u00e8cles nous fait lui pardonner son usurpation. Il n\u2019en est pas moins vrai que c\u2019est par la force qu\u2019il a substitu\u00e9 son autorit\u00e9 \u00e0 celle des derniers Carolingiens, et que, pour lui, nous devrions faire une exception, et dire que c\u2019est avec justice que la force a prim\u00e9 le droit.\n\nHugues Capet, h\u00e9ritier des Carolingiens\u00a0! Oui\u00a0; comme un serviteur infid\u00e8le qui chasse son ma\u00eetre. Que Charles de Lorraine, son comp\u00e9titeur, ait invoqu\u00e9, comme h\u00e9ritier de son neveu Louis le Fain\u00e9ant, des droits sur le comt\u00e9 de Melgueil, ceci nous para\u00eetrait encore admissible, droits caducs, mais enfin d\u00e9fendables. Il n\u2019en est pas de m\u00eame pour Hugues. Nous rions de Napol\u00e9on qui se pose en h\u00e9ritier de Charlemagne. Plus politique et moins ambitieux, Hugues Capet \u00e9tendait ses droits o\u00f9 pouvait arriver la longueur de son \u00e9p\u00e9e. Elle n\u2019arrivait pas encore dans le Midi de la France, qui, de fait, comme le constate <span class=\"small-caps\">Fauriel<\/span> \u00e0 la fin de son <i>Histoire de la Gaule M\u00e9ridionale<\/i>, avait recouvr\u00e9 son ind\u00e9pendance. Le fait et le droit se confondent dans la justice sociale\u00a0; et quand un pouvoir quelconque n\u2019est plus capable de se faire respecter dans une province, ses droits sont nuls, car les peuples ont besoin d\u2019un pouvoir pour les prot\u00e9ger. Il est hors de doute que si les habitants du comt\u00e9 de Melgueil avaient d\u00fb attendre aide et protection des premiers Cap\u00e9tiens, ils auraient attendu longtemps toute justice. Le comt\u00e9 de Melgueil appartenait \u00e0 Hugues Capet au m\u00eame titre que le comt\u00e9 de Barcelone.\n\nOn est mal venu en cette affaire \u00e0 invoquer une question de loyalisme. Sous ce rapport, nos comtes furent plus fid\u00e8les que Hugues Capet, et ils avaient sur le comt\u00e9 qu\u2019ils occupaient, un certain droit moral et l\u00e9gitime que ne put jamais invoquer le roitelet qui bataillait pr\u00e8s de Paris. Nous ne contestons pas son sens politique. On dirait qu\u2019il a laiss\u00e9 un testament secret, ex\u00e9cut\u00e9 fid\u00e8lement par ses h\u00e9ritiers, et qu\u2019il leur a l\u00e9gu\u00e9, en m\u00eame temps que la couronne, une intelligence des \u00e9v\u00e9nements que peut-\u00eatre n\u2019a poss\u00e9d\u00e9 aucune autre famille royale\u00a0; mais quand Bernard\u00a0III, grand-p\u00e8re de Pierre, comte de Melgueil, fut comte vers 987, il pouvait traiter d\u2019\u00e9gal \u00e0 \u00e9gal avec Hugues Capet\u00a0: tous deux devaient leur fortune aux Carolingiens. Et, quand ce dernier se fut mis en leur place, le comte de Melgueil, moins ambitieux, poss\u00e9dant un petit territoire, ayant un atelier mon\u00e9taire, qui le faisait le plus riche seigneur de la contr\u00e9e, pouvait rire de l\u2019ambition de son coll\u00e8gue du Nord de la France\u00a0: deux cents lieues le s\u00e9paraient du vainqueur des Carolingiens\u00a0; et comme lui, mais sans avoir viol\u00e9 aucun serment, il pouvait, tout petit roitelet, se proclamer heureux, libre et ind\u00e9pendant.\n\nUn si\u00e8cle s\u2019\u00e9coule depuis l\u2019av\u00e8nement de Hugues Capet, et les Cap\u00e9tiens ne font aucun acte pour d\u00e9montrer, au moins th\u00e9oriquement, qu\u2019ils avaient certains droits sur le Midi. Dans le Nord, leur puissance grandit\u00a0: le comte Pierre de Melgueil donne son comt\u00e9 au Pape et le reconna\u00eet comme son suzerain. Trois quarts de si\u00e8cle s\u2019\u00e9coulent encore, avant que nous voyons un roi de France intervenir par un acte quelconque dans le comt\u00e9 de Melgueil.\n\nEn v\u00e9rit\u00e9 quels sont ces droits\u00a0? Que valent-ils\u00a0? Des droits qui ne s\u2019exercent pas pendant deux si\u00e8cles, ne sont pas d\u00e9fendables.\n\nCe fut en toute justice que Pierre, comte de Melgueil, beau-fr\u00e8re du marquis de Gothie, donna son comt\u00e9 \u00e0 l\u2019\u00c9glise Romaine dans la personne de l\u2019\u00e9v\u00eaque d\u2019Albano, l\u00e9gat de Gr\u00e9goire\u00a0VII. D\u00e9sormais donc le comte de Melgueil paiera au Pape, en signe de vassalit\u00e9, un cens annuel d\u2019une once d\u2019or. Conform\u00e9ment aux lois f\u00e9odales, il suffira que ce cens ne soit pas pay\u00e9 pour que le Pape d\u00e9clare le comt\u00e9 tomb\u00e9 en commis. Nous verrons dans la suite la conduite d\u2019Innocent\u00a0III et celle de Cl\u00e9ment\u00a0IV.\n\nD\u00e9sormais Maguelone fera partie du domaine des Papes. Les \u00e9v\u00eaques sont ses d\u00e9l\u00e9gu\u00e9s sp\u00e9ciaux aupr\u00e8s du comte\u00a0: ils doivent veiller \u00e0 la perception du cens annuel, et, faute d\u2019h\u00e9ritiers, assurer la succession. En m\u00eame temps le dioc\u00e8se est plac\u00e9 sous la libert\u00e9 romaine, et, chaque ann\u00e9e, l\u2019\u00e9v\u00eaque devra payer, lui aussi, une once d\u2019or pour reconna\u00eetre cette protection. Cette once d\u2019or, \u00e0 laquelle les historiens de notre \u00c9glise n\u2019ont pas pr\u00eat\u00e9 suffisamment attention, ne sera pas confondue avec les vingt marcs d\u2019argent que l\u2019\u00e9v\u00eaque devra payer, au <span class=\"small-caps\">xiii<\/span>  <sup>e<\/sup> si\u00e8cle, au tr\u00e9sor pontifical, quand le comt\u00e9 lui aura \u00e9t\u00e9 inf\u00e9od\u00e9. Nous verrons Innocent\u00a0III sp\u00e9cifier avec soin les deux cens dans sa bulle d\u2019inf\u00e9odation.\n\n[Rouquette-Villemagne]"
        },
        {
            "type": "apparat_critique",
            "value": "Cette bulle se trouve dans le <i>Cartulaire de Maguelone<\/i>, le <i>Bullaire de Maguelone<\/i> et le <i>Livre des Privil\u00e8ges<\/i>. Nous avons \u00e9tabli le texte d\u2019apr\u00e8s ces trois le\u00e7ons. Voici les variantes\u00a0:",
            "children": {
                "numero_note": "a"
            }
        },
        {
            "type": "apparat_critique",
            "value": "Cart. et Bull.\u00a0: <i>ejusdem<\/i>\u00a0; Priv.\u00a0: <i>eisdem<\/i>.",
            "children": {
                "numero_note": "aa"
            }
        },
        {
            "type": "apparat_critique",
            "value": "Priv.\u00a0: <i>Substantionensis<\/i>\u00a0; Cart. et Bull.\u00a0: <i>Substancionensis<\/i>.",
            "children": {
                "numero_note": "ab"
            }
        },
        {
            "type": "apparat_critique",
            "value": "Cart., Priv. et Bull.\u00a0: <i>anulum<\/i>.",
            "children": {
                "numero_note": "ac"
            }
        },
        {
            "type": "apparat_critique",
            "value": "Priv.\u00a0: <i>donationis<\/i>\u00a0; Cart. et Bull.\u00a0: <i>donacionis<\/i>.",
            "children": {
                "numero_note": "ad"
            }
        },
        {
            "type": "apparat_critique",
            "value": "Priv. et Bull.\u00a0: <i>Petri<\/i>\u00a0; Cart.\u00a0: <i>P<\/i>.",
            "children": {
                "numero_note": "ae"
            }
        },
        {
            "type": "apparat_critique",
            "value": "Priv. et Bull.\u00a0: <i>protectione<\/i>\u00a0; Cart.\u00a0: <i>proteccione<\/i>.",
            "children": {
                "numero_note": "af"
            }
        },
        {
            "type": "apparat_critique",
            "value": "Cart., Bull. et Priv.\u00a0: <i>confovendum<\/i>.",
            "children": {
                "numero_note": "ag"
            }
        },
        {
            "type": "apparat_critique",
            "value": "Cart. et Bull.\u00a0: <i>suscepimus<\/i>\u00a0; Priv.\u00a0: <i>suscipimus<\/i>.",
            "children": {
                "numero_note": "ah"
            }
        },
        {
            "type": "apparat_critique",
            "value": "Cart. et Priv.\u00a0: <i>reverentia<\/i>\u00a0; Bull.\u00a0: <i>reverencia<\/i>.",
            "children": {
                "numero_note": "ai"
            }
        },
        {
            "type": "apparat_critique",
            "value": "Cart. et Bull.\u00a0: <i>taliter<\/i>\u00a0; Priv.\u00a0: <i>talis<\/i>.",
            "children": {
                "numero_note": "aj"
            }
        },
        {
            "type": "apparat_critique",
            "value": "Cart. et Priv.\u00a0: <i>tuisque<\/i>\u00a0; Bull.\u00a0: <i>ejusque<\/i>.",
            "children": {
                "numero_note": "ak"
            }
        },
        {
            "type": "apparat_critique",
            "value": "Cart. et Priv.\u00a0: <i>quecumque<\/i>\u00a0; Bull.\u00a0: <i>quicumque<\/i>.",
            "children": {
                "numero_note": "al"
            }
        },
        {
            "type": "apparat_critique",
            "value": "Cart. et Bull.\u00a0: <i>ad<\/i>\u00a0; Priv.\u00a0: <i>ac<\/i>.",
            "children": {
                "numero_note": "am"
            }
        },
        {
            "type": "apparat_critique",
            "value": "Priv.\u00a0: <i>degentium<\/i>\u00a0; Cart. et Bull.\u00a0: <i>degencium<\/i>.",
            "children": {
                "numero_note": "an"
            }
        },
        {
            "type": "apparat_critique",
            "value": "Priv. et Bull.\u00a0: <i>quorumcumque<\/i>\u00a0; Cart.\u00a0: <i>quorumque<\/i>.",
            "children": {
                "numero_note": "ao"
            }
        },
        {
            "type": "apparat_critique",
            "value": "Bull. et Cart.\u00a0: <i>oblacione<\/i>\u00a0; Priv.\u00a0: <i>oblatione<\/i>.",
            "children": {
                "numero_note": "ap"
            }
        },
        {
            "type": "apparat_critique",
            "value": "Cart.\u00a0: <i>imposterum<\/i>\u00a0; Bull.\u00a0: <i>inposterum<\/i>\u00a0; Priv.\u00a0: <i>iposterum<\/i>. (Signe abbr\u00e9viatif sur l\u2019<i>i<\/i>).",
            "children": {
                "numero_note": "aq"
            }
        },
        {
            "type": "apparat_critique",
            "value": "Priv. et Bull.\u00a0: <i>decreti<\/i>\u00a0; Cart.\u00a0: <i>decret<\/i>.",
            "children": {
                "numero_note": "ar"
            }
        },
        {
            "type": "apparat_critique",
            "value": "Cart. et Priv.\u00a0: <i>sanccimus<\/i>\u00a0; Bull.\u00a0: <i>sanximus<\/i>.",
            "children": {
                "numero_note": "as"
            }
        },
        {
            "type": "apparat_critique",
            "value": "Priv.\u00a0: <i>imperatorum<\/i>\u00a0; Cart. et Bull.\u00a0: <i>imperator<\/i>.",
            "children": {
                "numero_note": "at"
            }
        },
        {
            "type": "apparat_critique",
            "value": "Cart. et Priv.\u00a0: <i>Domino miserante<\/i>\u00a0; Bull.\u00a0: <i>miserante Domino<\/i>.",
            "children": {
                "numero_note": "au"
            }
        },
        {
            "type": "apparat_critique",
            "value": "Priv. et Bull.\u00a0: <i>auferre<\/i>\u00a0; Cart.\u00a0: <i>aufferre<\/i>.",
            "children": {
                "numero_note": "av"
            }
        },
        {
            "type": "apparat_critique",
            "value": "Priv.\u00a0: <i>usibus<\/i>\u00a0; Cart. et Bull.\u00a0: <i>juribus<\/i>.",
            "children": {
                "numero_note": "aw"
            }
        },
        {
            "type": "apparat_critique",
            "value": "Priv. et Bull.\u00a0: <i>applicare<\/i>\u00a0; Cart.\u00a0: <i>aplicare<\/i>.",
            "children": {
                "numero_note": "ax"
            }
        },
        {
            "type": "apparat_critique",
            "value": "Cart., Priv. et Bull.\u00a0: <i>avaricie<\/i>.",
            "children": {
                "numero_note": "ay"
            }
        },
        {
            "type": "apparat_critique",
            "value": "Priv.\u00a0: <i>excusatione<\/i>\u00a0; Cart. et Bull.\u00a0: <i>excusacione<\/i>. Nous suivons la le\u00e7on du <i>Cartulaire<\/i> et du <i>Livre des Privil\u00e8ges<\/i>. Le Bullaire porte\u00a0: <i>avaricie excusacione audeat detrahere excusacione<\/i>.",
            "children": {
                "numero_note": "az"
            }
        },
        {
            "type": "apparat_critique",
            "value": "Cart. et Priv.\u00a0: <i>imperpetuum<\/i>\u00a0; Bull.\u00a0: <i>inperpetuum<\/i>.",
            "children": {
                "numero_note": "b"
            }
        },
        {
            "type": "apparat_critique",
            "value": "Cart. et Priv.\u00a0: <i>detrahere<\/i>\u00a0; Bull.\u00a0: <i>distrahere<\/i>.",
            "children": {
                "numero_note": "ba"
            }
        },
        {
            "type": "apparat_critique",
            "value": "Priv.\u00a0: <i>perempni<\/i>\u00a0; Bull.\u00a0: <i>perenni<\/i>\u00a0; Cart.\u00a0: <i>perhenni<\/i>.",
            "children": {
                "numero_note": "bb"
            }
        },
        {
            "type": "apparat_critique",
            "value": "Cart. et Bull.\u00a0: <i>possideri<\/i>\u00a0; Priv.\u00a0: <i>possidere<\/i>.",
            "children": {
                "numero_note": "bc"
            }
        },
        {
            "type": "apparat_critique",
            "value": "Priv.\u00a0: <i>sustentatione et gubernatione<\/i>\u00a0; Cart. et Bull.\u00a0: <i>sustentacione et gubernacione<\/i>.",
            "children": {
                "numero_note": "bd"
            }
        },
        {
            "type": "apparat_critique",
            "value": "Priv. et Cart.\u00a0: <i>contingere<\/i>\u00a0; Bull.\u00a0: <i>contigere<\/i>.",
            "children": {
                "numero_note": "be"
            }
        },
        {
            "type": "apparat_critique",
            "value": "Cart. et Priv. ont ce mot\u00a0; Bull. ne l\u2019a pas.",
            "children": {
                "numero_note": "bf"
            }
        },
        {
            "type": "apparat_critique",
            "value": "Priv.\u00a0: <i>intronisare<\/i>\u00a0; Bull. et Cart.\u00a0: <i>intronizare<\/i>.",
            "children": {
                "numero_note": "bg"
            }
        },
        {
            "type": "apparat_critique",
            "value": "Cart. et Bull.\u00a0: <i>vel tuorum quolibet obeunte institucione pontificis<\/i>\u00a0; Priv.\u00a0: comme le texte que nous donnons.",
            "children": {
                "numero_note": "bh"
            }
        },
        {
            "type": "apparat_critique",
            "value": "Cart. et Bull.\u00a0: <i>quelibet<\/i>\u00a0; Priv.\u00a0: <i>qualibet<\/i>.",
            "children": {
                "numero_note": "bi"
            }
        },
        {
            "type": "apparat_critique",
            "value": "Cart. et Bull.\u00a0: <i>is<\/i>\u00a0; Priv.\u00a0: <i>id<\/i>.",
            "children": {
                "numero_note": "bj"
            }
        },
        {
            "type": "apparat_critique",
            "value": "Priv.\u00a0: <i>Substantionensis<\/i>\u00a0; Cart. et Bull.\u00a0: <i>Substancionensis<\/i>.",
            "children": {
                "numero_note": "bk"
            }
        },
        {
            "type": "apparat_critique",
            "value": "Priv.\u00a0: <i>ex eodem invadere comitatu<\/i>\u00a0; Cart.\u00a0: <i>ex eodem invadere vel invasum retinere comitatu<\/i>\u00a0; Bull. comme le Cart., avec cette variante\u00a0: <i>comitatum<\/i>... etc.",
            "children": {
                "numero_note": "bl"
            }
        },
        {
            "type": "apparat_critique",
            "value": "Cart.\u00a0: <i>his<\/i>\u00a0; Bull.\u00a0: <i>hiis<\/i>\u00a0; Priv.\u00a0: <i>Is<\/i>.",
            "children": {
                "numero_note": "bm"
            }
        },
        {
            "type": "apparat_critique",
            "value": "Cart. et Bull.\u00a0: <i>quippiam<\/i>\u00a0; Priv.\u00a0: <i>quispiam<\/i>.",
            "children": {
                "numero_note": "bn"
            }
        },
        {
            "type": "apparat_critique",
            "value": "Bull.\u00a0: <i>invaserunt<\/i>\u00a0; Priv.\u00a0: <i>invaserint<\/i>\u00a0; Cart.\u00a0: <i>invaserit<\/i>.",
            "children": {
                "numero_note": "bo"
            }
        },
        {
            "type": "apparat_critique",
            "value": "Cart. et Priv.\u00a0: <i>denunciamus<\/i>\u00a0; Bull.\u00a0: <i>denuntiamus<\/i>.",
            "children": {
                "numero_note": "bp"
            }
        },
        {
            "type": "apparat_critique",
            "value": "Cart. et Bull.\u00a0: <i>quod<\/i>\u00a0; Priv.\u00a0: <i>et<\/i>.",
            "children": {
                "numero_note": "bq"
            }
        },
        {
            "type": "apparat_critique",
            "value": "Cart., Bull. et Priv.\u00a0: <i>terciove<\/i>.",
            "children": {
                "numero_note": "br"
            }
        },
        {
            "type": "apparat_critique",
            "value": "Cart. et Bull.\u00a0: <i>reddere<\/i>\u00a0; Priv.\u00a0: <i>restituere<\/i>.",
            "children": {
                "numero_note": "bs"
            }
        },
        {
            "type": "apparat_critique",
            "value": "Cart. et Priv.\u00a0: <i>perpetui<\/i>\u00a0; Bull.\u00a0: <i>perpetuo<\/i>.",
            "children": {
                "numero_note": "bt"
            }
        },
        {
            "type": "apparat_critique",
            "value": "Cart. et Priv.\u00a0: <i>religiosam<\/i>\u00a0; Bull.\u00a0: <i>religionis<\/i>.",
            "children": {
                "numero_note": "bu"
            }
        },
        {
            "type": "apparat_critique",
            "value": "Cart. et Bull.\u00a0: <i>conversacionem<\/i>\u00a0; Priv.\u00a0: <i>conversationem<\/i>.",
            "children": {
                "numero_note": "bv"
            }
        },
        {
            "type": "apparat_critique",
            "value": "Cart. et Bull.\u00a0: <i>observando<\/i>\u00a0; Priv.\u00a0: <i>obsecrando<\/i>.",
            "children": {
                "numero_note": "bw"
            }
        },
        {
            "type": "apparat_critique",
            "value": "Priv.\u00a0: <i>ostensionem<\/i>\u00a0; Cart. et Bull.\u00a0: <i>ostencionem<\/i>.",
            "children": {
                "numero_note": "bx"
            }
        },
        {
            "type": "apparat_critique",
            "value": "Cart.\u00a0: <i>specialis<\/i>\u00a0; Priv. et Bull.\u00a0: <i>specialem<\/i>.",
            "children": {
                "numero_note": "by"
            }
        },
        {
            "type": "apparat_critique",
            "value": "Priv.\u00a0: <i>ex episcopatus censu unam<\/i>\u00a0; Cart. et Bull.\u00a0: <i>ex episcopatu unam<\/i>.",
            "children": {
                "numero_note": "bz"
            }
        },
        {
            "type": "apparat_critique",
            "value": "Bull.\u00a0: <i>miserante, per<\/i>\u00a0; Cart. et Priv.\u00a0: <i>miserante Deo, per<\/i>.",
            "children": {
                "numero_note": "c"
            }
        },
        {
            "type": "apparat_critique",
            "value": "Priv.\u00a0: <i>palatio<\/i>\u00a0; Bull. et Cart.\u00a0: <i>palacio<\/i>.",
            "children": {
                "numero_note": "ca"
            }
        },
        {
            "type": "apparat_critique",
            "value": "Cart.\u00a0: <i>prestare<\/i>\u00a0; Bull. et Priv.\u00a0: <i>presentare<\/i>.",
            "children": {
                "numero_note": "cb"
            }
        },
        {
            "type": "apparat_critique",
            "value": "Cart. et Priv.\u00a0: <i>sanctionis<\/i>\u00a0; Bull.\u00a0: <i>sanxionis<\/i>.",
            "children": {
                "numero_note": "cc"
            }
        },
        {
            "type": "apparat_critique",
            "value": "Cart. et Priv.\u00a0: comme le texte que nous donnons\u00a0; Bull.\u00a0: <i>archiepiscopus, dux, marchio<\/i>, etc.",
            "children": {
                "numero_note": "cd"
            }
        },
        {
            "type": "apparat_critique",
            "value": "Priv.\u00a0: <i>terciove<\/i>\u00a0; Cart.\u00a0: <i>tertio<\/i>\u00a0; Bull.\u00a0: <i>tercio<\/i>.",
            "children": {
                "numero_note": "ce"
            }
        },
        {
            "type": "apparat_critique",
            "value": "Nous donnons le texte du <i>Cartulaire<\/i> et du <i>Bullaire<\/i>. Priv.\u00a0: <i>Corpore potestate eum auctoritatis apostolice segregamus<\/i>.",
            "children": {
                "numero_note": "cf"
            }
        },
        {
            "type": "apparat_critique",
            "value": "Cart. et Bull.\u00a0: <i>nra<\/i> = <i>nostra<\/i>\u00a0; Priv.\u00a0: <i>misericordia<\/i>.",
            "children": {
                "numero_note": "cg"
            }
        },
        {
            "type": "apparat_critique",
            "value": "Cart. et Bull.\u00a0: <i>manum<\/i>\u00a0; Priv.\u00a0: <i>manus<\/i>.",
            "children": {
                "numero_note": "ch"
            }
        },
        {
            "type": "apparat_critique",
            "value": "Cart. et Priv.\u00a0: <i>diaconi<\/i>\u00a0; Bull.\u00a0: <i>dyaconi<\/i>.",
            "children": {
                "numero_note": "ci"
            }
        },
        {
            "type": "apparat_critique",
            "value": "Cart. et Bull.\u00a0: <i>incarnacionis<\/i>\u00a0; Priv.\u00a0: en abr\u00e9g\u00e9.",
            "children": {
                "numero_note": "cj"
            }
        },
        {
            "type": "apparat_critique",
            "value": "Priv.\u00a0: <i>octogesimo<\/i>\u00a0; Cart. et Bull.\u00a0: <i>vetogesimo<\/i>.",
            "children": {
                "numero_note": "ck"
            }
        },
        {
            "type": "apparat_critique",
            "value": "Priv.\u00a0: <i>indictione II<\/i>\u00a0; Cart. et Bull.\u00a0: <i>indictione XI<\/i>. Pas de doute\u00a0: la le\u00e7on du <i>Cartulaire<\/i> et du <i>Bullaire<\/i> doit \u00eatre suivie.",
            "children": {
                "numero_note": "cl"
            }
        },
        {
            "type": "apparat_critique",
            "value": "Cart.\u00a0: <i>U<\/i>\u00a0; Priv.\u00a0: <i>Urbani<\/i>.",
            "children": {
                "numero_note": "cm"
            }
        },
        {
            "type": "apparat_critique",
            "value": "Cart. et Priv.\u00a0: <i>propria<\/i>\u00a0; Bull.\u00a0: <i>proprio<\/i>.",
            "children": {
                "numero_note": "d"
            }
        },
        {
            "type": "apparat_critique",
            "value": "Cart. et Bull.\u00a0: <i>constat<\/i>\u00a0; Priv.\u00a0: <i>crescat<\/i>.",
            "children": {
                "numero_note": "e"
            }
        },
        {
            "type": "apparat_critique",
            "value": "Priv. et Cart.\u00a0: <i>astut\u2019<\/i> = <i>astutus<\/i>\u00a0; Bull.\u00a0: <i>astutus<\/i> en toutes lettres.",
            "children": {
                "numero_note": "f"
            }
        },
        {
            "type": "apparat_critique",
            "value": "Cart. et Priv.\u00a0: <i>negligentia<\/i>\u00a0; Bull.\u00a0: <i>negligencia<\/i>.",
            "children": {
                "numero_note": "g"
            }
        },
        {
            "type": "apparat_critique",
            "value": "Priv.\u00a0: <i>ditioni<\/i>\u00a0; Cart.\u00a0: <i>dicioni<\/i>\u00a0; Bull.\u00a0: <i>dictioni<\/i>.",
            "children": {
                "numero_note": "h"
            }
        },
        {
            "type": "apparat_critique",
            "value": "Priv.\u00a0: <i>miserationis<\/i>\u00a0; Cart. et Bull.\u00a0: <i>miseracionis<\/i>.",
            "children": {
                "numero_note": "i"
            }
        },
        {
            "type": "apparat_critique",
            "value": "Cart.\u00a0: <i>regimem<\/i>\u00a0; Bull.\u00a0: <i>regimen<\/i>\u00a0; Priv.\u00a0: <i>regime<\/i>. Signe abr\u00e9viatif de la nasale sur l\u2019<i>e<\/i>.",
            "children": {
                "numero_note": "j"
            }
        },
        {
            "type": "apparat_critique",
            "value": "Cart. et Bull.\u00a0: <i>Dominus<\/i>\u00a0; Priv.\u00a0: <i>Deus<\/i>.",
            "children": {
                "numero_note": "k"
            }
        },
        {
            "type": "apparat_critique",
            "value": "Cart. et Bull.\u00a0: <i>mala<\/i>\u00a0; Priv.\u00a0: <i>prava<\/i>.",
            "children": {
                "numero_note": "l"
            }
        },
        {
            "type": "apparat_critique",
            "value": "Cart. et Bull.\u00a0: <i>ascendendum<\/i>\u00a0; Priv.\u00a0: <i>ascedendum<\/i>.",
            "children": {
                "numero_note": "m"
            }
        },
        {
            "type": "apparat_critique",
            "value": "Cart.\u00a0: <i>Guodafride<\/i>\u00a0; Priv. et Bull.\u00a0: <i>Godefride<\/i>.",
            "children": {
                "numero_note": "n"
            }
        },
        {
            "type": "apparat_critique",
            "value": "Priv.\u00a0: <i>permansura<\/i>\u00a0; Cart. et Bull.\u00a0: <i>permansuram<\/i>.",
            "children": {
                "numero_note": "o"
            }
        },
        {
            "type": "apparat_critique",
            "value": "Priv.\u00a0: <i>suam<\/i>\u00a0; Cart. et Bull.\u00a0: <i>quam<\/i>.",
            "children": {
                "numero_note": "p"
            }
        },
        {
            "type": "apparat_critique",
            "value": "Priv.\u00a0: <i>ex nefanda consuetudine<\/i>\u00a0; Bull.\u00a0: <i>consuetudine ex nefanda<\/i>\u00a0; Cart.\u00a0: <i>ex nefanda<\/i> est en renvoi apr\u00e8s <i>consuetudine<\/i> et se trouve en marge et \u00e0 la fin de l\u2019acte.",
            "children": {
                "numero_note": "q"
            }
        },
        {
            "type": "apparat_critique",
            "value": "Priv.\u00a0: <i>Substantionenses<\/i>\u00a0; Bull. et Cart.\u00a0: <i>Substancionenses<\/i>.",
            "children": {
                "numero_note": "r"
            }
        },
        {
            "type": "apparat_critique",
            "value": "Priv. et Cart.\u00a0: <i>astrinxerant<\/i>\u00a0; Bull.\u00a0: <i>asstrinxerant<\/i>.",
            "children": {
                "numero_note": "s"
            }
        },
        {
            "type": "apparat_critique",
            "value": "Bull.\u00a0: <i>juris erat, linquit eo videlicet<\/i>... etc.\u00a0; Priv. et Cart. concordent, et donnent le texte tel que nous le publions. Cart. porte\u00a0: <i>derelinquit<\/i>\u00a0; Priv.\u00a0: <i>dereliquit<\/i>.",
            "children": {
                "numero_note": "t"
            }
        },
        {
            "type": "apparat_critique",
            "value": "Cart. et Priv.\u00a0: <i>Pontificis<\/i>\u00a0; Bull.\u00a0: <i>Pontifices<\/i>.",
            "children": {
                "numero_note": "u"
            }
        },
        {
            "type": "apparat_critique",
            "value": "Priv.\u00a0: <i>ordinatione<\/i>\u00a0; Cart. et Bull.\u00a0: <i>ordinacione<\/i>.",
            "children": {
                "numero_note": "v"
            }
        },
        {
            "type": "apparat_critique",
            "value": "Priv.\u00a0: <i>haberetur<\/i>\u00a0; Cart.\u00a0: <i>hetur<\/i> (un trait sur l\u2019<i>e<\/i> = <i>habetur<\/i>)\u00a0: Bull.\u00a0: <i>habetur<\/i> en toutes lettres.",
            "children": {
                "numero_note": "w"
            }
        },
        {
            "type": "apparat_critique",
            "value": "Priv., Cart. et Bull.\u00a0: <i>quin<\/i>.",
            "children": {
                "numero_note": "x"
            }
        },
        {
            "type": "apparat_critique",
            "value": "Priv.\u00a0: <i>etiam<\/i>\u00a0; Cart. et Bull.\u00a0: <i>eciam<\/i>.",
            "children": {
                "numero_note": "y"
            }
        },
        {
            "type": "apparat_critique",
            "value": "Bull.\u00a0: <i>palatio<\/i>\u00a0; Cart. et Priv.\u00a0: <i>palacio<\/i>.",
            "children": {
                "numero_note": "z"
            }
        },
        {
            "type": "bibliographie_generale",
            "value": "<i>Cart. de Maguelone<\/i>, reg. E, fol.\u00a0149\u00a0r\u00b0",
            "children": {
                "numero_note": "0"
            }
        },
        {
            "type": "bibliographie_generale",
            "value": "<i>Bull. de Maguelone<\/i>, fol.\u00a053\u00a0r\u00b0",
            "children": {
                "numero_note": "1"
            }
        },
        {
            "type": "bibliographie_generale",
            "value": "<i>Priv. du Chapitre<\/i>, fol.\u00a025\u00a0r\u00b0",
            "children": {
                "numero_note": "2"
            }
        },
        {
            "type": "bibliographie_generale",
            "value": "<span class=\"small-caps\">Gariel<\/span>, <i>Series<\/i>, t.\u00a0I, p.\u00a0120",
            "children": {
                "numero_note": "3"
            }
        },
        {
            "type": "bibliographie_generale",
            "value": "<span class=\"small-caps\">Bouquet<\/span>, <i>Recueil<\/i>, t.\u00a0XIV, p.\u00a0690",
            "children": {
                "numero_note": "4"
            }
        },
        {
            "type": "bibliographie_generale",
            "value": "<i>Gallia christiana<\/i>, t.\u00a0VI, <i>Inst.<\/i>, col.\u00a0350",
            "children": {
                "numero_note": "5"
            }
        },
        {
            "type": "bibliographie_generale",
            "value": "<span class=\"small-caps\">Devic-Vaissete<\/span>, <i>Hist. g\u00e9n. de Languedoc<\/i>, t.\u00a0III, p.\u00a0446",
            "children": {
                "numero_note": "6"
            }
        },
        {
            "type": "bibliographie_generale",
            "value": "<span class=\"small-caps\">Migne<\/span>, <i>Patr. lat.<\/i>, t.\u00a0CLI, col.\u00a0293",
            "children": {
                "numero_note": "7"
            }
        },
        {
            "type": "bibliographie_generale",
            "value": "<span class=\"small-caps\">Germain<\/span>, <i>Hist. de la commune de Montpellier<\/i>, t.\u00a0I, p.\u00a0<span class=\"small-caps\">xvii<\/span>\u00a0; <i>Maguelone sous ses \u00e9v\u00eaques<\/i>, p.\u00a013\u00a0; <i>\u00c9tude historique sur les comtes de Maguelone<\/i>, p.\u00a023",
            "children": {
                "numero_note": "8"
            }
        },
        {
            "type": "bibliographie_generale",
            "value": "<span class=\"small-caps\">F. Fabr\u00e8ge<\/span>, <i>Hist. de Maguelone<\/i>, t.\u00a0I, p.\u00a0182",
            "children": {
                "numero_note": "9"
            }
        },
        {
            "type": "bibliographie_generale",
            "value": "<span class=\"small-caps\">Jaff\u00e9<\/span> et <span class=\"small-caps\">Wattenbach<\/span>, n\u00b0\u00a05375.",
            "children": {
                "numero_note": "10"
            }
        },
        {
            "type": "genre",
            "value": "Lettre, g\u00e9n\u00e9ral (avant 1198)"
        }
    ]
}