{
    "id": 20193,
    "name": "aposcripta-180",
    "type": "acte",
    "url": "http:\/\/telma-chartes.irht.cnrs.fr\/aposcripta\/notice\/20193",
    "project_slug": "aposcripta",
    "project_label": "APOSCRIPTA \u2013 Lettres des papes",
    "user": "lettrespontificalesadmin",
    "last_update": "2020-10-19 16:26:46",
    "licence": "Attribution - Pas d\u2019Utilisation Commerciale - Partage dans les M\u00eames Conditions 3.0 France (CC BY-NC-SA 3.0 FR) ",
    "licence_url": "https:\/\/creativecommons.org\/licenses\/by-nc-sa\/3.0\/fr\/",
    "elements": [
        {
            "type": "pape",
            "value": "Jean XXII (1316-1334)"
        },
        {
            "type": "date_lieu",
            "value": "Avignon"
        },
        {
            "type": "date_libre",
            "value": "X kalendas julii, anno quarto"
        },
        {
            "type": "analyse",
            "value": "Aymerico de Cros, senescallo Carcassonensi, ut quemdam presbyterum quem pro quodam scelere captivum detinet, cum ejus complicibus, Galhardo de Mazarolis et Petro de Penna, ad hoc specialiter destinatis, remittat ad curiam transferendos [Coulon]. Jean XXII exige du s\u00e9n\u00e9chal de Carcassonne, Aimeri du Cros, la remise d\u2019un pr\u00eatre inculp\u00e9 de sorcellerie et de ses complices incarc\u00e9r\u00e9s \u00e0 Carcassonne. Deux familiers du pape, Gaillard de Mazeroles et Pierre de Lapenne, sont charg\u00e9s de conduire les coupables \u00e0 Avignon [Vidal]."
        },
        {
            "type": "transcription",
            "value": "<?xml version=\"1.0\" encoding=\"UTF-8\"?>\nDilecto filio nobili viro Aymerico de Cros1, senescallo Carcassonensi.  Operosum studium quod circa investigandum detestabile scelus illud de quo in tuis litteris mentio habebatur ac studiosam operam quam circa illud nobis insinuandum ocius adhibere curasti multipliciter in Domino comendantes, arbitramur expediens presbyterum illum notatum de illo cumine, qui detineri dicitur in carceribus Carcassone, cum suis complicibus, si qui sint, qui haberi valeant et processu super hoc habito, ad nostram presentiam sub fida custodia destinari. Quocirca nobilitatem tuam duximus requirendam quatinus prefatum presbyterum cum complicibus et processu ad nostram cures presentiam per dilectos filios Galhardum de Mazarolis et Petrum de Penna, familiares nostros, exhibitores presentium, quos ad hoc specialiter destinamus, cum fida ac sufficienti custodia destinari. Nos enim, ut impedimentum aliquod circa hoc non occurrat, venerabili fratri nostro Petro, Carcassonensi episcopo, ac dilecto filio inquisitori heretice pravitatis in illis partibus a Sede apostolica deputato super hoc dirigimus scripta nostra1, illam circa hoc diligentiam impensurus quod proinde nostram et apostolice Sedis gratiam uberius assequi merearis. Datum Avinioni, X kalendas julii, anno quarto.\n"
        },
        {
            "type": "edition",
            "value": "Ici reprise de Coulon, n. 1109."
        },
        {
            "type": "sources_manuscrites",
            "value": "<i>Reg. Vat.<\/i> 110, part. 1, n. 190, fol. 57v.",
            "children": {
                "type_source": "Registre de la chancellerie apostolique"
            }
        },
        {
            "type": "notes_historiques",
            "value": "Aimeri du Cros, s\u00e9n\u00e9chal de Carcassonne et de B\u00e9ziers de 1311 \u00e0 1321. L\u00e9opold Delisle, dans <i>Historiens des Gaules<\/i>, t. <span class=\"smal-caps\">xxiv<\/span>, Pr\u00e9face, p. 257-258 ; <i>Histoire de Languedoc<\/i>, t. <span class=\"smal-caps\">ix<\/span>, p. 404.",
            "children": {
                "numero_note": "1"
            }
        },
        {
            "type": "date",
            "value": "1320\/06\/22",
            "children": {
                "date_deb_annee": "1320",
                "date_deb_mois": "06",
                "date_deb_jour": "22"
            },
            "range": {
                "date_apres": 13200622,
                "date_avant": 13200622
            }
        },
        {
            "type": "genre",
            "value": "Mandement (littere cum filo canapis)"
        },
        {
            "type": "regeste",
            "value": "Jean-Marie Vidal, <i>Bullaire de l\u2019Inquisition fran\u00e7aise au XIV<sup>e<\/sup> si\u00e8cle et jusqu'\u00e0 la fin du Grand Schisme<\/i>, Paris : Letouzey et An\u00e9, 1913, n. 29, p. 60."
        },
        {
            "type": "destinataire",
            "value": "Le s\u00e9n\u00e9chal de Carcassonne et de B\u00e9ziers Aimeri du Cros"
        },
        {
            "type": "remarques",
            "value": "Voir APOSCRIPTA n. 6121."
        }
    ]
}