{
    "id": 145365,
    "name": "aposcripta-5901",
    "type": "acte",
    "url": "http:\/\/telma-chartes.irht.cnrs.fr\/aposcripta\/notice\/145365",
    "project_slug": "aposcripta",
    "project_label": "APOSCRIPTA \u2013 Lettres des papes",
    "user": "l_valliere",
    "last_update": "2020-10-19 16:39:08",
    "licence": "Attribution - Pas d\u2019Utilisation Commerciale - Partage dans les M\u00eames Conditions 3.0 France (CC BY-NC-SA 3.0 FR) ",
    "licence_url": "https:\/\/creativecommons.org\/licenses\/by-nc-sa\/3.0\/fr\/",
    "elements": [
        {
            "type": "pape",
            "value": "Jean XXII (1316-1334)"
        },
        {
            "type": "destinataire",
            "value": "L'archipr\u00eatre de Caldario, dioc\u00e8se de Trente, Nicol\u00f2 Marzolaria"
        },
        {
            "type": "date_libre",
            "value": "X kalendas maii, anno decimo"
        },
        {
            "type": "date",
            "value": "1326\/04\/22",
            "children": {
                "date_deb_annee": "1326",
                "date_deb_mois": "04",
                "date_deb_jour": "22"
            },
            "range": {
                "date_apres": 13260422,
                "date_avant": 13260422
            }
        },
        {
            "type": "date_lieu",
            "value": "Avignon"
        },
        {
            "type": "genre",
            "value": "Titre, provisions de b\u00e9n\u00e9fice (littere gratiose, cum filo serico)"
        },
        {
            "type": "analyse",
            "value": "Giovanni XXII a Nicol\u00f2 Marzolaria : gli conferisce l\u2019arcipresbiterato della pieve di Caldaro (diocesi di Trento), vacante per la morte di Pietro cardinale diacono di Sant\u2019Angelo, per cinque anni, nonostante sia arciprete della pieve di Bondeno (diocesi di Ferrara), dei redditi della quale non pu\u00f2 disporre per la ribellione dei cittadini di Ferrara, canonico di Parma in attesa di prebenda e canonico prebendato nelle chiese di Aquileia e Cividale (diocesi di Aquileia). "
        },
        {
            "type": "sources_manuscrites",
            "value": "R<sup>1<\/sup>. CIT\u00c9 DU VATICAN, Archivio segreto Vaticano, <i>Registra Avenionensia<\/i> 24, MCCCCLVIIII, fol. 683v-684 (cancell\u00e9e ; taxe : XVI, XVIII).",
            "children": {
                "type_source": "Registre de la chancellerie apostolique"
            }
        },
        {
            "type": "sources_manuscrites",
            "value": "R<sup>2<\/sup>. CIT\u00c9 DU VATICAN, Archivio segreto Vaticano, <i>Registra Vaticana<\/i> 80, fol. 495.",
            "children": {
                "type_source": "Registre de la chancellerie apostolique"
            }
        },
        {
            "type": "edition",
            "value": "Ici reprise d\u2019Emanuele Curzel, <i>Documenti papali per la storia trentina (fino al 1341)<\/i>, Bologne, 2004 (Annali dell\u2019Istituto storico italo-germanico. Fonti ; 1), n. 198, p. 299-301, d\u2019apr\u00e8s R<sup>1<\/sup> et R<sup>2<\/sup>."
        },
        {
            "type": "regeste",
            "value": "Guillaume Mollat, <i>Jean XXII (1316-1334). Lettres communes<\/i> (Biblioth\u00e8que des \u00c9coles Fran\u00e7aises d\u2019Ath\u00e8nes et de Rome), Paris, 1904-1947, n. 25056."
        },
        {
            "type": "transcription",
            "value": "<?xml version=\"1.0\" encoding=\"UTF-8\"?>\nDilecto filio Nicolao Marzolaria, archipresbytero plebis de Caldario, Tridentine diocesis, salutema. Vite mundicia, morum honestas et alia tue laudabilia merita probitatis, super quibus apud nos fidedigno testimonio commendaris, merito nos inducunt ut tibi reddamurb in exhibitione gratie liberales. Dudum siquidem, intendentes de dignitatibus, personatibus ac officiis et ceteris beneficiis ecclesiasticis que bone memorie Petrus, Sancti Angeli diaconus cardinalis, ex provisione seu concessione Sedis apostolice, dumc viveret, obtinebat, cum illa per eius obitum vacare contingeretd, per eiusdem sedis providentiam ordinari, dignitates, personatus et officia ac beneficia supradicta, in quibuscunque ecclesiis sive locis existerent, dum adhuc idem cardinalis ageret in humanis, non obstantee si forte in apostolicis litteris, per quas dignitates, personatus et officia ac beneficia memorata dictus cardinalis fuerat assecutus, caveretur expresse vel alias per sedem eandem existeret ordinatum quod, eo cedente vel decedente, dignitates, personatus et officia ac beneficia prelibata ad pristinum statum redirent nec apud Sedem vacare intelligerentur eandem, collationi et dispositioni nostre specialiter duximus reservanda, decernentes ex tunc irritum et inane si secus super hiis per quoscunque, quavis auctoritate, scienter vel ignoranter, contingeret attemptari, cum itaque archipresbyteratus plebis de Caldario, Tridentine diocesis, quem idem cardinalis ex provisione seu concessione Sedis eiusdem, dum viveret, obtinebat, per eiusdem obitum, qui nuper apud dictam sedem diem clausit extremum, vacare noscatur ad presens nullusque de ipso preter nos disponere possit hac vice, reservatione nostra huiusmodi obsistente, nos, volentes tibi premissorum meritorum intuitu gratiam facere specialem, archipresbyteratum ipsum sic vacantem cum omnibus iuribus et pertinentiis suis apostolica tibi auctoritate conferimus et de illo etiam providemus, decernentes, prout est, irritum et inane si secus super hiis a quoquam, quavis auctoritate, scienter vel ignoranter, attemptatum forsan est hactenus vel contigerit imposterum attemptari, non obstantibus quibuscunque statutis et consuetudinibus contrariis ipsius plebis, iuramento, confirmatione Sedis prefate vel quacunque firmitate alia roboratis, seu si aliqui super provisionibus sibi faciendis de dignitatibus, personatibus et officiis in dicta plebe speciales vel de beneficiis ecclesiasticis in illis partibus generales nostras vel predecessorum nostrorum Romanorum pontificum aut legatorum dicte Sedis litteras impetrarint, etiam si per eas ad inhibitionem, reservationem et decretum vel alias quomodolibet sit processum, quibus omnibus te in assecutione archipresbyteratusf predicti volumus anteferri, sed nullum per hoc eis quo ad assecutionem aliorum dignitatum, personatuum et officiorum ac beneficiorumg preiudicium generari, aut si venerabili fratri nostro .. episcopo Tridentino et dilectis filiis capitulo ipsiush plebis vel quibusvis aliis, comuniter veli divisim, a Sede predicta indultum existat quod ad receptionem vel provisionem alicuius minime teneanturj et ad id compelli non possint quodque de dignitatibus, personatibus et officiis eiusdem plebis aliisque beneficiis ecclesiasticis ad eorum collationem, provisionem seu quamvis aliam dispositionem, coniunctim vel separatim spectantibus, nulli valeat provideri per litteras apostolicas non facientes plenam et expressam ac de verbo ad verbum de indulto huiusmodi mentionem et qualibet alia prefate sedis indulgentia generali vel speciali, cuiuscunque tenoris existat per quam, presentibus non expressam vel totaliter non insertam, effectus huiusmodi gratie impediri valeat quomodolibet vel differri et de qua cuiusque toto tenore habenda sit in nostris litteris mentio specialis, seu si presens non fueris ad prestandum de observandis statutis et consuetudinibus ipsius plebis solitum iuramentum, dummodo in absentia tua per procuratorem ydoneum et, cum adk plebem ipsam accesseris corporaliter, illud prestes, seu quod archipresbyteratum plebis de Bondeno, Ferrariensis diocesis, de cuius redditus propter tirannicam rabiem et perfidam rebellionem civium Ferrariensium gaudere, sicut asseris, nequis ad presens, ac canonicatum Parmensem sub expectationel prebende et acceptatione primi beneficii, sine cura, quod in civitate vel diocesi Parmensi vacare contigerit, nosceris obtinere ac de canonicatibus et prebendis Aquilegensis et Civitatensis, Aquilegensis diocesis, ecclesiarum vacantibus tibi pridie duximus providendum. Tecum insuper, ut ipsum archipresbyteratum dicte plebis de Caldario una cum eodem archipresbyteratu de Bondeno usque ad quinquennium, conciliim generalis1 et nostra que incipit \u00abExecrabilis\u00bb2 et quibuscunque constitutionibus contrariis nequaquam obstantibus, licite retinere valeas, ex uberioris dono gratie dispensamus, volentes quod eodem elapso quinquennio dictum archipresbyteratum de Caldario, quem ex tunc vacare decernimus, omnino dimittere tenearis, proviso quod dicti archipresbyteratus interim debitis obsequiis non fraudenturn. Nulli et cetera, nostre collationis, provisionis, constitutionis et dispensationis infringere et cetera. Datum Avinione, X kalendas maii, anno decimo.  In eodem modo dilectis filiis .., preposito Sancti Iohannis Baptisterii Parmensis, ac .., archipresbytero de Colliculo, Parmensis diocesis, et Busolo de Parma, canonico Tornacensis, ecclesiarumo, capellano nostro, salutem. Vite mundicia et cetera, usque non fraudentur. Quocirca mandamus quatinus vos vel duo aut unus vestrum per vos vel alium seu alios eundem Nicolaum vel procuratorem suum eius nomine in corporalem possessionem archipresbyteratus plebis de Caldario ac iurium et pertinentiarum predictorum inducatis auctoritate nostra et defendatis inductum, amoto ab eo quolibet detentore, facientes eum vel dictum procuratorem pro ipso ad archipresbyteratum predictum, prout est moris, admitti eique de ipsius archipresbyteratus fructibus, redditibus, proventibus, iuribus et obventionibus universisp integre responderi, non obstantibus omnibus supradictis, seu si eisdem episcopo et capitulo vel quibusvis aliis, comuniter vel divisim, ab eadem sit Sede indultum quod interdici, suspendi vel excomunicari non possint per litteras apostolicas non facientes plenam et expressam ac de verbo ad verbum de indulto huiusmodi mentionem, contradictores auctoritate nostra et cetera. Datum ut supra.\n"
        },
        {
            "type": "apparat_critique",
            "value": "salutem <i>omis R<sup>2<\/sup><\/i>.",
            "children": {
                "numero_note": "a"
            }
        },
        {
            "type": "apparat_critique",
            "value": "ad gratiam liberales <i>suit, supprim\u00e9 R<sup>1<\/sup><\/i>.",
            "children": {
                "numero_note": "b"
            }
        },
        {
            "type": "apparat_critique",
            "value": "dudum <i>R<sup>2<\/sup><\/i>.",
            "children": {
                "numero_note": "c"
            }
        },
        {
            "type": "apparat_critique",
            "value": "contigeret <i>sans signe d'abr\u00e9viation R<sup>2<\/sup><\/i>.",
            "children": {
                "numero_note": "d"
            }
        },
        {
            "type": "apparat_critique",
            "value": "ostante <i>R<sup>2<\/sup><\/i>.",
            "children": {
                "numero_note": "e"
            }
        },
        {
            "type": "apparat_critique",
            "value": "presbyteratus <i>corrig\u00e9 en<\/i> diaconatus <i>R<sup>1<\/sup><\/i> : p(res) - <i>\u00e9crit sur<\/i> di, -b(yte)rat(us) <i>dans l'interligne sur<\/i> -aconatus <i>supprim\u00e9<\/i>.",
            "children": {
                "numero_note": "f"
            }
        },
        {
            "type": "apparat_critique",
            "value": "altorum <i>suit, exponctu\u00e9 et supprim\u00e9 R<sup>2<\/sup><\/i>.",
            "children": {
                "numero_note": "g"
            }
        },
        {
            "type": "apparat_critique",
            "value": "ecclesie <i>suit, supprim\u00e9 R<sup>1<\/sup><\/i>.",
            "children": {
                "numero_note": "h"
            }
        },
        {
            "type": "apparat_critique",
            "value": "quibusvis aliis comuniter vel <i>r\u00e9p\u00e9t\u00e9 au d\u00e9but de la ligne R<sup>1<\/sup><\/i>.",
            "children": {
                "numero_note": "i"
            }
        },
        {
            "type": "apparat_critique",
            "value": "teteneantur <i>R<sup>2<\/sup><\/i>.",
            "children": {
                "numero_note": "j"
            }
        },
        {
            "type": "apparat_critique",
            "value": "ecclesiam <i>suit, supprim\u00e9 R<sup>1<\/sup><\/i>.",
            "children": {
                "numero_note": "k"
            }
        },
        {
            "type": "apparat_critique",
            "value": "duximus providendum. Tecum insuper, ut ipsum archipresbyteratum dicte plebis de Caldario <i>suit, supprim\u00e9 R<sup>1<\/sup><\/i>.",
            "children": {
                "numero_note": "l"
            }
        },
        {
            "type": "apparat_critique",
            "value": "consilii <i>R<sup>2<\/sup><\/i>.",
            "children": {
                "numero_note": "m"
            }
        },
        {
            "type": "apparat_critique",
            "value": "-ra- <i>avec signe d'abr\u00e9viation superflu R<sup>2<\/sup><\/i>",
            "children": {
                "numero_note": "n"
            }
        },
        {
            "type": "apparat_critique",
            "value": "salutem <i>suit, supprim\u00e9, R<sup>1<\/sup><\/i>",
            "children": {
                "numero_note": "o"
            }
        },
        {
            "type": "apparat_critique",
            "value": "universis <i>r\u00e9p\u00e9t\u00e9 R<sup>2<\/sup><\/i>",
            "children": {
                "numero_note": "p"
            }
        },
        {
            "type": "notes_historiques",
            "value": "Conc. Lat. III, c. 13 = X. III, 4, c. 3 (= Comp. I, III, 4, c. 3), \u00e9d. Giuseppe Alberigo <i>et al.<\/i>, <i>Conciliorum Oecumenicorum Decreta<\/i>, Bologne, 1973, p. 218 ; Emil Friedberg, <i>Corpus Iuris Canonici<\/i>. II. <i>Decretalium Collectiones<\/i>, Leipzig, 1879, col. 460. ",
            "children": {
                "numero_note": "1"
            }
        },
        {
            "type": "notes_historiques",
            "value": "<i>Extravag. Io. XXII<\/i>, III, c. un., \u00e9d. Emil Friedberg, <i>Corpus Iuris Canonici<\/i>. II. <i>Decretalium Collectiones<\/i>, Leipzig, 1879, col. 1207-1209.",
            "children": {
                "numero_note": "2"
            }
        }
    ]
}