{
    "id": 25873,
    "name": "aposcripta-2970",
    "type": "acte",
    "url": "http:\/\/telma-chartes.irht.cnrs.fr\/aposcripta\/notice\/25873",
    "project_slug": "aposcripta",
    "project_label": "APOSCRIPTA \u2013 Lettres des papes",
    "user": "lettrespontificalesadmin",
    "last_update": "2020-10-19 16:27:49",
    "licence": "Attribution - Pas d\u2019Utilisation Commerciale - Partage dans les M\u00eames Conditions 3.0 France (CC BY-NC-SA 3.0 FR) ",
    "licence_url": "https:\/\/creativecommons.org\/licenses\/by-nc-sa\/3.0\/fr\/",
    "elements": [
        {
            "type": "pape",
            "value": "C\u00e9lestin III (1191-1198)"
        },
        {
            "type": "destinataire",
            "value": "( )",
            "children": {
                "numero_note": "0"
            }
        },
        {
            "type": "date_lieu",
            "value": "n.c."
        },
        {
            "type": "date_libre",
            "value": "(An 1194, 26 juin)"
        },
        {
            "type": "date",
            "value": " 1194\/06\/26",
            "children": {
                "date_deb_annee": "1194",
                "date_deb_mois": "06",
                "date_deb_jour": "26"
            },
            "range": {
                "date_apres": 11940626,
                "date_avant": 11940626
            }
        },
        {
            "type": "analyse",
            "value": "C\u00e9lestin 3 pape<br\/>L\u2019abb\u00e9 et les religieux de Saint-Germain s\u2019\u00e9tant plaints que l\u2019\u00e9v\u00eaque d\u2019Auxerre ne voulait pas leur rendre justice contre des hommes de ses villages qui causaient des dommages \u00e0 leurs domaines, le pape les autorisa \u00e0 s\u2019adresser \u00e0 l\u2019archev\u00eaque de Sens pour obtenir la punition des coupables."
        },
        {
            "type": "transcription",
            "value": "<?xml version=\"1.0\" encoding=\"UTF-8\"?>\nCelestinus, episcopus, servus servorum Dei, dilectis filiis abbati et fratribus Sancti-Germani Autisiodorensis, salutem et apostolicam benedictionem. Cum venerabilis frater noster Autisiodorensis episcopus, usque adeo, sicut dicitis, si vobis infestus ut de parrochianis suis, malefactoribus vestris, per eum justiciam non possitis habere, nobis imminet providendum, ne pro defectu juris monasterium vestrum violenciis pateat et incursibus malignorum. Eapropter, dilecti filii, presentibus vobis litteris indulgemus ut ad venerabilem fratrem nostrum, Senonensem archiepiscopum, pro cohercendis ipsis malefactoribus vestris recursum habere possitis, qui defectum ipsius episcopi de auctoritate nostra debeat in hac parte supplere. Nulli ergo, etc. Datum Laterani, VII kalendas julii, pontificatus nostri anno quarto.\n"
        },
        {
            "type": "edition",
            "value": "Ici tir\u00e9e du projet <i>CBMA - Corpus Burgundiae Medii Aevi<\/i>, document 8617. Site du projet Corpus de la Bourgogne du Moyen \u00c2ge, [En ligne] <a href=\"http:\/\/www.cbma-project.eu\" target=\"_blank\">http:\/\/www.cbma-project.eu<\/a>  "
        },
        {
            "type": "sources_manuscrites",
            "value": "\u00e0 renseigner. Texte pr\u00e9c\u00e9d\u00e9 de la rubrique: <i>BULLE DE C\u00c9LESTIN III POUR L\u2019ABBAYE DE SAINT-GERMAIN.<\/i>"
        },
        {
            "type": "remarques",
            "value": "\r\n\r\n Cartulaire de l\u2019abbaye de Saint-Germain. XIIIe si\u00e8cle, f\u00ba\u00a0XIV n\u00ba\u00a0XX; Bibl. d\u2019Auxerre, Ms n\u00ba\u00a0140."
        },
        {
            "type": "edition_autre",
            "value": "Ici reprise de Maximilien Quantin, <i>Cartulaire g\u00e9n\u00e9ral de l'Yonne, Recueil de documents authentiques pour servir \u00e0 l'histoire des pays qui forment ce d\u00e9partement<\/i>, II, Auxerre : Perriquet, Soci\u00e9t\u00e9 des sciences historiques et naturelles de l'Yonne, 1854-1860, p. , n\u00b0 CDLI.",
            "children": {
                "numero_note": "0"
            }
        },
        {
            "type": "genre",
            "value": "Bulle"
        },
        {
            "type": "genre",
            "value": "Lettre"
        }
    ]
}