{
    "id": 24544,
    "name": "aposcripta-1695",
    "type": "acte",
    "url": "http:\/\/telma-chartes.irht.cnrs.fr\/aposcripta\/notice\/24544",
    "project_slug": "aposcripta",
    "project_label": "APOSCRIPTA \u2013 Lettres des papes",
    "user": "lettrespontificalesadmin",
    "last_update": "2020-10-19 16:27:31",
    "licence": "Attribution - Pas d\u2019Utilisation Commerciale - Partage dans les M\u00eames Conditions 3.0 France (CC BY-NC-SA 3.0 FR) ",
    "licence_url": "https:\/\/creativecommons.org\/licenses\/by-nc-sa\/3.0\/fr\/",
    "elements": [
        {
            "type": "pape",
            "value": "Cl\u00e9ment IV (1265-1268)"
        },
        {
            "type": "date_lieu",
            "value": "Viterbe"
        },
        {
            "type": "date_libre",
            "value": "26\u00a0mai 1268"
        },
        {
            "type": "date",
            "value": " 1268\/05\/26",
            "children": {
                "date_deb_annee": "1268",
                "date_deb_mois": "05",
                "date_deb_jour": "26"
            },
            "range": {
                "date_apres": 12680526,
                "date_avant": 12680526
            }
        },
        {
            "type": "analyse",
            "value": "Cl\u00e9ment\u00a0IV \u00e9crit \u00e0 Jacques d\u2019Aragon au sujet de G. S\u00e9guier, \u00e0 qui il avait permis d\u2019enseigner le droit civil \u00e0 Montpellier sans la permission de l\u2019\u00e9v\u00eaque, et qui avait \u00e9t\u00e9 excommuni\u00e9 par l\u2019\u00e9v\u00eaque de Maguelone."
        },
        {
            "type": "transcription",
            "value": "<?xml version=\"1.0\" encoding=\"UTF-8\"?>\nCharissimo in Christo filio, regi Aragonum illustri.Contra venerabilem fratrem nostrum, Magalonensem episcopum, quem in minori constitutum officio dilexisse non modicum videbaris, rancorem aliquem tuam magnitudinem concepisse litterarum inspecta series, quam ex parte tuaa nuper recepimus, manifestat, inter cetera continentiumb quod episcopus memoratus in evidens pr\u00e6judicium juris tui, in G. Seguerii et omnes auditores ipsius excommunicationis sententiam tulerat, cui licentiam dederas in Montepesulano jura docendi civilia, cum ad hoc videretur tibi idoneus et viris in ea Facultate prudentibus, quorum consilia requisisti\u00a0; et idcirco petebas ab eodem episcopo latas sententias sine difficultate aliqua relaxari.Sane quia via judicii non patebat ad tuum desiderium adimplendum, s\u00e6pedicto episcopo non pr\u00e6sente, nec citato ab homine vel a jure, nec judicibus committi negotium credebamus expediens, cum nec etiam id postulares, aliqua regi\u00e6 celsitudini familiariter duximus perstringenda, quibus plenius instrui valeas ad ea qu\u00e6 te deceant eligenda.De licentiandis quidem doctoribus in variis scientiarum facultatibus, aliud canonica jura definiunt, aliud principum sanctiones\u00a0; sed et ips\u00e6 consuetudines per diversitates di\u0153cesum aut locorum in hujusmodi dandis licentiis variantur.Verum in synodo Pap\u00e6 Eugenii canon pr\u00e6cipit ab universis episcopis omnem curam habendam, ut magistri et doctores constituantur, qui studia litterarum, liberalium artium dogmata, assidue doceant, quia in his maxime divina manifestantur atque mandata declarantur.Lex autem humana decernit civilis sapienti\u00e6 professores magistralem ascendere cathedram non debere, donec ab ordine decurionum fuerint approbati\u00a0; pro tempore tamen loquitur, quo censura ecclesiastica non vigebat, quo etiam matrimoniales caus\u00e6 per laicos tractabantur.Porro casus novus a te propositus ex ipsius qualitate negotii dubitationem recipere non videtur, si purgatis oculis veritas attendatur. Constat enim Magalonensem episcopum a longissimis retro temporibus dedisse licentiam in aliis Facultatibus, consueta forma servata, et si dare non consuevit in ista, quia nec etiam petebatur, nec petendi erat occasio, ubi nec studentium vel discentium numerus exigebat\u00a0; quod in aliis est servatum, et in ista videtur servandum, sicut hodie servaretur, si quis vellet legere Arithmeticam, qu\u00e6 nullo forsitan ibi tempore lecta fuit.Nam quod dicitur, quod pr\u00e6scriptis aliquibus juribus episcopalibus, c\u0153tera quibus pr\u00e6scribens usus non est, remanent non pr\u00e6scripta, in rebus prorsus diversi generis observamus. Sicuti si una ecclesia in parrochia alterius pr\u00e6scripserit decimam per tempus legitimum, de frumento et hordeo eam percipiens, si postea milium seminetur vel fortasse legumen, quod nullo ibi tempore fuerat seminatum, \u00e6que de illis percipiet decimam sicut de aliis, cum sit ejusdem generis, licet alterius speciei\u00a0; et quidem genus ist\u00e6 communicant, licet differant aliquatenus, Facultates.Sed et cancellarius, caput studentium post episcopum, in quacumque legat vel doceat Facultate, ab episcopo ordinatur, unde idem episcopus caput est Studii principale.Demum de dilecto filio B. de Castaneto, capellano nostro, scire te volumus, quod, cum minori officio fungeremur, de felicis memori\u00e6 Urbani Pap\u00e6, pr\u00e6decessoris nostri, speciali mandato, in aula ejusdem episcopi, doctorum et scholarium multitudine convocata, nos ei dedimus licentiam et librum tradidimus solita solemnitate servata\u00a0; quocirca, si aliud ad jus tuum pertinere non occurrat, nullam tibi factam injuriam intelligimus\u00a0; quod si novum aliquod intimetur, prompti sumus regium jus defendere, et quidquid idem episcopus injuste fecerit, revocare.Datum Viterbii, vii kalendas junii, anno iv pontificatus nostri.\n"
        },
        {
            "type": "edition",
            "value": "Julien Rouquette, Augustin Villemagne, <i>Bullaire de l'\u00c9glise de Maguelone<\/i>, Paris, Montpellier : Picard, Valat, 1911-1914, II, n. 521, p. 422-424"
        },
        {
            "type": "remarques",
            "value": "  Date. \u2014 Corriger la faute d\u2019impression du <i>Cartulaire de l\u2019Universit\u00e9 de Montpellier<\/i>, qui porte\u00a0: 1269. \u2014 Voir Note aux <i>Addenda<\/i>.\n\n\u00ab\u00a0En 1268, l\u2019\u00c9cole de Montpellier semble prendre un essor avec Guillaume S\u00e9guier, homme de grande valeur, professeur durant quarante ans, malheureusement compromis dans le meurtre d\u2019un artisan, le s\u00e9dier Jacques Peneries, et qui ne sera relax\u00e9 qu\u2019en consid\u00e9ration de son \u00e2ge, de son pass\u00e9 et de la recommandation royale.\u00a0\u00bb (<span class=\"small-caps\">F. Fabr\u00e8ge<\/span>, <i>Hist. de Maguelone<\/i>, t.\u00a0III, p.\u00a0462. \u2014 Cf. <span class=\"small-caps\">L. Guiraud<\/span>, <i>Le Coll\u00e8ge Saint-Beno\u00eet<\/i>, Intr., pp.\u00a0<span class=\"small-caps\">xv<\/span> et sq.).\n\nNous connaissons maintenant le personnage qui \u00e9tait originaire de Montpellier. Examinons le conflit.\n\nC\u2019est un document de premier ordre et qui montre la d\u00e9pendance dans laquelle se trouvait l\u2019Universit\u00e9 par rapport au pouvoir \u00e9piscopal. \u00c9videmment, cette situation ne pouvait \u00eatre agr\u00e9able \u00e0 Jacques d\u2019Aragon, dont nous connaissons les tendances, et qui aurait voulu mettre la main sur l\u2019Universit\u00e9, comme il l\u2019avait mise sur la commune.\n\nLe premier document que nous trouvons dans le <i>Cartulaire de l\u2019Universit\u00e9 de Montpellier<\/i> concernant l\u2019\u00c9cole de droit, en 1230 (p.\u00a0184), est\u00a0: <i>Louis\u00a0IX exige que les grad\u00e9s pr\u00eatent serment entre les mains de l\u2019\u00e9v\u00eaque<\/i>.\n\nDevons-nous, comme <span class=\"small-caps\">Germain<\/span> l\u2019affirme (<i>Hist. de l\u2019Universit\u00e9 de Montpellier<\/i>, p.\u00a015, en t\u00eate du <i>Cartulaire<\/i>), dire \u00ab\u00a0qu\u2019en 1268 on n\u2019y avait encore \u00e9piscopalement conf\u00e9r\u00e9 ni la licence, ni le doctorat en droit civil\u00a0\u00bb\u00a0? Nous ne le croyons pas, et il nous para\u00eet qu\u2019il donne \u00e0 la bulle du Pape Cl\u00e9ment\u00a0IV un sens plus large qu\u2019elle ne le comporte. Il est certain que Cl\u00e9ment\u00a0IV, \u00e9tant l\u00e9gat, y avait conf\u00e9r\u00e9 la licence \u00e0 B. Castanet, et avec une grande solennit\u00e9\u00a0: \u00ab\u00a0<i>In aula ejusdem episcopi, et scholarium multitudine convocata, nos ei dedimus licentiam et librum tradidimus, solita solemnitate servata.<\/i>\u00a0\u00bb Puisque Gui Fulcodi conf\u00e9ra ce grade dans le palais \u00e9piscopal et avec la solennit\u00e9 <i>accoutum\u00e9e<\/i>, c\u2019est que, d\u00e9j\u00e0, de pareilles c\u00e9r\u00e9monies avaient eu lieu dans notre ville. Si nos \u00c9coles n\u2019avaient pas \u00e9t\u00e9 florissantes, au <span class=\"small-caps\">xiii<\/span>  <sup>e<\/sup> si\u00e8cle, nous ne voyons pas la raison des interventions des l\u00e9gats et du roi de France. Que beaucoup d\u2019\u00e9tudiants, apr\u00e8s avoir suivi les cours \u00e0 Montpellier, pr\u00e9f\u00e9rassent aller prendre leurs grades \u00e0 Bologne, cela nous para\u00eet probable. Cl\u00e9ment\u00a0IV semble l\u2019indiquer dans la bulle adress\u00e9e aux docteurs et aux \u00e9coliers de Montpellier\u00a0: qu\u2019on relise bien la fin de cette lettre, et on se convaincra de ce que nous avan\u00e7ons. C\u2019\u00e9tait m\u00eame un statut particulier \u00e0 l\u2019\u00c9cole de Montpellier, que ses \u00e9tudiants ne pouvaient recevoir leurs grades qu\u2019\u00e0 Montpellier ou \u00e0 Bologne (Voir N\u00b0\u00a0524).\n\nUne circonstance particuli\u00e8re avait emp\u00each\u00e9 S\u00e9guier de prendre r\u00e9guli\u00e8rement ses grades. La gent \u00e9coli\u00e8re a toujours \u00e9t\u00e9 un peu turbulente. Des difficult\u00e9s avaient surgi entre l\u2019archidiacre de Bologne et les \u00e9tudiants. L\u2019\u00e9colier de Montpellier avait eu recours au Pape, qui avait nomm\u00e9 une commission sp\u00e9ciale pour lui conf\u00e9rer les grades.\n\n  D\u2019ailleurs, le conflit entre B\u00e9renger et Jacques d\u2019Aragon ne provenait pas de la mani\u00e8re dont les grades avaient \u00e9t\u00e9 conf\u00e9r\u00e9s \u00e0 S\u00e9guier, mais seulement de ce fait que ce dernier, au lieu de recevoir sa mission d\u2019enseigner de l\u2019\u00e9v\u00eaque, l\u2019avait re\u00e7ue du roi\u00a0: grave pr\u00e9judice port\u00e9 \u00e0 l\u2019autorit\u00e9 \u00e9piscopale. B\u00e9renger de Fr\u00e9dol se d\u00e9fendit avec ses armes, et d\u00e9fendit en m\u00eame temps les droits de l\u2019Universit\u00e9, pour ne pas la laisser tomber sous le pouvoir royal. Au <span class=\"small-caps\">xiii<\/span>  <sup>e<\/sup> si\u00e8cle, on \u00e9cartait autant qu\u2019on le pouvait le pouvoir centralisateur\u00a0; nos p\u00e8res n\u2019ignoraient pas que les rois prendraient toujours assez d\u2019autorit\u00e9.\n\nB\u00e9renger de Fr\u00e9dol fut soutenu par Cl\u00e9ment\u00a0IV, qui, dans cette lettre, qu\u2019on croirait \u00e9crite au courant de la plume, prend tous les tons, m\u00eame le badinage, et qui est surpris tout d\u2019abord du changement de Jacques vis-\u00e0-vis de celui qu\u2019il aimait particuli\u00e8rement quand il n\u2019\u00e9tait pas plac\u00e9 sur le si\u00e8ge \u00e9piscopal.\n\nNous ne suivrons pas Cl\u00e9ment\u00a0IV dans la suite de son raisonnement. Il ne nous dit pas pourquoi Jacques d\u2019Aragon avait con\u00e7u de l\u2019animosit\u00e9 contre le nouvel \u00e9v\u00eaque de Maguelone, autrefois son ami. Disons-le, Jacques d\u2019Aragon, par ses empi\u00e8tements continuels sur le pouvoir \u00e9piscopal, a, peu \u00e0 peu, d\u00e9tourn\u00e9 nos \u00e9v\u00eaques de la politique aragonaise. Sans doute, il n\u2019en verra pas les cons\u00e9quences\u00a0; mais son fils en recueillera les fruits. Fatigu\u00e9 de tracasseries sans cesse renaissantes, B\u00e9renger de Fr\u00e9dol \u00e9changea la seigneurie de Montpellier contre la baronnie de Sauve. Le fils de Jacques n\u2019aura plus affaire avec l\u2019\u00e9v\u00eaque, mais avec le roi de France. Avant d\u2019\u00eatre \u00e9lu Pape, Innocent\u00a0IV \u00e9tait l\u2019ami de Fr\u00e9d\u00e9ric\u00a0II\u00a0; tel fut B\u00e9renger de Fr\u00e9dol.\n\nDans cette affaire de Guillaume S\u00e9guier, il y avait plus qu\u2019un principe, la libert\u00e9 de l\u2019Universit\u00e9 de Montpellier, que d\u00e9fendait l\u2019\u00e9v\u00eaque\u00a0; il y avait aussi une question politique\u00a0: les juristes flattent le pouvoir royal, et lui fourbissent des armes pour combattre l\u2019\u00c9glise. S\u00e9guier a accept\u00e9 d\u2019enseigner dans une chaire de Montpellier sans pr\u00e9senter ses titres \u00e0 l\u2019\u00e9v\u00eaque, se contentant de l\u2019investiture royale\u00a0: Guillaume de Nogaret n\u2019est pas loin.\n\nLa copie du <i>Bullaire<\/i> \u00e9tant termin\u00e9e depuis le mois d\u2019ao\u00fbt 1912, cette Note a \u00e9t\u00e9 compos\u00e9e avant les <i>Conf\u00e9rences sur l\u2019histoire de Montpellier<\/i>. Nous jugeons inutile de la modifier, renvoyant pour plus de d\u00e9tails \u00e0 notre \u00e9tude\u00a0: <i>l\u2019\u00c9glise et l\u2019Universit\u00e9 de Montpellier<\/i>, o\u00f9 nous traiterons la question avec plus d\u2019ampleur.\n\n[Rouquette-Villemagne]"
        },
        {
            "type": "apparat_critique",
            "value": "Cart. de l\u2019Universit\u00e9\u00a0: <i>sua<\/i>. Nous croyons qu\u2019il faut lire plut\u00f4t\u00a0: <i>tua<\/i>.",
            "children": {
                "numero_note": "a"
            }
        },
        {
            "type": "apparat_critique",
            "value": "Nous suivons le texte de <span class=\"small-caps\">Mart\u00e8ne<\/span>. <i>Cart. de l\u2019Universit\u00e9<\/i> porte\u00a0: <i>continentem<\/i>.",
            "children": {
                "numero_note": "b"
            }
        },
        {
            "type": "bibliographie_generale",
            "value": "<i>Cartulaire de l\u2019Universit\u00e9<\/i>, p.\u00a0200",
            "children": {
                "numero_note": "0"
            }
        },
        {
            "type": "bibliographie_generale",
            "value": "<span class=\"small-caps\">Mart\u00e8ne<\/span>, <i>Thes. anecd.<\/i>, t.\u00a0II, col.\u00a0603",
            "children": {
                "numero_note": "1"
            }
        },
        {
            "type": "bibliographie_generale",
            "value": "<span class=\"small-caps\">Astruc<\/span>, <i>M\u00e9m. pour servir \u00e0 l\u2019Histoire de la Facult\u00e9 de m\u00e9decine de Montpellier<\/i>, p.\u00a042",
            "children": {
                "numero_note": "2"
            }
        },
        {
            "type": "bibliographie_generale",
            "value": "<span class=\"small-caps\">F. Fabr\u00e8ge<\/span>, <i>Hist. de Maguelone<\/i>, t.\u00a0III, p.\u00a0462",
            "children": {
                "numero_note": "3"
            }
        },
        {
            "type": "bibliographie_generale",
            "value": "<span class=\"small-caps\">Potthast<\/span>, n\u00b0\u00a020361",
            "children": {
                "numero_note": "4"
            }
        },
        {
            "type": "bibliographie_generale",
            "value": "<span class=\"small-caps\">Cazeneuve<\/span>, <i>Le Franc-Alleu en Languedoc<\/i>, liv.\u00a0I, ch.\u00a0<span class=\"small-caps\">v<\/span>.",
            "children": {
                "numero_note": "5"
            }
        },
        {
            "type": "genre",
            "value": "Bulle"
        },
        {
            "type": "destinataire",
            "value": "Le roi d'Aragon"
        }
    ]
}