{
    "id": 26469,
    "name": "aposcripta-3548",
    "type": "acte",
    "url": "http:\/\/telma-chartes.irht.cnrs.fr\/aposcripta\/notice\/26469",
    "project_slug": "aposcripta",
    "project_label": "APOSCRIPTA \u2013 Lettres des papes",
    "user": "lettrespontificalesadmin",
    "last_update": "2020-10-19 16:28:01",
    "licence": "Attribution - Pas d\u2019Utilisation Commerciale - Partage dans les M\u00eames Conditions 3.0 France (CC BY-NC-SA 3.0 FR) ",
    "licence_url": "https:\/\/creativecommons.org\/licenses\/by-nc-sa\/3.0\/fr\/",
    "elements": [
        {
            "type": "pape",
            "value": "Lucius III (1181-1185)"
        },
        {
            "type": "date_lieu",
            "value": "Veroli"
        },
        {
            "type": "date_libre",
            "value": "1184 April 23"
        },
        {
            "type": "date",
            "value": " 1184\/04\/23",
            "children": {
                "date_deb_annee": "1184",
                "date_deb_mois": "04",
                "date_deb_jour": "23"
            },
            "range": {
                "date_apres": 11840423,
                "date_avant": 11840423
            }
        },
        {
            "type": "analyse",
            "value": "Lucius III best\u00e4tigt dem Kloster St.-Etienne de Dijon (D. Langres) mehrere Kirchen."
        },
        {
            "type": "transcription",
            "value": "<?xml version=\"1.0\" encoding=\"UTF-8\"?>\n Lucius episcopus servus servorum dei dilectis filiis .. abbati et canonicis sancti Stephani Divionensis, | salutem et apostolicam benedictionem. Justis petentium desideriis dignum est nos facilem prebere con|sensum et vota, que a rationis tramite non discordant, effectu prosequente complere. Eapropter, dilecti in domino filii, vestris iustis postulationibus grato concurrentes assensu, parrochiales ecclesias de Cutiaco et de Grantiaco, quas bone memorie .G1 ... quondam Lingonensis episcopus, canonice vobis dedit, ecclesiam quoque de Tinisse cum appenditiis suis, a venerabili fratre nostro Stephano, Eduensi episcopo2, et capitulo eius canonice vobis collatam, nec non et ecclesias de Pruneriis et de Forfrens, quas cum omni iure et pertinentiis suis E(ngilbertus), quondam Cabilonensis episcopus3, vobis rationabiliter est largitus, sicut eas iuste ac pacifice possidetis, vobis et ecclesie vestre auctoritate apostolica confirmamus et presentis scripti patrocinio communimus. Nulli ergo omnino hominum liceat, hanc paginam nostre confirmationis infringere vel ei ausu temerario contraire. Si quis autem hoc attentare presumpserit, indignationem omnipoten|tis dei et beatorum Petri et Pauli apostolorum eius se noverit incursurum. \u2014 Dat. Verulis, | viiii Kl. Maii.\n"
        },
        {
            "type": "edition",
            "value": "Julius von Pflugk-Harttung, <i>Acta pontificum Romanorum inedita<\/i>, T\u00fcbingen, 1880, I, n. 360, p. 315"
        },
        {
            "type": "sources_manuscrites",
            "value": "Or. im Archive des D\u00e9p. C\u00f4te-d\u2019Or zu Dijon."
        },
        {
            "type": "remarques",
            "value": "Perg. ital., breit 0,16, lang 0,16, unten schmal umgeschlagen, Bullirung durch 2 L\u00f6cher, ein St\u00fcck der dunkelrothen und gelben Seidenschnur ist erhalten, die Bulle verloren, Faltung der Breven."
        },
        {
            "type": "notes_historiques",
            "value": "<i>Wahrscheinlich Gottfried, Bischof von Langres, c. 1140\u20131164.<\/i>",
            "children": {
                "numero_note": "1"
            }
        },
        {
            "type": "notes_historiques",
            "value": "<i>Stephan II, Bischof von Autun, 1171\u20131189.<\/i>",
            "children": {
                "numero_note": "2"
            }
        },
        {
            "type": "notes_historiques",
            "value": "<i>Engelbert, Bischof von Ch\u00e2lons-sur-Sa\u00f4ne, c. 1179\u20131183.<\/i>",
            "children": {
                "numero_note": "3"
            }
        },
        {
            "type": "genre",
            "value": "Bulle"
        }
    ]
}