{
    "id": 25242,
    "name": "aposcripta-2339",
    "type": "acte",
    "url": "http:\/\/telma-chartes.irht.cnrs.fr\/aposcripta\/notice\/25242",
    "project_slug": "aposcripta",
    "project_label": "APOSCRIPTA \u2013 Lettres des papes",
    "user": "lettrespontificalesadmin",
    "last_update": "2020-10-19 16:27:42",
    "licence": "Attribution - Pas d\u2019Utilisation Commerciale - Partage dans les M\u00eames Conditions 3.0 France (CC BY-NC-SA 3.0 FR) ",
    "licence_url": "https:\/\/creativecommons.org\/licenses\/by-nc-sa\/3.0\/fr\/",
    "elements": [
        {
            "type": "pape",
            "value": "Pascal II (1099-1118)"
        },
        {
            "type": "destinataire",
            "value": "Cluny (Saint-Pierre et Saint-Paul) (Pons abbaye de)",
            "children": {
                "numero_note": "0"
            }
        },
        {
            "type": "date_lieu",
            "value": "n.c."
        },
        {
            "type": "date_libre",
            "value": "1109-1118"
        },
        {
            "type": "date",
            "value": "apr\u00e8s 1109 - avant 1118",
            "children": {
                "date_deb_annee": "1109",
                "date_deb_type": "apr\u00e8s",
                "date_fin_annee": "1118",
                "date_fin_type": "avant"
            },
            "range": {
                "date_apres": 11090000,
                "date_avant": 11189999
            }
        },
        {
            "type": "analyse",
            "value": "Le pape Pascal \u00e9crit \u00e0 Pons, abb\u00e9 de Cluny \u00e0 propos de l'eucharistie. <br\/>EPISTOLA PASCHALIS PAP\u00c6 II, AD PONTIUM, ABBATEM CLUNIACENSEM, QUA EI SCRIBIT IN CELEBRANDA EUCHARISTIA \u00abPER SE PANEM, PER SE VINUM\u00bb ESSE DANDUM."
        },
        {
            "type": "transcription",
            "value": "<?xml version=\"1.0\" encoding=\"UTF-8\"?>\nPaschalis, etc. Scribens ad, etc. \n"
        },
        {
            "type": "edition",
            "value": "Ici tir\u00e9e du projet <i>CBMA - Corpus Burgundiae Medii Aevi<\/i>, document 5312. Site du projet Corpus de la Bourgogne du Moyen \u00c2ge, [En ligne] <a href=\"http:\/\/www.cbma-project.eu\" target=\"_blank\">http:\/\/www.cbma-project.eu<\/a>  "
        },
        {
            "type": "sources_manuscrites",
            "value": "\u00e0 renseigner."
        },
        {
            "type": "remarques",
            "value": "Indications des \u00e9diteurs : Paschalis, etc. Scribens ad, etc. (Mansi, t.\u00a0XX, p.\u00a01013.). \r\n\r\nPascal II, pape : 1099- 21 janvier 1118. \r\n\r\nPons, abb\u00e9 de Cluny : avril 1109 - 1122. "
        },
        {
            "type": "edition_autre",
            "value": "Ici reprise de Auguste Bernard, Alexandre Bruel, <i>Recueil des chartes de l'abbaye de Cluny<\/i>. V. <i>1091-1210<\/i>, Paris\u00a0: Imprimerie nationale, 1894 <a href=\"http:\/\/gallica.bnf.fr\/ark:\/12148\/bpt6k28911f?rk=64378;0\" target=\"_blank\">[en ligne]<\/a>, p. 234, n\u00b0 3882",
            "children": {
                "numero_note": "0"
            }
        },
        {
            "type": "regeste",
            "value": "Mansi, t.\u00a0XX, p.\u00a01013.",
            "children": {
                "numero_note": "0"
            }
        },
        {
            "type": "genre",
            "value": "Bulle"
        },
        {
            "type": "genre",
            "value": "Lettre"
        }
    ]
}