{
    "id": 26825,
    "name": "aposcripta-3708",
    "type": "acte",
    "url": "http:\/\/telma-chartes.irht.cnrs.fr\/aposcripta\/notice\/26825",
    "project_slug": "aposcripta",
    "project_label": "APOSCRIPTA \u2013 Lettres des papes",
    "user": "l_valliere",
    "last_update": "2020-10-19 16:28:05",
    "licence": "Attribution - Pas d\u2019Utilisation Commerciale - Partage dans les M\u00eames Conditions 3.0 France (CC BY-NC-SA 3.0 FR) ",
    "licence_url": "https:\/\/creativecommons.org\/licenses\/by-nc-sa\/3.0\/fr\/",
    "elements": [
        {
            "type": "pape",
            "value": "Calixte III (1455-1458)"
        },
        {
            "type": "destinataire",
            "value": "Le roi de France Charles VII"
        },
        {
            "type": "date",
            "value": " 1457\/06\/28",
            "children": {
                "date_deb_jour": "28",
                "date_deb_mois": "06",
                "date_deb_annee": "1457"
            },
            "range": {
                "date_apres": 14570628,
                "date_avant": 14570628
            }
        },
        {
            "type": "date_lieu",
            "value": "Rome"
        },
        {
            "type": "genre",
            "value": "Lettre, g\u00e9n\u00e9ral (apr\u00e8s 1198, littere cum filo canapis)"
        },
        {
            "type": "analyse",
            "value": "Lettre close de Calixte III \u00e0 Charles VII"
        },
        {
            "type": "sources_manuscrites",
            "value": "F. FRANCE, Rouen, Archives d\u00e9partementales de Seine-Maritime, G 1911.",
            "children": {
                "type_source": "Copie"
            }
        },
        {
            "type": "edition",
            "value": "Ici reprise de No\u00ebl Valois, <i>Histoire de la Pragmatique Sanction de Bourges sous Charles VII<\/i>, Paris, A. Picard et fils, 1906, n. 90, p. 233-234 <a target=\"_blank\" href=\"https:\/\/archive.org\/stream\/histoiredelapra00valogoog#page\/n440\/mode\/2up\">[en ligne]<\/a>, d\u2019apr\u00e8s F (partielle)."
        },
        {
            "type": "transcription",
            "value": "<?xml version=\"1.0\" encoding=\"UTF-8\"?>\n... Cum enim nobis significatum fuerit plerosque etiam prelatos, universitates, presertim studii Parisiensis, et capitula regni tui, ad subterfugiendam et impediendam exactionem decime... de tue sublimitatis, ut catholici principis, summo consensu et favore imposite, ad futurum generale Concilium appellasse, valde commoti fuimus quod talia de se presumerent, tum quia opus tam divinum... retardari posset, tum quia ad aliquod quasi supra nos majus tribunal, quod est scismaticum et hereticum, appellare videntur. Quamobrem deliberavimus omnino quod dilectus filius noster Alanus1, tituli Sancte Praxede presbiter cardinalis Avenionensis, in illis partibus apostolice Sedis legatus, ad tuam redeat sublimitatem, ut tua ope et auxilio eosdem temerarios appellantes facilius cogere possit ad corrigendum tam gravem eorum errorem, quem nullatenus relinquere decrevimus impunitum, tamquam fomentum omnium malorum et de auctoritate Sedis ejusdem ac vicarii Christi in terris male sentientem. Velit igitur tua serenitas... contra ipsos temerarios appellantes eorumque complices et fautores potenter insurgere ac cardinali prefato taliter asistere et facere quod adversus eos liberam faciat penarum executionem, ita ut a tam nefariis ausibus revocentur et alii eorum exempla deinceps similia temptare non presumant...\n"
        },
        {
            "type": "notes_historiques",
            "value": "Alain de Co\u00ebtivy.",
            "children": {
                "numero_note": "1"
            }
        }
    ]
}