{
    "id": 20838,
    "name": "aposcripta-825",
    "type": "acte",
    "url": "http:\/\/telma-chartes.irht.cnrs.fr\/aposcripta\/notice\/20838",
    "project_slug": "aposcripta",
    "project_label": "APOSCRIPTA \u2013 Lettres des papes",
    "user": "lettrespontificalesadmin",
    "last_update": "2020-10-19 16:26:53",
    "licence": "Attribution - Pas d\u2019Utilisation Commerciale - Partage dans les M\u00eames Conditions 3.0 France (CC BY-NC-SA 3.0 FR) ",
    "licence_url": "https:\/\/creativecommons.org\/licenses\/by-nc-sa\/3.0\/fr\/",
    "elements": [
        {
            "type": "pape",
            "value": "Alexandre III (1159-1181)"
        },
        {
            "type": "date_lieu",
            "value": "Tusculum"
        },
        {
            "type": "date_libre",
            "value": "VII kalendas julii"
        },
        {
            "type": "analyse",
            "value": "Alexander\u00a0III (archiepiscopo Bisuntino eiusque suffraganeis) mandat, ut quidquid ab Herberto quondam intruso vel aliis schismaticis contra fratres Cistercienses statutum sit, in irritum revocent."
        },
        {
            "type": "transcription",
            "value": "<?xml version=\"1.0\" encoding=\"UTF-8\"?>\nAlexander episcopus etc.a Curab commissae nobis sollicitudinis nos hortatur profectibus ecclesiarum regulariter intendere et, ne quid in earum praeiudicium fiat, attenta sollicitudine providere. Quocirca fraternitati vestrae per apostolica scripta mandamus atque praecipimus, quatinus, quidquid a dampnatae memoriae Herb(erto) quondam Bisuntino intruso vel ab aliis scismaticis contra fratres Cisterciensis ordinis vel alios catholicos viros statutum esse dinoscitur, in irritum appellatione proposita revocetis statuentes, ne ex hoc iustitiac eorum ullo possit tempore praepedirid\u00a0; nos enim eum assensu charissimi in Christo filii nostri et illustrissimi Romanorum imperatoris1, archiepiscoporum et episcoporum, qui praesentes erant, omnes concessiones, donationes et quaslibet alias alienationes a scismaticise de rebus ecclesiasticis factas irritas esse decernimus viribusque cavere. Datum Tusculani VII Kal. Iulii.\n"
        },
        {
            "type": "edition",
            "value": "Samuel Loewenfeld, <i>Epistolae pontificum romanorum ineditae<\/i>, Leipzig : Veit et Comp., 1885, n. 326, p. 194"
        },
        {
            "type": "sources_manuscrites",
            "value": "F. FRANCE, Paris, Bibl. nat. Paris. Coll. Moreau 870. fol.\u00a0145<sup>b<\/sup>. manu s.\u00a0XVIII.",
            "children": {
                "type_source": "Copie moderne"
            }
        },
        {
            "type": "notes_historiques",
            "value": "Friderici.",
            "children": {
                "numero_note": "1"
            }
        },
        {
            "type": "apparat_critique",
            "value": "<i>Hic locus ita supplendus videtur<\/i>\u00a0: servus servorum Dei venerabilibus fratribus Bisuntino archiepiscopo eiusque suffraganeis salutem et apostolicam benedictionem.",
            "children": {
                "numero_note": "a"
            }
        },
        {
            "type": "apparat_critique",
            "value": "cum <i>cod.<\/i>",
            "children": {
                "numero_note": "b"
            }
        },
        {
            "type": "apparat_critique",
            "value": "iustitiam <i>cod.<\/i>",
            "children": {
                "numero_note": "c"
            }
        },
        {
            "type": "apparat_critique",
            "value": "<i>in cod.<\/i> perpeudiri <i>correctum ex<\/i> imperpendiri\u00a0; <i>legendum videtur<\/i> praepediri <i>vel<\/i> impediri.",
            "children": {
                "numero_note": "d"
            }
        },
        {
            "type": "apparat_critique",
            "value": "cismaticis <i>cod.<\/i>",
            "children": {
                "numero_note": "e"
            }
        },
        {
            "type": "date",
            "value": "1180\/06\/25",
            "children": {
                "date_deb_annee": "1180",
                "date_deb_mois": "06",
                "date_deb_jour": "25"
            },
            "range": {
                "date_apres": 11800625,
                "date_avant": 11800625
            }
        },
        {
            "type": "genre",
            "value": "Mandement (littere cum filo canapis)"
        },
        {
            "type": "destinataire",
            "value": "L'archev\u00eaque de Besan\u00e7on et ses suffragants"
        }
    ]
}