{
    "id": 24891,
    "name": "aposcripta-2026",
    "type": "acte",
    "url": "http:\/\/telma-chartes.irht.cnrs.fr\/aposcripta\/notice\/24891",
    "project_slug": "aposcripta",
    "project_label": "APOSCRIPTA \u2013 Lettres des papes",
    "user": "a_grunin",
    "last_update": "2020-10-19 16:27:36",
    "licence": "Attribution - Pas d\u2019Utilisation Commerciale - Partage dans les M\u00eames Conditions 3.0 France (CC BY-NC-SA 3.0 FR) ",
    "licence_url": "https:\/\/creativecommons.org\/licenses\/by-nc-sa\/3.0\/fr\/",
    "elements": {
        "0": {
            "type": "pape",
            "value": "Lucius III (1181-1185)"
        },
        "1": {
            "type": "destinataire",
            "value": "L'archev\u00eaque de Monreale (Sicile) Guglielmo"
        },
        "2": {
            "type": "date_libre",
            "value": "1184, 16 novembre, II ind."
        },
        "3": {
            "type": "date",
            "value": " 1184\/11\/16",
            "children": {
                "date_deb_jour": "16",
                "date_deb_mois": "11",
                "date_deb_annee": "1184"
            },
            "range": {
                "date_apres": 11841116,
                "date_avant": 11841116
            }
        },
        "4": {
            "type": "date_lieu",
            "value": "Anagni"
        },
        "5": {
            "type": "genre",
            "value": "Privil\u00e8ge"
        },
        "6": {
            "type": "analyse",
            "value": " Papa Lucio III conferma all\u2019arcivescovo di Monreale, fra\u2019 Guglielmo, la concessione fatta dalla regina Margherita del monastero di Maniace alla chiesa di Santa Maria Nova, col consenso di Nicol\u00f2 I, arcivescovo di Messina<a href=\"#app-2\"><sup>(2)<\/sup><\/a>, e del suo capitolo, inserendo il tenore di quel privilegio."
        },
        "7": {
            "type": "sources_manuscrites",
            "value": "A. ITALIE, Palerme, Biblioteca centrale della Regione Siciliana, Tabulario di S. Maria Nuova di Monreale, perg. nr. Balsamo 165, di mm. 740+28\u00d7597."
        },
        "8": {
            "type": "sources_manuscrites",
            "value": " D. ITALIE, Monreale (Sicile), Bibl. del Seminario Arcivescovile di Monreale, manoscritto XX.E.8."
        },
        "9": {
            "type": "edition",
            "value": "Ici tir\u00e9e de Serena Falletta, <a target=\"_blank\" href=\"http:\/\/vatlat3880.altervista.org\/\"> L'edizione Digitale del Liber Privilegiorum Sanctae Montis Regalis Ecclesiae, 2009<\/a>, document<a target=\"_blank\" href=\"http:\/\/vatlat3880.altervista.org\/documenti\/II.7.xml\"> II.7<\/a>, d'apr\u00e8s B."
        },
        "10": {
            "type": "edition_autre",
            "value": "Del Giudice M., <i>Descrizione del tempio e monasterio di S. Maria Nuova di Monreale. Vite dei suoi Arcivescovi, Abbati e Signori col Sommario dei Privilegi, della detta Santa Chiesa di Giovan Luigi Lello. Ristampata ad opera del padre Don Michele Del Giudice priore cassinese<\/i>, Palermo 1702, p. 48."
        },
        "11": {
            "type": "regeste",
            "value": "Lello G.L., <i>Historia della Chiesa di Monreale<\/i>, Palermo 1702, n. 50."
        },
        "12": {
            "type": "regeste",
            "value": "Garufi C.A., <i>Catalogo illustrato del Tabulario di Santa Maria Nuova in Monreale<\/i>, in <i>Documenti per servire alla Storia di Sicilia pubblicati a cura della Societ\u00e0 Siciliana per la Storia Patria<\/i>, XIX, Palermo 1902, n. 49, p. 27 (con data 16 novembre 1183)."
        },
        "13": {
            "type": "regeste",
            "value": "Jaff\u00e8-Loewenfeld P., <i>Regesta Pontificum Romanorum. Photomechanischer Nachdruck<\/i>, 2 voll., Graz 1956, n. 14937."
        },
        "14": {
            "type": "transcription",
            "value": "<?xml version=\"1.0\" encoding=\"UTF-8\"?>\nLucius episcopus servus servorum Dei. Venerabili fratri Willelmo, archiepiscopo Montis Regalis eiusque successoribus canonice substituendis. In perpetuum. Ea que ab apostolice sedis clemencia tenor et instancia iuste petitionis expostulat, tunc libencius placido favore prosequimur, cum pia postulantis intencio et ab Dei omnipotentis honorem recta consideratione dirigitur, et mera devoctio supplicantis id ipsum quod postulat copiosius promeretur. Ea propter, venerabilis in Domino frater pium votum et laudabile fraternitatis tue propositum actendentes quomodo videlicet, circa matrem tuam Romanam ecclesiam et nos ipsos devotus et humilis perseveras, et incommisse tibi ecclesie comodis promovendis cura et sollicitudine pastorali desudas peticionibus tuis clementer annuimus ut, quod a nobis previa ratione pro eadem ecclesia te postulante requiritur obtatos exitus utilis efficatie sorciatur. Specialiter autem monasterium constitutum in loco qui dicitur Maniacium, quod bone memorie Margarite quondam regina Sicilie favore et asscensuc pie recordationis Nicolay Messanensis archiepiscopi et capituli eius ecclesie tue concessit nos eidem ecclesie cum omnibus pertinenciis et libertatibus suis, que iuxta tenorem autentici instrumenti quod prefatus Nicolaus archiepiscopus inde fecit inferius annotantur auctoritate apostolica confirmamus, et presentis scriptid privilegio communimus. In primis, si quidem prefatoarchiepiscopo Nicolao et eius capitulo placuit monasterium ipsum cum omnibus pertinenciis, tenimentis et possesionibus suis quas vel in presenciarum habet vel in futurum poterit adipisci ab omni debito Messanensis ecclesie liberum absolutumque dimictere et illud in ea libertate predicte regine peticionibus assignare, ita ut nec ei nec successoribus eius aut Messanensi ecclesie licencia remaneret, de rebus ipsius monasterii vel hominum aut tenimentorum eius quicumque exigere, capere vel modis aliquibus extorquere; et si forte contigerit quod idem Nicolaus | archiepiscopus vel suorum quilibet successorum per idem monasterium vel per loca et obediencias eius transitum faceret, non liceret ei aut successoribus eius ab ipso monasterio vel obedienciis aut hominibus et tenimentis suis victum vel quelibet stipendia per se vel per alios auctoritate sua qui ex debito querere, nisi monasterium ipsum aliquid eis ex liberalitate propria voluerit exhibere. Et quoniam predicta regina prefatum monasterium supradicte ecclesie tue decreverat offerendum, sicut et postmodum, opere prosequente, complevit, dedit et concessit archiepiscopus Nicolaus de comuni assensu capituli sui omne ius episcopale quod ecclesia Messanensis in ipsoe monasterio vel hominibus aut tenimentis eius que in parrochia vel ecclesia sua continentur habebat vel habere poterat, si tamen in hoc apostolice sedis auctoritatis consentiret. Nos igitur omnem predictam concessionem, sicut a sepedicto archiepiscopo et capitulo eius, ecclesie tue per interventum supradicte reginef facta est et descripta, ratam habentes eam in sua decernimus firmitate consistere et robur perpetuum obtinere; decernimus ergo ut nulli omnino hominum liceat prefatum monasterium vel ecclesiam tuam in eo temere perturbare aut eius possesiones auferre oblatas retinere, minuere seu quibuslibet vexationibus fatigare, sed omnia integra et illibata serventur eorum pro quorum gubernatione ac sustentatione concessa sunt, usibus omnimodis profutura, salva Sedis Apostolice auctoritate. Si qua igitur in futurum ecclesiastica secularisve persona hanc nostre constitutionis paginam sciens contra eam temere venire temptaverit secundo terciove commonita, nisi reatum suum digna satisfatione correxerit potestatis honorisque sui dignitate careat reamque se divino iudicio existere de perpetrata iniquitate cognoscat, et a sacratissimo corpore ac sanguine dei et domini redemptoris nostri Iesu Christi aliena fiat atque in extremo examine divine ulcioni subiaceat. Cunctis autem eidem loco sua iura servantibus sit pax domini nostri Iesu Christi, quatinus et hic fructum bone actionis percipiant et apud districtum iudicem premia eterne pacis inveniant. Amen. (R)g(BV) Ego Lucius Catholice Ecclesie episcopus subscripsi. \u2020 Ego Theodinus Portuensis et Sancte Ruffine sedis episcopus subscripsi. \u2020 Ego Hen||ricus Albanensis episcopus subscripsi. \u2020 Ego Paulus Prenestinus episcopus subscripsi. \u2020 Ego Iohannes presbiter cardinalis tituli Sancti Marci subscripsi. \u2020 Ego Petrus presbiter cardinalis tituli Sancte Susanne subscripsi. \u2020 Ego Vivianus tituli Sancti Stephani in Celio Monte presbiter cardinalis subscripsi. \u2020 Ego Laborans presbiter cardinalis Sancte Marie Transtiberim tituli Sancti Calixti subscripsi. \u2020 Ego Pandulfus presbiter cardinalis tituli Basilice XII Apostolorum subscripsi. \u2020 Ego Iacinctus diaconus cardinalis Sancte Marie in Cosmidin subscripsi. \u2020 Ego Ardicio diaconus cardinalis Sancti Theodori subscripsi. \u2020 Ego Gracianus diaconus cardinalis Sanctorum Cosme et Damiani subscripsi. \u2020 Ego Bobo Sancti Angeli diaconus cardinalis subscripsi. \u2020 Ego Gerardus Sancti Adriani diaconus cardinalis subscripsi. \u2020 Ego Octavianus Sanctorum Sergi et Bachi diaconus cardinalis subscripsi. \u2020 Ego Albinus Sancte Marie Nove diaconus cardinalis subscripsi. Data Ananie, per manum Hugonis Sancte Romane ecclesie notarii, XVI\u00b0 kalendas decembris, indictione IIa, incarnationis dominice anno M\u00b0C\u00b0LXXXIIII\u00b0, pontificatus vero domini Lucii pape III anno tercio.\n"
        },
        "18": {
            "type": "apparat_critique",
            "value": "<i>Con segno abbreviativo per<\/i> p(re) <i>depennato.<\/i>",
            "children": {
                "numero_note": "a"
            }
        },
        "19": {
            "type": "apparat_critique",
            "value": "<i>Ma<\/i> ad <i>nel codice.<\/i>",
            "children": {
                "numero_note": "b"
            }
        },
        "20": {
            "type": "apparat_critique",
            "value": "<i>Cos\u00ec nel codice.<\/i>",
            "children": {
                "numero_note": "c"
            }
        },
        "21": {
            "type": "apparat_critique",
            "value": "<i>La seconda<\/i> i <i>corretta su precedente<\/i> e.",
            "children": {
                "numero_note": "d"
            }
        },
        "22": {
            "type": "apparat_critique",
            "value": "<i>Nel cod., la<\/i> p <i>corretta su precedente lettera.<\/i>",
            "children": {
                "numero_note": "e"
            }
        },
        "23": {
            "type": "apparat_critique",
            "value": "<i>La <\/i>e <i>finale corretta su precedente<\/i> a.",
            "children": {
                "numero_note": "f"
            }
        },
        "24": {
            "type": "apparat_critique",
            "value": "<i>Cos\u00ec la legenda nella cornice della Rota:<\/i> \u2020 Adiuva nos Deus salutaris noster, <i>cit. Ps. 78, 9. All'interno della Rota:<\/i> Sanctus Petrus | Sanctus Paulus | Luc|ius papae | III.",
            "children": {
                "numero_note": "g"
            }
        },
        "25": {
            "type": "notes_historiques",
            "value": "Per la concessione dei diritti vescovili da parte di Nicol\u00f2 I, avvenuta nel 1174, v. il documento<a target=\"_blank\" href= \"http:\/\/vatlat3880.altervista.org\/documenti\/III.3.xml\"> III.3<\/a> (=<a target=\"_blank\" href= \"http:\/\/telma-chartes.irht.cnrs.fr\/aposcripta\/notice\/24886\"> APOSCRIPTA n. 2021<\/a>) e la conferma del 1178 (<a target=\"_blank\" href= \"http:\/\/vatlat3880.altervista.org\/documenti\/III.5.xml\">III.5<\/a>) (=<a target=\"_blank\" href= \"http:\/\/telma-chartes.irht.cnrs.fr\/aposcripta\/notice\/24887\"> APOSCRIPTA n. 2022<\/a>).",
            "children": {
                "numero_note": "2"
            }
        },
        "26": {
            "type": "genre",
            "value": "Bulle"
        }
    }
}