{
    "id": 23882,
    "name": "aposcripta-1068",
    "type": "acte",
    "url": "http:\/\/telma-chartes.irht.cnrs.fr\/aposcripta\/notice\/23882",
    "project_slug": "aposcripta",
    "project_label": "APOSCRIPTA \u2013 Lettres des papes",
    "user": "l_valliere",
    "last_update": "2020-10-19 16:27:19",
    "licence": "Attribution - Pas d\u2019Utilisation Commerciale - Partage dans les M\u00eames Conditions 3.0 France (CC BY-NC-SA 3.0 FR) ",
    "licence_url": "https:\/\/creativecommons.org\/licenses\/by-nc-sa\/3.0\/fr\/",
    "elements": [
        {
            "type": "pape",
            "value": "Innocent IV (1243-1254)"
        },
        {
            "type": "destinataire",
            "value": "L'abb\u00e9 de Sainte-Genevi\u00e8ve, le chancelier et ma\u00eetre Pierre de P., chanoine de Paris"
        },
        {
            "type": "date_libre",
            "value": "II kalendas februarii, anno sexto"
        },
        {
            "type": "date",
            "value": " 1249\/01\/31",
            "children": {
                "date_deb_jour": "31",
                "date_deb_mois": "01",
                "date_deb_annee": "1249"
            },
            "range": {
                "date_apres": 12490131,
                "date_avant": 12490131
            }
        },
        {
            "type": "date_lieu",
            "value": "Lyon"
        },
        {
            "type": "analyse",
            "value": "Litter\u00e6 Innocentii pap\u00e6 ad abbatem S. Genovef\u00e6, cancellarium et magistrum Petrum de P., canonicum Parisiensem, quibus mandat ut causam inter regem Navarr\u00e6, Campani\u00e6 comitem, ex una parte, atque Senonensem archiepiscopum et quosdam Senonensis, Trecensis et Parisiensis di\u0153cesium clericos, de pedagio castri Braii super Sequanam, pendentem, audiant et appellatione remota, fine debito terminent."
        },
        {
            "type": "sources_manuscrites",
            "value": "E. FRANCE, Paris, Archives nationales, J 198 B\/140. Original scell\u00e9 (bulle de plomb sur cordelettes de chanvre. - <i>Inventaire<\/i>, n. 6048).",
            "children": {
                "type_source": "Exp\u00e9dition",
                "source_edition": ""
            }
        },
        {
            "type": "transcription",
            "value": "<?xml version=\"1.0\" encoding=\"UTF-8\"?>\nCarissimus in Christo... Datum Lugduni, II kalendas februarii, pontificatus nostri anno sexto.\n"
        },
        {
            "type": "remarques",
            "value": "\u00e0 \u00e9diter - Inconnue de Potthast - Absente des registres"
        },
        {
            "type": "bibliographie_generale",
            "value": ""
        },
        {
            "type": "genre",
            "value": "Mandement (littere cum filo canapis)"
        },
        {
            "type": "regeste",
            "value": "Joseph de Laborde, <i>Layettes du Tr\u00e9sor des chartes<\/i>, III, Paris : Henri Plon, 1875 <a target=\"_blank\" href=\"http:\/\/digi.ub.uni-heidelberg.de\/diglit\/teulet1875bd3\/0140\"> [en ligne]<\/a>, n. 3738, p. 54 <a target=\"_blank\"href=\"https:\/\/francearchives.fr\/fr\/facomponent\/1a3e2cd304aae0c8d1be2afa99b9626ba16dbc79\">[num\u00e9ris\u00e9e sur le site des Archives de France]<\/a>, d'apr\u00e8s E."
        },
        {
            "type": "regeste",
            "value": "Bernard Barbiche, <i>Les actes pontificaux originaux des Archives Nationales de Paris<\/i>, Cit\u00e9 du Vatican, 1975-1982, I, n. 643, p. 245-246, d\u2019apr\u00e8s E."
        }
    ]
}