{
    "id": 20048,
    "name": "aposcripta-35",
    "type": "acte",
    "url": "http:\/\/telma-chartes.irht.cnrs.fr\/aposcripta\/notice\/20048",
    "project_slug": "aposcripta",
    "project_label": "APOSCRIPTA \u2013 Lettres des papes",
    "user": "lettrespontificalesadmin",
    "last_update": "2020-10-19 16:26:43",
    "licence": "Attribution - Pas d\u2019Utilisation Commerciale - Partage dans les M\u00eames Conditions 3.0 France (CC BY-NC-SA 3.0 FR) ",
    "licence_url": "https:\/\/creativecommons.org\/licenses\/by-nc-sa\/3.0\/fr\/",
    "elements": [
        {
            "type": "date_lieu",
            "value": "Poitiers"
        },
        {
            "type": "date_libre",
            "value": "17 novembre 1307"
        },
        {
            "type": "analyse",
            "value": "Alia ejusdem papae epistola<a class=\"note\" href=\"#note-1\">1<\/a> ad eumdem regem ut fidem adhibeat Arnaldo de Faugeriis."
        },
        {
            "type": "transcription",
            "value": "<?xml version=\"1.0\" encoding=\"UTF-8\"?>\nClemens, episcopus, servus servorum Dei, carissimo in Christo filio Philippo, regi Francorum illustri, salutem et apostolicam benedictionem. Dilectum filium magistrum Arnaldum de Faugeriis, capellanum nostrum, prepositum Arelatensem, latorem presentium, serenitati regie duximus destinandum, cui plenam  fidem adhibeas in hiis que super captione Templariorum ubique facienda et quibusdam aliis que ad nos noviter pervenerunt, ac quadam littera negotium pacis inter te et.. regem Anglie contingente concessa per nos, dum Lugduni romana curia resideret, ex parte nostra tibi duxerit referenda. Datum Pictavis, XV kal. decembris, pontificatus nostri anno tertio.\n"
        },
        {
            "type": "edition",
            "value": "\u00c9tienne Baluze, Guillaume Mollat, <i>Vitae paparum Avenionensium. Nouvelle \u00e9dition revue d'apr\u00e8s les manuscrits et compl\u00e9t\u00e9e de notes critiques<\/i>, Paris : Letouzey et An\u00e9, 1914-1922, vol. 3, n. XIX"
        },
        {
            "type": "sources_manuscrites",
            "value": "D\u2019apr\u00e8s le ms. latin <i>10919,<\/i> fol. 69 r\u00ba et 171 r\u00ba (Biblioth\u00e8que nationale)."
        },
        {
            "type": "pape",
            "value": "Cl\u00e9ment V (1305-1314)"
        },
        {
            "type": "date",
            "value": "1307\/11\/17",
            "children": {
                "date_deb_annee": "1307",
                "date_deb_mois": "11",
                "date_deb_jour": "17"
            },
            "range": {
                "date_apres": 13071117,
                "date_avant": 13071117
            }
        },
        {
            "type": "genre",
            "value": "Bulle"
        }
    ]
}