{
    "id": 26128,
    "name": "aposcripta-3207",
    "type": "acte",
    "url": "http:\/\/telma-chartes.irht.cnrs.fr\/aposcripta\/notice\/26128",
    "project_slug": "aposcripta",
    "project_label": "APOSCRIPTA \u2013 Lettres des papes",
    "user": "lettrespontificalesadmin",
    "last_update": "2020-10-19 16:27:55",
    "licence": "Attribution - Pas d\u2019Utilisation Commerciale - Partage dans les M\u00eames Conditions 3.0 France (CC BY-NC-SA 3.0 FR) ",
    "licence_url": "https:\/\/creativecommons.org\/licenses\/by-nc-sa\/3.0\/fr\/",
    "elements": [
        {
            "type": "pape",
            "value": "L\u00e9on IX (1049-1054)"
        },
        {
            "type": "date_lieu",
            "value": "Lateran"
        },
        {
            "type": "date_libre",
            "value": "1050 Mai 1 <a class=\"note\" href=\"#note-1\">1<\/a>"
        },
        {
            "type": "date",
            "value": " 1050\/05\/01",
            "children": {
                "date_deb_annee": "1050",
                "date_deb_mois": "05",
                "date_deb_jour": "01"
            },
            "range": {
                "date_apres": 10500501,
                "date_avant": 10500501
            }
        },
        {
            "type": "analyse",
            "value": "Leo IX befiehlt seinem Getreuen (!) Gottfried, dem Kloster Montier-en-Der (D. Ch\u00e2lons-sur-Marne) Gerechtigkeit widerfahren zu lassen."
        },
        {
            "type": "transcription",
            "value": "<?xml version=\"1.0\" encoding=\"UTF-8\"?>\nLeo episcopus servus servorum dei Goffredo fideli suo apostolicam benedictionem. Mandamus atque precipimus tibi, ut rectum facias deo et sanctis Petro atque Berchario atque monachis inibi consedentibus2, sicut iam tibi precepimus et tu michi convenisti. Quod, nisi feceris, si secundam exinde habuerimus querelam, procul dubio excommunicaberis.\n"
        },
        {
            "type": "edition",
            "value": "Julius von Pflugk-Harttung, <i>Acta pontificum Romanorum inedita<\/i>, T\u00fcbingen, 1880, I, n. 19, p. 16"
        },
        {
            "type": "sources_manuscrites",
            "value": "Abschrift vom 12 Jahrh. des Cart. de l\u2019abbaye de Montier-en-Der fol. 53, im Archive des D\u00e9p. Haute-Marne zu Chaumont. \u2014 Daraus neuere Abschr. MS. lat. Nouv. Acq. 1251 fol. 53, in der Bibl. Nat. zu Paris."
        },
        {
            "type": "remarques",
            "value": ""
        },
        {
            "type": "notes_historiques",
            "value": "<i>Wegen des Datum vergl. Nr. 18.<\/i>",
            "children": {
                "numero_note": "1"
            }
        },
        {
            "type": "notes_historiques",
            "value": "<i>Nach der vorhergehenden und folgenden Urk. k\u00f6nnen in dem Satzgef\u00fcge mehrere Worte ausgefallen zu sein.<\/i>",
            "children": {
                "numero_note": "2"
            }
        },
        {
            "type": "genre",
            "value": "Bulle"
        }
    ]
}