{
    "id": 150024,
    "name": "aposcripta-9587",
    "type": "acte",
    "url": "http:\/\/telma-chartes.irht.cnrs.fr\/aposcripta\/notice\/150024",
    "project_slug": "aposcripta",
    "project_label": "APOSCRIPTA \u2013 Lettres des papes",
    "user": "lettrespontificalesadmin",
    "last_update": "2020-10-19 16:40:07",
    "licence": "Attribution - Pas d\u2019Utilisation Commerciale - Partage dans les M\u00eames Conditions 3.0 France (CC BY-NC-SA 3.0 FR) ",
    "licence_url": "https:\/\/creativecommons.org\/licenses\/by-nc-sa\/3.0\/fr\/",
    "elements": [
        {
            "type": "pape",
            "value": "Paul III (1534-1549)"
        },
        {
            "type": "destinataire",
            "value": "_"
        },
        {
            "type": "date_libre",
            "value": "XV. decembris 1537 anno 4."
        },
        {
            "type": "date",
            "value": " 1537\/12\/15",
            "children": {
                "date_deb_annee": "1537",
                "date_deb_mois": "12",
                "date_deb_jour": "15"
            },
            "range": {
                "date_apres": 15371215,
                "date_avant": 15371215
            }
        },
        {
            "type": "date_lieu",
            "value": "Rome"
        },
        {
            "type": "genre",
            "value": "Titre, g\u00e9n\u00e9ral (littere gratiose, cum filo serico)"
        },
        {
            "type": "analyse",
            "value": "Rinnovazione delle costituzioni per le quali li inquisitori non possono inquirere contro i minori osservanti, sottoposti all\u2019esclusiva giurisdizione dei proprii superiori."
        },
        {
            "type": "sources_manuscrites",
            "value": "Arch. secr. Vatic. Pauli III brev. min. a. MDXXXV, IV, 8, breve 170.",
            "children": {
                "type_source": "Original"
            }
        },
        {
            "type": "edition",
            "value": "Ici reprise de B. Fontana, \u00ab Documenti vaticani contro l'eresia luterana in Italia \u00bb <hi rend=\"italic\">Archivio della Reale Societ\u00e0 Romana di Storia Patria<\/hi>, 15, 1892, 15, n. 1, p. 76."
        },
        {
            "type": "transcription",
            "value": "<?xml version=\"1.0\" encoding=\"UTF-8\"?>\nPaulus papa 3s.Ad futuram rei memoriam. Ex debito pastoralis officii ad ea libenter intendimus, per que jurisdictio ecclesiasticarum personarum presertim religionis jugo astrictarum, quibus est per Apostolicam Sedem tributa, ut permaneat libera et immunis et hijs[1] que propterea facta fuisse noscuntur, ut illibata perpetuo persistant apostolice confirmationis munimine roboramus et alias desuper providemus, prout in Domino conspicimus feliciter convenire. Dudum felicis recordationis Leo papa X et Clemens VII predecessores nostri inquisitoribus heretice pravitatis, tunc et pro tempore apostolica vel quavis alia auctoritate etiam motu proprio et ex certa scientia ac de apostolice potestatis plenitudine etiam consistorialiter in quibusvis mundi partibus deputatis, sub excommunicationis sententia ac privationis omnium et singulorum beneficiorum et officiorum ecclesiasticorum per eos obtentorum et inhabilitatis ad illa et alia in posterum obtinenda et alijs penis in litteris pie memorie Clementis IIII Sixti etiam IIII et Innocentij VIII etiam Romanorum pontificum predecessorum nostrorum in similibus contentis, quas contra facientes incurrere voluerunt eo ipso, preceperunt et mandarunt, ne ex tunc de cetero contra quascunque personas ordinis fratrum minorum super heresi vel alijs quibuscunque causis ad officium inquisitorum quomodolibet pertinentibus se intromittere, testes examinare seu processus agitare presumerent, et si forte jam tunc aliquos fratres vel personas aliquas dictj ordinis capi fecerant aut testes examinaverant seu processus agitaverant, illos nec non dicta testium, sive principaliter sive accessorie sive incidenter examinatorum, et quoscunque processus habitos et illos quomodolibet concernentes ministris et vicarijs et prelatis ordinis fratrum minorum in locis illis, in quibus dictos inquisitores residere contingeret, nullis apud se retentis copijs seu transumptis vel votis, infra spatium sex dierum postquam notitiam dictarum litterarum quomodolibet habuissent, realiter et cum effectu restituerent et fratres et persone alie dicti ordinis delinquentes, si qui forent, juxta suorum excessuum ac delictorum exigentiam per prelatos eiusdem ordinis castigarj deberent, universis et singulis archiepiscopis episcopis et decanis executoribus desuper deputatis, prout in dictorum Leonis et Clementis predecessorum nostrorum litteris desuper in forma brevis confectis plenius continetur. Cum autem dilectus filius modernus minister generalis dictj ordinis cupiat litteras Leonis et Clementis huiusmodj pro illorum firmiori robore innovari et approbarj, pro parte ipsius ministri generalis nobis fuit humiliter supplicatum, ut in premissis opportune providere de benignitate apostolica dignaremur. Nos igitur singularum litterarum predictarum tenores de verbo ad verbum pro expressis habentes, huiusmodi supplicationibus inclinati litteras Leonis et Clementis predecessorum nostrorum auctoritate apostolica tenore presentium approbamus et innovamus illasque firmiter et inviolabiliter sub sententijs et penis predictis observarj mandamus ac quoslibet contrafacientes eisque ad hoc auxilium consilium vel favorem quovis quesito colore prestantes, cuiuscunque conditionis dignitatis status gradus ordinis et preminentie sint, censuras et penas huiusmodi ipso facto incurrere sicque per quoscunque etiam ordinarios et delegatos ac mixta auctoritate fungentes judices et personas ubique judicari sententiari diffiniri et declarari debere, sublata eis et eorum cuilibet aliter iudicandj, sententiandi, difiniendi et interpretandj facultate et auctoritate, ac irritum et inane, si secus super hijs a quocunque quavis auctoritate scienter vel ignoranter contigerit attemptari, decernimus. Quocirca universis et singulis archiepiscopis episcopis et decanis supradictis per hec scripta mandamus, quatenus ipsi vel duo aut unus eorum per se vel alium seu alios presentes litteras et in eis contenta quecunque, ubi et quomodo expedierit ac quotiens ex parte predictj ministrj aut cuiusvis alterius fratris ordinis huiusmodi fuerint requisiti, solemniter publicantes eisque in premissis efficacis defensionis presidio assistentes, faciant auctoritate nostra eos et eorum quemlibet litteris nostris huiusmodi ac omnibus et singulis in eis contentis clausulis pacifice frui, potiri et gaudere ; non permittentes eos aut eorum aliquem per quoscunque desuper quomodolibet indebite molestarj, contrafacientes, auxilium consilium vel favorem prestantes predictos, ultra predictas per alias censuras et penas eorum arbitrio imponendas et applicandas ac irremissibiliter exigendas aliaque juris opportuna remedia, appellatione postposita, compescendo, invocato etiam ad hoc, si opus fuerit, auxilio brachij secularis ; et nihilominus, legitimis per eos super hijs habendis servatis processibus, censuras et penas per eos pro tempore latas illos, quos illas incurrisse constiterit, iteratis vicibus aggravare procurent. Si vero per summariam informationem per eos super hijs habendam eis constiterit, quod ad loca in quibus vigore presentium citandos morarj contigerit, pro citationibus de eis faciendis tutus non pateat accessus, eisdem citationibus huiusmodi per edicta publica in locis affigendis publicis et ipsis citandis vicinis, ex quibus sit verisimilis coniectura, quod ille ad citandorum eorumdem notitiam valeant probabiliter pervenire, faciendi earumdem tenore presentium concedimus facultatem ; decernendo ut citationes huiusmodj sic pro tempore facte ipsos citatos perinde [ci]tent ac si eis personaliter intimate extitissent ; non obstantibus felicis memorie Bonifacij pape VIIJ similiter predecessoris nostrj constitutione, qua cavetur ne quis extra suam civitatem et diocesim, nisi certis tunc expressis casibus, et in illis ultra unam dietam sint[2] deputatj extra civitatem vel diocesim, in quibus deputati fuerunt, contra quoscunque aut alij vel alijs vices suas committere presumant, et de duabus dietis in concilio generali edita et alijs apostolicis ac in provincialibus et synodalibus consilijs editis generalibus vel specialibus constitutionibus et ordinationibus, nec non quibusvis privilegiis indultis et litteris apostolicis inquisitoribus prefatis et eorum officio per quoscunque Romanos pontifices predecessores nostros et nos ac Sedem predictam etiam motu proprio et ex certa scientia ac de apostolice potestatis plenitudine sub quibusvis verborum formis vel clausulis etiam derogatoriarum derogatorijs alijsque fortioribus efficatioribus et insolitis, irritantibusque etiam alijs decretis, etiam talibus, quod illis nullatenus aut non nisi sub certis inibi expressis modo et forma derogarj queat, concessis, confirmatis, approbatis et sepius innovatis. Quibus omnibus etiam si pro illorum sufficienti derogatione de eis illorumque totis tenoribus de verbo ad verbum non autem per clausulas generales idem importantes specialis specifica expressa et individua mentio seu quevis alia expressio habenda aut aliqua alia exquisita forma servanda foret, tenores huiusmodi ac si de verbo ad verbum insererentur presentibus pro sufficienter expressis habentes, illis alias in suo robore permansuris, hac vice duntaxat harum serie specialiter et expresse derogamus, ceterisque contrarijs quibuscunque ; aut si aliquibus communiter vel divisim ab Apostolica sit Sede indultum quod interdicj suspendi aut excommunicarj non possint per litteras apostolicas non facientes plenam et expressam ac de verbo ad verbum de indulto huiusmodi mentionem. Volumus autem quod transumptis presentium, manu publici notarij subscriptis et sigillo alicuius prelatj seu persone in dignitate ecclesiastica constitute munitis, eadem fides ubilibet adhibeatur indubia, que adhiberetur originalibus, si forent exibite vel ostense.Datum Romae .XV. decembris 1537 anno 4. Feci verbum cum Sanctissimus Dominus Noster.Hier. card. Ghinuccius.Blos[3].\n"
        },
        {
            "type": "notes_historiques",
            "value": "Sic.",
            "children": {
                "numero_note": "1"
            }
        },
        {
            "type": "notes_historiques",
            "value": "Sic.",
            "children": {
                "numero_note": "2"
            }
        },
        {
            "type": "notes_historiques",
            "value": "In due mazzi di minute sciolte degli anni 1537 e 1540 si trovano diversi brevi coi quali Paolo III assolve alcuni frati vaganti e li rimette nei conventi.",
            "children": {
                "numero_note": "3"
            }
        }
    ]
}