{
    "id": 26185,
    "name": "aposcripta-3264",
    "type": "acte",
    "url": "http:\/\/telma-chartes.irht.cnrs.fr\/aposcripta\/notice\/26185",
    "project_slug": "aposcripta",
    "project_label": "APOSCRIPTA \u2013 Lettres des papes",
    "user": "lettrespontificalesadmin",
    "last_update": "2020-10-19 16:27:56",
    "licence": "Attribution - Pas d\u2019Utilisation Commerciale - Partage dans les M\u00eames Conditions 3.0 France (CC BY-NC-SA 3.0 FR) ",
    "licence_url": "https:\/\/creativecommons.org\/licenses\/by-nc-sa\/3.0\/fr\/",
    "elements": [
        {
            "type": "pape",
            "value": "Pascal II (1099-1118)"
        },
        {
            "type": "date_lieu",
            "value": "Rom"
        },
        {
            "type": "date_libre",
            "value": "1100 M\u00e4rz 7"
        },
        {
            "type": "date",
            "value": " 1100\/03\/07",
            "children": {
                "date_deb_annee": "1100",
                "date_deb_mois": "03",
                "date_deb_jour": "07"
            },
            "range": {
                "date_apres": 11000307,
                "date_avant": 11000307
            }
        },
        {
            "type": "analyse",
            "value": "Paschalis II best\u00e4tigt dem Abte Peter I von St.-Andr\u00e9-le-Bas (in Vienne) die Besitzth\u00fcmer und Rechte seines Klosters."
        },
        {
            "type": "transcription",
            "value": "<?xml version=\"1.0\" encoding=\"UTF-8\"?>\nPaschalis episcopus servus servorum dei dilecto filio Petro, abbati venerabilis Viennensis monasterii, quod infra Viennensem urbem in honore beati Andreae apostoli situm est, eiusque successoribus regulariter substituendis in perpetuum. Sicut iniusta petentibus nullus est tribuendus effectus, ita legitima desiderantium non est differenda peticio. Tuis igitur, fili in Christo karissime, tuorumque fratrum precibus annuentes, iuxta reverendissimi fratris nostri Guidonis, Viennensis archiepiscopi1, coniventiam, praesentis decreti stabilitate sanccimus, ut monasterium vestrum ab omnium personarum molestiis liberum perseveret. Quicumque autem in eodem loco ad dei servitium convertuntur, iuxta domni praedecessoris nostri Urbani praeceptum, non exstrinseco abbati cuidam, sed tibi ac regularibus tuis successoribus in loco vestro profiteantur, et tam monachorum praesentium benedictio, quam praepositorum ceterorumque monasterii ministrorum dispositio vestro secundum beati Benedicti regulam arbitrio decernantur. Apostolicae etiam auctoritatis vigore statuimus, ut quaecunque hodie idem monasterium iuste possidet sive in futurum concessione pontificum, liberalitate principum vel oblatione fidelium iuste atque canonice poterit adipisci, firma tibi tuisque successoribus et illibata permaneant. Decernimus ergo, ut nulli omnino hominum liceat, idem monasterium temere perturbare aut eius possessiones auferre vel ablatas retinere vel iniuste datas suis usibus vendicare, minuere vel temerariis vexationibus fatigare, sed omnia integra conserventur eorum, pro quorum sustentatione et gubernatione concessa sunt, usibus omnimodis profutura. Vos igitur, fili in Christo dilecti, ut hac semper gratia digniores censeamini, dei semper timorem et amorem in vestris cordibus habere satagite, ut, quanto a secularibus tumultibus liberiores estis, tanto amplius placere deo totius mentis et animae viribus haneletis. Si qua sane in futurum ecclesiastica secularisve persona hanc nostre constitutionis paginam sciens contra eam temere venire temptaverit, secundo terciove commonita, si non satisfactione congrua emendaverit, potestatis honorisque sui dignitate careat, reamque se divino iudicio existere de perpetrata iniquitate cognoscat, et a sacratissimo corpore ac sanguine dei et domini redemptoris nostri Jesu Christi aliena fiat, atque in extremo examine districte ultioni subiaceat. Cunctis autem, eidem loco iusta servantibus, sit pax domini nostri Jesu Christi, quatinus et hic fructum bone actionis percipiant et apud districtum iudicem praemia aeternae pacis inveniant. Amen. Amen. Amen. \u2014 Scriptum per manum Petri, notarii regionarii et scriniarii sacri palatii.Ego Paschalis episcopus ecclesiae catholicae ss.Ego Galterius indignus episcopus ss.2.Ego Odo Ostiensis episcopus ss.Dat. Romae, per manum Johannis, sanctae Romanae ecclesiae diaconi cardinalis. Nonas Marcias. Indictione viii. Incarnationis dominicae anno mc. Pontificatus autem domni Paschalis secundi papae primo.\n"
        },
        {
            "type": "edition",
            "value": "Julius von Pflugk-Harttung, <i>Acta pontificum Romanorum inedita<\/i>, T\u00fcbingen, 1880, I, n. 76, p. 70"
        },
        {
            "type": "sources_manuscrites",
            "value": "Abschrift des MS. Bal. 75 fol. 411, in der Bibl. Nat. zu Paris."
        },
        {
            "type": "remarques",
            "value": "Hier und in der folgenden Urkunde haben wir noch die \u00e4ltere Art von Paschalis Unterschrift ; sp\u00e4ter lautet sie stets Ego Paschalis catholice ecclesie episcopus ss ; als Zwischenstufe zwischen dieser und unserer Formulirung kommt cinigemal Ego Paschalis sancte catholice eccl. eps. ss. vor."
        },
        {
            "type": "notes_historiques",
            "value": "<i>Guido de Bourgogne, Erzbischof von Vienne, c. 1090\u20131119.<\/i>",
            "children": {
                "numero_note": "1"
            }
        },
        {
            "type": "notes_historiques",
            "value": "<i>Bischof von Albano.<\/i>",
            "children": {
                "numero_note": "2"
            }
        },
        {
            "type": "genre",
            "value": "Bulle"
        }
    ]
}