{
    "id": 24926,
    "name": "aposcripta-2059",
    "type": "acte",
    "url": "http:\/\/telma-chartes.irht.cnrs.fr\/aposcripta\/notice\/24926",
    "project_slug": "aposcripta",
    "project_label": "APOSCRIPTA \u2013 Lettres des papes",
    "user": "l_valliere",
    "last_update": "2020-10-20 11:45:19",
    "licence": "Attribution - Pas d\u2019Utilisation Commerciale - Partage dans les M\u00eames Conditions 3.0 France (CC BY-NC-SA 3.0 FR) ",
    "licence_url": "https:\/\/creativecommons.org\/licenses\/by-nc-sa\/3.0\/fr\/",
    "elements": {
        "0": {
            "type": "pape",
            "value": "Cl\u00e9ment IV (1265-1268)"
        },
        "1": {
            "type": "destinataire",
            "value": "Le cardinal-pr\u00eatre de Sainte-C\u00e9cile Simon, l\u00e9gat du Si\u00e8ge apostolique"
        },
        "2": {
            "type": "date_libre",
            "value": "nonis maii, anno tertio"
        },
        "3": {
            "type": "date",
            "value": " 1267\/05\/07",
            "children": {
                "date_deb_jour": "07",
                "date_deb_mois": "05",
                "date_deb_annee": "1267"
            },
            "range": {
                "date_apres": 12670507,
                "date_avant": 12670507
            }
        },
        "4": {
            "type": "date_lieu",
            "value": "Viterbe"
        },
        "5": {
            "type": "genre",
            "value": "Mandement (littere cum filo canapis)"
        },
        "6": {
            "type": "analyse",
            "value": "Clemens IV Simoni legato scribit de Ludovico IX, cum tribus liberis crucesignato. Nuntiat se eidem regi decimam proventuum et redituum ecclesiasticorum regni Franciae per triennium concessisse. Caveat legatus ut eadem decima Ludovico integraliter exhibeatur [Berger]."
        },
        "9": {
            "type": "regeste",
            "value": "\u00c9lie Berger, <i>Layettes du Tr\u00e9sor des chartes<\/i>, IV, Paris : Henri Plon, 1902 <a target=\"_blank\" href=\"http:\/\/digi.ub.uni-heidelberg.de\/diglit\/teulet1902bd4\/0305\"> [en ligne]<\/a>, n. 5280, p. 219 <a target=\"_blank\"href=\"https:\/\/francearchives.fr\/fr\/facomponent\/4346b665e4d6da7f6b500f0cbb947dfb3d84bc2c\">[num\u00e9ris\u00e9e sur le site des Archives de France]<\/a>, d'apr\u00e8s E1 et E2."
        },
        "10": {
            "type": "regeste",
            "value": "Bernard Barbiche, <i>Les actes pontificaux originaux des Archives Nationales de Paris<\/i>, Cit\u00e9 du Vatican, 1975-1982, II, n. 1422, p. 150, d\u2019apr\u00e8s E1 et E2."
        },
        "11": {
            "type": "transcription",
            "value": "<?xml version=\"1.0\" encoding=\"UTF-8\"?>\nIn spiritu pietatis... Datum Viterbii, nonis maii, pontificatus nostri anno tertio.\n"
        },
        "12": {
            "type": "remarques",
            "value": "\u00e0 \u00e9diter - Inconnue de Potthast - Absente des registres"
        }
    }
}