{
    "id": 25125,
    "name": "aposcripta-2222",
    "type": "acte",
    "url": "http:\/\/telma-chartes.irht.cnrs.fr\/aposcripta\/notice\/25125",
    "project_slug": "aposcripta",
    "project_label": "APOSCRIPTA \u2013 Lettres des papes",
    "user": "lettrespontificalesadmin",
    "last_update": "2020-10-19 16:27:40",
    "licence": "Attribution - Pas d\u2019Utilisation Commerciale - Partage dans les M\u00eames Conditions 3.0 France (CC BY-NC-SA 3.0 FR) ",
    "licence_url": "https:\/\/creativecommons.org\/licenses\/by-nc-sa\/3.0\/fr\/",
    "elements": [
        {
            "type": "pape",
            "value": "Nicolas IV (1288-1292)"
        },
        {
            "type": "destinataire",
            "value": "L'\u00e9v\u00eaque d'Autun Hugues d'Arcy",
            "children": {
                "numero_note": "0"
            }
        },
        {
            "type": "date_lieu",
            "value": "Rieti"
        },
        {
            "type": "date_libre",
            "value": "Idus junii, anno primo"
        },
        {
            "type": "date",
            "value": " 1288\/06\/13",
            "children": {
                "date_deb_annee": "1288",
                "date_deb_mois": "06",
                "date_deb_jour": "13"
            },
            "range": {
                "date_apres": 12880613,
                "date_avant": 12880613
            }
        },
        {
            "type": "analyse",
            "value": "Nicolas IV commet l\u2019archev\u00eaque de Vienne et l\u2019\u00e9v\u00eaque de M\u00e2con pour remettre le pallium \u00e0 Hugues d\u2019Arcy, \u00e9v\u00eaque d\u2019Autun."
        },
        {
            "type": "transcription",
            "value": "<?xml version=\"1.0\" encoding=\"UTF-8\"?>\nNicolaus episcopus, servus servorum Dei, venerabilibus fratribus archiepiscopo Viennensi et episcopo Matisconensi, salutem et apostolicam benedictionem. Nuper dilecti filii frater Guillermus prior de Argilleio, ordinis sancti Augustini, et magister Galterus rector ecclesie de Ulyauci, Eduensis diocesis, procuratores et nuntii venerabilis fratris nostri Hugonis, episcopi Eduensis, ad petendum ex parte sua palleum, quod est insigne pontificalis officii, ad sedem apostolicam specialiter destinati, proponentes in nostra et fratrum nostrorum presentia quod episcopo Eduensi qui est pro tempore jus utendi palleo competit ex apostolico privilegio speciali et quod a longis retroactis temporibus episcopus ipse, cum ad regimen ecclesie predicte de novo assumitur, palleum ab ecclesia Romana recipere illoque postmodum uti usque ad hec tempora consuevit, qui etiam, dum Lugdunensem ecclesiam metropolitanam suam pastore vacare contingit, in civitate, diocesi et provincia Lugdunensi, tam ex simili privilegio quam de antiqua et approbata consuetudine, ut iidem nuntii asserebant, eaque ad officium archiepiscopale spectant exercet, quiquidem Hugo episcopus, ex causis justis et probabilibus impeditus, nequiverat comode pro petendo dicto palleo, apostolico se conspectui personaliter presentare, a nobis cum ea que decet instantia suppliciter postularunt ut dictum palleum in illis partibus sibi tradi de benignitate apostolica faceremus. Licet autem de hujusmodi privilegio et alio jure que super hoc dicti nuntii, ut predicitur, allegabant, nobis facta non fuerit plena fides, attendentes tamen quod sicut ex fide dignorum relatione accepimus per quosdam predecessores nostros romanos pontifices aliquibus predecessoribus suis qui Eduensi ecclesie prefuerunt pro tempore, fuit palleum ipsum suarum personarum intuitu in earum novitate, concessum, ac volentes persone predicti Hugonis episcopi in hac parte gratiam facere specialem, predictum palleum de corpore beati Petri sumptum, per prefatos priorem et magistrum Galterum sibi assignandum per vos vel alterum vestrum prefato Hugoni, Eduensi episcopo, duximus destinandum. Quocirca fraternitati vestre per apostolica scripta mandamus quatinus vos vel alter vestrum predictum palleum episcopo memorato assignetis, sub forma quam vobis sub bulla nostra mittimus interclusam, et ab ipso, nostro et ecclesie Romane nomine, sub forma quam sub eadem bulla dirigimus, fidelitatis recipietis juramentum. Volumus tamen per hujusmodi assignationem jus novum dicto episcopo seu successoribus suis aut eidem Eduensi ecclesie non acquiri, sed antiquum, si quod eis competit, tantumodo conservari. Formam autem juramenti quod ipse prestabit de verbo ad verbum nobis per ejusdem patentes litteras suo sigillo signatas, per proprium nuntium studeatis quantotius destinare. Datum Reate, idus junii, pontificatus nostri anno primo.\n"
        },
        {
            "type": "edition",
            "value": "Ici reprise d\u2019Anatole de Charmasse, <i>Cartulaire de l'Ev\u00each\u00e9 d'Autun<\/i>, II, Paris : Durand, 1880, n. LXXVII, p. 326-327, (num\u00e9ris\u00e9e par le projet <i>CBMA - Corpus Burgundiae Medii Aevi<\/i>, document 1276 <a href=\"http:\/\/www.cbma-project.eu\" target=\"_blank\"> [En ligne]<\/a>."
        },
        {
            "type": "sources_manuscrites",
            "value": "Original",
            "children": {
                "type_source": "Exp\u00e9dition"
            }
        },
        {
            "type": "genre",
            "value": "Mandement (littere cum filo canapis)"
        }
    ]
}