{
    "id": 26307,
    "name": "aposcripta-3386",
    "type": "acte",
    "url": "http:\/\/telma-chartes.irht.cnrs.fr\/aposcripta\/notice\/26307",
    "project_slug": "aposcripta",
    "project_label": "APOSCRIPTA \u2013 Lettres des papes",
    "user": "lettrespontificalesadmin",
    "last_update": "2020-10-19 16:27:58",
    "licence": "Attribution - Pas d\u2019Utilisation Commerciale - Partage dans les M\u00eames Conditions 3.0 France (CC BY-NC-SA 3.0 FR) ",
    "licence_url": "https:\/\/creativecommons.org\/licenses\/by-nc-sa\/3.0\/fr\/",
    "elements": [
        {
            "type": "pape",
            "value": "Eug\u00e8ne III (1145-1153)"
        },
        {
            "type": "date_lieu",
            "value": "Viterbe"
        },
        {
            "type": "date_libre",
            "value": "1145 November 18"
        },
        {
            "type": "date",
            "value": " 1145\/11\/18",
            "children": {
                "date_deb_annee": "1145",
                "date_deb_mois": "11",
                "date_deb_jour": "18"
            },
            "range": {
                "date_apres": 11451118,
                "date_avant": 11451118
            }
        },
        {
            "type": "analyse",
            "value": "Eugen III best\u00e4tigt dem Kloster Mol\u00eame (D. Langres) seine Besitzth\u00fcmer und Rechte<a class=\"note\" href=\"#note-1\">1<\/a>."
        },
        {
            "type": "transcription",
            "value": "<?xml version=\"1.0\" encoding=\"UTF-8\"?>\nEugenius episcopus servus servorum dei dilectis filiis Geraldo, Molismensi abbati, eiusque fratribus tam presentibus quam futuris regularem vitam professis, In ppm. \u2014 Desiderium, quod ad religionis propositum | et animarum salutem pertinere monstratur, animo nos decet libenti concedere et petentium desideriis congruum impertiri suffragium. Eapropter, dilecti in domino filii, vestris iustis postulationibus clementer annuimus, et Molismense monasterium, in quo divino mancipati estis obsequio, ad exemplar | predecessorum nostrorum, felicis recordationis Urbani, Paschalis et Innocentii, Romanorum pontificum, presentis scripti privilegio communimus. Statuentes, ut quascumque possessiones, quecumque bona idem monasterium in presentiarum iuste et canonice possidet, aut in futurum concessione pontificum, liberalitate regum, largitione principum, oblatione fidelium seu aliis iustis modis, prestante domino, poterit adipisci, firma vobis vestrisque successoribus et illibata permaneant. In quibus h\u0229c propriis duximus exprimenda vocabulis2 : in episcopatu Lingonensi3 ipsum Molismense monasterium, constructum in honore beat\u0229 Mari\u0229 semper virginis, cum capella sanct\u0229 Crucis et burgo, in quo consistit, et \u0229cclesiam sancti Petri de Poliaco cum altari et oblationibus et decima, monasteria sanctimonialium sanct\u0229 Mari\u0229 apud Juliacum4 et sancti Sulpicii apud Osam5, in ipsa urbe Lingonensi \u0229cclesiam sancti Desiderii cum pertinentiis suis, in \u0229cclesia sancti Mammetis annualia defunctorum canonicorum, id est redditus prebendarum eorum per annum, \u0229cclesiam de Espielent cum capella Divitis burgi et ceterisa appenditiis, ecclesiam de suo monasterio, \u0229cclesiam montis Syon cum ipsa villa et terris et ceteris ad castellaniam ipsam pertinentibus, capellas quoque ad ipsam pertinentes, illam scilicet de Vamdelamcurte et de Ultramonte, \u0229cclesiam de Visiniis, \u0229cclesiam de Varennis cum oblationibus et decimis et ceteris pertinentiis et consuetudinibus suis, ecclesiam de Cofe\u00efo cum villa et omnibus redditibus suis et capella de Nova villa, \u0229cclesiam de Vico cum villa, \u0229cclesiam Campaniaci cum villa, \u0229cclesiam de Stercis cum omni allodio, \u0229cclesiam Acuti montis, ecclesiam de Gislomonte, ecclesiam de Buserolis, capellam Calvi montis, \u0229cclesiam Agnelli vill\u0229, \u0229cclesiam Boloni\u0229, \u0229cclesiam Bordonis, \u0229cclesiam sancti Lupi, \u0229cclesiam de Granciaco cum ipsa villa et oblationibus et decima et appenditiis suis, \u0229cclesiam de Campaniaco cum capella de Ostricurte et ceteris eis pertinentibus, ecclesiam de Xoya, decimam et cetera qu\u0229 in eadem villa et in circumadiacentibus possidetis, \u0229cclesiam de Mariaco cum appenditiis suis, \u0229cclesiam de Britignolei et \u0229cclesiam de Nucariis cum appenditiis suis, \u0229cclesiam de Girollis cum appenditiis suis, \u0229cclesiam de Villiaco cum villa et suis pertinentiis, \u0229cclesiam de Ulmeto et \u0229cclesiam de Lenti cum appenditiis suis, ecclesiam de Vacua silva cum appenditiis suis et villam qu\u0229 Bodrivilla dicitur, ecclesiam de Leesma cum appenditiis suis, ecclesiam sancti Benigni de Busco cum villa et ceteris pertinentibus suis, \u0229cclesiam de Solengiaco, \u0229cclesiam sanct\u0229 Columb\u0229 cum capella vill\u0229 Martini, \u0229cclesiam montis Lasconis cum oblationibus et ceteris appenditiis, \u0229cclesiam de Marcennaco cum villa, et capellam de Bissei, allodium de Salis, ecclesiam de Janniaco et quicquid in ipsa villa habetis, \u0229cclesiam de Ihaumiaco et villam et quod in villa de Niceio possidetis, \u0229cclesiam Vill\u0229 dei et quicquid in ea villa ad helemosinam vestram pertinet, capellam Trichiacum cum villa, capellam Sicc\u0229 fontan\u0229, allodium de Varno villari, ecclesiam Artunnaci cum omni villa et suis redditibus. Quidquid iuris habetis in \u0229cclesia de Lantagia, \u0229cclesiam Ciriseio cum capella eiusdem castri, \u0229cclesiam de Frasninis cum ipsa villa, et villam qu\u0229 Poliniacus dicitur, \u0229cclesiam de Celiaco cum appenditiis et quicquid in villa habetis, \u0229cclesiam Villenos\u0229, et quod ad sacrastarium6 pertinet, \u0229cclesiam de Mala, \u0229cclesiam de insula Subbarro et quicquid in eadem possidetis, \u0229cclesiam de Verteolo. In Trecensi7 episcopatu \u0229cclesiam sancti Quintini in eadem civitate cum suis appenditiis et \u0229cclesiam vill\u0229 Ursi cum ipsa villa, \u0229cclesiam de Ysis, et villam sancti Teobaldi cum capella ipsius vill\u0229, villam Rumiliaci et decimam ipsius vill\u0229, et quicquid apud Vaudam possidetis, \u0229cclesiam de sancto Patroclo cum appenditiis suis, \u0229cclesiam de Fulcheriis et totam villam, \u0229cclesiam Radonis villaris cum villa et cunctis eius redditibus, \u0229cclesiam de Rosteria cum appenditiis, \u0229cclesiam de Catalata et dimidiam villam, \u0229cclesiam de Lesmont, allodium de Saci, villam qu\u0229 Larce curtis dicitur, \u0229cclesiam beat\u0229 Mari\u0229 ad Ulmos cum ipsa villa, et \u0229cclesiam sancti Martini, capellam de Perta cum eadem villa, \u0229cclesiam Piaci cum villa et ceteris omnibus qu\u0229 ibi possidetis, \u0229cclesiam sancti Ylarii cum appenditiis, \u0229cclesiam de Mariaco cum appenditiis et capella eiusdem castri, \u0229cclesiam Nov\u0229 vill\u0229. In Eduensi8 episcopatu \u0229cclesiam de Frolesio, ecclesiam de Crais, capellam Tullionis castri cum omnibus appenditiis earum. In Antisiodorensi9 episcopatu in eadem civitate \u0229cclesiam sancti Gervasii cum altari et oblationibus et ceteris qu\u0229 ad ipsam pertinent, \u0229cclesiam sancti Moderati cum appenditiis, \u0229cclesiam de Nantriaco cum villa, et \u0229cclesiam de Lescheriis cum villa et cunctis earum redditibus. In Senonensi10 archiepiscopatu \u0229cclesiam de Senonio cum capellis infra parrochiam consistentibus et cunctis ad parrochiam pertinentibus, \u0229cclesiam de Campo Gallonis, \u0229cclesiam de Domcheio cum appenditiis, \u0229cclesiam de Monteniaco cum appenditiis, de Villari cum pertinentiis, de Nogento cum villa et appenditiis, de Flaceio cum decima et appenditiis, \u0229cclesiam de Lescherollis cum decima et pertinentiis, et quod habetis in decima sancti Medardi et Domni Martini, et decim\u0229 de Aliotro septem partes, et quod habetis in decima Fracteii Iscoblelli, et quicquid apud Masuncillas possidetis. In Catalaunensi11 episcopatu monasteria sanctimonialium de Andecisiis12 et vallis Oni\u022913 cum omnibus possessionibus ad eadem monasteria pertinentibus, \u0229cclesiam de Baia cum decimis et ceteris appenditiis, ecclesiam de Fera, et ecclesiam de Aquatio cum decimis et ceteris appenditiis. In Remensi14 archiepiscopatu \u0229cclesiam sanct\u0229 Valburgis cum villa et pertinentiis suis. In Tullensi15 episcopatu \u0229cclesiam de Nanceio et \u0229cclesiam parrochialem cum omnibus appenditiis, ecclesiam de Commarceio cum suis \u0229cclesiis et possessionibus, ecclesiam sancti Theobaldi de Vallo colore cum capella de Tuscio, \u0229cclesiam de Caslinis, \u0229cclesiam de Branvilla cum allodio ipsius vill\u0229, \u0229cclesiam de Romans et capellam burgi sanct\u0229 Mari\u0229 cum eodem burgo, villam de Senlacurte, allodium de Paye et de Lanne et de Bucumvilla, ecclesiam Cameri curtis cum villa. In Meldensi16 episcopatu \u0229cclesiam beat\u0229 Mari\u0229 de Firmitate cum burgo ipsius loci et ecclesiis et decimis earum, et \u0229cclesiam beati Bartholomei de Capella, ecclesiam de Villeriis, et \u0229cclesiam de Beloy, et \u0229cclesiam sancti Petri de Goy cum decima, et quicquid iuris habetis in \u0229cclesia de Caterongis et in \u0229cclesia sancti Romani de Firmitate et in \u0229cclesia sancti Martini de Boseth, cellam de Emilleriis cum decimis suis, \u0229cclesiam sancti Patusii cum appenditiis. In Belvacensi17 episcopatu ecclesiam de Nuistello cum decimis totius parrochi\u0229, in castro Belli montis \u0229cclesiam sancti Laurentii, \u0229cclesiam de Vernolio cum appenditiis. In Ambianensi18 episcopatu \u0229cclesiam Balneolis cum villa et appenditiis, \u0229cclesiam de Geicurte cum decimis, \u0229cclesiam de Candat cum decimis, \u0229cclesiam de Alteia, \u0229cclesiam Althi\u0229 cum decimis, Albovillam \u0229cclesiam de Toticurte cum decimis, \u0229cclesiam de Runchavalle cum decimis, \u0229cclesiam de Archavia cum appenditiis, \u0229cclesiam de Frasneio cum appenditiis, \u0229cclesiam de Rosivillare cum appenditiis, decimam de sancto Leodegario cum altari, \u0229cclesiam de Gironditisone cum appenditiis, \u0229cclesiam de Nuum cum appenditiis. In Terouanensi19 episcopatu \u0229cclesiam de Coham cum appenditiis, decimam de Blaigaham. In Attrebatensi20 episcopatu ecclesiam de Lucheolo cum decimis et ceteris pertinentiis, \u0229cclesiam de Sarsingo cum decimis, capellam de Humberti curte cum decimis, \u0229cclesiam de silva sancti Leodegarii. In Metensi21 episcopatu \u0229cclesiam de Alba cum appenditiis. In Treverensi22 archiepiscopatu cellam Isondengiis cum appenditiis. In Basiliensi23 episcopatu \u0229cclesiam de Bella valle. In Lausannensi24 episcopatu \u0229cclesiam sancti Sulpicii cum villa et ceteris appenditiis, capellam de Escumblensi cum appenditiis, \u0229cclesiam de Bloniaco cum appenditiis, et terram de Clara valle. In episcopatu Lingonensi \u0229cclesiam Sistiniaci cum ipsa villa, allodium de Cuseio, \u0229cclesiam de Noeriis cum capella ipsius castri, \u0229cclesiam de Nigella, ecclesiam sancti Aniani Tornodori cum oblationibus et decimis, capellam sancti Petri et sancti Nichomeris in eodem castro, \u0229cclesiam de Colanno cum ipsa villa, \u0229cclesiam de Floenniaco. Item in episcopatu Remensi decimam de sancto Martino et decimam de Chifiliaco, ex dono Hugonis, comitis Campani\u022925, et uxoris su\u0229 Constanti\u022926 quicquid possedit in vico qui vocatur Diona, videlicet mansum dominicum27 cum omni iusticia et ceteris suis pertinentiis, nemus quod vocatur Casnetum iuxta ipsam Dionam situm, totam aquam qu\u0229 Asinea dicitur, ubi molendina vestra \u0229dificata sunt, et totam piscariam eiusdem aqu\u0229, ab Attineii ponte usque ad piscariam Riliaci, piscatore in Attineio manente libero et ab omni lege servitutis obsoluto. Sed, ne aliquando inde inter vos et Attiniacenses ministros aliqua oriatur contentio, divisio ipsius terr\u0229, ab eodem comite facta et scripto suo firmata, rata permaneat, ut videlicet, sicut sanct\u0229 Mari\u0229 parrochia distenditur, sic eadem terra vestra terminetur. Obeunte vero te, nunc eiusdem loci abbate, vel tuorum quolibet successorum nullus ibi qualibet surreptionis astutia seu violentia preponatur, nisi quem fratres communi consensu vel fratrum pars consilii sanioris s\u0229cundum dei timorem et beati Benedicti regulam providerint eligendum, electus autem a Lingonensi episcopo consecretur. Decernimus ergo, ut nulli omnino hominum liceat, prefatum cenobium temere perturbare aut eius possessiones aufferre vel ablatas retinere, minuere seu quibuslibet vexationibus fatigare, sed omnia integra conserventur eorum, pro quorum gubernatione et sustentatione concessa sunt, usibus omnimodis profutura, salva nimirum sedis apostolic\u0229 auctoritate et diocesani episcopi canonica iusticia. Prohibemus tamen, ne ullatenus ei liceat, gravamen aliquod prefati loci fratribus irrogare. Item statuimus, ut omnia beneficia \u0229cclesi\u0229 pertinentia, qu\u0229 episcopali assensu accepistis vel accepturi estis, inconvulse possideatis. Adicientes etiam, ut nulli penitus fas sit, in \u0229cclesiis ad vestrum cenobium pertinentibus presbyteros constituere, sed vos eligatis et diocesano episcopo presentetis, qui si vos de \u0229cclesi\u0229 beneficiis iniuriaverint, vobis de ipsis iusticiam facite. Si qua igitur in futurum ecclesiastica secularisve persona huius nostr\u0229 institutionis paginam ferens contra eam temere venire temtaverit, s\u0229cundo terciove commonita, nisi delictum suum congrua satisfactione correxerit, potestatis honorisque sui dignitate careat, reamque se divino iudicio existere de perpetrata iniquitate agnoscat, et a sacratissimo corpore ac sanguine dei et domini redemptoris nostri Jesu Christi aliena fiat, atque in extremo examine district\u0229 ultioni subiaceat. Cunctis eidem loco sua iura servantibus sit pax domini nostri Jesu Christi, quatenus et hic fructum bon\u0229 actionis percipiant et apud districtum iudicem | premia \u0229tern\u0229 pacis inveniant. Amen. Am. Amen. \u2014 (R) Ego Eugenius catholic\u0229 \u0229cclesi\u0229 episcopus ss. (M)\u2020 Ego Albericus Hostiensis episcopus ss.\u2020 Ego Imarus Tusculanus episcopus ss.\u2014 \u2020 Ego Gregorius presbiter cardinalis tit. sancti Calisti ss.\u2020 Ego Umbaldus presbiter cardinalis tit. sanctorum Johannis et Pauli ss.\u2014 \u2020 Ego Ubaldus presbiter cardinalis sancte Crucis in Jerusalem ss.\u2020 Ego Nicolaus presbiter cardinalis tit. sancti Cyriaci ss.\u2020 Ego Villelmus presbiter cardinalis tit. sancti Stephani in C\u0229lio monte ss. (1)\u2014 \u2020 Ego Oddo diaconus cardinalis sancti Georgii ad velum aureum ss.\u2020 Ego Octavianus diaconus cardinalis sancti Nicolai in carcere Tulliano ss.\u2020 Ego Gregorius diaconus cardinalis sancti Angeli ss.\u2020 Ego Jacintus diaconus cardinalis sancte Marie in Cosmydyn ss. (2)Dat. Viterbi, per manum Roberti, sanct\u0229 Roman\u0229 \u0229cclesi\u0229 presbiteri cardinalis et cancellarii. xiiii Kal. Decembris. Indictione viiii. Incarnationis dominic\u0229 anno mcxlv. Pontificatus vero domni Eugenii tercii pp anno primo. \u2014\n"
        },
        {
            "type": "edition",
            "value": "Julius von Pflugk-Harttung, <i>Acta pontificum Romanorum inedita<\/i>, T\u00fcbingen, 1880, I, n. 198, p. 178-180"
        },
        {
            "type": "sources_manuscrites",
            "value": "Or. im Archive des D\u00e9p. C\u00f4te-d\u2019Or zu Dijon."
        },
        {
            "type": "remarques",
            "value": "Perg. vielleicht nicht ital., d\u00fcnn, R\u00fcckseite der Vorderseite \u00e4hnlich, hat gelitten, ist jetzt auf ein anderes St\u00fcck Perg. geklebt ; br. 0,555, lang 0,69, unten umgeschlagen, durch 2 L\u00f6cher ging die Seidenschnur, von der ein St\u00fcck v\u00f6llig verblichen erhalten blieb, Bulle verloren. Die ganze Urk. ist auf das St\u00e4rkste durch Raummangel beeinflusst, es fehlte in der Kanzlei wohl an einem f\u00fcr den Inhalt ausreichenden St\u00fccke Pergament. Die Schn\u00f6rkel der Oberl\u00e4ngen, namentlich des ct sind in der verl\u00e4ngerten Schrift der ersten Zeile stark ausgebildet, das Verewigungszeichen Nr. 1 ist zusammenger\u00fcckt und nur durch das doppellinige J ein wenig hervorgehoben. Die Contextminuskel tritt mit Desiderium in die erste Zeile ein, und ist eng zusammengeschrieben, die grossen Buchstaben treten nicht stark hervor. Die 3 Amen Nr. 5<sup>c<\/sup> f\u00fcllen die letzte Zeile nicht, sondern befinden sich unmittelbar neben einander. Die Rota steht nahe unter der letzten Zeile nur c. 0,04 vom linken Pergamentrande, das Monogramm Nr. 4 (mit stark verziertem Linksschwunge) ist nicht mit der Rota in einer Linie, sondern h\u00f6her angebracht, so dass es bis in den frei gelassenen Raum der letzten Zeile hinaufragt. Die p\u00e4pstliche Unterschrift wurde ungef\u00e4hr in die H\u00f6he des Ringkreuzes gestellt, die 2 Bisch\u00f6fe darunter, rechts von ihnen unter dem. Monogramme die n\u00e4chsten 2 Presbyter, h\u00f6her rechts neben dem Mon. die anderen 3 Presbyter, von ihnen steht erst Villanus mit dem Papste gleich hoch, wieder rechts von diesen finden sich die Diakonen. Nach der Raumbenutzung der Unterfertigungen scheint hier durchweg die gleiche Hand th\u00e4tig gewesen, die Zeugen wenigstens der Reihe nach eingetragen zu sein. Die Umschrift zeigt die schwerere Hand der p\u00e4pstlichen Unterschrift und auch gleiche Dinte. In der Rota scheint die Senkrechte des Innenkreuzes oben gleich bis an den Aussenkreis gef\u00fchrt zu sein, wodurch der Aufstrich des Ringkreuzes geschaffen war, vielleicht wurde dann auch alsbald dessen wagerechter Strich gezogen. Die Datirung r\u00fchrt vom Schreiber des Contextes her, Roberti wurde darin mit schweren Buchstaben, doch vielleicht gleicher Dinte nachgetragen."
        },
        {
            "type": "apparat_critique",
            "value": "a.\u2002ceteriis.",
            "children": {
                "numero_note": "a"
            }
        },
        {
            "type": "notes_historiques",
            "value": "<i>Vergl. die vorige Urk.<\/i>",
            "children": {
                "numero_note": "1"
            }
        },
        {
            "type": "notes_historiques",
            "value": "<i>Die jetzt folgende kolossale G\u00fctermasse ist um so beachtenswerther, als das Kloster erst ungef\u00e4hr 75 Jahre bestand.<\/i>",
            "children": {
                "numero_note": "2"
            }
        },
        {
            "type": "notes_historiques",
            "value": "<i>Langres.<\/i>",
            "children": {
                "numero_note": "3"
            }
        },
        {
            "type": "notes_historiques",
            "value": "<i>Ste-Vierge de Juilly<\/i> (<i>D. Meaux<\/i>).",
            "children": {
                "numero_note": "4"
            }
        },
        {
            "type": "notes_historiques",
            "value": "<i>St.-Sulpice<\/i> (<i>Oise<\/i>) <i>?<\/i>",
            "children": {
                "numero_note": "5"
            }
        },
        {
            "type": "notes_historiques",
            "value": "<i>Sakristei ?<\/i>",
            "children": {
                "numero_note": "6"
            }
        },
        {
            "type": "notes_historiques",
            "value": "<i>Troyes.<\/i>",
            "children": {
                "numero_note": "7"
            }
        },
        {
            "type": "notes_historiques",
            "value": "<i>Autun.<\/i>",
            "children": {
                "numero_note": "8"
            }
        },
        {
            "type": "notes_historiques",
            "value": "<i>Auxerre.<\/i>",
            "children": {
                "numero_note": "9"
            }
        },
        {
            "type": "notes_historiques",
            "value": "<i>Sens.<\/i>",
            "children": {
                "numero_note": "10"
            }
        },
        {
            "type": "notes_historiques",
            "value": "<i>Ch\u00e2lons-sur-Marne.<\/i>",
            "children": {
                "numero_note": "11"
            }
        },
        {
            "type": "notes_historiques",
            "value": "<i>Ste-Vierge de Andecies.<\/i>",
            "children": {
                "numero_note": "12"
            }
        },
        {
            "type": "notes_historiques",
            "value": "<i>Notre-Dame du Val-d\u2019One<\/i> (<i>?<\/i>).",
            "children": {
                "numero_note": "13"
            }
        },
        {
            "type": "notes_historiques",
            "value": "<i>Reims.<\/i>",
            "children": {
                "numero_note": "14"
            }
        },
        {
            "type": "notes_historiques",
            "value": "<i>Toul.<\/i>",
            "children": {
                "numero_note": "15"
            }
        },
        {
            "type": "notes_historiques",
            "value": "<i>Meaux.<\/i>",
            "children": {
                "numero_note": "16"
            }
        },
        {
            "type": "notes_historiques",
            "value": "<i>Beauvais.<\/i>",
            "children": {
                "numero_note": "17"
            }
        },
        {
            "type": "notes_historiques",
            "value": "<i>Amiens.<\/i>",
            "children": {
                "numero_note": "18"
            }
        },
        {
            "type": "notes_historiques",
            "value": "<i>T\u00e9rouane<\/i> (<i>Blois<\/i>).",
            "children": {
                "numero_note": "19"
            }
        },
        {
            "type": "notes_historiques",
            "value": "<i>Arras.<\/i>",
            "children": {
                "numero_note": "20"
            }
        },
        {
            "type": "notes_historiques",
            "value": "<i>Metz.<\/i>",
            "children": {
                "numero_note": "21"
            }
        },
        {
            "type": "notes_historiques",
            "value": "<i>Trier.<\/i>",
            "children": {
                "numero_note": "22"
            }
        },
        {
            "type": "notes_historiques",
            "value": "<i>Basel.<\/i>",
            "children": {
                "numero_note": "23"
            }
        },
        {
            "type": "notes_historiques",
            "value": "<i>Lausanne.<\/i>",
            "children": {
                "numero_note": "24"
            }
        },
        {
            "type": "notes_historiques",
            "value": "<i>Hugo, Graf v. Champagne, 1093\u20131125.<\/i>",
            "children": {
                "numero_note": "25"
            }
        },
        {
            "type": "notes_historiques",
            "value": "<i>Konstanze, Tochter K\u00f6nig Philipps I von Frankreich, erste Gemahlin Hugos.<\/i>",
            "children": {
                "numero_note": "26"
            }
        },
        {
            "type": "notes_historiques",
            "value": "<i>Mansus dominicus ist der Grund und Boden, den der Eigenth\u00fcmer selber bebaut und f\u00fcr sich nutzbar macht, bezw. durch seine Beamten oder Knechte f\u00fcr sich bebauen l\u00e4sst, im Gegensatze zur terra tributaria, dem Zinsgute, welches er an andere f\u00fcr eine Quote und dergl. verleiht. Die<\/i> \u201e<i>Herrenhufe<\/i>\u201c <i>war bisweilen sehr gross, pflegte das Herrenhaus, die Wirthschafts- und Arbeitergeb\u00e4ude zu umfassen, die Sklaven, den Viehstand u. s. w. Du Cange, Gloss. IV p. 243 ; Warnk\u00f6nig und Stein, Franz. Rechtsgesch. II S. 342 ; Gu\u00e9rard, Polyptyque I p. 579, II p. 432.<\/i>",
            "children": {
                "numero_note": "27"
            }
        },
        {
            "type": "genre",
            "value": "Privil\u00e8ge solennel"
        }
    ]
}