{
    "id": 149803,
    "name": "aposcripta-9366",
    "type": "acte",
    "url": "http:\/\/telma-chartes.irht.cnrs.fr\/aposcripta\/notice\/149803",
    "project_slug": "aposcripta",
    "project_label": "APOSCRIPTA \u2013 Lettres des papes",
    "user": "lettrespontificalesadmin",
    "last_update": "2020-10-19 16:40:04",
    "licence": "Attribution - Pas d\u2019Utilisation Commerciale - Partage dans les M\u00eames Conditions 3.0 France (CC BY-NC-SA 3.0 FR) ",
    "licence_url": "https:\/\/creativecommons.org\/licenses\/by-nc-sa\/3.0\/fr\/",
    "elements": [
        {
            "type": "pape",
            "value": "Urbain IV (1261-1264)"
        },
        {
            "type": "destinataire",
            "value": "Nobili viro . . potestati et communi Callensibus"
        },
        {
            "type": "date_libre",
            "value": "X kalendas augusti, anno II"
        },
        {
            "type": "date",
            "value": " 1263\/07\/23",
            "children": {
                "date_deb_annee": "1263",
                "date_deb_mois": "07",
                "date_deb_jour": "23"
            },
            "range": {
                "date_apres": 12630723,
                "date_avant": 12630723
            }
        },
        {
            "type": "date_lieu",
            "value": "Urbemveterem"
        },
        {
            "type": "sources_manuscrites",
            "value": "R. CIT\u00c9 DU VATICAN, Archivio Segreto Vaticano, <hi rend=\"italic\">Registra Vaticana<\/hi> ... Urb.\u00a0IV Reg. Vol.\u00a0I, 99; Lib.\u00a0II, f.\u00a052, ep.\u00a0157. Pertzii exemplar contulimus cum Regestis.",
            "children": {
                "type_source": "Registre de la chancellerie apostolique"
            }
        },
        {
            "type": "genre",
            "value": "Mandement (littere cum filo canapis)"
        },
        {
            "type": "analyse",
            "value": "Urbanus IV papa Callensibus mandat, ut Manfredo electo Veronensi, rectori Ducatus et Marchiae, obediant [Rodenberg]."
        },
        {
            "type": "transcription",
            "value": "<?xml version=\"1.0\" encoding=\"UTF-8\"?>\nNobili viro . . potestati et communi Callensibus.Ut ad devotionem ecclesie non labiis tantum sed corde et animo vos appareat rediisse, volumus et per apostolica vobis scripta districte precipiendo mandamus, quatinus dilecto filio Manfredo Veronensi electo, ducatus Spoletani et marchie Anconitane rectori, tamquam alii eorundem ducatus et marchie devoti prompte ac humiliter intendatis, parendo devote ipsius debitis monitis et mandatis. Alioquin sententiam, quam ipse propter hoc spiritualiter et temporaliter rite tulerit in rebelles, ratam etc. usque: observari.Dat. apud Urbemveterem, X Kalendas Augusti, anno II\u00b0.\n"
        },
        {
            "type": "edition",
            "value": "Ici reprise de Karl Rodenberg, Epistolae s. XIII e regestis pontificum romanorum selectae, III, Berlin : Weidmann (MGH), 1894, n.\u00a0549, p.\u00a0530."
        },
        {
            "type": "edition_autre",
            "value": "?"
        },
        {
            "type": "regeste",
            "value": "?"
        },
        {
            "type": "bibliographie_generale",
            "value": "?"
        },
        {
            "type": "apparat_critique",
            "value": "?",
            "children": {
                "numero_note": "a"
            }
        },
        {
            "type": "apparat_critique",
            "value": "?",
            "children": {
                "numero_note": "b"
            }
        },
        {
            "type": "apparat_critique",
            "value": "?",
            "children": {
                "numero_note": "c"
            }
        },
        {
            "type": "apparat_critique",
            "value": "?",
            "children": {
                "numero_note": "d"
            }
        },
        {
            "type": "apparat_critique",
            "value": "?",
            "children": {
                "numero_note": "e"
            }
        },
        {
            "type": "apparat_critique",
            "value": "?",
            "children": {
                "numero_note": "f"
            }
        },
        {
            "type": "notes_historiques",
            "value": "?",
            "children": {
                "numero_note": "1"
            }
        },
        {
            "type": "notes_historiques",
            "value": "?",
            "children": {
                "numero_note": "2"
            }
        },
        {
            "type": "notes_historiques",
            "value": "?",
            "children": {
                "numero_note": "3"
            }
        }
    ]
}