{
    "id": 26474,
    "name": "aposcripta-3553",
    "type": "acte",
    "url": "http:\/\/telma-chartes.irht.cnrs.fr\/aposcripta\/notice\/26474",
    "project_slug": "aposcripta",
    "project_label": "APOSCRIPTA \u2013 Lettres des papes",
    "user": "lettrespontificalesadmin",
    "last_update": "2020-10-19 16:28:01",
    "licence": "Attribution - Pas d\u2019Utilisation Commerciale - Partage dans les M\u00eames Conditions 3.0 France (CC BY-NC-SA 3.0 FR) ",
    "licence_url": "https:\/\/creativecommons.org\/licenses\/by-nc-sa\/3.0\/fr\/",
    "elements": [
        {
            "type": "pape",
            "value": "Lucius III (1181-1185)"
        },
        {
            "type": "date_lieu",
            "value": "Verona"
        },
        {
            "type": "date_libre",
            "value": "1184\u20131185 Juli 17"
        },
        {
            "type": "date",
            "value": "apr\u00e8s 1184\/07\/17 - avant 1185\/07\/17",
            "children": {
                "date_deb_annee": "1184",
                "date_deb_mois": "07",
                "date_deb_jour": "17",
                "date_deb_type": "apr\u00e8s",
                "date_fin_annee": "1185",
                "date_fin_mois": "07",
                "date_fin_jour": "17",
                "date_fin_type": "avant"
            },
            "range": {
                "date_apres": 11840717,
                "date_avant": 11850717
            }
        },
        {
            "type": "analyse",
            "value": "Lucius III best\u00e4tigt dem Dekanate St.-Maclou de Bar-sur-Aube (D. Langres) die Verf\u00fcgungen des Bischofs Gottfried von Langres und das, was Dekan und Kanoniker unter sich \u00fcber Strafen von Priestern und Klerikern vereinbart haben."
        },
        {
            "type": "transcription",
            "value": "<?xml version=\"1.0\" encoding=\"UTF-8\"?>\n Lucius episcopus servus servorum dei dilectis filiis .. decano et canonicis sancti Machuti de Barro, salutem et apostolicam benedictionem. Justis peten|tium desideriis dignum est facilem prebere consensum et vota, que a rationis tramite non discordant, effectu prosequente complere. | Cum autem bone memorie Henr(icus), quondam comes Trecensis1, quandam apud Barrum fecisset canonicam ordinari, bone memorie .Godef(redus), quondam Lingonensis episcopus2, precibus comitis eiusdem inductus, institutis per eum canonicis in ecclesia vestra sacerdotem et presbiterum eiusdem ecclesie in tali vobis et successoribus vestris libertate donavit, ut presbiter ipse ab omni consuetudine et exactione Lingonensis episcopi et ministrorum eius omnino sit liber. Preterea, cum ecclesiam ipsam presbitero vacare contigerit, presbiter a canonicis eligetur, episcopo presentabitur, et eo mandante ab archipresbitero loci curam recipiet animarum, ad sinodum veniet, ut audiat, que in sinodo fuerint ordinata, sicut alii presbiteri, et observet. Si autem de criminalibus vel de contemptu obedientie fuerit accusatus, sub episcopi vel archidiaconi examine respondebit. Cetera vero decani ecclesie vestre iudicio finientur, quod, si per decani negligentiam ultra quadraginta dies fuerit diffinitio cause dilata, coram episcopo vel archidiacono finem negotium consequetur. Preterea, si ecclesia vestra fuerit, quod absit, canonicis destituta, ad manum episcopi revertetur et tamdiu detineatur ab eo, donec canonici fuerint restituti. Hec igitur statuta, sicut a predicto episcopo rationabiliter facta sunt et in scripto redacta, presentis scripti pagina duximus confirmanda. De presbiteris quoque et clericis puniendis hoc observetur, quod inter vos rationabiliter est statutum. Nulli ergo omnino hominum liceat, hanc paginam nostre confirmationis infringere vel ei ausu temerario contraire. Si quis autem hoc attemptare presumpserit, indignationem omnipotentis dei | et beatorum Petri et Pauli apostolorum eius se noverit incursurum. \u2014 Dat. Verone, xvi Kl. Aug.\n"
        },
        {
            "type": "edition",
            "value": "Julius von Pflugk-Harttung, <i>Acta pontificum Romanorum inedita<\/i>, T\u00fcbingen, 1880, I, n. 365, p. 320"
        },
        {
            "type": "sources_manuscrites",
            "value": "Or. im Archive des D\u00e9p. Aube zu Troyes."
        },
        {
            "type": "remarques",
            "value": "Perg. ital., breit 0,252, lang 0,206, unten umgeschlagen, Bullirung durch 2 L\u00f6cher, Schnur und Bulle verloren, Faltung der Breven."
        },
        {
            "type": "notes_historiques",
            "value": "<i>Heinrich I, der Freigebige, Graf von Champagne, 1152\u20131181.<\/i>",
            "children": {
                "numero_note": "1"
            }
        },
        {
            "type": "notes_historiques",
            "value": "<i>Gottfried, Bischof von Langres c. 1140\u20131164.<\/i>",
            "children": {
                "numero_note": "2"
            }
        },
        {
            "type": "genre",
            "value": "Bulle"
        }
    ]
}