{
    "id": 20661,
    "name": "aposcripta-648",
    "type": "acte",
    "url": "http:\/\/telma-chartes.irht.cnrs.fr\/aposcripta\/notice\/20661",
    "project_slug": "aposcripta",
    "project_label": "APOSCRIPTA \u2013 Lettres des papes",
    "user": "lettrespontificalesadmin",
    "last_update": "2020-10-19 16:26:52",
    "licence": "Attribution - Pas d\u2019Utilisation Commerciale - Partage dans les M\u00eames Conditions 3.0 France (CC BY-NC-SA 3.0 FR) ",
    "licence_url": "https:\/\/creativecommons.org\/licenses\/by-nc-sa\/3.0\/fr\/",
    "elements": [
        {
            "type": "pape",
            "value": "Pascal II (1099-1118)"
        },
        {
            "type": "date_lieu",
            "value": "n.c."
        },
        {
            "type": "date_libre",
            "value": "n.c."
        },
        {
            "type": "analyse",
            "value": "Paschalis\u00a0II fratribus Maioris Monasterii asserit ecclesiam S. Martini de Valle, ab Ivone episcopo Carnotensi ad petitionem Adelae comitissae eiusque filiorum pro anima Stephani comitis eis collatam."
        },
        {
            "type": "transcription",
            "value": "<?xml version=\"1.0\" encoding=\"UTF-8\"?>\nPaschalis episcopus, servus servorum Dei, fratribus Maioris Monasterii, salutem et apostolicam benedictionem. Officii nostri nos hortatur authoritas, pro ecclesiarum statu sollicitos esse et quae recte statuta sunt stabilire. Frater siquidem noster Ivo Carnotensis episcopus ecclesiam beati Martini de Valle vestro contulit monasterio, rogantibus et conferentibus Adela comitissa et eius filiis Guilelmo et Theobaldo pro anima bonae memoriae comitis Stephani. Quam nimirum episcopi concessionem et eorum comitum oblationem, sicut ab eodem fratre nostro Ivone Carnotensi episcopo rogati fuimus, decreti praesentis pagina confirmamus, ut eadem beati Martini ecclesia semper cum omnibus rebus ad eam pertinentibus in possessione monasterii vestri permaneat, abbati autem vestro cura sit, salvo Carnotensis episcopi iure canonico, disciplinae regularis studium fratribus illic habitantibus exhibere.\n"
        },
        {
            "type": "edition",
            "value": "Ici reprise de Samuel Loewenfeld, <i>Epistolae pontificum romanorum ineditae<\/i>, Leipzig : Veit et Comp., 1885, n. 149, p. 74."
        },
        {
            "type": "sources_manuscrites",
            "value": "F. FRANCE, Paris, Biblioth\u00e8que nationale de France,. ms. lat.\u00a012776, fol. 235. S. XVII.",
            "children": {
                "type_source": "Copie moderne"
            }
        },
        {
            "type": "date",
            "value": "apr\u00e8s 1099 - avant 1115",
            "children": {
                "date_deb_annee": "1099",
                "date_deb_type": "apres",
                "date_fin_annee": "1115",
                "date_fin_type": "avant"
            },
            "range": {
                "date_apres": 10990000,
                "date_avant": 11159999
            }
        },
        {
            "type": "genre",
            "value": "Lettre, g\u00e9n\u00e9ral (avant 1198)"
        }
    ]
}