{
    "id": 24829,
    "name": "aposcripta-1965",
    "type": "acte",
    "url": "http:\/\/telma-chartes.irht.cnrs.fr\/aposcripta\/notice\/24829",
    "project_slug": "aposcripta",
    "project_label": "APOSCRIPTA \u2013 Lettres des papes",
    "user": "l_valliere",
    "last_update": "2020-10-19 16:27:35",
    "licence": "Attribution - Pas d\u2019Utilisation Commerciale - Partage dans les M\u00eames Conditions 3.0 France (CC BY-NC-SA 3.0 FR) ",
    "licence_url": "https:\/\/creativecommons.org\/licenses\/by-nc-sa\/3.0\/fr\/",
    "elements": [
        {
            "type": "pape",
            "value": "Cl\u00e9ment IV (1265-1268)"
        },
        {
            "type": "destinataire",
            "value": "L'archev\u00eaque de Tyr"
        },
        {
            "type": "date_libre",
            "value": "IV nonas junii, anno primo"
        },
        {
            "type": "date",
            "value": " 1265\/06\/02",
            "children": {
                "date_deb_jour": "02",
                "date_deb_mois": "06",
                "date_deb_annee": "1265"
            },
            "range": {
                "date_apres": 12650602,
                "date_avant": 12650602
            }
        },
        {
            "type": "date_lieu",
            "value": "P\u00e9rouse"
        },
        {
            "type": "genre",
            "value": "Mandement (littere cum filo canapis)"
        },
        {
            "type": "analyse",
            "value": "Clementis IV ad archiepiscopum Tyrensem epistola. Archiepiscopus publicae monitionis edictum proponat ut omnes crucesignati partium ultramontanarum qui signum crucis absque licentia Sedis apostolicae deposuerunt illud infra terminum eis peremptorie praefigendum resumant ; alioquin generalem excommunicationis sententiam in ipsos ferat [Berger]."
        },
        {
            "type": "sources_manuscrites",
            "value": "E. FRANCE, Paris, Archives nationales, J 450\/134. Original scell\u00e9 (bulle de Cl\u00e9ment IV, sur cordelettes de chanvre. Au dos, en haut : <i>G. TAGLART<\/i>.).",
            "children": {
                "type_source": "Exp\u00e9dition"
            }
        },
        {
            "type": "regeste",
            "value": "\u00c9lie Berger, <i>Layettes du Tr\u00e9sor des chartes<\/i>, IV, Paris : Henri Plon, 1902 <a target=\"_blank\" href=\"http:\/\/digi.ub.uni-heidelberg.de\/diglit\/teulet1902bd4\/0219\"> [en ligne]<\/a>, n. 5046, p. 133 <a target=\"_blank\"href=\"https:\/\/francearchives.fr\/fr\/facomponent\/44a6f0a28392ab5855a31d800b32143486a646f8\">[num\u00e9ris\u00e9e sur le site des Archives de France]<\/a>, d'apr\u00e8s E."
        },
        {
            "type": "regeste",
            "value": "\u00c9douard Jordan, <i>Les registres de Cl\u00e9ment IV (1265-1268)<\/i>, Paris, 1893-1945, n. 1675, d\u2019apr\u00e8s E."
        },
        {
            "type": "regeste",
            "value": "Bernard Barbiche, <i>Les actes pontificaux originaux des Archives Nationales de Paris<\/i>, Cit\u00e9 du Vatican, 1975-1982, II, n. 1319, p. 106-107, d\u2019apr\u00e8s E."
        },
        {
            "type": "transcription",
            "value": "<?xml version=\"1.0\" encoding=\"UTF-8\"?>\nUt commissum tibi... Datum Perusii, IIII nonas junii, pontificatus nostri anno primo.\n"
        },
        {
            "type": "remarques",
            "value": "\u00e0 \u00e9diter - Inconnue de Potthast - Absente des registres"
        }
    ]
}