{
    "id": 148161,
    "name": "aposcripta-7776",
    "type": "acte",
    "url": "http:\/\/telma-chartes.irht.cnrs.fr\/aposcripta\/notice\/148161",
    "project_slug": "aposcripta",
    "project_label": "APOSCRIPTA \u2013 Lettres des papes",
    "user": "l_valliere",
    "last_update": "2020-10-19 16:39:42",
    "licence": "Attribution - Pas d\u2019Utilisation Commerciale - Partage dans les M\u00eames Conditions 3.0 France (CC BY-NC-SA 3.0 FR) ",
    "licence_url": "https:\/\/creativecommons.org\/licenses\/by-nc-sa\/3.0\/fr\/",
    "elements": [
        {
            "type": "pape",
            "value": "Cl\u00e9ment IV (1265-1268)"
        },
        {
            "type": "destinataire",
            "value": "Le cardinal-\u00e9v\u00eaque d'Albano Raoul Grosparmi, l\u00e9gat du Si\u00e8ge apostolique"
        },
        {
            "type": "date_libre",
            "value": "V idus maii, anno quarto"
        },
        {
            "type": "date",
            "value": "1268\/05\/11",
            "children": {
                "date_deb_annee": "1268",
                "date_deb_mois": "05",
                "date_deb_jour": "11"
            },
            "range": {
                "date_apres": 12680511,
                "date_avant": 12680511
            }
        },
        {
            "type": "date_lieu",
            "value": "Viterbe"
        },
        {
            "type": "genre",
            "value": "Mandement (littere cum filo canapis)"
        },
        {
            "type": "analyse",
            "value": "Cum \u00ab vacante Liciensi ecclesia, et ejusdem canonicis duodecim numero per viam scrutinii sibi providere volentibus de pastore, \u00bb perfecto et publicato scrutinio evidenter apparuerit, \u00ab quod quinque in Petrum de Romana canonicum ejusdem ecclesie consenserant, quinque in electum de ecclesia postulandum ; Petrus vero de Romana Basilium nominavit ; et in his finibus subsistentes, collatione non habita, nec aliqua in communi electione vel postulatione secuta, \u00bb canonici electionem P[etri] de Romana R[adulpho] episcopo Albanensi legato presentaverint confirmandam ; legatus \u00ab licet quoddam monstraretur decretum ... quod electionem de dicto P. factam sonare seu sapere videbatur ; veritate tamen per ipsius Petri et aliorum juramenta comperta, \u00bb predictum P. nullum jus habuisse declaraverat. Appellantibus canonicis, papa legati sententiam confirmat, eique mandat, ut Liciensi ecclesie provideat [Jordan].\nClemens IV. an R(aoul Grosparmi,) Kardinalbischof von Albano, apostolischer Legat: gebietet ihm, nach der zwiesp\u00e4ltig verlaufenen Bischofswahl in Lecce kraft p\u00e4pstlicher Autorit\u00e4t eine Person seiner Wahl einzusetzen [Thumser]."
        },
        {
            "type": "sources_manuscrites",
            "value": "R<sup>1<\/sup>. CIT\u00c9 DU VATICAN, Archivio segreto Vaticano, <i>Registra Vaticana<\/i> 30, fol. 81.",
            "children": {
                "type_source": "Formulaire, collection de lettres m\u00e9di\u00e9vale"
            }
        },
        {
            "type": "sources_manuscrites",
            "value": "R<sup>2<\/sup>. CIT\u00c9 DU VATICAN, Archivio segreto Vaticano, <i>Registra Vaticana<\/i> 33, ep. 488, fol. 79.",
            "children": {
                "type_source": "Formulaire, collection de lettres m\u00e9di\u00e9vale"
            }
        },
        {
            "type": "sources_manuscrites",
            "value": "R<sup>3<\/sup>. CIT\u00c9 DU VATICAN, Archivio segreto Vaticano, <i>Registra Vaticana<\/i> 34, fol. 123v.",
            "children": {
                "type_source": "Formulaire, collection de lettres m\u00e9di\u00e9vale"
            }
        },
        {
            "type": "sources_manuscrites",
            "value": "R<sup>4<\/sup>. CIT\u00c9 DU VATICAN, Archivio segreto Vaticano, <i>Registra Vaticana<\/i> 35, ep. 495, fol. 90v.",
            "children": {
                "type_source": "Formulaire, collection de lettres m\u00e9di\u00e9vale"
            }
        },
        {
            "type": "edition",
            "value": "Ici reprise de Mathias Thumser, <i>Die Briefe Papst Clemens\u2019 IV. (1265-1268)<\/i>, Vorl\u00e4ufige Edition, MGH, 2015, n. 496."
        },
        {
            "type": "regeste",
            "value": "Potthast, <i>Regesta pontificum Romanorum<\/i>, n. 20341 <a target=\"_blank\" href=\"https:\/\/archive.org\/stream\/RegestaPontificumRomanorum\/ph#page\/n1653\/mode\/2up\"> [en ligne]<\/a>."
        },
        {
            "type": "bibliographie_generale",
            "value": "Mathias Thumser, \u00ab Zur \u00dcberlieferungsgeschichte der Briefe Clemens'IV. (1265-1268) \u00bb, <i>Deutsches Archiv f\u00fcr Erforschung des Mittelalters<\/i>, 51\/1, 1995, p. 115-168."
        },
        {
            "type": "transcription",
            "value": "<?xml version=\"1.0\" encoding=\"UTF-8\"?>\nR[adulfo] episcopo Albanensi, apostolice Sedis legato. Vacante Liciensi ecclesia et eiusdem canonicis XII numero per viam scrutinii sibi providere volentibus de pastore, scrutatoribus tandem duobus de collegio ipso datis et perfecto scrutinio et postmodum publicato evidenter apparuit, quod V in Petrum de Romana canonicum eiusdem ecclesie eligendum consenserant, V in Guillelmum de ecclesia postulandum, Petrus vero de Romana Basilium nominavit. Et in hiis finibus subsistentes collatione non habita nec aliqua in communi electione vel postulatione secuta, processu tandem eorum huiusmodi per procuratores sollempnes tibi, ut eis placuit, presentato fuit a te nomine eorum petitum, ut electionem de dicto P[etro] de Romana factam tamquam canonicam confirmares. Tu vero, licet quoddam tibi monstraretur decretum a quodam conscriptum notario, qui scrutinio non interfuerat, sed, quod ei a canonicis dictum fuerat, imprudenter redegerat in scripturam, quod electionem de dicto Petro factam sonare seu sapere videbatur, veritate tamen per ipsius Petri et aliorum iuramenta comperta patuit manifeste nullam electionem factam fuisse de ipso, et, quia, quod factum non fuerat, non poterat confirmari, tu eundem Petrum nullum ius ex electione huiusmodi habuisse tua sententia declarasti, a qua dicti canonici appellarunt. Ipsorum igitur procuratore in nostra presentia constituto et processum huiusmodi ac tuam nobis sententiam exhibente nos eorundem stultitiam admirati male ipsos appellasse et te bene pronuntiasse cognovimus tuam sententiam de fratrum nostrorum consilio confirmantes, fraternitati tue nichilominus per apostolica scripta mandantes, quatenus eidem ecclesie de persona idonea auctoritate nostra provideas in episcopum et pastorem et eidem per te vel alium munus consecrationis impendas et a subditis suis facias obedientiam debitam ac reverentiam exhiberi. Contradictores et cetera. Datum Viterbii, V idus maii, anno IIII.\n"
        },
        {
            "type": "edition_autre",
            "value": "Edmond Mart\u00e8ne, Ursin Durand, <i>Thesaurus novus anecdotorum<\/i>, Paris, 1717, II, n. 637, col. 593 <a target=\"_blank\" href=\"https:\/\/archive.org\/stream\/ThesaurusNovusAnecdotorum2\/Thesaurus_novus_anecdotorum_2#page\/n331\/mode\/2up\"> [en ligne]<\/a>."
        },
        {
            "type": "regeste",
            "value": "\u00c9douard Jordan, <i>Les registres de Cl\u00e9ment IV (1265-1268)<\/i>, Paris, 1893-1945, n. 1365, d\u2019apr\u00e8s R<sup>1<\/sup>, R<sup>2<\/sup>, R<sup>3<\/sup> et R<sup>4<\/sup>."
        }
    ]
}