{
    "id": 20625,
    "name": "aposcripta-612",
    "type": "acte",
    "url": "http:\/\/telma-chartes.irht.cnrs.fr\/aposcripta\/notice\/20625",
    "project_slug": "aposcripta",
    "project_label": "APOSCRIPTA \u2013 Lettres des papes",
    "user": "lettrespontificalesadmin",
    "last_update": "2020-10-19 16:26:51",
    "licence": "Attribution - Pas d\u2019Utilisation Commerciale - Partage dans les M\u00eames Conditions 3.0 France (CC BY-NC-SA 3.0 FR) ",
    "licence_url": "https:\/\/creativecommons.org\/licenses\/by-nc-sa\/3.0\/fr\/",
    "elements": [
        {
            "type": "pape",
            "value": "Alexandre II (1061-1073)"
        },
        {
            "type": "date_lieu",
            "value": "n.c."
        },
        {
            "type": "analyse",
            "value": "Alexander\u00a0II ordinationes ab Eustacio Orientano episcopo in ecclesia Neapolitana factas irritas denuntiat. Alexandre [II] annonce aux Napolitains qu'apr\u00e8s la restitution de leur \u00e9v\u00eaque L\u00e9o, les ordination ill\u00e9galement faites par l'\u00e9v\u00eaque Eustache sont cass\u00e9es."
        },
        {
            "type": "transcription",
            "value": "<?xml version=\"1.0\" encoding=\"UTF-8\"?>\nClero Neapolitano. Ordinationes ab Eustacio Orientano episcopo non legaliter in ecclesia vestra factas post restitucionem Leonis episcopi vestri omnino irritas et vacuas haberi decernimus.\n"
        },
        {
            "type": "edition",
            "value": "Ici reprise de Samuel Loewenfeld, <i>Epistolae pontificum romanorum ineditae<\/i>, Leipzig : Veit et Comp., 1885, n. 113, p. 56-57."
        },
        {
            "type": "sources_manuscrites",
            "value": "Coll. Brit. Alex. ep.\u00a076, in cod. Mus. Brit. Add.\u00a08873 s.\u00a0<span class=\"smal-caps\">xii<\/span> in. fol.\u00a050.",
            "children": {
                "type_source": "Collection canonique, collection de d\u00e9cr\u00e9tales"
            }
        },
        {
            "type": "date",
            "value": "apr\u00e8s 1066 - avant 1067",
            "children": {
                "date_deb_annee": "1066",
                "date_deb_type": "apres",
                "date_fin_annee": "1067",
                "date_fin_type": "avant"
            },
            "range": {
                "date_apres": 10660000,
                "date_avant": 10679999
            }
        },
        {
            "type": "genre",
            "value": "Lettre, g\u00e9n\u00e9ral (avant 1198)"
        },
        {
            "type": "destinataire",
            "value": "Le clerg\u00e9 napolitain"
        }
    ]
}