{
    "id": 149420,
    "name": "aposcripta-8983",
    "type": "acte",
    "url": "http:\/\/telma-chartes.irht.cnrs.fr\/aposcripta\/notice\/149420",
    "project_slug": "aposcripta",
    "project_label": "APOSCRIPTA \u2013 Lettres des papes",
    "user": "lettrespontificalesadmin",
    "last_update": "2020-10-19 16:39:58",
    "licence": "Attribution - Pas d\u2019Utilisation Commerciale - Partage dans les M\u00eames Conditions 3.0 France (CC BY-NC-SA 3.0 FR) ",
    "licence_url": "https:\/\/creativecommons.org\/licenses\/by-nc-sa\/3.0\/fr\/",
    "elements": [
        {
            "type": "pape",
            "value": "Innocent IV (1243-1254)"
        },
        {
            "type": "destinataire",
            "value": "n. c"
        },
        {
            "type": "date_libre",
            "value": "IV idus iunii, anno X"
        },
        {
            "type": "date",
            "value": " 1253\/06\/10",
            "children": {
                "date_deb_annee": "1253",
                "date_deb_mois": "06",
                "date_deb_jour": "10"
            },
            "range": {
                "date_apres": 12530610,
                "date_avant": 12530610
            }
        },
        {
            "type": "date_lieu",
            "value": "Asisii"
        },
        {
            "type": "sources_manuscrites",
            "value": "R. CIT\u00c9 DU VATICAN, Archivio Segreto Vaticano, <hi rend=\"italic\">Registra Vaticana<\/hi> ... Inn.\u00a0IV Reg. Vol.\u00a0II, 311-312; Lib.\u00a0X, cur.\u00a053. Sequitur epistolam antecedentem, numero et rubro deficiente. Exemplar Raynaldi, Ann. eccl. a. 1253, \u00a7\u00a03-4, suppletum ex eo, quod Winkelmann, Acta Imp. ined. t.\u00a0I, p.\u00a0581, n.\u00a0734 edidit, contulimus cum Regestis. Numeros singulis capitulis nos apposuimus.",
            "children": {
                "type_source": "Registre de la chancellerie apostolique"
            }
        },
        {
            "type": "genre",
            "value": "Mandement (littere cum filo canapis)"
        },
        {
            "type": "analyse",
            "value": "Condiciones, quibus Innocentius IV papa regnum Siciliae Karolo Andegaviae et Provinciae comiti conferri vult [Rodenberg]."
        },
        {
            "type": "transcription",
            "value": "<?xml version=\"1.0\" encoding=\"UTF-8\"?>\nn. c.[1.] Iste sunt conditiones petende in concessione regni Sicilie, ducatus Apulie, Capitinate et Calabrie ac principatus Capue et totius terre, que est citra Pharum usque ad confinia terrarum ecclesie, in feudum, excepta civitate Beneventana cum iuribus et districtibus suis, nobili viro Karulo Andegavie ac Provincie comiti per magistrum Albertum domini pape notarium, legatum sedis apostolice, facienda, super quibus concordatum est hinc et inde.[2.] In primis idem comes in ipsa concessione prestabit eidem legato, recipienti nomine domini pape et ecclesie Romane, iuramentum fidelitatis; eidem domino pape faciet homagium ligium, cum fuerit in eius presentia, et tam ipse quam heredes sui legitimi regnum et terras predictas tenebunt a domino papa et ecclesia Romana in feudum, ita tamen, quod si contingat regnum ad feminam devenire, illa non nubat adversario ecclesie, nec imperatori aut filio seu fratri eius aut alii, de cuius electione ad Romanum imperium ageretur, absque consensu domini pape et ecclesie Romane.[3.] Item regnum imperio nullo modo subdetur seu sibi umquam tempore in eadem persona aliquatenus unietur.[4.] Item revocabit omnes constitutiones seu leges per condam Fr. dudum imperatorem vel reges Sicilie sive per Conradum ipsius filium editas contra ecclesiasticam libertatem, et in iuramento fidelitatis quod prestabit addetur, quod privilegia apostolice sedis a regibus et principibus vel aliis Christi fidelibus concessa super regno aut rebus sitis in ipso illibata servabit; alia vero privilegia, equitatem continentia, servabit; nec statuta vel constitutiones aliquas edet aut etiam promulgabit, per que iuri vel libertati ecclesiastice derogetur.[5.] Item electiones, provisiones, postulationes et confirmationes cathedralium ecclesiarum, monasteriorum et aliorum locorum religiosorum, tam in prelatis quam clericis et aliis personis ecclesiasticis, libere fiant, secundum quod canones mandant et maxime statuta concilii generalis. Denunciatio tamen mortis prelati regi fiat, si fieri consuevit, sed eius consilium vel consensus in predictis non requiratur, nec ante electionem nec post electionem.[6.] Item restituantur omnes episcopi et alii prelati et clerici et alie persone ecclesiastice ad sedes et loca sua.[7.] Item restituet, quicquid occupatum est hactenus per Fr. et ministros suos seu alios quoscumque de castris, iuribus, possessionibus, hominibus, cuiuscunque conditionis existant, et aliis rebus immobilibus et mobilibus, que extent et ad manum suam vel suorum devenerint vel ad eos qui erunt in sua potestate, prelatorum, Templariorum, Hospitalariorum et aliorum religiosorum, ecclesiarum vel ecclesiasticarum personarum. De occupatis autem per reges Sicilie ab antiquo iustitia plena fiat.[8.] Item generaliter omnes de regno vel extra regnum, cuiuscumque conditionis existant vel ordinis, sive mares sive femine sive civitates sive castra sive quecumque loca ecclesie adherentes, ad quos aliqui in eodem regno de iure pertineant, recipiet ad gratiam suam ipsosque affidabit, nisi postquam regnum receperit, ei vel regno suo adversentur; et eis omnia bona sua stabilia et mobilia, que extant et ad manum suam vel suorum devenerint vel ad eos qui erunt in sua potestate, plene restituet et banna eis imposita ad voluntatem domini pape relaxabit.[9.] Item pro civitate Beneventana hac vice reficienda per Beneventanos exponet pro lignaminibus omnia nemora regni et omnem materiam ad edificia oportunam, puta lapides, arenam que puteolana vocatur, cementum et similia, absque iuris preiudicio singularium personarum ad unam dietam prope Beneventum; prestabit eis securitatem per totum regnum, nisi in terra sua de novo delinquant, propter quod ad ipsum de iure iustitia pertineat. Privilegia quoque predicte civitati a regibus et principibus concessa illibata servabit. Omnia statuta per Fr. seu quoscumque reges Sicilie facta contra libertatem civitatis eiusdem revocabit, et in omnibus et per omnia, quoad ea que libertatis fuerint, ceteris regnicolis parificabit eandem; nec aliqua statuta seu leges condet in posterum, per que civitati eidem directe vel indirecte possit preiudicium generari, nec e converso eadem civitas condet vel statuet aliqua, per que regi vel regno preiudicium generetur. Et pro apostolice sedis et beati Bartholomei reverentia, ipsius civitatis patroni, fidancias ab omnibus remitti faciet et remittet eisdem. Fidanciarum remissio est concessio libertatis, ut cives Beneventani possint libere proprias terras et vineas excolere earumque fruges et fructus recolligere ac easdem terras et vineas vendere et de ipsis ad suam voluntatem disponere sine aliqua exactione vel munere seu datione.[10.] Item in quolibet quinquennio dabit rex domino pape unum palafridum album, pulcrum et bonum in recognitionem veri dominii regni eiusdem.[11.] Item in regnum ipsum nullus succedet, qui non fuerit de legitimo matrimonio procreatus.[12.] Item idem comes usque ad festum Omnium Sanctorum proximo venturum personaliter, viriliter et potenter cum exercitu iter arripiet ad negotium prosequendum, et siquid humanitus de ipso contingeret, unus vel duo capitanei, viri strenui et potentes, in forti manu nomine filii vel filie teneantur ad omnia et singula supradicta.[13.] Item Beneventum cum omnibus iuribus et pertinentiis suis ecclesie remanebit.[14.] Item heredes, qui non erunt legitime etatis, si pater premoreretur, in custodia Romane ecclesie remanebunt, ita quod expensis necessariis pro herede et custodia terre deductis residuum convertatur in utilitatem heredis et conservetur, nisi rex aliud ordinaverit de proventibus regni. [Custodia non fiat; quod predictus legatus cum eodem comite ordinabit.] Potestas autem collocandi in matrimonium heredem pertinebit ad amicos propinquiores, cognatos aut ad illum vel illos, quibus rex duxerit committendum, salvis omnino conventionibus supradictis.[15.] Item nullam confederationem seu pactionem vel societatem faciet cum aliquo imperatore vel rege seu principe vel barone, Sarraceno, Christiano vel Greco, aut provincia seu civitate, communitate vel loco extra regnum suum contra Romanam ecclesiam vel in dampnum ecclesie.[16.] Item exulantes pro ecclesia restituantur ad propria et debita iura sua in eodem regno existentia.[17.] Item restituet omnes captivos et obsides, qui tenentur in regno, Romanos, regnicolas et alios de terra ecclesie, Tuscos, Lombardos et illos de Tervisina marchia, libertati bona fide pro posse suo. Super comitatibus vero Fundano et Sorano et Salpien. et Tressant. necnon et aliis, si qua sunt in regno ecclesie Romane aut aliis ecclesie Romane fidelibus a regibus et principibus concessa, salvum sit ius ecclesie Romane ac ipsorum fidelium omnino; nec per regni concessionem comitatuum seu concessorum eorundem cuiquam, quoad proprietatem seu possessionem, preiudicium generetur, regio in hiis omnibus iure salvo.[18.] Iste infrascripte sunt conditiones, quas dictus comes moderari petiit, set idem dominus papa moderationem aliquam non admittit; immo vult, quod remaneant sic omnino.[19.] Idem comes promittet, quod nullus clericus vel persona ecclesiastica eiusdem regni in civili vel criminali causa conveniatur coram iudice seculari, nisi super feudis conveniatur civiliter; sed omnes ecclesie et persone ecclesiastice omni modo erunt libere et in nullo regi seu principi subiacebunt.[20.] Item nullas tallias vel collectas imponet ecclesiis, monasteriis, clericis et viris ecclesiasticis vel rebus eorum.[21.] Item in ecclesiis vacantibus rex seu princeps nulla habebit regalia. [Hanc concesserunt eiusdem comitis nuncii, postquam regum privilegia bullata bulla aurea inspexerunt.][22.] Super reliquis vero conditionibus, illis omnino amotis de quibus hic non fit mentio, placet eidem domino pape, ut taliter procedatur.[23.] Predictus legatus inducet eundem comitem et rogabit eum affectuose ex parte ipsius domini pape, ut placeat sibi, si dictum regnum ad personam, quod absit, pervenerit extraneam, quod ecclesie Romane mille uncie auri ad minus pro relevamine in signum dominii persolvantur.[24.] Item quod pro eodem regno solvat idem comes annuatim eidem ecclesie census nomine duo milia vel ad minus mille marcas.[25.] Item quod serviat domino pape et ecclesie Romane in expensis propriis per sex menses de quingentis militibus in terris ecclesie, videlicet marchia Anconitana, ducatu Spoletano, Patrimonio beati Petri, Campania et Maritima. In Sardinia vero serviat in navigio ad equivalens, quandocumque dominus papa vel ecclesia Romana ibi guerram habuerit et fuerit requisitus.[26.] Item promittet, quod pro reedificatione Beneventi et specialiter ecclesiarum ac locorum religiosorum et palatii domini pape, cum habuerit regnum in pace, decem milium unciarum auri subsidium exhibebit.[27.] Quod si prefatus comes has conditiones admittere, quod non creditur, recusaret omnino, vult idem dominus papa, quod dictus legatus nichilominus ad ipsius regni et aliarum terrarum concessionem et investituram sine aliqua dilatione procedat, ita tamen quod idem comes ad censum se obliget consuetum.[28.] Ceterum prefatus comes ad idem negotium potentius exequendum petiit, quod habeat quolibet anno ab ecclesia mutuum quadringentorum milium librarum Turonensium, quousque terra sit acquisita, de quibus infra Kalendas Septembris proximo venturas solventur ducenta milia Parisius vel in nundinis Campanie aut in Provincia. Alia autem ducenta milia solventur statim, quando erit in regno, vel ante, si necesse fuerit; et de necessitate credetur bone fidei comitis.[29.] Si vero donaria fiant alia quam esculentum et poculentum ab illis, qui sunt in regno, de mutuo tantum diminuatur, quantum erit in donariis, salvo quod si tam donaria quam mutua sint eidem necessaria pro acquisitione terre, utrumque habebit; et de utilitate vel necessitate stabitur dicto suo et bone fidei eius.[30.] Preterea si acquisierit aliquam partem terre, statim parte acquisita tantum diminuetur de mutuo, quanti erunt proventus terre acquisite ad manus suas pervenientes, salvo quod si tam proventus quam mutua sint eidem necessaria pro acquisitione terre, utrumque habebit; et de utilitate et necessitate stabitur dicto suo et bone fidei eius.[31.] Et sciendum, quod quicquid accidit, solum regnum erit pro dicto mutuo obligatum et non alia terra comitis aut uxoris sue.[32.] In reddendo mutuum habebitur ratio, quod ipse possit inde vivere et ipsum regnum custodire, secundum quod rex vivere debet.[33.] Item annus incipiet secundum consuetudinem militum stipendiariorum, scilicet a tempore arreptionis itineris de domibus suis pro dicto negotio.[34.] Dominus papa id isto modo concedit, quod predictam summam mutuabit in predictis terminis, prout petitum est, primo anno, seque sic obligabit ad alios sequentes, si pecuniam mutuo habere possit; et de possibilitate stabitur dicto eius; quod si non posset et idem comes inveniret eandem, idem dominus papa se creditoribus obligabit.[35.] Preterea idem dominus papa ex nunc dat liberam et plenariam potestatem prefato comiti obligandi sequentibus annis et dandi pignori pro ipsa pecunia marchiam Anconitanam, ducatum Spoletanum, Patrimonium beati Petri, Campaniam et Maritimam.[36.] Et quia idem dominus papa predictam summam necessario, quia thesaurum non habet, recipiet a feneratoribus, vult omnino, quod idem comes ad satisfactionem tam usurarum quam sortis obliget dictum regnum, ita tamen quod subsidium, quod idem dominus papa ab ecclesiis et prelatis regni Francie seu Provincie habebit, de ipso debito deducetur, nec teneatur ad restitutionem idem comes, nisi sponte voluerit ecclesiis subvenientibus satisfacere, ut sit ei meritorium apud Deum.Dat. Asisii, IIII Idus Iunii, pontificatus domini Innocentii pape IIII anno X\u00b0.\n"
        },
        {
            "type": "edition",
            "value": "Ici reprise de Karl Rodenberg, Epistolae s. XIII e regestis pontificum romanorum selectae, III, Berlin : Weidmann (MGH), 1894, n.\u00a0208j, p.\u00a0178."
        },
        {
            "type": "edition_autre",
            "value": "?"
        },
        {
            "type": "regeste",
            "value": "?"
        },
        {
            "type": "bibliographie_generale",
            "value": "?"
        },
        {
            "type": "apparat_critique",
            "value": "?",
            "children": {
                "numero_note": "a"
            }
        },
        {
            "type": "apparat_critique",
            "value": "?",
            "children": {
                "numero_note": "b"
            }
        },
        {
            "type": "apparat_critique",
            "value": "?",
            "children": {
                "numero_note": "c"
            }
        },
        {
            "type": "apparat_critique",
            "value": "?",
            "children": {
                "numero_note": "d"
            }
        },
        {
            "type": "apparat_critique",
            "value": "?",
            "children": {
                "numero_note": "e"
            }
        },
        {
            "type": "apparat_critique",
            "value": "?",
            "children": {
                "numero_note": "f"
            }
        },
        {
            "type": "notes_historiques",
            "value": "?",
            "children": {
                "numero_note": "1"
            }
        },
        {
            "type": "notes_historiques",
            "value": "?",
            "children": {
                "numero_note": "2"
            }
        },
        {
            "type": "notes_historiques",
            "value": "?",
            "children": {
                "numero_note": "3"
            }
        }
    ]
}