{
    "id": 144273,
    "name": "aposcripta-5577",
    "type": "acte",
    "url": "http:\/\/telma-chartes.irht.cnrs.fr\/aposcripta\/notice\/144273",
    "project_slug": "aposcripta",
    "project_label": "APOSCRIPTA \u2013 Lettres des papes",
    "user": "j_theryastruc",
    "last_update": "2020-10-19 16:38:57",
    "licence": "Attribution - Pas d\u2019Utilisation Commerciale - Partage dans les M\u00eames Conditions 3.0 France (CC BY-NC-SA 3.0 FR) ",
    "licence_url": "https:\/\/creativecommons.org\/licenses\/by-nc-sa\/3.0\/fr\/",
    "elements": [
        {
            "type": "pape",
            "value": "Innocent IV (1243-1254)"
        },
        {
            "type": "destinataire",
            "value": "L'abbesse et la communaut\u00e9 du monast\u00e8re Notre-Dame de Flines"
        },
        {
            "type": "date_libre",
            "value": " VI kalendas octobris, anno primo"
        },
        {
            "type": "date",
            "value": "1243\/09\/26",
            "children": {
                "date_deb_annee": "1243",
                "date_deb_mois": "09",
                "date_deb_jour": "26"
            },
            "range": {
                "date_apres": 12430926,
                "date_avant": 12430926
            }
        },
        {
            "type": "date_lieu",
            "value": "Anagni"
        },
        {
            "type": "genre",
            "value": "Titre, g\u00e9n\u00e9ral (littere gratiose, cum filo serico)"
        },
        {
            "type": "analyse",
            "value": " Innocent IV prend le monast\u00e8re de Notre-Dame de Flines sous la protection du Si\u00e8ge apostolique et le confirme dans toutes ses possessions. "
        },
        {
            "type": "edition",
            "value": "Ici reprise d'Edouard Hautcoeur, <i>Cartulaire de l'abbaye de Flines (1200-1630)<\/i>, I, Lille, Bruxelles, 1873, n. 33, p. 34 <a target=\"_blank\" href=\"http:\/\/archive.org\/stream\/cartulairedelab00flingoog#page\/n198\/mode\/2up\">[en ligne]<\/a> (num\u00e9ris\u00e9e par <a target=\"_blank\" href=\"http:\/\/www.cn-telma.fr\/chartae-galliae\/charte206086\/\">Chartae Galliae, n. 206086<\/a>)."
        },
        {
            "type": "transcription",
            "value": "<?xml version=\"1.0\" encoding=\"UTF-8\"?>\nInnocentius episcopus, servus servorum Dei, dilectis in Christo filiabus abbatisse et conventui monasterii de Honore beate Marie juxta Orchies, Tornacensis diocesis, Cisterciensis ordinis, salutem et apostolicam benedictionem. Sacrosancta Romana ecclesia devotos et humiles filios ex assuete pietatis officio propensius diligere consuevit et, ne pravorum hominum molestiis agitentur, eos tanquam pia mater sue protectionis munimine confovere. Eapropter, dilecte in Christo filie, vestris justis precibus inclinati, personas vestras et locum in quo divino estis obsequio mancipate, cum omnibus bonis que impresentiarum rationabiliter possidet aut in futurum justis modis prestante Domino poterit adipisci, sub Beati Petri et nostra protectione suscipimus. Specialiter autem terras, possessiones, et alia bona vestra, sicut ea omnia juste possidet et quiete, vobis et per vos vestro monasterio auctoritate apostolica confirmamus, et presentis scripti patrocinio communimus. Nulli ergo omnino hominum liceat hanc paginam nostre protectionis et confirmationis infringere, vel ei ausu temerario contraire. Si quis autem hoc attemptare presumpserit, indignationem omnipotentis Dei et Beatorum Petri et Pauli apostolorum ejus se noverit incursurum. Datum Anagnie, VI kalendas octobris, pontificatus nostri anno primo.\n"
        }
    ]
}