{
    "id": 25263,
    "name": "aposcripta-2360",
    "type": "acte",
    "url": "http:\/\/telma-chartes.irht.cnrs.fr\/aposcripta\/notice\/25263",
    "project_slug": "aposcripta",
    "project_label": "APOSCRIPTA \u2013 Lettres des papes",
    "user": "lettrespontificalesadmin",
    "last_update": "2020-10-19 16:27:42",
    "licence": "Attribution - Pas d\u2019Utilisation Commerciale - Partage dans les M\u00eames Conditions 3.0 France (CC BY-NC-SA 3.0 FR) ",
    "licence_url": "https:\/\/creativecommons.org\/licenses\/by-nc-sa\/3.0\/fr\/",
    "elements": [
        {
            "type": "pape",
            "value": "Honorius II (1124-1130)"
        },
        {
            "type": "destinataire",
            "value": "( )",
            "children": {
                "numero_note": "0"
            }
        },
        {
            "type": "date_lieu",
            "value": "n.c."
        },
        {
            "type": "date_libre",
            "value": "1125, 2 avril"
        },
        {
            "type": "date",
            "value": " 1125\/04\/02",
            "children": {
                "date_deb_annee": "1125",
                "date_deb_mois": "04",
                "date_deb_jour": "02"
            },
            "range": {
                "date_apres": 11250402,
                "date_avant": 11250402
            }
        },
        {
            "type": "analyse",
            "value": "X pape<br\/>EPISTOLA HONORII PAP\u00c6 II AD ABBATEM ET MONACHOS SANCTI BERTINI, QUIBUS MANDAT UT AD SUBJECTIONEM ET OBEDIENTIAM PETRI, CLUNIACENSIS ABBATIS, REDEANT. EPISTOLA HONORII PAP\u00c6 II. ad Abbatem et Monachos sancti Bertini, quibus mandat ad subjectionem et obedientiam Petri Ven. Abbatis Clun. redeant."
        },
        {
            "type": "transcription",
            "value": "<?xml version=\"1.0\" encoding=\"UTF-8\"?>\n[Honorius Episcopus servus servorum Dei dilecto filio Abbati sancti Bertini, et Monachis, salutem et Apostolicam Benedictionem. Pax Ecclesi\u00e6, fratrum concordia, Religionis unitas ima supernis, et terrenis sociare c\u0153lestia consuevit. Vos igitur unanimiter divino famulatui mancipatos ex Religiosa devotione Deo et hominibus placere. Patern\u00e6 caritatis debito congaudemus. Hoc siquidem non meritis aut vestr\u00e6 credatis imputandum prudenti\u00e6, sed Deo et sollicitudini Cluniacensis Ecclesi\u00e6 ascribatis, cui videlicet \u00e0 nostris antecessoribus est injunctum ut Religionem in vestro Monasterio institueret et servaret: quod divina favente clementia, et in temporalibus, et in spiritualibus etiam magnum contulit incrementum. Unde mandamus vobis atque pr\u00e6cipimus, ut sine contradictione ad carissimi filii Petri Clun. Abbatis subjectionem et obedientiam humiliter redeatis: Tu ver\u00f2, fili Abba, infra quadraginta dies post harum acceptionem litterarum supplici devotione ad Cluniacense Monasterium pergens, Abbati obedientiam promittas, et eidem Monasterio remota omni occasione professionem facias. Quod si contemptor extiteris, beati Petri et nostram indignationem incurres. Datum Lateranis.]\n"
        },
        {
            "type": "edition",
            "value": "Ici tir\u00e9e du projet <i>CBMA - Corpus Burgundiae Medii Aevi<\/i>, document 5412. Site du projet Corpus de la Bourgogne du Moyen \u00c2ge, [En ligne] <a href=\"http:\/\/www.cbma-project.eu\" target=\"_blank\">http:\/\/www.cbma-project.eu<\/a>  "
        },
        {
            "type": "sources_manuscrites",
            "value": "\u00e0 renseigner."
        },
        {
            "type": "remarques",
            "value": "\r\n\r\nIndications dans l'\u00e9dition des Chartes de Cluny quand Bernard et Bruel n'ont pas repris le texte : Honorius, etc. Pax ecclesi\u00e6, etc. (Bull. Clun., p.\u00a041, col.\u00a02; D. Bouquet, t.\u00a0XV, p.\u00a0263, etc.)."
        },
        {
            "type": "edition_autre",
            "value": "Ici reprise de Auguste Bernard, Alexandre Bruel, <i>Recueil des chartes de l'abbaye de Cluny<\/i>. V. <i>1091-1210<\/i>, Paris\u00a0: Imprimerie nationale, 1894 <a href=\"http:\/\/gallica.bnf.fr\/ark:\/12148\/bpt6k28911f?rk=64378;0\" target=\"_blank\">[en ligne]<\/a>, p. 338, n\u00b0 3981.",
            "children": {
                "numero_note": "0"
            }
        },
        {
            "type": "edition_autre",
            "value": "Pierre Simon, <i>Bullarium sacri Ordinis cluniacensis, complectens plurima privilegia per summos pontifices tum ipsi cluniacensi abbatiae, tum ei subditis monasteriis hactenus concessa<\/i>, Lyon : Jullieron, 1680, p. 41, col. 2, n\u00b01",
            "children": {
                "numero_note": "1"
            }
        },
        {
            "type": "genre",
            "value": "Bulle"
        },
        {
            "type": "genre",
            "value": "Lettre"
        }
    ]
}