{
    "id": 148687,
    "name": "aposcripta-8274",
    "type": "acte",
    "url": "http:\/\/telma-chartes.irht.cnrs.fr\/aposcripta\/notice\/148687",
    "project_slug": "aposcripta",
    "project_label": "APOSCRIPTA \u2013 Lettres des papes",
    "user": "M_GuerreroMeral",
    "last_update": "2020-10-19 16:39:48",
    "licence": "Attribution - Pas d\u2019Utilisation Commerciale - Partage dans les M\u00eames Conditions 3.0 France (CC BY-NC-SA 3.0 FR) ",
    "licence_url": "https:\/\/creativecommons.org\/licenses\/by-nc-sa\/3.0\/fr\/",
    "elements": [
        {
            "type": "pape",
            "value": "Gr\u00e9goire IX (1227-1241)"
        },
        {
            "type": "destinataire",
            "value": "Les \u00e9v\u00eaques de Minden, de L\u00fcbeck, et de Ratzeburg"
        },
        {
            "type": "date",
            "value": "1233\/06\/17",
            "children": {
                "date_deb_annee": "1233",
                "date_deb_mois": "06",
                "date_deb_jour": "17"
            },
            "range": {
                "date_apres": 12330617,
                "date_avant": 12330617
            }
        },
        {
            "type": "date_lieu",
            "value": "Latran"
        },
        {
            "type": "genre",
            "value": "Mandement (littere cum filo canapis)"
        },
        {
            "type": "analyse",
            "value": "Gregorio IX incarica i vescovi di Minden, Lubecca e Ratzeburg di predicare nelle diocesi di Paderborn, Hildesheim, Verden, M\u00fcnster, Osnabr\u00fcck, Minden e Brema la crociata contro gli Stedinger, eretici presenti nella diocesi di Brema [Sala]."
        },
        {
            "type": "sources_manuscrites",
            "value": "R. CIT\u00c9 DU VATICAN, Archivio segreto Vaticano, <i>Registra Vaticana<\/i>  17, VII, n. 186, fol. 56v-57v.",
            "children": {
                "type_source": "Registre de la chancellerie apostolique"
            }
        },
        {
            "type": "edition",
            "value": "Ici reprise d'Alessandro Sala, <i>Lo sviluppo dell'<\/i>inquisitio haereticae pravitatis<i> nelle lettere di Gregorio IX (1227-1241)<\/i>, th\u00e8se de doctorat, Universit\u00e0 degli studi di Milano, 2015-2016, 2 vol., II, n. 63, p. 79-81. "
        },
        {
            "type": "regeste",
            "value": "Potthast, <i>Regesta pontificum Romanorum<\/i>, n. 9236 <a target=\"_blank\" href=\"https:\/\/archive.org\/details\/RegestaPontificumRomanorum\/page\/n803\"> [en ligne]<\/a>."
        },
        {
            "type": "transcription",
            "value": "<?xml version=\"1.0\" encoding=\"UTF-8\"?>\n.. Mindensi et .. Lubicensi et .. Racemburgensi episcopis Littere vestre nobis exhibite continebant quod, dudum voce multe lamentationis audita quod quosdam violentos et impios qui Schetinci vocantur in Bremensi provincia diabolus suscitavit, qui, veri luminis fulgore relicto, detestande cecitatis, obducti caligine nec timentes Deum nec hominem reverentes, doctrina matris Ecclesie penitus vilipensa, ipsius libertatem conculcant et ferino more, feris bestiis crudelius sevientes, nulli parcunt sexui vel etati, effundendo sanguinem sicut aquam, clericis et religiosis membratim impie laceratis et quibusdam in modum crucis affixis parieti in opprobrium Crucifixi et ut singolorum excessus in excessibus suis excedant et perfidos sua vincant perfidia universos divine potentie abusores, salutis nostre viaticum, quo vita datur viventibus, horribilius quam exprimi deceat pertractantes, querunt responsa demonum, cerea simulacra faciunt et in suis spurcitiis erroneas consulunt phitonissas, alia multa committentes tenebrarum opera, que non solum referentibus, sed etiam stupori sunt audientibus et horrori, nos attendentes quod tam nephandis initiis potenti erat dextera, celeriter obviandum, vobis dedimus nostris litteris in mandatis ac in remissionem iniunximus peccatorum ut, assumpto sancte predicationis officio, Christi fideles in Paderburnensi, Hildemensi, Verdensi, Monasteriensi, Osnaburgensi, Mindensi et Bremensi diocesibus existentes ad illius exterminium reprobe nationis diligenter et efficaciter inducere studeatis, concessa ipsis fidelibus indulgentia quam in eisdem litteris nostris duximus exprimenda. Litteris autem nostris reverenter receptis ascitisque vobis viris religiosis de Predicatorum ordine, nec non et clericis ac laicis fide dignis, ad prosecutionem commissi vobis negotii totis viribus laborantes fideles eosdem crebris monitionibus ac illectivis premiis, indulgentis scilicet ac remissionibus contra ipsos reprobos sollicite induxistis; et, cum iam per Dei gratiam \/c.57r\/ predicatorum vocibus contra ipsorum perfidiam intonantibus, nonnulli divinitus inspirati catholice fidei, tam potenter et viriliter subvenirent quod, timore ac tremore concussi locis suis relictis, fuge presidium flagitarent, sperantes non posse resistere tante multitudini signatorum, quamquam terram fortissimam et inexpugnabilem habeant, que magnis fluminibus aquarumve decursibus est munita, dicti fideles, postmodum intellecto quod illa indulgentia non gaudebant, que datur euntibus in subsidium Terre Sancte, retro respicientes in executione votorum penitus tepuerunt. Quare impii memorati effecti proterviores solito e proterviis, ex hoc audaciam assumentes ac ponentes omnino sibi Deum contrarium et se Deo adversus fidem catholicam calcaneum sevius erexerunt ac civitatem Bremensem hostiliter adeuntes, ecclesias, monasteria et loca circumquaque vicina nec non et quoddam castrum munitissimum, Bremensis ecclesie funditus, destruxerunt, propter quod tamen est in partibus Alamannie scandalum suscitatum quod non solum illi, verum etiam aliarum sectarum heretici, qui prius latebant in angulis, de huiusmodi gloriantes contra Dei Ecclesiam et fidem catholicam, publice invalescunt nomen Domini Iesu, in quo flectetur omne genu1, scelestis labiis turpiter blasphemando. Iam enim eorum heresi dampnanda, large lateque diffusa, miserabiliter et mirabiliter inficiunt christianum populum et corrumpunt, capiunt clericos et per membra discerpunt, cruciantes eos omni genere tormentorum. Quare nobis fuit humiliter supplicatum ut, considerata qualitate negotii, in tantis periculis salubre remedium opponere dignaremur. Licet igitur talia sunt premissa quod dolorem efferunt et memorem et ploratus materiam potius offerunt quam relates, quia tamen habet hoc proprium apostolica Sedes, ut in hiis in quibus est maius periculum, ad inquirendam plenissime veritatem, ne fucato decipiatur errore cum gravitate procedat, fraternitati vestre, per iterata scripta, in virtute obedientie, districte precipiendo mandamus quatinus, si constiterit pestilentes ipsos in Eucharistia, responsis demonum, cereis simulacris et detestandis phitonissarum consiliis, ut premissum est, tam graviter excessisse et diligenter a nobis moniti in hac dampnabili pertinacia dampnabiliter perdurantes, acquiescere forte noluerint et ad sinum matris Ecclesie prona mente redire, tantam et talem cautionem de conversione sua et perseverantia exponentes, ut de recidivo ipsorum nullatenus de cetero sit verendum, quia in tam grandi et gravi morbo recurrendum est ad validiora remedia, ubi medicamenta levia non proficunt et apponendum ferrum et signis vulneribus, que fomenta non sentiunt putridis carnibus, ne partem sinceram attrahant amputatis, advocetis contra eos receptatores, defensores et fautores ipsorum spiritualis et materialis gladii potestatem. Universos Christi fideles monentes attentius et efficaciter inducentes, ut exurgentes in adiutorium Christi sui adversus eos viriliter se accingant ; catholici vero, qui cruces assumpto caractere ad eorumdem hereticorum exterminium se accinxerint, illa gaudeant indulgentia illoque privilegio sint muniti, que accedentibus in Terre Sancte subsidium \/c.57v\/ conceduntur ; Alioquin pestilentes moneatis eosdem ut de illatis dampnis et irrogatis iniuriis Bremensi et aliis ecclesiis et personis ecclesiasticis congruam satisfactionem impendant ; illis vero monitis vestris acquiescere non curantibus, in commisso vobis negotio procedatis sub priorum continentia litterarum. Quod si non omnes et cetera. Datum Laterani, XV kalendas iulii, anno septimo.\n"
        },
        {
            "type": "date_libre",
            "value": "XV kalendas julii, anno septimo"
        },
        {
            "type": "regeste",
            "value": "Heinrich Finke, <i>Westf\u00e4lisches Urkundenbuch.<\/i> V. <i>Die Papsturkunden Westfalens bis zum Jahre 1378<\/i>, M\u00fcnster : Theissing, 1888, n. 393 <a target=\"_blank\" href=\" https:\/\/archive.org\/details\/westflischesurk00erhagoog\/page\/n297\"> [en ligne]<\/a>."
        },
        {
            "type": "notes_historiques",
            "value": "cfr. Romains 14, 11.",
            "children": {
                "numero_note": "1"
            }
        },
        {
            "type": "edition_autre",
            "value": "Thomas Ripoll, <i>Bullarium ordinis fratrum Praedicatorum<\/i>, Rome : ex typographia Hieronymi Mainardi, 1729-1739, 7 vol., I, n. 83."
        },
        {
            "type": "edition_autre",
            "value": "Dietrich Rudolf Ehmck, <i>Bremisches Urkundenbuch<\/i>, I, Br\u00eame : C. Ed. M\u00fcller, 1863, n. 176."
        },
        {
            "type": "edition_autre",
            "value": "Karl Rodenberg, <i>Epistolae saeculi XIII e regestis pontificum romanorum selectae<\/i>, I, Berlin : Weidmann, 1883, n. 539."
        },
        {
            "type": "regeste",
            "value": "Johann Friedrich B\u00f6hmer, Julius Ficker, Eduard Winkelmann, <i>Regesta Imperii<\/i>, V. <i>J\u00fcngere Staufer 1198-1272. Die Regesten des Kaiserreichs unter Philipp, Otto IV, Friedrich II, Heinrich (VII), Conrad IV, Heinrich Raspe, Wilhelm und Richard (1198-1272)<\/i>, Innsbruck : Wagner, 1881-1901, 3 vol., n. 6975."
        },
        {
            "type": "regeste",
            "value": "Lucien Auvray, <i>Les registres de Gr\u00e9goire IX<\/i>, I, n. 1402."
        },
        {
            "type": "regeste",
            "value": "Otto Heinrich May, <i>Regesten der Erzbisch\u00f6fe von Bremen<\/i>, I. <i>(787-1306)<\/i>, Br\u00eame, 1937, n. 881."
        }
    ]
}