{
    "id": 24470,
    "name": "aposcripta-1621",
    "type": "acte",
    "url": "http:\/\/telma-chartes.irht.cnrs.fr\/aposcripta\/notice\/24470",
    "project_slug": "aposcripta",
    "project_label": "APOSCRIPTA \u2013 Lettres des papes",
    "user": "lettrespontificalesadmin",
    "last_update": "2020-10-19 16:27:30",
    "licence": "Attribution - Pas d\u2019Utilisation Commerciale - Partage dans les M\u00eames Conditions 3.0 France (CC BY-NC-SA 3.0 FR) ",
    "licence_url": "https:\/\/creativecommons.org\/licenses\/by-nc-sa\/3.0\/fr\/",
    "elements": [
        {
            "type": "pape",
            "value": "Innocent IV (1243-1254)"
        },
        {
            "type": "date_lieu",
            "value": "n.c."
        },
        {
            "type": "date_libre",
            "value": "Avant d\u00e9cembre 1254"
        },
        {
            "type": "date",
            "value": "apr\u00e8s 1254\/01 - avant 1254\/12",
            "children": {
                "date_deb_annee": "1254",
                "date_deb_mois": "01",
                "date_deb_type": "apr\u00e8s",
                "date_fin_annee": "1254",
                "date_fin_mois": "12",
                "date_fin_type": "avant"
            },
            "range": {
                "date_apres": 12540100,
                "date_avant": 12541299
            }
        },
        {
            "type": "analyse",
            "value": "Innocent\u00a0IV charge Andr\u00e9, son neveu et chapelain, de terminer le diff\u00e9rend qui s\u2019est \u00e9lev\u00e9 entre Pierre de Conques, \u00e9v\u00eaque de Maguelone, et Ruffin, chanoine de Verceil, au sujet de l\u2019\u00c9glise de Ganges."
        },
        {
            "type": "transcription",
            "value": "<?xml version=\"1.0\" encoding=\"UTF-8\"?>\n"
        },
        {
            "type": "edition",
            "value": "Julien Rouquette, Augustin Villemagne, <i>Bullaire de l'\u00c9glise de Maguelone<\/i>, Paris, Montpellier : Picard, Valat, 1911-1914, II, n. 445, p. 306-306"
        },
        {
            "type": "remarques",
            "value": "L\u2019existence de cette bulle, que nous ne nous souvenons pas avoir rencontr\u00e9e dans les <i>Registres d\u2019Innocent\u00a0IV<\/i>, ne semble pas douteuse. Elle est mentionn\u00e9e et r\u00e9sum\u00e9e dans les premi\u00e8res lignes de la bulle du 10\u00a0mai 1255.\n\n[Rouquette-Villemagne]"
        },
        {
            "type": "bibliographie_generale",
            "value": "Voir bulle N\u00b0\u00a0448.",
            "children": {
                "numero_note": "0"
            }
        },
        {
            "type": "genre",
            "value": "Bulle"
        }
    ]
}