{
    "id": 149029,
    "name": "aposcripta-8595",
    "type": "acte",
    "url": "http:\/\/telma-chartes.irht.cnrs.fr\/aposcripta\/notice\/149029",
    "project_slug": "aposcripta",
    "project_label": "APOSCRIPTA \u2013 Lettres des papes",
    "user": "j_theryastruc",
    "last_update": "2020-10-19 16:39:52",
    "licence": "Attribution - Pas d\u2019Utilisation Commerciale - Partage dans les M\u00eames Conditions 3.0 France (CC BY-NC-SA 3.0 FR) ",
    "licence_url": "https:\/\/creativecommons.org\/licenses\/by-nc-sa\/3.0\/fr\/",
    "elements": [
        {
            "type": "pape",
            "value": "Calixte III (1455-1458)"
        },
        {
            "type": "destinataire",
            "value": "Le cardinal d'Albano Pierre de Foix le vieux, l\u00e9gat du Si\u00e8ge apostolique"
        },
        {
            "type": "date_libre",
            "value": "MCDLV, kalendas septembris, anno primo"
        },
        {
            "type": "date",
            "value": "1455\/09\/01",
            "children": {
                "date_deb_annee": "1455",
                "date_deb_mois": "09",
                "date_deb_jour": "01"
            },
            "range": {
                "date_apres": 14550901,
                "date_avant": 14550901
            }
        },
        {
            "type": "date_lieu",
            "value": "Rome, Saint-Pierre"
        },
        {
            "type": "genre",
            "value": "Lettre, g\u00e9n\u00e9ral (apr\u00e8s 1198, littere cum filo canapis)"
        },
        {
            "type": "analyse",
            "value": "Callixte [III] mande au cardinal d'Albano Pierre de Foix le vieux d'exiger aupr\u00e8s du dauphin de Vienne Louis l'hommage pour les terres relevant de l'Eglise romaine."
        },
        {
            "type": "sources_manuscrites",
            "value": "E. CIT\u00c9 DU VATICAN, Archivio Segreto Vaticano... Au verso : <i>De Curia. A. de Racaneto. Narnia. R<sup>ca<\/sup> apud me M. Fernarii<\/i>. D'une \u00e9criture moderne : <i>Litteras recipiendi homagia a Delfino Viennensi<\/i>.",
            "children": {
                "type_source": "Exp\u00e9dition"
            }
        },
        {
            "type": "edition",
            "value": "Ici reprise de Victor Dubarat, \u00ab Bulles pontificales relatives aux cardinal Pierre de Foix, Le vieux (XV<sup>e<\/sup> si\u00e8cle) \u00bb, <i>Bulletin de la Soci\u00e9t\u00e9 des sciences, lettres et arts de Pau<\/i>, II<sup>e<\/sup> s\u00e9rie, 31, 1903, p. 233-261, aux p. 253-254 <a target=\"_blank\" href=\"https:\/\/gallica.bnf.fr\/ark:\/12148\/bpt6k34283m\/f258.item\"> [en ligne]<\/a>. "
        },
        {
            "type": "transcription",
            "value": "<?xml version=\"1.0\" encoding=\"UTF-8\"?>\nCalistus episcopus, servus servorum Dei, venerabili fratri episcopo Albanensi, presbytero cardinali, apostolice Sedis legato, salutem et apostolicam benedictionem. Ad prov[identiam sum]mi pontificis maxime spectare dinoscitur ut, non modo ea que a predecessoribus suis accepit diligenter conserventur, sed etiam que vetustate temporum vel [hominum] negligentia paulatim a Romana Ecclesia defecerunt suis studio et diligentia, quam honestius et humanius fieri potest, recuperentur et in pristinam apostolice Sedis obedientiam et devotionem revocentur. Cum itaque in variis plurimorum summorum pontificum predecessorum nostrorum regestris, dum illa perquiri et examinari fecimus diligenter, quedam homagia a nonnullis quondam dominis certorum dominiorum, castrorum et locorum que nunc a dilecto filio nobili viro Ludovico, delfino Viennensi, possidentur suis temporibus fuisse prestita et nunc ab ipso delfino ratione prefatorum dominiorum, castrorum et locorum prestari debere, nos, cupientes jurisdictionem predicte Sedis nostris precipue temporibus illesam preservari ac in suas vires statumque pristinum revocari, fraternitati tue tenore presentium committimus et mandamus quatinus eundem delfinum auctoritate nostra moneas ut infra certum a te sibia statuendum terminum concedentem, homagia ipsa... \u00e0 compl\u00e9ter ...tenore presentium concedimus facultatem.Datum Rome, apud Sanctum Petrum, anno Incarnationis dominice millesimo quadringentesimo quinquagesimo quinto, kalendas septembris, pontificatus nostri anno primo.\n"
        },
        {
            "type": "apparat_critique",
            "value": "tibi <i>Dubarat<\/i>.",
            "children": {
                "numero_note": "a"
            }
        }
    ]
}