{
    "id": 23786,
    "name": "aposcripta-1000",
    "type": "acte",
    "url": "http:\/\/telma-chartes.irht.cnrs.fr\/aposcripta\/notice\/23786",
    "project_slug": "aposcripta",
    "project_label": "APOSCRIPTA \u2013 Lettres des papes",
    "user": "j_theryastruc",
    "last_update": "2020-10-19 16:27:18",
    "licence": "Attribution - Pas d\u2019Utilisation Commerciale - Partage dans les M\u00eames Conditions 3.0 France (CC BY-NC-SA 3.0 FR) ",
    "licence_url": "https:\/\/creativecommons.org\/licenses\/by-nc-sa\/3.0\/fr\/",
    "elements": [
        {
            "type": "pape",
            "value": "Honorius III (1216-1227)"
        },
        {
            "type": "destinataire",
            "value": "L'archev\u00eaque de Tol\u00e8de, l\u00e9gat du Si\u00e8ge apostolique"
        },
        {
            "type": "date_libre",
            "value": "III kalendas maii, anno tercio"
        },
        {
            "type": "date",
            "value": " 1219\/04\/29",
            "children": {
                "date_deb_jour": "29",
                "date_deb_mois": "04",
                "date_deb_annee": "1219"
            },
            "range": {
                "date_apres": 12190429,
                "date_avant": 12190429
            }
        },
        {
            "type": "date_lieu",
            "value": "Rome, Saint-Pierre"
        },
        {
            "type": "genre",
            "value": "Mandement (littere cum filo canapis)"
        },
        {
            "type": "analyse",
            "value": "Honorio III encarga al arzobispo de Toledo que proteja el reino de Navarra y a su rey, que iba a a tomar la Cruz contra los moros."
        },
        {
            "type": "transcription",
            "value": "<?xml version=\"1.0\" encoding=\"UTF-8\"?>\nHonorius episcopus, servus seruorum Dei, venerabili fratri archiepiscopo Toletano, apostolice Sedis legato, salutem et apostolicam benedictionem. Cum illustris rex Nauarre, incensus zelo fidei christiane, susceperit signum crucis contra Mauros Ispanie profecturus, fraternitati tue per apostolica scripta mandamus quatinus si qui eodem rege huiusmodi Christi obsequiis occupato presunpserint iura eius nvadere vel eius regnum temere perturbare, tu eos, monitione premissa debita, discretione appellatione remota compescas. Volumus tamen quod idem rex Navarre ac sui, eundo contra Sarracenos et redeundo, regem Aragonum et regnum eius aliquatenus non offendat. Datum Rome, apud Sanctum Petrum, III kalendas maii, pontificatus nostri anno tercio.\n"
        },
        {
            "type": "edition",
            "value": "Rub\u00e9n Andr\u00e9s, <i>Archivo general de Navarra, 1194-1234<\/i>, p. 219, n. 156."
        },
        {
            "type": "edition",
            "value": "Demetrio Mansilla, <i>La documentaci\u00f3n pontificia hasta Inocencio III (965-1198)<\/i>, Rome : Instituto espa\u00f1ol de estudios eclesiasticos (Monumenta hispaniae vaticana. Registros, 1), 1955, p. 170, n. 223."
        },
        {
            "type": "sources_manuscrites",
            "value": "E. ESPAGNE, Pampelune, Archivo General de Navarra, Comptos, Cajon IV, n. 6. Original scell\u00e9 en plomb.",
            "children": {
                "type_source": "Exp\u00e9dition"
            }
        },
        {
            "type": "bibliographie_generale",
            "value": "Jos\u00e9 Ram\u00f3n Castro, <i>Cat\u00e1logo del Archiuo General de Navarra. Secci\u00f3n de Comptos. Documentos<\/i>. I. <i>842-1331<\/i>, Pampelune : Diputaci\u00f3n Foral de Navarra, 1952, I, n. 166."
        }
    ]
}