{
    "id": 20532,
    "name": "aposcripta-519",
    "type": "acte",
    "url": "http:\/\/telma-chartes.irht.cnrs.fr\/aposcripta\/notice\/20532",
    "project_slug": "aposcripta",
    "project_label": "APOSCRIPTA \u2013 Lettres des papes",
    "user": "lettrespontificalesadmin",
    "last_update": "2020-10-19 16:26:50",
    "licence": "Attribution - Pas d\u2019Utilisation Commerciale - Partage dans les M\u00eames Conditions 3.0 France (CC BY-NC-SA 3.0 FR) ",
    "licence_url": "https:\/\/creativecommons.org\/licenses\/by-nc-sa\/3.0\/fr\/",
    "elements": [
        {
            "type": "pape",
            "value": "G\u00e9lase I (492-496)"
        },
        {
            "type": "date_lieu",
            "value": "n.c."
        },
        {
            "type": "date_libre",
            "value": "496"
        },
        {
            "type": "analyse",
            "value": "Gelasius\u00a0I tribus episcopis mandat, examinent causam Festi querentis, Urbanum quondam episcopum Fulginatem, dum viveret, praedium sibi abstulisse\u00a0; compellant Alexandrum clericum, ut quae de hac re sciat patefaciat.<a class=\"note\" href=\"#note-1\">1<\/a>"
        },
        {
            "type": "transcription",
            "value": "<?xml version=\"1.0\" encoding=\"UTF-8\"?>\nGelasius Cresconio,a\u00a02 Iohanni3 (et Messalae)b episcopis. Decessorum statuta sicut legitima et iusta successorem custodire convenit, ita debet etiam male facta corrigere.c Festus siquidem petitorii oblatione conquestus est, quod habetur in subditis\u00a0: Urbanum, religiose recordationis Fulginatis civitatis antistitem, predium sibi perperam, cum adviveret, abstulisse, quem sicut asserit frequenti conventione pulsavit, nec ad iudices ad dicendam causam voluit commeare. Et ideo, fratres karissimi, causa sub omni examinationis integritate discussa, si cognoscitis, querelam petentis certe probationis assertione subsistere, legum memores de redhibitione iudicate. Alexandrum quoque clericum ea, que in tempore acta meminit, patefacere in vestra cognitione compellite, ut omnia, que constituenda sunt, secundum iuris ordinem censeatis.\n"
        },
        {
            "type": "edition",
            "value": "Samuel Loewenfeld, <i>Epistolae pontificum romanorum ineditae<\/i>, Leipzig : Veit et Comp., 1885, n. 20, p. 11"
        },
        {
            "type": "sources_manuscrites",
            "value": "Coll. Brit. Gel. ep.\u00a042, l.\u00a0l. fol.\u00a016<sup>b<\/sup>."
        },
        {
            "type": "notes_historiques",
            "value": "Cf. Jaff\u00e9 ed. sec.\u00a0717.",
            "children": {
                "numero_note": "1"
            }
        },
        {
            "type": "notes_historiques",
            "value": "Tudertino.",
            "children": {
                "numero_note": "2"
            }
        },
        {
            "type": "notes_historiques",
            "value": "Spoletino.",
            "children": {
                "numero_note": "3"
            }
        },
        {
            "type": "apparat_critique",
            "value": "Creconio <i>c.<\/i>",
            "children": {
                "numero_note": "a"
            }
        },
        {
            "type": "apparat_critique",
            "value": "et Messalae <i>supplendum esse, patet ex eo, quod huius epistolae fragmentum, tribus illis episcopis inscriptae, legitur in Gratiani decr. C. XXV. qu.\u00a02 c.\u00a019, et quod in Coll. Brit. cod. inter<\/i> Cresconio <i>et<\/i> Iohanni <i>con\u00efunctio<\/i>  <i>deest<\/i>.",
            "children": {
                "numero_note": "B"
            }
        },
        {
            "type": "apparat_critique",
            "value": "<i>Verba<\/i> Decessorum \u2014 corrigere <i>leguntur etiam in Gratiani decr. l.\u00a0l., cet<\/i>.",
            "children": {
                "numero_note": "c"
            }
        },
        {
            "type": "date",
            "value": "apres 0496 - avant 0496",
            "children": {
                "date_deb_annee": "0496",
                "date_deb_type": "apres",
                "date_fin_annee": "0496",
                "date_fin_type": "avant"
            },
            "range": {
                "date_apres": 4960000,
                "date_avant": 4969999
            }
        },
        {
            "type": "genre",
            "value": "Bulle"
        }
    ]
}