{
    "id": 26312,
    "name": "aposcripta-3391",
    "type": "acte",
    "url": "http:\/\/telma-chartes.irht.cnrs.fr\/aposcripta\/notice\/26312",
    "project_slug": "aposcripta",
    "project_label": "APOSCRIPTA \u2013 Lettres des papes",
    "user": "lettrespontificalesadmin",
    "last_update": "2020-10-19 16:27:58",
    "licence": "Attribution - Pas d\u2019Utilisation Commerciale - Partage dans les M\u00eames Conditions 3.0 France (CC BY-NC-SA 3.0 FR) ",
    "licence_url": "https:\/\/creativecommons.org\/licenses\/by-nc-sa\/3.0\/fr\/",
    "elements": [
        {
            "type": "pape",
            "value": "Eug\u00e8ne III (1145-1153)"
        },
        {
            "type": "date_lieu",
            "value": "Sutri"
        },
        {
            "type": "date_libre",
            "value": "1146 April 24"
        },
        {
            "type": "date",
            "value": " 1146\/04\/24",
            "children": {
                "date_deb_annee": "1146",
                "date_deb_mois": "04",
                "date_deb_jour": "24"
            },
            "range": {
                "date_apres": 11460424,
                "date_avant": 11460424
            }
        },
        {
            "type": "analyse",
            "value": "Eugen III best\u00e4tigt dem zu Mol\u00eame (D. Langres) geh\u00f6rigen Kloster St.-Denis de Nointel (D. Beauvais) Besitzungen von Beaumont, Nointel, Verneuil, Lisses und Beauvais."
        },
        {
            "type": "transcription",
            "value": "<?xml version=\"1.0\" encoding=\"UTF-8\"?>\nEugenius episcopus servus servorum dei dilectis filiis Baldrico priori ceterisque monachis beati Dionisii de Noistel, ad monasterium Molismense pertinentibus, salutem et apostolicam benedictionem. Que a fratribus nostris, episcopis vel ecclesiarum dei rectoribus, pro religiosorum quiete et utilitate racionabili providentia statuuntur, in sua volumus stabilitate persistere et sedis apostolice munimine roborare. Huius rei gratia, dilecti in domino filii, vestris iustis peticionibus gratum impertientes assensum, quod de capellaniis ecclesie sancti Laurentii de Bello monte et ecclesie sancti Dionisii de Noistel a discretione fratris nostri Odonis, quondam Belvacensium episcopo1, iuste statutum et scripto suo firmatum est, nos quoque presentis scripti pagina confirmamus et ratum manere censemus. Ecclesiam etiam de Vernol et ecclesiam de Lis et, quicquid in territorio Belvacensi iuste et canonice possidetis aut in futurum rationabilibus modis, prestante domino, poteritis adipisci, firma vobis vestrisque successoribus et illibata permaneant. Si qua igitur in futurum ecclesiastica secularisve persona contra huius nostre confirmationis paginam sciens temere venire temptaverit, nisi reatum suum congrua satisfactione correxerit, ordinis et officii sui periculo subiaceat atque in extremo examine presumptionis sue dignam sentiat ultionem. \u2014 Dat. Sutrii, viii Kl. Maii.\n"
        },
        {
            "type": "edition",
            "value": "Julius von Pflugk-Harttung, <i>Acta pontificum Romanorum inedita<\/i>, T\u00fcbingen, 1880, I, n. 203, p. 187"
        },
        {
            "type": "sources_manuscrites",
            "value": "Abschrift vom 13 Jahrh. des Cartulaire de Mol\u00eame Nr. 143 fol. 110, im Archive des D\u00e9p. C\u00f4te-d\u2019Or zu Dijon."
        },
        {
            "type": "remarques",
            "value": ""
        },
        {
            "type": "notes_historiques",
            "value": "<i>Odo II, Bischof von Beauvais, 1133\u20131144.<\/i>",
            "children": {
                "numero_note": "1"
            }
        },
        {
            "type": "genre",
            "value": "Bulle"
        }
    ]
}