{
    "id": 25630,
    "name": "aposcripta-2727",
    "type": "acte",
    "url": "http:\/\/telma-chartes.irht.cnrs.fr\/aposcripta\/notice\/25630",
    "project_slug": "aposcripta",
    "project_label": "APOSCRIPTA \u2013 Lettres des papes",
    "user": "lettrespontificalesadmin",
    "last_update": "2020-10-19 16:27:47",
    "licence": "Attribution - Pas d\u2019Utilisation Commerciale - Partage dans les M\u00eames Conditions 3.0 France (CC BY-NC-SA 3.0 FR) ",
    "licence_url": "https:\/\/creativecommons.org\/licenses\/by-nc-sa\/3.0\/fr\/",
    "elements": [
        {
            "type": "pape",
            "value": "Cl\u00e9ment IV (1265-1268)"
        },
        {
            "type": "destinataire",
            "value": "( )",
            "children": {
                "numero_note": "0"
            }
        },
        {
            "type": "date_lieu",
            "value": "n.c."
        },
        {
            "type": "date_libre",
            "value": "1266, 6 octobre"
        },
        {
            "type": "date",
            "value": " 1266\/10\/06",
            "children": {
                "date_deb_annee": "1266",
                "date_deb_mois": "10",
                "date_deb_jour": "06"
            },
            "range": {
                "date_apres": 12661006,
                "date_avant": 12661006
            }
        },
        {
            "type": "analyse",
            "value": "X pape<br\/>EPISTOLA CLEMENTIS PAP\u00c6 IV AD EPISCOPUM ANICIENSEM, CUI MANDAT UT ABBATEM MAUZIACENSEM ABBATI CLUNIACENSI OBEDIRE JUBEAT."
        },
        {
            "type": "transcription",
            "value": "<?xml version=\"1.0\" encoding=\"UTF-8\"?>\nClemens, episcopus, servus servorum Dei, venerabili fratri episcopo Aniciensi, salutem et apostolicam benedictionem. Sua nobis dilectus filius.. abbas monasterii Cluniacensis petitione monstravit quod ipse ad... monasterium Maciacense (sic), Cluniacensis ordinis, Claromontensis diocesis, sibi subjectum, prout ad suum spectat officium, causa visitationis et correctionis accedens, in Petrum, abbatem ipsius monasterii, pro eo quod idem correctiones dicti abbatis Cluniacensis super suis excessibus suscipere ac ejus salubribus mandatis et monitis intendere contumaciter denegavit, canonica monicione premissa, auctoritate propria excommunicationis sentenciam exigente justicia promulgavit. Cumque idem abbas Cluniacensis super observacione hujusmodi sentencie ad... Sancti Martini et Sancte Valerie priores Nivernenses, Sedis Apostolice litteras impetrasset, idem abbas Maciacensis (sic) ad mandatum ipsius abbatis verbo tenus rediens, de obediendo sibi et parendo mandatis, beneplacitis et preceptis suis corporale prestitit juramentum. Sed postmodum sue salutis immemor, predicto abbati Cluniacensi obedire ac ipsius mandatis et preceptis salubribus et honestis parere contumaciter denegavit contra juramentum prestitum temere veniendo. Quocirca fraternitati tue per apostolica scripta mandamus quatinus, si est ita, eumdem abbatem Maciacensem, quod juxta hujusmodi juramentum eidem abbati obediat et ipsius honesta precepta seu mandata reverenter, ut tenetur, suscipiat, monicione premissa per censuram ecclesiasticam, appellatione remota, compellas. Datum Viterbii, II nonas octobris, pontificatus nostri anno secundo.\n"
        },
        {
            "type": "edition",
            "value": "Ici tir\u00e9e du projet <i>CBMA - Corpus Burgundiae Medii Aevi<\/i>, document 6606. Site du projet Corpus de la Bourgogne du Moyen \u00c2ge, [En ligne] <a href=\"http:\/\/www.cbma-project.eu\" target=\"_blank\">http:\/\/www.cbma-project.eu<\/a>  "
        },
        {
            "type": "sources_manuscrites",
            "value": "\u00e0 renseigner."
        },
        {
            "type": "remarques",
            "value": "\r\n\r\n (Bibl. nat. lat. nouv. acq.\u00a02278, n\u00ba\u00a029.)"
        },
        {
            "type": "edition_autre",
            "value": "Ici reprise de Auguste Bernard, Alexandre Bruel, <i>Recueil des chartes de l'abbaye de Cluny<\/i>. VI. <i>1211-1300<\/i>, Paris\u00a0: Imprimerie nationale, 1903 <a href=\"http:\/\/gallica.bnf.fr\/ark:\/12148\/bpt6k367019?rk=21459;2\" target=\"_blank\">[en ligne]<\/a>, p. 577-578, n\u00b0 5124",
            "children": {
                "numero_note": "0"
            }
        },
        {
            "type": "genre",
            "value": "Bulle"
        },
        {
            "type": "genre",
            "value": "Lettre"
        }
    ]
}