{
    "id": 25996,
    "name": "aposcripta-3093",
    "type": "acte",
    "url": "http:\/\/telma-chartes.irht.cnrs.fr\/aposcripta\/notice\/25996",
    "project_slug": "aposcripta",
    "project_label": "APOSCRIPTA \u2013 Lettres des papes",
    "user": "lettrespontificalesadmin",
    "last_update": "2020-10-19 16:27:52",
    "licence": "Attribution - Pas d\u2019Utilisation Commerciale - Partage dans les M\u00eames Conditions 3.0 France (CC BY-NC-SA 3.0 FR) ",
    "licence_url": "https:\/\/creativecommons.org\/licenses\/by-nc-sa\/3.0\/fr\/",
    "elements": [
        {
            "type": "pape",
            "value": "Calixte III (1455-1458)"
        },
        {
            "type": "destinataire",
            "value": "Pour m\u00e9moire future de la chose",
            "children": {
                "numero_note": "0"
            }
        },
        {
            "type": "date_lieu",
            "value": "Rome, Saint-Pierre"
        },
        {
            "type": "date_libre",
            "value": "idibus martii, anno primo."
        },
        {
            "type": "date",
            "value": " 1456\/03\/15",
            "children": {
                "date_deb_annee": "1456",
                "date_deb_mois": "03",
                "date_deb_jour": "15"
            },
            "range": {
                "date_apres": 14560315,
                "date_avant": 14560315
            }
        },
        {
            "type": "analyse",
            "value": "Privilegium Calixiti papae III contra non venientes ad capitulum generale Ordinis Cluniacensis abbates et priores ; professos ordinem sancti Benedicti vult esse commendatarios tantum."
        },
        {
            "type": "transcription",
            "value": "<?xml version=\"1.0\" encoding=\"UTF-8\"?>\nCallistus episcopus, servus servorum Dei, ad futuram rei memoriam. Inter curas multiplices quibus occurrentium rerum negotiorumque varietatibus obsidemur, illam libenter amplectimur per quam regularis ordinis loca, prout congruere conspicimus, in spiritualibus et temporalibus prosperitatis optat\u00e6 dirigantur eventu. Unde efficacis ad id sollicitudinis studium adiicere cupimus ne religios\u00e6 person\u00e6 ordinis et loca ipsa apostolic\u00e6 providenti\u00e6, quod absit, destituta consilio periculos\u00e6 deformationis attingant opprobrium ; sed labente cursu temporis eis acquisito statu prospero continuum, dante domino, suscipiant incrementum ea, qua propterea, processerunt, ut firma perpetuo et illibata persistant libenter apostolico munimine roborando. Dudum siquidem, felicis recordationis Nicolaus papa IV pr\u00e6decessor noster cupiens indemnitati et integritati monasterii et ordinis Cluniacensis providere, per suas litteras statuit et ordinavit ut capitulum generale ordinis Cluniacensis singulis annis in dicto monasterio Cluniacensi pro excessuum correctione et deformatorum reformatione celebraretur, in quo abbates et priores dicti ordinis professores tenerentur interesse, in ipsoque capitulo generali quindecim ex abbatibus et prioribus pr\u00e6fati ordinis auctoritate apostolica pr\u00e6siderent, qui eadem auctoritate possent statuta et diffinitiones facere ac alias pro reformatione pr\u00e6fati ordinis mulctas et p\u0153nas imponere aliasque facere prout in eisdem litteris, quarum tenores pr\u00e6sentibus pro expressis haberi volumus, plenius continetur. Cum autem, sicut ad nostrum pervenit auditum, licet idem Nicolaus in pr\u00e6fatis litteris in non venientes ad idem capitulum et legitime se non excusantes excommunicationis sententiam protulerit, nihilominus sententia ipsa a pluribus modicum formidabatur, unde pr\u00e6fati diffinitores ultra sententiam excommunicationis pr\u00e6dictam voluerunt et statuerunt auctoritate apostolica quod antequam venientes ad capitulum hujusmodi, cessante eorum legitima excusatione seu impedimento, absolverentur, illam pecuni\u00e6 summam, quam eundo, redeundo et stando expendissent, si venissent abbati Cluniacensi persolvere debeant per ipsum abbatem in reformationem et utilitatem omnium fratrum capituli generalis prout necesse fuerit convertendam, et ultra per unum mensem suis sumptibus in claustro Cluniacensi in observantia regulari remanere, quare pro parte dictorum abbatis et conventus asserentium et propter guerras et alia temporum incommoda, qu\u00e6 a triginta vel quadraginta annis circa in regno Franci\u00e6 viguerunt, plures de dictis abbatibus et prioribus ad capitula generalia dicti ordinis more solito, prout tenebantur, venire secure asserebant nequiverunt et propterea contra ipsos seu aliquem ipsorum non fuerit processum pr\u00e6fat\u00e6que constitutiones sub tali quali dissimulatione huc usque transierunt, in ipsius monasterii Cluniacensis et aliorum locorum dicti ordinis permaximum pr\u00e6judicium et gravamen, et Christiani populi scandalum et ordinis monastici hujusmodi non modicam desolationem, nobis fuit humiliter supplicatum ut statuta per dictum Nicolaum IV et Benedictum III ac diffinitores pr\u00e6dictos facta confirmare, ac alias in pr\u00e6missis opportune providere, de benignitate apostolica dignaremur. Nos igitur, ad quos pertinet super iis adhibere vigilanti\u00e6 nostr\u00e6 curas, hujusmodi supplicationibus inclinati, statuta pr\u00e6dicta per Nicolaum IV et Benedictum III, pr\u00e6decessores nostros, ac tunc diffinitores pr\u00e6dicti ordinis Cluniacensis, ut pr\u00e6mittitur, facta contra monachos ipsius ordinis non venientes ad capitula generalia et se legitime non excusantes auctoritate apostolica tenore pr\u00e6sentium ex certa scientia confirmamus et approbamus ac pr\u00e6sentis scripti patrocinio communimus, supplentes omnes defectus, si qui intervenerint, in eisdem. Mulctas vero et p\u0153nas pr\u00e6dictas ad omnes et singulos alios monachos ordinis sancti Benedicti, qui beneficia pr\u00e6fati ordinis Cluniacensis ad pr\u00e6sens obtinent, et pro tempore obtinebunt, etiam si Sedis apostolic\u00e6 capellani honoris sint aut exempti vel privilegiati quomodocumque, dummodo in Romana curia residentes non fuerint, auctoritate, scientia et tenore similibus ampliamus et extendimus, talesque monachos commendatarios ad capitula generalia hujusmodi venire decernimus. Itaque abbas Cluniacensis pro tempore et dicti capituli generalis diffinitores, qui sunt et pro tempore erunt, auctoritate apostolica deputati in tales monachos commendatarios, qui sunt ordinis sancti Benedicti, procedere ipsosque et eorum quemlibet juxta statuta regularia dicti ordinis Cluniacensis et sanctiones canonicas punire et corrigere, et hujusmodi commendis, si eorum damnabilis et inhonesta vita ac demerita exegerint privare, necnon contra illos procedere in omnibus et per omnia possint et valeant perinde acsi veri ipsorum prioratuum priores et aliarum administrationum administratores et ordinem ipsum expresse professi existerent. Itaque prior major vel claustralis Cluniacensis qui fuerit pro tempore pr\u00e6fatos priores, administratores et commendatarios monachos ordinis sancti Benedicti non venientes ad capitula pr\u00e6dicta, ut est dictum, aut alias, legitime se non excusantes, dissoluto ipso generali capitulo, per sequestrationem fructuum suorum, beneficiorum, et censuram ecclesiasticam, ad solvendum ipsi abbati summam pecuni\u00e6 pr\u00e6dictam et ad standum per mensem in eodem claustro Cluniacensi auctoritate apostolica efficaciter compellere possint et valeant, eadem auctoritate concedimus et simili scientia indulgemus ; apostolicis et synodalibus constitutionibus monasteriorum et ordinum quorumcumque consuetudinibus et statutis juramento, confirmatione apostolica seu quacumque alia roboratis indultis et privilegiis quibuscumque locis, ordinibus et personis sub quacumque verborum forma concessis aut forsan imposterum concedendis, etiamsi de illis specialis et expressa ac de verbo ad verbum in nostris litteris mentio facienda, quorum tenores, ac si pr\u00e6sentibus de verbo ad verbum insererentur, haberi volumus pro sufficienter expressis, c\u00e6terisque contrariis quibuscumque aut si monachis quibusvis aliis communiter vel divisim ab apostolica sit Sede indultum, quod interdici, suspendi vel excommunicari, aut pecuniaria vel alia quavis p\u0153na mulctari non possint per litteras apostolicas non facientes plenam et expressam ac de verbo ad verbum de indulto hujusmodi mentionem et quibuslibet aliis privilegiis, indulgentiis et litteris apostolicis generalibus vel specialibus, quorumcumque tenorum existant, per qu\u00e6 pr\u00e6sentibus non expressa vel totaliter non inserta abbatis et diffinitorum pr\u00e6dictorum jurisdictio valeat quomodolibet impediri, et qu\u00e6 quo ad pr\u00e6missa monachis pr\u00e6dictis vel quibusvis aliis nolumus aliquatenus suffragari.Nulli ergo omnino hominum liceat hanc paginam nostr\u00e6 confirmationis, approbationis, communionis, supplementi, ampliationis, extensionis, constitutionis, concessionis, et voluntatis infringere, vel ei ausu temerario contraire. Si quis autem hoc attentare pr\u00e6sumserit indignationem omnipotentis Dei et Beatorum Petri et Pauli apostolorum ejus se noverit incursurum.Datum Rom\u00e6 apud S. Petrum, anno Incarnationis dominic\u00e6 millesimo quadringentesimo quinquagesimo quinto, idibus martii, pontificatus nostri anno primo.\n"
        },
        {
            "type": "edition",
            "value": "Ici reprise de Pierre Simon, <i>Bullarium sacri Ordinis cluniacensis, complectens plurima privilegia per summos pontifices tum ipsi cluniacensi abbatiae, tum ei subditis monasteriis hactenus concessa<\/i>, Lyon : Jullieron, 1680, p. 193, col. 2-194, col. 2 (num\u00e9ris\u00e9e par le projet <i>CBMA - Corpus Burgundiae Medii Aevi<\/i>, document 11134. Site du projet Corpus de la Bourgogne du Moyen \u00c2ge, [En ligne] <a href=\"http:\/\/www.cbma-project.eu\" target=\"_blank\">http:\/\/www.cbma-project.eu<\/a>)."
        },
        {
            "type": "sources_manuscrites",
            "value": "\u00e0 renseigner."
        },
        {
            "type": "genre",
            "value": "Bulle (ad perpetuam rei memoriam)"
        }
    ]
}