{
    "id": 26541,
    "name": "aposcripta-3620",
    "type": "acte",
    "url": "http:\/\/telma-chartes.irht.cnrs.fr\/aposcripta\/notice\/26541",
    "project_slug": "aposcripta",
    "project_label": "APOSCRIPTA \u2013 Lettres des papes",
    "user": "lettrespontificalesadmin",
    "last_update": "2020-10-19 16:28:02",
    "licence": "Attribution - Pas d\u2019Utilisation Commerciale - Partage dans les M\u00eames Conditions 3.0 France (CC BY-NC-SA 3.0 FR) ",
    "licence_url": "https:\/\/creativecommons.org\/licenses\/by-nc-sa\/3.0\/fr\/",
    "elements": [
        {
            "type": "pape",
            "value": "C\u00e9lestin III (1191-1198)"
        },
        {
            "type": "date_lieu",
            "value": "Lateran"
        },
        {
            "type": "date_libre",
            "value": "1195 October 7"
        },
        {
            "type": "date",
            "value": " 1195\/10\/07",
            "children": {
                "date_deb_annee": "1195",
                "date_deb_mois": "10",
                "date_deb_jour": "07"
            },
            "range": {
                "date_apres": 11951007,
                "date_avant": 11951007
            }
        },
        {
            "type": "analyse",
            "value": "C\u00f6lestin III nimmt das Kloster Uelzen<a class=\"note\" href=\"#note-1\">1<\/a> (D. Verden) mit Zubeh\u00f6r in apostolischen Schutz und gew\u00e4hrt ihm, bei F\u00e4llen von Bedr\u00fcckung sich nach Rom zu wenden."
        },
        {
            "type": "transcription",
            "value": "<?xml version=\"1.0\" encoding=\"UTF-8\"?>\n[Celestinus episcopus servus servorum] dei dilectis filiis, Waltero abbati et fratribus monaste[rii] Hulsema, salutem et apostolicam | [benedictionem. Sacrosanctab Romana ecclesia devoto]s et humiles filios ex assuete pietatis officio propen[si]us diligere consuevit | [et, ne pravorum hominum mole]stiis agitentur, eos ta[nq]uam pia mater sue protectionis munimine confovere. | [Eapropter, dilecti in domino] filii, devotionem, quam e[rga] beatum Petrum et nos ipsos habere noscimini at[tendentes, monasterium vestru]m cum personis et [bon]is omnibus, que in presentiarum rationabiliter possidet, | [aut in futurum iustis modis], prestante domino, [poter]it adipisci, sub beati Petri et nostra protectione | [suscipimus et presentis scripti nostri pa]trocinio communi[mus. St]atuentes, ut, si in [aliq]uo vos gravari sense|ritis, libere vobis [liceat, sede]m apostolicam appellare. D[ece]rnimus ergo, ut nulli omnino hominum fas sit, di|[ctu]m monasterium s[eu per]sonas vestras vel bona temere perturbare, seu hanc paginam nostre protectionis | [infr]ingere vel ei ausu [tem]erario contraire. Si quis [a]utem hoc attemptare presumpserit, indignationem | omnipotentis dei et b[eatorum] Petri et Pauli apostolorum eius se noverit incursurum. \u2014 Dat. Laterani, Non. | Octob. Pontificatus nostri anno quinto.\n"
        },
        {
            "type": "edition",
            "value": "Julius von Pflugk-Harttung, <i>Acta pontificum Romanorum inedita<\/i>, T\u00fcbingen, 1880, I, n. 432, p. 371"
        },
        {
            "type": "sources_manuscrites",
            "value": "Or. im Staatsarchive zu Hannover."
        },
        {
            "type": "remarques",
            "value": "Perg. ital., durch M\u00e4usefrass an der linken Seite und in den Br\u00fcchen stark besch\u00e4digt, mit der R\u00fcckseite jetzt auf Papier und Leinen geklebt, br. 0,196, lang 0,15, unten 0,018 umgeschlagen, durch 2 L\u00f6cher geht die gelbe und rosa d\u00fcnnf\u00e4dige Seidenschnur, an der die Bulle h\u00e4ngt. Faltung der Breven. Liniirt bis in\u2019s Umgeschlagene. \u2014 Da mir das Tabular. Oldenstat. nicht zug\u00e4nglich war, habe ich die L\u00fccken aus den Formeln erg\u00e4nzt."
        },
        {
            "type": "apparat_critique",
            "value": "a.\u2002<i>Urspr\u00fcnglich<\/i> Hulzel, <i>der Schaft des<\/i> l <i>zum ersten Grundstrich des<\/i> m <i>verwendet<\/i>.",
            "children": {
                "numero_note": "a"
            }
        },
        {
            "type": "apparat_critique",
            "value": "b.\u2002<i>Jaff\u00e9 Reg. 10490, 10508, 10527, 10554 geben diese Anfangsworte f\u00fcr die betreffende Formel, w\u00e4hrend Jaff\u00e9 Reg. 10549<\/i> Sancta mater <i>aus dem Tabular. Oldenstat. verzeichnet, da solche sonst nicht vorkommen, obiges besser in die L\u00fccke und zu dem Folgenden<\/i> pia mater <i>passt, haben wir es aufgenommen. Vielleicht war es schon undeutlich oder besch\u00e4digt, als der Abschreiber es eintrug<\/i>.",
            "children": {
                "numero_note": "b"
            }
        },
        {
            "type": "notes_historiques",
            "value": "<i>Sp\u00e4ter Oldenstadt.<\/i>",
            "children": {
                "numero_note": "1"
            }
        },
        {
            "type": "genre",
            "value": "Bulle"
        }
    ]
}