{
    "id": 20278,
    "name": "aposcripta-265",
    "type": "acte",
    "url": "http:\/\/telma-chartes.irht.cnrs.fr\/aposcripta\/notice\/20278",
    "project_slug": "aposcripta",
    "project_label": "APOSCRIPTA \u2013 Lettres des papes",
    "user": "lettrespontificalesadmin",
    "last_update": "2020-10-19 16:26:47",
    "licence": "Attribution - Pas d\u2019Utilisation Commerciale - Partage dans les M\u00eames Conditions 3.0 France (CC BY-NC-SA 3.0 FR) ",
    "licence_url": "https:\/\/creativecommons.org\/licenses\/by-nc-sa\/3.0\/fr\/",
    "elements": [
        {
            "type": "pape",
            "value": "Jean XXII (1316-1334)"
        },
        {
            "type": "date_lieu",
            "value": "Avignon"
        },
        {
            "type": "date_libre",
            "value": "XII kalendas novembris, anno XIV"
        },
        {
            "type": "analyse",
            "value": "Jean XXII donne ordre au gardien du couvent des fr\u00e8res mineurs de Grasse de faire conduire \u00e0 Avignon sous bonne garde fr\u00e8re V\u00e9ran Boyre, de Grasse, fraticelle. Guy <i>Fulcosii<\/i>, pr\u00e9v\u00f4t du chapitre de Grasse et chapelain du pape, est charg\u00e9 de veiller \u00e0 la prompte ex\u00e9cution de cet ordre. "
        },
        {
            "type": "transcription",
            "value": "<?xml version=\"1.0\" encoding=\"UTF-8\"?>\nMagistro Guillelmo Fulcosii, preposito ecclesie Grassensis, capellano nostro. Que venerabili fratri nostro Amelio, episcopo Castrensi, scribere curavisti vidimus et intelleximus diligenter, sedulam itaque diligenciam per te super hiis adhibitam, ac fidelitatem quam ad nos et Ecclesiam ex hoc te gerere pretendisti plurimum in Domino commendantes, tuam prudentiam exhortamur quatinus sic ordinare procures quod ille de quo scripsisti liberum volatum non habeat, sed ad nostram omnino presenciam adducatur. Credimus siquidem quod iam illius superior illuc pro premissis miserit adimplendis ; quod si forsan non fecerit, ecce dilecto filio .. gardiano fratrum minorum Grassensium per nostras quas per te sibi presentari volumus litteras scribimus ut eum per se, vel alium, seu alios, sub secura custodia ducere ad dictam presenciam non omittat. Super quibus per eumdem gardianum ut sibi scribimus exequendis curet tua prudencia operosam solicitudinem adhibere. Datum Avinioni, XII kalendas novembris, anno XIV.\n"
        },
        {
            "type": "edition",
            "value": "Jean-Marie Vidal, <i>Bullaire de l\u2019Inquisition fran\u00e7aise au XIV<sup>e<\/sup> si\u00e8cle et jusqu'\u00e0 la fin du Grand Schisme<\/i>, Paris : Letouzey et An\u00e9, 1913, n. 107 bis, p. 164-165 <a target=\"_blank\" href=\" https:\/\/gallica.bnf.fr\/ark:\/12148\/bpt6k6213406r\/f268.image\"> [en ligne]<\/a>."
        },
        {
            "type": "sources_manuscrites",
            "value": "Reg. Vat. 115, n. 2119, fol. 212.",
            "children": {
                "type_source": "Registre de la chancellerie apostolique"
            }
        },
        {
            "type": "notes_historiques",
            "value": "Grasse (Alpes-Maritimes).",
            "children": {
                "numero_note": "2"
            }
        },
        {
            "type": "notes_historiques",
            "value": "Bertrand de la Tour, <i>ord. min.<\/i>, cardinal du titre de Saint-Vital, le 19 ou 20 d\u00e9cembre 1320 ; \u00e9v\u00eaque de Tusculum en 1323, mort en 1332.",
            "children": {
                "numero_note": "3"
            }
        },
        {
            "type": "notes_historiques",
            "value": "Jacques Fournier ; voir n. 24, note 1.",
            "children": {
                "numero_note": "4"
            }
        },
        {
            "type": "notes_historiques",
            "value": "Bertrand de Montfav\u00e8s ; voir n. 67, note 1.",
            "children": {
                "numero_note": "5"
            }
        },
        {
            "type": "notes_historiques",
            "value": "Raimond, <i>ord. min.<\/i>, \u00e9v\u00eaque de Vintimille, le 26 novembre 1320 ; transf\u00e9r\u00e9 \u00e0 Vence, le 6 septembre 1328. Eubel, <i>Hierarchia<\/i>, t. <span class=\"smal-caps\">i<\/span>, p. 550, 560.",
            "children": {
                "numero_note": "6"
            }
        },
        {
            "type": "notes_historiques",
            "value": "Montr\u00e9al (Aude), arrond. de Carcassonne.",
            "children": {
                "numero_note": "7"
            }
        },
        {
            "type": "apparat_critique",
            "value": "<i>Reg. : nec.<\/i>",
            "children": {
                "numero_note": "a"
            }
        },
        {
            "type": "date",
            "value": "1329\/10\/21",
            "children": {
                "date_deb_annee": "1329",
                "date_deb_mois": "10",
                "date_deb_jour": "21"
            },
            "range": {
                "date_apres": 13291021,
                "date_avant": 13291021
            }
        },
        {
            "type": "genre",
            "value": "Mandement (littere cum filo canapis)"
        },
        {
            "type": "remarques",
            "value": "Voir la r\u00e9tractation et abjuration de V\u00e9ran Boyre de Grasse devant le pape Jean XXII et devant trois cardinaux commissaires, avec sa r\u00e9conciliation par Jacques Fournier, cardinal de Sainte-Prisque, \u00e9dit\u00e9es par Vidal, p. 162-164, d'apr\u00e8s ASV, <i>Diversorum Miscellan.<\/i>, armar. <span class=\"smal-caps\">xxxiv<\/span>, t. <span class=\"smal-caps\">ii<\/span>, fol. 17v <a target=\"_blank\" href=\" https:\/\/gallica.bnf.fr\/ark:\/12148\/bpt6k6213406r\/f265.image\"> [en ligne]<\/a>.\nVoir aussi <a target=\"_blank\" href=\" http:\/\/telma-chartes.irht.cnrs.fr\/aposcripta\/notice-acte\/144369\"> APOSCRIPTA n. 5627<\/a>."
        }
    ]
}