{
    "id": 24624,
    "name": "aposcripta-1775",
    "type": "acte",
    "url": "http:\/\/telma-chartes.irht.cnrs.fr\/aposcripta\/notice\/24624",
    "project_slug": "aposcripta",
    "project_label": "APOSCRIPTA \u2013 Lettres des papes",
    "user": "lettrespontificalesadmin",
    "last_update": "2020-10-19 16:27:32",
    "licence": "Attribution - Pas d\u2019Utilisation Commerciale - Partage dans les M\u00eames Conditions 3.0 France (CC BY-NC-SA 3.0 FR) ",
    "licence_url": "https:\/\/creativecommons.org\/licenses\/by-nc-sa\/3.0\/fr\/",
    "elements": [
        {
            "type": "pape",
            "value": "Urbain IV (1261-1264)"
        },
        {
            "type": "date_lieu",
            "value": "n.c."
        },
        {
            "type": "date_libre",
            "value": "13\u00a0janvier 1264"
        },
        {
            "type": "date",
            "value": " 1264\/01\/13",
            "children": {
                "date_deb_annee": "1264",
                "date_deb_mois": "01",
                "date_deb_jour": "13"
            },
            "range": {
                "date_apres": 12640113,
                "date_avant": 12640113
            }
        },
        {
            "type": "analyse",
            "value": "Urbain\u00a0IV mande \u00e0 l\u2019\u00e9v\u00eaque de Maguelone et au prieur de Notre-Dame des Tables de faire rembourser \u00e0 des marchands de Florence certaines sommes que l\u2019archev\u00eaque d\u2019Arles et ses suffragants leur ont emprunt\u00e9es."
        },
        {
            "type": "transcription",
            "value": "<?xml version=\"1.0\" encoding=\"UTF-8\"?>\nIn e. m. eisdem (scil. episcopo Magalonensi et priori S. Marie de Tabulis) pro dictis mercatoribus contra archiepiscopum Arelatensem et nonnullos suffraganeos ipsius, etc.Datum apud Urbemveterem, idus januarii, anno tertio.\n"
        },
        {
            "type": "edition",
            "value": "Julien Rouquette, Augustin Villemagne, <i>Bullaire de l'\u00c9glise de Maguelone<\/i>, Paris, Montpellier : Picard, Valat, 1911-1914, II, n. 612-479\u00a0l, p. 533-533"
        },
        {
            "type": "remarques",
            "value": ""
        },
        {
            "type": "bibliographie_generale",
            "value": "<span class=\"small-caps\">J. Guiraud<\/span>, <i>Registres d\u2019Urbain\u00a0IV<\/i>, t.\u00a0II, p.\u00a0256.",
            "children": {
                "numero_note": "0"
            }
        },
        {
            "type": "genre",
            "value": "Bulle"
        }
    ]
}