{
    "id": 26269,
    "name": "aposcripta-3348",
    "type": "acte",
    "url": "http:\/\/telma-chartes.irht.cnrs.fr\/aposcripta\/notice\/26269",
    "project_slug": "aposcripta",
    "project_label": "APOSCRIPTA \u2013 Lettres des papes",
    "user": "lettrespontificalesadmin",
    "last_update": "2020-10-19 16:27:57",
    "licence": "Attribution - Pas d\u2019Utilisation Commerciale - Partage dans les M\u00eames Conditions 3.0 France (CC BY-NC-SA 3.0 FR) ",
    "licence_url": "https:\/\/creativecommons.org\/licenses\/by-nc-sa\/3.0\/fr\/",
    "elements": [
        {
            "type": "pape",
            "value": "Innocent II (1130-1143)"
        },
        {
            "type": "date_lieu",
            "value": "n.c."
        },
        {
            "type": "date_libre",
            "value": "1131 April 1 L\u00fcttich"
        },
        {
            "type": "date",
            "value": " 1131\/04\/01",
            "children": {
                "date_deb_annee": "1131",
                "date_deb_mois": "04",
                "date_deb_jour": "01"
            },
            "range": {
                "date_apres": 11310401,
                "date_avant": 11310401
            }
        },
        {
            "type": "analyse",
            "value": "Innocenz II best\u00e4tigt dem Abte Heinrich von Hersfeld (D. Mainz) die Besitzth\u00fcmer und Rechte seines Klosters<a class=\"note\" href=\"#note-1\">1<\/a>."
        },
        {
            "type": "transcription",
            "value": "<?xml version=\"1.0\" encoding=\"UTF-8\"?>\nInnocentius episcopus servus servorum dei dilecto filio Henrico, abbati Hersveldensis monasterii, eiusque successoribus regulariter substituendis | in ppm. \u2014 Officii nostri nos hortatur auctoritas, pro \u0229cclesiarum statu satagere et earum quieti et utilitati auxiliante domino providere. | Dignum namque et honestati conveniens esse cognoscitur, ut, qui ad \u0229cclesiarum regimen assumpti sumus, eas et a pravorum hominum nequitia tueamur, et beati Petri atque apostolic\u0229 sedis suffragio protegamus. Eapropter, dilecte in domino fili Henrice abbas, tuis iustis postulationibus annuentes, Hersveldense monasterium, cui deo auctore preesse dinosceris, presentis scripti pagina communimus. Statuentes, ut quascumque possessiones, qu\u0229cumque bona in presentiarum iuste et canonice possidet vel in futurum concessione pontificum, liberalitate principum seu oblatione fidelium rationabiliter poterit adipisci, firma tibi tuisque successoribus et illibata permaneant. Inter qu\u0229 singulariter religiosi imperatoris Karoli testamentum2, quod vestro monasterio delegavit, ratum manere sancimus. Illas etiam decimationes, quas ab antiquis temporibus idem monasterium possidet et, qu\u0229 predecessorum nostrorum apostolic\u0229 sedis pontificum privilegiis vestris predecessoribus concess\u0229 sunt3, nos quoque presentis decreti auctoritate concedimus. Obeunte vero te, nunc eiusdem loci abbate, vel tuorum quolibet successorum, nullus qualibet subreptionis astutia seu violentia preponatur, nisi quem fratres communi consensu vel fratrum pars consilii sanioris secundum dei timorem et beati Benedicti regulam vel de suo vel de alieno, si oportuerit, collegio elegerint. Decernimus ergo, ut nulli omnino hominum liceat, prefatum monasterium temere perturbare aut eius possessiones auferre vel ablatas retinere, minuere vel temerariis vexationibus fatigare, sed omnia integra conserventur eorum, pro quorum sustentatione et gubernatione concessa sunt, usibus omnimodis profutura. Si qua igitur in futurum \u0229cclesiastica secularisve persona hanc nostre constitutionis paginam sciens contra eam temere venire temptaverit, secundo tertiove commonita, si non satisfactione congrua emendaverit, honoris potestatisque su\u0229 dignitate careat, reamque se divino iudicio existere de perpetrata iniquitate cognoscat, et a sacratissimo corpore ac sanguine dei et domini redemptoris nostri Jesu Christi aliena fiat, atque in extremo examine districte ultioni subiaceat. Cunctis autem eidem loco iusta servantibus sit pax domini nostri Jesu Christi, quatenus hic fructum | bon\u0229 actionis percipiant et apud iustum iudicem premia \u0229tern\u0229 pacis inveniant. Am. Amen. Am.(R) Ego Innocentius catholic\u0229 ecclesi\u0229 episcopus ss. (M)Dat. Leodii, per manum Aimerici, sanct\u0229 Roman\u0229 \u0229cclesi\u0229 diaconi cardinalis et cancellarii. Kal. April. Indictione viiii. Incarnationis dominic\u0229 anno mcxxxi. Pontificatus vero domni Innocentii ii pp anno secundo. \u2014\n"
        },
        {
            "type": "edition",
            "value": "Julius von Pflugk-Harttung, <i>Acta pontificum Romanorum inedita<\/i>, T\u00fcbingen, 1880, I, n. 160, p. 140"
        },
        {
            "type": "sources_manuscrites",
            "value": "Or. im Staatsarchive zu Marburg."
        },
        {
            "type": "remarques",
            "value": "Perg. nicht ital., breit 0,375, lang 0,5, unten circa 0,045 umgeschlagen, durch 3 L\u00f6cher geht die dunkelrosa wollige Seidenschnur, an der die Bulle h\u00e4ngt. Faltung der Privilegien. Randkreuz, Umschrift und Unterschrift r\u00fchren von eigener Dinte her. Aimerici in der Datumzeile entspricht in der Mache noch der Art Honorius II. Die Rota ist dicht an den Context ger\u00fcckt, nahe darunter die Datirung, zwischen dieser und dem Umgeschlagenen ein freier Raum."
        },
        {
            "type": "notes_historiques",
            "value": "<i>Vergl. die Urk. vom 29 M\u00e4rz 1148.<\/i>",
            "children": {
                "numero_note": "1"
            }
        },
        {
            "type": "notes_historiques",
            "value": "<i>Vergl. Sickel, Urk. der Karolinger II. K. 34, 35, 47\u201349, 67, 93, 106, 107, 182. Zun\u00e4chst gemeint wird K. 34 vom 5 Jan. 775 sein.<\/i>",
            "children": {
                "numero_note": "2"
            }
        },
        {
            "type": "notes_historiques",
            "value": "<i>Wegen der \u00e4lteren Hersfelder Privil. vergl. meine Dipl. hist. Forsch. S. 140 f. ; Stumpf, Acta Imperii p. 16.<\/i>",
            "children": {
                "numero_note": "3"
            }
        },
        {
            "type": "genre",
            "value": "Bulle"
        }
    ]
}