{
    "id": 26809,
    "name": "aposcripta-3694",
    "type": "acte",
    "url": "http:\/\/telma-chartes.irht.cnrs.fr\/aposcripta\/notice\/26809",
    "project_slug": "aposcripta",
    "project_label": "APOSCRIPTA \u2013 Lettres des papes",
    "user": "j_theryastruc",
    "last_update": "2020-10-19 16:28:05",
    "licence": "Attribution - Pas d\u2019Utilisation Commerciale - Partage dans les M\u00eames Conditions 3.0 France (CC BY-NC-SA 3.0 FR) ",
    "licence_url": "https:\/\/creativecommons.org\/licenses\/by-nc-sa\/3.0\/fr\/",
    "elements": [
        {
            "type": "pape",
            "value": "Alexandre IV (1254-1261)"
        },
        {
            "type": "destinataire",
            "value": "L'\u00e9v\u00eaque d'Alatri"
        },
        {
            "type": "date_libre",
            "value": "Nonis maii, anno septimo"
        },
        {
            "type": "date",
            "value": " 1261\/05\/07",
            "children": {
                "date_deb_jour": "07",
                "date_deb_mois": "05",
                "date_deb_annee": "1261"
            },
            "range": {
                "date_apres": 12610507,
                "date_avant": 12610507
            }
        },
        {
            "type": "date_lieu",
            "value": "Viterbe"
        },
        {
            "type": "genre",
            "value": "Bulle"
        },
        {
            "type": "analyse",
            "value": "Le pape Alexandre [IV] mande \u00e0 l'\u00e9v\u00eaque d'Alatri de faire pr\u00eacher dans son dioc\u00e8se la croisade contre Manfred"
        },
        {
            "type": "sources_manuscrites",
            "value": "E. ITALIE, Alatri, Archivio capitolare, n. 172.",
            "children": {
                "type_source": "Original",
                "source_edition": ""
            }
        },
        {
            "type": "edition",
            "value": "Ici reprise de Pierre Toubert, \u00ab Les d\u00e9viations de la croisade au milieu du XIII<sup>e<\/sup> si\u00e8cle : Alexandre IV contre Manfred \u00bb, <i>Le Moyen \u00c2ge<\/i>, 69, 1963, p. 391-399, aux p. 397-398."
        },
        {
            "type": "transcription",
            "value": "<?xml version=\"1.0\" encoding=\"UTF-8\"?>\nAlexander episcopus, servus servorum Dei, venerabili .. episcopo Alatrino, salutem et apostolicam benedictionem. Cum Manfredus quondam princeps Tarentinus, persecutor Romane Ecclesie manifestus, ad habendum regimen seu dominium Urbis ferventer hanelet in confusionem et obprobrium, quin immo in maximum ejusdem Ecclesie suorumque fidelium detrimentum, nos, pravis ejus super hoc conatibus resistere cupientes, fraternitati tue per apostolica scripta in virtute obedientie districte precipiendo mandamus quatinus, per tuam civitatem et diocesim proponens per te ac per alios quos ad hoc ydoneos esse cognoveris contra eundem Manfredum ejusque fautores publice verbum crucis, populos earundem civitatis et dioceseos sedulis exhortationibus juxta datam tibi a Deo prudentiam diligenter inducas ut, attendentes pericula que non solum dicte Ecclesie, sed et ipsis etiam, si dictus Manfredus ejusdem Urbis habere regimen seu dominium evenirenta, crucis signaculum adversus eundem Manfredum et fautores suos ferventer, devote ac reverenter assumant. Nos enim largiendi omnibus qui hujusmodi crucis signaculum contra eundem Manfredum suosque fautores assumpserint illam suorum veniam peccatorum que crucesignatis pro Terre sancte subsidio in generali concilio est concessa plenam et liberam tibi concedimus auctoritate presentium facultatem. Datum Viterbii, nonis maii, pontificatus nostri anno septimo.\n"
        },
        {
            "type": "apparat_critique",
            "value": "<i>sic Toubert, pour <\/i>eveniret <i>?<\/i>",
            "children": {
                "numero_note": "a"
            }
        },
        {
            "type": "remarques",
            "value": "Absente des registres. Inconnue de Potthast."
        }
    ]
}