{
    "id": 26434,
    "name": "aposcripta-3513",
    "type": "acte",
    "url": "http:\/\/telma-chartes.irht.cnrs.fr\/aposcripta\/notice\/26434",
    "project_slug": "aposcripta",
    "project_label": "APOSCRIPTA \u2013 Lettres des papes",
    "user": "lettrespontificalesadmin",
    "last_update": "2020-10-19 16:28:00",
    "licence": "Attribution - Pas d\u2019Utilisation Commerciale - Partage dans les M\u00eames Conditions 3.0 France (CC BY-NC-SA 3.0 FR) ",
    "licence_url": "https:\/\/creativecommons.org\/licenses\/by-nc-sa\/3.0\/fr\/",
    "elements": [
        {
            "type": "pape",
            "value": "Victor IV (antipape ; 1159-1164)"
        },
        {
            "type": "date_lieu",
            "value": "Cremona"
        },
        {
            "type": "date_libre",
            "value": "1162 Juli 4"
        },
        {
            "type": "date",
            "value": " 1162\/07\/04",
            "children": {
                "date_deb_annee": "1162",
                "date_deb_mois": "07",
                "date_deb_jour": "04"
            },
            "range": {
                "date_apres": 11620704,
                "date_avant": 11620704
            }
        },
        {
            "type": "analyse",
            "value": "Victor IV berichtet dem gesammten Klerus des Halberst\u00e4dter Sprengels, er habe dem Bischofe Gero den Gebrauch von Pallium und silbernem Kreuze zugestanden, man solle ihm gehorchen, die Suspension ungehorsamer Geistlicher sei aufgeschoben und in die Hand des Bischofs gelegt<a class=\"note\" href=\"#note-1\">1<\/a>."
        },
        {
            "type": "transcription",
            "value": "<?xml version=\"1.0\" encoding=\"UTF-8\"?>\n Victor episcopus servus servorum dei dilectis filiis, abbatibus .. prepositis .. et omnibus ecclesiarum prelatis | et universo clero, per Halverstatensem episcopatum constituto, salutem et apostolicam benedictionem. Ad sedem pietatis et iustitie | de universis mundi partibus consueverunt fideles et precipue prelati ecclesiarum vocati accedere, et apostolico se conspectui humiliter presentare, ut salutifera ipsius doctrina refecti et apostolici fontis meracissimo vino letificati, postmodum subditos suos in fide christiane religionis possint confirmare, et ad bona eos opera ferventiores efficere. Huius igitur rationis intuitu, venerabilis frater noster G(ero), Halverstatensis episcopus, vir utique scientia et moribus conspicuus, ad sacrosanctam matrem vestram Romanam ecclesiam studuit properare. Quem, sicut nostrum karissimum fratrem, benigna caritate recepimus et eum, aliquandiu apud nos commorantem, velut ecclesie vestre honestas et dignitas exigebat, curavimus honorare. Cuius quidem dilectionis interventu et totius ecclesie Halverstatensis honoris intuitu eidem fratri nostro usum et honorem crucis et pallii, olim a sede apostolica predecessoribus ipsius concessum2, confirmamus, et tam cruce quam pallio utendi potestatem, secundum tenorem privilegiorum vestrorum eidem concedimus. Ipsum itaque, ad vos et ad ecclesiam sibi commissam redire volentem, cum pallii decore et sedis apostolice gratie plenitudine remittimus. Universitati vestre per apostolica scripta precipiendo mandantes et in virtute obedientie iniungentes, quatinus eum honorifice recipiatis, honeste tractetis, et ipsi tamquam patri et domino ac vestrarum animarum episcopo filialem et debitam reverentiam impendatis, et in omnibus qu\u0229 ad honorem dei corrigere, vel ordinare domino auctore voluerit, eidem, tamquam honoris et pacis Halverstatensis ecclesie amatori, ope et consilio fideliter assistatis et humiliter optemperetis. Preterea, cum abbates, prepositi et decani, qui ad indictum concilium vocati venire contempserunt, iuxta sacri concilii statutum suspensionis sententiam debeant subire, precibus sepedicti episcopi eandem sententiam usque ad festum sancti Luce3 in eos distulimus promulgare, et eidem fratri nostro super his suspendendis seu absolvendis | vices nostras et plenam potestatem commisimus. \u2014 Dat. Cremone, iiii Nonas Julii.\n"
        },
        {
            "type": "edition",
            "value": "Julius von Pflugk-Harttung, <i>Acta pontificum Romanorum inedita<\/i>, T\u00fcbingen, 1880, I, n. 325, p. 289"
        },
        {
            "type": "sources_manuscrites",
            "value": "Or. im Staatsarchive zu Magdeburg."
        },
        {
            "type": "remarques",
            "value": "Perg. ital., br. 0,265, lang 0,31, unten c. 0,02 umgeschlagen, durch 2 L\u00f6cher geht die hellrothbraune Seidenschnur, an der die Bulle h\u00e4ngt. Faltung der Breven."
        },
        {
            "type": "notes_historiques",
            "value": "<i>Die Abschrift dieser Urk. verdanke ich Herrn Geh. Archivrath A. v. M\u00fclverstedt zu Magdeburg. \u2014 Vergl. die vorige Urk. und Reuter, Alexander III, II S. 9.<\/i>",
            "children": {
                "numero_note": "1"
            }
        },
        {
            "type": "notes_historiques",
            "value": "<i>Urk. vom 3 Januar 1063.<\/i>",
            "children": {
                "numero_note": "2"
            }
        },
        {
            "type": "notes_historiques",
            "value": "<i>October 18.<\/i>",
            "children": {
                "numero_note": "3"
            }
        },
        {
            "type": "genre",
            "value": "Bulle"
        }
    ]
}