{
    "id": 26412,
    "name": "aposcripta-3491",
    "type": "acte",
    "url": "http:\/\/telma-chartes.irht.cnrs.fr\/aposcripta\/notice\/26412",
    "project_slug": "aposcripta",
    "project_label": "APOSCRIPTA \u2013 Lettres des papes",
    "user": "lettrespontificalesadmin",
    "last_update": "2020-10-19 16:28:00",
    "licence": "Attribution - Pas d\u2019Utilisation Commerciale - Partage dans les M\u00eames Conditions 3.0 France (CC BY-NC-SA 3.0 FR) ",
    "licence_url": "https:\/\/creativecommons.org\/licenses\/by-nc-sa\/3.0\/fr\/",
    "elements": [
        {
            "type": "pape",
            "value": "Alexandre III (1159-1181)"
        },
        {
            "type": "date_lieu",
            "value": "Velletri"
        },
        {
            "type": "date_libre",
            "value": "1180 Januar 14"
        },
        {
            "type": "date",
            "value": " 1180\/01\/14",
            "children": {
                "date_deb_annee": "1180",
                "date_deb_mois": "01",
                "date_deb_jour": "14"
            },
            "range": {
                "date_apres": 11800114,
                "date_avant": 11800114
            }
        },
        {
            "type": "analyse",
            "value": "Alexander III nimmt das Domkapitel von Cambrai in apostolischen Schutz und best\u00e4tigt ihm seine Besitzth\u00fcmer<a class=\"note\" href=\"#note-1\">1<\/a>."
        },
        {
            "type": "transcription",
            "value": "<?xml version=\"1.0\" encoding=\"UTF-8\"?>\nAlexander episcopus servus servorum dei dilectis filiis Theoderico preposito, Hugoni decano et capitulo Cameracensi eorumque successoribus canonice substituendis in ppm. | Effectum iusta postulantibus indulgere, et vigor equitatis et ordo exigit rationis, presertim quando petentium voluntatem et pietas adiuvat et ve|ritas non relinquit. Eapropter, dilecti in domino filii, vestris iustis postulationibus clementer annuimus, et ecclesiam vestram, in qua divino mancipati estis obsequio, sub beati Petri et nostra protectione suscipimus et presentis scripti privilegio communimus. Statuentes, ut quascumque possessiones, quecumque bona eadem ecclesia in presentiarum rationabiliter possidet aut in futurum concessione pontificum, largitione regum vel principum, oblatione fidelium seu aliis iustis modis, prestante domino, poterit adipisci, firma vobis vestrisque successoribus et illibata permaneant. In quibus hec propriis duximus exprimenda vocabulis : villam de Fontenesa et ecclesiam eiusdem ville cum pertinentiis suis, ecclesiam de Cantiencb et de Noella cum pertinentiis suis, Waercurtc, Ribercurt, Alneus, Buxiesd, Doineise, et earum ecclesias, ecclesiam de Bello manso, ecolesiam de Morceisf, ecclesiam de Clusa, ecclesiam de Averncurt et de Felcheriisg, villam de Carneriis, villam de Bosseriis et earum ecclesias cum omnibus earum pertinentiis, villam de Noveslish et eiusdem loci ecclesiam cum pertinentiis suis, tertiam partem terre de Ferreris. In pago Hainonensi ecclesiam de Waudre cum appenditio suo Bince et aliis pertinentiis eius, ecclesiam de Lestinisi cum Brae et aliis appenditiis suis, ecclesiam de Goi super Sanbram cum pertinentiis suis, ecclesiam de sancto Vedasto cum pertinentiis suis, Bertreceis et Braugeis, villam nomine Onenc, Monteni, Villare pontificale cum earum ecclesiis et pertinentiis, alodium de Lessinis, de Ogi et de Yser a bone memorie Lieberto2, quondam episcopo vestro, vobis concessum cum eorum ecclesiis et pertinentiis, ecclesiam de Harenc cum appenditio suo Thidunc. In civitate Cameracensi decimam thelonei Matheras, hostagia3 caponum4 et redditus alios, quos ibidem habetis et liberam donationem tercie prebende in ecclesia vestra. Domos etiam claustri vestri et loca, que vulgo dicuntur Furnil et Cambil, quecumque in eis sint edifitia, et loca molendinorum vestrorum cum omni iurej et libertate, quam in eisdem domibus, locis et edificiis hactenus habuisse noscimini. Donationem thezaurarie et prebendarum in ecclesia sancte Crucis, antiquas quoque et rationabiles consuetudines ecclesie vestre ratas habemus et firmas eas, que perpetuis temporibus illibatas manere censemus. Decernimus ergo, ut nulli omnino hominum liceat, prefatam ecclesiam temere perturbare aut eius possessiones auferre vel ablatas retinere, minuere seu quibuslibet vexationibus fatigare, sed omnia integra conserventur eorum, pro quorum gubernatione ac substentatione concessa sunt, usibus omnimodis profutura, salva sedis apostolice auctoritate etj Cameracensis episcopi canonica iustitia. Si qua igitur in futurum ecclesiastica secularisve persona hanc nostre constitutionis paginam sciens contra eam temere venire temptaverit, secundo terciove commonita, nisi reatum suum digna satisfactione correxerit, potestatis honorisque sui dignitate careat, reamque se divino iuditiok existerej de perpetrata iniquitate cognoscat, et a sacratissimo corpore ac sanguine dei et domini redemptoris nostri Jesu Christi aliena fiat, atque in extremo examine districte ulcioni subiaceat. Cunctis autem eidem loco sua iura servantibus sit pax domini nostri Jesu Christi, quatinus et hic fructum bone actionis | percipiant et apud districtum iudicem premia eterne pacis inveniant. Amen. Am. Amen.(R) Ego Alexander catholice ecclesie episcopus ss. (M)\u2020 Ego Hubaldus Hostiensis episcopus ss.\u2020 Ego Theodinus Portuensis et sancte Rufine sedis episcopus ss. (5)\u2014 \u2020 Ego Matheus presbiter cardinalis tit. sancti Marcelli ss. (4)\u2014 \u2020 Ego Ardicio diaconus cardinalis sancti Theodori ss.\u2020 Ego Rainerius diaconus cardinalis sancti Georgii ad velum aureum ss.\u2020 Ego Gratianus (diaconus cardinalis) sanctorum Cosme et Damiani ss.\u2020 Ego Johannes diaconus cardinalis sancti Angeli ss.\u2020 Ego Matheus sancte Marie nove diaconus cardinalis ss.\u2020 Ego Paulus sanctorum Sergii et Bachi diaconus cardinalis ss.Dat. Velletri, per manum Alberti, sancte Romane ecclesie presbiteri cardinalis et cancellarii. xviiii Kl. Febr. Indictione xii. Incarnationis dominice anno mclxxviiii. Pontificatus vero domni Alexandri pape iii anno xxi.\n"
        },
        {
            "type": "edition",
            "value": "Julius von Pflugk-Harttung, <i>Acta pontificum Romanorum inedita<\/i>, T\u00fcbingen, 1880, I, n. 303, p. 272"
        },
        {
            "type": "sources_manuscrites",
            "value": "Or. im Archive des D\u00e9p. Nord zu Lille (Fonds de la cath\u00e9drale de Cambrai). \u2014 Abschrift vom Ende des 12 Jahrh. des Cart. de l\u2019\u00e9glise de Cambrai, MS. lat. 10968 fol. 24, 25, in der Bibl. Nat. zu Paris."
        },
        {
            "type": "remarques",
            "value": "Or., Perg. ital., breit 0,525, lang 0,56, unten 0,02\u20130,022 umgeschlagen, durch 2 L\u00f6cher geht die gelb und rosa Seidenschnur, an der die Bulle geh\u00e4ngt gewesen, welche jetzt nebenan befestigt ist, Faltung der Privilegien. Schrift selten sauber, vom obern Rande 0,07 entfernt, vom linken und rechten 0,084 beginnend."
        },
        {
            "type": "apparat_critique",
            "value": "a.\u2002<i>Cop. :<\/i> Fontaines",
            "children": {
                "numero_note": "a"
            }
        },
        {
            "type": "apparat_critique",
            "value": "b.\u2002<i>C. :<\/i> Cantaing",
            "children": {
                "numero_note": "b"
            }
        },
        {
            "type": "apparat_critique",
            "value": "c.\u2002<i>C. :<\/i> Vuahiercort",
            "children": {
                "numero_note": "c"
            }
        },
        {
            "type": "apparat_critique",
            "value": "d.\u2002<i>C. :<\/i> Bussies",
            "children": {
                "numero_note": "d"
            }
        },
        {
            "type": "apparat_critique",
            "value": "e.\u2002<i>C. :<\/i> Dohenies",
            "children": {
                "numero_note": "e"
            }
        },
        {
            "type": "apparat_critique",
            "value": "f.\u2002<i>C. :<\/i> Morceies",
            "children": {
                "numero_note": "f"
            }
        },
        {
            "type": "apparat_critique",
            "value": "g.\u2002<i>C. :<\/i> Flechieriis",
            "children": {
                "numero_note": "g"
            }
        },
        {
            "type": "apparat_critique",
            "value": "h.\u2002<i>C. :<\/i> Novellis",
            "children": {
                "numero_note": "h"
            }
        },
        {
            "type": "apparat_critique",
            "value": "i.\u2002<i>C. :<\/i> Lestines",
            "children": {
                "numero_note": "i"
            }
        },
        {
            "type": "apparat_critique",
            "value": "j.\u2002<i>Auf Rasur.<\/i>",
            "children": {
                "numero_note": "j"
            }
        },
        {
            "type": "apparat_critique",
            "value": "k.\u2002<i>Theilweis auf Rasur.<\/i>",
            "children": {
                "numero_note": "k"
            }
        },
        {
            "type": "notes_historiques",
            "value": "<i>Vergl. die Urk. vom 23 Jan. 1153 und 15 Jan. 1126.<\/i>",
            "children": {
                "numero_note": "1"
            }
        },
        {
            "type": "notes_historiques",
            "value": "<i>Lietbert, Bischof von Cambrai, 1049\u20131076.<\/i>",
            "children": {
                "numero_note": "2"
            }
        },
        {
            "type": "notes_historiques",
            "value": "<i>Hostagium : census annuus, qui ratione domicilii debetur. Du Cange, Gloss. III p. 707 ; Brinckmeier, Gloss. I S. 1088. On entend aussi par droits d\u2019hostelage, ce que les marchands forains paient pour le louage des maisons et boutiques, comme droit de<\/i> \u201e<i>hallage<\/i>\u201c. <i>Encycl. M\u00e9th. Jur. V p. 87.<\/i>",
            "children": {
                "numero_note": "3"
            }
        },
        {
            "type": "notes_historiques",
            "value": "<i>Wohl<\/i> = <i>caupo : aubergiste, Wirthshausbesitzer, wonach wir es mit einer Abgabe der Wirthe f\u00fcr die Beherbergung von Reisenden, namentl. Kaufleuten, zu thun haben. Vergl. noch Warnk\u00f6nig, Fland. Staatsgesch. I S. 362, II S. 78.<\/i>",
            "children": {
                "numero_note": "4"
            }
        },
        {
            "type": "genre",
            "value": "Bulle"
        }
    ]
}