{
    "id": 146936,
    "name": "aposcripta-6565",
    "type": "acte",
    "url": "http:\/\/telma-chartes.irht.cnrs.fr\/aposcripta\/notice\/146936",
    "project_slug": "aposcripta",
    "project_label": "APOSCRIPTA \u2013 Lettres des papes",
    "user": "l_valliere",
    "last_update": "2020-10-19 16:39:25",
    "licence": "Attribution - Pas d\u2019Utilisation Commerciale - Partage dans les M\u00eames Conditions 3.0 France (CC BY-NC-SA 3.0 FR) ",
    "licence_url": "https:\/\/creativecommons.org\/licenses\/by-nc-sa\/3.0\/fr\/",
    "elements": [
        {
            "type": "pape",
            "value": "Cl\u00e9ment IV (1265-1268)"
        },
        {
            "type": "destinataire",
            "value": "Le noble Fortibraccio di Romania"
        },
        {
            "type": "date_libre",
            "value": "XIII kalendas junii, anno primo"
        },
        {
            "type": "date",
            "value": "1265\/05\/20",
            "children": {
                "date_deb_annee": "1265",
                "date_deb_mois": "05",
                "date_deb_jour": "20"
            },
            "range": {
                "date_apres": 12650520,
                "date_avant": 12650520
            }
        },
        {
            "type": "date_lieu",
            "value": "P\u00e9rouse"
        },
        {
            "type": "genre",
            "value": "Lettre, g\u00e9n\u00e9ral (apr\u00e8s 1198, littere cum filo canapis)"
        },
        {
            "type": "analyse",
            "value": "Nobili viro Fortibrach de Romagnola scribit : \u00ab Ubi comitem [Provinciae] advenisse noverimus, super his sibi scribere secreto curabimus, cum eidem assistere totis viribus proponarnus ; ...tuum in hac parte quaeremus commodum et honorem \u00bb [Potthast].\nClemens IV. an Fortebraccio di Romania : fordert ihn auf, sich der Sache (Karls von Anjou,) Graf (der Provence,) anzuschlie\u00dfen [Thumser]."
        },
        {
            "type": "edition",
            "value": "Ici reprise de Mathias Thumser, <i>Die Briefe Papst Clemens\u2019 IV. (1265\u20131268)<\/i>, Vorl\u00e4ufige Edition, MGH, 2015, n. 16."
        },
        {
            "type": "regeste",
            "value": "Potthast, <i>Regesta pontificum Romanorum<\/i>, n. 19151 <a target=\"_blank\" href=\" http:\/\/opacplus.bsb-muenchen.de\/title\/BV004241514\/ft\/bsb11316018?page=617\"> [en ligne]<\/a>."
        },
        {
            "type": "transcription",
            "value": "<?xml version=\"1.0\" encoding=\"UTF-8\"?>\nNobili viro Fortibrachio de Romagna spiritum consilii sanioris. Si parentum exempla sequeris, qui Sedi apostolice retroactis temporibus prudenter et fideliter adheserunt, viam ingrederis tue saluti et honori sanguinis tui congruam, per quam tutus incedere poteris et pes tuus in devium non impinget1. Sane salutem omnium sitientes, ubi comitem advenisse noverimus, super hiis sibi scribere secreto curabimus, cum eidem assistere totis viribus proponamus et illos ipsius amicitie iungere, in quibus credamus eundem decipi non debere, de quorum numero te censentes tuum in hac parte queremus commodum et honorem, si te talem exhibere volueris, ut in te stabile possimus iacere fundamentum. Datum Perusii, XIII kalendas iunii, anno I.\n"
        },
        {
            "type": "edition_autre",
            "value": "Edmond Mart\u00e8ne, Ursin Durand, <i>Thesaurus novus anecdotorum<\/i>, Paris, 1717, II, col. 133, n. 61 <a target=\"_blank\" href=\"https:\/\/archive.org\/stream\/ThesaurusNovusAnecdotorum2\/Thesaurus_novus_anecdotorum_2#page\/n101\/mode\/2up\"> [en ligne]<\/a>."
        },
        {
            "type": "regeste",
            "value": "\u00c9douard Jordan, <i>Les registres de Cl\u00e9ment IV (1265-1268)<\/i>, Paris, 1893-1945, n. 887, d\u2019apr\u00e8s R<sup>1<\/sup>, R<sup>2<\/sup>, R<sup>3<\/sup> et R<sup>4<\/sup>."
        },
        {
            "type": "sources_manuscrites",
            "value": "R<sup>1<\/sup>. CIT\u00c9 DU VATICAN, Archivio segreto Vaticano, <i>Registra Vaticana<\/i> 30, fol. 3.",
            "children": {
                "type_source": "Formulaire, collection de lettres m\u00e9di\u00e9vale"
            }
        },
        {
            "type": "sources_manuscrites",
            "value": "R<sup>2<\/sup>. CIT\u00c9 DU VATICAN, Archivio segreto Vaticano, <i>Registra Vaticana<\/i> 33, ep. 16, fol. 3v.",
            "children": {
                "type_source": "Formulaire, collection de lettres m\u00e9di\u00e9vale"
            }
        },
        {
            "type": "sources_manuscrites",
            "value": "R<sup>3<\/sup>. CIT\u00c9 DU VATICAN, Archivio segreto Vaticano, <i>Registra Vaticana<\/i> 34, fol. 4v.",
            "children": {
                "type_source": "Formulaire, collection de lettres m\u00e9di\u00e9vale"
            }
        },
        {
            "type": "sources_manuscrites",
            "value": "R<sup>4<\/sup>. CIT\u00c9 DU VATICAN, Archivio segreto Vaticano, <i>Registra Vaticana<\/i> 35, ep. 16, fol. 4.",
            "children": {
                "type_source": "Formulaire, collection de lettres m\u00e9di\u00e9vale"
            }
        },
        {
            "type": "notes_historiques",
            "value": "Prov. 3, 23.",
            "children": {
                "numero_note": "1"
            }
        }
    ]
}