{
    "id": 26368,
    "name": "aposcripta-3447",
    "type": "acte",
    "url": "http:\/\/telma-chartes.irht.cnrs.fr\/aposcripta\/notice\/26368",
    "project_slug": "aposcripta",
    "project_label": "APOSCRIPTA \u2013 Lettres des papes",
    "user": "lettrespontificalesadmin",
    "last_update": "2020-10-19 16:27:59",
    "licence": "Attribution - Pas d\u2019Utilisation Commerciale - Partage dans les M\u00eames Conditions 3.0 France (CC BY-NC-SA 3.0 FR) ",
    "licence_url": "https:\/\/creativecommons.org\/licenses\/by-nc-sa\/3.0\/fr\/",
    "elements": [
        {
            "type": "pape",
            "value": "Alexandre III (1159-1181)"
        },
        {
            "type": "date_lieu",
            "value": "Sens"
        },
        {
            "type": "date_libre",
            "value": "1165 Februar 11"
        },
        {
            "type": "date",
            "value": " 1165\/02\/11",
            "children": {
                "date_deb_annee": "1165",
                "date_deb_mois": "02",
                "date_deb_jour": "11"
            },
            "range": {
                "date_apres": 11650211,
                "date_avant": 11650211
            }
        },
        {
            "type": "analyse",
            "value": "Alexander III nimmt das Kloster Montier-en-Der (D. Ch\u00e2lons-sur-Marne) in apostolischen Schutz und best\u00e4tigt ihm Besitzth\u00fcmer und Rechte<a class=\"note\" href=\"#note-1\">1<\/a>."
        },
        {
            "type": "transcription",
            "value": "<?xml version=\"1.0\" encoding=\"UTF-8\"?>\nAlexander episcopus servus servorum dei dilectis filiis Galtero, abbati Dervensisa monasterii, eiusque fratribus tam presentibus quam futuris regularem vitam professis in ppm. Quotiens a nobis illud petitur, quod religioni et honestati convenire dinoscitur, animo nos decet libenti concedere et petentium desideriis congruum impertiri consensum. Eapropter, dilecti in domino filii, vestris iustis postulationibus clementer annuimus et prefatum monasterium, quod specialiter beati Petri iuris existit, in quo divino mancipati estis obsequio, ad exemplum predecessoris nostri, sancte recordationis Calixti pape2, sub beati Petri et nostra protectione suscipimus et presentis scripti privilegio communimus. Statuentes, ut quascumque possessiones, quecumque bona idem monasterium in presentiarum iuste et canonice possidet aut in futurum concessione pontificum, largitione regum vel principum, oblatione fidelium seu aliis iustis modis, procurante domino, poterit adipisci, firma vobis vestrisque successoribus et illibata permaneant. Statuimus preterea, ut nullus nisi Romanus pontifex vel legatus, ab eius latere destinatus, aut aliquis, qui speciale ab eo super hoc susceperit mandatum, ipsum monasterium et parochialem ecclesiam, que in burgo est, eidem monasterio adiacentem, que beati Petri iuris existunt, audeat interdicere. Antiquas etiam et rationabiles consuetudines, iura quoque et libertates ac dignitates prefati monasterii et parochialis ecclesie et ecclesiarum, que in Ramberti Masnil monasteriolo, Petri Rivi (?), Wulfrandi Passo (?) et Berandi villa site sunt, sicut eas ab antiquo rationabiliter habuisse noscimini, nichilominus confirmamus. Decernimus ergo, ut nulli omnino hominum liceat, prefatum monasterium temere perturbare aut eius possessiones auferre vel ablatas retinere, minuere seu quibuslibet molestationibus fatigare, sed omnia integra conserventur eorum, pro quorum gubernatione et sustentatione concessa sunt, usibus omnimodis profutura, salva sedis apostolice auctoritate Si qua igitur in futurum ecclesiastica secularisve persona hanc nostre constitutionis paginam sciens contra eam temere venire presumpserit, secundo tertiove commonita, nisi reatum suum congrua satisfactione correxerit, potestatis honorisque sui dignitate careat, reamque se divino iudicio existere de perpetrata iniquitate cognoscat et a sacratissimo corpore ac sanguine dei et domini redemptoris nostri Jesu Christi aliena fiat, atque in extremo examine districte ultioni subiaceat. Cunctis autem eidem loco sua iura servantibus sit pax domini nostri Jesu Christi, quatenus et hic fructum bone actionis percipiant et apud districtum iudicem premia eterne pacis inveniant. Amen. Amen. Amen.Ego Alexander catholice ecclesie episcopus ss.\u2020 Ego Hubaldus Hostiensis episcopus ss.\u2020 Ego Bernardus Portuensis et sancte Rufine episcopus ss.\u2020 Ego Galterius Albanensis episcopus ss.\u2020 Ego Hubaldus presbiter cardinalis tit. sancte crucis in Hierusalem ss.\u2020 Ego Henricus presbiter cardinalis sanctorum Nerei et Achillei ss.\u2020 Ego Joannes presbiter cardinalis sancte Anastasie ss.\u2020 Ego Guillelmus presbiter cardinalis sancti Petri ad vincula ss.\u2020 Ego Jacinthus diaconus cardinalis sancte Marie in Cosmydin ss.\u2020 Ego Boso diaconus cardinalis sanctorum Cosme et Damiani ss.\u2020 Ego Cinthius diaconus cardinalis sancti Adriani ss.\u2020 Ego Petrus diaconus cardinalis sancti Eustachii iuxta templum Agrippe ss.\u2020 Ego Manfredus diaconus cardinalis sancti Georgii ad velum aureum ss.Datum Senonensie (!), per manum Hermanni, sancte Romane ecclesie subdiaconi et notarii. iii Id. Febr. Indictione xiii. Incarnationis dominice anno mclxiv. Pontificatus vero domni Alexandri pape tertii anno vi.\n"
        },
        {
            "type": "edition",
            "value": "Julius von Pflugk-Harttung, <i>Acta pontificum Romanorum inedita<\/i>, T\u00fcbingen, 1880, I, n. 259, p. 241"
        },
        {
            "type": "sources_manuscrites",
            "value": "Neuere, wenig zuverl\u00e4ssige Abschrift, im Archive des D\u00e9p. Haute-Marne zu Chaumont."
        },
        {
            "type": "remarques",
            "value": ""
        },
        {
            "type": "apparat_critique",
            "value": "a.\u2002Devuensis.",
            "children": {
                "numero_note": "a"
            }
        },
        {
            "type": "notes_historiques",
            "value": "<i>Vergl. die Urk. vom 13 April 1133.<\/i>",
            "children": {
                "numero_note": "1"
            }
        },
        {
            "type": "notes_historiques",
            "value": "<i>Vom 13 April 1124 ; U. Robert, \u00c9tude sur les actes de Calixt II Nr. 344.<\/i>",
            "children": {
                "numero_note": "2"
            }
        },
        {
            "type": "genre",
            "value": "Bulle"
        }
    ]
}