{
    "id": 26013,
    "name": "aposcripta-3110",
    "type": "acte",
    "url": "http:\/\/telma-chartes.irht.cnrs.fr\/aposcripta\/notice\/26013",
    "project_slug": "aposcripta",
    "project_label": "APOSCRIPTA \u2013 Lettres des papes",
    "user": "lettrespontificalesadmin",
    "last_update": "2020-10-19 16:27:52",
    "licence": "Attribution - Pas d\u2019Utilisation Commerciale - Partage dans les M\u00eames Conditions 3.0 France (CC BY-NC-SA 3.0 FR) ",
    "licence_url": "https:\/\/creativecommons.org\/licenses\/by-nc-sa\/3.0\/fr\/",
    "elements": [
        {
            "type": "pape",
            "value": "Innocent VIII (1484-1492)"
        },
        {
            "type": "destinataire",
            "value": "L'official de Lyon",
            "children": {
                "numero_note": "0"
            }
        },
        {
            "type": "date_lieu",
            "value": "Rome, Saint-Pierre"
        },
        {
            "type": "date_libre",
            "value": "MCDLXXXV, XII kalendas novembris, anno secundo"
        },
        {
            "type": "date",
            "value": " 1485\/10\/21",
            "children": {
                "date_deb_annee": "1485",
                "date_deb_mois": "10",
                "date_deb_jour": "21"
            },
            "range": {
                "date_apres": 14851021,
                "date_avant": 14851021
            }
        },
        {
            "type": "analyse",
            "value": "Bulla commissionis Innocentii pape VIII adversus quosdam fratres minoritas qui sibi conventum construere parabant in parochia vill\u00e6 Tincti, in pr\u00e6judicium privilegiorum ordinis Cluniacensis."
        },
        {
            "type": "transcription",
            "value": "<?xml version=\"1.0\" encoding=\"UTF-8\"?>\nInnocentius Episcopus servus servorum Dei, dilecto filio Officiali Lugdunensi, Salutem et Apostolicam benedictionem. Justis et honestis petentium votis libenter annuimus ea qu\u00e6 favoribus prosequimur opportunis: exhibita siquidem nobis nuper pro parte venerabilis fratris nostri Joannis de Borbonio Episcopi Aniciensis, qui etiam Monasterii Cluniacensis Matisconensis di\u0153cesis, ex concessione et dispensatione sedis Apostolic\u00e6 Abbas existit; ac dilectorum filiorum Conventus ejusdem Monasterii petitio continebat, quod dudum cum f\u0153licis recordationis Sixtus Papa quartus pr\u00e6decessor noster, Vicario Provinciali ordinis fratrum minorum Provinci\u00e6 Burgundi\u00e6, juxta morem dicti ordinis, eligendi intra vel prop\u00e8 civitatem Lugdunensem, et alias duas civitates seu villas dict\u00e6 Provinci\u00e6, sine parochialis Ecclesi\u00e6 pr\u00e6judicio, tria loca honesta et commoda, illaque recipienda, et in quolibet eorum unam domum pro perpetuis usu, et habitatione dictorum fratrum cum Ecclesia, campanili humili, campana, cimeterio, et aliis necessariis officinis construi, et \u00e6dificari faciendi, ac iisdem fratribus illam perpetu\u00f2 inhabitandi licentiam per quasdam concessisset; ac dilectus filius Guillelmus Alemandi professor dicti ordinis, et Procurator Vicarii generalis dicti ordinis, pr\u00e6textu litterarum earundem, quandam fertilem vineam prop\u00e8 muros vill\u00e6 de Tincto Viennensis di\u0153cesis, contiguam Prioratui Beat\u00e6 Mari\u00e6 de Tincto Cluniacensis ordinis, et Viennensis di\u0153cesis pr\u00e6dictorum existentem; in quo nonnulli religiosi ipsum Cluniacensem ordinem express\u00e8 professi divina inibi officia diurna, pariter et nocturna Altissimo continu\u00e8 persolventes fore dignoscuntur; et ipsius vine\u00e6 decim\u00e6 ad eundem Prioratum et Parochialem Ecclesiam in cujus districtu vinea ipsa consistit, spectant, elegisset, ac unam novam domum in dicta vinea construi et \u00e6dificari procurasset in non modicum pr\u00e6judicium Abbatis et Conventus Monasterii, et Prioratus, et Parochialis Ecclesi\u00e6 pr\u00e6dictorum nec non privilegiorum dicto ordini Cluniacensi concessorum, illorum pr\u00e6sertim quibus inter alia continetur: quod infra limites parochialium Ecclesiarum dicto Cluniacensi ordini subjectarum, nemini liceat \u00e6dificare novam Ecclesiam, seu domum aut conventum, cujusvis ordinis absque speciali, et expressa licentia et consensu Abbatis dicti Monasterii pro tempore existentis. Procurator tunc existens dicti Cluniacensis ordinis, attendens pr\u00e6missa in non modicum pr\u00e6judicium Cluniacensis ordinis vergere super differentia quam super electione, constructione et \u00e6dificatione pr\u00e6fatis cum dicto Guillelmo habebat: Guillelmus, nominibus amborum ordinum respectiv\u00e8 in certos arbitros seu arbitratores, in civitate Lugdunensi tunc moram trahentes compromisissent: et ipsi arbitri seu arbitratores, per eos arbitralem sententiam, partibus ipsis prius ad plenum per eos auditis, declarassent eosdem de observantia prius, et ante omnia debere, salvis et in suo statu remanentibus privilegiis dicto Cluniacensi ordini concessis satisfacere de damnis, expensis et interesse Prioratus de Tincto su\u00e6que parochialis Ecclesi\u00e6 pr\u00e6dictorum; quam quidem sententiam ipse Guillelmus, et nonnulli sui socii fratres dicti ordinis de observantia, nomine eorum ordinis hujusmodi emologaverint: tandem ab eodem pr\u00e6decessore alias litteras extorserunt, per quas ipse pr\u00e6decessor eisdem fratribus de observantia, \u00e6dificandi de novo in dicta vinea unam novam domum seu Conventum ordinis minorum hujusmodi, satisfaciendo de damnis, expensis, et interesse pietatis, post lapsum anni \u00e0 tempore \u00e6dificationis hujusmodi, concessit: quarum pr\u00e6textu ipse Guillelmus suffultus potestate cujusdam Domini temporalis, conatus est novam domum in dicta vinea \u00e6dificari facere: quo pendente, pr\u00e6fati Abbas et Conventus litteras directas officiali Lugdunensi, per quas eidem officiali mandabatur quod electionem de dicta vinea prop\u00e8 dictum Prioratum de Tincto factam invalidam esse declamet, si sibi constaret unam domum ordinis minorum de observantia in loco de Chaveriis constructam fuisse virtute pr\u00e6fatarum Priorum litterarum, et alias litteras ipsius pr\u00e6decessoris, per quas etiam mandabatur eidem officiali, et nonnullis aliis collegis cum clausula; quatenus ipsi vel duo aut unus eorum, vocatis Guillelmo, et fratribus pr\u00e6dictis ac aliis qui forent evocandi, causam hujusmodi audirent, auditisque hinc inde propositis quod justum foret, appellatione remota, decernerent ac facerent quod decrevisset per censuram Ecclesiasticam firmiter observari, impetrarunt, cum autem, sicut eadem petitio subjungebat, Abbas et Conventus pr\u00e6dicti non valentes probare quod dictus Conventus de Chaveriis qui in eadem di\u0153cesi Viennensi constructus est, et ultra tres leucas \u00e0 loco dict\u00e6 vine\u00e6 sic elect\u00e6 non distat virtute hujusmodi priorum litterarum, nec etiam tempore pr\u00e6dicti pr\u00e6decessoris constructus, sed per antea superioribus temporibus \u00e6dificatus, etiam in dominio et jurisdictione unius ex parochialibus Ecclesiis dicti Cluniacensis ordinis, ratione Prioratus de Mantula, eorum Cluniacensis ordinis, et Viennensis di\u0153cesis; nec etiam docere possint de appellatione, tempore erectionis dict\u00e6 domus de Chaveriis per eosdem Abbatem et conventum, seu eorum nominibus, interjecta; propter qu\u00e6 formidant eundem officialem nolle declarare electionem pr\u00e6dictam fore invalidam, litterarumque posteriorum frustrari effectu; quod cederet in maximum pr\u00e6judicium privilegiorum parochialis Ecclesi\u00e6, et Prioratus de Tincto ac Abbatis et Conventus pr\u00e6dictorum. Pro parte eorundem Abbatis et Conventus nobis fuit humiliter supplicatum ut privilegia sibi concessa qu\u00e6 semper apud sedem Apostolicam in singularem commendationem fuere, et jus parochialis Ecclesi\u00e6 de Tincto hujusmodi ill\u00e6sa, et illibata conservare, ac sibi ne propterea in aliquo graventur super pr\u00e6missis, de opportun\u00e6 declarationis remedio providere, de benignitate Apostolica dignaremur. Nos igitur hujusmodi supplicationibus inclinati, discretioni tu\u00e6 per Apostolica scripta mandamus quatenus et si, et postquam vocatis dicto Guillelmo, et aliis qui fuerint evocandit, tibi legitim\u00e8 constiterit, electionem, et deinde constructionem etiam pr\u00e6textu posteriorum litterarum ordini fratrum minorum hujusmodi, ut pr\u00e6fertur, aut ali\u00e0s sub quibusvis formis, et verborum expressionibus concessarum, de vinea, et de domo nova, ut pr\u00e6fertur, factas, vergere in pr\u00e6judicium privilegiorum dicto Cluniacensi ordini concessorum, et parochialis Ecclesi\u00e6 de Tincto pr\u00e6dictorum, etiam domus de Chaveriis non distantis ultra tres leucas ab hujusmo vinea prop\u00e8 Tinctum, erectionem seu constructionem nov\u00e6 domus in dicta vinea, ut pr\u00e6fertur, factas, nec non singulas litteras pr\u00e6fati pr\u00e6decessoris quoad electionem vine\u00e6, et constructionem pr\u00e6dictas, et inde secuta qu\u00e6cumque, authoritate nostra, prout juris fuerit, revoces, casses, et annulles ac pro cassis, nullis, et juribus vacuis haberi debere eadem authoritate declares; necnon Provinciali Guillelmo, et singulis fratribus ordinis minorum hujusmodi super pr\u00e6missis perpetuum silentium authoritate pr\u00e6dicta imponas, contradictores quoslibet et rebelles per censuram Ecclesiasticam, et alia juris remedia, appellatione postposita, compescendo, invocato ad hoc, si opus fuerit, auxilio brachii s\u00e6cularis, nonobstantibus pr\u00e6missis quibusvis causis, occasione pr\u00e6missorum coram te aut quibusvis aliis judicibus \u00e0 sede pr\u00e6dicta delegatis et subdelegatis, quas in eo statu in quo pendent ad nos harum serie advocamus, et lites penitus extinguimus, necnon f\u0153licis recordationis Bonifacii Pap\u00e6 Octavi pr\u00e6decessoris nostri, qua cavetur, nequis extra suam civitatem, et di\u0153cesim, nisi in certis exceptis casibus, et in illis ultr\u00e0 unam dietam \u00e0 fine su\u00e6 di\u0153cesis ad judicium evocetur, seu ne judices \u00e0 sede pr\u00e6dicta deputati extr\u00e0 civitatem vel di\u0153cesim, in quibus deputati fuerint contra quoscumque procedere, aut alii vel aliis vices suas committere pr\u00e6sumant; dummodo ultra duas dictas, aliquis authoritate pr\u00e6sentium non trahatur, et aliis Apostolicis constitutionibus ac statutis, et consuetudinibus dicti ordinis fratrum minorum juramento, confirmatione Apostolica vel quavis alia firmitate roboratis, contrariis quibuscumque; aut si Guillelmo, et fratribus pr\u00e6dictis vel quibusvis aliis communiter, vel divisim ab eadem sede sit indultum quod interdici suspendi, vel excommunicari extra, vel ultra certa loca ad judicium evocari non possint, per litteras Apostolicas non facientes plenam et expressam ac de verbo ad verbum de indulto hujusmodi, mentionem. Datum Rom\u00e6 apud sanctum Petrum, anno Incarnationis Dominic\u00e6 millesimo quadringentesimo octuagesimo quinto, duodecimo Kalend. Novembris, Pontificatus nostri anno secundo.\n"
        },
        {
            "type": "edition",
            "value": "Ici tir\u00e9e du projet <i>CBMA - Corpus Burgundiae Medii Aevi<\/i>, document 11157. Site du projet Corpus de la Bourgogne du Moyen \u00c2ge, [En ligne] <a href=\"http:\/\/www.cbma-project.eu\" target=\"_blank\">http:\/\/www.cbma-project.eu<\/a>  "
        },
        {
            "type": "sources_manuscrites",
            "value": "\u00e0 renseigner."
        },
        {
            "type": "remarques",
            "value": ""
        },
        {
            "type": "edition_autre",
            "value": "Ici reprise de Pierre Simon, <i>Bullarium sacri Ordinis cluniacensis, complectens plurima privilegia per summos pontifices tum ipsi cluniacensi abbatiae, tum ei subditis monasteriis hactenus concessa<\/i>, Lyon : Jullieron, 1680, p. 216, col. 2-217, col. 2.",
            "children": {
                "numero_note": "0"
            }
        },
        {
            "type": "genre",
            "value": "Mandement (littere cum filo canapis)"
        }
    ]
}