{
    "id": 26290,
    "name": "aposcripta-3369",
    "type": "acte",
    "url": "http:\/\/telma-chartes.irht.cnrs.fr\/aposcripta\/notice\/26290",
    "project_slug": "aposcripta",
    "project_label": "APOSCRIPTA \u2013 Lettres des papes",
    "user": "lettrespontificalesadmin",
    "last_update": "2020-10-19 16:27:58",
    "licence": "Attribution - Pas d\u2019Utilisation Commerciale - Partage dans les M\u00eames Conditions 3.0 France (CC BY-NC-SA 3.0 FR) ",
    "licence_url": "https:\/\/creativecommons.org\/licenses\/by-nc-sa\/3.0\/fr\/",
    "elements": [
        {
            "type": "pape",
            "value": "Innocent II (1130-1143)"
        },
        {
            "type": "date_lieu",
            "value": "Lateran"
        },
        {
            "type": "date_libre",
            "value": "1139 November 18"
        },
        {
            "type": "date",
            "value": " 1139\/11\/18",
            "children": {
                "date_deb_annee": "1139",
                "date_deb_mois": "11",
                "date_deb_jour": "18"
            },
            "range": {
                "date_apres": 11391118,
                "date_avant": 11391118
            }
        },
        {
            "type": "analyse",
            "value": "Innocenz II best\u00e4tigt dem Abte Adam von St.-Andr\u00e9 du Cateau-Cambr\u00e9sis (D. Cambrai) die Besitzth\u00fcmer und Rechte seines Klosters<a class=\"note\" href=\"#note-1\">1<\/a>."
        },
        {
            "type": "transcription",
            "value": "<?xml version=\"1.0\" encoding=\"UTF-8\"?>\nInnocentius episcopus servus servorum dei dilecto filio Adae, abbati monasterii sancti Andreae apostoli, eiusque successoribus regulariter substituendis, in perpetuum. In eminenti apostolicae sedis specula a domino constituti, ecclesiis dei, tam vicinis quam longe positis, paterna nos convenit sollicitudine providere, ut, quemadmodum patres vocamur in nomine, ita etiam comprobemur in opere et, qui ad animarum regimen assumpti sumus, eas a pravorum nequitia tueamur et beati Petri patrocinio confovere curemus. Dignum est enim, ut idem apostolorum princeps, cui a domino specialiter datum est, magisterium universalis ecclesiae obtinere, bona beati Andreae Germani et coapostoli sui propensius tueatur et suum ei suffragium tanto libentius impertiatur, quanto et propinquitas sanguinis et passio similis per crucis patibulum vere fecit esse germanos. Proinde, dilecte in domino fili Adam abbas, tuis rationabilibus postulationibus clementer annuimus et monasterium sancti Andreae, quod in Cameracensi diocesi situm est, cui auctore domino preesse dignosceris, praesenti scripti pagina communimus. Statuentes, ut quascumque possessiones, quaecumque bona in praesentiarum tam in ecclesiis, quam in villis, alodiis, terris seu ceteris rebus idem venerabilis locus iuste et legitime possidet aut in futurum concessione pontificum, largitione regum, liberalitate principum, oblatione fidelium seu aliis iustis modis, praestante domino, poterit adipisci, firma tibi tuisque successoribus et illibata permaneant, dum tamen idem locus iuxta venerabilis fratris nostri Nicolai, Cameracensis episcopi2, tuumque desiderium ecclesiae Cameracensi subiectus liber et inconcussus ab omni infestatione consistat. Nominatim vero haec vestro monasterio confirmamus : ecclesiam sancti Martini in Castro novo cum appendenti ecclesia sancti Quintini sub obsonio duodecim denariorum, curtilia et hospites cum toto districto sine omni exactione, duo molendina, teloneum et furnum unum et terram arabilem ex utraque parte ipsius castri, vineam quoque prope villam sitam, addimus etiam villulam et altare Basnelli cum tota decima et allodio eta silva et terra arabili cum districto et omni iure suo, altare de Ferrariis cum tota decima, altare de Ors cum tota decima sub obsonio quatuor denariorum, similiter villam de Fontanis cum alodio et silva et terra arabili cum toto districto, et altareb sub obsonio quatuor denariorum, altare de Petroso et allodium, hospites et curtilia, allodium de Wateniis et de Comblaiis in terra arabili, curtilibus, pratis, silva et aquis, allodium de sancto Gaugerico et de Waisvillers in terra arabili, curtilibus, pratis, silva et aquisc, capellam de Runa sub obsonio duodecim denariorum cum terra arabili et curtilibus et duabus partibus totius decimae et omni iure suo, villam de Aldreniis, hospites, curtilia, silvam, terram arabilem, prata, duo molendina, terram inibi sanctae Aldegundis censualiter pro quatuor solidis, totum allodium Heberti cum toto districto totius villae sine omni advocatia, allodium de Bussut cum hospitibus et terra arabili et prato et familia, altare de Mamriu cum appenditio suo Berciliis, altare de Germiniaco cum appenditio suo altari de Heriniis, cuius atrium usque in medium fluvii Scaldi extenditur, cum hospitibus et iure altaris et terra arabili, altare de Squarminio cum curtilibus et terra arabili, et partemd in molendino, allodia etiam Raineri presbiteri et Lieberti, altare de Verten cum appenditio suo Romeriis, curtilia et hospites et terram arabilem, altare de sancto Piatone sub obsonio octo denariorum, nec plus ullo tempore, curtilia et terram arabilem, villam de Briastro, allodium et terram arabilem, molendinum unum cum districto, altare sub obsonio duodecim denariorum et duas partes totius decimae apud Fontanas de Colle, terram arabilem et curtilia et partem decimae, in Ovillare curtilia et terram arabilem, altare de Lelgiis cum appenditiis suis, allodium de Hunelinicurte et de Gillenicurtee, capellam de Busteroniscurtef sub obsonio quatuor denariorum, allodia et terram arabilem, altare de Aldoniscurte cum appenditio suo Herrulgiis, et allodium Joannis, altare de sancto Benigno cum tota decima, altare de Insi cum appenditio suo Mediolanis et tota decima et allodio et tota villa praeter sextam decimam partem, altare de Vallis et altare de Andeliis, villam de Besneio cum terra arabili et appenditiis suis in vineis et hospitibus, furnum unum et familiam sancti Andreae, vinagia quoque in Lauduno, apud Bruerias mansum unum duorum solidorum, apud Osnuncurt (?)g decem arabiles campellosh 3, allodium de Bekegniisi cum silva et terra arabili, altare de Formiisj, curtilia et tres partes allodii totius villae, villam de Mares et altare cum decima tota et hospitibus et terra arabili, altare de Liniaco cum hospitibus et tota decima, apud villam Oen hospites et terram arabilem, in civitate Cameracensi altare sancti Martini sub obsonio duodecim denariorum et iure suo et decimak de Faudevilla, decimak quoque sancti Sepulchri quinque modiorum, et decimak apud Abundicurtem, apud Fontanas trans Cameracum allodium, quod Gerardus puer cum participibus4 suis dedit sancto Andreae ; in Attrebatensi episcopatu altare de Liniaco, altare de Lambris cum appenditio suo Quinci, altare de Furnis sub obsonio duodecim denariorum, et in ipsa civitate tres mansos, praeterea duas partes obsoniorum omnium altarium vestrorum, quas vestrum monasterium in beneficio episcopalis capellaniae per Cameracenses episcopos hactenus legitime tenuit, vobis nihilominus confirmamus. Adicimus etiam, ut si in eodem episcopatu commune interdictum prolatum fuerit, exclusis excommunicatis et interdictis, liceat vobis clausis ianuis submissa voce divina officia celebrare. Sepulturam insuper eiusdem monasterii liberam esse sancimus, ut videlicet eorum, qui se illic sepeliri deliberaverint devotioni et supremae voluntati, nisi forte excommunicati sint, nullus obsistat, salva nimirum iustitia et reverentia matricis ecclesiae. Obeunte vero te, nunc eiusdem loci abbate, vel tuorum quolibet successorum, nullus ibi qualibet subreptionis astutia seu violentia praeponatur, nisi quem fratres communi assensu aut fratrum pars consilii sanioris secundum dei timorem et beati Benedicti regulam providerint eligendum. Confirmamus nihilominus vobis, quod nobiles viri Guido scilicet Leskeriensis cum filiis suis Burgardo et Godefrido et Ingelrannus de Cocceiaco wionagium5 de omni vino, quod apud Besneium habuerit vestrum monasterium, quod wionagium videlicet devotionis intuitu vobis condonaverunt. Si qua igitur in posterum ecclesiastica secularisve persona hanc nostrae constitutionis paginam sciens contra eam temere venire tentaverit, secundo tertiove commonita, nisi reatum suum congrua satisfactione correxerit, potestatis honorisque sui dignitate careat, reamque se divino iudicio existere de perpetrata iniquitate cognoscat, et a sacratissimo corpore ac sanguine dei et domini, redemptoris nostri Jesu Christi, aliena fiat atque in extremo examine districtae ultioni subiaceat. Cunctis autem eidem loco sua iura servantibus sit pax domini nostri Jesu Christi, quatenus et hic fructum bonae actionis percipiant et apud districtum iudicem praemia aeternae pacis inveniant. Amen. Amen. Amen.(R) Ego Innocentius catholicae ecclesiae episcopus ss. (M)\u2020 Ego Conradus Sabinensis episcopus ss.\u2020 Ego Theodewinus sanctae Rufinae episcopus ss.\u2020 Ego Albertus Albanensis episcopus ss.\u2020 Ego Albericus Hostiensis episcopus ss.\u2020 Ego Gerardus presbiter cardinalis tit. sancti Crucis in Jerusalem ss.\u2020 Ego Lucas presbiter cardinalis tit. sanctorum Johannis et Pauli ss.\u2020 Ego Ivo presbiter cardinalis sancti Laurentii tit. Damasi ss.\u2020 Ego Grisogonus presbiter cardinalis tit. Praxedis ss.\u2020 Ego Gregorius diaconus cardinalis sancti Angeli ss.Dat. Laterani, per manum Aimerici, sanctae Romanae ecclesiae diaconi cardinalis et cancellarii. xiv Kl. Decembris. Indictione iii. Anno dominicae incarnationis mcxxxviiii. Pontificatus vero domni Innocentii secundi papae anno x.\n"
        },
        {
            "type": "edition",
            "value": "Julius von Pflugk-Harttung, <i>Acta pontificum Romanorum inedita<\/i>, T\u00fcbingen, 1880, I, n. 181, p. 160-161"
        },
        {
            "type": "sources_manuscrites",
            "value": "Zwei moderne Abschriften (Fonds de St.-Andr\u00e9 de C\u00e2teau), im Archive des D\u00e9p. Nord zu Lille."
        },
        {
            "type": "remarques",
            "value": ""
        },
        {
            "type": "apparat_critique",
            "value": "a.\u2002allodium in, <i>wohl verlesen, vergl. 2 Zeilen tiefer<\/i> Fontanis <i>etc. und 29 Feb. 1146<\/i>.",
            "children": {
                "numero_note": "a"
            }
        },
        {
            "type": "apparat_critique",
            "value": "b.\u2002altari ? <i>doch auch 15 Zeilen tiefer bei<\/i> Biastro <i>etc. steht<\/i> altare, <i>1146<\/i> : altare eiusdem villae.",
            "children": {
                "numero_note": "b"
            }
        },
        {
            "type": "apparat_critique",
            "value": "c.\u2002<i>Von<\/i> allodium de sancto <i>bis<\/i> aquis <i>fehlt in einer Copie<\/i>.",
            "children": {
                "numero_note": "c"
            }
        },
        {
            "type": "apparat_critique",
            "value": "d.\u2002parte ? <i>so 1146<\/i>.",
            "children": {
                "numero_note": "d"
            }
        },
        {
            "type": "apparat_critique",
            "value": "e.\u2002<i>Eine Cop.<\/i> : Villenicurte",
            "children": {
                "numero_note": "e"
            }
        },
        {
            "type": "apparat_critique",
            "value": "f.\u2002<i>Eine Cop.<\/i> : Buteroniscurte",
            "children": {
                "numero_note": "f"
            }
        },
        {
            "type": "apparat_critique",
            "value": "g.\u2002<i>1146<\/i> : Omundicurtem.",
            "children": {
                "numero_note": "g"
            }
        },
        {
            "type": "apparat_critique",
            "value": "h.\u2002<i>Von<\/i> Bruerias <i>bis<\/i> campellos <i>fehlt in einer Copie<\/i>.",
            "children": {
                "numero_note": "h"
            }
        },
        {
            "type": "apparat_critique",
            "value": "i.\u2002<i>Eine Cop.<\/i> : Bequegniis",
            "children": {
                "numero_note": "i"
            }
        },
        {
            "type": "apparat_critique",
            "value": "j.\u2002<i>Eine Cop.<\/i> : Forniis.",
            "children": {
                "numero_note": "j"
            }
        },
        {
            "type": "apparat_critique",
            "value": "k.\u2002<i>Wenn nicht verlesen, so von<\/i> sub <i>abh\u00e4ngig, 1146 anders und deutlicher gewandt<\/i>.",
            "children": {
                "numero_note": "k"
            }
        },
        {
            "type": "notes_historiques",
            "value": "<i>Vergl. die Urk. vom 29 Febr. 1146.<\/i>",
            "children": {
                "numero_note": "1"
            }
        },
        {
            "type": "notes_historiques",
            "value": "<i>Nikolaus I, Bischof von Cambrai, c. 1137\u20131167.<\/i>",
            "children": {
                "numero_note": "2"
            }
        },
        {
            "type": "notes_historiques",
            "value": "<i>Campellus, Campicellus, Campulus : kleines St\u00fcck Land<\/i>, \u201e<i>Champelet, Champeau<\/i>\u201c. <i>Du Cange, Gloss. II p. 63, VII p. 88 ; Brinckmeier, Gloss. I S. 452 ; La Curne de Sainte-Palaye, Dict. Hist. III p. 349.<\/i>",
            "children": {
                "numero_note": "3"
            }
        },
        {
            "type": "notes_historiques",
            "value": "<i>Antheilhaber.<\/i>",
            "children": {
                "numero_note": "4"
            }
        },
        {
            "type": "notes_historiques",
            "value": "<i>Vinagium, Vinaticum, Vinada : a<\/i>) <i>Praestatio certae vini mensurae pro vineis, quae vulgo domino feudi exsolvitur vice census.<\/i> \u201e<i>Droit de vinages, vinage<\/i>\u201c ; <i>Weinzins ; er konnte auch in Geld oder sonst wie geleistet werden. b<\/i>) <i>Droit sur le vin. Ragueau, Gloss. II p. 465 ; Du Cange, Gloss. VI p. 835, VII p. 334 ; Encycl. M\u00e9th. Jur. VII p. 240 ; Dupin et Laboulaye, Gloss. II p. 132. Nicht zu verwechseln mit : Vionagium : praestatio quae domino exsolvitur pro securo transitu vel mercium exportatione per terram illius. Du Cange, VI p. 845 ; Mon. SS. XXI p. 667.<\/i>",
            "children": {
                "numero_note": "5"
            }
        },
        {
            "type": "genre",
            "value": "Bulle"
        }
    ]
}