{
    "id": 26144,
    "name": "aposcripta-3223",
    "type": "acte",
    "url": "http:\/\/telma-chartes.irht.cnrs.fr\/aposcripta\/notice\/26144",
    "project_slug": "aposcripta",
    "project_label": "APOSCRIPTA \u2013 Lettres des papes",
    "user": "lettrespontificalesadmin",
    "last_update": "2020-10-19 16:27:55",
    "licence": "Attribution - Pas d\u2019Utilisation Commerciale - Partage dans les M\u00eames Conditions 3.0 France (CC BY-NC-SA 3.0 FR) ",
    "licence_url": "https:\/\/creativecommons.org\/licenses\/by-nc-sa\/3.0\/fr\/",
    "elements": [
        {
            "type": "pape",
            "value": "Nicolas II (1058-1061)"
        },
        {
            "type": "date_lieu",
            "value": "n.c."
        },
        {
            "type": "date_libre",
            "value": "V nonas mai, MLXI, anno III, indictione XIIII"
        },
        {
            "type": "date",
            "value": " 1061\/05\/03",
            "children": {
                "date_deb_annee": "1061",
                "date_deb_mois": "05",
                "date_deb_jour": "03"
            },
            "range": {
                "date_apres": 10610503,
                "date_avant": 10610503
            }
        },
        {
            "type": "analyse",
            "value": "\u2020 Nikolaus II zeigt allen S\u00f6hnen der Kirche an, dass er das Kloster Montier-en-Der (D. Ch\u00e2lons-sur-Marne) in apostolischen Schutz nehme und ihm seine Besitzth\u00fcmer und Rechte best\u00e4tige<a class=\"note\" href=\"#note-1\">1<\/a>."
        },
        {
            "type": "transcription",
            "value": "<?xml version=\"1.0\" encoding=\"UTF-8\"?>\nX. In nomine sanct\u0229 et individu\u0229 trinitatis, patris et filii et spiritus sancti. Nico|laus episcopus servus servorum dei omnibus tam presentibus quam futuris filiis ecclesi\u0229. Credita nobis sollicitudine commoniti, omnium ecclesiarum dei curam agere debemur, sancte autem Roman\u0229 ecclesi\u0229 multo adtentius, cui dei misericordia non nostris meritis presidemus. Quapropter spirituali zelo contra dei hostes accensi et ex afflictione servorum dei anxiati pro hoc summopere niti studemus et laborare, quatinus sanct\u0229 religionis cultores deo in monasteriis suis quiete possint deservire. Scientes procul dubio, quia tunc apud eum nostra merces erit copiosa, si venerabilia loca per nos ad meliorem statum fuerint perducta et ideo, sicut diximus, debite custodie pieque sollicitudinis zelum observantes, munimus et defendimus Dervensem abbatiam per privilegium apostolice auctoritatis secundum consuetudinem antecessorum nostrorum eorumque regum, qui pro anim\u0229 su\u0229 remedio eam primitus construxerunt et defensioni sanct\u0229 Roman\u0229 ecclesi\u0229 assignaverunt et tradiderunt, cum his videlicet bonis omnibusque pertinentiis, qu\u0229 modo iuste tenet vel in futurum iuste et legaliter adquisierit. Est enim ipsa abbatia constructa in honore beatissimorum apostolorum Petri et Pauli, ubi corpore requiescit sanctus et gloriosus Christi martir Bercharius et venerabilis Christi virgo Teodosia. In primis hoc statuentes, ut congregatio ipsius monasterii liberam licentiam habeat super se abbatem eligendi secundum regulam sancti Benedicti et, ut nulla persona preripere sibi pastoralem curam presumat sine communi consensu ipsius congregationis. Similiter quoque notum et stabilitum esse volumus, quod sub inviolabili tuitione et defensione apostolici privilegii omnes facultates Dervensis abbatie posite sunt, quicquid scilicet illi ecclesie aut est datum aut est dandum ; scilicet vill\u0229, ecclesi\u0229, decim\u0229, vine\u0229, terr\u0229 cult\u0229 et incult\u0229, silv\u0229, molendini2, aqu\u0229 aquarumve decursus, consuetudines etiam ecclesiastice, ab hac sancta sede apostolica illi indult\u0229, et precepta regum decretaque pontificum. Preterea curavimus, nominatim conventiones ponere, quibus eidem loco tradit\u0229 sunt res divers\u0229 per sollicitam suggestionem huius filii nostri Brunonis, quem felix predecessor noster Leo nonus eiusdem loci fratribus consecravit abbatem3, eiusque devota postulatione huius privilegii studuimus gratiam stabilire : videlicet alodium de Dervo cum ecclesia et partem de sanct\u0229 Margarit\u0229 ecclesia, quam predictis sanctis vicecomes Tecelinus cum sua coniuge contulit, predia quoque, qu\u0229 frater Kalo consentiente patre cum parentibus suis in conversione sua concessit eidem loco, et alodium de suburbio castri Belfort et terras de Husan\u0229 curte, adhuc autem et conventionem, qua de aliquibus ecclesiis et Gurgione villa cum rebus aliis sibi invicem convenerunt, Gozfridus scilicet miles de Junevilla et idem premissus nostre filiationis abbas. Quare omnino sub anathematis vinculo interdicimus, ne quisquama abbas vel monachus ex eo loco auferat, neque ullus finita conventione, ista scilicet Gozfridi4 et suorum heredum, quocumque modo a loci dominio subdita possideat. Si quis vero contra statuta Romane ecclesi\u0229 hanc auctoritatem nostri privilegii infringere voluerit, inlusum a sese esse recognoscat et sub sententia Petri post Ananiam et Saphiram mortuum se veraciter intelligat, nisi ad congruam satisfactionem recurrat. Auctoritate igitur dei omnipotentis et sanct\u0229 dei genitricis Marie et sancti Petri omniumque apostolorum et electorum dei excommunicamus et omni genere maledictionis expugnamus illum, qui contra hoc sant\u0229 Roman\u0229 ecclesi\u0229 decretum violare presumpserit, auctoritatis nostre hoc concessum privilegium nisi penituerit per ver\u0229 emendationis fructum.(R) (M)Datum per manus Bernardi, sanct\u0229 Prenestin\u0229 ecclesi\u0229 episcopi. v Nonas Mai. Anno ab incarnatione domini millesimo sexagesimo i. Anno iii pontificatus Nicolai pape secundi. Indictione xiiii.\n"
        },
        {
            "type": "edition",
            "value": "Julius von Pflugk-Harttung, <i>Acta pontificum Romanorum inedita<\/i>, T\u00fcbingen, 1880, I, n. 35, p. 34 <a target=\"_blank\" href=\"https:\/\/archive.org\/stream\/actapontificumr00churgoog#page\/n52\/mode\/2up\"> [en ligne]<\/a>."
        },
        {
            "type": "sources_manuscrites",
            "value": "A. FRANCE, Chaumont, Archives d\u00e9partementales de Haute-Marne, 7 H 15.",
            "children": {
                "type_source": "Original"
            }
        },
        {
            "type": "sources_manuscrites",
            "value": "G1. FRANCE, Paris, Biblioth\u00e8que nationale, Nouv. acq. lat. 1251, fol. 64, 65.",
            "children": {
                "type_source": "Copie moderne"
            }
        },
        {
            "type": "remarques",
            "value": "Die Nachbildung ist durch Feuchtigkeit zum gr\u00f6ssten Theile in den Schriftz\u00fcgen zerst\u00f6rt. Perg. vielleicht italienisch, breit 0,45\u20130,46, lang, 0,56\u20130,585, unten umgeschlagen, durch 3 L\u00f6cher geht die lila, etwas gedrehte, Seidenschnur an der die Bulle hing, die jetzt verloren, Faltung der Privilegien. Erste Zeile in mittelgrossen Uncialen ausgef\u00fchrt, das Uebrige von Nominatio und Adresse halblang, der Context in rein fr\u00e4nkischer Urkundenminuskel, die Datumformel wurde von anderer oder sehr geschickt verstellter Hand geschrieben, Rota und Monogramm entsprechen im Wesentlichen den echten, erstere tr\u00e4gt als Inschrift richtig <span class=\"small-caps\">Petrus Paulus<\/span>, als Umschrift, so weit sich noch erkennen l\u00e4sst, <span class=\"small-caps\">Confirma hoc deus, quod operatus es in nobis<\/span>. \u2014 Die Invocation und einige Stellen des Contextes deuten auf Ueberarbeitung, doch geht dieses Actenst\u00fcck auf ein Original zur\u00fcck, dem es \u00e4usserlich mit gr\u00f6sster Meisterschaft nachgebildet ist."
        },
        {
            "type": "apparat_critique",
            "value": "a.\u2002<i>Wohl<\/i> quicquam.",
            "children": {
                "numero_note": "a"
            }
        },
        {
            "type": "notes_historiques",
            "value": "<i>Vergl. die Urk. vom 14 Juli 1057.<\/i>",
            "children": {
                "numero_note": "1"
            }
        },
        {
            "type": "notes_historiques",
            "value": "<i>Molendinus, molinus ; gew\u00f6hnlicher<\/i> \u201e<i>molendinum<\/i>\u201c. <i>Du Cange, IV p. 466.<\/i>",
            "children": {
                "numero_note": "2"
            }
        },
        {
            "type": "notes_historiques",
            "value": "<i>Vergl. die Datirung zu Nr. 18.<\/i>",
            "children": {
                "numero_note": "3"
            }
        },
        {
            "type": "notes_historiques",
            "value": "<i>Vergl. Nr. 19.<\/i>",
            "children": {
                "numero_note": "4"
            }
        },
        {
            "type": "genre",
            "value": "Privil\u00e8ge solennel"
        },
        {
            "type": "regeste",
            "value": "Jaff\u00e9-Loewenfeld, <i>Regesta pontificum Romanorum<\/i>, 2 vol., Leipzig, 1885-1888, n. 4465 <a target=\"_blank\" href=\" https:\/\/gallica.bnf.fr\/ark:\/12148\/bpt6k55983718\/f602.item\"> [en ligne]<\/a>."
        },
        {
            "type": "edition_autre",
            "value": "Laurent Morelle, \"Examen de trois privil\u00e8ges pontificaux du XIe si\u00e8cle en faveur de Montier-en-Der\", in <i<Cahiers Haut-Marnais<\/i>, 161 (1985), p. 22-42, n. 2, p. 35-38 (fac-simil\u00e9, p. 36)."
        },
        {
            "type": "edition_autre",
            "value": "Ludwig Falkenstein, \"Les privil\u00e8ges et les lettres de la chancellerie pontificale dans le chartrier de Montier-en-Der (XIe et XIIe si\u00e8cles)\", in <i>Les moines du Der : 673-1790, actes du colloque international d'histoire<\/i>, Joinville-Montier-en-Der, 1er-3 oct. 1998, Langres, 2000, p. 259-294, p. 265."
        },
        {
            "type": "edition_autre",
            "value": "<i>Analecta juris pontificii<\/i>, t. 10, col. 1392."
        },
        {
            "type": "edition_autre",
            "value": "acte n. 175 dans \u00ab Chartes originales ant\u00e9rieures \u00e0 1121 conserv\u00e9es en France \u00bb, C\u00e9dric Giraud, Jean-Baptiste Renault et Beno\u00eet-Michel Tock, \u00e9ds., Nancy : Centre de M\u00e9di\u00e9vistique Jean Schneider ; \u00e9ds \u00e9lectronique Orl\u00e9ans : Institut de Recherche et d'Histoire des Textes, 2010 (Telma) <a target=\"_blank\" href=\" http:\/\/www.cn-telma.fr\/originaux\/charte175\/\"> [en ligne]<\/a>."
        },
        {
            "type": "sources_manuscrites",
            "value": "G2. FRANCE, Paris, Biblioth\u00e8que nationale, ms. lat. Moreau 27, fol. 157.",
            "children": {
                "type_source": "Copie moderne"
            }
        },
        {
            "type": "sources_manuscrites",
            "value": "F. FRANCE, Chaumont, Archives d\u00e9partementales de Haute-Marne, 7 H 1, fol. 64 (Cart. de l\u2019abbaye de Montier-en-Der, XIIe s.).",
            "children": {
                "type_source": "Cartulaire"
            }
        },
        {
            "type": "destinataire",
            "value": "Tous les fils de l'Eglise tant pr\u00e9sents que futurs"
        }
    ]
}