{
    "id": 149043,
    "name": "aposcripta-8608",
    "type": "acte",
    "url": "http:\/\/telma-chartes.irht.cnrs.fr\/aposcripta\/notice\/149043",
    "project_slug": "aposcripta",
    "project_label": "APOSCRIPTA \u2013 Lettres des papes",
    "user": "j_theryastruc",
    "last_update": "2020-10-19 16:39:52",
    "licence": "Attribution - Pas d\u2019Utilisation Commerciale - Partage dans les M\u00eames Conditions 3.0 France (CC BY-NC-SA 3.0 FR) ",
    "licence_url": "https:\/\/creativecommons.org\/licenses\/by-nc-sa\/3.0\/fr\/",
    "elements": [
        {
            "type": "pape",
            "value": "Cl\u00e9ment IV (1265-1268)"
        },
        {
            "type": "date_libre",
            "value": "IX kalendas Julii, anno primo"
        },
        {
            "type": "date",
            "value": "1265\/06\/23",
            "children": {
                "date_deb_annee": "1265",
                "date_deb_mois": "06",
                "date_deb_jour": "23"
            },
            "range": {
                "date_apres": 12650623,
                "date_avant": 12650623
            }
        },
        {
            "type": "date_lieu",
            "value": "P\u00e9rouse"
        },
        {
            "type": "analyse",
            "value": "Papst Clemens IV. beauftragt auf Bitte des Heiliggeistspitals zu Wimpfen den Dekan der Heiligdreifaltigkeitskirche zu Speyer, das von dem Scholastiker der Stra\u00dfburger Kirche gegen den Schenken Konrad von Limpurg wegen unrechtm\u00e4\u00dfiger Aneignung der Kirche von Flein ausgesprochene Exkommunikationsurteil zu vollziehen."
        },
        {
            "type": "sources_manuscrites",
            "value": "E. ALLEMAGNE, StA Augsburg, Wimpfen Heilig-Geist-Spital Urkunde 8. Nur noch Reste der Hanfschnur, an welcher das Siegel hing, sind vorhanden. In der Mitte unterhalb des Oberrandes steht : <i>cuius<\/i> (zwei-) aut (einmal durchstrichen), im rechten Obereck : <i>bo lv<\/i> (beides dreimal schr\u00e4g durchstrichen), links unterhalb des Textes : <i>zic alex<\/i>Plica au\u00dfen rechts : <i>G. Mutin<\/i> ; hinten im linken Obereck ein H\u00e4kchen, etwas schief darunter <i>F<\/i> (durchstrichen) <i>lin<\/i>, dahinter ein der Abk\u00fcrzung f\u00fcr et \u00e4hnliches Zeichen ; in der Mitte ein sog. Patriarchenkreuz.",
            "children": {
                "type_source": "Exp\u00e9dition"
            }
        },
        {
            "type": "edition",
            "value": "<i>Wirtembergische Urkundenbuch<\/i>, VI, Stuttgart : In Commission bei Karl Aue, 1894, n. 1817, p. 211-212 <a target=\"_blank\" href=\"http:\/\/www.wubonline.de\/?wub=2533\"> [en ligne]<\/a>."
        },
        {
            "type": "transcription",
            "value": "<?xml version=\"1.0\" encoding=\"UTF-8\"?>\nClemens episcopus, servus servorum Dei, dilecto filio .. decano ecclesie sancte Trinitatis Spirensis, salutem et apostolicam benedictionem. Sua nobis dilecti filii .. magister et fratres hospitalis sancti Spiritus in Wimpina ad hospitale nostrum sancti Spiritus in Saxia de Urbe spectantis petitione monstrarunt, quod, cum ipsi nobilem virum Conradum pincernam de Limpurc, Herbipolensis diocesis, super eo, quod idem eos ecclesia de Fline ad dictum hospitale de Wimpina spectante contra iustitiam spoliarat, coram .. scolastico Argentinensis ecclesiea auctoritate apostolica traxissent in causam, tandem scolasticus ipse in dictum nobilem, quia citatus legitime in prefixo sibi termino peremptorio competenti comparere coram eo per se vel ydoneum responsalem contumaciter non curavit, propter huiusmodi contumatiam manifestam excommunicationis sententiam exigente iustitia promulgavit, quam dictus nobilis dampnabiliter vilipendens redire ad mandatum ecclesie non curavit decennio et amplius iam elapso in proprie salutis dispendium, dictorum magistri et fratrum preiudicium et ecclesiastice discipline contemptum. Quare dicti magister et fratres humiliter petebant a nobis, ut providere super hoc paterna sollicitudine curaremus. Quocirca discretioni tue per apostolica scripta mandamus, quatinus, si est ita, sententiam ipsam, sicut rationabiliter est prolata, facias auctoritate nostra usque ad satisfactionem condignam appellatione remota inviolabiliter observari. Quod si forte dictus nobilis eandem sententiam, postquam constiterit ipsam rationabiliter fuisse prolatam, per quatuor menses animo sustinueritb indurato, tu dictam sententiam singulis diebus dominicis et festivis, pulsatis campanis et candelis accensis, in locis, in quibus expedire videris, per te ac alios sollempniter facias publicari aliasque manum tuam contra ipsum aggraves, prout protervitas meruerit contumacis. Datum Perusii, VIIII kalendas julii, pontificatus nostri anno primo.\n"
        },
        {
            "type": "apparat_critique",
            "value": "Die folgenden f\u00fcnf Worte sind mit dunklerer Tinte auf einer Rasur geschrieben.",
            "children": {
                "numero_note": "a"
            }
        },
        {
            "type": "apparat_critique",
            "value": "Das Original hat falsch <i>sustinuerint<\/i>.",
            "children": {
                "numero_note": "b"
            }
        },
        {
            "type": "destinataire",
            "value": "Le doyen de l'\u00e9glise de la Sainte-Trinit\u00e9 de Spire"
        }
    ]
}