{
    "id": 25659,
    "name": "aposcripta-2756",
    "type": "acte",
    "url": "http:\/\/telma-chartes.irht.cnrs.fr\/aposcripta\/notice\/25659",
    "project_slug": "aposcripta",
    "project_label": "APOSCRIPTA \u2013 Lettres des papes",
    "user": "lettrespontificalesadmin",
    "last_update": "2020-10-19 16:27:47",
    "licence": "Attribution - Pas d\u2019Utilisation Commerciale - Partage dans les M\u00eames Conditions 3.0 France (CC BY-NC-SA 3.0 FR) ",
    "licence_url": "https:\/\/creativecommons.org\/licenses\/by-nc-sa\/3.0\/fr\/",
    "elements": [
        {
            "type": "pape",
            "value": "Nicolas III (1277-1280)"
        },
        {
            "type": "destinataire",
            "value": "( )",
            "children": {
                "numero_note": "0"
            }
        },
        {
            "type": "date_lieu",
            "value": "n.c."
        },
        {
            "type": "date_libre",
            "value": "1279, 23 janvier"
        },
        {
            "type": "date",
            "value": " 1279\/01\/23",
            "children": {
                "date_deb_annee": "1279",
                "date_deb_mois": "01",
                "date_deb_jour": "23"
            },
            "range": {
                "date_apres": 12790123,
                "date_avant": 12790123
            }
        },
        {
            "type": "analyse",
            "value": "X pape<br\/>PRIVILEGIUM NICOLAI PAP\u00c6 III, QUOD OMNES PRIORES ET MONACHI ORDINIS CLUNIACENSIS SOLI ABBATI CLUNIACENSI PROFESSIONEM FACIANT, ETC. PRIVILEGIUM NICOLAI PAP\u00c6 III. quod omnes Priores et Monachi Ordinis soli Clun. Abbati professionem faciant, eique promittant obedientiam, ac rationem reddant de spiritualibus et temporalibus: quodque ipse Abbas Clun. liberam habeat institutionem et destitutionem eorumdem Priorum."
        },
        {
            "type": "transcription",
            "value": "<?xml version=\"1.0\" encoding=\"UTF-8\"?>\n[Nicolaus Episcopus servus servorum Dei, dilecto filio Yvoni Abbati Clun. salutem et Apostolicam benedictionem. In decentiam et ornatum redundat totius corporis, cum ipsius \u00e0 capite membra non discrepant, sed veluti subjecta obediunt Capiti, eid\u00e9mque obsequentia ad ejus nutum faciunt universa. Cum igitur \u00e0 tempore cujus non extat memoria in Cluniacensi Ordine pacific\u00e8 fuerint, ex quo multum floruisse dignoscitur, observatum ut Priores Monachi ejusdem Ordinis ubilibet commorantes, ac loca eorum, qu\u00e6 Monasterio et Abbati Clun. noscuntur fuisse concessa, subjecta sint Abbati Cluniacensi in spiritualibus et temporalibus pleno jure, ac iidem Priores et Monachi soli Abbati Clun. professionem faciant, promittantque usque ad mortem ipsi Abbati, quoties novus instituitur; obedientiam manualem, et benedictionem recipiant ab eodem, et reddant ad mandatum ipsius Abbatis de singulis, qu\u00e6 ad administrationem spiritualium vel temporalium pertinent, rationem; ac Abbas Cluniacensis, qui pro tempore fuerit, liberam institutionem et destitutionem habeat in eosdem: super quibus omnibus hactenus nulla, sicut in nostra pr\u00e6sentia pro parte tua propositum extitit, qu\u00e6stio mota fuit; sed tu, et pr\u00e6decessores tui fuistis liber\u00e8 ac pacific\u00e8 in possessione, vel quasi omnium pr\u00e6dictorum. Nos attendentes quod h\u00e6c omnia reddunt eumdem Ordinem celebrem et insignem, cum populus sub uno Rectore prosperari consueverit, et cadere sub diversis; ea omnia ad instar felicis Recordationis Innocentii, et Clementis IV. pr\u00e6decessorum nostrorum Romanorum Pontificum approbantes, ipsa, prout rationabiliter facta sunt, et hactenus pacific\u00e8 observata sunt, auctoritate Apostolica confirmamus, et pr\u00e6sentis scripti patrocinio communimus districtius inhibentes ne quis contra ipsa, qu\u00e6 firmiter in perpetuum observari volumus, quicquam facere, vel attentare pr\u00e6sumat. Quod si aliquis de ipso Ordine contra fecerit, vel super electione facienda in Prioratibus ejusdem Ordinis, aut Confirmatione ipsius \u00e0 Sede Apostolica litteras impetrarit, nisi litter\u00e6 ips\u00e6 plenam de pr\u00e6dictis mentionem fecerit, nullius penitus sint momenti, et ali\u00e0s ipse de dicto Ordine, qui contra pr\u00e6dicta venire tentaverit, secundum discretionem Abbatis animadversione debita puniatur. Nulli ergo, etc. Datum Rom\u00e6, apud sanctum Petrum X. Kalendas Februarii, Pontificatus nostri anno II.]\n"
        },
        {
            "type": "edition",
            "value": "Ici tir\u00e9e du projet <i>CBMA - Corpus Burgundiae Medii Aevi<\/i>, document 6728. Site du projet Corpus de la Bourgogne du Moyen \u00c2ge, [En ligne] <a href=\"http:\/\/www.cbma-project.eu\" target=\"_blank\">http:\/\/www.cbma-project.eu<\/a>  "
        },
        {
            "type": "sources_manuscrites",
            "value": "\u00e0 renseigner."
        },
        {
            "type": "remarques",
            "value": "\r\n\r\nIndications dans l'\u00e9dition des Chartes de Cluny quand Bernard et Bruel n'ont pas repris le texte : Nicolaus, etc. In decentiam et ornatum, etc. (Bull. Clun., p.\u00a0142, col.\u00a02, n\u00ba\u00a01.)."
        },
        {
            "type": "edition_autre",
            "value": "Ici reprise de Auguste Bernard, Alexandre Bruel, <i>Recueil des chartes de l'abbaye de Cluny<\/i>. VI. <i>1211-1300<\/i>, Paris\u00a0: Imprimerie nationale, 1903 <a href=\"http:\/\/gallica.bnf.fr\/ark:\/12148\/bpt6k367019?rk=21459;2\" target=\"_blank\">[en ligne]<\/a>, p. 673, n\u00b0 5246.",
            "children": {
                "numero_note": "0"
            }
        },
        {
            "type": "edition_autre",
            "value": "Pierre Simon, <i>Bullarium sacri Ordinis cluniacensis, complectens plurima privilegia per summos pontifices tum ipsi cluniacensi abbatiae, tum ei subditis monasteriis hactenus concessa<\/i>, Lyon : Jullieron, 1680, p. 142, col. 2",
            "children": {
                "numero_note": "1"
            }
        },
        {
            "type": "genre",
            "value": "Bulle"
        },
        {
            "type": "genre",
            "value": "Lettre"
        }
    ]
}