{
    "id": 20818,
    "name": "aposcripta-805",
    "type": "acte",
    "url": "http:\/\/telma-chartes.irht.cnrs.fr\/aposcripta\/notice\/20818",
    "project_slug": "aposcripta",
    "project_label": "APOSCRIPTA \u2013 Lettres des papes",
    "user": "lettrespontificalesadmin",
    "last_update": "2020-10-19 16:26:53",
    "licence": "Attribution - Pas d\u2019Utilisation Commerciale - Partage dans les M\u00eames Conditions 3.0 France (CC BY-NC-SA 3.0 FR) ",
    "licence_url": "https:\/\/creativecommons.org\/licenses\/by-nc-sa\/3.0\/fr\/",
    "elements": [
        {
            "type": "pape",
            "value": "Alexandre III (1159-1181)"
        },
        {
            "type": "date_lieu",
            "value": "n.c."
        },
        {
            "type": "date_libre",
            "value": "1179"
        },
        {
            "type": "analyse",
            "value": "Alexander\u00a0III abbati Beccensi et decano Rotomagensi negotium dat, investigent, utrum canonicis Baiocensibus an monachis Alnetensibus nemus quoddam adiudicandum sit."
        },
        {
            "type": "transcription",
            "value": "<?xml version=\"1.0\" encoding=\"UTF-8\"?>\nDilectis filiis abbati1 Beccensi et R(oberto) decano Rothomagensi. Recepimus querelam dilecti filii nostri B. Baiocensis canonici, quod, cum ecclesia Baiocensis nemus, quod in partem prebende ipsius B. cedere debuisset, centum annis continuis in pace possederit, abbas2 et monachi de Alneto idem per manum laicam occupantes memorate ecclesie reddere contradicunt. Quoniam igitur inhonestum est monachis aliena detinere iniuste, qui propria reliquerunt, discretionia vestre per apostolica scripta mandamus, quatinus partibus in vestram presentiam convocatis, si vobis ita constiterit, prescriptum nemus memorate ecclesie, dilatione et appellatione remota, restitui faciatis. Restitutione autem facta, si monachi ordine iudiciario voluerint experiri, causam diligentius audientes fine curetis congruo terminare.\n"
        },
        {
            "type": "edition",
            "value": "Samuel Loewenfeld, <i>Epistolae pontificum romanorum ineditae<\/i>, Leipzig : Veit et Comp., 1885, n. 306, p. 179"
        },
        {
            "type": "sources_manuscrites",
            "value": "Reg. Alex. fragm. ep.\u00a060, in cod. Coll. Trinitat. Cantabrig. R.\u00a09. 17. s.\u00a0<span class=\"smal-caps\">xii<\/span> fol.\u00a0127."
        },
        {
            "type": "notes_historiques",
            "value": "Rogerio.",
            "children": {
                "numero_note": "1"
            }
        },
        {
            "type": "notes_historiques",
            "value": "Christianus\u00a0? vide Gall. Christ.\u00a0XI. 443.",
            "children": {
                "numero_note": "2"
            }
        },
        {
            "type": "apparat_critique",
            "value": "<i>aut<\/i> dilectioni, <i>in cod. enim est<\/i> d. v.",
            "children": {
                "numero_note": "a"
            }
        },
        {
            "type": "date",
            "value": "apres 1179 - avant 1179",
            "children": {
                "date_deb_annee": "1179",
                "date_deb_type": "apres",
                "date_fin_annee": "1179",
                "date_fin_type": "avant"
            },
            "range": {
                "date_apres": 11790000,
                "date_avant": 11799999
            }
        },
        {
            "type": "genre",
            "value": "Bulle"
        }
    ]
}