{
    "id": 20819,
    "name": "aposcripta-806",
    "type": "acte",
    "url": "http:\/\/telma-chartes.irht.cnrs.fr\/aposcripta\/notice\/20819",
    "project_slug": "aposcripta",
    "project_label": "APOSCRIPTA \u2013 Lettres des papes",
    "user": "lettrespontificalesadmin",
    "last_update": "2020-10-19 16:26:53",
    "licence": "Attribution - Pas d\u2019Utilisation Commerciale - Partage dans les M\u00eames Conditions 3.0 France (CC BY-NC-SA 3.0 FR) ",
    "licence_url": "https:\/\/creativecommons.org\/licenses\/by-nc-sa\/3.0\/fr\/",
    "elements": [
        {
            "type": "pape",
            "value": "Alexandre III (1159-1181)"
        },
        {
            "type": "date_lieu",
            "value": "n.c."
        },
        {
            "type": "date_libre",
            "value": "1179"
        },
        {
            "type": "analyse",
            "value": "Alexander\u00a0III abbatem Beccensem et decanum Rotomagensem constituit iudices inter G. canonicum Rotomagensem et fratres S. Iohannis de Monteforti."
        },
        {
            "type": "transcription",
            "value": "<?xml version=\"1.0\" encoding=\"UTF-8\"?>\nDilectis filiis abbati1 Beccensi. et R(oberto) decano Rothomagensi. Querela dilecti filii nostri G. Rothomagensis canonici ad nos transmissa pervenit, quod abbas et canonici sancti Iohannis de Monte forti2 fundum quendam eundem G. et fratrem suum iure hereditario contingentem iniuste detinent et in eo cimiterium et oratorium non sine dispendio matricis ecclesie, in qua prefatus G. persona esse dinoscitur, ipso reclamante, de novo construere presumpserunt\u00a0; parrochialia quoque iura matricis ecclesie minuere multipliciter et turbare contra iuris ordinem non verentur. Quoniam igitur ex apostolatus nostri officio iura omnium illesa et illibata tenemur servare, discretionia vestre per apostolica scripta mandamus, quatinus partibus ante vestram presentiam convocatis causam ipsam sublato appellationis obstaculo fine canonico decidatis.\n"
        },
        {
            "type": "edition",
            "value": "Samuel Loewenfeld, <i>Epistolae pontificum romanorum ineditae<\/i>, Leipzig : Veit et Comp., 1885, n. 307, p. 179-180"
        },
        {
            "type": "sources_manuscrites",
            "value": "Reg. Alex. fragm. ep.\u00a062, l.\u00a0l. fol.\u00a0127."
        },
        {
            "type": "notes_historiques",
            "value": "Rogerio.",
            "children": {
                "numero_note": "1"
            }
        },
        {
            "type": "notes_historiques",
            "value": "Monasterium hoc videtur in Normannia situm.",
            "children": {
                "numero_note": "2"
            }
        },
        {
            "type": "apparat_critique",
            "value": "<i>aut<\/i> dilectioni <i>legendum est, in codice enim non nisi<\/i> d. v. <i>praebetur<\/i>.",
            "children": {
                "numero_note": "a"
            }
        },
        {
            "type": "date",
            "value": "apres 1179 - avant 1179",
            "children": {
                "date_deb_annee": "1179",
                "date_deb_type": "apres",
                "date_fin_annee": "1179",
                "date_fin_type": "avant"
            },
            "range": {
                "date_apres": 11790000,
                "date_avant": 11799999
            }
        },
        {
            "type": "genre",
            "value": "Bulle"
        }
    ]
}