{
    "id": 149652,
    "name": "aposcripta-9215",
    "type": "acte",
    "url": "http:\/\/telma-chartes.irht.cnrs.fr\/aposcripta\/notice\/149652",
    "project_slug": "aposcripta",
    "project_label": "APOSCRIPTA \u2013 Lettres des papes",
    "user": "lettrespontificalesadmin",
    "last_update": "2020-10-19 16:40:02",
    "licence": "Attribution - Pas d\u2019Utilisation Commerciale - Partage dans les M\u00eames Conditions 3.0 France (CC BY-NC-SA 3.0 FR) ",
    "licence_url": "https:\/\/creativecommons.org\/licenses\/by-nc-sa\/3.0\/fr\/",
    "elements": [
        {
            "type": "pape",
            "value": "Alexandre IV (1254-1261)"
        },
        {
            "type": "destinataire",
            "value": ". . Paduano electo"
        },
        {
            "type": "date_libre",
            "value": "II kalendas augusti, anno I"
        },
        {
            "type": "date",
            "value": " 1255\/07\/31",
            "children": {
                "date_deb_annee": "1255",
                "date_deb_mois": "07",
                "date_deb_jour": "31"
            },
            "range": {
                "date_apres": 12550731,
                "date_avant": 12550731
            }
        },
        {
            "type": "date_lieu",
            "value": "Anagnie"
        },
        {
            "type": "sources_manuscrites",
            "value": "R. CIT\u00c9 DU VATICAN, Archivio Segreto Vaticano, <hi rend=\"italic\">Registra Vaticana<\/hi> ... Al.\u00a0IV Reg. Vol.\u00a0I, 116; Lib.\u00a0I, 792. Exemplar tabularii contulimus cum Regestis.",
            "children": {
                "type_source": "Registre de la chancellerie apostolique"
            }
        },
        {
            "type": "genre",
            "value": "Mandement (littere cum filo canapis)"
        },
        {
            "type": "analyse",
            "value": "Alexander IV papa [Iohanni] electo Paduano indulget, ut cum propter Ezelinum in ecclesia sua morari non audeat, ubicumque fuerit, officium suum exercere valeat [Rodenberg]."
        },
        {
            "type": "transcription",
            "value": "<?xml version=\"1.0\" encoding=\"UTF-8\"?>\n. . Paduano electo.Exigentibus tue devotionis meritis votis tuis libenter annuimus et petitiones tuas, quantum cum Deo possumus, favorabiliter exaudimus. Cum igitur propter tirampnidem perfidi Ezelini in ecclesia tua non audeas commorari, nos, tuis supplicationibus inclinati, ut de causis et aliis, que ad officium tuum pertinent, cognoscere ac diffinire eaque apud sedem apostolicam vel ubicumque fueris exercere, acsi personaliter resideres in predicta ecclesia, libere valeas, auctoritate tibi presentium indulgemus. Nulli etc. nostre concessionis etc.Dat. Anagnie, II Kalendas Augusti, anno I\u00b0.\n"
        },
        {
            "type": "edition",
            "value": "Ici reprise de Karl Rodenberg, Epistolae s. XIII e regestis pontificum romanorum selectae, III, Berlin : Weidmann (MGH), 1894, n.\u00a0407, p.\u00a0366."
        },
        {
            "type": "edition_autre",
            "value": "?"
        },
        {
            "type": "regeste",
            "value": "?"
        },
        {
            "type": "bibliographie_generale",
            "value": "?"
        },
        {
            "type": "apparat_critique",
            "value": "?",
            "children": {
                "numero_note": "a"
            }
        },
        {
            "type": "apparat_critique",
            "value": "?",
            "children": {
                "numero_note": "b"
            }
        },
        {
            "type": "apparat_critique",
            "value": "?",
            "children": {
                "numero_note": "c"
            }
        },
        {
            "type": "apparat_critique",
            "value": "?",
            "children": {
                "numero_note": "d"
            }
        },
        {
            "type": "apparat_critique",
            "value": "?",
            "children": {
                "numero_note": "e"
            }
        },
        {
            "type": "apparat_critique",
            "value": "?",
            "children": {
                "numero_note": "f"
            }
        },
        {
            "type": "notes_historiques",
            "value": "?",
            "children": {
                "numero_note": "1"
            }
        },
        {
            "type": "notes_historiques",
            "value": "?",
            "children": {
                "numero_note": "2"
            }
        },
        {
            "type": "notes_historiques",
            "value": "?",
            "children": {
                "numero_note": "3"
            }
        }
    ]
}