{
    "id": 146757,
    "name": "aposcripta-6387",
    "type": "acte",
    "url": "http:\/\/telma-chartes.irht.cnrs.fr\/aposcripta\/notice\/146757",
    "project_slug": "aposcripta",
    "project_label": "APOSCRIPTA \u2013 Lettres des papes",
    "user": "l_valliere",
    "last_update": "2020-10-19 16:39:22",
    "licence": "Attribution - Pas d\u2019Utilisation Commerciale - Partage dans les M\u00eames Conditions 3.0 France (CC BY-NC-SA 3.0 FR) ",
    "licence_url": "https:\/\/creativecommons.org\/licenses\/by-nc-sa\/3.0\/fr\/",
    "elements": [
        {
            "type": "pape",
            "value": "Cl\u00e9ment IV (1265-1268)"
        },
        {
            "type": "destinataire",
            "value": "Le cardinal-pr\u00eatre du titre de Sainte-C\u00e9cile, Simon, l\u00e9gat du Si\u00e8ge apostolique"
        },
        {
            "type": "date_libre",
            "value": "XIV kalendas aprilis, anno primo"
        },
        {
            "type": "date",
            "value": "1265\/03\/19",
            "children": {
                "date_deb_annee": "1265",
                "date_deb_mois": "03",
                "date_deb_jour": "19"
            },
            "range": {
                "date_apres": 12650319,
                "date_avant": 12650319
            }
        },
        {
            "type": "date_lieu",
            "value": "P\u00e9rouse"
        },
        {
            "type": "genre",
            "value": "Titre, g\u00e9n\u00e9ral (littere gratiose, cum filo serico)"
        },
        {
            "type": "analyse",
            "value": "Simoni tit. S. Caeciliae presb. card. apostolicae Sedis legato concedit facultatem dispensandi cum clericis qui suspensi pro eo quod sine scriptis in aliquos promulgarunt excommunicationis sententiam, divinis se immiscuerunt officiis etc."
        },
        {
            "type": "edition",
            "value": "Edmond Mart\u00e8ne, Ursin Durand, <i>Thesaurus novus anecdotorum<\/i>, Paris, 1717, II, n. 24, col. 112 <a target=\"_blank\" href=\"https:\/\/archive.org\/stream\/ThesaurusNovusAnecdotorum2\/Thesaurus_novus_anecdotorum_2#page\/n91\/mode\/2up\"> [en ligne]<\/a>."
        },
        {
            "type": "regeste",
            "value": "Potthast, <i>Regesta pontificum Romanorum<\/i>, n. 19062 <a target=\"_blank\" href=\" http:\/\/opacplus.bsb-muenchen.de\/title\/BV004241514\/ft\/bsb11316018?page=611\"> [en ligne]<\/a>."
        },
        {
            "type": "transcription",
            "value": "<?xml version=\"1.0\" encoding=\"UTF-8\"?>\nUt commissum tibi...\n"
        }
    ]
}