{
    "id": 25329,
    "name": "aposcripta-2426",
    "type": "acte",
    "url": "http:\/\/telma-chartes.irht.cnrs.fr\/aposcripta\/notice\/25329",
    "project_slug": "aposcripta",
    "project_label": "APOSCRIPTA \u2013 Lettres des papes",
    "user": "lettrespontificalesadmin",
    "last_update": "2020-10-19 16:27:43",
    "licence": "Attribution - Pas d\u2019Utilisation Commerciale - Partage dans les M\u00eames Conditions 3.0 France (CC BY-NC-SA 3.0 FR) ",
    "licence_url": "https:\/\/creativecommons.org\/licenses\/by-nc-sa\/3.0\/fr\/",
    "elements": [
        {
            "type": "pape",
            "value": "Eug\u00e8ne III (1145-1153)"
        },
        {
            "type": "destinataire",
            "value": "( )",
            "children": {
                "numero_note": "0"
            }
        },
        {
            "type": "date_lieu",
            "value": "n.c."
        },
        {
            "type": "date_libre",
            "value": "1152, 20 f\u00e9vrier"
        },
        {
            "type": "date",
            "value": " 1152\/02\/20",
            "children": {
                "date_deb_annee": "1152",
                "date_deb_mois": "02",
                "date_deb_jour": "20"
            },
            "range": {
                "date_apres": 11520220,
                "date_avant": 11520220
            }
        },
        {
            "type": "analyse",
            "value": "X pape<br\/>BULLA EUGENII PAP\u00c6 III, QUA CONFIRMAT PRIORATUS ET OMNIA BONA MONASTERII SILVINIACENSIS SUB OBEDIENTIA ABBATUM CLUNIACENSIUM. BULLA EUGENII PAP\u00c6 TERTII confirmatoria Prioratuum, Domorum et Cellarum, Ecclesiarum Parrochialium et Capellarum Monasterii Silviniacensis."
        },
        {
            "type": "transcription",
            "value": "<?xml version=\"1.0\" encoding=\"UTF-8\"?>\n[Eugenius Episcopus, servus servorum Dei, dilectis filiis Petro Priori Silviniacensis Monasterii, ejusque fratribus tam pr\u00e6sentibus quam futuris, regularem vitam professis in perpetuum. Justis Religiosorum desideriis consentire, ac rationabilibus eorum postulationibus clementer annuere Apostolic\u00e6 Sedis, cui largiente Domino pr\u00e6sidemus, authoritas et fratern\u00e6 charitatis unitas nos hortatur. Inde est utique dilecti in Domino filii quod justis petitionibus vestris benignum impertientes assensum, ad exemplar pr\u00e6decessoris nostri felicis memori\u00e6 Vrbani Pap\u00e6 secundi Monasterium vestrum, in quo divino mancipati estis obsequio sub beati Petri et nostra protectione suscipimus, et pr\u00e6sentis scripti privilegio communimus, statuentes ut quascumque possessiones, qu\u00e6cumque bona idem Monasterium inpr\u00e6sentiarum just\u00e8 et canonic\u00e8 possidet, ac in futurum concessione Pontificum, largitione Regum vel Principum, oblatione fidelium, et aliis justis modis Deo propitio poterit adipisci, firma vobis vestrisque successoribus et illibata permaneant. In quibus h\u00e6c propriis duximus exprimenda vocabulis. In Episcopatu Bituricensi Monasterium sancti Mauritii, Capellam de Burbonio, Ecclesiam de Noyento, de Castelione, de Colondono, de Mariniaco, de Cressangis, de Curtiliis, de Bocherono, de Betiaco, de Argiranda, de Francisciis, Ecclesiam de Limesia, de Madero, de Vannat, de Burginolio, de Avalone, de Cappis, de Silviniaco Comitali, de Sardirliaco, de Busecrias, de Ferrerias, Capellam de Nicio, Ecclesias sancti Placidi, sancti Hilarii, sancti Marcelli, Ecclesiam de Chirac, Monasterium Columbariense, Ecclesiam de Monive, Capellam de Cella, Ecclesiam de Dorequo, de Comentrico, de Vordero, de Feblineas, de Noro. In Episcopatu Arvernensi Ecclesiam de Brenaco sancti Maziriani, sancti Martini, Capellas duas de Schola, de Sintraco, de Genziaco, de Paidaco, de Ledaco, de Stotiaco. Monasterium de Firmitate, Ecclesiam de alta Ripa, Capellas de Vernolio, de longa Prata, de Trebenno, Ecclesiam de Monasterio, de Quintiniaco, de Melaro, de Rungeriis, de Graniculis, Capellam desuper Castellum de Monte acuto, Ecclesiam sancti Juliani de Vallibus, de Olouzaco, de Silviniaco Teudonis, de Conis, de Marciaco, Ecclesias duas de Bociaco, de Suspiriis, de Briceolis, de Chimiliaco, Capellam de Fagia. In Castello de Nobrio, duas Ecclesias, novam Ecclesiam. In Eduensi Episcopatu Capellam de Molinis, Ecclesiam de Arversino. In Episcopatu Nivernensi Monasterium Campi Volti cum appendiciis suis, Capellam de Firmitate, Ecclesiam de Cantaneto, Monasterium de monte Podio, de Martio, de Genestinis, de Valcolomano, de nova Villa, de Adiaco, Capellam sancti Genesii. In Episcopatu Lemovicensi Ecclesiam de Manciaco cum omnibus earum pertinentiis. Pr\u00e6terea ejusdem quoque pr\u00e6decessoris nostri vestigiis inh\u00e6rentes statuimus, ne pro communi interdicto Parrochi\u00e6 pr\u00e6fatum C\u0153nobium \u00e0 divinis cesset officiis, sed clausis januis, et exclusis excommunicatis, et interdictis suppressavoce divina vobis liceat celebrate officia, nec ulli omnino hominum facultas sit infra ipsius Monasterii seu adjacentis Vill\u00e6 ambitum assultum facere, aut quemlibet hominem depr\u00e6dari vel capere. Sepulturam etiam ipsius loci omnino liberam esse decernimus, ut eorum qui se illic sepeliri deliberaverunt, devotioni et extrem\u00e6 voluntati, nisi fort\u00e8 excommunicati vel interdicti sint, nullus obsistat, salva tamen justitia matricis Ecclesi\u00e6. Decernimus ergo, ut nulli omnino hominum liceat pr\u00e6fatum Monasterium temer\u00e8 perturbare, aut ejus possessiones auferre, vel ablatas retinere, minuere, aut aliquibus vexationibus fatigare; sed omnia integra conserventur eorum, pro quorum gubernatione et sustentatione concessa sunt, usibus omnimodis profutura; salva Sedis Apostolic\u00e6 auctoritate, et Cluniacensium Abbatum in omnibus obedientia, atque Di\u0153cesanorum ipsorum in supradictis Capellis canonica justitia. Si qua igitur in futurum Ecclesiastica s\u00e6cularisve persona hanc nostr\u00e6 Constitutionis paginam sciens, contra eam temer\u00e8 vanire tentaverit, secund\u00f2 terti\u00f3ve commonita, si non satisfactione congrua emendaverit, potestatis honorisque sui dignitate careat, reamque se divino judicio existere de perpetrata iniquitate cognoscat, et \u00e0 sacratissimo Corpore ac Sanguine Dei et Domini Redemptoris nostri Jesu Christi aliena fiat, atque in extremo examine district\u00e6 ultioni subjaceat. Cunctis autem eidem loco justa servantibus sit pax Domini nostri Jesu Christi, quatenus et hic fructum bon\u00e6 actionis percipiant, et apud districtum Judicem pr\u00e6mia \u00e6tern\u00e6 pacis inveniant. Amen. Ego EUGENIUS Catholic\u00e6 Ecclesi\u00e6 Episcopus. Ego G. Presbyter Cardinalis tituli Calixti. Ego Ymarus Tusculanus Episcopus. Ego Julius Presbyter Cardinalis tituli sancti Marcelli. Ego Vmbaldus Presbyter Cardinalis tit. S. Crucis in Jerusalem. Ego Bernardus Presbyter Cardinalis tituli sancti Clementis. Ego Rotlannus Presbyter Cardinalis tituli sancti Marci. Ego Gerdredus Presbyter Cardinalis tit. S. Stephani in C\u00e6lio monte. Ego Otto Diaconus Cardinalis S. Georgii ad velum aureum. Ego Nicolaus Albanensis Episcopus. Ego Hugo Hostiensis Episcopus. Ego Gregorius Diac. Card. S. Angeli. Ego Guido Diaconus Cardinalis sanct\u00e6 Mari\u00e6 in orticu. Ego Joannes Diaconus Cardinalis sanctorum Sergii et Bacchi. Ego Centius Diaconus Cardinalis sanct\u00e6 Mari\u00e6 in Aryro. Datum Signi? per manum Bosonis sanct\u00e6 Roman\u00e6 Ecclesi\u00e6 Scriptoris decimo Kalendas Martii, indictione decima quinta, Incarnationis Dominic\u00e6 anno millesimo centesimo quinquagesimo primo, Pontificatus nostri Domni Eugenii tertii Pap\u00e6, anno septimo.]\n"
        },
        {
            "type": "edition",
            "value": "Ici tir\u00e9e du projet <i>CBMA - Corpus Burgundiae Medii Aevi<\/i>, document 5599. Site du projet Corpus de la Bourgogne du Moyen \u00c2ge, [En ligne] <a href=\"http:\/\/www.cbma-project.eu\" target=\"_blank\">http:\/\/www.cbma-project.eu<\/a>  "
        },
        {
            "type": "sources_manuscrites",
            "value": "\u00e0 renseigner."
        },
        {
            "type": "remarques",
            "value": "\r\n\r\nIndications dans l'\u00e9dition des Chartes de Cluny quand Bernard et Bruel n'ont pas repris le texte : Eugenius, etc. Justis religiosorum desideriis, etc. (Bull. Clun., p.\u00a062, col.\u00a02; Monum. pontif. Arverni\u00e6, p.\u00a0221.)."
        },
        {
            "type": "edition_autre",
            "value": "Ici reprise de Auguste Bernard, Alexandre Bruel, <i>Recueil des chartes de l'abbaye de Cluny<\/i>. V. <i>1091-1210<\/i>, Paris\u00a0: Imprimerie nationale, 1894 <a href=\"http:\/\/gallica.bnf.fr\/ark:\/12148\/bpt6k28911f?rk=64378;0\" target=\"_blank\">[en ligne]<\/a>, p. 518, n\u00b0 4162.",
            "children": {
                "numero_note": "0"
            }
        },
        {
            "type": "edition_autre",
            "value": "Pierre Simon, <i>Bullarium sacri Ordinis cluniacensis, complectens plurima privilegia per summos pontifices tum ipsi cluniacensi abbatiae, tum ei subditis monasteriis hactenus concessa<\/i>, Lyon : Jullieron, 1680, p. 62, col. 2-63, col. 1",
            "children": {
                "numero_note": "1"
            }
        },
        {
            "type": "genre",
            "value": "Bulle"
        },
        {
            "type": "genre",
            "value": "Lettre"
        }
    ]
}