{
    "id": 26783,
    "name": "aposcripta-3677",
    "type": "acte",
    "url": "http:\/\/telma-chartes.irht.cnrs.fr\/aposcripta\/notice\/26783",
    "project_slug": "aposcripta",
    "project_label": "APOSCRIPTA \u2013 Lettres des papes",
    "user": "l_valliere",
    "last_update": "2020-10-19 16:28:05",
    "licence": "Attribution - Pas d\u2019Utilisation Commerciale - Partage dans les M\u00eames Conditions 3.0 France (CC BY-NC-SA 3.0 FR) ",
    "licence_url": "https:\/\/creativecommons.org\/licenses\/by-nc-sa\/3.0\/fr\/",
    "elements": [
        {
            "type": "pape",
            "value": "Cl\u00e9ment V (1305-1314)"
        },
        {
            "type": "destinataire",
            "value": "Le roi de France Philippe IV le Bel"
        },
        {
            "type": "date_libre",
            "value": "II kal. januarii, anno quarto"
        },
        {
            "type": "date",
            "value": " 1308\/12\/31",
            "children": {
                "date_deb_jour": "31",
                "date_deb_mois": "12",
                "date_deb_annee": "1308"
            },
            "range": {
                "date_apres": 13081231,
                "date_avant": 13081231
            }
        },
        {
            "type": "date_lieu",
            "value": "Toulouse"
        },
        {
            "type": "genre",
            "value": "Lettre, g\u00e9n\u00e9ral (apr\u00e8s 1198, littere cum filo canapis)"
        },
        {
            "type": "analyse",
            "value": "Le pape a re\u00e7u Pierre de Latilli et Guillaume de Plaisians, porteurs de plusieurs p\u00e9titions relatives \u00e0 la paix avec les Flamands, \u00e0 l'affaire des Templiers, aux faux-monnayeurs. Apr\u00e8s avoir pris conseil des cardinaux, il envoie \u00e0 Philippe sa r\u00e9ponse et lui demande des nouvelles de sa sant\u00e9."
        },
        {
            "type": "sources_manuscrites",
            "value": "E. FRANCE, Paris, Archives nationales, L 292\/21. Scell\u00e9, adresse au dos.",
            "children": {
                "type_source": "Exp\u00e9dition"
            }
        },
        {
            "type": "edition",
            "value": "Georges Lizerand, <i>Cl\u00e9ment V et Philippe le Bel<\/i>, Paris : Hachette, 1910, pi\u00e8ce just. n.  25, p. 463-464 <a target=\"_blank\" href=\"http:\/\/gallica.bnf.fr\/ark:\/12148\/bpt6k374847w\/f523\">[en ligne]<\/a> (dat\u00e9e par erreur du 31\/12\/1309), d\u2019apr\u00e8s E."
        },
        {
            "type": "regeste",
            "value": "Bernard Barbiche, <i>Les actes pontificaux originaux des Archives Nationales de Paris<\/i>, Cit\u00e9 du Vatican, 1975-1982, III, n. 2362, p. 53-54, d\u2019apr\u00e8s E."
        },
        {
            "type": "transcription",
            "value": "<?xml version=\"1.0\" encoding=\"UTF-8\"?>\nClemens episcopus, servus servorum Dei, carissimo in Christo filio Philippo regi Francorum illustri, salutem et apostolicam benedictionem. Nuper dilecti filii primo Petrus de Latiliaco archidiaconus Cathalaunensis, clericus, et subsequenter Guillelmus de Plasiano miles tui, ad nostram presentiam venientes, nobis ipsorum quilibet regias litteras continentes simplicem credentiam presentavit, sub qua quidem credentia certas petitiones super corroboratione et solidatione pacis inter te et Flamingos hactenus inite ac negotio Templariorum et monete tue falsariis ex parte tue magnitudinis porrexerunt ; quibus, necnon procuratoriis Flamingorum ipsorum ac forma pacis predicte et quibusdam approbationibus per multas civitates Flamingorum ipsorum et nonnullas singulares personas ex Flamingis eisdem super pace huiusmodi subsecutis per ipsum clericum, nobis oblatis et diligenti examinatione discussis, et super ipsis plena deliberatione prehabita et frequenter cum dilectis filiis nostris Berengario1, tituli sanctorum Nerei et Archilei, et Stephane2, tituli sancti Curiaci in Termis prosbyteris, et Landulpho3, sancte Marie nove, et Arnaldo4, sancte Marie in Porticu, diaconis, qui nobiscum presentes erant, et postmodum cum venerabili fratre nostro Petro5, episcopo Penestrinensi, sancte Romane Ecclesie cardinalibus, qui hiis diebus ad nos venit, honoris regii fervidis zelatoribus, quicquid circa illas pro tua et regni tui tranquillitate ac pace, quam desideramus ab intimis cordis nostri, ac utilitate eorum, cum Dei et Ecclesie honore fieri potuit, duximus ordinandum, et tibi ordinationem huiusmodi sub bona et pingui forma, per dilectum filium fratrem Guillelmum Petri de Godino ordinis Predicatorum, magistrum in theologia, capellanum nostrum, latorem presentium, destinamus ; cui tam super hiis quam super aliis de quibus super nuntiis et litteris per te ad nostram presentiam destinandis tecum Pictavis condiximus, necnon super missione litterarum credentie ad nos de cetero facienda, indubitanter credas et adhibeas plenam fidem, ac de statu tuo, quem adaugeri desideranter appetimus magnificis et continuis incrementis, nos reddas per tuas litteras certiores. Datum Tholose, II kalendas ianuarii, pontificatus nostri anno quarto.\n"
        },
        {
            "type": "notes_historiques",
            "value": "Berenger Fredol.",
            "children": {
                "numero_note": "1"
            }
        },
        {
            "type": "notes_historiques",
            "value": "Etienne de Suisi.",
            "children": {
                "numero_note": "2"
            }
        },
        {
            "type": "notes_historiques",
            "value": "Landulphe Brancaccio.",
            "children": {
                "numero_note": "3"
            }
        },
        {
            "type": "notes_historiques",
            "value": "Arnaud de Pellegrue.",
            "children": {
                "numero_note": "4"
            }
        },
        {
            "type": "notes_historiques",
            "value": "Pierre de la Chapelle.",
            "children": {
                "numero_note": "5"
            }
        },
        {
            "type": "remarques",
            "value": "Absente des registres."
        }
    ]
}