{
    "id": 149927,
    "name": "aposcripta-9490",
    "type": "acte",
    "url": "http:\/\/telma-chartes.irht.cnrs.fr\/aposcripta\/notice\/149927",
    "project_slug": "aposcripta",
    "project_label": "APOSCRIPTA \u2013 Lettres des papes",
    "user": "lettrespontificalesadmin",
    "last_update": "2020-10-19 16:40:06",
    "licence": "Attribution - Pas d\u2019Utilisation Commerciale - Partage dans les M\u00eames Conditions 3.0 France (CC BY-NC-SA 3.0 FR) ",
    "licence_url": "https:\/\/creativecommons.org\/licenses\/by-nc-sa\/3.0\/fr\/",
    "elements": [
        {
            "type": "pape",
            "value": "Cl\u00e9ment IV (1265-1268)"
        },
        {
            "type": "destinataire",
            "value": "Universis marchionibus, comitibus et aliis magnatibus necnon potestatibus, capitaneis ceterisque rectoribus et consiliariis ac universitatibus civitatum, castrorum et aliorum locorum ceterisque per partes Tuscie Romano subiectas imperio constitutis"
        },
        {
            "type": "date_libre",
            "value": "nonis iunii, anno III"
        },
        {
            "type": "date",
            "value": " 1267\/06\/05",
            "children": {
                "date_deb_annee": "1267",
                "date_deb_mois": "06",
                "date_deb_jour": "05"
            },
            "range": {
                "date_apres": 12670605,
                "date_avant": 12670605
            }
        },
        {
            "type": "date_lieu",
            "value": "Viterbii"
        },
        {
            "type": "sources_manuscrites",
            "value": "R. CIT\u00c9 DU VATICAN, Archivio Segreto Vaticano, <hi rend=\"italic\">Registra Vaticana<\/hi> ... Clem.\u00a0IV Reg. Vol.\u00a0I, 203; Lib.\u00a0III, cur.\u00a08. Exemplar, quod Theiner, Cod. dipl. dom. temp. t.\u00a0I, p.\u00a0169, n.\u00a0316 edidit, cum Regestis contulit V. Cl. Monaci.",
            "children": {
                "type_source": "Registre de la chancellerie apostolique"
            }
        },
        {
            "type": "genre",
            "value": "Mandement (littere cum filo canapis)"
        },
        {
            "type": "analyse",
            "value": "Clemens IV papa universis marchionibus, comitibus, potestatibus ceterisque per partes Tusciae Romano subiectas imperio mandat, ut Iohanni de Braysilva marescalco regni Siciliae, vicario C[aroli] regis paciarii Tusciae, intendant [Rodenberg]."
        },
        {
            "type": "transcription",
            "value": "<?xml version=\"1.0\" encoding=\"UTF-8\"?>\nUniversis marchionibus, comitibus et aliis magnatibus necnon potestatibus, capitaneis ceterisque rectoribus et consiliariis ac universitatibus civitatum, castrorum et aliorum locorum ceterisque per partes Tuscie Romano subiectas imperio constitutis.Cum carissimum in Christo filium nostrum C. Sicilie regem illustrem in partibus Tuscie Romano subiectis imperio nunc vacanti pacis constituerimus per nostras sub certa forma litteras servatorem, eique in eisdem partibus commiserimus paciarii seu pacis servatoris officium exercendum per se vel per alium aut alios, quos ad hoc duceret deputandos, idemque rex dilectum filium Iohannem de Braysilva, regni Sicilie marescalcum, suum in premissis vicarium deputarit: volumus et vobis universis et singulis per apostolica scripta districte precipiendo mandamus, quatinus memorato marescalco, vicario regis eiusdem, in omnibus tanquam persone regis ipsius pareatis humiliter et efficaciter intendatis, ut per hoc paternis monitionibus ad observandam pacem exhibentes vos in promptitudine parendi paratos, et pacis placeatis auctori et patris commonentis gratiam vobis exinde non immerito vendicetis.Dat. Viterbii, Nonis Iunii, anno III\u00b0.\n"
        },
        {
            "type": "edition",
            "value": "Ici reprise de Karl Rodenberg, Epistolae s. XIII e regestis pontificum romanorum selectae, III, Berlin : Weidmann (MGH), 1894, n.\u00a0663, p.\u00a0679."
        },
        {
            "type": "edition_autre",
            "value": "?"
        },
        {
            "type": "regeste",
            "value": "?"
        },
        {
            "type": "bibliographie_generale",
            "value": "?"
        },
        {
            "type": "apparat_critique",
            "value": "?",
            "children": {
                "numero_note": "a"
            }
        },
        {
            "type": "apparat_critique",
            "value": "?",
            "children": {
                "numero_note": "b"
            }
        },
        {
            "type": "apparat_critique",
            "value": "?",
            "children": {
                "numero_note": "c"
            }
        },
        {
            "type": "apparat_critique",
            "value": "?",
            "children": {
                "numero_note": "d"
            }
        },
        {
            "type": "apparat_critique",
            "value": "?",
            "children": {
                "numero_note": "e"
            }
        },
        {
            "type": "apparat_critique",
            "value": "?",
            "children": {
                "numero_note": "f"
            }
        },
        {
            "type": "notes_historiques",
            "value": "?",
            "children": {
                "numero_note": "1"
            }
        },
        {
            "type": "notes_historiques",
            "value": "?",
            "children": {
                "numero_note": "2"
            }
        },
        {
            "type": "notes_historiques",
            "value": "?",
            "children": {
                "numero_note": "3"
            }
        }
    ]
}