{
    "id": 24654,
    "name": "aposcripta-1805",
    "type": "acte",
    "url": "http:\/\/telma-chartes.irht.cnrs.fr\/aposcripta\/notice\/24654",
    "project_slug": "aposcripta",
    "project_label": "APOSCRIPTA \u2013 Lettres des papes",
    "user": "lettrespontificalesadmin",
    "last_update": "2020-10-19 16:27:32",
    "licence": "Attribution - Pas d\u2019Utilisation Commerciale - Partage dans les M\u00eames Conditions 3.0 France (CC BY-NC-SA 3.0 FR) ",
    "licence_url": "https:\/\/creativecommons.org\/licenses\/by-nc-sa\/3.0\/fr\/",
    "elements": [
        {
            "type": "pape",
            "value": "Nicolas IV (1288-1292)"
        },
        {
            "type": "date_lieu",
            "value": "n.c."
        },
        {
            "type": "date_libre",
            "value": "8\u00a0mai 1291"
        },
        {
            "type": "date",
            "value": " 1291\/05\/08",
            "children": {
                "date_deb_annee": "1291",
                "date_deb_mois": "05",
                "date_deb_jour": "08"
            },
            "range": {
                "date_apres": 12910508,
                "date_avant": 12910508
            }
        },
        {
            "type": "analyse",
            "value": "Nicolas\u00a0IV accorde un an et quarante jours d\u2019indulgences aux fid\u00e8les qui visiteront l\u2019\u00e9glise de Saint-Michel de Brugui\u00e8res, aux f\u00eates de saint Michel et pendant les huit jours suivants."
        },
        {
            "type": "transcription",
            "value": "<?xml version=\"1.0\" encoding=\"UTF-8\"?>\n"
        },
        {
            "type": "edition",
            "value": "Julien Rouquette, Augustin Villemagne, <i>Bullaire de l'\u00c9glise de Maguelone<\/i>, Paris, Montpellier : Picard, Valat, 1911-1914, II, n. 643-545\u00a0d, p. 550-551"
        },
        {
            "type": "remarques",
            "value": "Saint-Michel de Brugui\u00e8res est une ancienne paroisse pr\u00e8s Saint-Geni\u00e8s des Mourgues.\n\n[Rouquette-Villemagne]"
        },
        {
            "type": "bibliographie_generale",
            "value": "<span class=\"small-caps\">E. Langlois<\/span>, <i>Registres de Nicolas\u00a0IV<\/i>, p.\u00a0715, 1<sup>re<\/sup>\u00a0col.",
            "children": {
                "numero_note": "0"
            }
        },
        {
            "type": "genre",
            "value": "Bulle"
        }
    ]
}