{
    "id": 149371,
    "name": "aposcripta-8934",
    "type": "acte",
    "url": "http:\/\/telma-chartes.irht.cnrs.fr\/aposcripta\/notice\/149371",
    "project_slug": "aposcripta",
    "project_label": "APOSCRIPTA \u2013 Lettres des papes",
    "user": "lettrespontificalesadmin",
    "last_update": "2020-10-19 16:39:57",
    "licence": "Attribution - Pas d\u2019Utilisation Commerciale - Partage dans les M\u00eames Conditions 3.0 France (CC BY-NC-SA 3.0 FR) ",
    "licence_url": "https:\/\/creativecommons.org\/licenses\/by-nc-sa\/3.0\/fr\/",
    "elements": [
        {
            "type": "pape",
            "value": "Innocent IV (1243-1254)"
        },
        {
            "type": "destinataire",
            "value": "I.<lb n=\"\"\/>H. tituli Sancte Sabine presbytero cardinali, apostolice sedis legato"
        },
        {
            "type": "date_libre",
            "value": "II idus decembris, anno X"
        },
        {
            "type": "date",
            "value": " 1252\/12\/12",
            "children": {
                "date_deb_annee": "1252",
                "date_deb_mois": "12",
                "date_deb_jour": "12"
            },
            "range": {
                "date_apres": 12521212,
                "date_avant": 12521212
            }
        },
        {
            "type": "date_lieu",
            "value": "Perusii"
        },
        {
            "type": "sources_manuscrites",
            "value": "R. CIT\u00c9 DU VATICAN, Archivio Segreto Vaticano, <hi rend=\"italic\">Registra Vaticana<\/hi> ... Inn.\u00a0IV Reg. Vol.\u00a0II, 225-226; Lib.\u00a0X, 293 et 299. Pertzii exemplaria contulimus cum illis, quae Ripoll, Bull. Praedicat. t.\u00a0I, p.\u00a0219, n.\u00a0273 et 274 edidit.",
            "children": {
                "type_source": "Registre de la chancellerie apostolique"
            }
        },
        {
            "type": "genre",
            "value": "Mandement (littere cum filo canapis)"
        },
        {
            "type": "analyse",
            "value": "Innocentius IV papa H[ugoni] tituli S. Sabinae presbytero cardinali legato scribit homines de Confluentia ad instinctum [Arnoldi] archiepiscopi Treverensis, domini temporalis eorum, in G[uillelmum] regem Romanorum et exercitum eius hostiliter irruisse; mandat, ut archiepiscopum ad satisfactionem praestandam inducat, alioquin eum ad sedem apostolicam citet. \u2014 Eidem idem scribit, addens, ut nisi archiepiscopus paruerit, capitulo iniungat, ut aliquos ad papam mittant, potestatem habentes alium eligendi in archiepiscopum [Rodenberg]."
        },
        {
            "type": "transcription",
            "value": "<?xml version=\"1.0\" encoding=\"UTF-8\"?>\nI.H. tituli Sancte Sabine presbytero cardinali, apostolice sedis legato.Ad nostram noveris audientiam pervenisse, quod scultetus, milites et homines castri de Confluentia Treverensis diocesis ad venerabilis fratris nostri . . archiepiscopi Treverensis, eorum domini temporalis, instinctum in carissimum in Christo filium nostrum G. regem Romanorum illustrem, crucesignatos et alios de exercitu dicti regis manu irruentes armata, nonnullos ex ipsis vulnerare, alios occidere, quosdam spoliare ac captivare temere presumpserunt, aliquibus miserabiliter in Reni flumine suffocatis, in ipsius regis iniuriam et ecclesie ac imperii negocii generalis non modicum detrimentum. Ne igitur tante presumptionis temeritas propter impunitatem transeat aliis in exemplum, mandamus, quatinus, si de plano et absque iudicii strepitu super hoc per te vel alium inquirens inveneris ita esse, dictum archiepiscopum moneas vel moneri facias, ut plenariam super hiis satisfacationem studeat exhibere, quam secundum ecclesie ac regis honorem et atrocitatem facti videris exhibendam. Verum si monitus plenam humilitate debita satisfactionem ad mandatum tuum, immo nostrum, impendere forte contempserit, tu ex parte nostra peremptorie cites eundem, ut infra duos menses post citationem huiusmodi compareat personaliter coram nobis, prout decuerit recepturus. Si vero in statuendo sibi termino ad nostram venire presentiam recusabit, subditos eius ab obedientia ipsius in penam inobedientie sue usque ad satisfactionem congruam absolvere non postponas. Quod inde feceris, per tuas etc. usque: intimare.Dat. Perusii, II Idus Decembris, anno X\u00b0.\n"
        },
        {
            "type": "edition",
            "value": "Ici reprise de Karl Rodenberg, Epistolae s. XIII e regestis pontificum romanorum selectae, III, Berlin : Weidmann (MGH), 1894, n.\u00a0175a, p.\u00a0147."
        },
        {
            "type": "edition_autre",
            "value": "?"
        },
        {
            "type": "regeste",
            "value": "?"
        },
        {
            "type": "bibliographie_generale",
            "value": "?"
        },
        {
            "type": "apparat_critique",
            "value": "?",
            "children": {
                "numero_note": "a"
            }
        },
        {
            "type": "apparat_critique",
            "value": "?",
            "children": {
                "numero_note": "b"
            }
        },
        {
            "type": "apparat_critique",
            "value": "?",
            "children": {
                "numero_note": "c"
            }
        },
        {
            "type": "apparat_critique",
            "value": "?",
            "children": {
                "numero_note": "d"
            }
        },
        {
            "type": "apparat_critique",
            "value": "?",
            "children": {
                "numero_note": "e"
            }
        },
        {
            "type": "apparat_critique",
            "value": "?",
            "children": {
                "numero_note": "f"
            }
        },
        {
            "type": "notes_historiques",
            "value": "?",
            "children": {
                "numero_note": "1"
            }
        },
        {
            "type": "notes_historiques",
            "value": "?",
            "children": {
                "numero_note": "2"
            }
        },
        {
            "type": "notes_historiques",
            "value": "?",
            "children": {
                "numero_note": "3"
            }
        }
    ]
}