{
    "id": 149708,
    "name": "aposcripta-9271",
    "type": "acte",
    "url": "http:\/\/telma-chartes.irht.cnrs.fr\/aposcripta\/notice\/149708",
    "project_slug": "aposcripta",
    "project_label": "APOSCRIPTA \u2013 Lettres des papes",
    "user": "lettrespontificalesadmin",
    "last_update": "2020-10-19 16:40:02",
    "licence": "Attribution - Pas d\u2019Utilisation Commerciale - Partage dans les M\u00eames Conditions 3.0 France (CC BY-NC-SA 3.0 FR) ",
    "licence_url": "https:\/\/creativecommons.org\/licenses\/by-nc-sa\/3.0\/fr\/",
    "elements": [
        {
            "type": "pape",
            "value": "Alexandre IV (1254-1261)"
        },
        {
            "type": "destinataire",
            "value": ". . episcopo Metensi"
        },
        {
            "type": "date_libre",
            "value": "X kalendas iulii, anno tertio"
        },
        {
            "type": "date",
            "value": " 1257\/06\/22",
            "children": {
                "date_deb_annee": "1257",
                "date_deb_mois": "06",
                "date_deb_jour": "22"
            },
            "range": {
                "date_apres": 12570622,
                "date_avant": 12570622
            }
        },
        {
            "type": "date_lieu",
            "value": "Viterbii"
        },
        {
            "type": "sources_manuscrites",
            "value": "R. CIT\u00c9 DU VATICAN, Archivio Segreto Vaticano, <hi rend=\"italic\">Registra Vaticana<\/hi> ... Al.\u00a0IV Reg. Vol.\u00a0II, 52; Lib.\u00a0III, 397. Damus Pertzii exemplar. Similem concessionem, monialibus de Paradiso prope Susatum ad eandem formam litterarum ab Alexandro IV a. 1259, Iul. 7 factam, ex authentico edidit Finke, Westf\u00e4l. U. B. t.\u00a0V, p.\u00a0285, n.\u00a0608.",
            "children": {
                "type_source": "Registre de la chancellerie apostolique"
            }
        },
        {
            "type": "genre",
            "value": "Mandement (littere cum filo canapis)"
        },
        {
            "type": "analyse",
            "value": "Alexander IV papa [Iacobo] episcopo Metensi concedit, ut de usuris, rapinis et aliis male acquisitis, de legatis in pios usus et redemptionibus votorum, Ierosolimitano excepto, mille marcas sterlingorum recipiat, convertendas in solutionem debitorum [Rodenberg]."
        },
        {
            "type": "transcription",
            "value": "<?xml version=\"1.0\" encoding=\"UTF-8\"?>\n. . episcopo Metensi.Importabilis debitorum sarcina, quibus tua ecclesia pregravatur, propensiori nos cura sollicitat, ut inter alia nostre vigilantie incumbentia de ipsius ecclesie specialiter cogitemus subsidiis et auxiliis oportunis, quibus et ab huiusmodi debitorum relevari possit oneribus et inter angustantes illam usurarum angustias respirare. Ipsius igitur et tuis necessitatibus benigno compatientes affectu, fraternitati tue, ut de usuris, rapinis et aliis male acquisitis, dummodo hii, quibus ipsorum restitutio fieri debeat, omnino sciri et inveniri non possint, necnon et de quibuslibet legatis in pios usus indistincte relictis, dummodo ad id executorum ipsorum accedat assensus, et de redemptionibus votorum diocesanorum auctoritate prius factis, Ierosolimitano dumtaxat excepto, usque ad summam mille marcarum sterlingorum, in solutionem debitorum huiusmodi et non in usus alios convertendam, recipere valeas, presentium tenore duximus concedendum, si pro similium receptione alias non sis a nobis huiusmodi gratiam consecutus, ita quod si aliquid de dictis mille marcis dimiseris vel restitueris aut dederis illis, a quibus eas receperis, huiusmodi dimissum vel restitutum seu datum nichil ad liberationem eorum prosit nec quantum ad illud habeantur aliquatenus absoluti. Nulli \u2014 nostre concessionis etc.Dat. Viterbii, X Kalendas Iulii, anno tertio.\n"
        },
        {
            "type": "edition",
            "value": "Ici reprise de Karl Rodenberg, Epistolae s. XIII e regestis pontificum romanorum selectae, III, Berlin : Weidmann (MGH), 1894, n.\u00a0459, p.\u00a0422."
        },
        {
            "type": "edition_autre",
            "value": "?"
        },
        {
            "type": "regeste",
            "value": "?"
        },
        {
            "type": "bibliographie_generale",
            "value": "?"
        },
        {
            "type": "apparat_critique",
            "value": "?",
            "children": {
                "numero_note": "a"
            }
        },
        {
            "type": "apparat_critique",
            "value": "?",
            "children": {
                "numero_note": "b"
            }
        },
        {
            "type": "apparat_critique",
            "value": "?",
            "children": {
                "numero_note": "c"
            }
        },
        {
            "type": "apparat_critique",
            "value": "?",
            "children": {
                "numero_note": "d"
            }
        },
        {
            "type": "apparat_critique",
            "value": "?",
            "children": {
                "numero_note": "e"
            }
        },
        {
            "type": "apparat_critique",
            "value": "?",
            "children": {
                "numero_note": "f"
            }
        },
        {
            "type": "notes_historiques",
            "value": "?",
            "children": {
                "numero_note": "1"
            }
        },
        {
            "type": "notes_historiques",
            "value": "?",
            "children": {
                "numero_note": "2"
            }
        },
        {
            "type": "notes_historiques",
            "value": "?",
            "children": {
                "numero_note": "3"
            }
        }
    ]
}