{
    "id": 149436,
    "name": "aposcripta-8999",
    "type": "acte",
    "url": "http:\/\/telma-chartes.irht.cnrs.fr\/aposcripta\/notice\/149436",
    "project_slug": "aposcripta",
    "project_label": "APOSCRIPTA \u2013 Lettres des papes",
    "user": "lettrespontificalesadmin",
    "last_update": "2020-10-19 16:39:58",
    "licence": "Attribution - Pas d\u2019Utilisation Commerciale - Partage dans les M\u00eames Conditions 3.0 France (CC BY-NC-SA 3.0 FR) ",
    "licence_url": "https:\/\/creativecommons.org\/licenses\/by-nc-sa\/3.0\/fr\/",
    "elements": [
        {
            "type": "pape",
            "value": "Innocent IV (1243-1254)"
        },
        {
            "type": "destinataire",
            "value": "Bonefatio Bonsignoris et Barthalomeo Christophori civibus et mercatoribus Senensibus eorumque sociis"
        },
        {
            "type": "date_libre",
            "value": "XV kalendas augusti, anno XI"
        },
        {
            "type": "date",
            "value": " 1253\/07\/18",
            "children": {
                "date_deb_annee": "1253",
                "date_deb_mois": "07",
                "date_deb_jour": "18"
            },
            "range": {
                "date_apres": 12530718,
                "date_avant": 12530718
            }
        },
        {
            "type": "date_lieu",
            "value": "Asisii"
        },
        {
            "type": "sources_manuscrites",
            "value": "R. CIT\u00c9 DU VATICAN, Archivio Segreto Vaticano, <hi rend=\"italic\">Registra Vaticana<\/hi> ... Inn.\u00a0IV Reg. Vol.\u00a0III, 6; Lib.\u00a0XI, 58. Exemplar tabularii contulimus cum Regestis.",
            "children": {
                "type_source": "Registre de la chancellerie apostolique"
            }
        },
        {
            "type": "genre",
            "value": "Mandement (littere cum filo canapis)"
        },
        {
            "type": "analyse",
            "value": "Innocentius IV papa nominatis mercatoribus Senensibus obligationem argentariae cum burgo et castro de Monterio, quam R[aynerius] electus Vulteranus ipsis pro quodam mutuo fecerit, confirmat [Rodenberg]."
        },
        {
            "type": "transcription",
            "value": "<?xml version=\"1.0\" encoding=\"UTF-8\"?>\nBonefatio Bonsignoris et Barthalomeo Christophori civibus et mercatoribus Senensibus eorumque sociis.Cum, sicut ex parte dilecti filii R. Wlterani electi fuit propositum coram nobis, ipse pro exoneratione debitorum, quibus ex pluribus causis episcopatus Wlteranus graviter premebatur, a nobis obtenta licentia sex milia marcarum argenti prius ac postmodum, cum id ad exonerationem huiusmodi nequaquam sufficeret, sex milia sexcentas libras Pisanorum parvorum a vobis recipiens, argentariam cum burgo et castro de Monterio vobis propter hoc, donec de pecunia ipsa vobis satisfactum fuerit, obligarit, prout in instrumentis publicis exinde confectis dicitur plenius contineri: nos, quod ab eodem electo in hac parte factum est ratum habentes, illud auctoritate apostolica confirmamus etc. usque: communimus. Nulli etc. nostre confirmationis etc.Dat. Asisii, XV Kalendas Augusti, anno XI\u00b0.\n"
        },
        {
            "type": "edition",
            "value": "Ici reprise de Karl Rodenberg, Epistolae s. XIII e regestis pontificum romanorum selectae, III, Berlin : Weidmann (MGH), 1894, n.\u00a0222, p.\u00a0191."
        },
        {
            "type": "edition_autre",
            "value": "?"
        },
        {
            "type": "regeste",
            "value": "?"
        },
        {
            "type": "bibliographie_generale",
            "value": "?"
        },
        {
            "type": "apparat_critique",
            "value": "?",
            "children": {
                "numero_note": "a"
            }
        },
        {
            "type": "apparat_critique",
            "value": "?",
            "children": {
                "numero_note": "b"
            }
        },
        {
            "type": "apparat_critique",
            "value": "?",
            "children": {
                "numero_note": "c"
            }
        },
        {
            "type": "apparat_critique",
            "value": "?",
            "children": {
                "numero_note": "d"
            }
        },
        {
            "type": "apparat_critique",
            "value": "?",
            "children": {
                "numero_note": "e"
            }
        },
        {
            "type": "apparat_critique",
            "value": "?",
            "children": {
                "numero_note": "f"
            }
        },
        {
            "type": "notes_historiques",
            "value": "?",
            "children": {
                "numero_note": "1"
            }
        },
        {
            "type": "notes_historiques",
            "value": "?",
            "children": {
                "numero_note": "2"
            }
        },
        {
            "type": "notes_historiques",
            "value": "?",
            "children": {
                "numero_note": "3"
            }
        }
    ]
}