{
    "id": 23730,
    "name": "aposcripta-949",
    "type": "acte",
    "url": "http:\/\/telma-chartes.irht.cnrs.fr\/aposcripta\/notice\/23730",
    "project_slug": "aposcripta",
    "project_label": "APOSCRIPTA \u2013 Lettres des papes",
    "user": "j_theryastruc",
    "last_update": "2020-10-19 16:27:17",
    "licence": "Attribution - Pas d\u2019Utilisation Commerciale - Partage dans les M\u00eames Conditions 3.0 France (CC BY-NC-SA 3.0 FR) ",
    "licence_url": "https:\/\/creativecommons.org\/licenses\/by-nc-sa\/3.0\/fr\/",
    "elements": [
        {
            "type": "pape",
            "value": "Gr\u00e9goire IX (1227-1241)"
        },
        {
            "type": "date",
            "value": " 1233\/08\/27",
            "children": {
                "date_deb_jour": "27",
                "date_deb_mois": "08",
                "date_deb_annee": "1233"
            },
            "range": {
                "date_apres": 12330827,
                "date_avant": 12330827
            }
        },
        {
            "type": "date_lieu",
            "value": "Anagni"
        },
        {
            "type": "genre",
            "value": "Bulle"
        },
        {
            "type": "analyse",
            "value": "Gr\u00e9goire [IX] fait part \u00e0 Archambaud de Bourbon de sanctions canoniques contre les bourgeois d'Aurillac r\u00e9volt\u00e9s contre leur seigneur l'abb\u00e9 de Saint-G\u00e9raud."
        },
        {
            "type": "transcription",
            "value": "<?xml version=\"1.0\" encoding=\"UTF-8\"?>\nGregorius, episcopus, servus servorum Dei, dilecto filio nobili viro Archembaudo de Borbonio, salutem et apostolicam benedictionem. Horribile facinus et scelus digna severitate plectendum nostrum pulsavit et contristavit auditum, quod consules, burgenses et universitas ville Aureliacensis, Claromontensis diocesis, in atrum conversi perversum et in reprobum sensum dati, ad castrum Sancti Stephani, quod Aureliacensis monasterii nobis immediate subjecti juris existit, cum armatorum cuneis accedentes ac, fracto vinculo fidelitatis quo eidem monasterio sunt astricti, non verentes incurrere notam perjurii et proditionis infamiam, ipsum castrum funditus diruere et universis ejusdem loci domibus in subversionem positis et ruinam, homines quoque ibidem inventos, quibusdam eorum in frustra concisis, reliquis plagis impositis semivivis non humane sed inhumaniter derelictis, in ore gladii posuerunt ; et privilegia memorato monasterio ab apostolica Sede concessa lacerantes omnino, thesaurum, libros et reliqua bona apud castrum ipsum inventa nequiter rapere et quod erat divinis usibus deputatum ad profanos abusus trahere presumpserunt, congregationem monachorum ibidem Domino laudis sacrificium offerentem, saturatam opprobriis exulare a monasterio compellendo. At venerabilis frater noster .. Tornacensis episcopus, tunc in partibus illis apostolice Sedis legatus, diligenter attendens quod, nisi impietatem suam impiis nuntiaret, illi in perpetue dampnationis mergerentur abyssum, sanguis autem eorum de ipsius manibus quereretur, ipsos pluries monuit ut, prevenientes sue conversionis festinantia terribilem judicis ultionem, super hoc sepedicto monasterio satisfactionem congruam exhiberent ; quos eligentes perire potius quam parere sententia excommunicationis stringens, fautores et coadjutores ipsorum, plurium episcoporum communicato consilio, censura duxit simili percellendos. Ceterum consules, burgenses et universitas supradicti contra dominos suos perfidius et crudelius multiplicata malitia in violentiam erumpentes, fortalicias, domos, officinas, cameras, clausuras et muros ipsius monasterii destruxerunt, domos et alias mansiones villarum et castrorum suorum desolationi dantes et igni, quas manus attingere potuit vastatoris. Propter quod episcopus supradictus eamdem excommunicationis sententiam per vicinas dioceses fecit sollempniter publicari : quam iidem pertinaciter aspernantes, quominus ipsorum impunita temeritas magistra ratione constringitur, eo magis redire ad sinum matris Ecclesie reluctantur. Quia vero in tanto excessu sic est manus aggravanda vindicte quod [lacune] derivato ad posteros facinus non redeat in exemplum, venerabili fratri nostro Viennensi archiepiscopo, apostolice Sedis legato, nostris damus litteris in mandatis ut sepefatam excommunicationis sententiam per vicinas dioceses diebus dominicis et festivis, pulsatis campanis et accensis candelis, precipiet sollempniter innotari, eam sicut rationabiliter est predicando auctoritate nostra usque ad satisfactionem condignam, appellatione remota, inviolabiliter observari, invocato, si necesse fuerit, ad eorum pertinaciam edomandam suffragio brachii secularis. Verum qui seculari sunt gladio comprimendi, quos gehenne incendium a malo non revocat ac pena interminabilis pravis deputata hom\u00ednibus non deterret, nobilitatem tuam rogamus, monemus et hortamur attente, per apostolica tibi scripta mandantes quatinus, cum ab eodem legato super hoc fueris requisitus, contra dictos malefactores potenter assurgens, ipsos ut ad unitatem et ad mandatum Ecclesie redeant, tradita tibi potestate compellas, ita quod ex hoc propitiationem divinam uberius merearis et nos sinceritatem tuam merito commendemus. Datum Anagnie, VI Kal. septembris, pontificatus nostri anno septimo.\n"
        },
        {
            "type": "traduction",
            "value": "Source : Pascale Bourgain, Marie-Clotilde Hubert, <i>Le latin m\u00e9di\u00e9val<\/i>, Turnhout : Brepols, 2005, p. 497-498."
        },
        {
            "type": "edition",
            "value": "Roger Grand, Les \u00ab Paix \u00bb d'Aurillac. \u00c9tude et documents sur l'histoire des Institutions municipales d'une ville \u00e0 consulat (XIIe-XVe si\u00e8cle), Paris : Sirey, 1935, p. 7-8, n. IV."
        },
        {
            "type": "edition",
            "value": "Pascale Bourgain, Marie-Clotilde Hubert, <i>Le latin m\u00e9di\u00e9val<\/i>, Turnhout : Brepols, 2005, p. 496-497, d'apr\u00e8s l'\u00e9dition de R. Grand."
        },
        {
            "type": "sources_manuscrites",
            "value": "?"
        }
    ]
}