{
    "id": 20640,
    "name": "aposcripta-627",
    "type": "acte",
    "url": "http:\/\/telma-chartes.irht.cnrs.fr\/aposcripta\/notice\/20640",
    "project_slug": "aposcripta",
    "project_label": "APOSCRIPTA \u2013 Lettres des papes",
    "user": "lettrespontificalesadmin",
    "last_update": "2020-10-19 16:26:51",
    "licence": "Attribution - Pas d\u2019Utilisation Commerciale - Partage dans les M\u00eames Conditions 3.0 France (CC BY-NC-SA 3.0 FR) ",
    "licence_url": "https:\/\/creativecommons.org\/licenses\/by-nc-sa\/3.0\/fr\/",
    "elements": [
        {
            "type": "pape",
            "value": "Urbain II (1088-1099)"
        },
        {
            "type": "date_lieu",
            "value": "n.c."
        },
        {
            "type": "date_libre",
            "value": "1089 Apr-Iun"
        },
        {
            "type": "analyse",
            "value": "Urbanus\u00a0II clerum populumque Bergomatem, qui sint simoniaci appellandi quoque modo crimen simoniae luatur, edocet."
        },
        {
            "type": "transcription",
            "value": "<?xml version=\"1.0\" encoding=\"UTF-8\"?>\nUrbanus clero et populo Pergamensi. Auctoritatis nostre statuta noveritis, quia omnes symoniacos a prave acceptis ministeriis et ab ecclesiarum potestate removemus. Eos autem symoniacos dicimus, qui vel precio vel promissione vel precibus vel servicio eius gratia intencionis impenso ordines vel honores ecclesiasticos emisse noscuntur. Quos autem omnino ab emptis officiis removendosa canonica sanctione precipimus, neque eis in ecclesiis, quas emerunt, potestatem habere aut ministrare facultas libera concedatur, sed, ut perfecte peccatum suum defleant et divinamb sibi gratiam reconcilient, ad alias ecclesias vel monasteria transeant et se sub discipline regularis cohercione servientesc spiritualis milicie exerciciis mancipare procurent.\n"
        },
        {
            "type": "edition",
            "value": "Ici reprise de Samuel Loewenfeld, <i>Epistolae pontificum romanorum ineditae<\/i>, Leipzig : Veit et Comp., 1885, n. 128, p. 63."
        },
        {
            "type": "sources_manuscrites",
            "value": "Coll. Brit. Urb. ep.\u00a039, l.\u00a0l. fol.\u00a0150.",
            "children": {
                "type_source": "Collection canonique, collection de d\u00e9cr\u00e9tales"
            }
        },
        {
            "type": "apparat_critique",
            "value": "removendo <i>c.<\/i>",
            "children": {
                "numero_note": "a"
            }
        },
        {
            "type": "apparat_critique",
            "value": "divina <i>c.<\/i>",
            "children": {
                "numero_note": "b"
            }
        },
        {
            "type": "apparat_critique",
            "value": "<i>sic scripsi pro<\/i> servantes <i>cod.<\/i>",
            "children": {
                "numero_note": "c"
            }
        },
        {
            "type": "date",
            "value": "apr\u00e8s 1088\/04 - avant 1088\/06",
            "children": {
                "date_deb_annee": "1088",
                "date_deb_mois": "04",
                "date_deb_type": "apres",
                "date_fin_annee": "1088",
                "date_fin_mois": "06",
                "date_fin_type": "avant"
            },
            "range": {
                "date_apres": 10880400,
                "date_avant": 10880699
            }
        },
        {
            "type": "genre",
            "value": "Lettre, g\u00e9n\u00e9ral (avant 1198)"
        }
    ]
}