{
    "id": 26146,
    "name": "aposcripta-3225",
    "type": "acte",
    "url": "http:\/\/telma-chartes.irht.cnrs.fr\/aposcripta\/notice\/26146",
    "project_slug": "aposcripta",
    "project_label": "APOSCRIPTA \u2013 Lettres des papes",
    "user": "lettrespontificalesadmin",
    "last_update": "2020-10-19 16:27:55",
    "licence": "Attribution - Pas d\u2019Utilisation Commerciale - Partage dans les M\u00eames Conditions 3.0 France (CC BY-NC-SA 3.0 FR) ",
    "licence_url": "https:\/\/creativecommons.org\/licenses\/by-nc-sa\/3.0\/fr\/",
    "elements": [
        {
            "type": "pape",
            "value": "Alexandre II (1061-1073)"
        },
        {
            "type": "date_lieu",
            "value": "n.c."
        },
        {
            "type": "date_libre",
            "value": "Um 1061<a class=\"note\" href=\"#note-2\">2<\/a>"
        },
        {
            "type": "date",
            "value": "apres 1061 - avant 1061",
            "children": {
                "date_deb_annee": "1061",
                "date_deb_type": "apres",
                "date_fin_annee": "1061",
                "date_fin_type": "avant"
            },
            "range": {
                "date_apres": 10610000,
                "date_avant": 10619999
            }
        },
        {
            "type": "analyse",
            "value": "Alexander II macht dem Bischofe Frotarius II von N\u00eemes Vorw\u00fcrfe, dass er Abt und Kloster St.-Gilles (D. N\u00eemes) excommunicirt habe, er fordert ihn und den Abt zum St.-Martinstage vor sich<a class=\"note\" href=\"#note-1\">1<\/a>."
        },
        {
            "type": "transcription",
            "value": "<?xml version=\"1.0\" encoding=\"UTF-8\"?>\nAlexander episcopus servus servorum dei. F(roterio)3, episcopo Nemausensi, salutem et apostolicam benedictionem. Temeritatis tue percepta cognitio stupentibus nobis non mediocris facta est commotio. In qua audatia non nostra sed ipsorum apostolorum tanta visa est despectio, ut nec in re sua valeret eorum religio. Consecrationis namque gratia, per te invide obstricta, auctoritate postmodum apostolica abbati monasterii sancti Aegydii concessa, ipsum abbatem Beraldum4 et monasterium excommunicationis dampnatione audivimus te ligasse, nec reverentia sancte Romane ecclesie erubuisse, nec aliquam apostolice sedis audientiam expectasse. Absoluto itaque ex nunc predicto sancti Egydii monasterio et abbate, circa festivitatem sancti Martini5 ambos auctoritate apostolica ad nostram audientiam convocamus, ut, utrimque causa cognita, iusticia litem compescamus6.\n"
        },
        {
            "type": "edition",
            "value": "Julius von Pflugk-Harttung, <i>Acta pontificum Romanorum inedita<\/i>, T\u00fcbingen, 1880, I, n. 37, p. 35"
        },
        {
            "type": "sources_manuscrites",
            "value": "Abschrift vom 12 Jahrh. des Chart. S. Aegidii Nemausensis, MS. lat. 11018 fol. 17, in der Bibl. Nat. zu Paris."
        },
        {
            "type": "remarques",
            "value": ""
        },
        {
            "type": "notes_historiques",
            "value": "<i>Vergl. die Urk. vom 22 M\u00e4rz 1074.<\/i>",
            "children": {
                "numero_note": "1"
            }
        },
        {
            "type": "notes_historiques",
            "value": "<i>Das ungef\u00e4hre Jahr ergiebt sich aus dem Inhalte der Urkunde.<\/i>",
            "children": {
                "numero_note": "2"
            }
        },
        {
            "type": "notes_historiques",
            "value": "<i>Frotarius II, Bischof von N\u00eemes, c. 1027\u20131077.<\/i>",
            "children": {
                "numero_note": "3"
            }
        },
        {
            "type": "notes_historiques",
            "value": "<i>Berald, Abt von St.-Gilles, nachweisbar von 1060\u20131076.<\/i>",
            "children": {
                "numero_note": "4"
            }
        },
        {
            "type": "notes_historiques",
            "value": "<i>November 10.<\/i>",
            "children": {
                "numero_note": "5"
            }
        },
        {
            "type": "notes_historiques",
            "value": "<i>Wegen der Urk. vergl. M\u00e9nard, Hist. de la ville de Nismes I p. 167.<\/i>",
            "children": {
                "numero_note": "6"
            }
        },
        {
            "type": "genre",
            "value": "Bulle"
        }
    ]
}