{
    "id": 28701,
    "name": "aposcripta-4465",
    "type": "acte",
    "url": "http:\/\/telma-chartes.irht.cnrs.fr\/aposcripta\/notice\/28701",
    "project_slug": "aposcripta",
    "project_label": "APOSCRIPTA \u2013 Lettres des papes",
    "user": "j_theryastruc",
    "last_update": "2020-10-19 16:28:21",
    "licence": "Attribution - Pas d\u2019Utilisation Commerciale - Partage dans les M\u00eames Conditions 3.0 France (CC BY-NC-SA 3.0 FR) ",
    "licence_url": "https:\/\/creativecommons.org\/licenses\/by-nc-sa\/3.0\/fr\/",
    "elements": [
        {
            "type": "pape",
            "value": "Innocent IV (1243-1254)"
        },
        {
            "type": "date_libre",
            "value": "?"
        },
        {
            "type": "date",
            "value": " 1252\/02\/07",
            "children": {
                "date_deb_jour": "07",
                "date_deb_mois": "02",
                "date_deb_annee": "1252"
            },
            "range": {
                "date_apres": 12520207,
                "date_avant": 12520207
            }
        },
        {
            "type": "date_lieu",
            "value": "P\u00e9rouse ?"
        },
        {
            "type": "genre",
            "value": "Lettre, g\u00e9n\u00e9ral (avant 1198)"
        },
        {
            "type": "analyse",
            "value": "Confirmation par Innocent [IV] de diff\u00e9rents statuts de l'\u00e9glise de Lyon."
        },
        {
            "type": "sources_manuscrites",
            "value": "FRANCE, Lyon, Biblioth\u00e8que municipale, Fonds Coste, ms 102 (recueil de pi\u00e8ces concernant l'\u00e9glise de Lyon, copie du XVe si\u00e8cle), fol. 28.",
            "children": {
                "type_source": ""
            }
        },
        {
            "type": "edition",
            "value": "\u00e0 \u00e9diter"
        },
        {
            "type": "transcription",
            "value": "<?xml version=\"1.0\" encoding=\"UTF-8\"?>\n\u00e0 \u00e9diter\n"
        },
        {
            "type": "remarques",
            "value": "Absente des registres (2 lettres envoy\u00e9es de P\u00e9rouse \u00e0 cette date)."
        }
    ]
}