{
    "id": 146628,
    "name": "aposcripta-6253",
    "type": "acte",
    "url": "http:\/\/telma-chartes.irht.cnrs.fr\/aposcripta\/notice\/146628",
    "project_slug": "aposcripta",
    "project_label": "APOSCRIPTA \u2013 Lettres des papes",
    "user": "l_valliere",
    "last_update": "2020-10-19 16:39:21",
    "licence": "Attribution - Pas d\u2019Utilisation Commerciale - Partage dans les M\u00eames Conditions 3.0 France (CC BY-NC-SA 3.0 FR) ",
    "licence_url": "https:\/\/creativecommons.org\/licenses\/by-nc-sa\/3.0\/fr\/",
    "elements": [
        {
            "type": "pape",
            "value": "Gr\u00e9goire IX (1227-1241)"
        },
        {
            "type": "destinataire",
            "value": "Le chapelain et p\u00e9nitencier du pape Raymond, fr\u00e8re Pr\u00eacheur"
        },
        {
            "type": "date_libre",
            "value": "VII idus aprilis, anno undecimo"
        },
        {
            "type": "date",
            "value": "1237\/04\/07",
            "children": {
                "date_deb_annee": "1237",
                "date_deb_mois": "04",
                "date_deb_jour": "07"
            },
            "range": {
                "date_apres": 12370407,
                "date_avant": 12370407
            }
        },
        {
            "type": "date_lieu",
            "value": "Viterbe"
        },
        {
            "type": "genre",
            "value": "Mandement (littere cum filo canapis)"
        },
        {
            "type": "analyse",
            "value": "El papa Gregori IX torna a escriure a Ramon de Penyafort en relaci\u00f3 amb el cas de Robert de Castell-rossell\u00f3 i li diu que si Robert es mereix la reconciliaci\u00f3, que procedeixi a fer-la amb cautela, i que aquest no molesti el bisbe d\u2019Elna pels feus que t\u00e9 Robert amb el bisbe [Torras, Berga, Cingolani]."
        },
        {
            "type": "sources_manuscrites",
            "value": "R. CIT\u00c9 DU VATICAN, Archivio segreto Vaticano, <i>Registra Vaticana<\/i> 18, ep. 11, fol. 273.",
            "children": {
                "type_source": "Registre de la chancellerie apostolique"
            }
        },
        {
            "type": "edition",
            "value": "Ici reprise de Sergi Grau Torras, Eduard Berga Salom\u00f3, Stefan\u00f3 M. Cingolani, <i>L\u2019Her\u00e8tica Pravitat a la Corona d\u2019Arag\u00f3 : documents sobre c\u00e0tars, valdesos i altres heretges (1155-1324)<\/i>, I, Barcelone : Fundaci\u00f3 Noguera, 2015, n. 110, p. 231-232."
        },
        {
            "type": "edition_autre",
            "value": "Thomas Ripoll, Antonin Br\u00e9mond, <i>Bullarium Ordinis Fratrum Praedicatorum<\/i>, Roma : ex Typographia Hieronymi Mainardi, 1729-1740, 8 vol., I, n. 161, p. 92, d'apr\u00e8s F <a target=\"_blank\" href=\" https:\/\/archive.org\/details\/bub_gb_oiLZ5D32BUMC\/page\/n163\"> [en ligne]<\/a>."
        },
        {
            "type": "edition_autre",
            "value": "Fran\u00e7ois Balme, Ceslaus Pabani, Joachim Collomb (\u00e9ds.), <i>Raymundiana seu documenta quae pertinent ad S. Raymundi de Pennaforti vitam et scripta<\/i>, vol. 6, \u201cMonumenta Ordinis Fratrum Praedicatorum historica\u201d, Roma: In Domo Generalitia; Stuttgart: apud Jos. Roth, 1898-1901, 2 fasc., VI, vol. 2, n. 37, p. 68-69 <a target=\"_blank\" href=\" https:\/\/archive.org\/details\/raymundianaseudo06balm\/page\/68\"> [en ligne]<\/a>."
        },
        {
            "type": "edition_autre",
            "value": "Jos\u00e9 Rius, \u00e9d., <i>San Raimundo de Penyafort. Diplomatario, Documentos, Cartas de San Raimundo de Penyafort, de Gregorio IX y de varios autores. Vida antigua, Cr\u00f3nicas, Procesos antiguos<\/i>, Barcelona : Universitat de Barcelona, 1954, n. 36, p. 48."
        },
        {
            "type": "edition_autre",
            "value": "Santiago Dominguez S\u00e1nchez, <i>Documentos de Gregorio IX (1227- 1241) referentes a Espa\u00f1a<\/i>, Lle\u00f3 : Universidad de Le\u00f3n, 2004, n. 656, p. 523."
        },
        {
            "type": "transcription",
            "value": "<?xml version=\"1.0\" encoding=\"UTF-8\"?>\nGregorius episcopus, Servus servorum Dei, dilecto filio fratri Raimundo, penitenciario et capellano nostro, ordinis Fratrum Predicatorum, salutem et apostolicam benedictionem. Venerabilis frater noster Elenesis episcopus in nostra presentia constitutus exposuit quod nobilis vir de Castro Rossilionis, sue diocesis, hactenus fuit refugium et princeps hereticorum diocesis supradicte, et in castris suis habuerunt domicilia huiusmodi homines infideles. Ipse quoque, cum coram episcopo memorato convictus omnem heresim abiurasset, relapsus postmodum extitit in eandem, sicut testibus et propria fuit confessione convictus, et tandem per sententiam condemnatus ac deinde traditus carceri reverendissimi in Christo filii nostri illustris regis Aragonie ad penitentiam peragendam. Unde idem episcopus humiliter postulavit a nobis ut ei, super decimis et possessionibus quas ille ab ipso tenebat in feudum, cum pro enormitate facinoris inciderit in commissum, providere misericorditer curaremus, ne ab eodem super hiis molestiam de cetero patiatur. Quocirca discretioni tue per apostolica scripta mandamus quatinus, si res ita est, et prefatus Robertus reconciliari meruerit, ab eo, auctoritate nostra, exigas idoneam cautionem ne in posterum episcopum et ecclesiam Elenensem molestet super decimis et possessionibus supradictis. Datum Viterbii, VII idus aprilis, pontificatus nostri anno undecimo.\n"
        },
        {
            "type": "sources_manuscrites",
            "value": "F. ITALIE, Rome, Archives g\u00e9n\u00e9rales de l'ordre dominicain, Couvent de Santa Sabina, <i>fondo principale<\/i>, XIV, Liber A, fol. 487.",
            "children": {
                "type_source": "Copie moderne"
            }
        },
        {
            "type": "regeste",
            "value": "Potthast, <i>Regesta pontificum Romanorum<\/i>, n. 10317 <a target=\"_blank\" href=\"https:\/\/archive.org\/stream\/RegestaPontificumRomanorum\/ph#page\/n889\/mode\/2up\"> [en ligne]<\/a>."
        },
        {
            "type": "regeste",
            "value": "Lucien Auvray, <i>Les registres de Gr\u00e9goire IX<\/i>, Paris, 1890-1955, n. 3589."
        }
    ]
}