{
    "id": 25537,
    "name": "aposcripta-2634",
    "type": "acte",
    "url": "http:\/\/telma-chartes.irht.cnrs.fr\/aposcripta\/notice\/25537",
    "project_slug": "aposcripta",
    "project_label": "APOSCRIPTA \u2013 Lettres des papes",
    "user": "lettrespontificalesadmin",
    "last_update": "2020-10-19 16:27:45",
    "licence": "Attribution - Pas d\u2019Utilisation Commerciale - Partage dans les M\u00eames Conditions 3.0 France (CC BY-NC-SA 3.0 FR) ",
    "licence_url": "https:\/\/creativecommons.org\/licenses\/by-nc-sa\/3.0\/fr\/",
    "elements": [
        {
            "type": "pape",
            "value": "Innocent IV (1243-1254)"
        },
        {
            "type": "destinataire",
            "value": "( )",
            "children": {
                "numero_note": "0"
            }
        },
        {
            "type": "date_lieu",
            "value": "Lyon"
        },
        {
            "type": "date_libre",
            "value": "1249, 17 d\u00e9cembre"
        },
        {
            "type": "date",
            "value": " 1249\/12\/17",
            "children": {
                "date_deb_annee": "1249",
                "date_deb_mois": "12",
                "date_deb_jour": "17"
            },
            "range": {
                "date_apres": 12491217,
                "date_avant": 12491217
            }
        },
        {
            "type": "analyse",
            "value": "X pape<br\/>EPISTOLA INNOCENTII PAP\u00c6 IV AD ARCHIEPISCOPUM BISUNTINENSEM, QUOD ABBAS CLUNIACENSIS POSSIT REVOCARE ET AMOVERE PRIORES QUI NON SOLVERINT EI CENSUS, REDDITUS ET PECUNIAM SINGULIS ANNIS DEBITA. Habetur executoria seu conservatoria ejusdem Privilegii, directa Archiepiscopo Bisuntinensi, per omnia similis, qu\u00e6 sic incipit."
        },
        {
            "type": "transcription",
            "value": "<?xml version=\"1.0\" encoding=\"UTF-8\"?>\n[Innocentius Episcopus servus servorum Dei, venerabili fratri Archiepiscopo Bisuntinen. salutem et Apostolicam benedictionem. Cluniacense Monasterium, quod est Sedis Apostolic\u00e6 speciale etc. Usque ad h\u00e6c verba: duximus concedendum, post qu\u00e6 sic finit. Quocirca fraternitati tu\u00e6 per Apostolica scripta mandamus, quatinus pr\u00e6dictos Abbatem et successores non permittas super hiis contra nostr\u00e6 concessionis tenorem ab aliquibus indebit\u00e8 molestari, molestatores hujusmodi per censuram Ecclesiasticam appellatione postposita compescendo. Datum Lugduni XVI. Kalendas Januarii. Pontificatus nostri anno VII.]\n"
        },
        {
            "type": "edition",
            "value": "Ici tir\u00e9e du projet <i>CBMA - Corpus Burgundiae Medii Aevi<\/i>, document 6399. Site du projet Corpus de la Bourgogne du Moyen \u00c2ge, [En ligne] <a href=\"http:\/\/www.cbma-project.eu\" target=\"_blank\">http:\/\/www.cbma-project.eu<\/a>  "
        },
        {
            "type": "sources_manuscrites",
            "value": "\u00e0 renseigner."
        },
        {
            "type": "remarques",
            "value": "\r\n\r\nIndications dans l'\u00e9dition des Chartes de Cluny quand Bernard et Bruel n'ont pas repris le texte : Innocentius, etc. Cluniacense monasterium, quod, etc. (Bull. Clun., p.\u00a0120, col.\u00a02, n\u00ba\u00a02.)."
        },
        {
            "type": "edition_autre",
            "value": "Ici reprise de Auguste Bernard, Alexandre Bruel, <i>Recueil des chartes de l'abbaye de Cluny<\/i>. VI. <i>1211-1300<\/i>, Paris\u00a0: Imprimerie nationale, 1903 <a href=\"http:\/\/gallica.bnf.fr\/ark:\/12148\/bpt6k367019?rk=21459;2\" target=\"_blank\">[en ligne]<\/a>, p. 418, n\u00b0 4921.",
            "children": {
                "numero_note": "0"
            }
        },
        {
            "type": "edition_autre",
            "value": "Pierre Simon, <i>Bullarium sacri Ordinis cluniacensis, complectens plurima privilegia per summos pontifices tum ipsi cluniacensi abbatiae, tum ei subditis monasteriis hactenus concessa<\/i>, Lyon : Jullieron, 1680, p. 120, col. 2, n\u00b01",
            "children": {
                "numero_note": "1"
            }
        },
        {
            "type": "genre",
            "value": "Bulle"
        }
    ]
}