{
    "id": 147963,
    "name": "aposcripta-7579",
    "type": "acte",
    "url": "http:\/\/telma-chartes.irht.cnrs.fr\/aposcripta\/notice\/147963",
    "project_slug": "aposcripta",
    "project_label": "APOSCRIPTA \u2013 Lettres des papes",
    "user": "m_chevalier",
    "last_update": "2020-10-19 16:39:39",
    "licence": "Attribution - Pas d\u2019Utilisation Commerciale - Partage dans les M\u00eames Conditions 3.0 France (CC BY-NC-SA 3.0 FR) ",
    "licence_url": "https:\/\/creativecommons.org\/licenses\/by-nc-sa\/3.0\/fr\/",
    "elements": [
        {
            "type": "pape",
            "value": "Innocent IV (1243-1254)"
        },
        {
            "type": "destinataire",
            "value": "L'archipr\u00eatre de Molassana (dioc\u00e8se de G\u00eanes), Ottobono"
        },
        {
            "type": "date_libre",
            "value": "VI idus julii, anno sexto"
        },
        {
            "type": "date",
            "value": "1248\/07\/10",
            "children": {
                "date_deb_annee": "1248",
                "date_deb_mois": "07",
                "date_deb_jour": "10"
            },
            "range": {
                "date_apres": 12480710,
                "date_avant": 12480710
            }
        },
        {
            "type": "date_lieu",
            "value": "Lyon"
        },
        {
            "type": "genre",
            "value": "Mandement (littere cum filo canapis)"
        },
        {
            "type": "analyse",
            "value": "Innocenzo\u00a0IV ordina a [Ottobono], arciprete di Molassana, nella diocesi di Genova, di provvedere un beneficio nella chiesa di S. Nicola di Portofino di Capodimonte, ad Albertino, studente di Parma, familiare di Opizzo e Alberto Fieschi, conti di Lavagna, rispettivamente fratello e nipote del papa."
        },
        {
            "type": "sources_manuscrites",
            "value": "F. ITALIE, G\u00eanes, Archivio di Stato di Genova, Cartolare 22 c. 81v. Copia inserta in atto dei 26\u00a0novembre 1248, rogato a Genova dal notaio Buonvassallo de Maiori.",
            "children": {
                "type_source": "Autre copie m\u00e9di\u00e9vale"
            }
        },
        {
            "type": "edition",
            "value": "Ici reprise de Franco Guerello, <i>Lettere di Innocenzo IV dai cartolari notarili genovesi<\/i>, Rome : Pontificia Universit\u00e0 Gregoriana, 1961, n. 40, p. 73-74. "
        },
        {
            "type": "regeste",
            "value": "Giorgio Costamagna, \u00ab Documenti pontifici inseriti nelle imbreviature dei notai genovesi \u00bb, <i>Bollettino lingustico per la storia e la cultura regionale<\/i>, 5, 1953, p. 64-66, \u00e0 la p. 65."
        },
        {
            "type": "transcription",
            "value": "<?xml version=\"1.0\" encoding=\"UTF-8\"?>\nInnocentius episcopus, servus servorum Dei, dilecto filio .. archipresbitero plebis de Mola\u00e7ana, Ianuensis diocesis, salutem et apostolicam benedictionem. [Ad] provisionem illorum nostra dirigi cum favore debet affectio in quorum desiderio geritur quod ipsorum humilitas divinis laudibus ascribatur. Cum igitur dilectum filium Albertinum, scolarem Parmensem, familiarem nobilium virorum Opi\u00e7onis, fratris, et Alberti, nepotis nostri, de Flisco, comitum de Lavania, qui sicut asseritur ascribi desiderat milicie clericali, ipsorum nobilium optentu supplicancium nobis pro ipso, speciali gratia [intendamus]a prosequi et favore, discretioni tue per apostolica scripta mandamus quatinus eundem in ecclesia Sancti Nicolai de Portu Delfino, qui dicitur Caput Montis, Ianuensis diocesis, auctoritate nostra recipi facias in clericum et in fratrem ac provideri sibi de prebenda, si qua in ipsa vacat ad presens aut quam primum ad id obtulerit se facultas, non obstante statuto de certo clericorum numero, iuramento confirmacione Sedis apostolice vel qualibet firmitate alia roborato, aut si pro aliis scripta nostra ibidem direximus, quibus nolumus auctoritate presencium preiudiciumb generari [generari], seu aliqua indulgentia per quam posset huiusmodi provisio impediri, contradictores per censuram ecclesiasticam, appellatione postposita, compescendo. Datum Lugduni, VI ydus iulii, pontificatus nostri anno sexto.\n"
        },
        {
            "type": "apparat_critique",
            "value": "Intendamus <i>\u00e8 evidentemente omesso.<\/i>",
            "children": {
                "numero_note": "a"
            }
        },
        {
            "type": "apparat_critique",
            "value": "Preiudicium <i>\u00e8 in sopralinea<\/i>.",
            "children": {
                "numero_note": "b"
            }
        }
    ]
}