{
    "id": 147857,
    "name": "aposcripta-7475",
    "type": "acte",
    "url": "http:\/\/telma-chartes.irht.cnrs.fr\/aposcripta\/notice\/147857",
    "project_slug": "aposcripta",
    "project_label": "APOSCRIPTA \u2013 Lettres des papes",
    "user": "l_valliere",
    "last_update": "2020-10-19 16:39:38",
    "licence": "Attribution - Pas d\u2019Utilisation Commerciale - Partage dans les M\u00eames Conditions 3.0 France (CC BY-NC-SA 3.0 FR) ",
    "licence_url": "https:\/\/creativecommons.org\/licenses\/by-nc-sa\/3.0\/fr\/",
    "elements": [
        {
            "type": "pape",
            "value": "Cl\u00e9ment IV (1265-1268)"
        },
        {
            "type": "destinataire",
            "value": "Le chapelain apostolique fr\u00e8re M., de l'ordre des Fr\u00e8res Mineurs"
        },
        {
            "type": "date_libre",
            "value": "III nonas februarii, anno secundo"
        },
        {
            "type": "date",
            "value": "1267\/02\/03",
            "children": {
                "date_deb_annee": "1267",
                "date_deb_mois": "02",
                "date_deb_jour": "03"
            },
            "range": {
                "date_apres": 12670203,
                "date_avant": 12670203
            }
        },
        {
            "type": "date_lieu",
            "value": "Viterbe"
        },
        {
            "type": "genre",
            "value": "Mandement (littere cum filo canapis)"
        },
        {
            "type": "analyse",
            "value": "Pisanis mandavit ut cum Lucanis pacem vel saltem treugam ad quadriennium firment, et captivos Lucanos, illos saltem \u00ab quos extra suum districtum, Lucanis existentibus in Ecclesie Romane devotione, ceperunt, \u00bb libertati restituant. Nuntius eis injungat, ut decem galeas in Terram sanctam instanti mense martii mittant [Jordan].\nClemens IV. an den Franziskanerbruder und p\u00e4pstlichen Kaplan M. : gebietet ihm, sich um den Abschlu\u00df eines Friedens oder Waffenstillstandes zwischen Pisa und Lucca zu bem\u00fchen, die Pisaner zur Abstellung von mindestens zehn Schiffen f\u00fcr die f\u00fcr M\u00e4rz geplante Kreuzfahrt ins Heilige Land zu bewegen und ihnen aufzutragen, von den Luccheser Gefangenen keine finanziellen Leistungen zu verlangen [Thumser]."
        },
        {
            "type": "sources_manuscrites",
            "value": "R<sup>1<\/sup>. CIT\u00c9 DU VATICAN, Archivio segreto Vaticano, <i>Registra Vaticana<\/i> 30, fol. 53.",
            "children": {
                "type_source": "Formulaire, collection de lettres m\u00e9di\u00e9vale"
            }
        },
        {
            "type": "sources_manuscrites",
            "value": "R<sup>2<\/sup>. CIT\u00c9 DU VATICAN, Archivio segreto Vaticano, <i>Registra Vaticana<\/i> 34, fol. 78v.",
            "children": {
                "type_source": "Formulaire, collection de lettres m\u00e9di\u00e9vale"
            }
        },
        {
            "type": "sources_manuscrites",
            "value": "R<sup>3<\/sup>. CIT\u00c9 DU VATICAN, Archivio segreto Vaticano, <i>Registra Vaticana<\/i> 35, ep. 297, fol. 58v (sans date).",
            "children": {
                "type_source": "Formulaire, collection de lettres m\u00e9di\u00e9vale"
            }
        },
        {
            "type": "edition",
            "value": "Ici reprise de Mathias Thumser, <i>Die Briefe Papst Clemens\u2019 IV. (1265\u20131268)<\/i>, Vorl\u00e4ufige Edition, MGH, 2015, n. 302."
        },
        {
            "type": "edition_autre",
            "value": "Edmond Mart\u00e8ne, Ursin Durand, <i>Thesaurus novus anecdotorum<\/i>, Paris, 1717, II, n. 430, col. 442 <a target=\"_blank\" href=\"https:\/\/archive.org\/stream\/ThesaurusNovusAnecdotorum2\/Thesaurus_novus_anecdotorum_2#page\/n255\/mode\/2up\"> [en ligne]<\/a>."
        },
        {
            "type": "regeste",
            "value": "Potthast, <i>Regesta pontificum Romanorum<\/i>, n. 19928 <a target=\"_blank\" href=\"https:\/\/archive.org\/stream\/RegestaPontificumRomanorum\/ph#page\/n1621\/mode\/2up\"> [en ligne]<\/a>."
        },
        {
            "type": "regeste",
            "value": "\u00c9douard Jordan, <i>Les registres de Cl\u00e9ment IV (1265-1268)<\/i>, Paris, 1893-1945, n. 1171, d\u2019apr\u00e8s R<sup>1<\/sup>, R<sup>2<\/sup> et R<sup>3<\/sup>."
        },
        {
            "type": "bibliographie_generale",
            "value": "Mathias Thumser, \u00ab Zur \u00dcberlieferungsgeschichte der Briefe Clemens'IV. (1265-1268) \u00bb, <i>Deutsches Archiv f\u00fcr Erforschung des Mittelalters<\/i>, 51\/1, 1995, p. 115-168."
        },
        {
            "type": "transcription",
            "value": "<?xml version=\"1.0\" encoding=\"UTF-8\"?>\nDilecto filio fratri M. ordinis Fratrum Minorum, capellano nostro. Mandatum Pisanis dedimus de captivis Lucanis, quos detinent, pace inter eos vel saltem treuga ad quadriennium firmata reddendis. Quod si neutrum procedere contingat, precipimus eisdem, ut illos restituant, quos extra suum districtum Lucanis existentibus in ecclesie Romane devotione ceperunt. Quocirca discretioni tue per apostolica scripta mandamus quatenus, si inter ipsos plenam pacem fieri non contigerit, interponas sollicitudinis tue par-tes ad treugam saltem firmandam ad quadriennium inter eos. Speramus enim in Domino, quod per hanc viam inter partes pax perpetua reformetur. Quia vero iidem Pisani Romanam ecclesiam multipliciter offenderunt, volumus, quod ex parte nostra iniungas eisdem, ut certum galearum numerum, X ad minus bene paratas, mittant instanti mense Martii in subsidium Terre Sancte nec ullam in hoc difficultatem ingerant, cum sit huiusmodi satisfactio modica consideratis eorum excessibus, quos in Romanam ecclesiam commiserunt. Ex parte etiam nostra eisdem precipias, quod pro nostra et apostolice sedis reverentia nullum onus date seu collecte captivis dictis imponant. Quod si fecerint, pro certo teneant, quod de pignoribus, que ab eis recepimus, conservabimus ipsos captivos indempnes. Datum Viterbii, III nonas februarii, anno II.\n"
        }
    ]
}