{
    "id": 147839,
    "name": "aposcripta-7457",
    "type": "acte",
    "url": "http:\/\/telma-chartes.irht.cnrs.fr\/aposcripta\/notice\/147839",
    "project_slug": "aposcripta",
    "project_label": "APOSCRIPTA \u2013 Lettres des papes",
    "user": "l_valliere",
    "last_update": "2020-10-19 16:39:37",
    "licence": "Attribution - Pas d\u2019Utilisation Commerciale - Partage dans les M\u00eames Conditions 3.0 France (CC BY-NC-SA 3.0 FR) ",
    "licence_url": "https:\/\/creativecommons.org\/licenses\/by-nc-sa\/3.0\/fr\/",
    "elements": [
        {
            "type": "pape",
            "value": "Cl\u00e9ment IV (1265-1268)"
        },
        {
            "type": "destinataire",
            "value": "Tous les citoyens de Florence, \u00e0 l'ext\u00e9rieur comme \u00e0 l'int\u00e9rieur de la ville"
        },
        {
            "type": "genre",
            "value": "Mandement (littere cum filo canapis)"
        },
        {
            "type": "analyse",
            "value": "Scribit eis, ut Helie Peleti, capellani apostolici, mandatis pareant [Jordan].\nClemens IV. an die B\u00fcrger von Florenz innerhalb und au\u00dferhalb der Stadt : gebietet ihnen, seinem Kaplan Helias Peleti, den er in ihre Stadt geschickt habe, Gehorsam zu erweisen [Thumser]."
        },
        {
            "type": "sources_manuscrites",
            "value": "R<sup>1<\/sup>. CIT\u00c9 DU VATICAN, Archivio segreto Vaticano, <i>Registra Vaticana<\/i> 30, fol. 50 (<i>Dat. ut supra in proxima<\/i>).",
            "children": {
                "type_source": "Formulaire, collection de lettres m\u00e9di\u00e9vale"
            }
        },
        {
            "type": "sources_manuscrites",
            "value": "R<sup>2<\/sup>. CIT\u00c9 DU VATICAN, Archivio segreto Vaticano, <i>Registra Vaticana<\/i> 33, ep. 278, fol. 49v (<i>Dat. ut supra<\/i>).",
            "children": {
                "type_source": "Formulaire, collection de lettres m\u00e9di\u00e9vale"
            }
        },
        {
            "type": "sources_manuscrites",
            "value": "R<sup>3<\/sup>. CIT\u00c9 DU VATICAN, Archivio segreto Vaticano, <i>Registra Vaticana<\/i> 34, fol. 74v (<i>Dat. ut supra in proxima<\/i>).",
            "children": {
                "type_source": "Formulaire, collection de lettres m\u00e9di\u00e9vale"
            }
        },
        {
            "type": "sources_manuscrites",
            "value": "R<sup>4<\/sup>. CIT\u00c9 DU VATICAN, Archivio segreto Vaticano, <i>Registra Vaticana<\/i> 35, ep. 279, fol. 56 (<i>Dat. ut supra<\/i>).",
            "children": {
                "type_source": "Formulaire, collection de lettres m\u00e9di\u00e9vale"
            }
        },
        {
            "type": "edition",
            "value": "Ici reprise de Mathias Thumser, <i>Die Briefe Papst Clemens\u2019 IV. (1265\u20131268)<\/i>, Vorl\u00e4ufige Edition, MGH, 2015, n. 284."
        },
        {
            "type": "edition_autre",
            "value": "Edmond Mart\u00e8ne, Ursin Durand, <i>Thesaurus novus anecdotorum<\/i>, Paris, 1717, II, n. 411, col. 428 <a target=\"_blank\" href=\"https:\/\/archive.org\/stream\/ThesaurusNovusAnecdotorum2\/Thesaurus_novus_anecdotorum_2#page\/n249\/mode\/2up\"> [en ligne]<\/a>."
        },
        {
            "type": "regeste",
            "value": "Potthast, <i>Regesta pontificum Romanorum<\/i>, n. 19878 <a target=\"_blank\" href=\"https:\/\/archive.org\/stream\/RegestaPontificumRomanorum\/ph#page\/n1619\/mode\/2up\"> [en ligne]<\/a>."
        },
        {
            "type": "regeste",
            "value": "\u00c9douard Jordan, <i>Les registres de Cl\u00e9ment IV (1265-1268)<\/i>, Paris, 1893-1945, n. 1153, d\u2019apr\u00e8s R<sup>1<\/sup>, R<sup>2<\/sup>, R<sup>3<\/sup> et R<sup>4<\/sup>."
        },
        {
            "type": "transcription",
            "value": "<?xml version=\"1.0\" encoding=\"UTF-8\"?>\nDilectis filiis universis civibus Florentinis intrinsecis et extrinsecis. Reformatione civitatis Florentine Dei potius digito quam humano consilio tam salubriter quam feliciter inchoata, ne per insolentiam aliquorum valeat perturbari, dilectum filium magistrum Heliam Peleti capellanum nostrum, generalem causarum nostri palatii auditorem ad eandem misimus civitatem, ut, que laudabili sunt initiata principio, eius providentia conserventur et ad exitum veniant meliorem. Unde vobis districte precipimus et mandamus quatenus civitatis eiusdem et districtus ipsius pacem turbare nullatenus presumatis et eiusdem capellani mandatis in omnibus pareatis. Nos enim penas et multas, quas ipse et cetera. Datum ut supra in proxima.\n"
        },
        {
            "type": "date",
            "value": "1266\/11\/22",
            "children": {
                "date_deb_annee": "1266",
                "date_deb_mois": "11",
                "date_deb_jour": "22"
            },
            "range": {
                "date_apres": 12661122,
                "date_avant": 12661122
            }
        },
        {
            "type": "date_libre",
            "value": "X kalendas decembris, anno secundo"
        },
        {
            "type": "date_lieu",
            "value": "Viterbe"
        },
        {
            "type": "bibliographie_generale",
            "value": "Mathias Thumser, \u00ab Zur \u00dcberlieferungsgeschichte der Briefe Clemens'IV. (1265-1268) \u00bb, <i>Deutsches Archiv f\u00fcr Erforschung des Mittelalters<\/i>, 51\/1, 1995, p. 115-168."
        }
    ]
}