{
    "id": 20383,
    "name": "aposcripta-370",
    "type": "acte",
    "url": "http:\/\/telma-chartes.irht.cnrs.fr\/aposcripta\/notice\/20383",
    "project_slug": "aposcripta",
    "project_label": "APOSCRIPTA \u2013 Lettres des papes",
    "user": "lettrespontificalesadmin",
    "last_update": "2020-10-19 16:26:48",
    "licence": "Attribution - Pas d\u2019Utilisation Commerciale - Partage dans les M\u00eames Conditions 3.0 France (CC BY-NC-SA 3.0 FR) ",
    "licence_url": "https:\/\/creativecommons.org\/licenses\/by-nc-sa\/3.0\/fr\/",
    "elements": [
        {
            "type": "pape",
            "value": "Cl\u00e9ment VI (1342-1352)"
        },
        {
            "type": "date_lieu",
            "value": "Avignon"
        },
        {
            "type": "date_libre",
            "value": "X kalendas iulii, anno septimo"
        },
        {
            "type": "analyse",
            "value": "Le pape ratifie et confirme les conventions stipul\u00e9es \u00e0 l\u2019amiable, par les soins du cardinal \u00c9tienne Aubert, entre Aymon de Caumont, inquisiteur de Carcassonne, les conseillers, officiers et notaires de l\u2019Inquisition d\u2019une part, et les consuls de Carcassonne, de l\u2019autre, \u00e0 l\u2019endroit des tailles, gabelles et autres taxes. Il est convenu que l\u2019exemption invoqu\u00e9e en faveur des subalternes du tribunal n\u2019existera d\u00e9sormais que pour trois conseillers, officiers, ou jur\u00e9s, et un seul notaire, d\u00e9sign\u00e9s par l\u2019inquisiteur et ses successeurs. Cette exemption ne s\u2019\u00e9tendra pas aux r\u00e8glements de police et aux p\u00e9nalit\u00e9s \u00e9dict\u00e9s par les consuls pour le bien de la communaut\u00e9. Les censures port\u00e9es par l\u2019inquisiteur seront r\u00e9voqu\u00e9es et les gages rendus<a class=\"note\" href=\"#note-1\">1<\/a>."
        },
        {
            "type": "transcription",
            "value": "<?xml version=\"1.0\" encoding=\"UTF-8\"?>\nAd perpetuam rei memoriam. Ea que iudicio... Dudum siquidem inter dilectos filios Aymonem de Calvomonte, ordinis fratrum predicatorum, inquisitorem heretice pravitatis in regno Francie per Sedem apostolicam deputatum, Carcassone communiter residentem, et magistrum Bernardum Fontisgrive, legum doctorem, consiliarium, et quondam Bernardi Taurelli licenciati in legibus ac quondam Philippi Philippi, iurisperiti, ac quondam Raymundi Folcaudi, consiliariorum ac iuratorum officii Inquisitionis predicte, heredes et nonnullos alios asserentes se consiliarios, notarios et iuratos eiusdem officii ex una parte, ac Bernardum Mercerii, Guillermum de Frezinchis, Petrum Peyrerii, Paulum Terreni, Berengarium Montanerii, et Raymundum Rotgerii, consules burgi Carcassonen., pro se et nomine universitatis dicti burgi, super eo quod predicti consules suo et dictorum universitatis nomine certas tallias et impositiones urgentibus necessitatibus et negotiis universitatis dicti burgi, tam iure proprio quam alias ex concessione regia ut dicebant, imposuerant et impositas a dictis consiliariis, notariis et iuratis, quemadmodum et ab aliis incolis dicti burgi exigebant et solvi petebant, et ab ipsis consiliariis, notariis, iuratis dicte Inquisitionis existentibus tunc in mora huiusmodi tallias et impositiones exolvendi propter hoc certa pignora receperant seu recipi fecerant ; inquisitor vero predictus nonnulla privilegia tam a Sede apostolica quam a carissimo in Christo filio nostro .. rege Francie illustri inquisitori ac consiliariis, notariis et iuratis eiusdem Inquisitionis officii, ut asserebat, concessa se habere et illorum vigore consiliarios, notarios, iuratos dicti officii Inquisitionis fuisse liberos et immunes a solutione talliarum et impositionum huiusmodi impositarum et imponendarum, et in possessione seu quasi libertatis et immunitatis huiusmodi fuisse et esse dicebat, ex altera, materia questionis exorta. Tandem, quia prefatus inquisitor auctoritate apostolica qua in ea parte fungere se asserebat prenominatos consules monuerat ut huiusmodi pignora recepta restituerent eis a quibus illa receperant ; et nichilominus eosdem consules, quia monitioni huiusmodi non paruerant, nominatim quantum in eo fuit interdixit et excommunicavit, et sententiam excommunicationis huiusmodi contra eos et nonnullos participantes eisdem nominatim etiam aggravavit, pro parte dictorum consulum suo et dicto universitatis nomine ad Sedem predictam extitit appellatum. Huiusmodi namque appellationis et processus negocio pro parte dictorum consulum et universitatis proposito in consistorio coram nobis altera parte presente, nos volentes earumdem partium parcere laboribus et expensis et affectantes quod huiusmodi suborta dissensio sublatis litigiorum anfractibus terminaretur amicabiliter, inter partes easdem ordinavimus quod predictis pignoribus eis a quibus recepta fuerant sub recredentia restitutis huiusmodi processus dicti inquisitoris ac pene et sententie contente in illis usque ad unum mensem a tunc instanti festo Resurrectionis Dominice computandum suspenderentur, mandari facientes utrique partium predictarum quod infra octabas predicti festi per se vel procuratores eorum legitimos cum pleno et sufficienti mandato ad concordiam huiusmodi faciendam et cum omnibus actis, iuribus et munimentis quibus vellent in huiusmodi causa uti, coram nobis comparere curarent. Factis itaque post modum in partibus illis iuxta ordinationem nostram predictam restitutione pignorum ac suspensione processuum, penarum et sententiarum predictorum et subsequenter comparentibus personaliter in romana Curia inquisitore pro se et dictorum consiliariorum, notariorum et iuratorum ac heredum nomine, necnon Paulo Terreni, et Guillermo de Frezinchis, consulibus antedictis, pro se et aliis consulibus et universitate predictis, nos etiam ad supplicationem partium predictarum dilecto filio nostro Stephano2, tituli sanctorum Johannis et Pauli presbitero cardinali, commisimus et mandavimus oraculo vive vocis ut partes ipsas super premissis per viam amicabilem exquisitam ad pacem et concordiam reducere procuraret. Coram quo quidem cardinali prefatis inquisitore ac Paulo et Guillermo consulibus pro se et nominibus supradictis cum sufficientibus mandatis personaliter comparentibus, et per eundem cardinalem cum eisdem partibus super pace et concordia huiusmodi faciendis inter eos diversis tractatibus habitis, tandem partes ipse volentes pacem liti preferre spontanea voluntate eodem cardinali tractante amicabiliter pro bono pacis et concordie componendo ad invicem convenerunt, videlicet quod inquisitor predictus et eius in dicto Inquisitionis officio successores possent tres personas de consiliariis, officialibus et iuratis dicti officii Inquisitionis et etiam unum notarium deservientem officio Inquisitionis predicte, quos maluerint et elegerint, solum et duntaxat reddere quictos, liberos et immunes a talliis, questis, gabellis et aliis impositionibus quibuscumque factis et faciendis indictis et indicendis per consules predictos, qui tunc erant et alios qui pro tempore essent burgi predicti, solum et duntaxat pro futuris temporibus ; ita videlicet quod ultra predictum numerum dicti inquisitor et successores nullum alium consiliarium vel notarium possent immunes reddere a premissis, sed predicto duntaxat numero essent contenti ; possent tamen dicti inquisitor et successores illos dimittere et mutare prout et quotiens eis placeret ; sic tamen quod si exemptos per unum inquisitorem successor ipsius vellet exemptos esse illi predicta exemptione gauderent sicut prius ; sed si alios vellet eximere, predicti presens exempti extunc omnino cessarent ab exemptione predicta ; ceteri vero consiliarii et iurati dicti officii Inquisitionis, cuiuscumque conditionis existerent, qui tunc erant et pro tempore forent habitatores et incole dicti burgi, preterquam duntaxat predicti tres auxiliarii et unus notarius non essent exempti occasione seu pretextu officii supradicti a talliis, gabellis et impositionibus quibuscumque per dictos consules indictis, et tam per eos quam per eorum successores pro tempore in posterum indicendis, immo compelli possent ad solvendum huiusmodi gabellas, tallias et impositiones sicut ceteri habitatores et incole burgi predicti, nisi alias per privilegia vel de iure seu de consuetudine forent exempti, seu immunes contemplatione personarum suarum aut alias, non pretextu officii supradicti. Fuit etiam concorditer ordinatum quod dicti tres consiliarii et unus notarius per dictum inquisitorem et alios qui pro tempore forent eximendi, non essent exempti occasione predicta observatione statutorum honestorum et rationabilium penas infligentium non observantibus ea, editorum et edendorum per consules prefatos pro utilitate incolarum et habitatorum dicti burgi ; quin sicut ceteri incole et sub penis in eisdem contentis ad eorum observantiam tenerentur. Actum fuit etiam inter dictas partes quod omnes processus et sententie excomunicationum facti et late per dictum inquisitorem seu eius locumtenentem contra consules predictos et eis participantes, necnon appellationes dictorum consulum et omnis eorundem processuum, sententiarum et appellationum effectus, et quecumque inde secuta, si et quatinus de iure tenerent, essent cassa et irrita et nullam deinceps optinerent (sic) firmitatem, et pro non factis et habitis ac interpositis penitus haberentur ; prefati quoque consules una cum eorum participantibus, si et quatinus indigebant, sive simpliciter, sive ad cautelam per nos absolverentur a sententiis et processibus supradictis. Quam quidem amicabilem compositionem prefati inquisitor et consules presentes et eorum quilibet pro se et nominibus supradictis prout quemlibet eorum tangebat laudaverunt, approbaverunt, ratificaverunt et omologaverunt expresse ac ratam, gratam et acceptam in omnibus et per omnia habuerunt, prout in patentibus litteris inde confectis ejusdem cardinalis sigillo munitis plenius continetur. Nos itaque, eorumdem inquisitoris ac consulum et universitatis supplicationibus inclinati compositionem huiusmodi provide factam ratam habentes et gratam, ipsam auctoritate apostolica ex certa scientia confirmamus et presentis scripti patrocinio communimus3. Nulli ergo etc., nostre confirmationis et communitionis infringere etc.  Datum Avinioni, X kalendas iulii, anno septimo.\n"
        },
        {
            "type": "edition",
            "value": "Ici reprise de Jean-Marie Vidal, <i>Bullaire de l\u2019Inquisition fran\u00e7aise au XIV<sup>e<\/sup> si\u00e8cle et jusqu'\u00e0 la fin du Grand Schisme<\/i>, Paris : Letouzey et An\u00e9, 1913, n. 206, p. 316-320."
        },
        {
            "type": "sources_manuscrites",
            "value": "<i>Reg. Aven.<\/i>, t. <span class=\"smal-caps\">c<\/span>, fol. 58 v\u00b0.",
            "children": {
                "type_source": "Registre de la chancellerie apostolique"
            }
        },
        {
            "type": "notes_historiques",
            "value": "Voir la bulle pr\u00e9c\u00e9dente.",
            "children": {
                "numero_note": "1"
            }
        },
        {
            "type": "notes_historiques",
            "value": "\u00c9tienne Aubert, chanoine de Paris, docteur \u00e8s lois, \u00e9v\u00eaque de Noyon, le 23 janvier 1338 ; transf\u00e9r\u00e9 \u00e0 Clermont, en 1340 ; promu au cardinalat (titre des Saints-Jean-et-Paul), le 20 septembre 1342 ; \u00e9v\u00eaque d\u2019Ostie, le 13 f\u00e9vrier 1352 ; pape, sous le nom d\u2019Innocent VI, le 18 d\u00e9cembre 1352 ; mort le 12 septembre 1362. Baluze, <i>Vit\u00e6<\/i>, t. <span class=\"smal-caps\">i<\/span>, col. 321-362, 918-794 ; Ciacconius, t. <span class=\"smal-caps\">ii<\/span>, col. 495 ; <i>Gall. christ.<\/i>, t. <span class=\"smal-caps\">ii<\/span>, col. 287 ; t. <span class=\"smal-caps\">ix<\/span>, col. 1015 ; Eubel, <i>Hier.<\/i>, t. <span class=\"smal-caps\">i<\/span>, p. 17, 199, 390.",
            "children": {
                "numero_note": "2"
            }
        },
        {
            "type": "notes_historiques",
            "value": "Le diff\u00e9rend se rouvrit quelques ann\u00e9es plus tard. Les consuls carcassonnais pr\u00e9tendirent que, si les trois conseillers et le notaire de l\u2019Inquisition \u00e9taient exempts de tailles, gabelles et autres taxes municipales, ils ne l\u2019\u00e9taient nullement des droits de fouage et des autres charges impos\u00e9es par le roi de France. L\u2019inquisiteur Durand Salvan en r\u00e9f\u00e9ra au pape Gr\u00e9goire XI, qui confia au cardinal Bernard du Bosquet le soin d\u2019amener les parties \u00e0 composition ou bien d\u2019instruire le proc\u00e8s, s\u2019il y avait lieu. Le cardinal mourut avant d\u2019avoir fait ratifier l\u2019accord verbal que les procureurs des parties avaient conclu, sans pouvoir, faute de mandat, le consigner par \u00e9crit. L\u2019inquisiteur n\u2019en avait pas moins fulmin\u00e9 l\u2019excommunication contre ses adversaires. Ce fut le cardinal Guillaume d\u2019Aigrefeuille qui termina le litige, en d\u00e9cidant que, l\u2019exemption fiscale restant enti\u00e8re en ce qui concernait les tailles, subsides, imp\u00f4ts d\u00e9cr\u00e9t\u00e9s par les consuls et le roi de France, les quatre privil\u00e9gi\u00e9s de l\u2019Inquisition seraient tenus de contribuer aux d\u00e9pens n\u00e9cessit\u00e9s par la construction et l\u2019entretien des murs de la ville (18 mai 1372). Doat, t. <span class=\"smal-caps\">xxxv<\/span>, fol. 136 v\u00b0-161.",
            "children": {
                "numero_note": "3"
            }
        },
        {
            "type": "date",
            "value": "1348\/06\/22",
            "children": {
                "date_deb_annee": "1348",
                "date_deb_mois": "06",
                "date_deb_jour": "22"
            },
            "range": {
                "date_apres": 13480622,
                "date_avant": 13480622
            }
        },
        {
            "type": "genre",
            "value": "Titre, g\u00e9n\u00e9ral (littere gratiose, cum filo serico)"
        },
        {
            "type": "destinataire",
            "value": "Pour m\u00e9moire perp\u00e9tuelle"
        }
    ]
}