{
    "id": 25343,
    "name": "aposcripta-2440",
    "type": "acte",
    "url": "http:\/\/telma-chartes.irht.cnrs.fr\/aposcripta\/notice\/25343",
    "project_slug": "aposcripta",
    "project_label": "APOSCRIPTA \u2013 Lettres des papes",
    "user": "lettrespontificalesadmin",
    "last_update": "2020-10-19 16:27:43",
    "licence": "Attribution - Pas d\u2019Utilisation Commerciale - Partage dans les M\u00eames Conditions 3.0 France (CC BY-NC-SA 3.0 FR) ",
    "licence_url": "https:\/\/creativecommons.org\/licenses\/by-nc-sa\/3.0\/fr\/",
    "elements": [
        {
            "type": "pape",
            "value": "Adrien IV (1154-1159)"
        },
        {
            "type": "destinataire",
            "value": "L'\u00e9v\u00eaque du Mans Guillaume",
            "children": {
                "numero_note": "0"
            }
        },
        {
            "type": "date_lieu",
            "value": "n.c."
        },
        {
            "type": "date_libre",
            "value": "1159, 27 f\u00e9vrier"
        },
        {
            "type": "date",
            "value": " 1159\/02\/27",
            "children": {
                "date_deb_annee": "1159",
                "date_deb_mois": "02",
                "date_deb_jour": "27"
            },
            "range": {
                "date_apres": 11590227,
                "date_avant": 11590227
            }
        },
        {
            "type": "analyse",
            "value": "X pape<br\/>EPISTOLA ADRIANI PAP\u00c6 IV, QUA MANDAT WILLELMO, CENOMANENSI EPISCOPO, UT JUDICET INTER MONACHOS CLUNIACENSES ET WILLELMUM DE ALTA FAIA, DE ECCLESIA ROCH\u00c6BOVISCURTIS LITIGANTES."
        },
        {
            "type": "transcription",
            "value": "<?xml version=\"1.0\" encoding=\"UTF-8\"?>\nAdrianus, etc. Super causa de, etc. \n"
        },
        {
            "type": "edition",
            "value": "Ici tir\u00e9e du projet <i>CBMA - Corpus Burgundiae Medii Aevi<\/i>, document 5634. Site du projet Corpus de la Bourgogne du Moyen \u00c2ge, [En ligne] <a href=\"http:\/\/www.cbma-project.eu\" target=\"_blank\">http:\/\/www.cbma-project.eu<\/a>  "
        },
        {
            "type": "sources_manuscrites",
            "value": "\u00e0 renseigner."
        },
        {
            "type": "remarques",
            "value": ""
        },
        {
            "type": "edition_autre",
            "value": "Ici reprise de Auguste Bernard, Alexandre Bruel, <i>Recueil des chartes de l'abbaye de Cluny<\/i>. V. <i>1091-1210<\/i>, Paris\u00a0: Imprimerie nationale, 1894 <a href=\"http:\/\/gallica.bnf.fr\/ark:\/12148\/bpt6k28911f?rk=64378;0\" target=\"_blank\">[en ligne]<\/a>, p. 543, n\u00b0 4197",
            "children": {
                "numero_note": "0"
            }
        },
        {
            "type": "regeste",
            "value": "D. Bouquet, t.\u00a0XV, p.\u00a0691.",
            "children": {
                "numero_note": "0"
            }
        },
        {
            "type": "genre",
            "value": "Mandement (littere cum filo canapis)"
        }
    ]
}