{
    "id": 20470,
    "name": "aposcripta-457",
    "type": "acte",
    "url": "http:\/\/telma-chartes.irht.cnrs.fr\/aposcripta\/notice\/20470",
    "project_slug": "aposcripta",
    "project_label": "APOSCRIPTA \u2013 Lettres des papes",
    "user": "lettrespontificalesadmin",
    "last_update": "2020-10-19 16:26:49",
    "licence": "Attribution - Pas d\u2019Utilisation Commerciale - Partage dans les M\u00eames Conditions 3.0 France (CC BY-NC-SA 3.0 FR) ",
    "licence_url": "https:\/\/creativecommons.org\/licenses\/by-nc-sa\/3.0\/fr\/",
    "elements": [
        {
            "type": "pape",
            "value": "Gr\u00e9goire XI (1370-1378)"
        },
        {
            "type": "date_lieu",
            "value": "Avignon"
        },
        {
            "type": "date_libre",
            "value": "7 octobre 1375"
        },
        {
            "type": "analyse",
            "value": "ACTION DE GR\u00c9GOIRE XI contre les Vaudois de la Provence, de la Savoie et du Dauphin\u00e9 (1375-1376)Nos 286-308. Voir l\u2019Introduction. p. lvii-lxv.<br\/>L\u2019\u00e9v\u00eaque de Massa et l\u2019inquisiteur Fran\u00e7ois Borrel<a class=\"note\" href=\"#note-1\">1<\/a> devront contraindre les \u00e9v\u00eaques \u00e0 pourvoir \u00e0 l\u2019entretien des prisonniers originaires de leurs dioc\u00e8ses respectifs. Les ordinaires qui seraient de ce chef trop lourdement charg\u00e9s seront aid\u00e9s par leurs coll\u00e8gues voisins."
        },
        {
            "type": "transcription",
            "value": "<?xml version=\"1.0\" encoding=\"UTF-8\"?>\nVenerabili fratri Antonio, episcopo Massan., apostolice Sedis nuntio, et dilecto filio Francisco Borilli, ordinis fratrum minorum, in sacra theologia magistro, in Arelaten., Aquen., Ebredunen., Viennen. et Tarantasien.a civitatibus, diocesibus et provinciis inquisitori heretice pravitatis, salutem, etc. \u2014 Apostolatui nostro significare curastis vos magnam multitudinem hereticorum capi fecisse et tenere carceribus mancipatos, et quod tot sunt quod eis alimenta ministrare nequitis ; quare super hoc nos consulere curavistis. Nos igitur vestre consultationi respondemus quod cum huiusmodi pestis heretica ex negligentia ordinariorum increverit et quod propterea ipsi ordinarii verbo, opere ac sumptibus ad extirpationem dicte pestis debent attentius laborare, discretioni vestre per apostolica scripta mandamus quatinus vos vel alter vestrum ordinarios provinciarum in quibus tu, fili inquisitor, officium Inquisitionis exerces ad prebendum de bonis suarum ecclesiarum eisdem carceratis qui sunt de suis civitatibus vel diocesibus sufficientia alimenta auctoritate nostra per censuram ecclesiasticam appellatione postposita compellatis : invocato ad hoc, si opus fuerit, auxilio brachii secularis. Non obstantibus si eis vel eorum aliquibus communiter vel divisim a Sede apostolica sit indultum quod interdici, suspendi vel excommunicari non possint per litteras apostolicas non facientes plenam et expressam ac de verbo ad verbum de indulto huiusmodi mentionem. Volumus autem quod si unus ordinarius in hoc, consideratis suis facultatibus, nimium gravaretur, eum secundum discretionem vobis datam a Domino faciatis per alios vicinos ordinarios relevari. Et nichilominus expense alimentorum huiusmodi facientibus eas restituantur de male ablatis [et] incertis que ad hoc per alias nostras litteras duximus deputanda. \u2014 Datum Avinioni, nonis octobris, anno quinto.\n"
        },
        {
            "type": "edition",
            "value": "Jean-Marie Vidal, <i>Bullaire de l\u2019Inquisition fran\u00e7aise au XIV<sup>e<\/sup> si\u00e8cle et jusqu'\u00e0 la fin du Grand Schisme<\/i>, Paris : Letouzey et An\u00e9, 1913, n. 302, p. 429-430"
        },
        {
            "type": "sources_manuscrites",
            "value": "<i>Reg. Vat.<\/i>, t. <span class=\"smal-caps\">cclxvii<\/span>, fol. 37 v\u00b0"
        },
        {
            "type": "sources_manuscrites",
            "value": "Wadding, <i>Annal.<\/i>, ad ann. 1375, n. <span class=\"smal-caps\">xxi<\/span> (<i>in ext.<\/i>)."
        },
        {
            "type": "notes_historiques",
            "value": "N. 290, note 3, et 286, note 1.",
            "children": {
                "numero_note": "1"
            }
        },
        {
            "type": "apparat_critique",
            "value": "Wadding : <i>in Ebredunen., Viennen., et Tarantasien<\/i>.",
            "children": {
                "numero_note": "a"
            }
        },
        {
            "type": "date",
            "value": "1375\/10\/07",
            "children": {
                "date_deb_annee": "1375",
                "date_deb_mois": "10",
                "date_deb_jour": "07"
            },
            "range": {
                "date_apres": 13751007,
                "date_avant": 13751007
            }
        },
        {
            "type": "genre",
            "value": "Bulle"
        }
    ]
}