{
    "id": 146830,
    "name": "aposcripta-6460",
    "type": "acte",
    "url": "http:\/\/telma-chartes.irht.cnrs.fr\/aposcripta\/notice\/146830",
    "project_slug": "aposcripta",
    "project_label": "APOSCRIPTA \u2013 Lettres des papes",
    "user": "l_valliere",
    "last_update": "2020-10-19 16:39:23",
    "licence": "Attribution - Pas d\u2019Utilisation Commerciale - Partage dans les M\u00eames Conditions 3.0 France (CC BY-NC-SA 3.0 FR) ",
    "licence_url": "https:\/\/creativecommons.org\/licenses\/by-nc-sa\/3.0\/fr\/",
    "elements": [
        {
            "type": "pape",
            "value": "Cl\u00e9ment IV (1265-1268)"
        },
        {
            "type": "destinataire",
            "value": "Le cardinal-pr\u00eatre de Sainte-C\u00e9cile, Simon, l\u00e9gat du Si\u00e8ge apostolique"
        },
        {
            "type": "date_libre",
            "value": "III idus aprilis, anno primo"
        },
        {
            "type": "date",
            "value": "1265\/04\/11",
            "children": {
                "date_deb_annee": "1265",
                "date_deb_mois": "04",
                "date_deb_jour": "11"
            },
            "range": {
                "date_apres": 12650411,
                "date_avant": 12650411
            }
        },
        {
            "type": "date_lieu",
            "value": "P\u00e9rouse"
        },
        {
            "type": "genre",
            "value": "Mandement (littere cum filo canapis)"
        },
        {
            "type": "analyse",
            "value": "Simoni tit. S. Caeciliae presb. card. apostol. Sedis legato declarat praelatos, capitula, collegia et conventus in comitatu Flandriae et Hainoniae et in ceteris locis quae ad comitissam Flandriae ratione dominii et feudorum suorum pertineant et sint infra Cameracensem et Tornacensem dioceses constituta, solvendae in subsidium negotii regni Siciliae decimae esse astrictos."
        },
        {
            "type": "edition",
            "value": "Edmond Mart\u00e8ne, Ursin Durand, <i>Thesaurus novus anecdotorum<\/i>, Paris, 1717, II, n. 44, col. 121 <a target=\"_blank\" href=\"https:\/\/archive.org\/stream\/ThesaurusNovusAnecdotorum2\/Thesaurus_novus_anecdotorum_2#page\/n95\/mode\/2up\"> [en ligne]<\/a>."
        },
        {
            "type": "regeste",
            "value": "Potthast, <i>Regesta pontificum Romanorum<\/i>, n. 19090 <a target=\"_blank\" href=\" http:\/\/opacplus.bsb-muenchen.de\/title\/BV004241514\/ft\/bsb11316018?page=613\"> [en ligne]<\/a>."
        },
        {
            "type": "transcription",
            "value": "<?xml version=\"1.0\" encoding=\"UTF-8\"?>\nFelicis recordationis Urbanus...\n"
        }
    ]
}