{
    "id": 25632,
    "name": "aposcripta-2729",
    "type": "acte",
    "url": "http:\/\/telma-chartes.irht.cnrs.fr\/aposcripta\/notice\/25632",
    "project_slug": "aposcripta",
    "project_label": "APOSCRIPTA \u2013 Lettres des papes",
    "user": "lettrespontificalesadmin",
    "last_update": "2020-10-19 16:27:47",
    "licence": "Attribution - Pas d\u2019Utilisation Commerciale - Partage dans les M\u00eames Conditions 3.0 France (CC BY-NC-SA 3.0 FR) ",
    "licence_url": "https:\/\/creativecommons.org\/licenses\/by-nc-sa\/3.0\/fr\/",
    "elements": [
        {
            "type": "pape",
            "value": "Cl\u00e9ment IV (1265-1268)"
        },
        {
            "type": "destinataire",
            "value": "( )",
            "children": {
                "numero_note": "0"
            }
        },
        {
            "type": "date_lieu",
            "value": "n.c."
        },
        {
            "type": "date_libre",
            "value": "1267, (du 14 juin au 15 juillet)"
        },
        {
            "type": "date",
            "value": "apr\u00e8s 1267\/06\/14 - avant 1267\/07\/15",
            "children": {
                "date_deb_annee": "1267",
                "date_deb_mois": "06",
                "date_deb_jour": "14",
                "date_deb_type": "apr\u00e8s",
                "date_fin_annee": "1267",
                "date_fin_mois": "07",
                "date_fin_jour": "15",
                "date_fin_type": "avant"
            },
            "range": {
                "date_apres": 12670614,
                "date_avant": 12670715
            }
        },
        {
            "type": "analyse",
            "value": "X pape<br\/>PRIVILEGIUM CLEMENTIS PAP\u00c6 IV, QUOD NON POSSINT PRIORATUS ORDINIS CLUNIACENSIS PERSONIS RELIGIOSIS ALTERIUS ORDINIS, AUT ALIIS ECCLESIASTICIS CONFERRI AUT AD FIRMAM CONCEDI, ETC. PRIVILEGIUM CLEMENTIS PAP\u00c6 IV. quod non possint Prioratus Ordinis Clun. Religiosis alterius Ordinis, aut aliis Ecclesiasticis conferri, seu ad firmam concedi, etc."
        },
        {
            "type": "transcription",
            "value": "<?xml version=\"1.0\" encoding=\"UTF-8\"?>\n[Clemens Episcopus servus servorum Dei dilectis filiis Cluniacensi, et aliis Abbatibus, Prioribus quoque, Conventibus, ac Monachis universis Cluniacensis Ordinis, salutem et Apostolicam benedictionem. Ad aures nostri Apostolatus pervenit, quod pr\u00e6textu concessionum multiplicium, qu\u00e6 de prioratibus, domibus, grangiis, seu possessionibus Ordinis vestri fiunt, interdum locis ordinis ipsius non modicum imminet detrimentum. Nos igitur indemnitati locorum vestrorum quorum ad Romanam Ecclesiam nullo medio pertinentium, ac in illis degentium personarum curam tenemur gerere specialem, sollicitudine paterna in hac parte volentes ex Officii debito imposterum pr\u00e6cavere, ne Prioratus aliquos, qui de Monachis Ordinis ejusdem fuerint ordinandi, seu domos, grangias, vel possessiones ad ipsum ordinem pertinentes, personis aliquibus Religiosis alterius Ordinis, seu aliis Ecclesiasticis, quavis etiam dignitate pr\u00e6minentibus, aut quibuscumque s\u00e6cularibus, cujusvis conditionis existant, vendere, conferre, sive perpetu\u00f2, vel ad tempus, ad firmam, aut sub annuo censu, seu ali\u00e0s quoquomodo abhinc usque ad quinquennium concedere pr\u00e6sumatis, vobis universis ac singulis auctoritate pr\u00e6sentium districtius inhibemus. Nulli ergo omnin\u00f2 hominum liceat hanc paginam nostr\u00e6 inhibitionis infringere, vel ei ausu temerario contra\u00efre: si quis autem hoc attentare pr\u00e6sumpserit, indignationem omnipotentis Dei et beatorum Petri et Pauli Apostolorum ejus se noverit incursurum. Datum Viterbii.\u2026 Julii, Pontificatus nostri anno III.]\n"
        },
        {
            "type": "edition",
            "value": "Ici tir\u00e9e du projet <i>CBMA - Corpus Burgundiae Medii Aevi<\/i>, document 6617. Site du projet Corpus de la Bourgogne du Moyen \u00c2ge, [En ligne] <a href=\"http:\/\/www.cbma-project.eu\" target=\"_blank\">http:\/\/www.cbma-project.eu<\/a>  "
        },
        {
            "type": "sources_manuscrites",
            "value": "\u00e0 renseigner."
        },
        {
            "type": "remarques",
            "value": "\r\n\r\nIndications dans l'\u00e9dition des Chartes de Cluny quand Bernard et Bruel n'ont pas repris le texte : Clemens, etc. Ad aures nostri, etc. Datum Viterbii,.... julii, pontif. nostri anno III. (Bull. Clun., p.\u00a0213, col.\u00a01, n\u00ba\u00a03.)."
        },
        {
            "type": "edition_autre",
            "value": "Ici reprise de Auguste Bernard, Alexandre Bruel, <i>Recueil des chartes de l'abbaye de Cluny<\/i>. VI. <i>1211-1300<\/i>, Paris\u00a0: Imprimerie nationale, 1903 <a href=\"http:\/\/gallica.bnf.fr\/ark:\/12148\/bpt6k367019?rk=21459;2\" target=\"_blank\">[en ligne]<\/a>, p. 588, n\u00b0 5135.",
            "children": {
                "numero_note": "0"
            }
        },
        {
            "type": "edition_autre",
            "value": "Pierre Simon, <i>Bullarium sacri Ordinis cluniacensis, complectens plurima privilegia per summos pontifices tum ipsi cluniacensi abbatiae, tum ei subditis monasteriis hactenus concessa<\/i>, Lyon : Jullieron, 1680, p. 213, col. 1-2",
            "children": {
                "numero_note": "1"
            }
        },
        {
            "type": "genre",
            "value": "Titre, g\u00e9n\u00e9ral (littere gratiose, cum filo serico)"
        }
    ]
}