{
    "id": 148153,
    "name": "aposcripta-7768",
    "type": "acte",
    "url": "http:\/\/telma-chartes.irht.cnrs.fr\/aposcripta\/notice\/148153",
    "project_slug": "aposcripta",
    "project_label": "APOSCRIPTA \u2013 Lettres des papes",
    "user": "l_valliere",
    "last_update": "2020-10-19 16:39:42",
    "licence": "Attribution - Pas d\u2019Utilisation Commerciale - Partage dans les M\u00eames Conditions 3.0 France (CC BY-NC-SA 3.0 FR) ",
    "licence_url": "https:\/\/creativecommons.org\/licenses\/by-nc-sa\/3.0\/fr\/",
    "elements": [
        {
            "type": "pape",
            "value": "Cl\u00e9ment IV (1265-1268)"
        },
        {
            "type": "destinataire",
            "value": "Le cardinal-\u00e9v\u00eaque d'Albano Raoul, l\u00e9gat du Si\u00e8ge apostolique"
        },
        {
            "type": "date_libre",
            "value": "kalendis maii, anno quarto"
        },
        {
            "type": "date",
            "value": "1268\/05\/01",
            "children": {
                "date_deb_annee": "1268",
                "date_deb_mois": "05",
                "date_deb_jour": "01"
            },
            "range": {
                "date_apres": 12680501,
                "date_avant": 12680501
            }
        },
        {
            "type": "date_lieu",
            "value": "Viterbe"
        },
        {
            "type": "genre",
            "value": "Lettre, g\u00e9n\u00e9ral (apr\u00e8s 1198, littere cum filo canapis)"
        },
        {
            "type": "analyse",
            "value": "Scribit R[adulpho] episcopo Albanensi, apostolice Sedis legato, [Carolum] regem Sicilie ad regnum contra Sarracenos Lucerie proficisci, seque ei salutaria dedisse monita. \u00ab Subacta Luceria, legatus ad curiam redeat, relicto tamen in regno vicario, et legationis officio minime deposito \u00bb [Jordan].\nClemens IV. an R(aoul Grosparmi,) Kardinalbischof von Albano, apostolischer Legat: teilt ihm mit, da\u00df sich K\u00f6nig K(arl I.) von Sizilien auf dem Weg in sein Reich befinde; fordert ihn auf, an die Kurie zu kommen [Thumser]."
        },
        {
            "type": "sources_manuscrites",
            "value": "R<sup>1<\/sup>. CIT\u00c9 DU VATICAN, Archivio segreto Vaticano, <i>Registra Vaticana<\/i> 30, fol. 80.",
            "children": {
                "type_source": "Formulaire, collection de lettres m\u00e9di\u00e9vale"
            }
        },
        {
            "type": "sources_manuscrites",
            "value": "R<sup>2<\/sup>. CIT\u00c9 DU VATICAN, Archivio segreto Vaticano, <i>Registra Vaticana<\/i> 33, ep. 480, fol. 78 (sans date).",
            "children": {
                "type_source": "Formulaire, collection de lettres m\u00e9di\u00e9vale"
            }
        },
        {
            "type": "sources_manuscrites",
            "value": "R<sup>3<\/sup>. CIT\u00c9 DU VATICAN, Archivio segreto Vaticano, <i>Registra Vaticana<\/i> 34, fol. 122.",
            "children": {
                "type_source": "Formulaire, collection de lettres m\u00e9di\u00e9vale"
            }
        },
        {
            "type": "sources_manuscrites",
            "value": "R<sup>4<\/sup>. CIT\u00c9 DU VATICAN, Archivio segreto Vaticano, <i>Registra Vaticana<\/i> 35, ep. 487, fol. 89v.",
            "children": {
                "type_source": "Formulaire, collection de lettres m\u00e9di\u00e9vale"
            }
        },
        {
            "type": "edition",
            "value": "Ici reprise de Mathias Thumser, <i>Die Briefe Papst Clemens\u2019 IV. (1265-1268)<\/i>, Vorl\u00e4ufige Edition, MGH, 2015, n. 488."
        },
        {
            "type": "regeste",
            "value": "Potthast, <i>Regesta pontificum Romanorum<\/i>, n. 20327 <a target=\"_blank\" href=\"https:\/\/archive.org\/stream\/RegestaPontificumRomanorum\/ph#page\/n1651\/mode\/2up\"> [en ligne]<\/a>."
        },
        {
            "type": "bibliographie_generale",
            "value": "Mathias Thumser, \u00ab Zur \u00dcberlieferungsgeschichte der Briefe Clemens'IV. (1265-1268) \u00bb, <i>Deutsches Archiv f\u00fcr Erforschung des Mittelalters<\/i>, 51\/1, 1995, p. 115-168."
        },
        {
            "type": "transcription",
            "value": "<?xml version=\"1.0\" encoding=\"UTF-8\"?>\nR[adulfo] episcopo Albanensi, apostolice Sedis legato. Exivit heri Viterbium filius noster in Christo carissimus C[arolus] rex Sicilie illustris in regnum dirigens iter suum ad Sarracenorum Lucerie et aliorum perfidorum exterminium animatus. Cui inter cetera illud duximus specialiter iniungendum, quod in restitutionibus faciendis non se reddat difficilem, cum ad eas sit artissime obligatus. Sed et multa in fratrum nostrorum presentia ei diximus, que ad plenam ordinationem domus sue et regni pertinent, que si, prout speratur, impleverit, honor erit Dei et pax eius ac omnium subditorum. Subacta vero Luceria bonum credimus te relicto in regno vicario, prout alias tibi scripsimus, ad nostram presentiam legationis officio non deposito properare, ut super hiis, que nosti, tecum familiariter conferamus et tuam, ut optamus, faciem videamus. Datum Viterbii, kalendis maii, anno IIII.\n"
        },
        {
            "type": "edition_autre",
            "value": "Edmond Mart\u00e8ne, Ursin Durand, <i>Thesaurus novus anecdotorum<\/i>, Paris, 1717, II, n. 630, col. 589 <a target=\"_blank\" href=\"https:\/\/archive.org\/stream\/ThesaurusNovusAnecdotorum2\/Thesaurus_novus_anecdotorum_2#page\/n329\/mode\/2up\"> [en ligne]<\/a>."
        },
        {
            "type": "regeste",
            "value": "\u00c9douard Jordan, <i>Les registres de Cl\u00e9ment IV (1265-1268)<\/i>, Paris, 1893-1945, n. 1357, d\u2019apr\u00e8s R<sup>1<\/sup>, R<sup>2<\/sup>, R<sup>3<\/sup> et R<sup>4<\/sup>."
        }
    ]
}