{
    "id": 23835,
    "name": "aposcripta-1034",
    "type": "acte",
    "url": "http:\/\/telma-chartes.irht.cnrs.fr\/aposcripta\/notice\/23835",
    "project_slug": "aposcripta",
    "project_label": "APOSCRIPTA \u2013 Lettres des papes",
    "user": "l_valliere",
    "last_update": "2020-10-19 16:27:19",
    "licence": "Attribution - Pas d\u2019Utilisation Commerciale - Partage dans les M\u00eames Conditions 3.0 France (CC BY-NC-SA 3.0 FR) ",
    "licence_url": "https:\/\/creativecommons.org\/licenses\/by-nc-sa\/3.0\/fr\/",
    "elements": [
        {
            "type": "pape",
            "value": "Innocent IV (1243-1254)"
        },
        {
            "type": "destinataire",
            "value": "Le comte de Toulouse Raymond VII"
        },
        {
            "type": "date_libre",
            "value": "XVII kalendas junii, anno primo"
        },
        {
            "type": "date",
            "value": " 1244\/05\/16",
            "children": {
                "date_deb_jour": "16",
                "date_deb_mois": "05",
                "date_deb_annee": "1244"
            },
            "range": {
                "date_apres": 12440516,
                "date_avant": 12440516
            }
        },
        {
            "type": "date_lieu",
            "value": "Latran"
        },
        {
            "type": "genre",
            "value": "Titre, g\u00e9n\u00e9ral (littere gratiose, cum filo serico)"
        },
        {
            "type": "analyse",
            "value": "Litterae Innocentii papae IV Raimundo Tolosano, quem certiorem facit de ejus cum Ecclesia reconciliatione."
        },
        {
            "type": "transcription",
            "value": "<?xml version=\"1.0\" encoding=\"UTF-8\"?>\nInnocentius episcopus, servus servorum Dei, dilecto filio nobili viro Raymundo comiti Tholosano, salutem et apostolicam benedictionem. Cum nuper te reconciliatum Ecclesie in plenitudinem gratie apostolice Sedis et nostre duxerimus admittendum, nobilitatis ac devotionis tue votis libenter annuimus, et tibi, quem honorare ac prosequi prerogativa favoris proponimus in hiis que digne deposcis, nos favorabiles, quantum cum Deo possumus, exhibemus. In nostra siquidem proposuisti presentia constitutus quod, cum fratres Ferrarius et G. Raimundi, ordinis Predicatorum, inquisitores contra hereticos auctoritate apostolica deputati, aliquorum forsitan suggestione malivola circumventi, dum te circa quosdam hereticos puniendos negligentem arguerent, fautorem, defensorem ac receptatorem hereticorum te injusta interpretatione notarint, ac propter hec in te, post appellationem ad Sedem Apostolicam legitime interjectam, excommunicationis sententiam de facto duxerint promulgandam, nos eandem sententiam, licet eam ex causis legitimis nullam assereres, relaxari per venerabilem fratrem nostrum [Marinum] archiepiscopum Barensem fecimus ad cautelam. Ne vero ex hiis aliquid tibi detractationis ab emulis impingi valeat in futurum, nobis humiliter supplicasti ut predictas interpretationem et sententiam, quatenus processere de facto, eatenus revocare paterna sollicitudine curaremus. Nos igitur, honori tuo, saluti atque fame consulere cupientes, quem filium reputamus catholicum et fidelem, tam predictam interpretationem quam sententiam et quidquid secutum est ex eis, de fratrum nostrorum consilio, auctoritate presentium revocamus, decernentes quod sententia et interpretatio predicte pro nullis in posterum habeantur, eadem auctoritate omnem infamiam, si qua ex premissis orta est, penitus abolentes, ita quod nullum tibi aut heredibus tuis possit in posterum hac occasione prejudicium generari, ac nichilominus statuentes ut, si quid contra hoc a quoquam attemptatum fuerit, nullius penitus sit momenti. Tenor autem predicte interpretationis ac sententie talis est : \u00ab In nomine Domini nostri Jeshu Christi, amen. Sit cunctis presentibus manifestum quod nos, fratres Ferranus et G. Raymundi, ordinis Predicatorum, inquisitores heretice pravitatis in Narbonensi, Bitterrensi, Carcassonensi, Ruthenensi, Albigensi, Elnensi diocesibus auctoritate apostolica constituti, habito diligenti consilio et tractatu, et specialiter requisito et habito consilio reverendorum patrum P[etri], Dei gratia archiepiscopi Narbonensis, et D[urandi], eadem gratia episcopi Albiensis, et aliorum prelatorum necnon et aliorum prudentum virorum, per sententiam diffinitivam, meritis suis exigentibus, condempnavimus multos milites et alios homines in terra viri nobilis R[aimundi] comitis Tholosani tanquam hereticos, et in terra regis Francie et aliorum quosdam alios qui, ad terram dicti comitis fugientes, ibidem publice receptantur, et, condempnati, in terra ejusdem ibidem publice commorantur, bonis eorum per supradictum comitem minime occupatis. Propter quod amonuimus diligenter ac legitime comitem supradictum ut, bonis eorum occupatis, de supradictis hereticis condempnatis purgaret legitime terram suam et de ipsis faceret quod deberet. Quod supradictus comes facere non curavit, sed fuit et est in periculum anime sue et contemptum Ecclesie et magnum catholicorum scandalum, in hoc valde negligens et remissus ; quod etiam facere tenebatur proprio juramento. Cum igitur negligere, cum possit perturbare perversos, nichil aliud sit quam fovere, nec caret scrupulo societatis occulte qui manifesto facinori desinit obviare, nos fratres F[erranus] et G. supradicti inquisitores, requisito et habito consilio quamplurium archiepiscoporum, episcoporum, aliorum prelatorum necnon et aliorum prudentum virorum, supradictum R[aimundum] comitem Tholosanum excommunicamus et anathematizamus tanquam fautorem, defensorem et receptatorem hereticorum, tradentes corpus ejus Sathane in interitum carnis ut spiritus ejus salvus sit in die Domini nostri Jeshu Christi. Lata fuit hec sententia VIII idus junii apud Carcassonam, presentibus venerabilibus patribus P[etro], Dei gratia archiepiscopo Narbonensi, et Guidone, archidiacono Carcassone, et J. de Gradano, procuratoribus domini C[larini] episcopi Carcassonensis, et capitulo Carcassonensi et abbate Sancti Ylarii, diocesis Carcassonensis, et Pontio, priore provinciali fratrum Predicatorum, et pluribus aliis, anno Domini millesimo CC\u00b0 XLII\u00b0 \u00bb. Nulli ergo omnino hominum liceat hanc paginam nostre revocationis, abolitionis et constitutionis infringere vel ei ausu temerario contraire. Si quis autem hoc attemptare presumpserit, indignationem omnipotentis Dei et beatorum Petri et Pauli, apostolorum ejus, se noverit incursurum. Datum Laterani, XVII kalendas junii, pontificatus nostri anno primo.\n"
        },
        {
            "type": "edition",
            "value": "Ici d'apr\u00e8s Alexandre Teulet, <i>Layettes du Tr\u00e9sor des chartes<\/i>, II, Paris : Henri Plon, 1866 <a target=\"_blank\" href=\"http:\/\/gallica.bnf.fr\/ark:\/12148\/bpt6k31580p\/f623.image\"> [en ligne]<\/a>, n. 3184, p. 534-535 <a target=\"_blank\" href=\" https:\/\/francearchives.fr\/fr\/facomponent\/97e411af80baacd8a29aa29c54f8dae03dcfd3aa\">[num\u00e9ris\u00e9e sur le site des Archives de France]<\/a>, d'apr\u00e8s E. Teulet \u00e9dite s\u00e9par\u00e9ment la sentence ins\u00e9r\u00e9e, <a target=\"_blank\" href=\"http:\/\/gallica.bnf.fr\/ark:\/12148\/bpt6k31580p\/f623.image\"><i>ibidem<\/i>, n. 2976\/2, p. 658.<\/a>"
        },
        {
            "type": "sources_manuscrites",
            "value": "E. FRANCE, Paris, Archives nationales, J 447\/42. Original scell\u00e9 (bulle de plomb sur lacs de soie rouge et jaune ; voyez l'<i>Inventaire<\/i>, n. 6048).",
            "children": {
                "type_source": "Exp\u00e9dition"
            }
        },
        {
            "type": "remarques",
            "value": "Teulet date la lettre du 17 mai 1244 ; nous suivons la date retenue par B. Barbiche."
        },
        {
            "type": "regeste",
            "value": "Potthast, <i>Regesta pontificum Romanorum<\/i>, n. 11390 <a target=\"_blank\" href=\"https:\/\/archive.org\/stream\/RegestaPontificumRomanorum\/ph#page\/n981\/mode\/2up\"> [en ligne]<\/a>."
        },
        {
            "type": "regeste",
            "value": "\u00c9lie Berger, <i>Les registres d'Innocent IV<\/i>, Paris, 1884-1921, n. 697, d'apr\u00e8s R."
        },
        {
            "type": "regeste",
            "value": "Bernard Barbiche, <i>Les actes pontificaux originaux des Archives Nationales de Paris<\/i>, Cit\u00e9 du Vatican, 1975-1982, I, n. 492, p. 189-190, d\u2019apr\u00e8s E."
        },
        {
            "type": "sources_manuscrites",
            "value": "R. CIT\u00c9 DU VATICAN, Archivio segreto Vaticano, <i>Registra Vaticana<\/i> 21, ep. 696, fol. 108.",
            "children": {
                "type_source": "Registre de la chancellerie apostolique"
            }
        }
    ]
}