{
    "id": 149854,
    "name": "aposcripta-9417",
    "type": "acte",
    "url": "http:\/\/telma-chartes.irht.cnrs.fr\/aposcripta\/notice\/149854",
    "project_slug": "aposcripta",
    "project_label": "APOSCRIPTA \u2013 Lettres des papes",
    "user": "lettrespontificalesadmin",
    "last_update": "2020-10-19 16:40:05",
    "licence": "Attribution - Pas d\u2019Utilisation Commerciale - Partage dans les M\u00eames Conditions 3.0 France (CC BY-NC-SA 3.0 FR) ",
    "licence_url": "https:\/\/creativecommons.org\/licenses\/by-nc-sa\/3.0\/fr\/",
    "elements": [
        {
            "type": "pape",
            "value": "Urbain IV (1261-1264)"
        },
        {
            "type": "destinataire",
            "value": "Lud[ovico] illustri regi Francorum"
        },
        {
            "type": "date_libre",
            "value": "V nonas maii, anno III"
        },
        {
            "type": "date",
            "value": " 1264\/05\/03",
            "children": {
                "date_deb_annee": "1264",
                "date_deb_mois": "05",
                "date_deb_jour": "03"
            },
            "range": {
                "date_apres": 12640503,
                "date_avant": 12640503
            }
        },
        {
            "type": "date_lieu",
            "value": "Urbemveterem"
        },
        {
            "type": "sources_manuscrites",
            "value": "R. CIT\u00c9 DU VATICAN, Archivio Segreto Vaticano, <hi rend=\"italic\">Registra Vaticana<\/hi> ... Urb.\u00a0IV Reg. Vol.\u00a0III, 108; Lib.\u00a0III, cur.\u00a096. Epistolam ex Regestis descripsit V. Cl. Monaci.",
            "children": {
                "type_source": "Registre de la chancellerie apostolique"
            }
        },
        {
            "type": "genre",
            "value": "Mandement (littere cum filo canapis)"
        },
        {
            "type": "analyse",
            "value": "Urbanus IV papa Ludowicum regem Francorum monet, ut si Margaritam uxorem suam minus facilem ad concordiam cum Carolo comite Andegaviae et Provinciae reformandam invenerit, ei placeat, ne negotium regni Siciliae, pro maiore parte iam completum, propter hoc retardetur [Rodenberg]."
        },
        {
            "type": "transcription",
            "value": "<?xml version=\"1.0\" encoding=\"UTF-8\"?>\nLud[ovico] illustri regi Francorum.Cum per alias nostras litteras magnitudinem tuam affectuose rogemus, ut, ne pretextu discordie, que inter carissimam in Christo filiam nostram Margaritam illustrem reginam Francorum, uxorem, [et] dilectum filium nobilem virum Carolum Andegavie ac Provincie comitem, germanum tuos, exorta esse dicitur, promotio negotii regni Sicilie quomodolibet impediri contingat, huiusmodi discordiam amicabili compositione sopias, impendendo ad hoc omnem opem et operam efficacem: nos, qui eandem dicti promotionem negotii, per quam Romanam ecclesiam ab imminentibus undique sibi periculis speramus favente Domino liberari, cunctis desideriis affectamus, serenitatem tuam iterato rogandam duximus attentius et hortandam, in remissionem tibi peccaminum nichilominus suadentes, quatinus predictam reginam ad hoc, quod facilem, tractabilem et benignam se in huiusmodi negotio pacis exhibeat, attentis et efficacibus inductionibus exhorteris; et si demum ipsam, quod absit, in hoc inveneris nimis duram et inflexibilem, tue mansuetudini placeat, quod predictum negotium regni Sicilie, tam pium, tam salubre, tam utile, tot laboribus totque tractatibus inchoatum et iam pro maiori parte completum, nullius propter hoc dispendia impedimenti seu retardationis incurrat, sed libere, hoc non obstante, procedat ad laudem et gloriam divini nominis, Christiane religionis augmentum et predicte ecclesie statum pacificum et quietum.Dat. apud Urbemveterem, V Nonas Maii, anno III\u00b0.\n"
        },
        {
            "type": "edition",
            "value": "Ici reprise de Karl Rodenberg, Epistolae s. XIII e regestis pontificum romanorum selectae, III, Berlin : Weidmann (MGH), 1894, n.\u00a0596, p.\u00a0590."
        },
        {
            "type": "edition_autre",
            "value": "?"
        },
        {
            "type": "regeste",
            "value": "?"
        },
        {
            "type": "bibliographie_generale",
            "value": "?"
        },
        {
            "type": "apparat_critique",
            "value": "?",
            "children": {
                "numero_note": "a"
            }
        },
        {
            "type": "apparat_critique",
            "value": "?",
            "children": {
                "numero_note": "b"
            }
        },
        {
            "type": "apparat_critique",
            "value": "?",
            "children": {
                "numero_note": "c"
            }
        },
        {
            "type": "apparat_critique",
            "value": "?",
            "children": {
                "numero_note": "d"
            }
        },
        {
            "type": "apparat_critique",
            "value": "?",
            "children": {
                "numero_note": "e"
            }
        },
        {
            "type": "apparat_critique",
            "value": "?",
            "children": {
                "numero_note": "f"
            }
        },
        {
            "type": "notes_historiques",
            "value": "?",
            "children": {
                "numero_note": "1"
            }
        },
        {
            "type": "notes_historiques",
            "value": "?",
            "children": {
                "numero_note": "2"
            }
        },
        {
            "type": "notes_historiques",
            "value": "?",
            "children": {
                "numero_note": "3"
            }
        }
    ]
}