{
    "id": 143832,
    "name": "aposcripta-5400",
    "type": "acte",
    "url": "http:\/\/telma-chartes.irht.cnrs.fr\/aposcripta\/notice\/143832",
    "project_slug": "aposcripta",
    "project_label": "APOSCRIPTA \u2013 Lettres des papes",
    "user": "b_oury",
    "last_update": "2020-10-19 16:38:53",
    "licence": "Attribution - Pas d\u2019Utilisation Commerciale - Partage dans les M\u00eames Conditions 3.0 France (CC BY-NC-SA 3.0 FR) ",
    "licence_url": "https:\/\/creativecommons.org\/licenses\/by-nc-sa\/3.0\/fr\/",
    "elements": [
        {
            "type": "pape",
            "value": "Lucius III (1181-1185)"
        },
        {
            "type": "date",
            "value": "apres 1181 - avant 1185",
            "children": {
                "date_deb_annee": "1181",
                "date_deb_type": "apres",
                "date_fin_annee": "1185",
                "date_fin_type": "avant"
            },
            "range": {
                "date_apres": 11810000,
                "date_avant": 11859999
            }
        },
        {
            "type": "genre",
            "value": "Bulle (ad perpetuam rei memoriam)"
        },
        {
            "type": "analyse",
            "value": "Le pape Lucius [III] confirme les biens [du chapitre d\u2019Avranche] (Voir RAMACKERS, p. 342)."
        },
        {
            "type": "edition",
            "value": "Ici reprise de  Ramackers Johannes, <i>Papsturkunden in Frankreich, Neue Folge 2 Normandie<\/i>, G\u00f6ttingen, Vandenhoeck & Ruprecht (Abhandlungen der Gesellschaft der Wissenschaften zu G\u00f6ttingen. Philologisch-historische Klasse, 21), 1937, 2 vol., n\u00b0 244, p. 342, num\u00e9ris\u00e9e par Pierre Bauduin (dir.), <i>SCRIPTA. Base des actes normands m\u00e9di\u00e9vaux<\/i>, Caen, CRAHAM-MRSH, 2010-2016, <a target=\"_blank\" href=\"https:\/\/www.unicaen.fr\/scripta\/acte\/5183\"> [en ligne]<\/a>, Acte 5183."
        },
        {
            "type": "transcription",
            "value": "<?xml version=\"1.0\" encoding=\"UTF-8\"?>\nLucius episcopus seruus seruorum Dei etc. Statuimus, ut quascumque possessiones, quecumque bona eadem ecclesia in presenciarum iuste et canonice possidet uel in futurum concessione pontificum, largitione regum uel principum, oblatione fidelium seu aliis iustis modis prestante domino poterit adipisci, firma uobis uestrisque successoribus et illibata permaneant. In quibus hec propriis duximus exprimenda uocabulis : locum ipsum, in quo memorata ecclesia sita est, cum omnibus adiacenciis et aliis, que ad eandem ecclesiam pertinere noscuntur, ex dono Ricardi1 episcopi de Bellefago ecclesiam de Cruce cum omnibus pertinenciis suis, ex dono Ricardi2 episcopi de Suligneio ecclesiam sancti Martini de Campis cum omnibus pertinenciis eius, ex dono eiusdem episcopi et assensu Ha[s]culphi de Suligneio et Dyonisie uxo[ris] sue capellaniam sancti Andree et ecclesiam sancte Marie Godefridi cum omnibus pertinenciis suis, ex dono Ricardi episcopi ecclesiam de Cortiz cum omnibus pertinenciis suis assensu Hugonis et heredum eius, ex dono eiusdem episcopi ecclesiam de Mesnil Boes cum omnibus pertinentiis suis assensu Roberti Tyrel et heredum eius, decimam molendini de Breceio Roberti, decimas quinque uauassorum, decimam molendini de Schariz, decimam omnium molendinorum episcopi Abrincensis, decimam parci eiusdem episcopi, decimam de casu arborum eiusdem parci, decimam salmonum captorum apud Pontem, ex dono Henrici3 primi regis Anglie dimidiam partem nundinarum sancti Lamberti, decimam nundinarum sancti Andree, decimam nundinarum de Ponte, in Campo Ceruorum duas garbas decime de terra Igerii de Lolif et Ranulfi de Burganoles, decimam molendini de Cantarana, duas ...\n"
        },
        {
            "type": "notes_historiques",
            "value": "Richard de Beaufou (\u00e9v\u00eaque d'Avranches : 1134-1142)",
            "children": {
                "numero_note": "1"
            }
        },
        {
            "type": "notes_historiques",
            "value": "Richard de Subligny, (\u00e9v\u00eaque d'Avranches : 1142-1153)",
            "children": {
                "numero_note": "2"
            }
        },
        {
            "type": "notes_historiques",
            "value": "Henri I<sup>er<\/sup> \u00ab Beauclerc \u00bb (roi d'Angleterre : 2 ao\u00fbt 1100 - 1<sup>er<\/sup> d\u00e9cembre 1135)",
            "children": {
                "numero_note": "3"
            }
        },
        {
            "type": "destinataire",
            "value": "[Le chapitre d'Avranches]"
        }
    ]
}