{
    "id": 148793,
    "name": "aposcripta-8363",
    "type": "acte",
    "url": "http:\/\/telma-chartes.irht.cnrs.fr\/aposcripta\/notice\/148793",
    "project_slug": "aposcripta",
    "project_label": "APOSCRIPTA \u2013 Lettres des papes",
    "user": "lettrespontificalesadmin",
    "last_update": "2020-10-19 16:39:49",
    "licence": "Attribution - Pas d\u2019Utilisation Commerciale - Partage dans les M\u00eames Conditions 3.0 France (CC BY-NC-SA 3.0 FR) ",
    "licence_url": "https:\/\/creativecommons.org\/licenses\/by-nc-sa\/3.0\/fr\/",
    "elements": [
        {
            "type": "pape",
            "value": "Innocent IV (1243-1254)"
        },
        {
            "type": "destinataire",
            "value": "Le chantre de l'\u00e9glise de Clermont"
        },
        {
            "type": "date_libre",
            "value": "XV kalendas Marcii, anno secundo"
        },
        {
            "type": "date",
            "value": " 1245\/02\/15",
            "children": {
                "date_deb_annee": "1245",
                "date_deb_mois": "02",
                "date_deb_jour": "15"
            },
            "range": {
                "date_apres": 12450215,
                "date_avant": 12450215
            }
        },
        {
            "type": "date_lieu",
            "value": "Lyon"
        },
        {
            "type": "genre",
            "value": "<value id=\"\"\/>"
        },
        {
            "type": "analyse",
            "value": "Le pape Innocent IV mande au chantre de l\u2019\u00e9glise de Clermont, sur la plainte du chapitre de Saint-Just que l\u2019archipr\u00eatre d\u2019Andres, le sire de Villars, et certaines autres personnes des dioc\u00e8ses de Clermont, Vienne et Lyon les molestaient \u00e0 raison de leurs possessions, d\u2019informer des faits et de faire observer ce qu\u2019il d\u00e9cidera par voie de censure eccl\u00e9siastique."
        },
        {
            "type": "sources_manuscrites",
            "value": "Archives du Rh\u00f4ne. \u2014 Fonds de Saint-Just. \u2014 Sans cote.",
            "children": {
                "type_source": "Original"
            }
        },
        {
            "type": "edition",
            "value": "Ici reprise de Marie-Claude Guigue, <i>Cartulaire lyonnais<\/i>, Lyon : Association typographique, I, 1885, I, n. 397, p. 486."
        },
        {
            "type": "transcription",
            "value": "<?xml version=\"1.0\" encoding=\"UTF-8\"?>\nInnocentius, episcopus, servus servorum Dei, dilecto filio cantori Claromontensi salutem et apostolicam benedictionem. Sua nobis dilecti filii capitulum ecclesie Sancti Justi insinuatione monstrarunt quod archipresbiter de Andres, nobilis vir dominus de Vilars et quidam alii Claromontensis, Lugdunensis et Viennensis diocesum super decimis, terris, debitis, possessionibus et rebus aliis minnantur eisdem, ideoque discretioni tue per apostolica scripta mandamus quatinus, partibus convocatis, audias causam et appellatione remota, debito fine decidas, faciens quod decreveris per censuram ecclesiasticam firmiter observari. Testes autem qui fuerint nominati, si se gracia, odio vel amore subtraxerint, per censuram eandem, cessante appellatione, compellas veritati testimonium prehibere, proviso ne in terram dicti nobilis excommunicationis vel interdicti sententiam proferas, nisi super hoc a nobis mandatum receperis speciale. Datum Lugduni, XV kalendas marcii, pontificatus nostri anno secundo.\n"
        }
    ]
}