{
    "id": 24061,
    "name": "aposcripta-1213",
    "type": "acte",
    "url": "http:\/\/telma-chartes.irht.cnrs.fr\/aposcripta\/notice\/24061",
    "project_slug": "aposcripta",
    "project_label": "APOSCRIPTA \u2013 Lettres des papes",
    "user": "lettrespontificalesadmin",
    "last_update": "2020-10-19 16:27:22",
    "licence": "Attribution - Pas d\u2019Utilisation Commerciale - Partage dans les M\u00eames Conditions 3.0 France (CC BY-NC-SA 3.0 FR) ",
    "licence_url": "https:\/\/creativecommons.org\/licenses\/by-nc-sa\/3.0\/fr\/",
    "elements": [
        {
            "type": "pape",
            "value": "Calixte II (1119-1124)"
        },
        {
            "type": "date_lieu",
            "value": "n.c."
        },
        {
            "type": "date_libre",
            "value": "4\u00a0octobre 1211"
        },
        {
            "type": "date",
            "value": " 1211\/10\/04",
            "children": {
                "date_deb_annee": "1211",
                "date_deb_mois": "10",
                "date_deb_jour": "04"
            },
            "range": {
                "date_apres": 12111004,
                "date_avant": 12111004
            }
        },
        {
            "type": "analyse",
            "value": "Calixte\u00a0II \u00e9crit \u00e0 B\u00e9renger, archev\u00eaque de Narbonne, et \u00e0 ses suffragants Jean, \u00e9v\u00eaque de Nimes, et Galtier, \u00e9v\u00eaque de Maguelone, d\u2019ordonner \u00e0 Alphonse, comte de Toulouse, de rel\u00e2cher l\u2019abb\u00e9 de Saint-Gilles, sinon de le frapper d\u2019excommunication."
        },
        {
            "type": "transcription",
            "value": "<?xml version=\"1.0\" encoding=\"UTF-8\"?>\nCalixtus episcopus, servus servorum Dei, venerabilibus fratribus Berengario, Narbonensi archiepiscopo, et suffraganeis ejus Johanni Nemausensi et Galterio Magalonensi episcopis, salutem et apostolicam benedictionem.Relatum est nobis quod comes Ildefonsus filium nostrum Hugonem, abbatem S. Egydii, de monasterio traxerit, et ad castrum de Belcayra violenter ductum sub juramenti extorsione, Cluniacum ire coegerit, ita videlicet ut, nisi per ejusdem licentiam, deinceps abbas ad beati Egydii monasterium minime revertatur. Quod nimirum quam grave sit, prudentia vestra facile potest advertere\u00a0; et profecto si tantum facinus impune dimittitur, graviora ex eo in futurum poterunt in majoribus etiam personis pericula evenire.Precipimus igitur fraternitati vestre, ut eundem comitem moneatis quatenus abbatem a juramento illo prorsus absolvat, atque ad monasterium redire absque inquietatione permittat, et predictum beati Egydii monasterium, quod Romane Ecclesie juris est, cum omnibus rebus suis omnino liberum quietumque dimittat. Quod si adversus abbatem vel locum ipsum comes calumniam gerit, nos ei libenter suo tempore justiciam faciemus. Sane si contemptor extiterit, vos, vice nostra, et ipsum ab ecclesiarum liminibus separate, et in tota ejus terra, in civitatibus et castellis divina officia interdicite, preter infantium baptisma et morientium penitentias.Data Melfie, iv nonas octobris.\n"
        },
        {
            "type": "edition",
            "value": "Julien Rouquette, Augustin Villemagne, <i>Bullaire de l'\u00c9glise de Maguelone<\/i>, Paris, Montpellier : Picard, Valat, 1911-1914, I, n. 22, p. 39-39"
        },
        {
            "type": "remarques",
            "value": ""
        },
        {
            "type": "bibliographie_generale",
            "value": "Bibl. nat., lat.\u00a011018, fol.\u00a050\u00a0a",
            "children": {
                "numero_note": "0"
            }
        },
        {
            "type": "bibliographie_generale",
            "value": "<span class=\"small-caps\">M\u00e9nard<\/span>, <i>Hist. de Nimes<\/i>, t.\u00a0I, Preuves, p.\u00a030",
            "children": {
                "numero_note": "1"
            }
        },
        {
            "type": "bibliographie_generale",
            "value": "<span class=\"small-caps\">Bouquet<\/span>, <i>Recueil<\/i>, t.\u00a0XV, p.\u00a0236",
            "children": {
                "numero_note": "2"
            }
        },
        {
            "type": "bibliographie_generale",
            "value": "<span class=\"small-caps\">Goiffon<\/span>, <i>Bull. de Saint-Gilles<\/i>, p.\u00a064",
            "children": {
                "numero_note": "3"
            }
        },
        {
            "type": "bibliographie_generale",
            "value": "<span class=\"small-caps\">Migne<\/span>, <i>Patr. lat.<\/i>, t.\u00a0CLXIII, col.\u00a01218",
            "children": {
                "numero_note": "4"
            }
        },
        {
            "type": "bibliographie_generale",
            "value": "<span class=\"small-caps\">Jaff\u00e9<\/span> et <span class=\"small-caps\">Wattenbach<\/span>, n\u00b0\u00a06925.",
            "children": {
                "numero_note": "5"
            }
        },
        {
            "type": "genre",
            "value": "Bulle"
        }
    ]
}