{
    "id": 148030,
    "name": "aposcripta-7645",
    "type": "acte",
    "url": "http:\/\/telma-chartes.irht.cnrs.fr\/aposcripta\/notice\/148030",
    "project_slug": "aposcripta",
    "project_label": "APOSCRIPTA \u2013 Lettres des papes",
    "user": "l_valliere",
    "last_update": "2020-10-19 16:39:40",
    "licence": "Attribution - Pas d\u2019Utilisation Commerciale - Partage dans les M\u00eames Conditions 3.0 France (CC BY-NC-SA 3.0 FR) ",
    "licence_url": "https:\/\/creativecommons.org\/licenses\/by-nc-sa\/3.0\/fr\/",
    "elements": [
        {
            "type": "pape",
            "value": "Cl\u00e9ment IV (1265-1268)"
        },
        {
            "type": "destinataire",
            "value": "Le roi d'Aragon Jacques I<sup>er<\/sup>"
        },
        {
            "type": "date_libre",
            "value": "VII kalendas februarii, anno tercio"
        },
        {
            "type": "date",
            "value": "1268\/01\/26",
            "children": {
                "date_deb_annee": "1268",
                "date_deb_mois": "01",
                "date_deb_jour": "26"
            },
            "range": {
                "date_apres": 12680126,
                "date_avant": 12680126
            }
        },
        {
            "type": "date_lieu",
            "value": "Viterbe"
        },
        {
            "type": "genre",
            "value": "Lettre, g\u00e9n\u00e9ral (apr\u00e8s 1198, littere cum filo canapis)"
        },
        {
            "type": "analyse",
            "value": "Scribit ei de Terre Sancte calamitatibus. \u00ab Ad hoc super his que de viro nobili H[enrico] Urbis senatore scripsisti, tua sumus responsione contenti ; sanum enim habuisti consilium ; quod et si modo cognoscis, cognosces utique certius ex eventu. Audies interim que venerabilis frater noster Elnensis episcopus tibi dicet, nec sis negligens circa tuum honorem querendum, cum tempus se offerat oportunum \u00bb [Jordan].\nClemens IV. an K\u00f6nig J(akob I.) von Arag\u00f3n: bedauert, da\u00df der Kreuzzug ins Heilige Land aufgeschoben werden mu\u00dfte; zeigt sich mit seinem Ratschlag hinsichtlich des r\u00f6mischen Senators H(einrich von Kastilien) zufrieden; empfiehlt ihm Bischof (Berengarius de Cantalupis) von Elne [Thumser]."
        },
        {
            "type": "sources_manuscrites",
            "value": "R<sup>1<\/sup>. CIT\u00c9 DU VATICAN, Archivio segreto Vaticano, <i>Registra Vaticana<\/i> 30, fol. 71v.",
            "children": {
                "type_source": "Formulaire, collection de lettres m\u00e9di\u00e9vale"
            }
        },
        {
            "type": "sources_manuscrites",
            "value": "R<sup>2<\/sup>. CIT\u00c9 DU VATICAN, Archivio segreto Vaticano, <i>Registra Vaticana<\/i> 33, ep. 425, fol. 70.",
            "children": {
                "type_source": "Formulaire, collection de lettres m\u00e9di\u00e9vale"
            }
        },
        {
            "type": "sources_manuscrites",
            "value": "R<sup>3<\/sup>. CIT\u00c9 DU VATICAN, Archivio segreto Vaticano, <i>Registra Vaticana<\/i> 34, fol. 108.",
            "children": {
                "type_source": "Formulaire, collection de lettres m\u00e9di\u00e9vale"
            }
        },
        {
            "type": "sources_manuscrites",
            "value": "R<sup>4<\/sup>. CIT\u00c9 DU VATICAN, Archivio segreto Vaticano, <i>Registra Vaticana<\/i> 35, ep. 429, fol. 79.",
            "children": {
                "type_source": "Formulaire, collection de lettres m\u00e9di\u00e9vale"
            }
        },
        {
            "type": "edition",
            "value": "Ici reprise de Mathias Thumser, <i>Die Briefe Papst Clemens\u2019 IV. (1265-1268)<\/i>, Vorl\u00e4ufige Edition, MGH, 2015, n. 433."
        },
        {
            "type": "edition_autre",
            "value": "Edmond Mart\u00e8ne, Ursin Durand, <i>Thesaurus novus anecdotorum<\/i>, Paris, 1717, II, n. 597, col. 571 <a target=\"_blank\" href=\"https:\/\/archive.org\/stream\/ThesaurusNovusAnecdotorum2\/Thesaurus_novus_anecdotorum_2#page\/n321\/mode\/2up\"> [en ligne]<\/a>."
        },
        {
            "type": "regeste",
            "value": "Potthast, <i>Regesta pontificum Romanorum<\/i>, n. 20245 <a target=\"_blank\" href=\"https:\/\/archive.org\/stream\/RegestaPontificumRomanorum\/ph#page\/n1645\/mode\/2up\"> [en ligne]<\/a>."
        },
        {
            "type": "regeste",
            "value": "\u00c9douard Jordan, <i>Les registres de Cl\u00e9ment IV (1265-1268)<\/i>, Paris, 1893-1945, n. 1302, d\u2019apr\u00e8s R<sup>1<\/sup>, R<sup>2<\/sup>, R<sup>3<\/sup> et R<sup>4<\/sup>."
        },
        {
            "type": "bibliographie_generale",
            "value": "Mathias Thumser, \u00ab Zur \u00dcberlieferungsgeschichte der Briefe Clemens'IV. (1265-1268) \u00bb, <i>Deutsches Archiv f\u00fcr Erforschung des Mittelalters<\/i>, 51\/1, 1995, p. 115-168."
        },
        {
            "type": "transcription",
            "value": "<?xml version=\"1.0\" encoding=\"UTF-8\"?>\nCarissimo in Christo filio I [acobo] regi Aragonum illustri. Terre Sancte miserias successivis relationibus plenius agnoscentes timemus non immerito, ne dilata subsidia cismarina tantum hostibus spatium tribuant debacchandi, quod vix relinquatur remedio post ruinam, nisi Deus misericorditer plebem suam respiciens processus hostium impedierit vel eosdem elevari permiserit, ut allidat1. Non hoc habent, fili carissime, quod dolentes referimus, quantum esset expediens, populi merita christiani, cui nulla noceret adversitas, si nulla dominaretur iniquitas, sed in tot mundi partibus in se ipsum dividitur, tot peccatis inficitur, tot involvitur fraudibus, tanta demum indevotione dissolvitur, ut a Domino derelictus ab inimicis etiam contempnatur. Verum, quia non obliviscitur Dominus misereri2, qui in tanta peccantium multitudine multa sibi virorum milia reservavit, quos archano suo consilio tamquam vasa misericordie preordinavit ad vitam3, in ipsius bonitate confidimus, quod illorum ministerio, quos elegit, dabit nomini suo gloriam et hostili fracta potentia fidei sue cultum latius propagabit. O quanto gaudio repleremur, si tue magnitudini videremus suppetere facultatem, cui talem adesse cernimus voluntatem. Nichil tamen solidum, nichil fixum tue benivolentie adhuc possumus polliceri, sed fideliter laborabimus, ut et nostrum et tuum desiderium impleatur. Ad hoc super hiis, que de viro nobili H[enrico] Urbis senatore scripsisti, tua sumus responsione contenti. Sanum enim habuisti consilium, quod, etsi modo cognoscas, cognosces utique certius ex eventu, et audies interim, quod venerabilis frater noster Elnensis episcopus tibi dicet. Nec sis negligens circa tuum honorem querendum, cum tempus se offerat oportunum. Datum ut supra in proxima.\n"
        },
        {
            "type": "notes_historiques",
            "value": "Ps. (G) 101,11.",
            "children": {
                "numero_note": "1"
            }
        },
        {
            "type": "notes_historiques",
            "value": "Ps. (G) 76,10.",
            "children": {
                "numero_note": "2"
            }
        },
        {
            "type": "notes_historiques",
            "value": "Rom. 9,23, Act. 13,48.",
            "children": {
                "numero_note": "3"
            }
        }
    ]
}