{
    "id": 26909,
    "name": "aposcripta-3740",
    "type": "acte",
    "url": "http:\/\/telma-chartes.irht.cnrs.fr\/aposcripta\/notice\/26909",
    "project_slug": "aposcripta",
    "project_label": "APOSCRIPTA \u2013 Lettres des papes",
    "user": "l_valliere",
    "last_update": "2020-10-19 16:28:06",
    "licence": "Attribution - Pas d\u2019Utilisation Commerciale - Partage dans les M\u00eames Conditions 3.0 France (CC BY-NC-SA 3.0 FR) ",
    "licence_url": "https:\/\/creativecommons.org\/licenses\/by-nc-sa\/3.0\/fr\/",
    "elements": [
        {
            "type": "pape",
            "value": "Gr\u00e9goire IX (1227-1241)"
        },
        {
            "type": "destinataire",
            "value": "L'\u00e9v\u00eaque de Paris Guillaume d'Auvergne"
        },
        {
            "type": "date_libre",
            "value": "II nonas januarii, anno septimo"
        },
        {
            "type": "date",
            "value": " 1234\/01\/04",
            "children": {
                "date_deb_jour": "04",
                "date_deb_mois": "01",
                "date_deb_annee": "1234"
            },
            "range": {
                "date_apres": 12340104,
                "date_avant": 12340104
            }
        },
        {
            "type": "date_lieu",
            "value": "Latran"
        },
        {
            "type": "genre",
            "value": "Titre, g\u00e9n\u00e9ral (littere gratiose, cum filo serico)"
        },
        {
            "type": "analyse",
            "value": "Gr\u00e9goire IX accorde \u00e0 Guillaume d'Auvergne le privil\u00e8ge de ne plus pouvoir \u00eatre contraint, par lettres apostoliques, de conf\u00e9rer des b\u00e9n\u00e9fices \u00e0 des clercs \u00e9trangers \u00e0 son dioc\u00e8se."
        },
        {
            "type": "sources_manuscrites",
            "value": "R. CIT\u00c9 DU VATICAN, Archivio segreto Vaticano, <i>Registra Vaticana<\/i> 17, ep. 439, fol. 124r.",
            "children": {
                "type_source": "Registre"
            }
        },
        {
            "type": "sources_manuscrites",
            "value": "S. FRANCE, Paris, Biblioth\u00e8que nationale, fonds Moreau, La Porte du Theil, ms. 1188, fol. 272 (copie par La Porte du Theil). ",
            "children": {
                "type_source": "Copie"
            }
        },
        {
            "type": "edition",
            "value": "No\u00ebl\u00a0Valois,\u00a0<i>Guillaume d'Auvergne, \u00e9v\u00eaque de Paris (1228-1249) : sa vie et ses ouvrages<\/i>, Paris, 1880, n. 44, p. 358-359 <a target=\"_blank\" href=\"http:\/\/gallica.bnf.fr\/ark:\/12148\/bpt6k5739404b\/f368\">[en ligne]<\/a>, d\u2019apr\u00e8s S."
        },
        {
            "type": "regeste",
            "value": "Lucien Auvray, <i>Les registres de Gr\u00e9goire IX<\/i>, Paris, 1890-1955, n. 1684, d'apr\u00e8s R."
        },
        {
            "type": "transcription",
            "value": "<?xml version=\"1.0\" encoding=\"UTF-8\"?>\nGregorius episcopus, servus servorum Dei, venerabili fratri Willelmo, episcopo Parisiensi, salutem et apostolicam benedictionem. Licet apostolica Sedes, supra fundamentum apostolorum in lapide adjutorii stabilita, possit ecclesias, quas ubique religio christiana fundavit, ad provisionem clericorum pauperum coactare, ea tamen, que vim auctoritatis sue provide moderatur, illos qui ad mandatum suum semel in beneficio aliquibus providerunt, ad providendum illis iterum non compellit; quia, cum non sit nostri moris beneficium in injuriam cujusque tribuere, sic providemus clericis, ut tamen ecclesias non gravemus. Supplicasti siquidem nobis, ut, cum pluribus de mandato nostro duxeris in beneficiis providendum, tibi, ne alicui de cetero per litteras nostras, que de hac indulgentia non fecerint mentionem, providere alicui tenearis, indulgere misericorditer dignaremur. Tuis igitur precibus inclinati, fraternitati tue, auctoritate presentium, concedimus postulata, nisi forte pro clericis tue diocesis nos quandoque tibi contingat dirigere scripta nostra. Nulli ergo, etc., hanc paginam nostre concessionis etc. Si quis autem, etc. Datum Laterani, secundo nonas januarii, pontificatus nostri anno septimo.\n"
        },
        {
            "type": "remarques",
            "value": "Inconnue de Potthast."
        }
    ]
}