{
    "id": 147859,
    "name": "aposcripta-7477",
    "type": "acte",
    "url": "http:\/\/telma-chartes.irht.cnrs.fr\/aposcripta\/notice\/147859",
    "project_slug": "aposcripta",
    "project_label": "APOSCRIPTA \u2013 Lettres des papes",
    "user": "l_valliere",
    "last_update": "2020-10-19 16:39:38",
    "licence": "Attribution - Pas d\u2019Utilisation Commerciale - Partage dans les M\u00eames Conditions 3.0 France (CC BY-NC-SA 3.0 FR) ",
    "licence_url": "https:\/\/creativecommons.org\/licenses\/by-nc-sa\/3.0\/fr\/",
    "elements": [
        {
            "type": "pape",
            "value": "Cl\u00e9ment IV (1265-1268)"
        },
        {
            "type": "destinataire",
            "value": "Le cardinal-\u00e9v\u00eaque d'Albano Raoul, l\u00e9gat du Si\u00e8ge apostolique"
        },
        {
            "type": "date_libre",
            "value": "nonis februarii, anno secundo"
        },
        {
            "type": "date",
            "value": "1267\/02\/05",
            "children": {
                "date_deb_annee": "1267",
                "date_deb_mois": "02",
                "date_deb_jour": "05"
            },
            "range": {
                "date_apres": 12670205,
                "date_avant": 12670205
            }
        },
        {
            "type": "date_lieu",
            "value": "Viterbe"
        },
        {
            "type": "genre",
            "value": "Lettre, g\u00e9n\u00e9ral (apr\u00e8s 1198, littere cum filo canapis)"
        },
        {
            "type": "analyse",
            "value": "R[adulpho] episcopo Albanensi, apostolice Sedis legato. Collectas a [Carolo] rege Sicilie in regno factas improbat. \u00ab Nam quod dicat se pauperem, .. sibi imputet, qui se in hujusmodi necessitatem immersit, suas destruens massarias de quibus vivere poterat abundanter. Et si hodie haberet Sardiniam, sic eum vivere oporteret. \u00bb \u00ab Has autem litteras clam cum alia interclusa1 solus legito postquam eas plene legeris comburendas. Greci sunt apud nos, quorum credentes expeditionem instare, tibique rescribere, diutius nuntium tuum tenuimus; qua in tempus dilata longius, nuntium statim duximus remittendum, et ideo moram ei ad culpam non ascribas \u00bb [Jordan].\nClemens IV. an R(aoul Grosparmi,) Kardinalbischof von Albano, apostolischer Legat: zeigt sich ungehalten \u00fcber die unangemessenen Steuererhebungen K\u00f6nig (Karls I. von Sizilien) in seinem Reich; eine Gesandtschaft aus Griechenland sei bei ihm eingetroffen [Thumser]."
        },
        {
            "type": "sources_manuscrites",
            "value": "R<sup>1<\/sup>. CIT\u00c9 DU VATICAN, Archivio segreto Vaticano, <i>Registra Vaticana<\/i> 30, fol. 53.",
            "children": {
                "type_source": "Formulaire, collection de lettres m\u00e9di\u00e9vale"
            }
        },
        {
            "type": "sources_manuscrites",
            "value": "R<sup>2<\/sup>. CIT\u00c9 DU VATICAN, Archivio segreto Vaticano, <i>Registra Vaticana<\/i> 34, fol. 78v.",
            "children": {
                "type_source": "Formulaire, collection de lettres m\u00e9di\u00e9vale"
            }
        },
        {
            "type": "sources_manuscrites",
            "value": "R<sup>3<\/sup>. CIT\u00c9 DU VATICAN, Archivio segreto Vaticano, <i>Registra Vaticana<\/i> 35, ep. 299, fol. 58v (sans date).",
            "children": {
                "type_source": "Formulaire, collection de lettres m\u00e9di\u00e9vale"
            }
        },
        {
            "type": "edition",
            "value": "Ici reprise de Mathias Thumser, <i>Die Briefe Papst Clemens\u2019 IV. (1265\u20131268)<\/i>, Vorl\u00e4ufige Edition, MGH, 2015, n. 304."
        },
        {
            "type": "edition_autre",
            "value": "Edmond Mart\u00e8ne, Ursin Durand, <i>Thesaurus novus anecdotorum<\/i>, Paris, 1717, II, n. 432, col. 443 <a target=\"_blank\" href=\"https:\/\/archive.org\/stream\/ThesaurusNovusAnecdotorum2\/Thesaurus_novus_anecdotorum_2#page\/n257\/mode\/2up\"> [en ligne]<\/a>."
        },
        {
            "type": "regeste",
            "value": "Potthast, <i>Regesta pontificum Romanorum<\/i>, n. 19932 <a target=\"_blank\" href=\"https:\/\/archive.org\/stream\/RegestaPontificumRomanorum\/ph#page\/n1623\/mode\/2up\"> [en ligne]<\/a>."
        },
        {
            "type": "regeste",
            "value": "\u00c9douard Jordan, <i>Les registres de Cl\u00e9ment IV (1265-1268)<\/i>, Paris, 1893-1945, n. 1173, d\u2019apr\u00e8s R<sup>1<\/sup>, R<sup>2<\/sup> et R<sup>3<\/sup>."
        },
        {
            "type": "bibliographie_generale",
            "value": "Mathias Thumser, \u00ab Zur \u00dcberlieferungsgeschichte der Briefe Clemens'IV. (1265-1268) \u00bb, <i>Deutsches Archiv f\u00fcr Erforschung des Mittelalters<\/i>, 51\/1, 1995, p. 115-168."
        },
        {
            "type": "transcription",
            "value": "<?xml version=\"1.0\" encoding=\"UTF-8\"?>\nR[adulfo] episcopo Albanensi, apostolice Sedis legato. De collecta quam in Regno rex facit vel motu proprio vel suorum consilio, tua sciat fraternitas, quod, sicut Deo displicet, sic et nobis. Et, si quis tibi dixerit, quod de nostra facta fuerit etiam conscientia, in caput suum illum noveris esse mentitum. Immo vagantibus in verbis regis nuntiis coram nobis et quasi non querendo querentibus, quid rex faciet, unde suis stipendiariis satisfaciet, unde solvet ecclesie debita, si collectas non faciat, nos respondimus plus eorum intentioni quam verbis, quod ad eas procedere sine sue salutis discrimine non valebat sine hominum terre consilio et assensu gratuito, non per aliquam impressionem extorto. Unde, quia nobiscum non colligit, verendum credimus ne dispergat. Multa quidem contra ipsum parantur alibi. Et, si Regnum contra se provocat et aliunde veniunt adversarii et, quod est gravius, Deum sibi constituit adversarium, non immerito formidamus, ne nos et se in extremam, quod absit, confusionem adducat. Nam, quod dicit se pauperem, quod recedere servientes de castris, quod necessitatem urgere, sibi imputet, qui se in huiusmodi necessitatem immersit suas destruens massarias, de quibus vivere poterat abundanter. Hec est enim vita regum Sicilie. Et si hodie haberet Sardiniam, sic eum vivere oporteret. Sed quid ad rumbum ? Si pauper est qui terram magnam et redditus multos habet, nonne de suo ad tempus redditus obligando vel aurum suum et argentum et lapides distrahendo sibi deberet consulere, non de spoliis alienis ? Sue tamen ad presens conscientie relinquatur. Quod autem ab hominibus ecclesiarum accipiat aliquid, non sustineas nec sub pretextu requisitionis ipsius ballivorum suorum frangere differas contumaciam, nam hac via nervum dissolveres ecclesiastice discipline. Verum hominum suorum, quos contra suam promissionem spoliat, dissimulare potes iniuriam, cum nulla querimonia deferatur, ad quam eos provocare non debes. Et, si ad te ipsam venire contingeret, expedire tue quieti credimus quod ad nos remittas eandem, ne querentibus negando iustitiam ab ipsis, qui modo te diligunt, contempnaris. Has autem litteras cum anima interclusa solus legito, postquam eas plene collegeris comburendas. Greci sunt apud nos, quorum credentes expeditionem instare tibique rescribere diutius nuntium tuum tenuimus. Qua in tempus dilata longius nuntium statim duximus remittendum. Et ideo moram ei non ascribas ad culpam. Datum Viterbii, nonis februarii, anno II.\n"
        }
    ]
}