{
    "id": 149893,
    "name": "aposcripta-9456",
    "type": "acte",
    "url": "http:\/\/telma-chartes.irht.cnrs.fr\/aposcripta\/notice\/149893",
    "project_slug": "aposcripta",
    "project_label": "APOSCRIPTA \u2013 Lettres des papes",
    "user": "lettrespontificalesadmin",
    "last_update": "2020-10-19 16:40:05",
    "licence": "Attribution - Pas d\u2019Utilisation Commerciale - Partage dans les M\u00eames Conditions 3.0 France (CC BY-NC-SA 3.0 FR) ",
    "licence_url": "https:\/\/creativecommons.org\/licenses\/by-nc-sa\/3.0\/fr\/",
    "elements": [
        {
            "type": "pape",
            "value": "Urbain IV (1261-1264)"
        },
        {
            "type": "destinataire",
            "value": "Ad futuram rei memoriam"
        },
        {
            "type": "date_libre",
            "value": "VI idus septembris, anno quarto"
        },
        {
            "type": "date",
            "value": " 1264\/09\/08",
            "children": {
                "date_deb_annee": "1264",
                "date_deb_mois": "09",
                "date_deb_jour": "08"
            },
            "range": {
                "date_apres": 12640908,
                "date_avant": 12640908
            }
        },
        {
            "type": "date_lieu",
            "value": "Urbemveterem"
        },
        {
            "type": "sources_manuscrites",
            "value": "R. CIT\u00c9 DU VATICAN, Archivio Segreto Vaticano, <hi rend=\"italic\">Registra Vaticana<\/hi> ... Urb.\u00a0IV Reg. Vol.\u00a0III, 138; Lib.\u00a0IV, cur.\u00a01. Damus Pertzii exemplar.",
            "children": {
                "type_source": "Registre de la chancellerie apostolique"
            }
        },
        {
            "type": "genre",
            "value": "Mandement (littere cum filo canapis)"
        },
        {
            "type": "analyse",
            "value": "Urbanus IV papa notum facit, si Manfredum electum Veronensem in carceribus hostium decedere vel cedere contigerit, se provisionem ecclesiae Veronensis sibi reservare [Rodenberg]."
        },
        {
            "type": "transcription",
            "value": "<?xml version=\"1.0\" encoding=\"UTF-8\"?>\nAd futuram rei memoriam.Cum dilectus filius Manfredus Veronensis electus ab hostibus ecclesie captivatus et diris carceribus mancipatus existat, nos, non immerito dubitantes, ne si eundem electum in carceribus ipsis, quod absit, decedere vel ecclesie Veronensis regimini cedere forte contingat, aliqua persona ecclesie Romane suspecta ad eiusdem ecclesie Veronensis regimen assumatur, ac volentes in hac parte salubriter providere, provisionem ipsius Veronensis ecclesie, si per illius cessionem vel obitum aut alias quocumque modo ipsa vacaverit, nobis hac vice auctoritate apostolica reservamus, inhibentes dilectis filiis capitulo Veronensi, ne, ipsa ecclesia Veronensi qualitercumque vacante, ad electionem, nominationem vel postulationem pastoris procedere quoquomodo presumant, ac decernentes irritum et inane, quicquid per eos vel per quoscumque alios contra huiusmodi reservationis et inhibitionis nostre tenorem fuerit attemptatum. Nulli ergo \u2014 nostre reservationis, inhibitionis et constitutionis etc.Dat. apud Urbemveterem, VI Idus Septembris, anno quarto.\n"
        },
        {
            "type": "edition",
            "value": "Ici reprise de Karl Rodenberg, Epistolae s. XIII e regestis pontificum romanorum selectae, III, Berlin : Weidmann (MGH), 1894, n.\u00a0634, p.\u00a0625."
        },
        {
            "type": "edition_autre",
            "value": "?"
        },
        {
            "type": "regeste",
            "value": "?"
        },
        {
            "type": "bibliographie_generale",
            "value": "?"
        },
        {
            "type": "apparat_critique",
            "value": "?",
            "children": {
                "numero_note": "a"
            }
        },
        {
            "type": "apparat_critique",
            "value": "?",
            "children": {
                "numero_note": "b"
            }
        },
        {
            "type": "apparat_critique",
            "value": "?",
            "children": {
                "numero_note": "c"
            }
        },
        {
            "type": "apparat_critique",
            "value": "?",
            "children": {
                "numero_note": "d"
            }
        },
        {
            "type": "apparat_critique",
            "value": "?",
            "children": {
                "numero_note": "e"
            }
        },
        {
            "type": "apparat_critique",
            "value": "?",
            "children": {
                "numero_note": "f"
            }
        },
        {
            "type": "notes_historiques",
            "value": "?",
            "children": {
                "numero_note": "1"
            }
        },
        {
            "type": "notes_historiques",
            "value": "?",
            "children": {
                "numero_note": "2"
            }
        },
        {
            "type": "notes_historiques",
            "value": "?",
            "children": {
                "numero_note": "3"
            }
        }
    ]
}