{
    "id": 20714,
    "name": "aposcripta-701",
    "type": "acte",
    "url": "http:\/\/telma-chartes.irht.cnrs.fr\/aposcripta\/notice\/20714",
    "project_slug": "aposcripta",
    "project_label": "APOSCRIPTA \u2013 Lettres des papes",
    "user": "lettrespontificalesadmin",
    "last_update": "2020-10-19 16:26:52",
    "licence": "Attribution - Pas d\u2019Utilisation Commerciale - Partage dans les M\u00eames Conditions 3.0 France (CC BY-NC-SA 3.0 FR) ",
    "licence_url": "https:\/\/creativecommons.org\/licenses\/by-nc-sa\/3.0\/fr\/",
    "elements": [
        {
            "type": "pape",
            "value": "Eug\u00e8ne III (1145-1153)"
        },
        {
            "type": "date_lieu",
            "value": "n.c."
        },
        {
            "type": "date_libre",
            "value": "1148 Apr 12"
        },
        {
            "type": "analyse",
            "value": "Eugenius\u00a0III iudicium inter Guilelmum abbatem Anianensem et fratres S. Sepulchri super ecclesia S. Salvatoris de Rubo latum approbat."
        },
        {
            "type": "transcription",
            "value": "<?xml version=\"1.0\" encoding=\"UTF-8\"?>\n(In cod. additum est.) De hac re scribit etiam episcopo Magalonensi et mandat, ut Anianenses in possessionem inducantur et conserventur. Datum Remis II Idus Aprilis.\n"
        },
        {
            "type": "edition",
            "value": "Samuel Loewenfeld, <i>Epistolae pontificum romanorum ineditae<\/i>, Leipzig : Veit et Comp., 1885, n. 202, p. 107"
        },
        {
            "type": "sources_manuscrites",
            "value": "Bibl. nat. Paris. ms. lat.\u00a013816 s.\u00a0<span class=\"smal-caps\">xvii<\/span> fol.\u00a078<sup>b<\/sup>."
        },
        {
            "type": "notes_historiques",
            "value": "Cardinali tit. S. Marcelli.",
            "children": {
                "numero_note": "1"
            }
        },
        {
            "type": "notes_historiques",
            "value": "S. Mariae in Cosmidin.",
            "children": {
                "numero_note": "2"
            }
        },
        {
            "type": "apparat_critique",
            "value": "dilecti <i>deest in cod.<\/i>",
            "children": {
                "numero_note": "a"
            }
        },
        {
            "type": "apparat_critique",
            "value": "<i>sic cod. Vide finem sequentis epistolae<\/i>.",
            "children": {
                "numero_note": "B"
            }
        },
        {
            "type": "date",
            "value": "1148\/04\/12",
            "children": {
                "date_deb_annee": "1148",
                "date_deb_mois": "04",
                "date_deb_jour": "12"
            },
            "range": {
                "date_apres": 11480412,
                "date_avant": 11480412
            }
        },
        {
            "type": "genre",
            "value": "Bulle"
        }
    ]
}