{
    "id": 25820,
    "name": "aposcripta-2917",
    "type": "acte",
    "url": "http:\/\/telma-chartes.irht.cnrs.fr\/aposcripta\/notice\/25820",
    "project_slug": "aposcripta",
    "project_label": "APOSCRIPTA \u2013 Lettres des papes",
    "user": "lettrespontificalesadmin",
    "last_update": "2020-10-19 16:27:49",
    "licence": "Attribution - Pas d\u2019Utilisation Commerciale - Partage dans les M\u00eames Conditions 3.0 France (CC BY-NC-SA 3.0 FR) ",
    "licence_url": "https:\/\/creativecommons.org\/licenses\/by-nc-sa\/3.0\/fr\/",
    "elements": [
        {
            "type": "pape",
            "value": "Lucius II (1144-1145)"
        },
        {
            "type": "destinataire",
            "value": "( )",
            "children": {
                "numero_note": "0"
            }
        },
        {
            "type": "date_lieu",
            "value": "n.c."
        },
        {
            "type": "date_libre",
            "value": "(An 1144, 22 mars)"
        },
        {
            "type": "date",
            "value": " 1144\/03\/22",
            "children": {
                "date_deb_annee": "1144",
                "date_deb_mois": "03",
                "date_deb_jour": "22"
            },
            "range": {
                "date_apres": 11440322,
                "date_avant": 11440322
            }
        },
        {
            "type": "analyse",
            "value": "Lucius 2 pape<br\/>L\u2019abb\u00e9 de Saint-Germain avait fait arr\u00eater les hommes de Ponce, abb\u00e9 de V\u00e9zelay, usageant dans une for\u00eat qui leur appartenait en commun. Ponce, n\u2019ayant pu obtenir leur mise en libert\u00e9, avait offert des cautions \u00e0 l\u2019abb\u00e9 de Saint-Germain et avait d\u00e9pos\u00e9 entre ses mains le livre des Evangiles. Le pape, inform\u00e9 de la r\u00e9sistance de ce dernier, l\u2019en blame et lui ordonne de rendre les Evangiles et de d\u00e9gager la caution, et le renvoie devant l\u2019\u00e9v\u00eaque de Langres pour obtenir justice."
        },
        {
            "type": "transcription",
            "value": "<?xml version=\"1.0\" encoding=\"UTF-8\"?>\nLucius episcopus, servus servorum Dei, dilecto filio abbati S. Germani Autissiodorensis, salutem et apostolicam benedictionem. Dilectus filius noster Pontius, Vizeliacensis abbas, ad nostram pr\u00e6sentiam veniens, questus est quod in quodam nemore tibi et ipsi communi homines suos capi feceris, et servientibus comitis Nivernensis incarcerandos tradideris: quos, cum a te requisisset et habere non posset, pro eorum liberatione fidejussores dedit, et textum Evangelii tradidit. Quod quia contra religionem et fratern\u00e6 caritatis vinculum factum fuisse cognoscitur, per pr\u00e6sentia tibi scripta mandamus quatinus, dilatione remota, et textum Evangelii tam inordinate susceptum ei restituas, et fidejussores suos absolvas. Postmodum vero, si quam adversus ipsum te confidis habere justitiam, in pr\u00e6sentia venerabilis fratris nostri Godefridi, Lingonensis episcopi, quod justitia dictaverit, obtineas; ea quoque qu\u00e6 Guiberto servienti tuo ob malivolentiam ipsius abstulisti, ei restituas. Datum Laterani, XI kalendas aprilis.\n"
        },
        {
            "type": "edition",
            "value": "Ici tir\u00e9e du projet <i>CBMA - Corpus Burgundiae Medii Aevi<\/i>, document 8002. Site du projet Corpus de la Bourgogne du Moyen \u00c2ge, [En ligne] <a href=\"http:\/\/www.cbma-project.eu\" target=\"_blank\">http:\/\/www.cbma-project.eu<\/a>  "
        },
        {
            "type": "sources_manuscrites",
            "value": "\u00e0 renseigner. Texte pr\u00e9c\u00e9d\u00e9 de la rubrique: <i>LETTRE DU PAPE LUCIUS\u00a0II A L\u2019ABB\u00c9 DE SAINT-GERMAIN D\u2019AUXERRE.<\/i>"
        },
        {
            "type": "remarques",
            "value": "\r\n\r\n Rec. des hist. de France, t.\u00a0XV, p.\u00a0411. - Spicil. in-4\u00ba, t.\u00a0III, p.\u00a0472; in-f\u00ba t.\u00a0II, p.\u00a0506."
        },
        {
            "type": "edition_autre",
            "value": "Ici reprise de Maximilien Quantin, <i>Cartulaire g\u00e9n\u00e9ral de l'Yonne, Recueil de documents authentiques pour servir \u00e0 l'histoire des pays qui forment ce d\u00e9partement<\/i>, I, Auxerre : Perriquet, Soci\u00e9t\u00e9 des sciences historiques et naturelles de l'Yonne, 1854-1860, p. , n\u00b0 CCXXXVI.",
            "children": {
                "numero_note": "0"
            }
        },
        {
            "type": "genre",
            "value": "Bulle"
        },
        {
            "type": "genre",
            "value": "Lettre"
        }
    ]
}