{
    "id": 148748,
    "name": "aposcripta-8318",
    "type": "acte",
    "url": "http:\/\/telma-chartes.irht.cnrs.fr\/aposcripta\/notice\/148748",
    "project_slug": "aposcripta",
    "project_label": "APOSCRIPTA \u2013 Lettres des papes",
    "user": "lettrespontificalesadmin",
    "last_update": "2020-10-19 16:39:49",
    "licence": "Attribution - Pas d\u2019Utilisation Commerciale - Partage dans les M\u00eames Conditions 3.0 France (CC BY-NC-SA 3.0 FR) ",
    "licence_url": "https:\/\/creativecommons.org\/licenses\/by-nc-sa\/3.0\/fr\/",
    "elements": [
        {
            "type": "pape",
            "value": "Innocent IV (1243-1254)"
        },
        {
            "type": "destinataire",
            "value": "Nobili viro Guillelmo iudici Arborensi"
        },
        {
            "type": "date_libre",
            "value": "III Kalendas Octobris, anno VIII"
        },
        {
            "type": "date",
            "value": " 1250\/07\/18",
            "children": {
                "date_deb_annee": "1250",
                "date_deb_mois": "07",
                "date_deb_jour": "18"
            },
            "range": {
                "date_apres": 12500718,
                "date_avant": 12500718
            }
        },
        {
            "type": "date_lieu",
            "value": "Lugduni"
        },
        {
            "type": "sources_manuscrites",
            "value": "<value>R. CIT\u00c9 DU VATICAN, Archivio Segreto Vaticano, <i>Registra Vaticana<\/i> ... <i>Inn.\u00a0IV Reg. Vol.\u00a0II, 17\u00a0; Lib.\u00a0VIII, 94. Exemplar tabularii contulimus cum Regestis.<\/i><\/value>",
            "children": {
                "type_source": "Registre de la chancellerie apostolique"
            }
        },
        {
            "type": "genre",
            "value": "Mandement (littere cum filo canapis)"
        },
        {
            "type": "analyse",
            "value": "Innocentius IV papa Guillelmo iudici Arborensi terram, quam in Arborea ab ecclesia Romana obtineat, usque ad beneplacitum apostolicum retinendam confirmat [Rodenberg]."
        },
        {
            "type": "transcription",
            "value": "<?xml version=\"1.0\" encoding=\"UTF-8\"?>\nNobili viro Guillelmo iudici Arborensi.Pro puritate tue devotionis et fidei apud nos dignus esse diceris gratia speciali. Hinc est, quod nos, tuis supplicationibus annuentes, terram, quam in Arborea ab ecclesia Romana obtinere dinosceris, retinendam usque ad nostrum beneplacitum, tibi auctoritate apostolica confirmamus et presentis scripti patrocinio communimus. Nulli ergo etc. nostre confirmationis etc.Dat. Lugduni, III Kalendas Octobris, anno VIIIo.\n"
        },
        {
            "type": "edition",
            "value": "Ici reprise de Karl Rodenberg, Epistolae s. XIII e regestis pontificum romanorum selectae, III, Berlin : Weidmann (MGH), 1894, n.\u00a010, p.\u00a08 [en ligne]."
        },
        {
            "type": "edition_autre",
            "value": "?"
        },
        {
            "type": "regeste",
            "value": "?"
        },
        {
            "type": "bibliographie_generale",
            "value": "?"
        },
        {
            "type": "apparat_critique",
            "value": "<value>?<\/value>",
            "children": {
                "numero_note": "a"
            }
        },
        {
            "type": "apparat_critique",
            "value": "<value>?<\/value>",
            "children": {
                "numero_note": "b"
            }
        },
        {
            "type": "apparat_critique",
            "value": "<value>?<\/value>",
            "children": {
                "numero_note": "c"
            }
        },
        {
            "type": "apparat_critique",
            "value": "<value>?<\/value>",
            "children": {
                "numero_note": "d"
            }
        },
        {
            "type": "apparat_critique",
            "value": "<value>?<\/value>",
            "children": {
                "numero_note": "e"
            }
        },
        {
            "type": "apparat_critique",
            "value": "<value>?<\/value>",
            "children": {
                "numero_note": "f"
            }
        },
        {
            "type": "notes_historiques",
            "value": "<value>?<\/value>",
            "children": {
                "numero_note": "1"
            }
        },
        {
            "type": "notes_historiques",
            "value": "<value>?<\/value>",
            "children": {
                "numero_note": "2"
            }
        },
        {
            "type": "notes_historiques",
            "value": "<value>?<\/value>",
            "children": {
                "numero_note": "3"
            }
        }
    ]
}