{
    "id": 26385,
    "name": "aposcripta-3464",
    "type": "acte",
    "url": "http:\/\/telma-chartes.irht.cnrs.fr\/aposcripta\/notice\/26385",
    "project_slug": "aposcripta",
    "project_label": "APOSCRIPTA \u2013 Lettres des papes",
    "user": "lettrespontificalesadmin",
    "last_update": "2020-10-19 16:28:00",
    "licence": "Attribution - Pas d\u2019Utilisation Commerciale - Partage dans les M\u00eames Conditions 3.0 France (CC BY-NC-SA 3.0 FR) ",
    "licence_url": "https:\/\/creativecommons.org\/licenses\/by-nc-sa\/3.0\/fr\/",
    "elements": [
        {
            "type": "pape",
            "value": "Alexandre III (1159-1181)"
        },
        {
            "type": "date_lieu",
            "value": "Anagni"
        },
        {
            "type": "date_libre",
            "value": "1173\u20131174 M\u00e4rz 18<a class=\"note\" href=\"#note-1\">1<\/a>"
        },
        {
            "type": "date",
            "value": "apr\u00e8s 1171\/03\/18 - avant 1174\/03\/18",
            "children": {
                "date_deb_annee": "1171",
                "date_deb_mois": "03",
                "date_deb_jour": "18",
                "date_deb_type": "apr\u00e8s",
                "date_fin_annee": "1174",
                "date_fin_mois": "03",
                "date_fin_jour": "18",
                "date_fin_type": "avant"
            },
            "range": {
                "date_apres": 11710318,
                "date_avant": 11740318
            }
        },
        {
            "type": "analyse",
            "value": "Alexander III best\u00e4tigt dem Abte von Anchin (D. Arras) und dessen Kirche den Altar von \u201eVisiacum\u201c (Viset ? in Brabant) und den von Nesle-l\u2019H\u00f4pital (Somme)."
        },
        {
            "type": "transcription",
            "value": "<?xml version=\"1.0\" encoding=\"UTF-8\"?>\n Alexander episcopus servus servorum dei dilecto filio, Aqui cintensi abbati2, salutem et apostolicam benedictionem. Justis petentium deside riis dignum est nos facilem prebere consensum, et vota, que a rationis tramite non discordant, effectu sunt prosequente complenda. Eapropter, dilecte in domino fili, tuis iustis postulationibus grato concurrentes assensu, altare de Visiaco, sicut tibi et ecclesie tue rationabiliter concessum est, et a venerabili fratre nostro .Hen(rico), Remensi archiepiscopo3, confirmatum, et altare de Nigella iuxta Lensum, quemadmodum ipsum canonice possides, tibi et eidem ecclesie auctoritate apostolica confirmamus et presentis scripti patrocinio communimus. Statuentes, ut nulli omnino hominum liceat, hanc paginam nostre confirmationis infringere vel ei aliquatenus contraire. Si quis autem hoc attemptare presumpserit, indignationem omnipotentis | dei et beatorum Petri et Pauli apostolorum eius se noverit incursurum. \u2014 Dat. Anagnie, | xv Kl. Aprilis.\n"
        },
        {
            "type": "edition",
            "value": "Julius von Pflugk-Harttung, <i>Acta pontificum Romanorum inedita<\/i>, T\u00fcbingen, 1880, I, n. 276, p. 254"
        },
        {
            "type": "sources_manuscrites",
            "value": "Or. im Archive des D\u00e9p. Nord zu Lille (Fonds d\u2019Anchin)."
        },
        {
            "type": "remarques",
            "value": "Perg. ital., breit 0,191\u20130,196, lang 0,24, unten umgeschlagen, durch 2 L\u00f6cher geht die gelbe Seidenschnur, an der die Bulle h\u00e4ngt, unter der Bulle noch 0,35 messend. Faltung der Breven, im Contexte tritt wiederholt die Dinte des Correctors hervor."
        },
        {
            "type": "notes_historiques",
            "value": "<i>Die Jahreszahl ergiebt sich aus dem Orte und durch Erzbischof Heinrich von Reims, der als lebend aufgef\u00fchrt wird.<\/i>",
            "children": {
                "numero_note": "1"
            }
        },
        {
            "type": "notes_historiques",
            "value": "<i>Damals war Alexander Abt von Anchin, c. 1170\u20131174, Simon I sein Nachfolger succedirte sp\u00e4testens 1175 ; vergl. Le Glay, Cameracum<\/i> <i>Christ.<\/i> <i>p. 227.<\/i>",
            "children": {
                "numero_note": "2"
            }
        },
        {
            "type": "notes_historiques",
            "value": "<i>Heinrich von Francien, Erzbischof von Reims, 1162\u20131175.<\/i>",
            "children": {
                "numero_note": "3"
            }
        },
        {
            "type": "genre",
            "value": "Bulle"
        }
    ]
}