{
    "id": 149931,
    "name": "aposcripta-9494",
    "type": "acte",
    "url": "http:\/\/telma-chartes.irht.cnrs.fr\/aposcripta\/notice\/149931",
    "project_slug": "aposcripta",
    "project_label": "APOSCRIPTA \u2013 Lettres des papes",
    "user": "lettrespontificalesadmin",
    "last_update": "2020-10-19 16:40:06",
    "licence": "Attribution - Pas d\u2019Utilisation Commerciale - Partage dans les M\u00eames Conditions 3.0 France (CC BY-NC-SA 3.0 FR) ",
    "licence_url": "https:\/\/creativecommons.org\/licenses\/by-nc-sa\/3.0\/fr\/",
    "elements": [
        {
            "type": "pape",
            "value": "Cl\u00e9ment IV (1265-1268)"
        },
        {
            "type": "destinataire",
            "value": "III.<lb n=\"\"\/>Magistro Fredolo de Sancto Boneto canonico Magalonensi, capellano nostro"
        },
        {
            "type": "date_libre",
            "value": "XV kalendas octobris, anno III"
        },
        {
            "type": "date",
            "value": " 1267\/09\/17",
            "children": {
                "date_deb_annee": "1267",
                "date_deb_mois": "09",
                "date_deb_jour": "17"
            },
            "range": {
                "date_apres": 12670917,
                "date_avant": 12670917
            }
        },
        {
            "type": "date_lieu",
            "value": "Viterbii"
        },
        {
            "type": "sources_manuscrites",
            "value": "R. CIT\u00c9 DU VATICAN, Archivio Segreto Vaticano, <hi rend=\"italic\">Registra Vaticana<\/hi> ... Clem.\u00a0IV Reg. Vol.\u00a0I, 205-206; Lib.\u00a0III, cur.\u00a012-16. Epistolas ex Regestis descripsit V. Cl. Monaci.",
            "children": {
                "type_source": "Registre de la chancellerie apostolique"
            }
        },
        {
            "type": "genre",
            "value": "Mandement (littere cum filo canapis)"
        },
        {
            "type": "analyse",
            "value": "Clemens IV papa, cum decreverit, ut in quaestione, quae inter [Alfonsum] regem Castellae et R[icardum] in Romanorum regem electos de imperio Romano verteretur, testes producendi in Alamannia apud Frankenefort, in Francia Parisius, in Hispania in civitate Burgensi, in Italia Bononiae et apud curiam papalem inde a vigilia festi Omnium Sanctorum examinarentur, variis personis mandat, ut id exequantur [Rodenberg]."
        },
        {
            "type": "transcription",
            "value": "<?xml version=\"1.0\" encoding=\"UTF-8\"?>\nIII.Magistro Fredolo de Sancto Boneto canonico Magalonensi, capellano nostro.Inter carissimos in Christo filios nostros . . regem Castelle ac Legionis illustrem et R. in Romanorum regem electos etc. ut in tertia superiori usque: voluimus, quod in Alamannia apud castrum de Frankenefort Maguntine diocesis, in Francia Parisius etc. usque: Ideoque mandamus, quatinus ad predictum castrum de Frankenefort te personaliter conferens, testes, quos eedem partes etc. usque: non expectes; testes autem etc.Dat. Viterbii, XV Kalendas Octobris, anno III\u00b0.\n"
        },
        {
            "type": "edition",
            "value": "Ici reprise de Karl Rodenberg, Epistolae s. XIII e regestis pontificum romanorum selectae, III, Berlin : Weidmann (MGH), 1894, n.\u00a0665c, p.\u00a0682."
        },
        {
            "type": "edition_autre",
            "value": "?"
        },
        {
            "type": "regeste",
            "value": "?"
        },
        {
            "type": "bibliographie_generale",
            "value": "?"
        },
        {
            "type": "apparat_critique",
            "value": "?",
            "children": {
                "numero_note": "a"
            }
        },
        {
            "type": "apparat_critique",
            "value": "?",
            "children": {
                "numero_note": "b"
            }
        },
        {
            "type": "apparat_critique",
            "value": "?",
            "children": {
                "numero_note": "c"
            }
        },
        {
            "type": "apparat_critique",
            "value": "?",
            "children": {
                "numero_note": "d"
            }
        },
        {
            "type": "apparat_critique",
            "value": "?",
            "children": {
                "numero_note": "e"
            }
        },
        {
            "type": "apparat_critique",
            "value": "?",
            "children": {
                "numero_note": "f"
            }
        },
        {
            "type": "notes_historiques",
            "value": "?",
            "children": {
                "numero_note": "1"
            }
        },
        {
            "type": "notes_historiques",
            "value": "?",
            "children": {
                "numero_note": "2"
            }
        },
        {
            "type": "notes_historiques",
            "value": "?",
            "children": {
                "numero_note": "3"
            }
        }
    ]
}