{
    "id": 20897,
    "name": "aposcripta-884",
    "type": "acte",
    "url": "http:\/\/telma-chartes.irht.cnrs.fr\/aposcripta\/notice\/20897",
    "project_slug": "aposcripta",
    "project_label": "APOSCRIPTA \u2013 Lettres des papes",
    "user": "lettrespontificalesadmin",
    "last_update": "2020-10-19 16:26:54",
    "licence": "Attribution - Pas d\u2019Utilisation Commerciale - Partage dans les M\u00eames Conditions 3.0 France (CC BY-NC-SA 3.0 FR) ",
    "licence_url": "https:\/\/creativecommons.org\/licenses\/by-nc-sa\/3.0\/fr\/",
    "elements": [
        {
            "type": "pape",
            "value": "Urbain III (1185-1187)"
        },
        {
            "type": "date_lieu",
            "value": "n.c."
        },
        {
            "type": "date_libre",
            "value": "1186-87 Apr 13"
        },
        {
            "type": "analyse",
            "value": "Urbanus\u00a0III Henrico archiepiscopo Bituricensi per totam provinciam, excepto monasterio Dolensi, vices suas committit."
        },
        {
            "type": "transcription",
            "value": "<?xml version=\"1.0\" encoding=\"UTF-8\"?>\nUrbanus episcopus servus servorum Dei venerabili fratri Henrico archiepiscopo1, Aquitaniae primati, apostolicae sedis legato, salutem et apostolicam benedictionem. Quanto beneficia graciora, dum essemus in minori officio, ab ecclesia tibi commissa nos accepisse recolimus et uberiorem ab eo gratiam assecutos, tanto amplius nos ei recognoscimus debitores et libentius ipsam praerogativa nostrae dilectionis et gratia decoramus. Illud etiam ad exequendum nostrae voluntatis propositum attentius nos inducit, quod, cum sisa non solum generis sed etiam morum nobilitate perspicuus, tuae sincerae devotionis affectum circa nos et Romanam ecclesiam usque adeo manifesta rerum exhibitione declaras, ut ab apostolica sede non immerito diligi debeas etb propensius honorari. Sane cum per nos exequi non possimus, quae nobis ex susceptae ministerio servitutis imminent exequenda, illos in partem sollicitudinis advocare tenemur, de quorum prudentia et honestate confidimus et per quos vitiis exstirpatis virtutum autore Deo credimus germina propaganda. Eapropter, venerabilis in Christo frater archiepiscope, in te probitatem, elegantiam morum et sincerae devotionis constantiam attendentes, per totam provinciam tuam, excepto monasterio Dolensi, de consilio fratrum nostrorum apostolicae tibi legationis officium committimus exequendum, ut in ea vice nostra, quae corrigenda sunt corrigas, evellas quae fuerint evellenda, et plantes quae noveris esse plantanda. Attende itaque, carissime frater, quid tibi sollicitudinis ex indulgentia apostolicae sedis immineat, et sic iniunctae tibi legationis officium cum auxilio gratiae celestis exequere, ut in manu tua ecclesiastica negotia dirigantur et ecclesiarum status per providentiam tuam in melius et fidelium universitas autore Deo proficiat ad salutem. Datum Veronae Id. Aprilis.\n"
        },
        {
            "type": "edition",
            "value": "Samuel Loewenfeld, <i>Epistolae pontificum romanorum ineditae<\/i>, Leipzig : Veit et Comp., 1885, n. 385, p. 235"
        },
        {
            "type": "sources_manuscrites",
            "value": "Bibl. nat. Paris. Coll. Baluze 79. fol.\u00a0182. manu s.\u00a0<span class=\"smal-caps\">xvii<\/span>."
        },
        {
            "type": "notes_historiques",
            "value": "Bituricensi.",
            "children": {
                "numero_note": "1"
            }
        },
        {
            "type": "apparat_critique",
            "value": "si <i>c.<\/i>",
            "children": {
                "numero_note": "a"
            }
        },
        {
            "type": "apparat_critique",
            "value": "et <i>deest in cod.<\/i>",
            "children": {
                "numero_note": "B"
            }
        },
        {
            "type": "date",
            "value": "apr\u00e8s 1186\/04\/13 - avant 1187\/04\/13",
            "children": {
                "date_deb_annee": "1186",
                "date_deb_mois": "04",
                "date_deb_jour": "13",
                "date_deb_type": "apres",
                "date_fin_annee": "1187",
                "date_fin_mois": "04",
                "date_fin_jour": "13",
                "date_fin_type": "avant"
            },
            "range": {
                "date_apres": 11860413,
                "date_avant": 11870413
            }
        },
        {
            "type": "genre",
            "value": "Bulle"
        }
    ]
}