{
    "id": 20380,
    "name": "aposcripta-367",
    "type": "acte",
    "url": "http:\/\/telma-chartes.irht.cnrs.fr\/aposcripta\/notice\/20380",
    "project_slug": "aposcripta",
    "project_label": "APOSCRIPTA \u2013 Lettres des papes",
    "user": "lettrespontificalesadmin",
    "last_update": "2020-10-19 16:26:48",
    "licence": "Attribution - Pas d\u2019Utilisation Commerciale - Partage dans les M\u00eames Conditions 3.0 France (CC BY-NC-SA 3.0 FR) ",
    "licence_url": "https:\/\/creativecommons.org\/licenses\/by-nc-sa\/3.0\/fr\/",
    "elements": [
        {
            "type": "pape",
            "value": "Cl\u00e9ment VI (1342-1352)"
        },
        {
            "type": "date_lieu",
            "value": "Avignon"
        },
        {
            "type": "date_libre",
            "value": "12 ao\u00fbt 1346"
        },
        {
            "type": "analyse",
            "value": "L\u2019\u00e9v\u00eaque d\u2019Albi est charg\u00e9 de reprendre et de terminer l\u2019affaire pendante entre l\u2019\u00e9v\u00eaque de Cahors et ses commissaires, d\u2019une part, et Bernard Perrier de Cajarc, de l\u2019autre. Ce dernier a \u00e9t\u00e9, une premi\u00e8re fois, poursuivi et condamn\u00e9 pour usure ; mais la sentence de l\u2019\u00e9v\u00eaque a \u00e9t\u00e9 cass\u00e9e par l\u2019auditeur du palais apostolique. Une deuxi\u00e8me fois, Bernard Perrier fut accus\u00e9 de pratiques usuraires ; cette fois, il r\u00e9cusa ses juges, pr\u00e9venus contre lui, et fit appel au pape. Mais les juges n\u2019en poursuivirent pas moins leur proc\u00e9dure, l\u2019accus\u00e9 absent, le condamn\u00e8rent une deuxi\u00e8me fois comme usurier et confisqu\u00e8rent ses biens au profit de l\u2019\u00e9v\u00eaque. Le pape ayant nomm\u00e9 des commissaires pour conna\u00eetre de ce litige, l\u2019\u00e9v\u00eaque de Cahors et ses partisans ne trouv\u00e8rent rien de mieux que de faire intervenir l\u2019Inquisition. Mais Gasbert d\u2019Orgueil, lieutenant de l\u2019inquisiteur, et Barth\u00e9lemy Fons, commissaire de l\u2019\u00e9v\u00eaque, ne sont pas moins suspects \u00e0 l\u2019accus\u00e9, qui recourt une fois de plus au Saint-Si\u00e8ge et en obtient le pr\u00e9sent mandat."
        },
        {
            "type": "transcription",
            "value": "<?xml version=\"1.0\" encoding=\"UTF-8\"?>\nVen. fratri ..1 episcopo Albien., salutem, etc. \u2014 Sua nobis dilectus filius Bernardus Peyrerii de Caiarco2, laicus Caturcen. diocesis, petitione monstravit quod cum olim ven. frater noster Bertrandus3, episcopus Caturcen., contra eundem Bernardum, plus ex odii fomite quam zelo iusticie, per curiam seu commissarios suos fecisset inquiri et procedi mandasset super usuraria pravitate, et tandem contra eundem Bernardum fuisset super hoc diffinitiva sententia promulgata, pro parte dicti Bernardi ab eadem sententia fuit ad Sedem apostolicam appellatum, dictaque sententia per certum auditorem causarum Palatii apostolici in causa appellationis huiusmodi a Sede ipsa deputatum revocata fuit, dictusque episcopus eidem Bernardo in expensis legitimis condempnatus. Ac postmodum cum predictus Bernardus peteret sibi fieri ab eodem episcopo satisfactionem huiusmodi expensarum, prefatus episcopus necnon Pontius de Heremo et Stephanus Lacosta, clerici dicte diocesis, contra dictum Bernardum indebite odii rancore concepto consilium et tractatum fecerunt et deliberaverunt qualiter dampnificare possent eundem Bernardum indebite, ac dictus episcopus post consilium et tractatum huiusmodi minus veraciter pretendens quod dictus Bernardus usurarius existebat et contractus usurarios inhierat questionem usurarum huiusmodi refricando dictis Pontio et Stephano ordinaria auctoritate commisit ut super premissis contra eundem Bernardum ex officio inquirerent ; dictique Pontius et Stephanus eundem Bernardum super premissis coram se fecerunt pretextu dicte commissionis ad iudicium evocari ; ex parte vero dicti Bernardi fuit coram Pontio et Stephano predictis propositum quod dictus episcopus et ipsi ante dictam commissionem contra dictum Bernardum indebite odii rancore concepto consilium et tractatum fecerant et deliberaverant qualiter dictum Bernardum dampnificare indebite possent ; propter que idem Bernardus dictos Pontium et Stephanum merito suspectos habebat. Quare ab eisdem Pontio et Stephano fuit humiliter postulatum ut cum in hac parte proprium factum dicti episcopi coram quo alias causa huiusmodi suspicionis contra dictos Pontium et Stephanum probanda esset ageretur per eundem Bernardum ad eligendum cum eis arbitros coram quibus causa suspicionis huiusmodi probaretur se admitti, ut ea probata dictus episcopus negotium huiusmodi committeret alicui non suspecto. Et quia dicti Pontius et Stephanus eum super hoc audire contra iusticiam recusarunt, pro parte dicti Bernardi exinde sentiens indebite se gravari, fuit ad Sedem appellatum predictam ; ac dictus Pontius et Petrus Raymundi de Morengio, clericus dicte diocesis, auctoritate ut dicebat dicti episcopi sibi in ea parte commissa, huiusmodi appellatione contempta, contra dictum Bernardum pro prosecutione appellationis huiusmodi apud Sedem apostolicam constitutum et non vocatum uberius ad Inquisitionem super premissis ex officio descenderunt de facto, et in eiusdem Inquisitionis negotio de facto procedentes sententialiter et de facto pronunciaverunt dictum Bernardum emisse plures res minus quam valerent et ob hoc et alia ipsum fore usurarium ac bona ipsius Bernardi capi et ad manus eorum et dicti episcopi poni fecerunt. Propter que pro parte ipsius Bernardi, quam cito hec ad suam pervenerunt noticiam, iterato ad dictam Sedem extitit appellatum, idemque Bernardus super appellationibus huiusmodi apostolicos ad.4 prepositum monasterii sancti Salvii Albien. per prepositum soliti gubernari et .. officialem, ac quondam Petrum Gausentii, canonicum Albienses, sub certa forma litteras impetravit huiusmodi clausula litteris ipsis apposita, quod si non omnes hiis exequendis interesse possent, duo ipsorum nichilominus exequi procurarent ; dictosque episcopum, Pontium et Stephanum fecit in causa appellationis huiusmodi coram predictis officiali Albien. et Petro canonico, eodem preposito notorie in remotis agente, auctoritate dictarum litterarum ad iudicium evocari. Et deinde dicto Bernardo referente nobis quod postquam aliquandiu coram predictis officiali Albien. et Petro canonico in huiusmodi causa processum extiterit, prefatus Petrus canonicus viam fuerat universe carnis ingressus vicibus suis altero non commissis, propter quod causa huiusmodi remanserat et remanebat indecisa ; ac supplicante nobis ut cum predictus prepositus in eisdem remotis ageret, nec de ipsius vicino reditu speraretur, providere sibi super hoc de oportuno remedio dignaremur : nos dilectis filiis Raymundo de Prohinis et Anglico de Subertio, canonicis Albien., dictoque officiali Albien. nostris sub ea forma dedimus litteris in mandatis ut si esset ita, legitimo coram dictis officiali Albien. et Petro canonico in huiusmodi causa habito servato processu, in eadem causa procederent iuxta predictarum eisdem preposito, ac officiali Albien. et Petro canonico directarum continentiam litterarum ; dictusque Bernardus fecit eundum episcopum coram prefatis Anglico canonico et officiali Albien., ac Guillelmo de Popia, canonico Albien., cui quidem Guillelmo prefatus Raymundus de Prohinis commiserat super hoc non tamen totaliter vices suas, auctoritate ultimarum litterarum et commissionis huiusmodi ad iudicium evocari ; coram quibus Anglico et officiali Albien. ac Guillelmo de Popia inter dictas partes coram ipsis in iudicio comparentes ad nonnullos actus in causa huiusmodi dinoscitur fuisse processum ; quodque postmodum Gasbertus de Orgolio5, ordinis fratrum predicatorum, se comissarium seu locumtenentem .. inquisitoris heretice pravitatis in illis partibus, et Bartholomeus de Fontibus, clericus dicte diocesis, super hoc ab eodem episcopo specialem commissionem se habere asserentes, eundem Bernardum citari mandaverunt et fecerunt ut certa die coram eis compareret super articulis fidei responsurus aliqua clausula specialiter de suspicione fidei non adiecta ; propter quod pro parte dicti Bernardi habentis eosdem Gasbertum et Bartholomeum ea ratione suspectos quod Bartholomeus eiusdem episcopi subditus, et tam ipse quam Gasbertus predictus dicto episcopo nimis favorabiles existebant, ad dictam Sedem extitit appellatum. Quare prefatus Bernardus nobis humiliter supplicavit, ut sibi vexato, ymo quasi totaliter exinanito laboribus et expensis, ac parato coram competenti iudice super premissis omnibus de iusticia respondere, et ne super premissis coram diversis iudicibus litigare cogatur, providere sibi super hoc de oportuno remedio dignaremur. Nos itaque... fraternitati ...tue mandamus quatinus, vocatis qui fuerint evocandi, omnes predictarum appellationum et etiam ipsius principalem fidei causas audias et quod canonicum fuerit apellatione remota decernas, faciens quod decreveris per censuram ecclesiasticam firmiter observari. Testes autem [etc.]. Non obstantibus [etc.]. \u2014 Datum Avinioni, ii idus augusti, anno quinto.\n"
        },
        {
            "type": "edition",
            "value": "Jean-Marie Vidal, <i>Bullaire de l\u2019Inquisition fran\u00e7aise au XIV<sup>e<\/sup> si\u00e8cle et jusqu'\u00e0 la fin du Grand Schisme<\/i>, Paris : Letouzey et An\u00e9, 1913, n. 203, p. 310-313"
        },
        {
            "type": "sources_manuscrites",
            "value": "<i>Reg. Vat.<\/i>, t. <span class=\"smal-caps\">clxxiv<\/span>, fol. 414, n. 1313."
        },
        {
            "type": "notes_historiques",
            "value": "Pictavin de Montesquieu ; voir n. 178, note 1.",
            "children": {
                "numero_note": "1"
            }
        },
        {
            "type": "notes_historiques",
            "value": "Cajarc (Lot), chef-lieu de cant., arrond. de Figeac. Sur la famille Perrier de Cajarc, voir Albe, <i>Autour de Jean XXII<\/i>, dans <i>Annales de Saint-Louis-des-Fran\u00e7ais<\/i>, juillet 1902, p. 388-389.",
            "children": {
                "numero_note": "2"
            }
        },
        {
            "type": "notes_historiques",
            "value": "Bertrand de Cardaillac, \u00e9v\u00eaque de Rieux (27 f\u00e9vrier 1321), transf\u00e9r\u00e9 \u00e0 Cahors, le 20 juillet 1324 ; mort vers 1366. <i>Gall. christ.<\/i>, t. <span class=\"smal-caps\">i<\/span>, col. 141 ; t. <span class=\"smal-caps\">xiii<\/span>, col. 186-187 ; Eubel, <i>Hier.<\/i>, t. <span class=\"smal-caps\">i<\/span>, p. 184, 443 ; Albe, <i>op. cit.<\/i>, avril 1903 ; tir. \u00e0 part, p. 201-205.",
            "children": {
                "numero_note": "3"
            }
        },
        {
            "type": "notes_historiques",
            "value": "Ratier de La Penne, pr\u00e9v\u00f4t de Saint-Salvi d\u00e8s 1334. <i>Gall. christ.<\/i>, t. <span class=\"smal-caps\">i<\/span>, col. 50.",
            "children": {
                "numero_note": "4"
            }
        },
        {
            "type": "notes_historiques",
            "value": "Gasbert d\u2019Orgueil, originaire de la localit\u00e9 de ce nom, paroisse de Saint-Avit de La Capelle-Cabanac, com. de Mauroux (Lot), pronon\u00e7a ses v\u0153ux chez les dominicains de Cahors, devint lecteur du couvent de Toulouse et fut fait ma\u00eetre en th\u00e9ologie \u00e0 Avignon, par ordre du pape. A cette date (1346-1347), il \u00e9tait commissaire de l\u2019Inquisition dans le dioc\u00e8se de Cahors. En 1349, il fut charg\u00e9 par le pape d\u2019une mission aupr\u00e8s de Jean Cantacuz\u00e8ne, empereur d\u2019Orient. Pendant son absence, le chapitre de l\u2019ordre, tenu \u00e0 Barcelone, d\u00e9signa fr\u00e8re Pierre <i>de Maricalmo<\/i>, pour remplir \u00e0 sa place les fonctions de lecteur du couvent de Toulouse. Reichert, <i>Acta capit. gen.<\/i>, t. <span class=\"smal-caps\">ii<\/span>, p. 330. Avant son d\u00e9part pour l\u2019Orient, Cl\u00e9ment VI l\u2019avait promu \u00e0 l\u2019\u00e9v\u00each\u00e9 de Ceneda en Dalmatie (13 novembre 1349). L\u2019empereur d\u2019Orient l\u2019eut en grande estime. Il traita aussi avec Charles IV, roi des Romains, comme l\u00e9gat du pape. Il administra pendant vingt-cinq ans l\u2019\u00e9glise de Ceneda et mourut en 1374. Il avait compos\u00e9 une <i>Relation de sa l\u00e9gation aupr\u00e8s de Jean Cantacuz\u00e8ne<\/i>, aujourd\u2019hui perdue. Qu\u00e9tif et \u00c9chard, <i>Script.<\/i>, t. <span class=\"smal-caps\">i<\/span>, col. 674 ; Ughelli, <i>Italia sacra<\/i>, t. <span class=\"smal-caps\">v<\/span>, col. 211 ; Wadding, <i>Annal. min.<\/i>, t. <span class=\"smal-caps\">iii<\/span>, ad. ann. 1349, n. 1 ; Raynaldi, ad. ann. 1350, n. 28 ; 1374, n. 1 ; Denifle, <i>Archiv<\/i>, t. <span class=\"smal-caps\">ii<\/span>, p. 222, n. 112 ; Douais, <i>Les fr\u00e8res pr\u00eacheurs en Gascogne<\/i>, p. 404 ; Eubel, <i>Hier.<\/i>, t. <span class=\"smal-caps\">i<\/span>, p. 187 ; Albe, <i>Pr\u00e9lats originaires du Quercy<\/i>, dans <i>Annales de Saint-Louis-des-Fran\u00e7ais<\/i>, 1904, p. 157-159 ; tir. \u00e0 part, p. 20-23.",
            "children": {
                "numero_note": "5"
            }
        },
        {
            "type": "date",
            "value": "1346\/08\/12",
            "children": {
                "date_deb_annee": "1346",
                "date_deb_mois": "08",
                "date_deb_jour": "12"
            },
            "range": {
                "date_apres": 13460812,
                "date_avant": 13460812
            }
        },
        {
            "type": "genre",
            "value": "Mandement (littere cum filo canapis)"
        },
        {
            "type": "destinataire",
            "value": "L'\u00e9v\u00eaque d'Albi Pictavin de Montesquieu"
        }
    ]
}