{
    "id": 146888,
    "name": "aposcripta-6517",
    "type": "acte",
    "url": "http:\/\/telma-chartes.irht.cnrs.fr\/aposcripta\/notice\/146888",
    "project_slug": "aposcripta",
    "project_label": "APOSCRIPTA \u2013 Lettres des papes",
    "user": "tgirard",
    "last_update": "2020-10-19 16:39:24",
    "licence": "Attribution - Pas d\u2019Utilisation Commerciale - Partage dans les M\u00eames Conditions 3.0 France (CC BY-NC-SA 3.0 FR) ",
    "licence_url": "https:\/\/creativecommons.org\/licenses\/by-nc-sa\/3.0\/fr\/",
    "elements": [
        {
            "type": "pape",
            "value": "Lucius III (1181-1185)"
        },
        {
            "type": "destinataire",
            "value": "L'archipr\u00eatre, Rainier, et le chapitre cath\u00e9dral de Bologne"
        },
        {
            "type": "date_libre",
            "value": "VI kalendas septembris"
        },
        {
            "type": "date",
            "value": "1184 ou 1185\/08\/27",
            "children": {
                "date_deb_annee": "1184 ou 1185",
                "date_deb_mois": "08",
                "date_deb_jour": "27"
            },
            "range": {
                "date_apres": 1184,
                "date_avant": 1184
            }
        },
        {
            "type": "date_lieu",
            "value": "V\u00e9rone"
        },
        {
            "type": "genre",
            "value": "Titre, g\u00e9n\u00e9ral (littere gratiose, cum filo serico)"
        },
        {
            "type": "analyse",
            "value": "Lucius\u00a0III best\u00e4tigt dem Domkapitel von Bologna die Kirche von \u00ab\u00a0Buide\u00a0\u00bb mit Zubeh\u00f6r."
        },
        {
            "type": "edition",
            "value": "Ici reprise (partielle) de Julius von Pflugk-Harttung, <i>Acta pontificum Romanorum inedita.<\/i> III. <i>Urkunden der P\u00e4pste vom Jahre 590 bis zum Jahre 1197<\/i>, III, Stuttgart : W. Kohlhammer, 1886, n. 349, p. 315."
        },
        {
            "type": "transcription",
            "value": "<?xml version=\"1.0\" encoding=\"UTF-8\"?>\nLucius episcopus, servus servorum Dei, dilectis filiis, Raynerio archipresbitero et canonicis Bononiensis ecclesie, salutem et apostolicam benedictionem. Si quando postulatur a nobis quod iuri conveniat et consonet honestati, petentium desideriis nos convenit clementer annuere et effectum iusta postulantibus indulgere. Eapropter, dilecti in domino filii, iustis vestris postulationibus grato concurrentes assensu, institutiones omnium ecclesiarum plebis Buide1, sicut a quadraginta retro annis predecessores vestri et vos ipsi eas rationabiliter habuisse noscimini nec non etiam antiquas et rationabiles consuetudines, quas habetis in oblationibus, cum acceditis ad corpora mortuorum in civitate vel extra et in ceteris aliis atque in proventibus ipsarum ecclesiarum et in aliis ad ecclesiam vestram spectantibus, auctoritate vobis apostolica confirmamus. Possessiones quoque Bononiensis ecclesie, que ad eandem iusto titulo pervenerunt vel pervenerint, sicut Lambertus, quondam vester episcopus2, privilegio suo vobis indulsit, vobis et eidem ecclesie duximus confirmandas. Nulli ergo omnino hominum liceat hanc paginam nostre confirmationis infringere vel ei ausu temerario contraire. Si quis autem hoc attemptare presumpserit, indignationem omnipotentis Dei et beatorum Petri et Pauli, apostolorum eius, se noverit incursurum. Datum Verone, VI kalendas septembris3.\n"
        },
        {
            "type": "regeste",
            "value": "Philippe Jaff\u00e9, Wilhelm Wattenbach, Samuel Loewenfeld, Ferdinand Kaltenbrunner, Paul Ewald, <i>Regesta pontificum Romanorum ab condita ecclesia ad annum post Christum natum MCXCVIII<\/i>, 2<sup>e<\/sup> \u00e9d. Leipzig : Veit, 1885-1888, 2 vol., n. 15238 <a target=\"_blank\" href= \"https:\/\/archive.org\/details\/regestapontificu02cath\/page\/476\">[en ligne]<\/a>."
        },
        {
            "type": "sources_manuscrites",
            "value": "E. ITALIE, Bologne, Archivio capitolare, cote non mentionn\u00e9e.",
            "children": {
                "type_source": "Original"
            }
        },
        {
            "type": "remarques",
            "value": "Vergl. die Urkunde vom 14\u00a0Juli 1161."
        },
        {
            "type": "bibliographie_generale",
            "value": "Ferdinand Kaltenbrunner, \u00ab\u00a0Pabsturkunden in Italien\u00a0\u00bb, dans : <i>Sitzungsberichte. Akademie der Wissenschaften in Wien, Philosophisch-Historische Klasse<\/i>, Vienne : C. Gerold, 1879, 94(10), p. 627-705, \u00e0 la p. 681."
        },
        {
            "type": "sources_manuscrites",
            "value": "F. ITALIE, Bologne, Archivio di stato, Cart. del capitolo di San Pietro, p. 27.",
            "children": {
                "type_source": "Cartulaire"
            }
        },
        {
            "type": "notes_historiques",
            "value": "Kaltenbrunner, <i>Pabsturkunden<\/i>, p.\u00a057 hat\u00a0: ecclesiam Buitensem. Etwa Buio, Fraz. di Castelnuovo nei monti nell\u2019 Emilia, prov. di Reggio\u00a0; ein Boida liegt in Piemont, prov. Alessandria.",
            "children": {
                "numero_note": "1"
            }
        },
        {
            "type": "notes_historiques",
            "value": "Lambert, Bischof von Bologna, c.\u00a01062\u2013c.\u00a01080.",
            "children": {
                "numero_note": "2"
            }
        },
        {
            "type": "notes_historiques",
            "value": "Julius von Pflugk-Harttung, qui n'a pu consulter l'original localis\u00e9 par Ferdinand Kaltenbrunner, signale que : \u00ab\u00a0Kaltenbrunner hat 22\u00a0August, also XI Kal. Sept. Da Kaltenbrunner \u00f6fters Fehler in seinen Zahlenangaben macht, kann ich diese leider nicht ohne Nachpr\u00fcfung aufnehmen.\u00a0\u00bb[APO]",
            "children": {
                "numero_note": "3"
            }
        }
    ]
}