{
    "id": 24853,
    "name": "aposcripta-1988",
    "type": "acte",
    "url": "http:\/\/telma-chartes.irht.cnrs.fr\/aposcripta\/notice\/24853",
    "project_slug": "aposcripta",
    "project_label": "APOSCRIPTA \u2013 Lettres des papes",
    "user": "l_valliere",
    "last_update": "2020-10-19 16:27:35",
    "licence": "Attribution - Pas d\u2019Utilisation Commerciale - Partage dans les M\u00eames Conditions 3.0 France (CC BY-NC-SA 3.0 FR) ",
    "licence_url": "https:\/\/creativecommons.org\/licenses\/by-nc-sa\/3.0\/fr\/",
    "elements": [
        {
            "type": "pape",
            "value": "Cl\u00e9ment IV (1265-1268)"
        },
        {
            "type": "destinataire",
            "value": "L'archev\u00eaque de Tyr"
        },
        {
            "type": "date_libre",
            "value": "VIII idus decembris, anno primo"
        },
        {
            "type": "date",
            "value": " 1265\/12\/06",
            "children": {
                "date_deb_jour": "06",
                "date_deb_mois": "12",
                "date_deb_annee": "1265"
            },
            "range": {
                "date_apres": 12651206,
                "date_avant": 12651206
            }
        },
        {
            "type": "date_lieu",
            "value": "P\u00e9rouse"
        },
        {
            "type": "genre",
            "value": "Lettre"
        },
        {
            "type": "analyse",
            "value": "Bulla Clementis papae IV ad archiepiscopum Tyrensem de pecunia ad tuendam civitatem Acconensem quamcitius mittenda [Berger]."
        },
        {
            "type": "sources_manuscrites",
            "value": "E<sup>1<\/sup>. FRANCE, Paris, Archives nationales, J 452 A\/23. Original scell\u00e9 (bulle de Cl\u00e9ment IV, sur cordelettes de chanvre).",
            "children": {
                "source_edition": ""
            }
        },
        {
            "type": "sources_manuscrites",
            "value": "E<sup>2<\/sup>. FRANCE, Paris, Archives nationales, J 452\/23 <i>bis<\/i>. Original scell\u00e9 (bulle de Cl\u00e9ment IV, sur cordelettes de chanvre. La pi\u00e8ce porte au dos, en haut, la mention : <i>FRATER GUALHARDUS DE CU<\/i>[<i>RIA<\/i>])."
        },
        {
            "type": "edition",
            "value": "Ici d'apr\u00e8s \u00c9lie Berger, <i>Layettes du Tr\u00e9sor des chartes<\/i>, IV, Paris : Henri Plon, 1902 <a target=\"_blank\" href=\"http:\/\/digi.ub.uni-heidelberg.de\/diglit\/teulet1902bd4\/0249\"> [en ligne]<\/a>, n. 5124-5125, p. 163-165 <a target=\"_blank\"href=\"https:\/\/francearchives.fr\/fr\/facomponent\/0cb0d7a38c3dae135d054fb3528a261febea3c19\">[num\u00e9ris\u00e9e sur le site des Archives de France]<\/a>, d'apr\u00e8s E<sup>1<\/sup> et E<sup>2<\/sup>."
        },
        {
            "type": "regeste",
            "value": "Bernard Barbiche, <i>Les actes pontificaux originaux des Archives Nationales de Paris<\/i>, Cit\u00e9 du Vatican, 1975-1982, II, n. 1365, p. 126, d\u2019apr\u00e8s E<sup>1<\/sup> et E<sup>2<\/sup>."
        },
        {
            "type": "transcription",
            "value": "<?xml version=\"1.0\" encoding=\"UTF-8\"?>\nClemens episcopus, servus servorum Dei, venerabili fratri .. archiepiscopo Tyrensi salutem et apostolicam benedictionem. Cum Terra sancta auxilio plurimum indigeat festinato, fraternitati tue per apostolica scripta mandamus quatinus quicquid de centesima ejusdem Terre deputata succursui collegisti in ipsius subsidium sine more dispendio cum consilio et assensu carissimi in Christo filii nostri .. illustris regis Francie mittere non postponas. Rumores enim nuper de illis accepimus partibus quod soldanus Babilonie civitatem Aconensem in manu proponit obsidere potenti. Datum Perusii, VIII idus decembris, pontificatus nostri anno primo.\n"
        },
        {
            "type": "remarques",
            "value": "Inconnue de Potthast - Absente des registres"
        },
        {
            "type": "genre",
            "value": "Mandement (littere cum filo canapis)"
        },
        {
            "type": "edition_autre",
            "value": "Richard Sternfeld, <i>Ludwigs des heiligen Kreuzzug nach Tunis, 1270, und die Politik Karls I. von Sicilien<\/i>, Berlin, 1896, n. 4, p. 320 <a target=\"_blank\" href=\"https:\/\/archive.org\/stream\/bub_gb_kQugAAAAMAAJ#page\/n349\/mode\/2up\"> [en ligne]<\/a>, d'apr\u00e8s E<sup>1<\/sup>."
        },
        {
            "type": "edition_autre",
            "value": "\u00c9douard Jordan, <i>Les registres de Cl\u00e9ment IV (1265-1268)<\/i>, Paris, 1893-1945, n. 1901, d\u2019apr\u00e8s E<sup>1<\/sup> et E<sup>2<\/sup>."
        }
    ]
}