{
    "id": 25208,
    "name": "aposcripta-2305",
    "type": "acte",
    "url": "http:\/\/telma-chartes.irht.cnrs.fr\/aposcripta\/notice\/25208",
    "project_slug": "aposcripta",
    "project_label": "APOSCRIPTA \u2013 Lettres des papes",
    "user": "lettrespontificalesadmin",
    "last_update": "2020-10-19 16:27:42",
    "licence": "Attribution - Pas d\u2019Utilisation Commerciale - Partage dans les M\u00eames Conditions 3.0 France (CC BY-NC-SA 3.0 FR) ",
    "licence_url": "https:\/\/creativecommons.org\/licenses\/by-nc-sa\/3.0\/fr\/",
    "elements": [
        {
            "type": "pape",
            "value": "Urbain II (1088-1099)"
        },
        {
            "type": "destinataire",
            "value": "Cluny (Saint-Pierre et Saint-Paul) ( abbaye de)",
            "children": {
                "numero_note": "0"
            }
        },
        {
            "type": "date_lieu",
            "value": "Vallem Flavianam in monasterio Sancti Egidii"
        },
        {
            "type": "date_libre",
            "value": "1096, 9-15 juillet"
        },
        {
            "type": "date",
            "value": "apr\u00e8s 1096\/07\/09 - avant 1096\/07\/15",
            "children": {
                "date_deb_annee": "1096",
                "date_deb_mois": "07",
                "date_deb_jour": "09",
                "date_deb_type": "apr\u00e8s",
                "date_fin_annee": "1096",
                "date_fin_mois": "07",
                "date_fin_jour": "15",
                "date_fin_type": "avant"
            },
            "range": {
                "date_apres": 10960709,
                "date_avant": 10960715
            }
        },
        {
            "type": "analyse",
            "value": "Le pape Urbain II soumet l'abbaye de Figeac \u00e0 celle de Cluny.<br\/>BULLA URBANI PAP\u00c6 II, QUA FIGIACENSE MONASTERIUM COENOBIO CLUNIACENSI SUBJICIT."
        },
        {
            "type": "transcription",
            "value": "<?xml version=\"1.0\" encoding=\"UTF-8\"?>\nUrbanus episcopus, servus servorum Dei. Cum pro negotiis ecclesiasticis in partes Galli\u00e6 venissemus, apud Arverniam largiente Domino plenariam synodum convocavimus. Illic a Conchensis monasterii fratribus reverend\u00e6 memori\u00e6 Gregorii VII pap\u00e6 littere presentate sunt, precipientis Figiacense cenobium Conchensi cenobio uniendum, et quia per idem tempus utrique loco abbates proprii presidebant, alterutro defuncto, eum qui superstes essed, utrique monasterio preferendum. Conchensis itaque cenobii abbas, quia contra litterarum ipsarum tenorem substitutus fuerat, in eodem concilio depositus, et Figiacensis, qui supervixerat, utrique loco prelatus est. Cepit ergo inter utrumque monasterium discordia tanta versari, ut et bona plurima distraherentur et animarum salus detrimentis maximis pessumdaretur. Preterea cum ad aures Cluniacensis abbatis hujusmodi constitucio pervenisset, cepit supradictas Gregorii pape litteras tamquam surrepticias calumniari et definitionem ejusdem negotii se presente aliter perpetratam testari, quandoquidem ab eodem pontifice Figiacensis locus Cluniacensi monasterio per privilegium fuerit confirmatus. Igitur cum, largiente Domino, tercia per instanciam nostra apud Nemausum synodus convenisset, cepit ejusdem negocii questio graviter agitari. Post longum vero super hac re episcoporum abbatumque tractatum, placuit cum pro apostolici privilegii conservatione, tum pro communi monasteriorum salute, ut utrique loco sicut antea fuerat abbas cardinalis restitueretur, et Figiacenses monachi sub Cluniacensis abbatis cura deinceps et provisione persisterent. Et nos igitur commune concilii decretum apostolic\u00e6 auctoritatis pondere confirmantes, definitionis h[u]jus ordinem perpetuo permansurum nostri nominis litteris annotari, et sigilli nostri precepimus inpressione firmari. Si quis autem hujusce definicionis tenorem temerario ausu fuerit conatus infringere, sciat se apostolice indignationis ultionem incurrere et detrimentum sui ordinis vel officii invenire. Actum in concilio apud Nemausum, in ecclesia Sanct\u00e6 Mari\u00e6, VII idus julii, anno Dominic\u00e6 incarnationis M\u00ba XC. VII, indictione IIII, anno vero pontificatus domni Urbani II pape VIIII. Dat. apud Vallem Flavianam in monasterio Sancti Egidii, idibus julii.\n"
        },
        {
            "type": "edition",
            "value": "Ici tir\u00e9e du projet <i>CBMA - Corpus Burgundiae Medii Aevi<\/i>, document 5140. Site du projet Corpus de la Bourgogne du Moyen \u00c2ge, [En ligne] <a href=\"http:\/\/www.cbma-project.eu\" target=\"_blank\">http:\/\/www.cbma-project.eu<\/a>  "
        },
        {
            "type": "sources_manuscrites",
            "value": "\u00e0 renseigner."
        },
        {
            "type": "remarques",
            "value": "Voir aussi la charte n\u00b0 3469 (tome 4) : CHARTA QUA BEGO, FILIUS HUGONIS DE CALOMONTE, MONASTERIO CLUNIACENSI ABBATIAM FIGIACENSEM SUBMITTIT [1074, 18 octobre]. Cette derni\u00e8re est pr\u00e9sente avec des variantes dans le ms. BnF coll. P\u00e9rigord, tome 77, f\u00b0 56 r :\r\n\r\n\"Bego filius Hugonis de Calomonte abbatiam Fiacensem, divina clementia consulens, mortalibus naturalem et generalem legem mentibus indidit humanis, ut quisquis proprium detrimentum agnoscens, perquirat sibi utile et proficuum. Itaque monachi Figiacenses praeter communem legem, privatam etiam de suo provectu et profectu habentes, cum jam per multum annorum curricula sui neglectores extitissent, tandem largifica Domini inspirati bonitate, multis laboribus desudaverunt, quos pristinos vitae erratus in melius corrigendo emendare potuissent. Ad postremum sub regula patris Benedicti degere et vivere parati, elegerunt in hoc domnum Hugonem abbatem Cluniacensem, pari voto et communi, quatinus sicut proprio pastori illi obedirent, et ipse, ut peculiaribus ovibus deinceps agendo provideret. Qui imprimis istud omnimodis pertinescens, et nullatenus adquiescens, postmodum suasionibus et impinctionibus, ut ita loquamur, domni Hugonis tunc temporis suae congregationis professi monachi, cujus dominio, antequam monachicum caperet habitum, isdem locus videlicet Figiacus suberat, victus, habens etiam inde auctoritatem et permissionem domni Geraldi cardinalis Romani et episcopi Hosticensis, qui illis diebus in locum supervenit, pariterque laudationem et assensum Begonis domni Hugonis filii, tam loci quam patris procuratoris et Domini, necnon domni Geraldi Caturcensis episcopi, sed et comitis Rotenorum Raimundi, et Wilelmi fratris ejus comitis Tolosani, quibusdam de fratribus suis illuc directis, locum secundum regulam Sancti Benedicti innormandum suscepit. Hoc intervallo venerabilis memoriae Hugo Begonis pater, viam universae carnis ingreditur, resque semiperacta relinquitur. At Bego ardens animo ad effectum perducere quod pater suus morte praeventus, non potuit, legatione sua, optimatum suorum, domno abbati Cluniacensi directa, ad visitandum et ordinandum locum eum reinvitat. Quid multis ? Caepto consilio, dimissis maximis negotiis, hoc iter arripuit. Ac tandem post nimiam sui fatigationem ad jamdictum locum pervenit ; ubi domnus Bego ante illum veniens, quae bene mandando erat, promiserat meliori executione adimplere procuravit. Sane primo seorsum tota causa ventilata et inquisita, omnes malas consuetudines et torturas quas illi loco hactenus fecerat, suorum nobilium usus consilio, vuerpivit ac dimisit, et postea in generali capitulo, praesentibus domno Hugone et domno Hunaldo abbatibus, cum nonnullis fratribus Cluniacensibus et Figiacensibus, tunc ut primum domnum Hugonem abbatem et pastorem suum, una et eadem sententia eligentibus et proclamantibus, palam se a loco suam progeniem alienavit, et in perpetuum extorrem reddidit, ac postmodum Domino Deo Patri, Filii, Spirituique Sancto, in cujus honore est attitulatus, eundem locum pro absolutione patris, matris suorum, suaeque progeniei peccatorum, concessit, et domno Hugoni abbati, suisque successoribus et loco Cluniacensi, ad ordinandum, et servitio Dei disponendum submisit, ex tunc et in antea per omnia secula seculorum ; ubi ob monimentum tantae rei, et ipse et sui partem et societatem omnium beneficiorum privatorum et publicorum totius Cluniacensis congregationis acceperunt, quique in astipulatione et affirmatione nominatim subnotati sunt. Approbavit quoque et laudavit domnus Bego, atque sui oblimates fratrum Cluniacensium concessionem, ac suam de praedicto loco factam vuerpitionem et relaxationem muniri ac roborari regalibus praeceptis et apostoliciis privilegiis, ut nullus deinceps, absque damno et periculo cujusque ordinis, honoris, vel potestatis promiscui sexus, aut aetatis audeat vel praesumat tam notabilem et solemnem liberalitatem quocumque modo infringere vel calumniari. Quod si quis heres aut proheres domni Begonis, vel qualiscumque immissa persona, contempto Deo et sanctis ejus, contra hoc aliquid contradictionis molitus fuerit, nisi resipiscens poenituerit et emendaverit, sors ejus et pars sit cum Juda traditore Domini, cumque Dathan et Abiron, quos vivos terra absorbuit, et cum his qui dixerunt Domino : \u00ab Recede a nobis \u00bb. Factum est autem hoc memoriale vel carta descriptionis anno ab Incarnatione Domini millesimo LXXIIII, indictione XII, praesidente sanctae et apostolicae sedi domno Gregorio VII papa, secundo anno papatus ejus, Francorum regnante rege Philippo. Et autem hoc scriptum Fiaci publice factum, sabbato in die Beati Lucae evangelistae.\"\r\n\r\n\r\n\r\nActum in concilio apud Nemausum, in ecclesia Sanct\u00e6 Mari\u00e6 : Fait au concile de N\u00eemes, en l'\u00e9glise Sainte-Marie \/ Notre-Dame. \r\n\r\nDat. apud Vallem Flavianam in monasterio Sancti Egidi : Donn\u00e9 en l'abbaye de Saint-Gilles (du Gard). \r\n\r\n <b>[Mentions dorsales et autres]:<\/b>(Au dos:) Exemplar privilegii Urbani pap\u00e6, de Fiacensi abbatia ad Cluniacum.(Bibl. nat. or.\u00a0164\u00a0A.)"
        },
        {
            "type": "edition_autre",
            "value": "Ici reprise de Auguste Bernard, Alexandre Bruel, <i>Recueil des chartes de l'abbaye de Cluny<\/i>. V. <i>1091-1210<\/i>, Paris\u00a0: Imprimerie nationale, 1894 <a href=\"http:\/\/gallica.bnf.fr\/ark:\/12148\/bpt6k28911f?rk=64378;0\" target=\"_blank\">[en ligne]<\/a>, p. 57-58, n\u00b0 3710",
            "children": {
                "numero_note": "0"
            }
        },
        {
            "type": "genre",
            "value": "Bulle"
        }
    ]
}