{
    "id": 20864,
    "name": "aposcripta-851",
    "type": "acte",
    "url": "http:\/\/telma-chartes.irht.cnrs.fr\/aposcripta\/notice\/20864",
    "project_slug": "aposcripta",
    "project_label": "APOSCRIPTA \u2013 Lettres des papes",
    "user": "lettrespontificalesadmin",
    "last_update": "2020-10-19 16:26:54",
    "licence": "Attribution - Pas d\u2019Utilisation Commerciale - Partage dans les M\u00eames Conditions 3.0 France (CC BY-NC-SA 3.0 FR) ",
    "licence_url": "https:\/\/creativecommons.org\/licenses\/by-nc-sa\/3.0\/fr\/",
    "elements": [
        {
            "type": "pape",
            "value": "Lucius III (1181-1185)"
        },
        {
            "type": "date_lieu",
            "value": "Velletri"
        },
        {
            "type": "date_libre",
            "value": "VII idus novembris"
        },
        {
            "type": "analyse",
            "value": "Lucius\u00a0III Compostellano archiepiscopo ac Legionensi et Burgensi episcopis mandat, cogant homines quosdam de Maiorca, ut fratribus Bolbonensibus de illatis iniuriis satisfaciant."
        },
        {
            "type": "transcription",
            "value": "<?xml version=\"1.0\" encoding=\"UTF-8\"?>\nLucius episcopus servus servorum Dei venerabilibus fratribus P(etro) Compostellanensi archiepiscopo, Legionensi1, Burgensi2 episcopis salutem et apostolicam benedictionem. Quotiens peccatis exigentibus iniquorum hominum insolentia in tantum praesumit, quod loca divino cultui deputata destruere vel incendio concremare minime pertimescit, sacerdotalis auctoritas debet adesse et in eos est vigor canonum exercendus, ut damnanda temeritas reprimatur et ecclesiarum status valeat conservari. Ad audientiam siquidem apostolatus nostri dilectus filius noster abbas Bolboniae ordinis Cisterciensis lacrimabilem et miserandam querimoniam destinavit, quod homines de Maiorca in regno et potestate carissimi in Christo filii nostri illustris regis Hispaniae3consistentes abbatiam S. Laurentii, in qua praedicti ordinis quam plures personae, monachi scilicet et conventus, si suum Domino devote studebant iugiter impendere famulatum, instinctu diabolico pro suae voluntatis arbitrio destruere praesumpserunt. Tempore namque, quo sacratissimae passionis domini nostri Ihesu Christi memoria celebratur, praedicti malefactores exeuntes de villa superius memorata unam grangiam iam dicti monasterii combusserunt, pessimae malitiae, quam conceperanta, initium dampnabile tribuentes\u00a0; cum vero praedicti monasterii monachi audissent grangiam praefatam esse combustam, in omni humilitate orationibus insistentes, sacris etiam vestibus induti obviam iam dictis malefactoribus processerunt, qui ad evertendam funditus abbatiam crudeliter festinabant. Verum iam dicti malefactores nec dominumb nec hominem reverentes cum ad monasterium pervenissent, tamquam furibundi ecclesiam intraverunt et usque adeo se inhumaniter habuerunt, quod certum est, eos atrocitatem infidelium excesisse. Quoniamc igitur laicorum temeritas, quae in bona ecclesiarum tam pertinaciter debachatur, censura est ecclesiastica punienda, fraternitati vestrae per apostolica scripta praecipiendo mandamus et districte praecipimus, quatinus, si res ita se habet, omni gratia et timore postposito praefatos malefactores de tam gravibus et iniquis excessibus Deo primum et abbati et monachis supradicti monasterii satisfactionem congruam exhibere et ded cetero ab ipsius loci molestatione desistere diligentius moneatis et studiosius inducatis, alioquin eos canonica severitate percellere minime desistatis, nec sententiam nisi, congrue satisfecerint, relaxetis. Datum Velletrie septimo Idus Novembris.\n"
        },
        {
            "type": "edition",
            "value": "Samuel Loewenfeld, <i>Epistolae pontificum romanorum ineditae<\/i>, Leipzig : Veit et Comp., 1885, n. 352, p. 212"
        },
        {
            "type": "sources_manuscrites",
            "value": "Bibl. nat. Paris. Coll. Doat 83. fol.\u00a0135. cop. a.\u00a01669.",
            "children": {
                "type_source": "Copie moderne"
            }
        },
        {
            "type": "notes_historiques",
            "value": "Manrico.",
            "children": {
                "numero_note": "1"
            }
        },
        {
            "type": "notes_historiques",
            "value": "Martino.",
            "children": {
                "numero_note": "2"
            }
        },
        {
            "type": "notes_historiques",
            "value": "Alphonsi\u00a0VIII.",
            "children": {
                "numero_note": "3"
            }
        },
        {
            "type": "apparat_critique",
            "value": "<i>Sic scribit Bresslau pro<\/i> combustam pessimae malitiae, quo conceperat, <i>cod.<\/i>",
            "children": {
                "numero_note": "a"
            }
        },
        {
            "type": "apparat_critique",
            "value": "<i>cod.<\/i> domum <i>cum correctura<\/i>.",
            "children": {
                "numero_note": "b"
            }
        },
        {
            "type": "apparat_critique",
            "value": "Quam <i>c.<\/i>",
            "children": {
                "numero_note": "c"
            }
        },
        {
            "type": "apparat_critique",
            "value": "de <i>deest in cod.<\/i>",
            "children": {
                "numero_note": "d"
            }
        },
        {
            "type": "apparat_critique",
            "value": "Velleti <i>c.<\/i>",
            "children": {
                "numero_note": "e"
            }
        },
        {
            "type": "date",
            "value": "1182\/11\/07",
            "children": {
                "date_deb_annee": "1182",
                "date_deb_mois": "11",
                "date_deb_jour": "07"
            },
            "range": {
                "date_apres": 11821107,
                "date_avant": 11821107
            }
        },
        {
            "type": "genre",
            "value": "Mandement (littere cum filo canapis)"
        },
        {
            "type": "destinataire",
            "value": "L'archev\u00eaque de Compostelle Pedro, les \u00e9v\u00eaques de L\u00e9on et de Burgos Manrico et Marti"
        }
    ]
}