{
    "id": 24517,
    "name": "aposcripta-1668",
    "type": "acte",
    "url": "http:\/\/telma-chartes.irht.cnrs.fr\/aposcripta\/notice\/24517",
    "project_slug": "aposcripta",
    "project_label": "APOSCRIPTA \u2013 Lettres des papes",
    "user": "lettrespontificalesadmin",
    "last_update": "2020-10-19 16:27:31",
    "licence": "Attribution - Pas d\u2019Utilisation Commerciale - Partage dans les M\u00eames Conditions 3.0 France (CC BY-NC-SA 3.0 FR) ",
    "licence_url": "https:\/\/creativecommons.org\/licenses\/by-nc-sa\/3.0\/fr\/",
    "elements": [
        {
            "type": "pape",
            "value": "Cl\u00e9ment IV (1265-1268)"
        },
        {
            "type": "date_lieu",
            "value": "P\u00e9rouse"
        },
        {
            "type": "date_libre",
            "value": "XIII kalendas maii, anno secundo"
        },
        {
            "type": "date",
            "value": " 1266\/04\/19",
            "children": {
                "date_deb_annee": "1266",
                "date_deb_mois": "04",
                "date_deb_jour": "19"
            },
            "range": {
                "date_apres": 12660419,
                "date_avant": 12660419
            }
        },
        {
            "type": "analyse",
            "value": "Cl\u00e9ment\u00a0IV \u00e9crit une seconde fois \u00e0 Ermengaud de Melgueil [Rouquette, Villemagne].\nClemens IV. an den Ritter Ermenganus de Melgorio : antwortet ihm auf seine Frage, ob er in den Dominikaner- oder den Franziskanerorden eintreten solle, da\u00df er selbst keine Pr\u00e4ferenz hege [Thumser]."
        },
        {
            "type": "transcription",
            "value": "<?xml version=\"1.0\" encoding=\"UTF-8\"?>\nDilecto filio Ermengano de Melgorio militi. Queris a nobis consilium quod apud te rectius poteris invenire, si enim tibi Dominus inspiravit relicto seculo vite frugem appetere melioris. Dei spiritum, sicut nec possumus, sic nec volumus prohibere, presertim cum filium habeas bene disciplinatum, ut credimus, qui tue sciet domui providere. Quod si proposito non mutato sciscitaris ulterius, quem tibi ex fratrum Predicatorum et Minorum ordinibus preeligendum credamus, id precipue con-scientie tue relinquimus. Magis enim tu scire potes utriusque ordinis observantias, que non sunt pares in omnibus et in diversis articulis excedentes sunt et excesse. Alteri quidem istorum ordinum lectus est durior, nuditas gravior et, ut nonnulli iudicant, paupertas profundior et alteri cibus parcior, longiora ieiunia et, ut quamplures autumant, severior disci-plina. Neutrum ergo neutri preferimus. Sed in una et illa altissima paupertate fundatos ad unum tendere credimus, salutem scilicet animarum. Et ideo, sive hunc sive illum elegeris, \u00ab artam viam aggrederis et per portam intrabis angustam \u00bb1 \u00ab ad terram mellifluam et pre ceteris spatiosam \u00bb2. Unde hoc apud te pondera, hoc diligenter adverte, quis magis animo tuo placeat quemque te speres melius portaturum. Et sic uni conversatione adhereas, ut amore ab altero non recedas. Frater enim Predicator est reprobus, qui Minores non diligit, et execrabilis frater Minor qui vel odit Predicatorum ordinem vel contempnit. Datum Perusii, XIII kalendas maii, anno II.\n"
        },
        {
            "type": "edition",
            "value": "Ici reprise de Mathias Thumser, <i>Die Briefe Papst Clemens\u2019 IV. (1265\u20131268)<\/i>, Vorl\u00e4ufige Edition, MGH, 2015, n. 179."
        },
        {
            "type": "remarques",
            "value": "Nous maintenons en t\u00eate de cette lettre le nom d\u2019Ermengaud\u00a0; il nous para\u00eet bien qu\u2019elle est une explication \u00e0 celle que Cl\u00e9ment\u00a0IV lui avait d\u00e9j\u00e0 adress\u00e9e. Cependant, <span class=\"small-caps\">Mart\u00e8ne<\/span> (<i>Ampl. coll.<\/i>, t.\u00a0VI, col.\u00a0306) la fait adresser \u00e0 un chevalier du nom de Pierre [Rouquette, Villemagne]"
        },
        {
            "type": "bibliographie_generale",
            "value": "Edmond Mart\u00e8ne, Ursin Durand, <i>Thesaurus novus anecdotorum<\/i>, Paris, 1717, II, n. 269, col. 314 <a target=\"_blank\" href=\"https:\/\/archive.org\/stream\/ThesaurusNovusAnecdotorum2\/Thesaurus_novus_anecdotorum_2#page\/n191\/mode\/2up\"> [en ligne]<\/a>.",
            "children": {
                "numero_note": "0"
            }
        },
        {
            "type": "bibliographie_generale",
            "value": "Potthast, <i>Regesta pontificum Romanorum<\/i>, n. 19610 <a target=\"_blank\" href=\"https:\/\/archive.org\/stream\/RegestaPontificumRomanorum\/ph#page\/n1599\/mode\/2up\"> [en ligne]<\/a>.",
            "children": {
                "numero_note": "1"
            }
        },
        {
            "type": "bibliographie_generale",
            "value": "<span class=\"small-caps\">Ripolli<\/span>, <i>Bull. Predict.<\/i>, t.\u00a0I, n\u00b0\u00a047",
            "children": {
                "numero_note": "2"
            }
        },
        {
            "type": "bibliographie_generale",
            "value": "<span class=\"small-caps\">Sbaraleae<\/span>, <i>Bull. Francisc.<\/i>, t.\u00a0III, n\u00b0\u00a077",
            "children": {
                "numero_note": "3"
            }
        },
        {
            "type": "bibliographie_generale",
            "value": "<span class=\"small-caps\">F. Fabr\u00e8ge<\/span>, <i>Hist. de Maguelone<\/i>, t.\u00a0II, p.\u00a0153.",
            "children": {
                "numero_note": "4"
            }
        },
        {
            "type": "genre",
            "value": "Lettre, g\u00e9n\u00e9ral (apr\u00e8s 1198, littere cum filo canapis)"
        },
        {
            "type": "sources_manuscrites",
            "value": "R<sup>1<\/sup>. CIT\u00c9 DU VATICAN, Archivio segreto Vaticano, <i>Registra Vaticana<\/i> 30, fol. 31v.",
            "children": {
                "type_source": "Registre de la chancellerie apostolique"
            }
        },
        {
            "type": "sources_manuscrites",
            "value": "R<sup>2<\/sup>. CIT\u00c9 DU VATICAN, Archivio segreto Vaticano, <i>Registra Vaticana<\/i> 33, ep. 176, fol. 32v.",
            "children": {
                "type_source": "Registre de la chancellerie apostolique"
            }
        },
        {
            "type": "sources_manuscrites",
            "value": "R<sup>3<\/sup>. CIT\u00c9 DU VATICAN, Archivio segreto Vaticano, <i>Registra Vaticana<\/i> 34, fol. 46v.",
            "children": {
                "type_source": "Registre de la chancellerie apostolique"
            }
        },
        {
            "type": "sources_manuscrites",
            "value": "R<sup>4<\/sup>. CIT\u00c9 DU VATICAN, Archivio segreto Vaticano, <i>Registra Vaticana<\/i> 35, ep. 177, fol. 36v (<i>Dat. Perusii<\/i>).",
            "children": {
                "type_source": "Registre de la chancellerie apostolique"
            }
        },
        {
            "type": "edition_autre",
            "value": "Julien Rouquette, Augustin Villemagne, <i>Bullaire de l'\u00c9glise de Maguelone<\/i>, Paris, Montpellier : Picard, Valat, 1911-1914, II, n. 494, p. 380."
        },
        {
            "type": "bibliographie_generale",
            "value": "Mathias Thumser, \u00ab Zur \u00dcberlieferungsgeschichte der Briefe Clemens'IV. (1265-1268) \u00bb, <i>Deutsches Archiv f\u00fcr Erforschung des Mittelalters<\/i>, 51\/1, 1995, p. 115-168."
        },
        {
            "type": "regeste",
            "value": "\u00c9douard Jordan, <i>Les registres de Cl\u00e9ment IV (1265-1268)<\/i>, Paris, 1893-1945, n. 1048, d\u2019apr\u00e8s R<sup>1<\/sup>, R<sup>2<\/sup>, R<sup>3<\/sup> et R<sup>4<\/sup>."
        },
        {
            "type": "notes_historiques",
            "value": "Mat 7, 13-14",
            "children": {
                "numero_note": "1"
            }
        },
        {
            "type": "notes_historiques",
            "value": "Exod. 3, 8.",
            "children": {
                "numero_note": "2"
            }
        },
        {
            "type": "destinataire",
            "value": "Le chevalier Ermengaud de Melgueil"
        }
    ]
}