{
    "id": 144449,
    "name": "aposcripta-5674",
    "type": "acte",
    "url": "http:\/\/telma-chartes.irht.cnrs.fr\/aposcripta\/notice\/144449",
    "project_slug": "aposcripta",
    "project_label": "APOSCRIPTA \u2013 Lettres des papes",
    "user": "l_valliere",
    "last_update": "2020-10-19 16:38:59",
    "licence": "Attribution - Pas d\u2019Utilisation Commerciale - Partage dans les M\u00eames Conditions 3.0 France (CC BY-NC-SA 3.0 FR) ",
    "licence_url": "https:\/\/creativecommons.org\/licenses\/by-nc-sa\/3.0\/fr\/",
    "elements": [
        {
            "type": "pape",
            "value": "Lucius III (1181-1185)"
        },
        {
            "type": "destinataire",
            "value": "L'abb\u00e9 du monast\u00e8re Saint-Pierre d'Etival"
        },
        {
            "type": "date_libre",
            "value": "XI kalendas februarii, indictione XV, MCLXXXI, anno I"
        },
        {
            "type": "date",
            "value": "1182\/01\/22",
            "children": {
                "date_deb_annee": "1182",
                "date_deb_mois": "01",
                "date_deb_jour": "22"
            },
            "range": {
                "date_apres": 11820122,
                "date_avant": 11820122
            }
        },
        {
            "type": "date_lieu",
            "value": "Latran"
        },
        {
            "type": "genre",
            "value": "Privil\u00e8ge solennel"
        },
        {
            "type": "analyse",
            "value": "Lucius III. nimmt das von Kaiser Karl (III.) nach dem Tode seiner Gemahlin Richardis an Andlau \u00fcbertragene und auf Veranlassung der \u00c4btissin Mathilde den Pr\u00e4monstratensern unter Abt Gillibert \u00fcberlassene Kloster \u00c9tival in Schutz und best\u00e4tigt seine Besitzungen, Freiheiten und Rechte. Lucius III prend sous sa protection le monast\u00e8re d'Etival et confirma ses biens, ses libert\u00e9s et ses droits [APO]."
        },
        {
            "type": "sources_manuscrites",
            "value": "E. FRANCE, Saint-Di\u00e9, Archives municipales.",
            "children": {
                "type_source": "Original"
            }
        },
        {
            "type": "edition",
            "value": "Partielle : ici reprise de l'acte n. 766 dans \u00ab Chartes originales conserv\u00e9es en France (1121-1220) \u00bb, Christelle Balouzat-Loubet, Jean-Baptiste Renault, \u00e9ds., Nancy : Centre de M\u00e9di\u00e9vistique Jean Schneider ; \u00e9ds \u00e9lectronique Orl\u00e9ans : Institut de Recherche et d'Histoire des Textes, 2013 (Telma) <a target=\"_blank\" href=\" http:\/\/www.cn-telma.fr\/originaux2\/charte268321\/\"> [en ligne]<\/a>."
        },
        {
            "type": "transcription",
            "value": "<?xml version=\"1.0\" encoding=\"UTF-8\"?>\nLucius etc., Garnero abbati ecclesie sancti Petri Stinagiensis atque fratribus etc. Religiosam vitam eligentibus etc. Ego Lucius etc. Datum Laterani per manum Alberti, sancte Romane Ecclesie presbiteri cardinalis et cancellarii, XI kalendas februarii, indictione XV, Incarnationis dominice anno MCLXXXI, pontificatus vero domni Lucii pape III anno I.\n"
        }
    ]
}