{
    "id": 149279,
    "name": "aposcripta-8842",
    "type": "acte",
    "url": "http:\/\/telma-chartes.irht.cnrs.fr\/aposcripta\/notice\/149279",
    "project_slug": "aposcripta",
    "project_label": "APOSCRIPTA \u2013 Lettres des papes",
    "user": "lettrespontificalesadmin",
    "last_update": "2020-10-19 16:39:56",
    "licence": "Attribution - Pas d\u2019Utilisation Commerciale - Partage dans les M\u00eames Conditions 3.0 France (CC BY-NC-SA 3.0 FR) ",
    "licence_url": "https:\/\/creativecommons.org\/licenses\/by-nc-sa\/3.0\/fr\/",
    "elements": [
        {
            "type": "pape",
            "value": "Innocent IV (1243-1254)"
        },
        {
            "type": "destinataire",
            "value": ". . episcopo Pergamensi"
        },
        {
            "type": "date_libre",
            "value": "idibus martii, anno VIII"
        },
        {
            "type": "date",
            "value": " 1251\/03\/15",
            "children": {
                "date_deb_annee": "1251",
                "date_deb_mois": "03",
                "date_deb_jour": "15"
            },
            "range": {
                "date_apres": 12510315,
                "date_avant": 12510315
            }
        },
        {
            "type": "date_lieu",
            "value": "Lugduni"
        },
        {
            "type": "sources_manuscrites",
            "value": "R. CIT\u00c9 DU VATICAN, Archivio Segreto Vaticano, <hi rend=\"italic\">Registra Vaticana<\/hi> ... Inn.\u00a0IV Reg. Vol.\u00a0II, 90; Lib.\u00a0VIII, cur.\u00a059. Pertzii exemplar contulimus cum illo, quod Berger edidit.",
            "children": {
                "type_source": "Registre de la chancellerie apostolique"
            }
        },
        {
            "type": "genre",
            "value": "Mandement (littere cum filo canapis)"
        },
        {
            "type": "analyse",
            "value": "Innocentius IV papa [Algisio] episcopo Pergamensi significat, quam sollicitus de pace Lombardiae sit; mandat, ut id Pergamensibus notum faciat eosque moneat, ut ad se, cum ad Urbem reversurus Ianuam pervenerit, ambassatores de pace reformanda instructos mittant, qui in festo ascensionis una cum episcopo compareant; nuntiat idem ceteris Lombardiae praelatis pro suis civitatibus scriptum esse [Rodenberg]."
        },
        {
            "type": "transcription",
            "value": "<?xml version=\"1.0\" encoding=\"UTF-8\"?>\n. . episcopo Pergamensi.Intendentes versus Urbem pro ecclesie honore ac totius Italie utilitate Deo dante dirigere gressus nostros, et nolentes prorsus omittere, quin per Lombardiam transitum facientes de Lombardorum pace, quam multo ab eis tempore longa ipsorum discordia profligavit, sollicite pertractemus, providimus nostras super hoc litteras ante nostrum adventum tamquam desiderii nostri in hac parte prenuntias destinare, ut, intermedii temporis spatio salubri ab eisdem Lombardis deliberatione prehabita, nulla, postquam nos omnipotens dominus in Ytaliam sua benignitate reduxerit, in communis pacis negotio mora penitus ingeratur, set eo citius tunc consumationem illud optatam divina cooperante virtute suscipiat, quo interim iidem Lombardi tanquam eiusdem negotii prescii, utpote per ipsas premoniti litteras, pro illius complemento plenius se poterunt et melius preparare. Hoc siquidem noster precipue desiderat animus, ut regio illa diu bellorum attrita flagellis et assiduis concisa discordiis tranquillitatis restauretur dulcedine ac firme pacis federe solidetur; non enim possumus absque multa cordis mestitia diuturna illius recogitare discrimina, que specialiter pro suis discidiis, quorum ipsamet nutrix et fautrix extitit, noscitur pertulisse. Propter quod tota mentis affectione cupimus, ut extincto inibi discordie fomite ac pacis seminario superfuso recreetur eadem regio in concordie plenitudine, mutuis hactenus molestiis fatigata, et sinceritate resarciatur amicitie, que divulsa conspicitur inimicitiis intestinis. Ideoque fraternitati tue per apostolica scripta in virtute obedientie districte precipiendo mandamus, quatinus nostrum in hoc ferventem affectum . . potestati, consilio et populo Pergamensibus diligenter exponens et ex parte nostra ipsis annuntians, quod ad omne bonum totius patrie ipsorum ardenter intendimus, quodque pre compassione nimia, qua Romana ecclesia erga illam pre tanta eius dissipatione movetur, ad reformandam inibi concordiam sic ex animo laboramus, cum adeo illic inoleverit odiosa dissensio, quod perpetuo ab eadem patria peregrinabitur amabilis caritas, nisi pacis illuc suffragio reducatur, ac eisdem insuper expresse protestans, quod cum concordem et tranquillum Lombardorum statum inter cetera desiderabilia diligamus et prompti et parati simus omnem opem et operam, ut provenire valeat, adhibere, ipsis utique imputabitur et eorum culpe merito ascribetur, si per ipsos tantum bonum remanserit imperfectum, et nos iuste apud Deum et homines erimus excusati: sollerter et instanter eos moneas et inducas ipsisque nichilominus auctoritate nostra precipias, ut nuntios et procuratores seu ambassatores sollempnes omni super hoc sufficientia premunitos, cum Ianuam pervenerimus, ad nos mittant, sic plenum habentes super pacis et concordie reformatione mandatum, quod propter aliquem ex eorum parte defectum tam necessarium tamque salubre negotium impediri nequeat aliquatenus vel differri. Volumus autem, ut tam tu quam iidem procuratores seu ambassatores in festo ascensionis Dominice proximo futuro studeatis ibidem in nostra presentia comparere. Et ut comodius idem negotium tractari valeat et compleri, ordines studiose cum eis, ut cunctis de parte altera Lombardie plenariam securitatem exhibeant, ita quod omnes hinc inde tute undique ire valeant et redire, ac super securitate huiusmodi patentes et sufficientes eorum litteras confici facias, per tuum specialem nuntium dilecto filio nostro O[ctaviano] Sancte Marie in Via Lata diacono cardinali vel dilecto filio G[regorio] de Montelongo, apostolice sedis legatis, ut illas publicari faciant, dirigendas. Sub simili namque forma ceteris Lombardie prelatis pro singulis suis civitatibus nostras litteras destinamus.Dat. Lugduni, Idibus Martii, anno VIII\u00b0.\n"
        },
        {
            "type": "edition",
            "value": "Ici reprise de Karl Rodenberg, Epistolae s. XIII e regestis pontificum romanorum selectae, III, Berlin : Weidmann (MGH), 1894, n.\u00a094, p.\u00a073."
        },
        {
            "type": "edition_autre",
            "value": "?"
        },
        {
            "type": "regeste",
            "value": "?"
        },
        {
            "type": "bibliographie_generale",
            "value": "?"
        },
        {
            "type": "apparat_critique",
            "value": "?",
            "children": {
                "numero_note": "a"
            }
        },
        {
            "type": "apparat_critique",
            "value": "?",
            "children": {
                "numero_note": "b"
            }
        },
        {
            "type": "apparat_critique",
            "value": "?",
            "children": {
                "numero_note": "c"
            }
        },
        {
            "type": "apparat_critique",
            "value": "?",
            "children": {
                "numero_note": "d"
            }
        },
        {
            "type": "apparat_critique",
            "value": "?",
            "children": {
                "numero_note": "e"
            }
        },
        {
            "type": "apparat_critique",
            "value": "?",
            "children": {
                "numero_note": "f"
            }
        },
        {
            "type": "notes_historiques",
            "value": "?",
            "children": {
                "numero_note": "1"
            }
        },
        {
            "type": "notes_historiques",
            "value": "?",
            "children": {
                "numero_note": "2"
            }
        },
        {
            "type": "notes_historiques",
            "value": "?",
            "children": {
                "numero_note": "3"
            }
        }
    ]
}