{
    "id": 148779,
    "name": "aposcripta-8349",
    "type": "acte",
    "url": "http:\/\/telma-chartes.irht.cnrs.fr\/aposcripta\/notice\/148779",
    "project_slug": "aposcripta",
    "project_label": "APOSCRIPTA \u2013 Lettres des papes",
    "user": "lettrespontificalesadmin",
    "last_update": "2020-10-19 16:39:49",
    "licence": "Attribution - Pas d\u2019Utilisation Commerciale - Partage dans les M\u00eames Conditions 3.0 France (CC BY-NC-SA 3.0 FR) ",
    "licence_url": "https:\/\/creativecommons.org\/licenses\/by-nc-sa\/3.0\/fr\/",
    "elements": [
        {
            "type": "pape",
            "value": "C\u00e9lestin III (1191-1198)"
        },
        {
            "type": "destinataire",
            "value": "Le prieur et les fr\u00e8res de la chartreuse de Meyriat"
        },
        {
            "type": "date_libre",
            "value": "septimo idus julii, indictione decima, Incarnationis dominice anno millesimo centesimo nonagesimo secundo, anno secundo"
        },
        {
            "type": "date",
            "value": " 1192\/07\/09",
            "children": {
                "date_deb_annee": "1192",
                "date_deb_mois": "07",
                "date_deb_jour": "09"
            },
            "range": {
                "date_apres": 11920709,
                "date_avant": 11920709
            }
        },
        {
            "type": "date_lieu",
            "value": "Latran"
        },
        {
            "type": "genre",
            "value": "Mandement (littere cum filo canapis)"
        },
        {
            "type": "analyse",
            "value": "Confirmation par le pape C\u00e9lestin III des possessions de la chartreuse de Meyriat."
        },
        {
            "type": "sources_manuscrites",
            "value": "Copie du XVIIe si\u00e8cle. \u2014 Archives de l\u2019Ain. \u2014 Titres de Meyriat.",
            "children": {
                "type_source": "Copie moderne"
            }
        },
        {
            "type": "edition",
            "value": "Ici reprise de Marie-Claude Guigue, <i>Cartulaire lyonnais<\/i>, Lyon : Association typographique, I, 1885, I, n. 64, p. 88-91."
        },
        {
            "type": "transcription",
            "value": "<?xml version=\"1.0\" encoding=\"UTF-8\"?>\nCelestinus, episcopus, servus servorum Dei, dilectis filiis priori et fratribus de Majorevo, tam presentibus quam futuris ordinem Carthusiensem professis in perpetuum.  Religiosam vitam eligentibus apostolicum convenit adesse presidium, ne forte cujuslibet temeritatis incursus, aut eos a proposito revoceri, aut robur, quod absit, sacre religionis infringat.  Eapropter, dilecti in Domino filii, vestris justis postulationibus clementer annuimus et monasterium de Majorevo, in quo divino estis obsequio mancipati, sub beati Petri et nostra protectione suscipimus et presentis scripti privilegio communimus. In primis si quidem statuentes ut ordo heremitic\u00e6 vit\u00e6, qui secundum Deum in eodem loco institutus esse dignoscitur, perpetuis ibidem temporibus inviolabiliter observetur ; preterea possessiones omnes a Christi fidelibus pietatis intuitu ecclesie vestre concessas, que infra terminos vestros continentur, videlicet a villa que dicitur Labbergementum Sancti Joannis per montem qui supereminet terre que dicitur Verrometum usque ad ruppem preruptam, que supereminet ville que vocatur Evoges ; inde usque ad fontem ubi oritur Cosantia ; inde est terminus eadem Cosantia donec labitur in fluvium qui Equis nuncupatur ; inde idem fluvius usque ad portum de Toria ; inde sicut est ascensus per villam que dicitur Albeveum ; et inde per aquam pendentem usque ad prenominatam villam Labbergementum Sancti Joannis, vobis et vestris successoribus confirmamus. Ad hec auctoritate apostolica arctius interdicimus et sub interminatione anathematis prohibemus ne quis infra terminos vestros vel domorum vestrarum hominem cappere, furtum seu rapinam committere, aut ignem apponere, vel homicidum facere audeat, aut homines ad domos vestras venientes vel ab eis redeuntes quomodolibet perturbare, ut ob reverentiam Dei et locorum vestrorum infra hos terminos non solum vos et fratres vestri, sed etiam alii, plenam pacem habeant et quietem. Liceat quoque vobis clericos vel laicos liberos et absolutos e seculo fugientes ad convertionem vestram recipere et eos absque ullius contradictione in vestro retinere collegio ; prohibemus insuper ut nulli fratrum vestrorum post factam in eodem loco professionem, absque licentia prioris sui, fas sit de claustro vestro discedere ; discedentem vero absque communium litterarum cautione nullus audeat retinere. Sane laborum vestrorum, quos propriis manibus vel sumptibus colitis, sive de nutrimentis animalium vestrorum, nullus a vobis decimas presumat exigere ; adjicientes quoque statuimus ut infra dimidiam lugam a terminis possessionum quas habetis, nulli religioso liceat quodlibet edifficium construere vel possessiones acquirere. Consecrationes vero altarium seu basilicarum, ordinationes clericorum vestrorum, qui ad sacros ordines fuerint promovendi, a diocesano suscipiatis episcopo, si quidem catholicus fuerit et gratiam atque communionem apostolice Sedis habuerit, et ea vobis gratis et sine pravitate aliqua voluerit exhibere ; alioquin liceat vobis quem volueritis catholicum antistitem, qui nimirum nostra fultus auctoritate, vobis quod postulatur indulgeat ; insuper auctoritate apostolica inhibemus ne ullus episcopus, vel quelibet alia persona, ad sinodos vel conventus forenses vos ire vel judicio seculari et vestra propria substantia vel possessionibus vestris subjacere compellat ; nec ad domum vestram non vocatus causa ordinis celebrandi, causas tractandi vel aliquos publicos conventus convocandi, venire presumat, nec regularem electionem prioris vestri impediat, aut de instituendo vel removendo eo qui pro tempore fuerit, contra statuta Carthusiensis ordinis, se aliquatenus intromittat. Porro si episcopi vel alii ecclesiarum rectores in monasterium vestrum vel personas inhibi constitutas suspensionis, excommunicationis vel interdicti sententiam promulgaverint, sive etiam in mercenarios vestros pro eo quod decimas non solvitis, vel aliqua occasione eorum que ab apostolica vobis benignitate indulta sunt, seu benefactores vestros pro eo quod aliqua vobis beneficia vel obsequia ex caritate prestiterint vel ad laborandum adjuverint in illis diebus in quibus vos laboratis et alii feriantur, eandem sententiam protulerint, ipsam tanquam contra apostolice Sedis indulta prolatam decernimus irritandam, nec litter\u00e6 ull\u00e6 firmitatem habeant, quas tacito nomine Carthusiensis ordinis et contra tenorem apostolicorum privilegiorum constiterit impetrari. Statuimus etiam ut propter communia interdicta terrarum monasterium vestrum, excommunicatis et interdictis exclusis, a divinis non cogatur officiis abstinere. Obeunte vero te nunc ejusdem loci priore vel tuorum quolibet successorum, nullus ibi qualibet subreptionis astucia seu violentia preponatur, nisi quem fratres communi consensu vel fratrum major pars consilii sanioris, secundum Deum et approbata vestri ordinis instituta, providerint eligendum. Decernimus ergo ut nulli omnino hominum liceat prefatum monasterium temere pertubare, aut ejus possessiones aufferre, ablatas retinere, minuere seu quibuslibet vexationibus fatigare, sed omnia integra conserventur eorum pro quorum gubernatione ac sustentatione concessa sunt usibus omnimodis profutura, salva Sedis apostolice auctoritate. Si que igitur in futurum ecclesiastica secularisve persona contra eam temere venire temptaverit, secundo tertiove commonita, nisi reatum suum digna satisfactione correxerit, potestatis honorisque sui careat dignitate, reamque se divino judicio existere de perpetrata iniquitate cognoscat, et a sacratissimo corpore ac sanguine Dei et domini redemptoris nostri Jesu Christi aliena fiat, atque in extremo examine districte subjaceat ultioni. Cunctis autem eidem loco sua jura servantibus sit pax domini nostri Jesu Christi, quatenus et hic fructum bone actionis percipiant et apud districtum judicem premia eterne pacis inveniant. Amen. Amen. Amen.  (Locus rot\u00e6.) (Locus signi.)  Ego Celestinus, catholice Sedis episcopus, subscripsi.  \u2020 Ego Joannes, Prenestinus episcopus.  \u2020 Ego Pandulfus, basilice duodecim. apostolorum presbiter cardinalis, [subscripsi].  \u2020 Ego Joannes, tituli Sancti Clementis cardinalis Tusculanensis episcopus, [subscripsi].  \u2020 Ego Romanus, tituli Sancte Anastasie presbiter cardinalis, [subscripsi].  \u2020 Ego Hugo, presbiter cardinalis Sancti Marcii tituli ...quitis, [subscripsi].  \u2020 Ego Joannes, tituli Sancti Stephani in Celiomonte presbiter cardinalis, [subscripsi].  \u2020 Ego Joannes, Sancti Theodori diaconus cardinalis, [subscripsi].  \u2020 Ego Bernardus, Sancte Marie nove diaconus cardinalis, [subscripsi].  \u2020 Ego Gregorius, Sancti Georgii ad velum aureum diaconus cardinalis, [subscripsi].  \u2020 Ego Nicolaus, Sancte Marie in Cosmidin diaconus cardinalis, [subscripsi].  Datum Laterani per manum Egidii, Sancti Nicolai in carcere Tulliano diaconi cardinalis, septimo idus julii, indictione decima, Incarnationis dominice anno millesimo centesimo nonagesimo secundo, pontificatus vero domini Celestini pape tertii anno secundo.\n"
        }
    ]
}