{
    "id": 149255,
    "name": "aposcripta-8818",
    "type": "acte",
    "url": "http:\/\/telma-chartes.irht.cnrs.fr\/aposcripta\/notice\/149255",
    "project_slug": "aposcripta",
    "project_label": "APOSCRIPTA \u2013 Lettres des papes",
    "user": "lettrespontificalesadmin",
    "last_update": "2020-10-19 16:39:55",
    "licence": "Attribution - Pas d\u2019Utilisation Commerciale - Partage dans les M\u00eames Conditions 3.0 France (CC BY-NC-SA 3.0 FR) ",
    "licence_url": "https:\/\/creativecommons.org\/licenses\/by-nc-sa\/3.0\/fr\/",
    "elements": [
        {
            "type": "pape",
            "value": "Innocent IV (1243-1254)"
        },
        {
            "type": "destinataire",
            "value": "Nobili viro Gotifrido de Hoenlach"
        },
        {
            "type": "date_libre",
            "value": "XI kalendas martii, anno VIII"
        },
        {
            "type": "date",
            "value": " 1251\/02\/19",
            "children": {
                "date_deb_annee": "1251",
                "date_deb_mois": "02",
                "date_deb_jour": "19"
            },
            "range": {
                "date_apres": 12510219,
                "date_avant": 12510219
            }
        },
        {
            "type": "date_lieu",
            "value": "Lugduni"
        },
        {
            "type": "sources_manuscrites",
            "value": "R. CIT\u00c9 DU VATICAN, Archivio Segreto Vaticano, <hi rend=\"italic\">Registra Vaticana<\/hi> ... Inn.\u00a0IV Reg. Vol.\u00a0II, 86; Lib.\u00a0VIII, cur.\u00a036. Pertzii exemplar contulimus cum illo, quod Meerman, l. c. t.\u00a0V, p.\u00a096 edidit.",
            "children": {
                "type_source": "Registre de la chancellerie apostolique"
            }
        },
        {
            "type": "genre",
            "value": "Mandement (littere cum filo canapis)"
        },
        {
            "type": "analyse",
            "value": "Innocentius IV papa Gotifridum de Hoenloch, qui olim sine infamia et iactura devotus ecclesiae esse non potuerit, F[riderico II] sublato de medio ad devotionem ecclesiae revocat, eique idem mandat, quod duci Saxoniae in n.\u00a067 [Rodenberg]."
        },
        {
            "type": "transcription",
            "value": "<?xml version=\"1.0\" encoding=\"UTF-8\"?>\nNobili viro Gotifrido de Hoenlach.Frequenti relatu percepimus, quod grandem tibi Dominus dedit industriam, quod in amore et timore divini nominis delectaris, respuendo vitia et amplectendo virtutes ac etiam piis locis et personis ecclesiasticis oportuni presidium prestando favoris. Audivimus etiam, quod olim te libenter devotum reddidisses ecclesie, si hoc absque tua infamia potuisset et iactura multiplici provenisse. Cum autem plenus miseratione Dominus quondam F. imperatore sublato de medio tibi sicut et aliis fidelibus tempus indulxerit oportunum, in quo tue devotionis affectum omni abdicata formidine potes circa sanctam Romanam ecclesiam per effectum operis publicare: nobilitatem tuam affectuose rogandam duximus et monendam, in remissionem tibi peccaminum iniungentes, quatinus animum tuum ad illa dirigens, per que dicta ecclesia gaudii plenitudine perfundatur etc. ut in littera ducis Saxonie.\n"
        },
        {
            "type": "edition",
            "value": "Ici reprise de Karl Rodenberg, Epistolae s. XIII e regestis pontificum romanorum selectae, III, Berlin : Weidmann (MGH), 1894, n.\u00a073, p.\u00a058."
        },
        {
            "type": "edition_autre",
            "value": "?"
        },
        {
            "type": "regeste",
            "value": "?"
        },
        {
            "type": "bibliographie_generale",
            "value": "?"
        },
        {
            "type": "apparat_critique",
            "value": "?",
            "children": {
                "numero_note": "a"
            }
        },
        {
            "type": "apparat_critique",
            "value": "?",
            "children": {
                "numero_note": "b"
            }
        },
        {
            "type": "apparat_critique",
            "value": "?",
            "children": {
                "numero_note": "c"
            }
        },
        {
            "type": "apparat_critique",
            "value": "?",
            "children": {
                "numero_note": "d"
            }
        },
        {
            "type": "apparat_critique",
            "value": "?",
            "children": {
                "numero_note": "e"
            }
        },
        {
            "type": "apparat_critique",
            "value": "?",
            "children": {
                "numero_note": "f"
            }
        },
        {
            "type": "notes_historiques",
            "value": "?",
            "children": {
                "numero_note": "1"
            }
        },
        {
            "type": "notes_historiques",
            "value": "?",
            "children": {
                "numero_note": "2"
            }
        },
        {
            "type": "notes_historiques",
            "value": "?",
            "children": {
                "numero_note": "3"
            }
        }
    ]
}