{
    "id": 27142,
    "name": "aposcripta-3953",
    "type": "acte",
    "url": "http:\/\/telma-chartes.irht.cnrs.fr\/aposcripta\/notice\/27142",
    "project_slug": "aposcripta",
    "project_label": "APOSCRIPTA \u2013 Lettres des papes",
    "user": "lettrespontificalesadmin",
    "last_update": "2020-10-19 16:28:10",
    "licence": "Attribution - Pas d\u2019Utilisation Commerciale - Partage dans les M\u00eames Conditions 3.0 France (CC BY-NC-SA 3.0 FR) ",
    "licence_url": "https:\/\/creativecommons.org\/licenses\/by-nc-sa\/3.0\/fr\/",
    "elements": [
        {
            "type": "pape",
            "value": "Alexandre IV (1254-1261)"
        },
        {
            "type": "date_lieu",
            "value": "n.c."
        },
        {
            "type": "date_libre",
            "value": "Nonas maii, anno secundo  "
        },
        {
            "type": "date",
            "value": " 1256\/05\/07",
            "children": {
                "date_deb_annee": "1256",
                "date_deb_mois": "05",
                "date_deb_jour": "07"
            },
            "range": {
                "date_apres": 12560507,
                "date_avant": 12560507
            }
        },
        {
            "type": "analyse",
            "value": "Ne aliqua persona possit bona monasterii vestri vadiare vel denudare."
        },
        {
            "type": "transcription",
            "value": "<?xml version=\"1.0\" encoding=\"UTF-8\"?>\nAlexander, episcopus, servus servorum Dei, dilecto filio officiali Parisiensi, salutem et apostolicam benedictionem. Sicut dilecti filii abbas et conventus monasterii Vallium Sarnay nobis exponere curaverunt tam ipsi quam predecessores eorum terras, decimas, piscarias, possessiones, redditus et res alias ipsius monasterii, datis super hoc litteris et prestitis juramentis, necnon et penis adjectis in enormem lesionem ipsius, nonnullis abbatibus, militibus, clericis et laicis, aliquibus eorum ad vitam, quibusdam vero ad non modicum tempus, et aliis perpetuo, ad firmam vel sub censu annuo, concesserunt, quorum aliqui super hiis litteras confirmationis in forma communi a Sede apostolica impetrarunt. Nos igitur, eorumdem abbatis et conventus supplicationibus inclinati, discretioni tue per apostolica scripta mandamus, quatinus ea que de bonis ejusdem monasterii per concessiones hujusmodi alienata inveneris illicite vel distracta, non obstantibus predictis juramentis, penis et litteris seu confirmationibus, ad jus et proprietatem ipsius studeas legitime revocare, contradictores per censuram ecclesiasticam, appellatione postposita, compescendo. Testes autem qui fuerint nominati, si se gratia, odio vel timore subtraxerint, per censuram eandem, appellatione cessante, compellas veritati testimonium perhibere. Datum Laterani, nonis maii, pontificatus nostri anno secundo.\n"
        },
        {
            "type": "edition",
            "value": "Ici reprise de Lucien Merlet, Auguste Mouti\u00e9, <i>Cartulaire de l\u2019abbaye Notre-Dame des Vaux-de-Cernay, de l\u2019ordre de C\u00eeteaux, au dioc\u00e8se de Paris<\/i>, Paris, 1857-1858, document num\u00e9ris\u00e9 par le projet <i>\u00c9lec - \u00c9ditions en ligne de l'\u00c9cole des chartes<\/i>, \"Cartulaire des Vaux-de-Cernay \u00e0 l'ordre de Citeaux, au dioc\u00e8se de Paris\" in <i>Cartulaires d\u2019\u00cele-de-France<\/i> , dir. Olivier Guyotjeannin, 2009, document DLIX <a href=\"http:\/\/elec.enc.sorbonne.fr\/cartulaires\/Vaux-de-Cernay\/0559\" target=\"_blank\">[en ligne]<\/a>  "
        },
        {
            "type": "sources_manuscrites",
            "value": "A. Original en parchemin bull\u00e9. \u2014 Inv., p. 50, l.\u00a0L.",
            "children": {
                "type_source": "Exp\u00e9dition"
            }
        },
        {
            "type": "genre",
            "value": "Mandement (littere cum filo canapis)"
        },
        {
            "type": "destinataire",
            "value": "L'official de Paris"
        }
    ]
}