{
    "id": 25833,
    "name": "aposcripta-2930",
    "type": "acte",
    "url": "http:\/\/telma-chartes.irht.cnrs.fr\/aposcripta\/notice\/25833",
    "project_slug": "aposcripta",
    "project_label": "APOSCRIPTA \u2013 Lettres des papes",
    "user": "lettrespontificalesadmin",
    "last_update": "2020-10-19 16:27:49",
    "licence": "Attribution - Pas d\u2019Utilisation Commerciale - Partage dans les M\u00eames Conditions 3.0 France (CC BY-NC-SA 3.0 FR) ",
    "licence_url": "https:\/\/creativecommons.org\/licenses\/by-nc-sa\/3.0\/fr\/",
    "elements": [
        {
            "type": "pape",
            "value": "Adrien IV (1154-1159)"
        },
        {
            "type": "destinataire",
            "value": "L'archev\u00eaque de Sens Hugues ",
            "children": {
                "numero_note": "0"
            }
        },
        {
            "type": "date_lieu",
            "value": "B\u00e9n\u00e9vent"
        },
        {
            "type": "date_libre",
            "value": "III idus aprilis, indictione IV, MCLVI anno secundo"
        },
        {
            "type": "date",
            "value": " 1156\/04\/11",
            "children": {
                "date_deb_annee": "1156",
                "date_deb_mois": "04",
                "date_deb_jour": "11"
            },
            "range": {
                "date_apres": 11560411,
                "date_avant": 11560411
            }
        },
        {
            "type": "analyse",
            "value": "Adrien\u00a0IV, pape, met l\u2019\u00e9glise de Sens sous sa protection et confirme tous ses biens.<br\/>Le pape, s\u2019adressant \u00e0 l\u2019archev\u00eaque Hugues, d\u00e9clare avoir mis l\u2019\u00e9glise de Sens sous la protection de saint Pierre et la sienne, voulant qu\u2019elle jouisse, dans le pr\u00e9sent et dans l\u2019avenir, de tous ses biens. Il en fait l\u2019\u00e9num\u00e9ration de la mani\u00e8re suivante: dix-huit abbayes; huit \u00e9glises; les terres de Saint-Julien-du-Sault, de Brienon, de Nailly, de Villenauxe, de Bellechaume; des biens \u00e0 Arces et \u00e0 Montereau; des hommes \u00e0 Sens, \u00e0 Montereau, \u00e0 Joigny, \u00e0 Rousson et aux Si\u00e8ges, etc.; et le fief d\u2019Ordon, celui de Provins, dont le seigneur doit chaque ann\u00e9e, au jour de Saint-Etienne, un cierge de 40 livres \u00e0 l\u2019\u00e9glise de Sens; et de ce droit f\u00e9odal il r\u00e9sulte que les hommes qui viennent de Provins ou de la ch\u00e2tellenie, pour demeurer \u00e0 Sens ou dans une des terres de l\u2019archev\u00eaque, sont soumis \u00e0 la justice de l\u2019archev\u00eaque et de l\u2019\u00e9glise de Sens. Le pape d\u00e9clare que les \u00e9v\u00eaques de Chartres, de Paris, d\u2019Orl\u00e9ans, de Meaux, d\u2019Auxerre, de Troyes et de Nevers, qui sont de la d\u00e9pendance de l\u2019archev\u00eaque de Sens, seront soumis \u00e0 son autorit\u00e9 m\u00e9tropolitaine. Suivent diverses autres dispositions et sp\u00e9cialement sur les synodes annuels, sur la d\u00e9fense d\u2019en appeler en mati\u00e8re eccl\u00e9siastique d\u2019un jugement de l\u2019archev\u00eaque \u00e0 un juge la\u00efque, etc."
        },
        {
            "type": "transcription",
            "value": "<?xml version=\"1.0\" encoding=\"UTF-8\"?>\nAdrianus episcopus, servus servorum Dei, venerabili fratri Hugoni, Senonensi archiepiscopo, ejusque successoribus canonice substituendis imperpetuum. Cum ex injuncto nobis a Deo apostolatus officio, quo cunctis Christi fidelibus, authore Domino, prominemus, singulorum paci et tranquillitati debeamus intendere; pr\u00e6sertim pro illorum quiete oportet nos esse sollicitos qui pastorali dignitate sunt pr\u00e6diti et ad officium pontificale promoti. Nisi enim nos, eorum utilitatibus intendentes, ipsorum jura, in quantum Deo permittente possumus, integra conservemus et authoritate apostolica eos ab iniquorum incursibus defendamus; de illorum salute non vere poterunt esse solliciti qui sibi ad regendum Domino sunt disponente commissi. Hujus utique rationis intuitu, frater archiepiscope, provocati, Senonensem ecclesiam, cui, Deo authore, pr\u00e6sse dinosceris, sub beati Petri et nostra protectione suscipimus et pr\u00e6sentis scripti privilegio communimus; statuentes ut quascumque possessiones, qu\u00e6cumque bona eadem ecclesia impr\u00e6sentiarum juste et canonice possidet, aut in futurum concessione pontificum, largitione regum vel principum, oblatione fidelium, seu aliis justis modis, propitiante Domino, poterit adipisci, firma tibi, tuisque successoribus et illibata permaneant. In quibus h\u00e6c propriis duximus exprimenda vocabulis: Abbatiam Sancti-Petri-Vivi; abbatiam Sancti-Remigii; abbatiam Sanct\u00e6-Trinitatis de Mauriniaco; abbatiam Sancti-Petri de Monte, apud Milidunum; abbatiam de Caumis; abbatiam Sancti-Joannis Evangelist\u00e6 canonicorum regularium, qu\u00e6 sita est in suburbio civitatis Senonensis; abbatiam Sancti-Quiriaci de Pruvino; abbatiam de Sosiaco; abbatiam Sancti-Severini de Castro-Landonis; abbatiam de Nuceris; abbatiam de Deiloco; abbatiam de Pruliaco; abbatiam de Vallelucenti; abbatiam de Joiaco; abbatiam de Sacro-Portu; abbatiam de Fonte-Joannis; abbatiam de Escharleis; abbatiam Sanctimonialium de Roseto; ecclesias qu\u00e6 sunt in villa Sancti-Juliani de Saltu; ecclesiam de Briennone; ecclesiam de Naalliaco; ecclesiam de Velenessia; ecclesiam de Bellacauma; ecclesiam de Montacherio; ecclesiam de Buxis cum capellis et decimis earum; villam Sancti-Juliani de Saltu, cum feudis et appenditiis suis; villam de Briennone, cum appendiciis suis et feodis; villam de Naaliaco cum appendiciis suis et feudis; villam de Vellenessa, cum appenditiis et feudis suis; villam de Bellacauma, cum appenditiis suis; et quicquid habes apud Archeam et apud Montacherium; homines etiam quos habes in Senonensi civitate, et quos habes apud Musteriolum; apud Joviniacum; apud Rossem et apud Eschegias; et quicquid habes in aliis locis, tam in hominibus quam in nemoribus et terris et feudis: specialiter autem feudum de Ordone et feudum de Pruvino, unde dominus ejusdem castri singulis annis ecclesi\u00e6 Senonensi cereum unum ponderis quadraginta librarum, in Natale Sancti-Stephani debet exolvere, de cujus feudi jure constat quod homines illi qui venerint de Pruvino aut de Pruvinensi castellaria ad morandum Senonis, vel in aliqua villarum tuarum, in proprium jus tuum et Senonensis ecclesi\u00e6 transeant. Statuimus pr\u00e6terea ut Carnotensis, Parisiensis, Aurelianensis, Meldensis, Autissiodorensis, Trecensis et Nivernensis episcopi, qui de jure archiepiscopatus tui esse noscuntur, tam tibi quam successoribus tuis, in omnibus qu\u00e6 ad jus metropoliticum spectant, debeant respondere. Antiquam etiam libertatem et rationabilem consuetudinem quam tu et antecessores tui in Senonensi ecclesia habuistis, et in pr\u00e6nominatorum episcoporum ecclesiis, qu\u00e6 infra parochiam tuam sit\u00e6 sunt, tibi nichilominus confirmamus. Sancimus quoque ne occupatione vel vicinitate aliquorum religiosorum parrochian\u00e6 ecclesi\u00e6 tu\u00e6 decimas suas amittant, quas rationabiliter consueverunt habere. Confirmamus insuper, tibi et successoribus tuis, ut secundum antiquam et rationabilem consuetudinem, parrochian\u00e6 ecclesi\u00e6 synodos et paratas reddant, exceptis ecclesiis illis de quibus legitime cognitum fuerit quod eis vel a te, vel a tuis predecessoribus sit indultum; adjicientes ut ecclesi\u00e6 ill\u00e6, qu\u00e6 singulis annis synodes reddunt, secundum antiquam et justam consuetudinem Senonensis ecclesi\u00e6, semel in biennio paratas persolvant. Si vero parrochiani tui rebelles tibi vel contumaces extiterint, et ad secundam vel tertiam commonitionem tuam satisfacturi ad te venire contempserint, sententiam quam tu in eos canonice promulgaveris, nos ratam ac firmam habemus; addentes ut nulli a judicio tuo in ecclesiastico negotio ad secularem potestatem liceat appellare. Decernimus ergo ut nulli omnino hominum liceat supradictam ecclesiam temere perturbare, etc., ut supra, p.\u00a0327. Datum Beneventi, per manum Rolandi, sanct\u00e6 Roman\u00e6 ecclesi\u00e6 presbiteri cardinalis et cancellarii, III idus aprilis; indictione IIIIa; Incarnationis Dominic\u00e6 anno M\u00ba C\u00ba L\u00ba VI\u00ba; pontificatus vero domini Adriani pap\u00e6 quarti, anno secundo.\n"
        },
        {
            "type": "edition",
            "value": "Ici tir\u00e9e du projet <i>CBMA - Corpus Burgundiae Medii Aevi<\/i>, document 8144. Site du projet Corpus de la Bourgogne du Moyen \u00c2ge, [En ligne] <a href=\"http:\/\/www.cbma-project.eu\" target=\"_blank\">http:\/\/www.cbma-project.eu<\/a>  "
        },
        {
            "type": "sources_manuscrites",
            "value": "\u00e0 renseigner. Texte pr\u00e9c\u00e9d\u00e9 de la rubrique: <i>PRIVIL\u00c9GE DU PAPE ADRIEN IV EN FAVEUR DE L\u2019ARCHEV\u00caCH\u00c9 DE SENS.<\/i>"
        },
        {
            "type": "remarques",
            "value": "\r\n\r\n \r\n\r\n <b>[Voir \u00e9galement projet CBMA - <i>Corpus Burgundiae Medii Aevi<\/i>, document 17716]<\/b>\r\n\r\n Vidimus sur papier de l\u2019an 1627; Arch. de l\u2019Yonne, F. de l\u2019archev\u00each\u00e9 de Sens, l.\u00a0I."
        },
        {
            "type": "edition_autre",
            "value": "Ici reprise de Maximilien Quantin, <i>Cartulaire g\u00e9n\u00e9ral de l'Yonne, Recueil de documents authentiques pour servir \u00e0 l'histoire des pays qui forment ce d\u00e9partement<\/i>, I, Auxerre : Perriquet, Soci\u00e9t\u00e9 des sciences historiques et naturelles de l'Yonne, 1854-1860, p. 537-540, n\u00b0 CCCLXXVII.",
            "children": {
                "numero_note": "0"
            }
        },
        {
            "type": "genre",
            "value": "Privil\u00e8ge solennel"
        }
    ]
}