{
    "id": 24524,
    "name": "aposcripta-1675",
    "type": "acte",
    "url": "http:\/\/telma-chartes.irht.cnrs.fr\/aposcripta\/notice\/24524",
    "project_slug": "aposcripta",
    "project_label": "APOSCRIPTA \u2013 Lettres des papes",
    "user": "lettrespontificalesadmin",
    "last_update": "2020-10-19 16:27:31",
    "licence": "Attribution - Pas d\u2019Utilisation Commerciale - Partage dans les M\u00eames Conditions 3.0 France (CC BY-NC-SA 3.0 FR) ",
    "licence_url": "https:\/\/creativecommons.org\/licenses\/by-nc-sa\/3.0\/fr\/",
    "elements": [
        {
            "type": "pape",
            "value": "Cl\u00e9ment IV (1265-1268)"
        },
        {
            "type": "date_lieu",
            "value": "Viterbe"
        },
        {
            "type": "date_libre",
            "value": "VI kalendas maii, anno tertio"
        },
        {
            "type": "date",
            "value": " 1267\/04\/26",
            "children": {
                "date_deb_annee": "1267",
                "date_deb_mois": "04",
                "date_deb_jour": "26"
            },
            "range": {
                "date_apres": 12670426,
                "date_avant": 12670426
            }
        },
        {
            "type": "analyse",
            "value": "Cl\u00e9ment\u00a0IV d\u00e9fend aux religieux de Montpellier, en particulier aux Dominicains et aux Franciscains, de prendre des novices impub\u00e8res."
        },
        {
            "type": "transcription",
            "value": "<?xml version=\"1.0\" encoding=\"UTF-8\"?>\nClemens episcopus, servus servorum Dei, abbatibus, abbatissis, prioribus et gardianis, ceterisque fratribus Predicatorum, Minorum, ac conventibus monasteriorum et aliorum locorum religiosorum de Montepessulano ac ejusdem suburbiis, Cisterciensis, Premonstratensis, seu cujuscumque Ordinis, Magalonensis diocesis. In supremi Patris obsequio constituti, devotam habere tenemini considerationem ad ipsum, ut animarum salutem, potius quam temporalia commoda, querere vestra devotio dignoscatur. Sane miramur et merito quod, sicut ad nostrum pervenit auditum, nonnunquam pueros et puellas impuberes, consideratione bonorum que habituri essent, si in seculo remanerent, trahitis ad suscipiendum habitum regularem\u00a0: quod non omnino censetur honestum, sed videtur potius quedam simulata species honestatis. Ne igitur in hiis Deum contingat offendi, aut fame vestre religionis in aliquo derogari, volumus et auctoritate presentium inhibemus, ne aliquorum filios familias, vel alios impuberes, tutores habentes, absque voluntate parentum et tutorum suorum, ad suscipiendum predictum habitum in monasteriis vestris aliquatenus admittatis, ita quod exinde nequeatis ulterius reprehendi. Datum Viterbii, VI kalendas maii, pontificatus nostri anno tertio.\n"
        },
        {
            "type": "edition",
            "value": "Julien Rouquette, Augustin Villemagne, <i>Bullaire de l'\u00c9glise de Maguelone<\/i>, Paris, Montpellier : Picard, Valat, 1911-1914, II, n. 501-CCCLVII, p. 397-397"
        },
        {
            "type": "remarques",
            "value": "Cette bulle n\u2019int\u00e9resse qu\u2019indirectement l\u2019histoire de notre dioc\u00e8se. Nous la faisons figurer dans notre Recueil, surtout parce qu\u2019elle se trouve transcrite dans le <i>Grand Thalamus<\/i>, ce qui semblerait faire croire qu\u2019elle r\u00e9pondait \u00e0 un r\u00e9el besoin, et \u00e9tait r\u00e9clam\u00e9e par la population. Disons seulement que dans le chapitre tenu \u00e0 Montpellier, le 24\u00a0mai 1265, les sup\u00e9rieurs de l\u2019Ordre de Saint-Dominique avaient interdit de recevoir des novices \u00e2g\u00e9s de moins de quinze ans (Cf. <span class=\"small-caps\">Malvenda<\/span>, <i>Ann. Pr\u00e6d.<\/i>, p.\u00a01740) [Rouquette-Villemagne]."
        },
        {
            "type": "bibliographie_generale",
            "value": "<i>Grand Thalamus<\/i>, fol.\u00a055",
            "children": {
                "numero_note": "0"
            }
        },
        {
            "type": "bibliographie_generale",
            "value": "<span class=\"small-caps\">Gariel<\/span>, <i>Series<\/i>, t.\u00a0I, p.\u00a0393",
            "children": {
                "numero_note": "1"
            }
        },
        {
            "type": "bibliographie_generale",
            "value": "<span class=\"small-caps\">Mart\u00e8ne<\/span>, <i>Thes. anecd.<\/i>, t.\u00a0II, col.\u00a0459",
            "children": {
                "numero_note": "2"
            }
        },
        {
            "type": "bibliographie_generale",
            "value": "<span class=\"small-caps\">Germain<\/span>, <i>Hist. de la commune de Montpellier<\/i>, t.\u00a0II, p.\u00a059",
            "children": {
                "numero_note": "3"
            }
        },
        {
            "type": "bibliographie_generale",
            "value": "<span class=\"small-caps\">F. Fabr\u00e8ge<\/span>, <i>Hist. de Maguelone<\/i>, t.\u00a0II, p.\u00a0151",
            "children": {
                "numero_note": "4"
            }
        },
        {
            "type": "bibliographie_generale",
            "value": "<span class=\"small-caps\">Potthast<\/span>, n\u00b0\u00a019989.",
            "children": {
                "numero_note": "5"
            }
        },
        {
            "type": "genre",
            "value": "Mandement (littere cum filo canapis)"
        },
        {
            "type": "sources_manuscrites",
            "value": "Grand Thalamus, fol. 55.",
            "children": {
                "type_source": "Cartulaire"
            }
        }
    ]
}