{
    "id": 148921,
    "name": "aposcripta-8490",
    "type": "acte",
    "url": "http:\/\/telma-chartes.irht.cnrs.fr\/aposcripta\/notice\/148921",
    "project_slug": "aposcripta",
    "project_label": "APOSCRIPTA \u2013 Lettres des papes",
    "user": "j_theryastruc",
    "last_update": "2020-10-19 16:39:51",
    "licence": "Attribution - Pas d\u2019Utilisation Commerciale - Partage dans les M\u00eames Conditions 3.0 France (CC BY-NC-SA 3.0 FR) ",
    "licence_url": "https:\/\/creativecommons.org\/licenses\/by-nc-sa\/3.0\/fr\/",
    "elements": [
        {
            "type": "pape",
            "value": "Innocent III (1198-1216)"
        },
        {
            "type": "destinataire",
            "value": "L'archev\u00eaque de Cologne Adolphe"
        },
        {
            "type": "date_libre",
            "value": "XIII kalendas junii, anno secundo"
        },
        {
            "type": "date",
            "value": "1199\/05\/20",
            "children": {
                "date_deb_annee": "1199",
                "date_deb_mois": "05",
                "date_deb_jour": "20"
            },
            "range": {
                "date_apres": 11990520,
                "date_avant": 11990520
            }
        },
        {
            "type": "date_lieu",
            "value": "Latran"
        },
        {
            "type": "genre",
            "value": "Mandement (littere cum filo canapis)"
        },
        {
            "type": "analyse",
            "value": "Innocenz III dankt Erzbischof [Adolf] von K\u00f6ln [und vielen anderen deutschen F\u00fcrsten] f\u00fcr die Boten und Briefe und verheisst Unterst\u00fctzung Ottos, wenn dieser der Kirche ergeben bleibe [Kempf]."
        },
        {
            "type": "sources_manuscrites",
            "value": "R. CIT\u00c9 DU VATICAN, Archivio segreto Vaticano, <i>Registra Vaticana<\/i> 6, n. 11, fol. 3v-4. Fac-simil\u00e9 : <i> Regestum domini Innocentii III papae, super negotio Romani Imperii (Reg. Vat. 6.)<\/i>, Introd. de Wilhelm M. Peitz, Rome, 1927 (Codices e Vaticanis selecti, XVI).",
            "children": {
                "type_source": "Registre de la chancellerie apostolique"
            }
        },
        {
            "type": "edition",
            "value": "Friedrich Kempf, <i>Regestum Innocentii III papae super negotio Romani Imperii<\/i>, Rome : Pontificia Universit\u00e0 Gregoriana, 1947 (Miscellanea Historiae Pontificiae, 12), n. 11, p. 27-29. "
        },
        {
            "type": "edition_autre",
            "value": "\u00c9tienne Baluze, <i>Epistolarum Innocentii tertii Romani pontificis libri undecim<\/i>, Paris : Fran\u00e7ois Muguet, 1682, 2 vol., I, n. 11, p. 690 <a target=\"_blank\" href=\"https:\/\/reader.digitale-sammlungen.de\/de\/fs1\/object\/display\/bsb10634936_00003.html\"> [en ligne]<\/a>."
        },
        {
            "type": "edition_autre",
            "value": "Jacques-Paul Migne, <i>Patrologie latine<\/i>, Par\u00eds, 1844-1855 (r\u00e9imp. Turnhout : Brepols, 1970), t. 216, n. 11, c. 1006, d'apr\u00e8s Baluze."
        },
        {
            "type": "edition_autre",
            "value": "<i>Recueil des historiens des Gaules et de la France<\/i>, 19, p. 376."
        },
        {
            "type": "regeste",
            "value": "Potthast, <i>Regesta pontificum Romanorum<\/i>, n. 708 <a target=\"_blank\" href=\"https:\/\/archive.org\/stream\/RegestaPontificumRomanorum\/ph#page\/n267\/mode\/2up\"> [en ligne]<\/a>."
        },
        {
            "type": "regeste",
            "value": "BFW, reg. 5678 <a href=\"\" target=\"_blank\">[en ligne]<\/a>. "
        },
        {
            "type": "bibliographie_generale",
            "value": "Wilhelm M. Peitz, \u00ab Die Entstehung des RNI und der Anlass zum Eingreifen Innocenz\u2019 III in den deutschen Thronstreit \u00bb, <i>Historische Jahrbuch<\/i> 46, 1926, p. 354-369. "
        },
        {
            "type": "bibliographie_generale",
            "value": "Wilhelm M. Peitz, \u00ab Introduzione \u00bb, dans <i> Regestum domini Innocentii III papae, super negotio Romani Imperii (Reg. Vat. 6.)<\/i>, Rome, 1927 (Codices e Vaticanis selecti, XVI), p. 10 et suiv."
        },
        {
            "type": "bibliographie_generale",
            "value": "Winkelmann, Jahrb. I 163."
        },
        {
            "type": "bibliographie_generale",
            "value": "Helene Tillmann, \u00ab Zum Regestum super negotio Romani imperii Innocenz\u2019 III \u00bb, <i>Quellen und Forschungen aus italienischen Archiven und Bibliotheken<\/i>, 23, 1931-1932, p. 53-79"
        },
        {
            "type": "transcription",
            "value": "<?xml version=\"1.0\" encoding=\"UTF-8\"?>\nColoniensi archiepiscopo. Gratuma gerimus et acceptum quod tu et alii multi principes Alemanie dilectos filios G[erardum] abbatem Indensem, B[runonem] Bunnensem prepositum, H[eribertum] priorem de Werde, H[enricum] Sancti Gereonis scolasticum, M[onachum] de Uilla ciuem Mediolanensem, et H[enricum] capellanum quondam inclite recordationis R[ichardi] regis Anglorum1, G. canonicum Sancte Marie ad gradus in Colonia, et magistrum P., uiros prouidos et fideles, ad Sedem apostolicam destinastis, per eos et litteras uestras et electionis modum et coronationis processum karissimi in Christo filii nostri O[ttonis], quem elegistis in regem, plenius intimantesb, ac petentes ut, quod a uobis factum fuerat ratum habentes, et firmum auctoritatec uellemus apostolica confirmare ac ipsum O[ttonem] ad suscipiendam coronam Imperii uocaremusd. Nos autem nuntios ipsos propter honorem Imperii et tam ipsius Ottonis quam tuam et aliorum principum a quibus missi fuerant, deuotionem, honestatem etiam et probitatem ipsorum benigne recepimus et, sicut ipsi referre poterunt, curauimus benignius pertractare2. Id autem per hec apostolica scripta tam tibi quam ipsis duximus respondendum quod ad honorem et profectum ipsius libenter et efficaciter, quantum cum Deo poterimus, intendemus, sperantes quod ipse, sicut catholicus princeps, in deuotione quam progenitores ipsius circa Romanam ecclesiame habuerunt non solum persistere sed proficere cum honoris augmento curabit. Datum Laterani, XIII kalendas iunii, pontificatus nostri anno secundo.  Inf eundem modum comiti Flandrie.   In eundem modum duci Lothoringie ac Brabantie Marchioni. In eundem modum abbati Werdensi.  In eundem modum Mindensi episcopo.  In eundem modum Parburnensi episcopo.  In eundem modum comiti palatino Reni.  In eundem modum comiti de Dasburci.  Bremensig archiepiscopo3 et suffraganeis eius. Gratum gerimus et acceptum quod uenerabilis frater noster .. Coloniensis archiepiscopus et alii multi principes Alemanie dilectos filios, etc. in eundem fere modum usque in finem.  Scriptumg est etiam super hoc aliis quampluribus principibus Alemanie in eundem fere modumh.\n"
        },
        {
            "type": "apparat_critique",
            "value": "<i>Der gleichzeitige Eintrag des Briefes mit Br. <\/i>3-10<i> ist kaum zu bezweifeln. In der Regel wurden Einl\u00e4ufe, die zum Erlass von p\u00e4pstlichen Schreiben f\u00fchrten, gemeinsam mit diesen registriert.<\/i>",
            "children": {
                "numero_note": "a"
            }
        },
        {
            "type": "apparat_critique",
            "value": "<i>Am Rand ein wagrechter Merkstrich<\/i>.",
            "children": {
                "numero_note": "b"
            }
        },
        {
            "type": "apparat_critique",
            "value": "<i>Dar\u00fcber und am Rand zwei Punkte<\/i>.",
            "children": {
                "numero_note": "c"
            }
        },
        {
            "type": "apparat_critique",
            "value": "<i>Am Rand Notazeichen des 13. Jahrhunderts<\/i>.",
            "children": {
                "numero_note": "d"
            }
        },
        {
            "type": "apparat_critique",
            "value": "<i>Auf Rasur. <\/i>",
            "children": {
                "numero_note": "e"
            }
        },
        {
            "type": "apparat_critique",
            "value": "<i>Die Anordnung der a-pari-Briefe entspricht der des Registers.\n<\/i>",
            "children": {
                "numero_note": "f"
            }
        },
        {
            "type": "apparat_critique",
            "value": "<i>\u2002Davor ein \u00a7-Zeichen ; der ganze Vermerk ist vielleicht nachgetragen \nworden.<\/i>",
            "children": {
                "numero_note": "g"
            }
        },
        {
            "type": "apparat_critique",
            "value": "<i>Hand B2 h\u00f6rt auf. Es folgen drei leere Zeilen, die zum Nachtrag f\u00fcr a-pari-Briefe bestimmt waren.<\/i>",
            "children": {
                "numero_note": "h"
            }
        },
        {
            "type": "notes_historiques",
            "value": "Richard L\u00f6wenherz ist am 6. April 1199 an einer Wunde, die er vor der s\u00fcdwestlich von Limoges gelegenen Feste Ch\u00e2lus erhielt, gestorben. Die Nachricht hat Innocenz wohl erst nach dem 3. Mai erhalten ; vgl. TILLMANN, <i>Quell Forsch Ital Arch Bibl<\/i> 23, 53 f ; gegen sie HALLER, <i>Papsttum<\/i>, II, 2 587.",
            "children": {
                "numero_note": "1"
            }
        },
        {
            "type": "notes_historiques",
            "value": "Ueber die Zugest\u00e4ndnisse, die die Gesandten betreffs der Rekuperationen und Siziliens schriftlich machen mussten und die Otto zu ratifizieren hatte, vgl. Br. 20 Anm. 13 und HALLER, <i>Innocenz III und Otto IV<\/i>, 492 ; 482.",
            "children": {
                "numero_note": "2"
            }
        },
        {
            "type": "notes_historiques",
            "value": "Hartwich, EB. von Bremen 1184-1207. Er kam erst im Fr\u00fchjahr 1199 aus dem hl. Land zur\u00fcck.",
            "children": {
                "numero_note": "3"
            }
        },
        {
            "type": "notes_historiques",
            "value": "Zur Zweischwertertheorie vgl. J. LECLERCQ, L\u2019argument des deux glaives dans les controverses politiques du Moyen Age, RechSciencRelig 21 (1931) 299-339, bes. 330-332 ; MACCARRONE, l.c. 85-88.",
            "children": {
                "numero_note": "4"
            }
        },
        {
            "type": "notes_historiques",
            "value": "Hier keine Vermischung von Leitworten des heidnischen Imperiums mit christlicher Dogmatik, wie BURDACH, l.c. 286, will, sondern rein mittelalterlicher Augustinismus. Vgl. dazu J. FIEBACH, Die augustinischen Ideen Papst Innocenz\u2019 III als Grundlage f\u00fcr die Beurteilung seiner Stellung zum deutschen Thronstreit, Diss. Greifswald 1914.",
            "children": {
                "numero_note": "5"
            }
        },
        {
            "type": "notes_historiques",
            "value": "Zur stilistischen Abh\u00e4ngigkeit dieser Stelle von Br. 3 vgl. BLOCH, Kaiserwahlen 28 Anm. 3 ; PEITZ, Introduz. 10. \u2014 Ueber Blochs Nominationstheorie vgl. Br. 1 Anm. 13.",
            "children": {
                "numero_note": "6"
            }
        },
        {
            "type": "notes_historiques",
            "value": "Was Innocenz darunter versteht, sagt er sp\u00e4ter deutlicher ; vgl. unten Nr. 18 Anm. 24-25.",
            "children": {
                "numero_note": "7"
            }
        },
        {
            "type": "notes_historiques",
            "value": "Die Anwendung der Jeremiasstelle auf das Priestertum und Papsttum ist alte Tradition ; vgl. MACCARRONE, l.c. 28-31.",
            "children": {
                "numero_note": "8"
            }
        },
        {
            "type": "notes_historiques",
            "value": "W\u00f6rtlich entlehnt aus Decret. Grat. c. 36 Dist. 63, wo dem Metropoliten bei zwiesp\u00e4ltigen Bischofswahlen Bevorzugung des W\u00fcrdigeren zugestanden wird. V. SIMSON, Analekten zur Geschichte der deutsch. K\u00f6nigswahl, Programm Freiburg 1895 2, d\u00fcrfte zu Unrecht diesen Kanon als die kanonische Grundlage f\u00fcr das Vorgehen Innocenz\u2019 III ansehen ; es handelt sich nur um eine \u00e4ussere formale Entsprechung im Thronstreit, um Anerkennung der persona dignior. \u2014 Auf wen Innocenz das Wort \u00ab studiis \u00bb bezieht, ist nicht klar ; in den Parallelstellen von Br. 14, 62 spricht er von \u00ab studia eligentium \u00bb und \u00ab merita electorum \u00bb.",
            "children": {
                "numero_note": "9"
            }
        },
        {
            "type": "notes_historiques",
            "value": "Das \u00ab etc. \u00bb im Datum bedeutet soviel wie \u00ab Datum ut supra \u00bb ; es wird besonders gerne von Hand B1 in Reg I 85-332 gebraucht. Merkw\u00fcrdig ist freilich die freigelassene L\u00fccke.",
            "children": {
                "numero_note": "10"
            }
        },
        {
            "type": "edition_autre",
            "value": "Georgine Tangl, <i>Das Register Innocenz' III. \u00fcber die Reichsfrage 1198-1209<\/i>, Leipzig, 1923, n. 11, p. 22."
        },
        {
            "type": "regeste",
            "value": "Knipping, <i>Reg. d. EB. von K\u00f6ln<\/i>, II, 1563."
        },
        {
            "type": "destinataire",
            "value": "Le comte de Flandre"
        },
        {
            "type": "destinataire",
            "value": "Le duc de Lotharingie et marquis de Brabant"
        },
        {
            "type": "destinataire",
            "value": "L'abb\u00e9 Werdensis"
        },
        {
            "type": "destinataire",
            "value": "L'\u00e9veque de Paderborn"
        },
        {
            "type": "destinataire",
            "value": "Le comte Palatin du Rhin"
        },
        {
            "type": "destinataire",
            "value": "Le comte de Dagsbourg"
        },
        {
            "type": "destinataire",
            "value": "L'archev\u00eaque de Br\u00eame et ses suffragants"
        }
    ]
}