{
    "id": 149984,
    "name": "aposcripta-9547",
    "type": "acte",
    "url": "http:\/\/telma-chartes.irht.cnrs.fr\/aposcripta\/notice\/149984",
    "project_slug": "aposcripta",
    "project_label": "APOSCRIPTA \u2013 Lettres des papes",
    "user": "lettrespontificalesadmin",
    "last_update": "2020-10-19 16:40:07",
    "licence": "Attribution - Pas d\u2019Utilisation Commerciale - Partage dans les M\u00eames Conditions 3.0 France (CC BY-NC-SA 3.0 FR) ",
    "licence_url": "https:\/\/creativecommons.org\/licenses\/by-nc-sa\/3.0\/fr\/",
    "elements": [
        {
            "type": "pape",
            "value": "Cl\u00e9ment VII (1523-1534)"
        },
        {
            "type": "destinataire",
            "value": "Venerabiles fratres etc."
        },
        {
            "type": "date_libre",
            "value": "Die .XXVIJ. augusti 1528 anno quinto"
        },
        {
            "type": "date",
            "value": " 1528\/08\/27",
            "children": {
                "date_deb_annee": "1528",
                "date_deb_mois": "08",
                "date_deb_jour": "27"
            },
            "range": {
                "date_apres": 15280827,
                "date_avant": 15280827
            }
        },
        {
            "type": "date_lieu",
            "value": "Viterbe"
        },
        {
            "type": "genre",
            "value": "23"
        },
        {
            "type": "analyse",
            "value": "Lamenti di Clemente VII contro gli autori del saccheggio di Roma, e provvedimenti contro l\u2019eresia."
        },
        {
            "type": "sources_manuscrites",
            "value": "Arch. secr. Vatic. Clem. VII brev. min. a. MDXXVIII, III, 22, breve 627.",
            "children": {
                "type_source": "Original"
            }
        },
        {
            "type": "edition",
            "value": "Ici reprise de B. Fontana, \u00ab Documenti vaticani contro l'eresia luterana in Italia \u00bb <hi rend=\"italic\">Archivio della Reale Societ\u00e0 Romana di Storia Patria<\/hi>, 15, 1892, 15, n. 1, p. 102-103."
        },
        {
            "type": "transcription",
            "value": "<?xml version=\"1.0\" encoding=\"UTF-8\"?>\nVenerabiles fratres etc.Scimus fraternitates vestras non latere quanta ab impijs crassatoribus passa sit Apostolica Sedes mala, quantisque in periculis versata fuerit christiana religio ob temerariam nonnullorum impiorum invasionem, propterea quod exploratum habemus quam acrj dolore concusse sint mentes vestrae et quisquis Deum pie ac christiane colit. Verum tandem respexit Deus ex alto, neque passus est naviculam suam admodum fluctuantem impiorum hominum fluctibus obruj, ne fides illa, pro qua Christus oravit ut non deficeret, capite orbata suo hereticis perculcanda daretur. Eripuit enim Deus Ecclesiam suam nosque de malignantium in eam manibus restitutaque est pontificia dignitas in pristinum vigorem nobisque et Sancte huic Sedi obediunt christianissimj principes et populj omnes, qui orthodoxam fidem sequuntur ut antea consueverunt. Nos vero quod ab ipsis pontificatus nostrj initijs procuravimus, totis viribus enitimur, ut crudelia bella christianos populos et miseram presertim Italiam tam diu vexantia sopiantur : et christiani principes, quos omnes charissimorum in Christo filiorum loco habemus, pacis ac caritatis vinculo uniantur : ut ipsi cum populis suis domestica seditione liberatj arma convertant in perfidos religionis hostes vendicentque a canum manibus sanctissimum Dominj nostrj sepulcrum. Altera dein cura nostra est ut verus Dej cultus, sicubi per incuriam aut ob irrepentes hereses omissus est, restituatur, clerici honeste ac religiose vivant et tota denique christianorum vita sit, ut esse debet. Que omnia difficile consequi possumus nisi prius saeva bellorum rabies cesset. Hec igitur fraternitatibus vestris significata voluimus tum ut vos, qui hactenus ob Romane ecclesie incommoda doluistis, laetare possitis, intelligentes meliorem statum ac libertatem eius, que communis est omnium ecclesiarum mater ; tum ut alacriore animo ac securiorj mente his, que ad offitium vestrum pertinent, intendere valeatis. Estis enim vos fratres nostrj in partem sollicitudinis nobiscum a Deo vocatj pro heresum extirpatione, morum emendatione, divinj cultus augmento. Vos igitur, ut cum Dej auxilio que pro universalj bono agenda sunt facilius consequamur, in visceribus caritatis hortamur, ut publicas lytanias in ecclesijs ac diocesibus vestris haberj procuretis, ubj primum immortali Deo gratie agantur, quod Ecclesiam suam de impiorum manibus liberavit, deinde oretur pro pace atque unione omnium christianorum, ut Deus et dominus noster tandem miseratus populj sui calamitates christianis principibus spiritum pacis immittat. Vos deinde, recordatj quod sit verj pastoris offitium, operam detis ut hereses, que Dominj gregem invadere ceperunt, tollantur et solita prudentia vestra supprimantur. In eos qui ad cor redire volent benigni eritis et libenti animo veniam condonabitis : quos in errore suo pertinaces reperietis, in eos ecclesiastice ac secularis (que in tam sancto negotio minime defutura est) severitatis ultionem exercebitis. Et quia renuntiatum est nobis personas ecclesiasticas etiam in arctis religionis ordinibus professas exivisse monasterium matrimoniaque laicorum more contraxisse, que tamen urgente conscientia, si venie locum sperarent, ad pristinum vivendi institutum redirent, nos considerantes Deum peccatores quantumcunque penitentes ad se recipere, fraternitatibus vestris et earum singulis in Domino concedimus, ut in suis queque diecesibus cum omnibus istis et alijs quandocunque a Cristi fide apostatantibus, si ad Ecclesie gremium redire voluerint, dispensare valeatis, ut primum gradum in quo erant in omnibus et per omnia recuperent, et eosdem ab omnibus censuris et penis absolvere iniuncta ad arbitrium vestrum penitentia. Et quia oblatj sunt nobis dilectj filij frater Nicolaus Jacobj et frater Johannis Severinj Dacicj ordinis minorum, qui devotionis causa advenerant et ut religiosj viri ac ortodoxe fidei zelatores nos de his, que apud vos aguntur, certiores fecerunt, oportunum duximus eisdem ad vos revertentibus litteras nostras dare, ut et vos vicissim de his, que hic aguntur, siquidem ultra litteras intelligere volueritis, certiores facere possint. Quos vobis in Domino commendamus. Datum Viterbij die .XXVIJ. augusti 1528 anno quinto.\n"
        }
    ]
}