{
    "id": 26207,
    "name": "aposcripta-3286",
    "type": "acte",
    "url": "http:\/\/telma-chartes.irht.cnrs.fr\/aposcripta\/notice\/26207",
    "project_slug": "aposcripta",
    "project_label": "APOSCRIPTA \u2013 Lettres des papes",
    "user": "lettrespontificalesadmin",
    "last_update": "2020-10-19 16:27:57",
    "licence": "Attribution - Pas d\u2019Utilisation Commerciale - Partage dans les M\u00eames Conditions 3.0 France (CC BY-NC-SA 3.0 FR) ",
    "licence_url": "https:\/\/creativecommons.org\/licenses\/by-nc-sa\/3.0\/fr\/",
    "elements": [
        {
            "type": "pape",
            "value": "Pascal II (1099-1118)"
        },
        {
            "type": "date_lieu",
            "value": "Deols"
        },
        {
            "type": "date_libre",
            "value": "1107 M\u00e4rz 16 <a class=\"note\" href=\"#note-1\">1<\/a>"
        },
        {
            "type": "date",
            "value": " 1107\/03\/16",
            "children": {
                "date_deb_annee": "1107",
                "date_deb_mois": "03",
                "date_deb_jour": "16"
            },
            "range": {
                "date_apres": 11070316,
                "date_avant": 11070316
            }
        },
        {
            "type": "analyse",
            "value": "Paschalis II best\u00e4tigt dem von ihm geweihten Kloster der Charit\u00e9-sur-Loire (D. Auxerre) seine Besitzth\u00fcmer und Rechte."
        },
        {
            "type": "transcription",
            "value": "<?xml version=\"1.0\" encoding=\"UTF-8\"?>\nPaschalis episcopus servus servorum dei dilecto in Christo fratri Odoni, priori monasterii sancte Marie, quod de Caritate dicitur, et eius fratribus salutem et apostolicam benedictionem. Ad hoc in apostolice sedis regimen, domino disponente, promoti conspicimur, ut, ipso prestante, religionem augere et eius servis tuitionem debeamus inpendere. Igitur pro beate Marie semper virginis reverentia et, tam pro vestra spectabili religione quam pro venerabilis fratris nostri Hugonis, Cluniacensis abbatis2, dilectione, ad cuius curam ex Cluniacensis cenobii iure locus vester pertinet, vestris, o filii karissimi in Christo, petitionibus non difficulter accommodamus affectuma. Predecessoris siquidem nostri, sancte memorie Urbani secundi, vestigiis insistentes tam vos quam monasterium vestrum sedis apostolice auctoritate munimus, quod videlicet monasterium, eodem venerabili fratre Hugone rogante, nos currente indictione quinta decima auctore deo nostris manibus consecravimus3. Statuimus itaque, ut, quecumque hodie idem cenobium iuste possidet sive in futurum iuste atque canonice poterit adipisci, firm\u00e1 vobis vestrisque successoribus et illibata permaneant ; in quibus hec propriis nominibus duximus exprimenda : in Altisiodori episcopatu4 ecclesiam de Cona, de Aona, de Beluciano, ecclesiam sancti Lupi, sancti Petri de Boniaco cum ipsa villa. In episcopatu Senonensi5 ecclesiam de Cauarias, ecclesiam de Brenca, de monte Boio, de Castellione, de Diciaco, de Contentione, de Venedeio, ecclesiam de Cruce, sancti Sidronii, sancti Jonii, ecclesias de Joviniaco et in suburbio ecclesiam sancte Marie. In episcopatu Bituricensi6 ecclesiam de Tenconio cum burgo, de Monastelhone cum burgo, de Orolio, item de Orolio, de Birreto, capellam de monte Falconis, de Valeniaca, de Fontiniaco castro, de Nerunda, de Ulmeriaco, de Coola, sancti Sulpicii iuxta pontem Ligeris, sancte Montane, sancti Celsi. In Aurelianensi episcopatu7 ecclesiam de Crolio, sancti Laurentii in suburbio. In Nivernensi episcopatu8 ecclesiam de Galliaco, de Colongiis, de Bisca, ecclesiam sancti Honorati, sancti Sulpicii, sancti Victoris in suburbio. In episcopatu Eduensi9 ecclesias de Rocca, de monte Ansberti cum villa, de Lamencia, de Viverio, in suburbio ecclesiam sancti Rozzi. In Meldensi episcopatu10 ecclesiam de Rodolio. In Trecensi episcopatu11 ecclesias de Sedana, sancti Justi ; in Belvacensi12 ecclesiam sancti Cristofori de Araciis cum appendiciis suis ; in Suessionensi13 ecclesiam de Brena foris castrum, de Villeriis, de Montemauro ; in Carnotensi14 ecclesiam sancti Salvatoris in suburbio ; in Rotomagensi15 ecclesiam de Longa villa. In Anglica terra ecclesiam sancti Salvatoris de Bermundisia, de Noantona, de Pontefracto, ecclesiam sancte Milburgis cum universis possessionibus et appendiciis suis. Preterea decernimus, ut nulli omnino hominum liceat, idem cenobium temere perturbare aut eius possessiones auferre vel ablatas retinere, minuere vel temerariis vexationibus fatigare, sed omnia integra conserventur eorum, pro quorum sustentatione et gubernatione concessa sunt, usibus omnimodis profutura. Hoc quoque presenti capitulo subiungimus, ut nulli episcopo liceat, in vos et locum vestrum, qui videlicet de Caritate nominatur, ultionem excommunicationis exercere, quatinus ab omni servitii secularis infestatione securi omnique gravamine mundane oppressionis remoti in sancte religionis observatione seduli ac quieti, domino annuente, permaneatis, salva in omnibus Cluniacensis abbatis reverentia et obedientia, ad cuius gremium locus idem tanquam cella noscitur pertinere. Si qua sane in crastinum ecclesiastica secularisve persona hanc nostre constitutionis paginam sciens contra eam temere venire temptaverit, secundo terciove [commonita], si non satisfactione congrua emendaverit, potestatis honorisque sui dignitate careat, reamque se divino iudicio existere de perpetrata iniquitate cognoscat, et a sacratissimo corpore ac sanguine dei et domini redemptoris nostri Jesu Christi aliena fiat, atque in extremo examine districte ultioni subiaceat. Cunctis autem eidem loco iusta servantibus sit pax domini nostri Jesu Christi, quatinus et hic fructum bone actionis percipiant et apud districtum iudicem premia eterne pacis inveniant. Amen.(R) Ego Paschalis catholice ecclesie episcopus ss. (M)Datum apud monasterium Dolense, per manum .......b agentis vices cancellarii xvii Kal. Aprilis. Indictione xv. Incarnationis dominice anno mcvi. Pontificatus autem domni Paschalis secundi pape viii.\n"
        },
        {
            "type": "edition",
            "value": "Julius von Pflugk-Harttung, <i>Acta pontificum Romanorum inedita<\/i>, T\u00fcbingen, 1880, I, n. 98, p. 90"
        },
        {
            "type": "sources_manuscrites",
            "value": "Abschrift des MS. Moreau 42 fol. 140, 141, in der Bibl. Nat. zu Paris."
        },
        {
            "type": "remarques",
            "value": "\u201eAu bas et \u00e0 doubles lacs de soye cramoisi pend le sceau en plomb. \u2014 Transcrit de mot \u00e0 autre suivant l\u2019orthographe ; le dit Original sur un placard de parchemin sain entier et portant 24 pouces (0,65 M.) de hauteur sur 17 (0,46 M.) de largeur ; ce 15 Mars 1781. Lambert de Barive\u201c."
        },
        {
            "type": "apparat_critique",
            "value": "a.\u2002effectum ?",
            "children": {
                "numero_note": "a"
            }
        },
        {
            "type": "apparat_critique",
            "value": "b.\u2002Equitii <i>wird zu erg\u00e4nzen sein<\/i> (<i>vergl. Jaff\u00e9 4495, 4557<\/i>).",
            "children": {
                "numero_note": "b"
            }
        },
        {
            "type": "notes_historiques",
            "value": "<i>Di\u00f6c. Bourges.<\/i>",
            "children": {
                "numero_note": "1"
            }
        },
        {
            "type": "notes_historiques",
            "value": "<i>Hugo I de Semur, Abt von Cluny, 1049\u20131109.<\/i>",
            "children": {
                "numero_note": "2"
            }
        },
        {
            "type": "notes_historiques",
            "value": "<i>M\u00e4rz 9. Vergl. Jaff\u00e9. Reg. p. 493.<\/i>",
            "children": {
                "numero_note": "3"
            }
        },
        {
            "type": "notes_historiques",
            "value": "<i>Auxerre.<\/i>",
            "children": {
                "numero_note": "4"
            }
        },
        {
            "type": "notes_historiques",
            "value": "<i>Sens.<\/i>",
            "children": {
                "numero_note": "5"
            }
        },
        {
            "type": "notes_historiques",
            "value": "<i>Bourges.<\/i>",
            "children": {
                "numero_note": "6"
            }
        },
        {
            "type": "notes_historiques",
            "value": "<i>Orl\u00e9ans.<\/i>",
            "children": {
                "numero_note": "7"
            }
        },
        {
            "type": "notes_historiques",
            "value": "<i>Nevers.<\/i>",
            "children": {
                "numero_note": "8"
            }
        },
        {
            "type": "notes_historiques",
            "value": "<i>Autun.<\/i>",
            "children": {
                "numero_note": "9"
            }
        },
        {
            "type": "notes_historiques",
            "value": "<i>Meaux.<\/i>",
            "children": {
                "numero_note": "10"
            }
        },
        {
            "type": "notes_historiques",
            "value": "<i>Troyes.<\/i>",
            "children": {
                "numero_note": "11"
            }
        },
        {
            "type": "notes_historiques",
            "value": "<i>Beauvais.<\/i>",
            "children": {
                "numero_note": "12"
            }
        },
        {
            "type": "notes_historiques",
            "value": "<i>Soissons.<\/i>",
            "children": {
                "numero_note": "13"
            }
        },
        {
            "type": "notes_historiques",
            "value": "<i>Chartres.<\/i>",
            "children": {
                "numero_note": "14"
            }
        },
        {
            "type": "notes_historiques",
            "value": "<i>Rouen.<\/i>",
            "children": {
                "numero_note": "15"
            }
        },
        {
            "type": "genre",
            "value": "Bulle"
        }
    ]
}