{
    "id": 25776,
    "name": "aposcripta-2873",
    "type": "acte",
    "url": "http:\/\/telma-chartes.irht.cnrs.fr\/aposcripta\/notice\/25776",
    "project_slug": "aposcripta",
    "project_label": "APOSCRIPTA \u2013 Lettres des papes",
    "user": "lettrespontificalesadmin",
    "last_update": "2020-10-19 16:27:48",
    "licence": "Attribution - Pas d\u2019Utilisation Commerciale - Partage dans les M\u00eames Conditions 3.0 France (CC BY-NC-SA 3.0 FR) ",
    "licence_url": "https:\/\/creativecommons.org\/licenses\/by-nc-sa\/3.0\/fr\/",
    "elements": [
        {
            "type": "pape",
            "value": "Innocent IV (1243-1254)"
        },
        {
            "type": "destinataire",
            "value": "Corbigny (Saint-L\u00e9onard) ( abbaye de)",
            "children": {
                "numero_note": "0"
            }
        },
        {
            "type": "date_lieu",
            "value": "Latran"
        },
        {
            "type": "date_libre",
            "value": "1253, 21 d\u00e9cembre"
        },
        {
            "type": "date",
            "value": " 1253\/12\/21",
            "children": {
                "date_deb_annee": "1253",
                "date_deb_mois": "12",
                "date_deb_jour": "21"
            },
            "range": {
                "date_apres": 12531221,
                "date_avant": 12531221
            }
        },
        {
            "type": "analyse",
            "value": "Innocent IV pape confirme les biens et les privil\u00e8ges de l'abbaye de Corbigny.<br\/>Innocentius papa IV confirmat bona et privilegia monasterii Corbigniacensis."
        },
        {
            "type": "transcription",
            "value": "<?xml version=\"1.0\" encoding=\"UTF-8\"?>\nInnocentius episcopus, servus servorum Dei, dilectis filiis abbati monasterii sancti Leonardi Corbigniacensis ejusque fratribus tam presentibus quam futuris regularem vitam professis, in perpetuam memoriam. Religiosam vitam eligentibus apostolicum convenit adesse pr\u00e6sidium, ne forte cujuslibet temeritatis incursus aut eos a proposito revocet, aut robur, quod absit, sacr\u00e6 religionis infringat. Eapropter, dilecti in Domino filii, vestris justis postulationibus clementer annuimus et monasterium Sancti Leonardi Corbigniacensis, Eduensis diocesis, in quo divino estis obsequio mancipati, sub beati Petri et nostra protectione suscepimus et presentis scripti privilegio communimus. In primis siquidem statuentes, ut ordo monasticus qui secundum Deum et beati Benedicti regulam in eodem monasterio institutus esse dignoscitur perpetuis ibidem temporibus inviolabiliter observetur. Pr\u00e6terea, quascumque possessiones, qu\u00e6cumque bona idem monasterium inpresentiarum juste et canonice possidet, aut in futurum concessione pontificum, largitione regum vel principum, oblatione fidelium, seu aliis justis modis, pr\u00e6stante Domino, poterit adipisci, firma vobis vestrisque successoribus et illibata permaneant, in quibus h\u00e6c propriis duximus exponenda vocabulis: locum in quo pr\u00e6fatum monasterium situm est, cum omnibus pertinentiis suis; de Sancto Privato de Disesia, de Anliziaco, de Altobono, de Francyo, de Chevannis Gazeaulx, de Heriaco, de Nermo, de Sancta Camilla, de Reveriaco, de Anthenio, de Ruargis, de Cusiaco, de Sancta Palladia, de Villereto et de Monte Jovis domos et prioratus, cum omnibus appendiciis eorumdem; jus patronatus quod habetis in Sancti Secani, Sancti Johannis, Crucifixi de Corbigniaco, Sancti Privati de Disesia, Sancti Georgii de Anleziaco, Sancti Donati de Altobono, beat\u00e6 Mari\u00e6 de Chevannis Gazeaulx, Sancti Andochii de Heriaco, Sancti Petri de Anthonio, beate Marie de Ruargis, Sancti Prejecti de Paisiaco, Sancti Leodegarii de Bosco, Sancti Martini de Podio, et Sancti Germani de Maheria ecclesiis; jus patronatus quod habetis in ecclesiis villarum que Durellum, Anantum, Cheregnie, Sanctam Palladiam et Volclucum vulgariter appellantur; villas Germenacum, Drusiacum, Paisiacum, Vevram, Rescivum, Reneburgum, Combras, Crespigniacum, Axosium, Veciacum et Doxasium, communiter appellatas; decimas et grangias quas habetis hibidem; nemora vulgo Boscus Vartaudi, Boscus de Lorme et Boscus Aschevauldi vocata; domum quam habetis in civitate Eduensi, cum pratis, vineis, terris, nemoribus, usuagiis, pascuis in bosco et in plano, in aquis et molendinis, in viis et semitis et omnibus aliis libertatibus et immunitatibus suis sive novalium vestrarum que propriis manibus aut sumptibus colitis, de quibus aliquis hactenus non percepit, sive de vestrorum animalium nutrimentis nullus a vobis decimas exigat vel extorquere pr\u00e6sumat. Liceat quoque vobis clericos vel laycos liberos et absolutos e seculo fugientes ad conversationem recipere et eos, absque contradictione aliqua retinere. Prohibemus insuper ut nulli fratrum vestrorum post factam in monasterio vestro professionem fas sit, sine abbatis sui licentia, de eodem loco transire, arctioris religionis obtentu discedere: discedentem vero, absque communium litterarum vestrarum cautione, nullus audeat retinere. Cum autem generale interdictum terr\u00e6 fuerit, liceat vobis, clausis januis, exclusis excommunicatis et interdictis, non pulsatis campanis, suppressa voce, divina officia celebrare, dum modo causam non dederitis interdicto. Crisma vero, oleum sanctum, consecrationes altarium seu basilicarum, ordinationes clericorum qui ad ordines fuerint promovendi a diocesano suscipietis episcopo, siquidem catholicus fuerit et gratiam et communionem sacrosanct\u00e6 roman\u00e6 sedis habuerit et ea nobis voluerit, sine pravitate aliqua, exhibere. Prohibemus insuper ut infra fines parochiarum vestrarum nullus, sine assensu diocesani episcopi et vestro, capellam seu oratorium de novo construere audeat, salvis privilegiis pontificum romanorum, ad h\u00e6c novas et indebitas exactiones ab archiepiscopis, episcopis, archidiaconis seu decanis aliisque omnibus ecclesiasticis s\u00e6cularibusve personis a nobis omnino fieri prohibemus. Sepulturam quoque ipsius loci liberam esse decernimus ut eorum devotioni et extrem\u00e6 voluntati qui se illic sepeliri deliberaverint, nisi forte excommunicati vel interdicti sint, aut etiam publici usuarii, nullus obsistat, salva tamen justicia illarum ecclesiarum a quibus mortuorum corpora assumuntur. Decimas pr\u00e6terea et possessiones ad jus ecclesiarum vestrarum spectantes qu\u00e6 a laycis detinentur redimendi et liberandi de manibus eorum et ad ecclesias ad quas pertinent revocandi libere sit vobis de nostra auctoritate [potestas?]. Obeunte vero te, nunc ejusdem loci abbate, vel tuorum quolibet successorum, nullus ibi qualibet subreptionis astutia seu violentia preponatur, nisi quem fratres communi consensu vel fratrum major pars consilii sanioris, secundum Deum et beati Benedicti regulam, providerent eligendum. Paci quoque et tranquillitati vestr\u00e6 paterna imposterum sollicitudine providere volentes, auctoritate apostolica prohibemus ut infra clausulas locorum seu grangiarum vestrarum nullus rapinam seu furtum facere, ignem apponere, sanguinem fundere, hominem temere capere vel interficere, seu violentiam audeat exercere. Pr\u00e6terea omnes libertates et immunitates a predecessoribus nostris romanis pontificibus monasterio vestro concessas, necnon libertates et exemptiones s\u00e6cularium exactionum a regibus et principibus vel aliis fidelibus rationabiliter vobis indultas auctoritate apostolica confirmamus et presentis scripti privilegio communimus. Decernimus ergo ut nulli omnino hominum liceat pr\u00e6fatum monasterium temere perturbare, aut ejus possessiones aufferre, vel ablatas retinere, minuere seu quibuslibet exactionibus fatigare, sed omnia integra......... (sic) eorum pro qualibet gubernatione ac substentatione concessa sunt usibus commodis profutura, salva sedis apostolic\u00e6 auctoritate et diocesani episcopi canonica justitia, et in predictis decimis moderatione concilii generalis. Si qua igitur in futurum ecclesiastica secularisve potestas hanc nostr\u00e6 constitutionis paginam sciens contra eam temere venire temptaverit, secundo tertiove commonita, nisi reatum suum congrua satisfactione correxerit, potestatis honorisque sui careat dignitate reamque se divino judicio existat, de perpetrata iniquitate cognoscat et a sacratissimo corpore ac sanguine Dei et Domini redemptoris nostri Jesu Christi aliena fiat atque in extremo examine district\u00e6 subjaceat ultioni. Cunctis autem eidem loco sua jura servantibus sit pax Domini nostri Jesu Christi quatinus et hic fructum bon\u00e6 actionis percipiant et apud districtum judicem pr\u00e6mia \u00e6terna pacis inveniant. Amen. Rota. \u2014 Ego Innocentius catholic\u00e6 ecclesi\u00e6 episcopus. Ego Ranaldus Ostiensis et Velletrensis episcopus \u2020. Ego Stephanus Prenestinus episcopus \u2020. Ego Richardus Sancti Angeli diaconus cardinalis \u2020. Ego Octaviensis Sancte Marie in Via Lata diaconus cardinalis \u2020. Ego Petrus Sancti Georgii ad Velum Aureum diaconus cardinalis \u2020. Ego Johannes Sancti Nicolai in Carcere Tulliano diaconus cardinalis \u2020. Ego Willelmus Sancti Eustachii diaconus cardinalis \u2020. Ego Ottobonus Sancti [Adriani] diaconus cardinalis \u2020. Et in capite Bull\u00e6 est scriptum: Ego Stephanus Sanct\u00e6 Mari\u00e6 trans Tiberim tituli presbiter cardinalis. Ego frater Johannes tituli Sancti Laurentii in Lucina presbiter cardinalis. Ego frater Huguo tituli Sanct\u00e6 Sabin\u00e6 presbiter cardinalis. Datum Laterani per manum Guillelmi magistri scolarum Parmensium sanct\u00e6 Mari\u00e6 (sic) ecclesi\u00e6 vice cancellarii, XII kalendas januarii indictione XII, incarnationis Dominic\u00e6 anno M.CC.LIII\u00ba, pontificatus vero Innocentii pap\u00e6 quarti anno undecimo.\n"
        },
        {
            "type": "edition",
            "value": "Ici tir\u00e9e du projet <i>CBMA - Corpus Burgundiae Medii Aevi<\/i>, document 7588. Site du projet Corpus de la Bourgogne du Moyen \u00c2ge, [En ligne] <a href=\"http:\/\/www.cbma-project.eu\" target=\"_blank\">http:\/\/www.cbma-project.eu<\/a>  "
        },
        {
            "type": "sources_manuscrites",
            "value": "\u00e0 renseigner."
        },
        {
            "type": "remarques",
            "value": "\r\n\r\n D'apr\u00e8s copie faite par dom Guillaume Aubr\u00e9e, religieux de Saint-B\u00e9nigne de Dijon, Collection de Bourgogne, t. 108, fol. 37."
        },
        {
            "type": "edition_autre",
            "value": "Ici reprise de Anatole de Charmasse, <i>Chartes de l'abbaye de Corbigny<\/i>, Autun\u00a0: Dejussieu P\u00e8re et Fils, 1889 <a href=\"http:\/\/gallica.bnf.fr\/ark:\/12148\/bpt6k82104r.r\" target=\"_blank\">[en ligne]<\/a>, p. 27-30, n\u00b0 XXII.",
            "children": {
                "numero_note": "0"
            }
        },
        {
            "type": "genre",
            "value": "Bulle"
        }
    ]
}