{
    "id": 23839,
    "name": "aposcripta-1037",
    "type": "acte",
    "url": "http:\/\/telma-chartes.irht.cnrs.fr\/aposcripta\/notice\/23839",
    "project_slug": "aposcripta",
    "project_label": "APOSCRIPTA \u2013 Lettres des papes",
    "user": "l_valliere",
    "last_update": "2020-10-19 16:27:19",
    "licence": "Attribution - Pas d\u2019Utilisation Commerciale - Partage dans les M\u00eames Conditions 3.0 France (CC BY-NC-SA 3.0 FR) ",
    "licence_url": "https:\/\/creativecommons.org\/licenses\/by-nc-sa\/3.0\/fr\/",
    "elements": [
        {
            "type": "pape",
            "value": "Innocent IV (1243-1254)"
        },
        {
            "type": "destinataire",
            "value": "Le comte de Toulouse Raymond VII."
        },
        {
            "type": "date_libre",
            "value": "Idibus maii, anno secundo"
        },
        {
            "type": "date",
            "value": " 1245\/05\/15",
            "children": {
                "date_deb_jour": "15",
                "date_deb_mois": "05",
                "date_deb_annee": "1245"
            },
            "range": {
                "date_apres": 12450515,
                "date_avant": 12450515
            }
        },
        {
            "type": "date_lieu",
            "value": "Lyon"
        },
        {
            "type": "genre",
            "value": "Titre, g\u00e9n\u00e9ral (littere gratiose, cum filo serico)"
        },
        {
            "type": "analyse",
            "value": "Innocentius papa IV nobili viro comiti Tholosano concedit ut in locis interdicto suppositis ecclesiastico ei liceat cum familiaribus suis audire divina officia, januis clausis, non pulsatis campanis, submissa voce, excommunicatis et interdictis exclusis, et dummodo ipse causam interdicto non dederit vel id non contingat ei specialiter interdici."
        },
        {
            "type": "sources_manuscrites",
            "value": "E. FRANCE, Paris, Archives nationales, J 690\/131 (2). Original scell\u00e9 (bulle de plomb sur lacs de soie rouge et jaune ; voyez l'<i>Inventaire<\/i>, n. 6048).",
            "children": {
                "type_source": "Exp\u00e9dition"
            }
        },
        {
            "type": "remarques",
            "value": "\u00e0 \u00e9diter - Absente des registres"
        },
        {
            "type": "transcription",
            "value": "<?xml version=\"1.0\" encoding=\"UTF-8\"?>\nSolet annuere Sedes apostolica , etc. Datum Lugduni, idus maii, pontificatus nostri anno secundo.\n"
        },
        {
            "type": "regeste",
            "value": "Alexandre Teulet, <i>Layettes du Tr\u00e9sor des chartes<\/i>, II, Paris : Henri Plon, 1866 <a target=\"_blank\" href=\"http:\/\/gallica.bnf.fr\/ark:\/12148\/bpt6k31580p\/f656.image\"> [en ligne]<\/a>, n. 3348, p. 567 <a target=\"_blank\" href=\" https:\/\/francearchives.fr\/fr\/facomponent\/1b07a700c9ed46bef0c01571d8139e4bb3ea849a\">[num\u00e9ris\u00e9 sur le site des Archives de France]<\/a>, d'apr\u00e8s E."
        },
        {
            "type": "regeste",
            "value": "Potthast, <i>Regesta pontificum Romanorum<\/i>, n. 11664 <a target=\"_blank\" href=\"https:\/\/archive.org\/stream\/RegestaPontificumRomanorum\/ph#page\/n1003\/mode\/2up\"> [en ligne]<\/a>."
        },
        {
            "type": "regeste",
            "value": "Bernard Barbiche, <i>Les actes pontificaux originaux des Archives Nationales de Paris<\/i>, Cit\u00e9 du Vatican, 1975-1982, I, n. 528, p. 203, d\u2019apr\u00e8s E."
        }
    ]
}