{
    "id": 150000,
    "name": "aposcripta-9563",
    "type": "acte",
    "url": "http:\/\/telma-chartes.irht.cnrs.fr\/aposcripta\/notice\/150000",
    "project_slug": "aposcripta",
    "project_label": "APOSCRIPTA \u2013 Lettres des papes",
    "user": "lettrespontificalesadmin",
    "last_update": "2020-10-19 16:40:07",
    "licence": "Attribution - Pas d\u2019Utilisation Commerciale - Partage dans les M\u00eames Conditions 3.0 France (CC BY-NC-SA 3.0 FR) ",
    "licence_url": "https:\/\/creativecommons.org\/licenses\/by-nc-sa\/3.0\/fr\/",
    "elements": [
        {
            "type": "pape",
            "value": "Cl\u00e9ment VII (1523-1534)"
        },
        {
            "type": "destinataire",
            "value": "L'\u00e9v\u00eaque de Camerino"
        },
        {
            "type": "date_libre",
            "value": "XVJ. aprilis 1532 anno 9\u00b0."
        },
        {
            "type": "date",
            "value": " 1532\/04\/16",
            "children": {
                "date_deb_annee": "1532",
                "date_deb_mois": "04",
                "date_deb_jour": "16"
            },
            "range": {
                "date_apres": 15320416,
                "date_avant": 15320416
            }
        },
        {
            "type": "date_lieu",
            "value": "Rome"
        },
        {
            "type": "genre",
            "value": "Bref commun"
        },
        {
            "type": "analyse",
            "value": "Al vescovo di Camerino perch\u00e8 corregga la disonesta vita del suo clero, supplicante la duchessa di Camerino Caterina Cibo."
        },
        {
            "type": "sources_manuscrites",
            "value": "Arch. secr. Vatic. Clem. VII brev. min. a. MDXXXII, I, 38, breve 93.",
            "children": {
                "type_source": "Original"
            }
        },
        {
            "type": "edition",
            "value": "Ici reprise de B. Fontana, \u00ab Documenti vaticani contro l'eresia luterana in Italia \u00bb <hi rend=\"italic\">Archivio della Reale Societ\u00e0 Romana di Storia Patria<\/hi>, 15, 1892, 15, n. 1, p. 76."
        },
        {
            "type": "transcription",
            "value": "<?xml version=\"1.0\" encoding=\"UTF-8\"?>\nVenerabili fratri Antonio Jacobo episcopo Camerinensi.Venerabilis frater, salutem et apostolicam benedictionem. Non sine animi nostri molestia varijs vijs ad aures nostras pervenit clericos ac presbiteros tue civitatis et diocesis, tua seu vicarij tui negligentia, inhoneste atque etiam dissolute vivere. Quare nos huic malo pro nostro pastorali officio, ne ulterius serpat, occurrere volentes, fraternitati tue in virtute sancte obedientie iniungimus ac mandamus per presentes, ut dictum vicarium tuum moneas, quod omnibus et singulis clericis ac presbiteris dicte tue civitatis et diocesis sub censuris et penis de quibus ei videbitur ad honeste ac laudabiliter, prout eos decet, vivendum, vestes longas deferendum, ludis ac feminis se non immiscendum, a blasfemijs abstinendum sine ulteriori mora precipiat atque mandet, inobedientes et rebelles debitis penis affici faciat, ut ceteris in exemplum transeant ; in contrarium facientibus non obstantibus quibuscunque. Quod si te fecisse vicariumque tuum premissa executioni demandasse intellexerimus, nobis erit admodum gratum ; sin minus, nos de idoneo vicario, pro dicto officio nostro et pro honestate clericorum et presbiterorum tue cure creditorum et pro illorum animarum salute et ne laici scandalizentur, ecclesiae tuae providere cogemur. Tu itaque, qui prudens es, rebus his consule et diligenter occurre. Datum Rome et c. die .XVJ. aprilis 1532 anno 9\u00b0.Evangelista. (foris) Supplicante ducissa Camerini.\n"
        }
    ]
}