{
    "id": 24321,
    "name": "aposcripta-1472",
    "type": "acte",
    "url": "http:\/\/telma-chartes.irht.cnrs.fr\/aposcripta\/notice\/24321",
    "project_slug": "aposcripta",
    "project_label": "APOSCRIPTA \u2013 Lettres des papes",
    "user": "lettrespontificalesadmin",
    "last_update": "2020-10-19 16:27:28",
    "licence": "Attribution - Pas d\u2019Utilisation Commerciale - Partage dans les M\u00eames Conditions 3.0 France (CC BY-NC-SA 3.0 FR) ",
    "licence_url": "https:\/\/creativecommons.org\/licenses\/by-nc-sa\/3.0\/fr\/",
    "elements": [
        {
            "type": "pape",
            "value": "Honorius III (1216-1227)"
        },
        {
            "type": "date_lieu",
            "value": "n.c."
        },
        {
            "type": "date_libre",
            "value": "25\u00a0f\u00e9vrier 1225"
        },
        {
            "type": "date",
            "value": " 1225\/02\/25",
            "children": {
                "date_deb_annee": "1225",
                "date_deb_mois": "02",
                "date_deb_jour": "25"
            },
            "range": {
                "date_apres": 12250225,
                "date_avant": 12250225
            }
        },
        {
            "type": "analyse",
            "value": "Honorius\u00a0III recommande \u00e0 son l\u00e9gat de faire rendre justice \u00e0 Gui Chef-de-Porc."
        },
        {
            "type": "transcription",
            "value": "<?xml version=\"1.0\" encoding=\"UTF-8\"?>\nR[omano], Sancti Angeli diacono cardinali, Apostolice Sedis legato.Significavit nobis dilectus filius nobilis vir G. de Capite Porci, quod cum ipse, pro hereticis Albigensibus, se pro viribus patenter opposuerit et potenter, castrum de Balasuco et villam de Juviniacoa et quasdam terras alias ab Ecclesia Romana teneret, nobilis vir R[aimundus], natus quondam R[aimundi], comitis Tholosani, ipsum eis spolians violenter, quibusdam illa in ejus prejudiciumb detinenda concessit\u00a0; unde nobis humiliter supplicavit ut predicta sibic restitui faceremus.Nolentes igitur injuriam prefati nobilis sustinere, discretioni tue per apostolica scripta mandamus, quatenus memoratum Raimundumd et quoslibet alios predictorum illicitos detentores, ut tam ea quam illa que perceperunt ex ipsis restituant conquerenti, monitionee premissa, per censuram ecclesiasticam, appellatione remota, cognita veritate, compellasf.Datum Laterani, v kalendas martii, pontificatus nostri anno nono.\n"
        },
        {
            "type": "edition",
            "value": "Julien Rouquette, Augustin Villemagne, <i>Bullaire de l'\u00c9glise de Maguelone<\/i>, Paris, Montpellier : Picard, Valat, 1911-1914, II, n. 286-CXCV, p. 100-100"
        },
        {
            "type": "remarques",
            "value": "  Nous ne nous arr\u00eaterons pas en ce moment \u00e0 commenter cette bulle. Nous aurons occasion d\u2019y revenir, et nous traiterons alors plus longuement toute cette question. Nous verrons jusqu\u2019\u00e0 quel point \u00e9taient fond\u00e9es les r\u00e9clamations de Gui Chef-de-Porc. Notons simplement ici la d\u00e9licatesse de conscience d\u2019Honorius\u00a0III et son amour de la justice. D\u2019ailleurs d\u00e9j\u00e0, dans la bulle suivante, nous verrons que l\u2019\u00e9v\u00eaque de Maguelone r\u00e9clame Balaruc.\n\n[Rouquette-Villemagne]"
        },
        {
            "type": "apparat_critique",
            "value": "Cart.\u00a0: <i>Juviniaco<\/i>\u00a0; Bull.\u00a0: <i>Juvinihaco<\/i>.",
            "children": {
                "numero_note": "a"
            }
        },
        {
            "type": "apparat_critique",
            "value": "Bull.\u00a0: <i>prejudicium<\/i>\u00a0; Cart.\u00a0: <i>prejuditium<\/i>.",
            "children": {
                "numero_note": "b"
            }
        },
        {
            "type": "apparat_critique",
            "value": "Cart.\u00a0: <i>predicta sibi<\/i>\u00a0; Bull.\u00a0: <i>sibi predicta<\/i>.",
            "children": {
                "numero_note": "c"
            }
        },
        {
            "type": "apparat_critique",
            "value": "Cart.\u00a0: <i>Raymundum<\/i>\u00a0; Bull.\u00a0: en abr\u00e9g\u00e9.",
            "children": {
                "numero_note": "d"
            }
        },
        {
            "type": "apparat_critique",
            "value": "Bull.\u00a0: <i>monicione<\/i>\u00a0; Cart.\u00a0: en abr\u00e9g\u00e9.",
            "children": {
                "numero_note": "e"
            }
        },
        {
            "type": "apparat_critique",
            "value": "Bull.\u00a0: <i>compellas<\/i>\u00a0; Cart.\u00a0: <i>conpellas<\/i>.",
            "children": {
                "numero_note": "f"
            }
        },
        {
            "type": "bibliographie_generale",
            "value": "<i>Cart. de Maguelone<\/i>, reg.\u00a0A, fol.\u00a0244\u00a0v\u00b0",
            "children": {
                "numero_note": "0"
            }
        },
        {
            "type": "bibliographie_generale",
            "value": "<i>Bull. de Maguelone<\/i>, fol.\u00a015\u00a0r\u00b0.",
            "children": {
                "numero_note": "1"
            }
        },
        {
            "type": "genre",
            "value": "Bulle"
        }
    ]
}