{
    "id": 20683,
    "name": "aposcripta-670",
    "type": "acte",
    "url": "http:\/\/telma-chartes.irht.cnrs.fr\/aposcripta\/notice\/20683",
    "project_slug": "aposcripta",
    "project_label": "APOSCRIPTA \u2013 Lettres des papes",
    "user": "lettrespontificalesadmin",
    "last_update": "2020-10-19 16:26:52",
    "licence": "Attribution - Pas d\u2019Utilisation Commerciale - Partage dans les M\u00eames Conditions 3.0 France (CC BY-NC-SA 3.0 FR) ",
    "licence_url": "https:\/\/creativecommons.org\/licenses\/by-nc-sa\/3.0\/fr\/",
    "elements": [
        {
            "type": "pape",
            "value": "Honorius II (1124-1130)"
        },
        {
            "type": "date_lieu",
            "value": "n.c."
        },
        {
            "type": "date_libre",
            "value": "1125-30 Ian 14"
        },
        {
            "type": "analyse",
            "value": "Honorius\u00a0II Eustorgio episcopo Lemovicensi mandat, ut a clericis suis monasterio S. Petri Senonensi ablatas ecclesias restitui faciat."
        },
        {
            "type": "transcription",
            "value": "<?xml version=\"1.0\" encoding=\"UTF-8\"?>\nHonorius episcopus servus servorum Dei venerabili fratri Eu(storgio) Lemovicensium episcopo salutem et apostolicam benedictionem. Filius noster Erbertus abbas sancti Petri Senonensis super quibusdam tuis clericis conqueritur, quod ei ecclesias de Saorciaco et de Aureoludo ad suum pertinentes monasterium abstulerunt. Unde mandamus tibi, ut iniuste ablata facias ei restitui. Data Laterani XVIIII Kal. Februarii.\n"
        },
        {
            "type": "edition",
            "value": "Samuel Loewenfeld, <i>Epistolae pontificum romanorum ineditae<\/i>, Leipzig : Veit et Comp., 1885, n. 171, p. 85-86"
        },
        {
            "type": "sources_manuscrites",
            "value": "Bibl. nat. Paris. Coll. Baluze 46 fol.\u00a0383 manu s.\u00a0<span class=\"smal-caps\">xvii<\/span>."
        },
        {
            "type": "date",
            "value": "apr\u00e8s 1125\/01\/14 - avant 1130\/01\/14",
            "children": {
                "date_deb_annee": "1125",
                "date_deb_mois": "01",
                "date_deb_jour": "14",
                "date_deb_type": "apres",
                "date_fin_annee": "1130",
                "date_fin_mois": "01",
                "date_fin_jour": "14",
                "date_fin_type": "avant"
            },
            "range": {
                "date_apres": 11250114,
                "date_avant": 11300114
            }
        },
        {
            "type": "genre",
            "value": "Mandement (littere cum filo canapis)"
        }
    ]
}