{
    "id": 26062,
    "name": "aposcripta-3159",
    "type": "acte",
    "url": "http:\/\/telma-chartes.irht.cnrs.fr\/aposcripta\/notice\/26062",
    "project_slug": "aposcripta",
    "project_label": "APOSCRIPTA \u2013 Lettres des papes",
    "user": "lettrespontificalesadmin",
    "last_update": "2020-10-19 16:27:53",
    "licence": "Attribution - Pas d\u2019Utilisation Commerciale - Partage dans les M\u00eames Conditions 3.0 France (CC BY-NC-SA 3.0 FR) ",
    "licence_url": "https:\/\/creativecommons.org\/licenses\/by-nc-sa\/3.0\/fr\/",
    "elements": [
        {
            "type": "pape",
            "value": "Innocent IV (1243-1254)"
        },
        {
            "type": "destinataire",
            "value": "Ounans ( abbaye de)",
            "children": {
                "numero_note": "0"
            }
        },
        {
            "type": "date_lieu",
            "value": "Lyon"
        },
        {
            "type": "date_libre",
            "value": "1245, 11 octobre"
        },
        {
            "type": "date",
            "value": " 1245\/10\/11",
            "children": {
                "date_deb_annee": "1245",
                "date_deb_mois": "10",
                "date_deb_jour": "11"
            },
            "range": {
                "date_apres": 12451011,
                "date_avant": 12451011
            }
        },
        {
            "type": "analyse",
            "value": "Le pape Innocent confirme les possessions de l'abbaye d'Ounans (extraits). <br\/>Innocent IV place l'abbaye d'Ounans sous la protection apostolique et lui confirme ses biens\u00a0: l'emplacement du monast\u00e8re avec toutes ses d\u00e9pendances\u00a0; au finage d'Ounans, des terres pour quatre charrues et des pr\u00e9s pour 60 charret\u00e9es de foin, tels qu'ils ont \u00e9t\u00e9 d\u00e9limit\u00e9s par la donation de Gaucher de Salins et de sa m\u00e8re depuis Fracta sous l'\u00eele jusqu'au territoire de Montbarrey, un manse avec ses droits de p\u00eache et ses d\u00e9pendances, outre ses autres possessions en pr\u00e9s, vignes, terres, bois, usages et paturages dans ou hors les bois, en eau et en moulins, sur les chemins et les sentiers. Le pape confirme aussi tous les privil\u00e8ges de l'abbaye comme relevant de l'ordre cistercien, en particulier l'exemption vis-\u00e0-vis de l'ordinaire."
        },
        {
            "type": "transcription",
            "value": "<?xml version=\"1.0\" encoding=\"UTF-8\"?>\nINNOCENTIUS, EPISCOPUS SERVUS SERVORUM DEI, DILECTIS IN CHRISTO FILIABUS . . ABBATISSE MONASTERII DE ULNENS EJUSQUE SORORIBUS TAM PRESENTIBUS QUAM FUTURIS, REGULAREM VITAM PROFESSIS, IN PERPETUUM. Religiosam vitam eligentibus\u2026 Preterea quascumque possessiones\u2026 In quibus hec propriis duximus exprimenda vocabulis\u00a0: locum ipsum in quo prefatum monasterium situm est cum omnibus pertinentiis suis, terram in finibus de Ulnens ad quatuor aratra, prata etiam ad sexaginta plaustra feni, quorum pratorum hic est terminus, videlicet quicquid Walcherius Salinensis et mater ejus infra insulam habebant a Fracta usque ad terram de Montbarra, mansum piscationis cum pertinentiis suis, sicut supradicta omnia a prefato Walcherio et matre sua vobis de jure suo pia sunt devotione collata, necnon alias possessiones cum pratis, vineis, terris, nemoribus, usagiis et pascuis in bosco et plano, in aquis et molendinis, in viis et semitis et omnibus aliis libertatibus et immunitatibus suis. Sane laborum\u2026 Liceat quoque\u2026 Insuper, auctoritate apostolica inhibemus ne ullus episcopus\u2026 contra statuta Cisterciensis ordinis\u2026 Paci quoque\u2026 Decernimus ergo\u2026 Si qua igitur\u2026 R.\u00a0BV. [suscriptiones] Datum Lugduni, per manum magistri Marini, Sancte Romane Ecclesie vicecancellarii, V\u00a0idus octobris, indictione\u00a0IIIIa, incarnationis Dominice anno M\u00b0.\u00a0CC\u00b0. XL\u00b0.\u00a0V\u00b0, pontificatus vero domni INNOCENTII pape\u00a0IIII anno tertio. \n"
        },
        {
            "type": "edition",
            "value": "Ici tir\u00e9e du projet <i>CBMA - Corpus Burgundiae Medii Aevi<\/i>, document 18797. Site du projet Corpus de la Bourgogne du Moyen \u00c2ge, [En ligne] <a href=\"http:\/\/www.cbma-project.eu\" target=\"_blank\">http:\/\/www.cbma-project.eu<\/a>  "
        },
        {
            "type": "sources_manuscrites",
            "value": "\u00e0 renseigner."
        },
        {
            "type": "remarques",
            "value": "Fiche remplie d'apr\u00e8s l'\u00e9dition de B. Chauvin : s'y reporter pour la tradition et les commentaires. A. Collection priv\u00e9e. B. Vidimus, 1279, perdu ? D. Traduction, 1748, Besan\u00e7on, BM, ms.\u00a0800, annexe p.\u00a03-8. I4. fol. 16ro, cote A ; I5. fol. 2vo, cote A. a) B21. Regeste : POTTHAST, \u2014. Texte partiel de A."
        },
        {
            "type": "edition_autre",
            "value": "Ici reprise de Beno\u00eet Chauvin, Laurent Olivier, <i>Les d\u00e9buts de l\u2019abbaye d\u2019Ounans (\u2026milieu XIIe\u00a0s. \u2026)<\/i>, Travaux ... de la Soci\u00e9t\u00e9 d\u2019\u00e9mulation du Jura, 2004, p.\u00a015-32, A7.",
            "children": {
                "numero_note": "0"
            }
        },
        {
            "type": "genre",
            "value": "Privil\u00e8ge solennel"
        }
    ]
}