{
    "id": 25193,
    "name": "aposcripta-2290",
    "type": "acte",
    "url": "http:\/\/telma-chartes.irht.cnrs.fr\/aposcripta\/notice\/25193",
    "project_slug": "aposcripta",
    "project_label": "APOSCRIPTA \u2013 Lettres des papes",
    "user": "lettrespontificalesadmin",
    "last_update": "2020-10-19 16:27:41",
    "licence": "Attribution - Pas d\u2019Utilisation Commerciale - Partage dans les M\u00eames Conditions 3.0 France (CC BY-NC-SA 3.0 FR) ",
    "licence_url": "https:\/\/creativecommons.org\/licenses\/by-nc-sa\/3.0\/fr\/",
    "elements": [
        {
            "type": "pape",
            "value": "Urbain II (1088-1099)"
        },
        {
            "type": "destinataire",
            "value": "L'abb\u00e9 du monast\u00e8re de Cluny Hugues",
            "children": {
                "numero_note": "0"
            }
        },
        {
            "type": "date_lieu",
            "value": "Plaisance"
        },
        {
            "type": "date_libre",
            "value": "XVII kalendas aprilis, indictione III, anno MXCV, anno octavo"
        },
        {
            "type": "date",
            "value": " 1095\/03\/16",
            "children": {
                "date_deb_annee": "1095",
                "date_deb_mois": "03",
                "date_deb_jour": "16"
            },
            "range": {
                "date_apres": 10950316,
                "date_avant": 10950316
            }
        },
        {
            "type": "analyse",
            "value": "Le pape Urbain II confirme les possessions et les libert\u00e9s de l'abbaye de Cluny. Il conc\u00e8de en outre l'immunit\u00e9 \u00e0 une chapelle d\u00e9di\u00e9e \u00e0 saint Odon.<br\/>PRIVILEGIUM URBANI PAP\u00c6 II. ad S. Hugonem, per quod confirmat libertatem et immunitatem Monasterii Clun. et plures Ecclesias et Monasteria in diversis Regionibus sita, qu\u00e6 nominatim exprimuntur hic. Et concedit eamdem libertatem et immunitatem Capell\u00e6 sancti Odonis, qu\u00e6 nunc est Ecclesia Parochialis sancti Marcelli Clun. vill\u00e6, quam c\u00e6teris ejusdem vill\u00e6 Capellis concesserat Gregor. Papa VII."
        },
        {
            "type": "transcription",
            "value": "<?xml version=\"1.0\" encoding=\"UTF-8\"?>\n[Urbanus Episcopus servus servorum Dei, Reverendissimo Fratri Hugoni Monasterii Cluniacensis Abbati ejusque successoribus regulariter substituendis in perpetuum. Cum omnibus sanct\u00e6 Ecclesi\u00e6 filiis ex Sedis Apostolic\u00e6 auctoritate ac benevolentia debitores existamus, venerabilibus tamen personis atque locis, maxim\u00e8 qu\u00e6 Apostolic\u00e6 sedi semper specialius ac devotius adh\u00e6serunt, qu\u00e6que ampliori Religionis gloria eminent, propensiori nos convenit charitatis studio imminere. Tibi ergo, Reverendissime ac dilectissime frater, tam ex antiqua Sedis Apostolic\u00e6 familiaritate, qu\u00e0m ex nobilissima tu\u00e6, tuique C\u0153nobii Religionis reverentia, singularis \u00e0 nobis debetur pr\u00e6rogativa dilectionis. Quidquid igitur libertatis, quidquid immunitatis, quidquid auctoritatis tibi, tuisque successoribus, tuoque C\u0153nobio, per Antecessorum nostrorum Privilegia concessum fuisse constat, nos quoque hujus nostri Decreti pagina conferimus, tradimus, confirmamus. Eapropter nos Capell\u00e6 illi, quam in honore et nomine S. Odonis tua strenuitas extra Burgum, ad Orientalem partem \u00e6dificavit, eam omnino libertatem, eam immunitatem pr\u00e6sentis decreti authoritate concedimus, quam Apostolic\u00e6 memori\u00e6 pr\u00e6decessor noster Gregorius Capellis c\u00e6teris ejusdem Burgi suo privilegio confirmavit. Ad h\u00e6c adjicimus ut Monasterium sancti Austremonii de Mozaco, sanct\u00e6 Mari\u00e6 de Vizeliaco, S. Petri de Altapetra, Monasterium quod dicitur Sales, numquam tu\u00e6 tuorumque successorum ordinationi et regimini subtrahatur. Hoc ipsum de universis, qu\u00e6 inferius scripta sunt, Monasteriis, Ecclesiisve statuimus, videlicet, in Episcopatu Lugdunensi Ecclesia S. Justi, S. Desiderii: Ecclesia de Frontenaico, de Rorterio. In Matisconensi Ecclesia de Maleto, de Otgers, de Saviniaco, de Seniciaco, de Berziaco: Ecclesia S. Hippolyti, S. Martini, sanct\u00e6 Mari\u00e6 de Casellis. In Augustudinensi Ecclesia de Monrisalt, de Pulignio, de Blanchiaco, de Monte S. Joannis, de Luciaco, de Crupellis, de Milpont; Ecclesia S. Mammetis, S. Christophori. In Lingonensi, Ecclesia S. Eulali\u00e6, S. Joannis de Laona, de Trualt, de Arcu, de Vandoura, de Marmaissa, de Altars. In Basilea Ecclesia sancti Albani. In Cabilonensi, Ecclesia de Viniules. In Arvernensi, Ecclesia S. Amandi, sancti Sepulchri de Lavenna, S. Mari\u00e6 de Castello, de Canariis, de Montania, de Nigro-stabulo, de Angerolis, de Arumna. In Viennensi, Ecclesia de Artaz, Moras, Mantula, Loteng, Monte-Castaneto. In Gratianopolitano, Ecclesia de Alavart, de Avalun, de Teies, de Valbones, de Visilia. In Valentiniense, Ecclesia de Chabeuil, de Castellis, de Ales, de Urz. In Diensi Ecclesia sancti Sebastiani, sanct\u00e6 Euphemi\u00e6, sancti Petri de Trefrort, de Arun, de Aurel, de Calciun, de Castello-novo. In Tulensi, Ecclesia de Domna Maria, de Frondonis villa. In Metensi, Ecclesia de Tihencurt. In Lemovicensi, Monasterium quod dicitur Boort. In Belvacensi, Ecclesia sancti Lupi, in Sylvanectensi Ecclesia sancti Christophori. In Meldensi, Ecclesia sanct\u00e6 Mari\u00e6 de Nantolio. In Parisiensi, Ecclesia sanct\u00e6 Mari\u00e6 de Longoponte de Alneto. In Ambianensi, Ecclesia sancti Petri de Lehuno. In Morinensi, Ecclesia sancti Michaelis. In Suessionensi, Ecclesia sancti Petri de Consiaco. In Longobardia, Monasterium sancti Valeriani de Castello Rhothobio, sancti Mayoli de Papia, sancti Michaelis de Mucharione, sancti Mayoli de Castemola, sanct\u00e6 Mari\u00e6 de Feraria cum omnibus qu\u00e6 in Lomello et Lomellina Gonteranus dedit: Ecclesia sanct\u00e6 Mari\u00e6 de Lacu. In Vercellensi Episcopatu, Monasterium sancti Petri de Castellitio, sancti Joannis de Baina, sanctorum Joannis et Pauli de Sandaliano, sancti Martini de Salamone, sanct\u00e6 Mari\u00e6 Ferminiana: Ecclesia de Parione, de Calvallio, sancti Petri de Sade. In Pergamensi, Monasterium sancti Jacobi de Pontida cum his obedientiis, Presiate, Mediolaco, Portiziana, Mauringo, Glariola, Verziliano, Maglo, Sala, Vultulina: sancti Pauli cum his obedientiis, sanct\u00e6 Mari\u00e6 de Sarnecho, sancti Petri de Umbriano, sanct\u00e6 Trinitatis de Cremina, sancti Petri de Madegniaco, sancti Michaelis de Sencino, sancti Martini de Rudiliano, sanct\u00e6 Juli\u00e6 de Cazacho, sancti Thom\u00e6 de Quintiano, sancti Salvatoris de valle Camonicha, sancti Andre\u00e6 de Brigniano, sanct\u00e6 Mari\u00e6 de Canturi, sancti \u00c6gidii de Vergesima. Monasterium sancti Petri de Rodingo, sancti Petri de Provallo cum his Cellis, Trigulis, Alfianello, sancti Gabrielis de Cremona cum cellis suis, qu\u00e6 sit\u00e6 sunt in castro Fontanell\u00e6, Trigulo, Grumello, Scandolario, Brixiana juxta Virolam. In Placentia, Monasterium sancti Gregorii cum his cellis, Ecclesia sancti Leonis de Miradolo, sancti Laurentii de Cuminiaco. In Laudensi, Monasterium sancti Marci, cum his cellis sanctorum Firmi et Rustici de Fratta, sanct\u00e6 Crucis de Vicodardo, sanct\u00e6 Mari\u00e6 de Calventiano. Monasterium sancti Joannis de Vertumade cum suis Ecclesiis, sanctorum Martyrum Cassiani et Hippolyti de Vlzade, sanct\u00e6 Mari\u00e6 de Laveno, et sanct\u00e6 Heli\u00e6 de monte Veglimo cum universis appendiciis et pertinentiis suis. H\u00e6c omnia, vel qu\u00e6 in futurum Domino adjuvante poteritis adipisci, tibi tuisque successoribus ita perpetu\u00f2 regenda, disponenda ac possidenda firmamus; ut nemini umquam liceat eorum aliquid \u00e0 C\u0153nobii Cluniacensis unitate subtrahere. Porr\u00f2 sicut \u00e0 beat\u00e6 memori\u00e6 Pap\u00e6 Gregorio in Romana Synodo, et \u00e0 nobis nuper in Placentina statutum est, pr\u00e6sentis privilegii auctoritate decernimus, ut nulli sit Archiepiscopo, nulli Episcopo, nulli Apostolic\u00e6 Sedis Legato facultas, sine certo Romani Pontificis pr?cepto adversum vos aut vestrum C\u0153nobium; excommunicationis aut interdictionis proferre sententiam; neque vestra vobis invitis judicia ventilare. Dalmatic\u00e6 Sandaliorum Compagorum, Chirotecarum, et mitr\u00e6 usum in festivitatibus octo pr\u00e6cipuis, sicut tibi concessus est, ita tuis quoque successoribus pro tu\u00e6 Religionis ampliori dilectione concedimus. Si qua ver\u00f2 Ecclesiastica s\u00e6cularisve persona hujus privilegii paginam sciens, contra eam temer\u00e8 venire tentaverit, secundo tertiove commonita, si non satisfactione congrua emendaverit, potestatis honorisque dignitate careat, reamque se divino judicio existere de perpetrata iniquitate cognoscat, et \u00e0 sacratissimo Corpore ac Sanguine Dei et Domini nostri Jesu Christi aliena fiat, atque in extremo examine district\u00e6 ultioni subjaceat. Cunctis autem eidem loco justa servantibus sit pax Domini nostri Jesu Christi. Amen. Datum Placenti\u00e6 per manum Joannis sanct\u00e6 Roman\u00e6 Ecclesi\u00e6 Diaconi Cardinalis, decimo septimo Kalendas Aprilis, indictione tertia, anno Dominic\u00e6 Incarnationis M.X.C.V. Pontificatus autem Domni Vrbani secundi Pap\u00e6, anno octavo.]\n"
        },
        {
            "type": "edition",
            "value": "Ici tir\u00e9e du projet <i>CBMA - Corpus Burgundiae Medii Aevi<\/i>, document 5117. Site du projet Corpus de la Bourgogne du Moyen \u00c2ge, [En ligne] <a href=\"http:\/\/www.cbma-project.eu\" target=\"_blank\">http:\/\/www.cbma-project.eu<\/a>  "
        },
        {
            "type": "sources_manuscrites",
            "value": "A. FRANCE, Paris, Biblioth\u00e8que nationale, coll. de Bourgogne, t. 79 n. 161. Fac-simil\u00e9 publi\u00e9 par le projet \u00ab Chartes ant\u00e9rieures \u00e0 1121 conserv\u00e9es en France \u00bb<a target=\"_blank\" href=\" http:\/\/www.cn-telma.fr\/originaux\/charte1729\/\"> [en ligne]<\/a>.",
            "children": {
                "type_source": "Original"
            }
        },
        {
            "type": "remarques",
            "value": "Indications dans l'\u00e9dition des Chartes de Cluny quand Bernard et Bruel n'ont pas repris le texte : Urbanus, etc. Cum omnibus sanct\u00e6 ecclesi\u00e6 filiis, etc. (Bibl. Clun., col.\u00a0516, d\u2019apr\u00e8s E., et Bull. Clun., p.\u00a023, col.\u00a02.).(Bibl. nat. or.\u00a0161; cop.\u00a038-3; C.\u00a045; E.\u00a03; copie ancienne dans le vol.\u00a0380 de la collection Baluze.)"
        },
        {
            "type": "edition_autre",
            "value": "Ici reprise de Auguste Bernard, Alexandre Bruel, <i>Recueil des chartes de l'abbaye de Cluny<\/i>. V. <i>1091-1210<\/i>, Paris\u00a0: Imprimerie nationale, 1894 <a href=\"http:\/\/gallica.bnf.fr\/ark:\/12148\/bpt6k28911f?rk=64378;0\" target=\"_blank\">[en ligne]<\/a>, p. 41, n\u00b0 3687.",
            "children": {
                "numero_note": "0"
            }
        },
        {
            "type": "edition_autre",
            "value": "Pierre Simon, <i>Bullarium sacri Ordinis cluniacensis, complectens plurima privilegia per summos pontifices tum ipsi cluniacensi abbatiae, tum ei subditis monasteriis hactenus concessa<\/i>, Lyon : Jullieron, 1680, p. 23, col. 2-24, col. 1",
            "children": {
                "numero_note": "1"
            }
        },
        {
            "type": "genre",
            "value": "Bulle"
        }
    ]
}