{
    "id": 141894,
    "name": "aposcripta-4794",
    "type": "acte",
    "url": "http:\/\/telma-chartes.irht.cnrs.fr\/aposcripta\/notice\/141894",
    "project_slug": "aposcripta",
    "project_label": "APOSCRIPTA \u2013 Lettres des papes",
    "user": "l_valliere",
    "last_update": "2020-10-19 16:38:36",
    "licence": "Attribution - Pas d\u2019Utilisation Commerciale - Partage dans les M\u00eames Conditions 3.0 France (CC BY-NC-SA 3.0 FR) ",
    "licence_url": "https:\/\/creativecommons.org\/licenses\/by-nc-sa\/3.0\/fr\/",
    "elements": [
        {
            "type": "pape",
            "value": "L\u00e9on IX (1049-1054)"
        },
        {
            "type": "destinataire",
            "value": "L'abb\u00e9 de saint-Victor de Marseille Pierre"
        },
        {
            "type": "date_libre",
            "value": "VII idus septembris, anno II, inditione IIII"
        },
        {
            "type": "date",
            "value": " 1050\/09\/07",
            "children": {
                "date_deb_jour": "07",
                "date_deb_mois": "09",
                "date_deb_annee": "1050"
            },
            "range": {
                "date_apres": 10500907,
                "date_avant": 10500907
            }
        },
        {
            "type": "date_lieu",
            "value": "n.c."
        },
        {
            "type": "genre",
            "value": "Privil\u00e8ge solennel"
        },
        {
            "type": "analyse",
            "value": "L\u00e9on IX, pape, accorde sa protection \u00e0 Saint-Victor de Marseille et confirme \u00e0 l'abb\u00e9 Pierre le rattachement de Saint-Victor de Valence \u00e0 Saint-Victor de Marseille."
        },
        {
            "type": "sources_manuscrites",
            "value": "E. FRANCE, Marseille, Archives d\u00e9partementales des Bouches-du-Rh\u00f4ne, 1 H 25, n. 116. Fac-simil\u00e9 publi\u00e9 par le projet \u00ab Chartes ant\u00e9rieures \u00e0 1121 conserv\u00e9es en France \u00bb<a target=\"_blank\" href=\" http:\/\/www.cn-telma.fr\/originaux\/charte4054\/\"> [en ligne]<\/a>.",
            "children": {
                "type_source": "Original"
            }
        },
        {
            "type": "edition",
            "value": "Ici reprise de l'acte n. 4054 dans \u00ab Chartes originales ant\u00e9rieures \u00e0 1121 conserv\u00e9es en France \u00bb, C\u00e9dric Giraud, Jean-Baptiste Renault et Beno\u00eet-Michel Tock, \u00e9ds., Nancy : Centre de M\u00e9di\u00e9vistique Jean Schneider ; \u00e9ds \u00e9lectronique Orl\u00e9ans : Institut de Recherche et d'Histoire des Textes, 2010 (Telma), avec fac-simil\u00e9 <a target=\"_blank\" href=\" http:\/\/www.cn-telma.fr\/originaux\/charte4054\/\"> [en ligne]<\/a>."
        },
        {
            "type": "edition_autre",
            "value": "Benjamin Gu\u00e9rard, <i>Cartulaire de l'abbaye Saint-Victor de Marseille<\/i>, 2 vol., Paris, 1857, t. 1, n. 7, p. 7-8 <a target=\"_blank\" href=\" https:\/\/archive.org\/details\/cartulairedelab01mars\/page\/6\"> [en ligne]<\/a>."
        },
        {
            "type": "regeste",
            "value": "Jaff\u00e9-Loewenfeld, <i>Regesta pontificum Romanorum<\/i>, 2 vol., Leipzig, 1885-1888, n. 4236 <a target=\"_blank\" href=\" https:\/\/gallica.bnf.fr\/ark:\/12148\/bpt6k55983718\/f574.item\"> [en ligne]<\/a>."
        },
        {
            "type": "transcription",
            "value": "<?xml version=\"1.0\" encoding=\"UTF-8\"?>\nLEO, EPISCOPUS, SERVUS SERVORUM DEI, PETRO, ABBATI MONASTERII SANCTI VICTORIS MASSILIENSIS martyris et omnium apostolorum tuisque successoribus abbatibus, perpetuam in Domino salutem. Convenit apostolico moderamini pia religione pollentibus benivola compassione succurrere, et petentium desideriis congruum impertiri suffragium. Ex hoc enim lucri potissimum premium a conditore omnium Deo in sidereis arcibus promerebimur, si venerabilia loca nostris temporibus ad meliorem fuerint, Deo juvante, cultum perducta, et a lesione pravorum hominum protecta. Quia vero tu, dilectissime fili, cum ad synodum nostram Vercellensem venisti, tutamen nostr\u0229 apostolic\u0229 defensionis monasterio tuo, quod proprie est sancti Petri, supplici devotione a nobis postulasti, inclinati precibus tuis, per hujus nostr\u0229 apostolic\u0229 preceptionis seriem, predictum monasterium sancti Victoris martyris omniumque apostolorum, cui preesse meruisti, ut liberum ab omni humana conditione et jugo consistat, pro eo quod sub jure sancti Petri positum libertatem meruit adipisci, nostra apostolica auctoritate semper esse decernimus. Quin etiam interdicimus ne quicquam molestationis, quicquam violentiae vel rapinae in rebus ejusdem monasterii et etiam cellis nominatim, sacrilega manu committere audeat. Concedimus etiam ipsi vestro monasterio abbatiolam quandam sancti Victoris nomine, apud Valentinam civitatem sitam, quam nobis, in ipsa synodo ipsius civitatis, episcopus Pontius manibus reddidit nostris, et per omnia refutavit, tunc usque injuste detentam ab abbate sancti Teothfredi, ex tempore desolationis monasterii sancti Victoris; statuentes apostolica censura ne ulla umquam hominum persona, cujuscumque potestatis vel condicionis, cujuscumque sexus et aetatis, contra hanc nostr\u0229 apostolic\u0229 auctoritatis defensionem venire pertemptet. Quod qui ausus fuerit, nostri cuspide anathematis transverberatus erit usque ad dignam satisfactionem. Qui vero se ab hac presumptione custodierit, benedictionem a domino Deo consequatur, et aeternae vit\u0229 particeps efficiatur. [rota] [benevalete]. [croix] Data VII idus septembris, per manus Petri diaconi, bibliothecarii et cancellarii sanct\u0229 apostolic\u0229 Sedis, anno domni LEONIS NONI papae IIo, inditione IIIIa.\n"
        }
    ]
}