{
    "id": 149473,
    "name": "aposcripta-9036",
    "type": "acte",
    "url": "http:\/\/telma-chartes.irht.cnrs.fr\/aposcripta\/notice\/149473",
    "project_slug": "aposcripta",
    "project_label": "APOSCRIPTA \u2013 Lettres des papes",
    "user": "lettrespontificalesadmin",
    "last_update": "2020-10-19 16:39:59",
    "licence": "Attribution - Pas d\u2019Utilisation Commerciale - Partage dans les M\u00eames Conditions 3.0 France (CC BY-NC-SA 3.0 FR) ",
    "licence_url": "https:\/\/creativecommons.org\/licenses\/by-nc-sa\/3.0\/fr\/",
    "elements": [
        {
            "type": "pape",
            "value": "Innocent IV (1243-1254)"
        },
        {
            "type": "destinataire",
            "value": ". . archiepiscopo Magdeburgensi"
        },
        {
            "type": "date_libre",
            "value": "VIII idus februarii, anno XI"
        },
        {
            "type": "date",
            "value": " 1254\/02\/06",
            "children": {
                "date_deb_annee": "1254",
                "date_deb_mois": "02",
                "date_deb_jour": "06"
            },
            "range": {
                "date_apres": 12540206,
                "date_avant": 12540206
            }
        },
        {
            "type": "date_lieu",
            "value": "Lateran."
        },
        {
            "type": "sources_manuscrites",
            "value": "R. CIT\u00c9 DU VATICAN, Archivio Segreto Vaticano, <hi rend=\"italic\">Registra Vaticana<\/hi> ... Inn.\u00a0IV Reg. Vol.\u00a0III, 56; Lib.\u00a0XI, 441. Pertzii exemplar contulimus cum Regestis.",
            "children": {
                "type_source": "Registre de la chancellerie apostolique"
            }
        },
        {
            "type": "genre",
            "value": "Mandement (littere cum filo canapis)"
        },
        {
            "type": "analyse",
            "value": "Innocentius IV papa [Rudolfo] archiepiscopo Magdeburgensi, qui ad W[illelmum] regem Romanorum accedens pro recipiendis regalibus captus et spoliatus sit, concedit, ut proventus beneficiorum diocesis suae usque ad triennium vacaturorum per annum percipiat [Rodenberg]."
        },
        {
            "type": "transcription",
            "value": "<?xml version=\"1.0\" encoding=\"UTF-8\"?>\n. . archiepiscopo Magdeburgensi.Ad faciendam tibi gratiam specialem devotionis constantia, quam ad nos et Romanam ecclesiam habere dinosceris, et carissimi in Christo filii nostri W. regis Romanorum illustris precamina nos inducunt. Cum igitur, sicut ex tua et ipsius parte fuit propositum coram nobis, dum ad ipsum ab eo vocatus pro recipiendis de manu eius iuxta morem regalibus et imperii agendis accederes, captus et spoliatus in via magna, priusquam evaderes, subire te oportuerit onera expensarum: nos, eiusdem regis et tuis supplicationibus inclinati, presentium tibi auctoritate concedimus, ut proventus et redditus primi anni beneficiorum vacantium, vel que usque ad completum triennium vacare contigerit in tua civitate vel diocesi, convertere per te vel alium valeas in solutionem huiusmodi debitorum, contradictores etc. \u2014 non obstante si aliquibus de partibus illis, quod excommunicari, suspendi vel interdici aut conveniri extra certa loca non valeant, a sede apostolica sit indultum.Dat. Lateran., VIII Idus Februarii, anno XI\u00b0.\n"
        },
        {
            "type": "edition",
            "value": "Ici reprise de Karl Rodenberg, Epistolae s. XIII e regestis pontificum romanorum selectae, III, Berlin : Weidmann (MGH), 1894, n.\u00a0256, p.\u00a0219."
        },
        {
            "type": "edition_autre",
            "value": "?"
        },
        {
            "type": "regeste",
            "value": "?"
        },
        {
            "type": "bibliographie_generale",
            "value": "?"
        },
        {
            "type": "apparat_critique",
            "value": "?",
            "children": {
                "numero_note": "a"
            }
        },
        {
            "type": "apparat_critique",
            "value": "?",
            "children": {
                "numero_note": "b"
            }
        },
        {
            "type": "apparat_critique",
            "value": "?",
            "children": {
                "numero_note": "c"
            }
        },
        {
            "type": "apparat_critique",
            "value": "?",
            "children": {
                "numero_note": "d"
            }
        },
        {
            "type": "apparat_critique",
            "value": "?",
            "children": {
                "numero_note": "e"
            }
        },
        {
            "type": "apparat_critique",
            "value": "?",
            "children": {
                "numero_note": "f"
            }
        },
        {
            "type": "notes_historiques",
            "value": "?",
            "children": {
                "numero_note": "1"
            }
        },
        {
            "type": "notes_historiques",
            "value": "?",
            "children": {
                "numero_note": "2"
            }
        },
        {
            "type": "notes_historiques",
            "value": "?",
            "children": {
                "numero_note": "3"
            }
        }
    ]
}