{
    "id": 20772,
    "name": "aposcripta-759",
    "type": "acte",
    "url": "http:\/\/telma-chartes.irht.cnrs.fr\/aposcripta\/notice\/20772",
    "project_slug": "aposcripta",
    "project_label": "APOSCRIPTA \u2013 Lettres des papes",
    "user": "lettrespontificalesadmin",
    "last_update": "2020-10-19 16:26:53",
    "licence": "Attribution - Pas d\u2019Utilisation Commerciale - Partage dans les M\u00eames Conditions 3.0 France (CC BY-NC-SA 3.0 FR) ",
    "licence_url": "https:\/\/creativecommons.org\/licenses\/by-nc-sa\/3.0\/fr\/",
    "elements": [
        {
            "type": "pape",
            "value": "Alexandre III (1159-1181)"
        },
        {
            "type": "date_lieu",
            "value": "Anagni"
        },
        {
            "type": "date_libre",
            "value": "XI kalendas julii"
        },
        {
            "type": "analyse",
            "value": "Alexander\u00a0III archiepiscopo Turonensi eiusque suffraganeis abbatem fratresque Maioris monasterii commendat."
        },
        {
            "type": "transcription",
            "value": "<?xml version=\"1.0\" encoding=\"UTF-8\"?>\nAlexander episcopus, servus servorum Dei, venerabilibus fratribus Turonensi archiepiscopo1, apostolicae Sedis legato, et suffraganeis eius salutem et apostolicam benedictionem. Decet nos religiosa loca et eos, qui in eis Domino famulantur, diligere et honorare et ab injuriis malignantium defendere pariter et tueri. Inde est quod dilectos filios nostros abbatem et fratres Maioris monasterii fraternitati vestrae propensius commendamus per apostolica scripta rogantes attentius et mandantes, quatenus abbatem et fratres praescripti monasterii divini amoris intuitu et pro reverentia b. Petri et nostra aca consideratione religionis et honestatis eorum diligatis et honoretis et ab injuriis malignantium protegatis pariter et defendatis, ita quod sollicitudo vestra debeat exinde commendabilis apparere. Propterea si quando de parrochianis vestris apud vos querelam deposuerint, eos ad ablatorum restitutionem et damnorum restaurationem vel exhibitionem iustitiae sollicite moneatis et, si necesse fuerit, occasione cessante districtione ecclesiastica compellatis. Datum Anagniae XI calendas iulii.\n"
        },
        {
            "type": "edition",
            "value": "Samuel Loewenfeld, <i>Epistolae pontificum romanorum ineditae<\/i>, Leipzig : Veit et Comp., 1885, n. 260, p. 147"
        },
        {
            "type": "sources_manuscrites",
            "value": "Bibl. nat. Paris. ms. lat.\u00a012879 fol.\u00a0150<sup>b<\/sup>. Scripsit Martene.",
            "children": {
                "type_source": "Copie moderne"
            }
        },
        {
            "type": "notes_historiques",
            "value": "Bartholomaeo has litteras directas esse, docent verba\u00a0: \u201eapost. sed. legato.\u201c",
            "children": {
                "numero_note": "1"
            }
        },
        {
            "type": "apparat_critique",
            "value": "ac <i>ipse addidi<\/i>.",
            "children": {
                "numero_note": "a"
            }
        },
        {
            "type": "date",
            "value": "apr\u00e8s 1173\/06\/21 - avant 1176\/06\/21",
            "children": {
                "date_deb_annee": "1173",
                "date_deb_mois": "06",
                "date_deb_jour": "21",
                "date_deb_type": "apres",
                "date_fin_annee": "1176",
                "date_fin_mois": "06",
                "date_fin_jour": "21",
                "date_fin_type": "avant"
            },
            "range": {
                "date_apres": 11730621,
                "date_avant": 11760621
            }
        },
        {
            "type": "genre",
            "value": "Mandement (littere cum filo canapis)"
        },
        {
            "type": "destinataire",
            "value": "L'archev\u00eaque de Tours, l\u00e9gat du Si\u00e8ge apostolique, et ses suffragants"
        }
    ]
}