{
    "id": 20793,
    "name": "aposcripta-780",
    "type": "acte",
    "url": "http:\/\/telma-chartes.irht.cnrs.fr\/aposcripta\/notice\/20793",
    "project_slug": "aposcripta",
    "project_label": "APOSCRIPTA \u2013 Lettres des papes",
    "user": "lettrespontificalesadmin",
    "last_update": "2020-10-19 16:26:53",
    "licence": "Attribution - Pas d\u2019Utilisation Commerciale - Partage dans les M\u00eames Conditions 3.0 France (CC BY-NC-SA 3.0 FR) ",
    "licence_url": "https:\/\/creativecommons.org\/licenses\/by-nc-sa\/3.0\/fr\/",
    "elements": [
        {
            "type": "pape",
            "value": "Alexandre III (1159-1181)"
        },
        {
            "type": "date_lieu",
            "value": "n.c."
        },
        {
            "type": "date_libre",
            "value": "n. c."
        },
        {
            "type": "analyse",
            "value": "Alexander\u00a0III Nepesinis significat prohibiturum se esse quominus pro auxilio Viterbiensibus praestito a Conrado de Monteferrato molestiis afficiantur."
        },
        {
            "type": "transcription",
            "value": "<?xml version=\"1.0\" encoding=\"UTF-8\"?>\nEpiscopo1 et dilectis filiis consulibus et populo Nepesinis. Receptis vestre devotionis litteris, ex earum tenore perpendimus quod, quia fidelibus nostris Viterbiensibus ad mandatum nostrum sicut decuit astitistis, filius marchionis2 se molestias vobis minatur et gravamina illaturum. Verum quia non decet nos in patientia sustinere ut vos et alii fideles nostri pro occasione nostre fidelitatis ab aliis molestentur, universitati vestre presentium significatione mandamus quod praefato marchioni districte curabimus prohibere ne quam vobis molestiam inferat vel gravamen ; et si contra prohibitionem nostram, quod non credimus, venire temptaverit, eum a suo proposito taliter auctore Domino retrahemus quod a vexatione vestra desistet et alios fideles nostros non praesumet ulterius molestare.\n"
        },
        {
            "type": "edition",
            "value": "Samuel Loewenfeld, <i>Epistolae pontificum romanorum ineditae<\/i>, Leipzig : Veit et Comp., 1885, n. 281, p. 161"
        },
        {
            "type": "sources_manuscrites",
            "value": "Reg. Alex. fragm. ep.\u00a047, l.\u00a0l. fol.\u00a0123.",
            "children": {
                "type_source": "Registre de la chancellerie apostolique"
            }
        },
        {
            "type": "notes_historiques",
            "value": "Martino.",
            "children": {
                "numero_note": "1"
            }
        },
        {
            "type": "notes_historiques",
            "value": "Conradus, filius Willelmi marchionis de Monteferrato. De hoc et de rebus Viterbiensibus confer Romualdi Salern. Annales 1178 in MG. SS. XIX. 459.",
            "children": {
                "numero_note": "2"
            }
        },
        {
            "type": "date",
            "value": "1178",
            "children": {
                "date_deb_annee": "1178"
            },
            "range": {
                "date_apres": 11780000,
                "date_avant": 11789999
            }
        },
        {
            "type": "genre",
            "value": "Mandement (littere cum filo canapis)"
        },
        {
            "type": "destinataire",
            "value": "L'\u00e9v\u00eaque, les consuls et le peuple de Nepi"
        },
        {
            "type": "regeste",
            "value": "JL 13103."
        },
        {
            "type": "regeste",
            "value": "Paul Fridolin Kehr, <i>Italia pontificia<\/i>, II, Berlin : Weidmann, 1904, p. 177."
        }
    ]
}