{
    "id": 26081,
    "name": "aposcripta-3178",
    "type": "acte",
    "url": "http:\/\/telma-chartes.irht.cnrs.fr\/aposcripta\/notice\/26081",
    "project_slug": "aposcripta",
    "project_label": "APOSCRIPTA \u2013 Lettres des papes",
    "user": "lettrespontificalesadmin",
    "last_update": "2020-10-19 16:27:53",
    "licence": "Attribution - Pas d\u2019Utilisation Commerciale - Partage dans les M\u00eames Conditions 3.0 France (CC BY-NC-SA 3.0 FR) ",
    "licence_url": "https:\/\/creativecommons.org\/licenses\/by-nc-sa\/3.0\/fr\/",
    "elements": [
        {
            "type": "pape",
            "value": "Eug\u00e8ne III (1145-1153)"
        },
        {
            "type": "destinataire",
            "value": "Le Miroir ( abbaye de)",
            "children": {
                "numero_note": "0"
            }
        },
        {
            "type": "date_lieu",
            "value": "n.c."
        },
        {
            "type": "date_libre",
            "value": "1150, 20 d\u00e9cembre"
        },
        {
            "type": "date",
            "value": " 1150\/12\/20",
            "children": {
                "date_deb_annee": "1150",
                "date_deb_mois": "12",
                "date_deb_jour": "20"
            },
            "range": {
                "date_apres": 11501220,
                "date_avant": 11501220
            }
        },
        {
            "type": "analyse",
            "value": "\u00abBulle d\u2019Eug\u00e8ne pape III, qui prend et met sous la sp\u00e9ciale protection du Saint-Si\u00e8ge la maison du Miroir, tous leurs biens par eux acquis et donn\u00e9s par les pontifes, rois et princes, notamment l\u2019endroit habit\u00e9 par messieurs du Miroir avec ses d\u00e9pendances, la grange appel\u00e9e Servillia^3), celle appel\u00e9e Noms(^), celle de Gisia^), celles de Lan\u00e9sia^), de Chalandigna^7) et de Vaux^^, avec leurs d\u00e9pendances; la terre que Mr le comte Guillaume de M\u00e2con leur a donn\u00e9e, sise \u00e0 Lons-le-Saulnier, pour planter des vignes; les paturages et bois donn\u00e9s par Hubert de Colligny^9) du consentement de ses fils; ceux donn\u00e9s par Gaudefroy de L\u2019Aubespin^O), situ\u00e9s \u00e0 Vonges(71); la terre d\u2019Iscion, et la grange de L\u2019Abergement^) avec toutes ses d\u00e9pendances; et par laquelle bulle il a \u00e9t\u00e9 accord\u00e9 \u00e0 Messieurs du Miroir l\u2019exemption de d\u00eemes dans toutes les terres par eux ou \u00e0 leurs frais cultiv\u00e9es; du 20 D\u00e9cembre 1150.\u00bb (H114)."
        },
        {
            "type": "transcription",
            "value": "<?xml version=\"1.0\" encoding=\"UTF-8\"?>\n[texte manquant]\n"
        },
        {
            "type": "edition",
            "value": "Ici tir\u00e9e du projet <i>CBMA - Corpus Burgundiae Medii Aevi<\/i>, document 19360. Site du projet Corpus de la Bourgogne du Moyen \u00c2ge, [En ligne] <a href=\"http:\/\/www.cbma-project.eu\" target=\"_blank\">http:\/\/www.cbma-project.eu<\/a>  "
        },
        {
            "type": "sources_manuscrites",
            "value": "\u00e0 renseigner. Voir le r\u00e9pertoire des cartulaires sur la base CartulR: http:\/\/www.cn-telma.fr\/cartulR\/producteur402\/"
        },
        {
            "type": "remarques",
            "value": "\r\n\r\n A. Original perdu. \u2014 B. Analyse d'inventaire 1746-1747, M\u00e2con, AD Sa\u00f4ne-et-Loire, H 114 (1 AA I 2). "
        },
        {
            "type": "edition_autre",
            "value": "Ici reprise de Roch de Pillot De Coligny, <i>Chartes du Miroir (1131-1300)<\/i>, M\u00e2con, 1997, n.5. \u2014 Analyse de H 114 publi\u00e9e par Wiederhold, Papsturkunden in Frankreich, t. II p. 15",
            "children": {
                "numero_note": "0"
            }
        },
        {
            "type": "genre",
            "value": "Bulle"
        }
    ]
}