{
    "id": 24979,
    "name": "aposcripta-2106",
    "type": "acte",
    "url": "http:\/\/telma-chartes.irht.cnrs.fr\/aposcripta\/notice\/24979",
    "project_slug": "aposcripta",
    "project_label": "APOSCRIPTA \u2013 Lettres des papes",
    "user": "l_valliere",
    "last_update": "2020-10-19 16:27:38",
    "licence": "Attribution - Pas d\u2019Utilisation Commerciale - Partage dans les M\u00eames Conditions 3.0 France (CC BY-NC-SA 3.0 FR) ",
    "licence_url": "https:\/\/creativecommons.org\/licenses\/by-nc-sa\/3.0\/fr\/",
    "elements": [
        {
            "type": "pape",
            "value": "Gr\u00e9goire IX (1227-1241)"
        },
        {
            "type": "destinataire",
            "value": "Les archev\u00eaques et \u00e9v\u00eaques du royaume de France"
        },
        {
            "type": "date_libre",
            "value": "II nonas octobris, anno undecimo"
        },
        {
            "type": "date",
            "value": " 1237\/10\/06",
            "children": {
                "date_deb_jour": "06",
                "date_deb_mois": "10",
                "date_deb_annee": "1237"
            },
            "range": {
                "date_apres": 12371006,
                "date_avant": 12371006
            }
        },
        {
            "type": "date_lieu",
            "value": "Viterbe"
        },
        {
            "type": "genre",
            "value": "Mandement (littere cum filo canapis)"
        },
        {
            "type": "analyse",
            "value": "Gregorius papa IX archiepiscopis et episcopis Franciae inhibet ne interdicti sententias inconsiderate et praepropere in terras regis Franciae proferant [Teulet]. Archiepiscopis et episcopis regni Franciae, audito ex parte regis Franciae quod ipsorum aliqui ejus terram praepropere interdicto supponebant, mandat quatenus in prolatione sententiarum interdicti cum maturitate et gravitate procedant [Auvray]."
        },
        {
            "type": "sources_manuscrites",
            "value": "E. FRANCE, Paris, Archives nationales, J 686\/68. Original scell\u00e9 d'une bulle de plomb sur cordelettes de chanvre (cf. <i>Inventaire<\/i>, n. 6047).",
            "children": {
                "source_edition": "",
                "type_source": "Exp\u00e9dition"
            }
        },
        {
            "type": "sources_manuscrites",
            "value": "F. FRANCE, Paris, Biblioth\u00e8que nationale, fonds Moreau, La Porte du Theil, n. 1191, fol. 395. Copie moderne.",
            "children": {
                "type_source": "Copie moderne"
            }
        },
        {
            "type": "sources_manuscrites",
            "value": "R. CIT\u00c9 DU VATICAN, Archivio segreto Vaticano, <i>Registra Vaticana<\/i> 18, ep. 258, fol. 328v.",
            "children": {
                "type_source": "Registre de la chancellerie apostolique"
            }
        },
        {
            "type": "edition",
            "value": "Ici d'apr\u00e8s Alexandre Teulet, <i>Layettes du Tr\u00e9sor des chartes<\/i>, II, Paris : Henri Plon, 1866 <a target=\"_blank\" href=\"http:\/\/gallica.bnf.fr\/ark:\/12148\/bpt6k31580p\/f442.image\"> [en ligne]<\/a>, n. 2576, p. 353 <a target=\"_blank\" href=\"https:\/\/francearchives.fr\/fr\/facomponent\/9de07cf1a90ba393ccbb51bf4bff5369e206aebd\">[num\u00e9ris\u00e9e sur le site des Archives de France]<\/a>, d'apr\u00e8s E."
        },
        {
            "type": "regeste",
            "value": "Potthast, <i>Regesta pontificum Romanorum<\/i>, n. 10460 <a target=\"_blank\" href=\"https:\/\/archive.org\/stream\/RegestaPontificumRomanorum\/ph#page\/n899\/mode\/2up\"> [en ligne]<\/a>."
        },
        {
            "type": "regeste",
            "value": "Lucien Auvray, <i>Les registres de Gr\u00e9goire IX<\/i>, Paris, 1890-1955, n. 3901, d'apr\u00e8s R et F."
        },
        {
            "type": "regeste",
            "value": "Bernard Barbiche, <i>Les actes pontificaux originaux des Archives Nationales de Paris<\/i>, Cit\u00e9 du Vatican, 1975-1982, II, n. 406, p. 158, d\u2019apr\u00e8s E."
        },
        {
            "type": "transcription",
            "value": "<?xml version=\"1.0\" encoding=\"UTF-8\"?>\nGregorius episcopus, servus servorum Dei, venerabilibus fratribus archiepiscopis et episcopis regni Francie, salutem et apostolicam benedictionem. In divini celebratione officii non solum laus Creatoris excelsi noscitur exaltari, sed ad fidem catholicam diligentius excolendam animus singulorum instruitur, et mens devota bonorum ad dilectionem Dei fortius animatur. Propter quod ecclesiarum prelatis est subtilius precavendum ne in ecclesias nisi tunc demum sententias proferant interdicti, cum non aliter posse conspiciunt lese justitie provideri. Hinc est quod, cum sicut ex parte carissimi in Christo filii nostri Francie regis illustris nostris est auribus intimatum, aliqui vestrum terram suam ecclesiastico nimis prep[r]opere supponant interdicto, non attendentes quod exinde animarum pericula diversa contingunt et heretici audacius ad vineam Domini demoliendum insurgunt necnon quod vestram jurisditionema sic nos convenit moderari ne exinde graviora consurgunt dispendia, unde magna sperantur compendia proventura. Universitati vestre per apostolica scripta mandamus quatinus in prolatione sententiarum hujusmodi procedere cum ea maturitate et gravitate curetis quod sententia vestra medicinalis ad profectum animarum appareat et effectus justitie in aliquo non ledatur, nosque ipsi regi providere aliter non cogamur. Datum Viterbii, II nonas octobris, pontificatus nostri anno undecimo.\n"
        },
        {
            "type": "edition_autre",
            "value": "Pierre Varin, <i>Archives administratives de la ville de Reims<\/i>, I, Paris : Imprimerie de Crapelet, 1839, p. 628-629, d'apr\u00e8s E."
        },
        {
            "type": "apparat_critique",
            "value": "jurisdictionem <i>Varin<\/i>.",
            "children": {
                "numero_note": "a"
            }
        }
    ]
}