{
    "id": 146648,
    "name": "aposcripta-6267",
    "type": "acte",
    "url": "http:\/\/telma-chartes.irht.cnrs.fr\/aposcripta\/notice\/146648",
    "project_slug": "aposcripta",
    "project_label": "APOSCRIPTA \u2013 Lettres des papes",
    "user": "l_valliere",
    "last_update": "2020-10-19 16:39:21",
    "licence": "Attribution - Pas d\u2019Utilisation Commerciale - Partage dans les M\u00eames Conditions 3.0 France (CC BY-NC-SA 3.0 FR) ",
    "licence_url": "https:\/\/creativecommons.org\/licenses\/by-nc-sa\/3.0\/fr\/",
    "elements": [
        {
            "type": "pape",
            "value": "Innocent IV (1243-1254)"
        },
        {
            "type": "destinataire",
            "value": "Le prieur provincial et les fr\u00e8res des Pauvres Catholiques d'Espagne"
        },
        {
            "type": "date_libre",
            "value": "nonas maii, anno quarto"
        },
        {
            "type": "date",
            "value": "1247\/05\/07",
            "children": {
                "date_deb_annee": "1247",
                "date_deb_mois": "05",
                "date_deb_jour": "07"
            },
            "range": {
                "date_apres": 12470507,
                "date_avant": 12470507
            }
        },
        {
            "type": "date_lieu",
            "value": "Lyon"
        },
        {
            "type": "genre",
            "value": "Titre, g\u00e9n\u00e9ral (littere gratiose, cum filo serico)"
        },
        {
            "type": "analyse",
            "value": "El papa Innocenci IV escriu al prior provincial dels germans Pobres Cat\u00f2lics d\u2019Espanya per confirmar els privilegis i les seves propietats i instaurar-los sota la regla de sant Agust\u00ed<a href=\"#note-1\"><sup>1<\/sup><\/a> [Torras, Berga, Cingolani]."
        },
        {
            "type": "sources_manuscrites",
            "value": "R. CIT\u00c9 DU VATICAN, Archivio segreto Vaticano, <i>Registra Vaticana<\/i> 21, ep. 623, fol. 383v-384.",
            "children": {
                "type_source": "Registre de la chancellerie apostolique"
            }
        },
        {
            "type": "sources_manuscrites",
            "value": "F. FRANCE, Paris, Biblioth\u00e8que nationale, <i>Fonds Moreau<\/i>, t. 1196, fol. 159.",
            "children": {
                "type_source": "Copie moderne"
            }
        },
        {
            "type": "edition",
            "value": "Ici reprise de Sergi Grau Torras, Eduard Berga Salom\u00f3, Stefan\u00f3 M. Cingolani, <i>L\u2019Her\u00e8tica Pravitat a la Corona d\u2019Arag\u00f3 : documents sobre c\u00e0tars, valdesos i altres heretges (1155-1324)<\/i>, I, Barcelone : Fundaci\u00f3 Noguera, 2015, n. 164, p. 325-327."
        },
        {
            "type": "edition_autre",
            "value": "Partielle : \u00c9lie Berger, <i>Les registres d'Innocent IV<\/i>, Paris, 1884-1921, n. 2620 <a target=\"_blank\" href=\" https:\/\/gallica.bnf.fr\/ark:\/12148\/bpt6k856772t\/f485.image\"> [en ligne]<\/a>."
        },
        {
            "type": "edition_autre",
            "value": "Augusto Quintana Prieto, <i>La documentaci\u00f3n pontificia de Inocencio IV, 1243-1254<\/i>, Rome : Instituto Espa\u00f1ol de Historia Eclesi\u00e1stica, 2 vol., 1987, I, n. 397, p. 396-397."
        },
        {
            "type": "transcription",
            "value": "<?xml version=\"1.0\" encoding=\"UTF-8\"?>\n.. priori provinciali, et fratribus Pauperibus Catholicis in Ispania constitutis, tam presentibus quam futuris, regularem vitam professis in perpetuum. Religiosam vitam et cetera usque infringeret. Eapropter, dilecti in Domino filii, vestris iustis postulationibus clementer annuimus et domos vestras in quibus divino vacatis obsequio et cetera usque communimus. In primis siquidem statuentes ut ordo canonicus que, secundum Deum et beati Augustini regulam in domibus ipsis, auctoritate apostolica institutus esse dignoscitur, et cetera usque observetur. Preterea quascumque possessiones et cetera usque permaneant. In quibus hec propriis duximus exprimenda vocabulis, loca ipsa in quibus prefate domus site sunt cum pertinentiis suis, videlicet cum ecclesiis, decimis, ortis, vineis, olivetis, pratis, terris, nemoribus, usuagiis, pascuis, in bosco et plano, in aquis et molendinis et cetera usque inmunitatibus suis. Sane novalium vestrorum que propriis manibus aut sumptibus, et cetera usque presumat. Liceat quoque vobis clericos vel laicos et cetera usque retinere. Prohibemus insuper ut nulli fratrum vestrorum post factam in domibus vestris professionem et cetera usque licentia, nisi artioris religionis obtentu, de dominus ipsis discedere. Discedentem vero et cetera usque retinere. Crisma vero, oleum sanctum et cetera usque exhibere. Cum autem generale interdictum terre fuerit et cetera usque campanas, dummodo causam non dederitis interdicto et cetera usque celebrare. Prohibemus insuper ut infra fines parrochiarum vestrarum nullus, sine assensu diocesanorum episcoporum et vestro, capellam seu oratorium et cetera usque Romanorum. Ad hec novas et indebitas exactiones et cetera usque prohibemus. Sepulturam quoque locorum vestrorum liberam et cetera usque assumuntur. Decimas preterea et possessiones et cetera usque facultas. Obeunte vero te, nunc, et eorundem fratrum priore vel tuorum quolibet sucessorum et cetera usque eligendum. Paci quoque et tranquillitati vestre et cetera usque exercere. Preterea omnes libertates et cetera usque communimus. Decernimus ergo et cetera usque profutura, salva Sedis apostolice auctoritate et diocesanorum episcoporum canonica iustitia et in supradictis decimis moderatione. Si quis igitur et cetera usque ultioni. Cunctis autem eisdem domibus et cetera usque pacis inveniant. Amen. Ego Innocentius, catholice Ecclesie episcopus, suscripsi. Ego Oto, Portuensis et Sancte Rufine episcopus, suscripsi. Ego Petrus, Albanensis episcopus, suscripsi. Ego Petrus, tituli Sancti Marcelli presbiter cardinalis, suscripsi. Ego Willelmus, basilice Duodecim Apostolorum presbiter cardinalis, suscripsi. Ego frater Iohannes, tituli Sancti Laurenti in Lucina presbiter cardinalis, suscripsi. Ego frater Hugo, tituli Sancte Sabine presbiter cardinalis, suscripsi. Ego Ottavianus, Sancte Marie in Via Lata, diaconus cardinalis suscripsi. Ego Willelmus, Sancti Eustachii diaconus cardinalis, suscripsi. Datum Lugduni, per manum magistri Marini, sacte Romane Ecclesie vicecancellarii, nonas maii, indictione V, Incarnationis dominice anno MCCXLVII, pontificatus vero domini Innocentii pape IIII, anno quarto.\n"
        },
        {
            "type": "notes_historiques",
            "value": "El 10 d\u2019abril de 1247, el papa Innocenci IV escriu la butlla <i>Honestis petentium<\/i> al prior de l\u2019orde de Sant Agust\u00ed de Mil\u00e0, antics Pobres Cat\u00f2lics (c\u00f2pia coet\u00e0nia, ASV, Reg. Vat. 21, fol. 375v, n. 542 ; c\u00f2pia del segle XVIII, BNF, fons Moreau, vol. 1196, fol. 136 ; \u00e9d. Benignus Van Luijk, <i>Bullarium Ordinis Eremitarum S. Augustini. Periodus formationis, 1187-1256<\/i>, W\u00fcrzburg : Augustinus-Verlag, 1964, p. 49 ; \u00c9lie Berger, <i>Les registres d'Innocent IV<\/i>, Paris, 1884-1921, n. 2620 <a target=\"_blank\" href=\" https:\/\/gallica.bnf.fr\/ark:\/12148\/bpt6k856772t\/f471.image\"> [en ligne]<\/a> : <i>Priori et fratribus domus et ordinis sancti Augustini Mediolanensis, Pauperibus Catholicis nuncupatis, salutem et cetera. Honestis petentium desideriis libenter annuimus et ut optatum consequantur effectum favorem apostolicum impertimur. Ex parte siquidem vestra fuit nobis humiliter supplicatum, ut, cum de diversis mundi partibus in unum ad Dei obsequium congregati, psallere Domino in divinis officiis secundum modum et institutionem beati Ambrosii, prout Mediolanensis clerus utitur, nesciatis, psallendi secundum modum et ordinationem beati Gregorii, quibus utitur Ecclesia generalis, vobis de benignitate Sedis Apostolice licentiam largiremur. Nos igitur vestris in hac parte desideriis benignum impertientes assensum, vobis auctoritate presentium licentiam concedimus postulatam. Nulli ergo et cetera. Datum Lugduni, IV idus aprilis, pontificatus anno quarto<\/i>.",
            "children": {
                "numero_note": "1"
            }
        }
    ]
}