{
    "id": 26406,
    "name": "aposcripta-3485",
    "type": "acte",
    "url": "http:\/\/telma-chartes.irht.cnrs.fr\/aposcripta\/notice\/26406",
    "project_slug": "aposcripta",
    "project_label": "APOSCRIPTA \u2013 Lettres des papes",
    "user": "lettrespontificalesadmin",
    "last_update": "2020-10-19 16:28:00",
    "licence": "Attribution - Pas d\u2019Utilisation Commerciale - Partage dans les M\u00eames Conditions 3.0 France (CC BY-NC-SA 3.0 FR) ",
    "licence_url": "https:\/\/creativecommons.org\/licenses\/by-nc-sa\/3.0\/fr\/",
    "elements": [
        {
            "type": "pape",
            "value": "Alexandre III (1159-1181)"
        },
        {
            "type": "date_lieu",
            "value": "Lateran"
        },
        {
            "type": "date_libre",
            "value": "1166\u20131179 April 17"
        },
        {
            "type": "date",
            "value": "apr\u00e8s 1166\/04\/17 - avant 1179\/04\/17",
            "children": {
                "date_deb_annee": "1166",
                "date_deb_mois": "04",
                "date_deb_jour": "17",
                "date_deb_type": "apr\u00e8s",
                "date_fin_annee": "1179",
                "date_fin_mois": "04",
                "date_fin_jour": "17",
                "date_fin_type": "avant"
            },
            "range": {
                "date_apres": 11660417,
                "date_avant": 11790417
            }
        },
        {
            "type": "analyse",
            "value": "Alexander III best\u00e4tigt dem Kloster Trois-Fontaines (D. Ch\u00e2lons-sur-Marne) den Urtheilsspruch, welchen der Bischof von Troyes und der Dekan von Vitry in einer Streitsache zwischen dem Kloster und den Herrn von Bel\u00eame gef\u00e4llt haben."
        },
        {
            "type": "transcription",
            "value": "<?xml version=\"1.0\" encoding=\"UTF-8\"?>\n Alexander episcopus servus servorum dei dilectis filiis . . abbati et capitulo Trium fontium salutem et apostoli|cam benedictionem. Ex litteris venerabilis fratris nostri Trecensis episcopi et decani Vitriacensis accepimus, quod, cum ipsi de | mandato nostro causam, quam adversus Robertum et Anselmum, fratres de Beslemo, super pascuis et usurario1 nemoris eorum in Liut, que pater eorum vestro monasterio dederat, habebatis, et super fundo ipsius nemoris, quantum arcus iacere potest, quem idem .R(obertus) et A(nselmus) pia vobis devotione contulerant, et super dampnis datis, et super violenta iniectione manuum in conversos vestros suscepissent, appellatione postposita, terminandam tandem predicti viri, in iudicuma presentia constituti, vobiscum, postquam appellaveratis super his ad audientiam nostram, compositionem se fecisse dixerunt, qua fuerant omnes supradicte questiones sopite. Ceterum, quia statuta die compositionem illam, sicut promiserant, non probarunt, nec probare quiverunt, vobis possessionem plenariam et perpetuam tam predictorum pascuorum quam usurarii et fundi per sententiamb prefati iudices adiudicarunt, et predictos viros pro dampnis, quea vobisb dederant, et pro eo, quod in conversos vestros manus iniecerant violentas, decreverunt, usque ad dignam satisfactionem excommunicationis sententie subiacere. Habentes itaque ratum et firmum, quod super his factum est per iudices supradictos, possessionem illorum, que prediximus, sicut ab eis rationabiliter vobis adiudicata esta, vobis et monasterio vestro auctoritate apostolica confirmamus. Statuentes, ut nulli omnino hominum liceat, hanc paginam nostre confirmationis infringere vel ei ausub temerarioa contraireb. Si quis autem hoc attemptare presumpserit, indignationem omnipotentis dei et beatorum Petri et Pauli apostolorum | eius se noverit incursurum. \u2014 Dat. Laterani, xv Kl. Madii.\n"
        },
        {
            "type": "edition",
            "value": "Julius von Pflugk-Harttung, <i>Acta pontificum Romanorum inedita<\/i>, T\u00fcbingen, 1880, I, n. 297, p. 267"
        },
        {
            "type": "sources_manuscrites",
            "value": "Or. im Archive des D\u00e9p. Marne zu Ch\u00e2lons-sur-Marne."
        },
        {
            "type": "remarques",
            "value": "Perg. ital., br. 0,19, lang 0,19, unten umgeschlagen, durch 2 L\u00f6cher geht die rosa Seidenschnur, an der die Bulle h\u00e4ngt. Faltung der Breven."
        },
        {
            "type": "apparat_critique",
            "value": "a.\u2002<i>Auf Rasur.<\/i>",
            "children": {
                "numero_note": "a"
            }
        },
        {
            "type": "apparat_critique",
            "value": "b.\u2002<i>Theilweis auf Rasur.<\/i>",
            "children": {
                "numero_note": "b"
            }
        },
        {
            "type": "notes_historiques",
            "value": "<i>Usurarium, idem quod Usuaria : Usus fructus, jus utendi. Du Cange, Gloss. VI p. 893 ; vergl. oben S. 182 Anm. 13.<\/i>",
            "children": {
                "numero_note": "1"
            }
        },
        {
            "type": "genre",
            "value": "Bulle"
        }
    ]
}