{
    "id": 26224,
    "name": "aposcripta-3303",
    "type": "acte",
    "url": "http:\/\/telma-chartes.irht.cnrs.fr\/aposcripta\/notice\/26224",
    "project_slug": "aposcripta",
    "project_label": "APOSCRIPTA \u2013 Lettres des papes",
    "user": "lettrespontificalesadmin",
    "last_update": "2020-10-19 16:27:57",
    "licence": "Attribution - Pas d\u2019Utilisation Commerciale - Partage dans les M\u00eames Conditions 3.0 France (CC BY-NC-SA 3.0 FR) ",
    "licence_url": "https:\/\/creativecommons.org\/licenses\/by-nc-sa\/3.0\/fr\/",
    "elements": [
        {
            "type": "pape",
            "value": "Pascal II (1099-1118)"
        },
        {
            "type": "date_lieu",
            "value": "Lateran"
        },
        {
            "type": "date_libre",
            "value": "1110 Januar 3"
        },
        {
            "type": "date",
            "value": " 1110\/01\/03",
            "children": {
                "date_deb_annee": "1110",
                "date_deb_mois": "01",
                "date_deb_jour": "03"
            },
            "range": {
                "date_apres": 11100103,
                "date_avant": 11100103
            }
        },
        {
            "type": "analyse",
            "value": "Paschalis II best\u00e4tigt dem Abte Azenarius von St.-Remi de Reims die Besitzth\u00fcmer seines Klosters, bewilligt ihm das r\u00f6mische Appellationsrecht, trifft Bestimmungen wegen eines Jahrmarktes und entlastet ihn von der Verpflichtung bei der Remigiusfeier den Erzbischof zu speisen."
        },
        {
            "type": "transcription",
            "value": "<?xml version=\"1.0\" encoding=\"UTF-8\"?>\nPaschalis episcopus servus servorum dei dilecto in Christo filio Azenario, abbati venerabilis monasterii sancti Remigii, quod secus urbem Remensem situm est, eiusque successoribus regulariter promovendis in perpetuum. Sicut iniusta poscentibus nullus est tribuendus effectus, sic legitima desiderantium non est differenda peticio. Tuis igitur, fili karissime Azenari, iustis peticionibus annuentes, beati Remigii monasterium, cui deo auctore presides, decreti presentis auctoritate munimus. Statuimus enim, ut quecumque predia, quecumque bona idem beati Remigii monasterium iuste hodie possidet, quecumque etiam in futurum concessione pontificum, liberalitate principum vel oblatione fidelium legitime poterit adipisci, firma vobis vestrisque successoribus et illibata permaneant. Illud autem districtius interdicimus, ne quis deinceps in mercato, quod xii Kl. Novembris1 penes burgum fieri consuevit, preter abbatem aut abbatis ministros quicquam violenter accipiat, nullus eo convenientes ledere aut bonis suis expoliare presumat. Cenam autem, quam in duabus beati Remigii sollempnitatibus apud cenobium vestrum Remenses episcopi immodeste accipere consueverunt, cum suis sumptibus ab eodem cenobio removemus. Hec enim venerabilis frater noster Rodulfus, ecclesi\u0229 Remensis antistes2, in presentia nostra concessit et utrumque petensa privilegii auctoritate firmari. Porro tam tibi quam successoribus tuis facultatem concedimus, in causis gravioribus Romanam ecclesiam appellare, nec Remensibus episcopis liceat, vos a visitatione sedis apostolic\u0229 prohibere. Decernimus itaque, ut nulli omnino liceat, idem cenobium temere perturbare aut eius possessiones auferre vel ablatas retinere, vexationibus fatigare, sed omniab integra conserventur eorum, pro quorum sustentatione et gubernatione concessa sunt, usibus omnimodis profutura. Si qua igitur in crastinum ecclesiastica secularisve persona hanc nostr\u0229 constitutionis paginam sciens contra eam temere venire temptaverit, secundo terciove commonita, si non satisfactione congrua emendaverit, potestatis honorisque sui dignitate careat, reamque se divino iudicio existere de perpetrata iniquitate cognoscat, et a sacratissimo corpore et sanguine dei et domini nostri redemptoris Jesu Christi aliena fiat, atque in extremo examine district\u0229 ultioni subiaceat. Cunctis autem eidem loco iusta servantibus sit pax domini nostri Jesu Christi, quatinus et hic fructum bon\u0229 actionis percipiant et apud districtum iudicem etern\u0229 pacis fructum inveniant. Amen. \u2014 Scriptum per manum Johannis, scriniarii, regionarii et notarii sacri palatii.Ego Paschalis catholic\u0229 ecclesi\u0229 episcopus ss.Data Laterani, per manum Johannis, sancte Romane ecclesie diaconi cardinalis ac bibliothecarii. iii Nonas Jan. Indictione iii. Anno incarnationis dominic\u0229 mcx. Pontificatus autem domni Paschalis ii pape anno xi.\n"
        },
        {
            "type": "edition",
            "value": "Julius von Pflugk-Harttung, <i>Acta pontificum Romanorum inedita<\/i>, T\u00fcbingen, 1880, I, n. 115, p. 103"
        },
        {
            "type": "sources_manuscrites",
            "value": "Abschriften : vom 13 Jahrh. des Cart. de St.-Remi B p. 6, vom 14 Jahrh. des Cart. de St.-Remi A fol. 48"
        },
        {
            "type": "sources_manuscrites",
            "value": "in der Bibl. zu Reims."
        },
        {
            "type": "remarques",
            "value": "In den Schlussformeln sind einige Worte ausgefallen ; hominum hinter omnino, minuere vel temerariis vor vexationibus."
        },
        {
            "type": "apparat_critique",
            "value": "a.\u2002<i>Varin, Archiv. admin. de la ville de Reims I<\/i> <sup>a<\/sup> <i>p. 255 Anm. liest :<\/i> utriusque partis.",
            "children": {
                "numero_note": "a"
            }
        },
        {
            "type": "apparat_critique",
            "value": "b.\u2002omnino",
            "children": {
                "numero_note": "b"
            }
        },
        {
            "type": "notes_historiques",
            "value": "<i>October 21.<\/i>",
            "children": {
                "numero_note": "1"
            }
        },
        {
            "type": "notes_historiques",
            "value": "<i>Radulf le Verd, Erzbischof v. Reims, 1106\u20131124.<\/i>",
            "children": {
                "numero_note": "2"
            }
        },
        {
            "type": "genre",
            "value": "Bulle"
        }
    ]
}