{
    "id": 25942,
    "name": "aposcripta-3039",
    "type": "acte",
    "url": "http:\/\/telma-chartes.irht.cnrs.fr\/aposcripta\/notice\/25942",
    "project_slug": "aposcripta",
    "project_label": "APOSCRIPTA \u2013 Lettres des papes",
    "user": "lettrespontificalesadmin",
    "last_update": "2020-10-19 16:27:50",
    "licence": "Attribution - Pas d\u2019Utilisation Commerciale - Partage dans les M\u00eames Conditions 3.0 France (CC BY-NC-SA 3.0 FR) ",
    "licence_url": "https:\/\/creativecommons.org\/licenses\/by-nc-sa\/3.0\/fr\/",
    "elements": [
        {
            "type": "pape",
            "value": "Boniface VIII (1294-1303)"
        },
        {
            "type": "destinataire",
            "value": "( )",
            "children": {
                "numero_note": "0"
            }
        },
        {
            "type": "date_lieu",
            "value": "n.c."
        },
        {
            "type": "date_libre",
            "value": "3 mars 1296"
        },
        {
            "type": "date",
            "value": " 1296\/03\/03",
            "children": {
                "date_deb_annee": "1296",
                "date_deb_mois": "03",
                "date_deb_jour": "03"
            },
            "range": {
                "date_apres": 12960303,
                "date_avant": 12960303
            }
        },
        {
            "type": "analyse",
            "value": "X pape<br\/>Lettre de la confirmation dou pape que messires puet batre monoie."
        },
        {
            "type": "transcription",
            "value": "<?xml version=\"1.0\" encoding=\"UTF-8\"?>\nBonifacius, episcopus, servus servorum Dei, dilecto filio nobili viro Johanni de Cabilone, domino de Allato, salutem et apostolicam benedictionem. Grata tue devocionis merita, quibus Romanam honoras et veneraris Ecclesiam, promerentur ut personam tuam dignis favoribus et honoribus congruis accolamus. Sane petitio tua nobis exhibita continebat quod clare memorie Rodulphus, Romanorum rex, ad honores tuos et profectus intendens, licenciam cudendi monetam in terra tua ad valorem denariorum parisiensium vel minoris valoris in denariis vel obolis, prout velles et crederes expedire, tibi et heredibus tuis in perpetuum, de consensu principum, mera liberalitate concessit, prout in patentibus litteris super hoc confectis eorundem regis et principum sigillis munitis plenius asseritur contineri. Nos itaque tuis supplicationibus gratiosius inclinati, quod super hoc ab eodem rege proinde factum est, ratum habentes et gratum, id auctoritate apostolica confirmamus et presentis scripti patrocinio communimus. Nulli ergo omnino hominum liceat hanc paginam nostre confirmationis infringere vel ei ausu temerario contraire. Si quis autem hoc attemptare presumpxerit, indignationem omnipotentis Dei et beatorum Petri et Pauli, apostolorum ejus, se noverit incursurum. Datum Rome apud Sanctum Petrum, V\u00ba nonas marcii, pontificatus nostri anno secundo.\n"
        },
        {
            "type": "edition",
            "value": "Ici tir\u00e9e du projet <i>CBMA - Corpus Burgundiae Medii Aevi<\/i>, document 10259. Site du projet Corpus de la Bourgogne du Moyen \u00c2ge, [En ligne] <a href=\"http:\/\/www.cbma-project.eu\" target=\"_blank\">http:\/\/www.cbma-project.eu<\/a>  "
        },
        {
            "type": "sources_manuscrites",
            "value": "\u00e0 renseigner."
        },
        {
            "type": "remarques",
            "value": ""
        },
        {
            "type": "edition_autre",
            "value": "Ici reprise de Bernard Prost, Symphorien Bougenot, <i>Cartulaire de Hugues de Chalon (1220-1319), publi\u00e9 d'apr\u00e8s le manuscrit original du British Museum<\/i>, Lons-le-Saunier\u00a0: Lucien Declume, 1904 <a href=\"https:\/\/archive.org\/details\/cartulairedehugu00chal\" target=\"_blank\">[en ligne]<\/a>, p. 301-302, n\u00b0 432.",
            "children": {
                "numero_note": "0"
            }
        },
        {
            "type": "genre",
            "value": "Bulle"
        },
        {
            "type": "genre",
            "value": "Lettre"
        }
    ]
}