{
    "id": 147849,
    "name": "aposcripta-7467",
    "type": "acte",
    "url": "http:\/\/telma-chartes.irht.cnrs.fr\/aposcripta\/notice\/147849",
    "project_slug": "aposcripta",
    "project_label": "APOSCRIPTA \u2013 Lettres des papes",
    "user": "l_valliere",
    "last_update": "2020-10-19 16:39:37",
    "licence": "Attribution - Pas d\u2019Utilisation Commerciale - Partage dans les M\u00eames Conditions 3.0 France (CC BY-NC-SA 3.0 FR) ",
    "licence_url": "https:\/\/creativecommons.org\/licenses\/by-nc-sa\/3.0\/fr\/",
    "elements": [
        {
            "type": "pape",
            "value": "Cl\u00e9ment IV (1265-1268)"
        },
        {
            "type": "destinataire",
            "value": "Les Fratri Gaudenti Loderengo et Catalano, recteurs, le conseil des 36 et tous les citoyens de Florence"
        },
        {
            "type": "genre",
            "value": "Mandement (littere cum filo canapis)"
        },
        {
            "type": "analyse",
            "value": "Papa litteris tum Florentinorum, tum Helie capellani sui certior factus, gaudet de pace inter exteros Gibellinos et Guelfos parata; [Carolo] regi Sicilie mandat, ne in Guelforum subsidium milites mittat. Florentinis injungit ut Teutonicos de suis finibus relegent, quos adhuc secum tenet Guido Novellus, nec ullam regiminis ordinationem faciant sine Guelforum partis consensu. Jacobus de Collemedio potestariam recusavit [Jordan].\nClemens IV. an die Frati (Gaudenti) Loderengo (degli Andal\u00f2) und C(atalano dei Malavolti), Rektoren, den Rat der Sechsundrei\u00dfig sowie die B\u00fcrger von Florenz: gebietet ihnen, sich nach dem Friedensschlu\u00df zwischen den exilierten Ghibellinen und Guelfen f\u00fcr die Vertreibung der deutschen (Ritter) im Gefolge des Guido Novello aus dem Gebiet von Florenz einzusetzen; untersagt ihnen, nach der Absage des von ihm als Podest\u00e0 vorgesehenen Giacomo di Collemezzo die Wahl nicht ohne die Zustimmung der Guelfen durchzuf\u00fchren, andernfalls sollen sie ihn hierf\u00fcr hinzuziehen [Thumser]."
        },
        {
            "type": "sources_manuscrites",
            "value": "R<sup>1<\/sup>. CIT\u00c9 DU VATICAN, Archivio segreto Vaticano, <i>Registra Vaticana<\/i> 30, fol. 52.",
            "children": {
                "type_source": "Formulaire, collection de lettres m\u00e9di\u00e9vale"
            }
        },
        {
            "type": "sources_manuscrites",
            "value": "R<sup>2<\/sup>. CIT\u00c9 DU VATICAN, Archivio segreto Vaticano, <i>Registra Vaticana<\/i> 33, ep. 288, fol. 51.",
            "children": {
                "type_source": "Formulaire, collection de lettres m\u00e9di\u00e9vale"
            }
        },
        {
            "type": "sources_manuscrites",
            "value": "R<sup>3<\/sup>. CIT\u00c9 DU VATICAN, Archivio segreto Vaticano, <i>Registra Vaticana<\/i> 34, fol. 77 (<i>kal. jan.<\/i>).",
            "children": {
                "type_source": "Formulaire, collection de lettres m\u00e9di\u00e9vale"
            }
        },
        {
            "type": "sources_manuscrites",
            "value": "R<sup>4<\/sup>. CIT\u00c9 DU VATICAN, Archivio segreto Vaticano, <i>Registra Vaticana<\/i> 35, ep. 289, fol. 57v (<i>Dat. etc.<\/i>).",
            "children": {
                "type_source": "Formulaire, collection de lettres m\u00e9di\u00e9vale"
            }
        },
        {
            "type": "edition",
            "value": "Ici reprise de Mathias Thumser, <i>Die Briefe Papst Clemens\u2019 IV. (1265\u20131268)<\/i>, Vorl\u00e4ufige Edition, MGH, 2015, n. 294."
        },
        {
            "type": "edition_autre",
            "value": "Edmond Mart\u00e8ne, Ursin Durand, <i>Thesaurus novus anecdotorum<\/i>, Paris, 1717, II, n. 421, col. 436 <a target=\"_blank\" href=\"https:\/\/archive.org\/stream\/ThesaurusNovusAnecdotorum2\/Thesaurus_novus_anecdotorum_2#page\/n253\/mode\/2up\"> [en ligne]<\/a>."
        },
        {
            "type": "regeste",
            "value": "Potthast, <i>Regesta pontificum Romanorum<\/i>, n. 19904 <a target=\"_blank\" href=\"https:\/\/archive.org\/stream\/RegestaPontificumRomanorum\/ph#page\/n1621\/mode\/2up\"> [en ligne]<\/a>."
        },
        {
            "type": "regeste",
            "value": "\u00c9douard Jordan, <i>Les registres de Cl\u00e9ment IV (1265-1268)<\/i>, Paris, 1893-1945, n. 1163, d\u2019apr\u00e8s R<sup>1<\/sup>, R<sup>2<\/sup>, R<sup>3<\/sup> et R<sup>4<\/sup>."
        },
        {
            "type": "transcription",
            "value": "<?xml version=\"1.0\" encoding=\"UTF-8\"?>\nDilectis filiis fratribus Lothoringo et C[athalano] rectoribus, XXXVI personis communibus et universis civibus Florentinis. Pacis bonum, quod bona continet universa, quanto utilius et communius iudicatur, tanto sincerius est querendum et inventum attentius conservandum. Pacem autem illam dumtaxat dicimus, que non tantum in verbis et fictis applausibus ostentatur, sed in cordibus radicata ipsa operum exhibitione monstratur. Alioquin illos notandos credimus, non laudandos, quos describit sermo propheticus : Qui locuntur pacem cum proximo suo, mala autem in cordibus eorundem1, cum pax vera illis solis promissa fuerit qui bone per omnia voluntatis existunt2. Sane vestris et dilecti filii magistri Helie capellani nostri, quem ad tempus pro bono statu vestro servando palatio nostro subduximus, nuper receptis litteris continentibus inter exteros gibellinos et guelfos pacem esse paratam non tamquam pro negotio solidato, sed aliquatenus inchoato ad horam exultavimus expectantes cotidie meliora. Et, ne posset occasio suboriri recidive discordie inter partes, carissimo in Christo filio nostro C[arolo] illustri regi Sicilie persuasimus et mandavimus, quod in guelforum subsidium milites nullos mitteret, quos profecto paraverat, sicut nobis per suas litteras intimarat. Nunc autem pro certo didicimus, quod Guido Novellus Dei et ecclesie pervigil inimicus multis excommunicationum sententiis irretitus cum sibi adherentibus gibellinis tenet illos Theutonicos excommunicatos et perfidos, quos tenebat, cum vobiscum Florentie moraretur, quod quale preferat pacis indicium, satis est omnibus manifestum. Nolentes igitur exponere guelfos discrimini, qui nobis et regi predicto constanter et fideliter servierunt, vobis universis et singulis sub debito iuramenti, quo nobis tenemini, per apostolica scripta districte precipiendo, mandamus quatenus ad relegandos de vestris finibus dictos Theutonicos maledictos totis viribus detis opem et operam efficacem. Quod si factum infra octo dies a presentium receptione non fuerit, solvemus vincula manus regie et mitti militiam procurabimus, que fidelibus in auxilio et infidelibus in excidio pro singulorum meritis Dei fulta presidio respondebit. Demum, quia dilectus filius Iacobus de Colle Medio, quem preficere vobis voluimus potestatem, ex causis probabilibus oblatum sibi recusavit officium nec pacem vestram credamus nomine pacis dignam, sub eiusdem debito iuramenti vobis districtius inhibemus, ne ad novi ordinationem regiminis sine partis guelforum procedatis assensu, vel, si hoc vobis videtur difficile, mittatis ad nos personas sufficienter instructas, quarum consiliis informati bonam vobis valeamus eligere potestatem. Quod si secus attemptaveritis, id decernimus irritum et inane processuri ad alia, prout expedire viderimus et vestra contumacia suadebit. Datum Viterbii, VI kalendas ianuarii, anno II.\n"
        },
        {
            "type": "date",
            "value": "1266\/12\/27",
            "children": {
                "date_deb_annee": "1266",
                "date_deb_mois": "12",
                "date_deb_jour": "27"
            },
            "range": {
                "date_apres": 12661227,
                "date_avant": 12661227
            }
        },
        {
            "type": "date_libre",
            "value": "VI kalendas januarii, anno secundo"
        },
        {
            "type": "date_lieu",
            "value": "Viterbe"
        },
        {
            "type": "bibliographie_generale",
            "value": "Mathias Thumser, \u00ab Zur \u00dcberlieferungsgeschichte der Briefe Clemens'IV. (1265-1268) \u00bb, <i>Deutsches Archiv f\u00fcr Erforschung des Mittelalters<\/i>, 51\/1, 1995, p. 115-168."
        },
        {
            "type": "notes_historiques",
            "value": "Ps. (G) 27,3.",
            "children": {
                "numero_note": "1"
            }
        },
        {
            "type": "notes_historiques",
            "value": "Voir Luc 2, 14.",
            "children": {
                "numero_note": "2"
            }
        }
    ]
}