{
    "id": 25892,
    "name": "aposcripta-2989",
    "type": "acte",
    "url": "http:\/\/telma-chartes.irht.cnrs.fr\/aposcripta\/notice\/25892",
    "project_slug": "aposcripta",
    "project_label": "APOSCRIPTA \u2013 Lettres des papes",
    "user": "lettrespontificalesadmin",
    "last_update": "2020-10-19 16:27:50",
    "licence": "Attribution - Pas d\u2019Utilisation Commerciale - Partage dans les M\u00eames Conditions 3.0 France (CC BY-NC-SA 3.0 FR) ",
    "licence_url": "https:\/\/creativecommons.org\/licenses\/by-nc-sa\/3.0\/fr\/",
    "elements": [
        {
            "type": "pape",
            "value": "Innocent IV (1243-1254)"
        },
        {
            "type": "destinataire",
            "value": "( )",
            "children": {
                "numero_note": "0"
            }
        },
        {
            "type": "date_lieu",
            "value": "Lyon"
        },
        {
            "type": "date_libre",
            "value": "Nonis februarii, anno V"
        },
        {
            "type": "date",
            "value": " 1247\/02\/05",
            "children": {
                "date_deb_annee": "1247",
                "date_deb_mois": "02",
                "date_deb_jour": "05"
            },
            "range": {
                "date_apres": 12470205,
                "date_avant": 12470205
            }
        },
        {
            "type": "analyse",
            "value": "X pape<br\/>Bulle du pape Innocent IV accordant 40 jours d\u2019indulgences \u00e0 ceux et \u00e0 celles qui, ayant confess\u00e9 leurs p\u00e9ch\u00e9s, visiteront l\u2019\u00e9glise de Pontigny, le jour de la translation du corps de saint Edme qui y est inhum\u00e9."
        },
        {
            "type": "transcription",
            "value": "<?xml version=\"1.0\" encoding=\"UTF-8\"?>\nInnocentius, episcopus, servus servorum Dei, dilecto filio........ abbati et conventui monasterii Pontiniacensis, Cisterciensis ordinis, Autissiod. diocesis, salutem et apostolicam benedictionem. In sanctorum festivitatibus qu\u00e6 a Christi fidelibus votiva celebritate coluntur, dignis laudibus glorificatur Omnipotens, sanctis ipsis debitus honor impenditur, et animarum profectus devotione congrua procuratur. Unde nos, qui fidelium ipsorum curam gerimus generalem, cum pr\u00e6 omnibus qu\u00e6 nostr\u00e6 incumbunt sollicitudini ad eorumdem salutem intendere teneamur, multo desiderio cupimus ut illorum memoriam quos, exutos jam corpore, stola glori\u00e6 induit Rex c\u0153lestis, venerabiliter recolentes, ipsorum festa et celebri agant observantia, et solemnitate annua prosequantur; ac ut tanto accuratius ad eorum cultum se pr\u00e6parent, quanto plus ipsum animabus senserint profuturum; cum nonnunquam insigniis spiritualibus, indulgentiis, videlicet, et remissionibus magnificare studemus, ipsas devote illum exequentibus benignitate apostolica largiendo. Hinc est quod cum in ecclesia vestra corpus S. Edmundi quiescat, nos ipsum digna coli reverentia cupientes, omnibus, tam viris quam mulieribus vere p\u0153nitentibus et confessis, qui ad eamdem ecclesiam in die Translationis ipsius sancti, in quo easdem mulieres libere ipsam ecclesiam intrare concedimus, pura intentione accesserint annuatim, de omnipotentis Dei misericordia et beatorum Petri et Pauli apostolorum ejus auctoritate confisi, quadraginta dies de injuncta sibi p\u0153nitentia misericorditer relaxamus. Datum Lugduni, nonis februarii, pontificatus nostri anno V.\n"
        },
        {
            "type": "edition",
            "value": "Ici tir\u00e9e du projet <i>CBMA - Corpus Burgundiae Medii Aevi<\/i>, document 9189. Site du projet Corpus de la Bourgogne du Moyen \u00c2ge, [En ligne] <a href=\"http:\/\/www.cbma-project.eu\" target=\"_blank\">http:\/\/www.cbma-project.eu<\/a>  "
        },
        {
            "type": "sources_manuscrites",
            "value": "\u00e0 renseigner."
        },
        {
            "type": "remarques",
            "value": "\r\n\r\n Mart\u00e8ne, Thes. nov. Anecdot., t.\u00a0III, col.\u00a01920."
        },
        {
            "type": "edition_autre",
            "value": "Ici reprise de Maximilien Quantin, <i>Recueil de pi\u00e8ces pour faire suite au Cartulaire g\u00e9n\u00e9ral de l'Yonne : XIIIe si\u00e8cle<\/i>, Auxerre : Soci\u00e9t\u00e9 des sciences historiques et naturelles de l'Yonne, 1873, p. , n\u00b0 512.",
            "children": {
                "numero_note": "0"
            }
        },
        {
            "type": "genre",
            "value": "Lettre"
        }
    ]
}