{
    "id": 148203,
    "name": "aposcripta-7819",
    "type": "acte",
    "url": "http:\/\/telma-chartes.irht.cnrs.fr\/aposcripta\/notice\/148203",
    "project_slug": "aposcripta",
    "project_label": "APOSCRIPTA \u2013 Lettres des papes",
    "user": "l_valliere",
    "last_update": "2020-10-19 16:39:42",
    "licence": "Attribution - Pas d\u2019Utilisation Commerciale - Partage dans les M\u00eames Conditions 3.0 France (CC BY-NC-SA 3.0 FR) ",
    "licence_url": "https:\/\/creativecommons.org\/licenses\/by-nc-sa\/3.0\/fr\/",
    "elements": [
        {
            "type": "pape",
            "value": "Cl\u00e9ment IV (1265-1268)"
        },
        {
            "type": "destinataire",
            "value": "Le pr\u00e9v\u00f4t, l'archidiacre et tous les autres chanoines de l'\u00e9glise de Tarragone"
        },
        {
            "type": "date_libre",
            "value": "VII idus junii, anno quarto"
        },
        {
            "type": "date",
            "value": "1268\/06\/07",
            "children": {
                "date_deb_annee": "1268",
                "date_deb_mois": "06",
                "date_deb_jour": "07"
            },
            "range": {
                "date_apres": 12680607,
                "date_avant": 12680607
            }
        },
        {
            "type": "date_lieu",
            "value": "Viterbe"
        },
        {
            "type": "genre",
            "value": "Mandement (littere cum filo canapis)"
        },
        {
            "type": "analyse",
            "value": "Eos, ut securius eorum ecclesie viduate pastore providere valeant, ab omnibus et singulis sententiis a canone sive ab homine promulgatis absolvit; quas incurrerant occasione discordie inter eos et quondam Terraconensem archiepiscopum exorte, vel eo quod decimam J[acobo] regi Aragonum concessam non solvissent [Jordan].\nClemens IV. an Propst, Archidiakon und Kanoniker von Tarragona: erteilt ihnen angesichts der ausstehenden Neuwahl ihres Erzbischofs eine Generalabsolution von allen Kirchenstrafen, denen sie wegen ihres Konfliktes mit dem verstorbenen Erzbischof B(enedictus de Rocaberti) und wegen der unterlassenen Zehntzahlungen an K\u00f6nig J(akob I.) von Arag\u00f3n verfallen waren [Thumser]."
        },
        {
            "type": "sources_manuscrites",
            "value": "R<sup>1<\/sup>. CIT\u00c9 DU VATICAN, Archivio segreto Vaticano, <i>Registra Vaticana<\/i> 30, fol. 82.",
            "children": {
                "type_source": "Formulaire, collection de lettres m\u00e9di\u00e9vale"
            }
        },
        {
            "type": "sources_manuscrites",
            "value": "R<sup>2<\/sup>. CIT\u00c9 DU VATICAN, Archivio segreto Vaticano, <i>Registra Vaticana<\/i> 33, ep. 499, fol. 80v.",
            "children": {
                "type_source": "Formulaire, collection de lettres m\u00e9di\u00e9vale"
            }
        },
        {
            "type": "sources_manuscrites",
            "value": "R<sup>3<\/sup>. CIT\u00c9 DU VATICAN, Archivio segreto Vaticano, <i>Registra Vaticana<\/i> 34, fol. 126.",
            "children": {
                "type_source": "Formulaire, collection de lettres m\u00e9di\u00e9vale"
            }
        },
        {
            "type": "sources_manuscrites",
            "value": "R<sup>4<\/sup>. CIT\u00c9 DU VATICAN, Archivio segreto Vaticano, <i>Registra Vaticana<\/i> 35, ep. 506, fol. 92 (<i>id. jun.<\/i>).",
            "children": {
                "type_source": "Formulaire, collection de lettres m\u00e9di\u00e9vale"
            }
        },
        {
            "type": "edition",
            "value": "Ici reprise de Mathias Thumser, <i>Die Briefe Papst Clemens\u2019 IV. (1265-1268)<\/i>, Vorl\u00e4ufige Edition, MGH, 2015, n. 507."
        },
        {
            "type": "regeste",
            "value": "Potthast, <i>Regesta pontificum Romanorum<\/i>, n. 20374 <a target=\"_blank\" href=\"https:\/\/archive.org\/stream\/RegestaPontificumRomanorum\/ph#page\/n1655\/mode\/2up\"> [en ligne]<\/a>."
        },
        {
            "type": "bibliographie_generale",
            "value": "Mathias Thumser, \u00ab Zur \u00dcberlieferungsgeschichte der Briefe Clemens'IV. (1265-1268) \u00bb, <i>Deutsches Archiv f\u00fcr Erforschung des Mittelalters<\/i>, 51\/1, 1995, p. 115-168."
        },
        {
            "type": "transcription",
            "value": "<?xml version=\"1.0\" encoding=\"UTF-8\"?>\nDilectis filiis preposito, archidiacono et aliis ecclesie Terraconensis canonicis universis. Cum, sicut ex parte vestra fuit propositum coram nobis, occasione discordie inter bone memorie B[enedictum] archiepiscopum Terraconensem ex parte una et vos ex altera dudum exorte tam per eundem archiepiscopum quam per officialem ipsius seu alios ipsorum auctoritate vel mandato quam etiam per delegatos apostolice Sedis vel subdelegatos ab eis diversis temporibus ex causis variis ab ipsius discordie fomite directe vel indirecte descendentibus seu pro quibusvis Terraconensis ecclesie negotiis, questionibus sive causis nunc generaliter nunc vero in quorundam vestrum personas specialiter nec non et participantes eisdem fuerint excommunicationis, suspensionis et interdicti sententie promulgate ac nonnulli vestrum lesam habeant conscientiam similes sententias incurrisse pro eo forsitan, quod decimam carissimo in Christo filio nostro I[acobo] regi Aragonum illustri ab apostolica Sede concessam in prefixis ad hoc terminis non solverunt, nos vestris devotis supplicationibus inclinati ad vestras conscientias serenandas et, ut securius ad providendum vestre ecclesie viduate de pastore procedere valeatis, ab omnibus et singulis predictis et generaliter ab aliis quibuslibet sententiis a canone sive ab homine promulgatis vos omnes et singulos de apostolice plenitudine potestatis absolvimus easque penitus relaxamus vobiscum super irregularitatibus, si quas eisdem ligati sententiis divina officia celebrando vel immiscendo vos illis aut in vestris ordinibus ministrando hactenus contraxistis, misericorditer dispensantes. Hanc vero generalem absolutionem et dispensationem eum volumus obtinere vigorem, acsi de singulis predictis sententiis fieret in presentibus mentio specialis. Volumus autem, ut infra mensem, postquam electio vel postulatio in vestra ecclesia fuerit celebrata, solvatis predictam decimam, dampna et iniuriam passis satisfaciatis competenter, si forte interim non fuerit satisfactum. Alioquin extunc ipso facto in pristinas sententias noveritis vos reductos. Nulli ergo et cetera nostre absolutionis et dispensa-tionis et cetera. Si quis et cetera. Datum Viterbii, VII idus iunii, anno IIII.\n"
        },
        {
            "type": "edition_autre",
            "value": "Edmond Mart\u00e8ne, Ursin Durand, <i>Thesaurus novus anecdotorum<\/i>, Paris, 1717, II, n. 655, col. 605 <a target=\"_blank\" href=\"https:\/\/archive.org\/stream\/ThesaurusNovusAnecdotorum2\/Thesaurus_novus_anecdotorum_2#page\/n337\/mode\/2up\"> [en ligne]<\/a>."
        },
        {
            "type": "regeste",
            "value": "\u00c9douard Jordan, <i>Les registres de Cl\u00e9ment IV (1265-1268)<\/i>, Paris, 1893-1945, n. 1376, d\u2019apr\u00e8s R<sup>1<\/sup>, R<sup>2<\/sup>, R<sup>3<\/sup> et R<sup>4<\/sup>."
        }
    ]
}