{
    "id": 25197,
    "name": "aposcripta-2294",
    "type": "acte",
    "url": "http:\/\/telma-chartes.irht.cnrs.fr\/aposcripta\/notice\/25197",
    "project_slug": "aposcripta",
    "project_label": "APOSCRIPTA \u2013 Lettres des papes",
    "user": "lettrespontificalesadmin",
    "last_update": "2020-10-19 16:27:41",
    "licence": "Attribution - Pas d\u2019Utilisation Commerciale - Partage dans les M\u00eames Conditions 3.0 France (CC BY-NC-SA 3.0 FR) ",
    "licence_url": "https:\/\/creativecommons.org\/licenses\/by-nc-sa\/3.0\/fr\/",
    "elements": [
        {
            "type": "pape",
            "value": "Urbain II (1088-1099)"
        },
        {
            "type": "destinataire",
            "value": "Cluny (Saint-Pierre et Saint-Paul) ( abbaye de)",
            "children": {
                "numero_note": "0"
            }
        },
        {
            "type": "date_lieu",
            "value": "n.c."
        },
        {
            "type": "date_libre",
            "value": "1095, 5 d\u00e9cembre"
        },
        {
            "type": "date",
            "value": " 1095\/12\/05",
            "children": {
                "date_deb_annee": "1095",
                "date_deb_mois": "12",
                "date_deb_jour": "05"
            },
            "range": {
                "date_apres": 10951205,
                "date_avant": 10951205
            }
        },
        {
            "type": "analyse",
            "value": "Le pape Urbain II d\u00e9fend les \u00e9v\u00eaques de s'en prendre aux biens de l'abbaye de Cluny. Il encourage l'abbaye \u00e0 r\u00e9cup\u00e9rer les biens de l'Eglise qui avait \u00e9t\u00e9 transf\u00e9r\u00e9s aux la\u00efcs.<br\/>PRIVILEGIUM URBANI PAP\u00c6 II, QUO VETAT NE EPISCOPI INQUIETENT CLUNIACENSES MONACHOS PRO ALTARIBUS ET ECCLESIIS, SIVE DECIMIS SUIS, CONCEDITQUE UT HI POSSINT DECIMAS E MANU LAICALI RETRAHERE. PRIVILEGIUM URBANI PAP\u00c6 II. ad S. Hugonem, per quod vetat ne Episcopi inquietent Clun. uper altaribus, et Ecclesiis, sive decimis suis conceditque utpossint decimas emanu La\u00efc. retrahere."
        },
        {
            "type": "transcription",
            "value": "<?xml version=\"1.0\" encoding=\"UTF-8\"?>\n[Urbanus Episcopus, servus servorum Dei, venerabili fratri Hugoni Cluniacensi Abbati, et fratribus sub ejus regimine constitutis salutem et Apostolicam Benedictionem. Sedis Apostolic\u00e6 benignitas omni semper tempore consuevit Dei servos tanquam Mater filios confovere, et in perturbatione positis consolationis manum clementer alacriterque porrigere. Quia igitur per omnipotentis Dei gratiam jamdiu long\u00e8 lat\u00e9que Religione pr\u00e6cipua floruistis, et bon\u00e6 opinionis odore plurimos aspersistis; dignum nobis est quieti vestr\u00e6 imposterum providere, et contra \u00e6mulorum insectationes Monasterio vestro tam capiti qu\u00e0m membris Clypeum Apostolic\u00e6 protectionis opponere. Pr\u00e6sentis itaque Decreti auctoritate sancimus, ut nulli deinceps Episcoporum facultas sit, pro Altaribus, et Ecclesiis, sive Decimis, quas ante interdicta nostra vel Pap\u00e6 Gregorii vobis cognita possedistis, seu p\u00f2st Episcoporum concessione adquisistis, gravamen aliquod aut molestiam irrogare: sed sicut eorum permissione qu\u00e6dam ex parte, qu\u00e6dam ex integro habuistis, ita et in futurum perenniter habeatis. Ipsarum quoque, quas nunc habetis, Ecclesiarum decimas, qu\u00e6 \u00e0 La\u00efcis obtinentur, si secundum Deum eorum potestati subtrahere vestr\u00e6 Religionis reverentia potuerit, ad vestram et pauperum gubernationem vobis liceat possidere. H\u00e6c omnia ut omnin\u00f2 firma et immobili stabilitate persistant, omnipotentis Patris, et Filii, et Spiritus sancti potestate, et Apostolica auctoritate confirmamus. Si quis ver\u00f2 Decreti hujus tenore agnito pertinaciter ei obviare pr\u00e6sumpserit, ejusdem Patris et Filii, Apostolorumque ejus indignationem inveniat, et sancti spiritus gladio feriatur. Cunctis autem vos ac vestra foventibus misericordia, pax, et gratia ab auctore omnium in perpetua s\u00e6cula conferatur. Datum apud Brivatam oppidum per manum Joannis sanct\u00e6 Roman\u00e6 Ecclesi\u00e6 Diaconi Cardinalis nonis Decembris Indict. III. Anno Dominic\u00e6 Incarnationis M. XC. VI. Pontificatus ver\u00f2 Domni Urbani II. Pap\u00e6 VIII.]\n"
        },
        {
            "type": "edition",
            "value": "Ici tir\u00e9e du projet <i>CBMA - Corpus Burgundiae Medii Aevi<\/i>, document 5124. Site du projet Corpus de la Bourgogne du Moyen \u00c2ge, [En ligne] <a href=\"http:\/\/www.cbma-project.eu\" target=\"_blank\">http:\/\/www.cbma-project.eu<\/a>  "
        },
        {
            "type": "sources_manuscrites",
            "value": "\u00e0 renseigner."
        },
        {
            "type": "remarques",
            "value": "\r\n\r\nIndications dans l'\u00e9dition des Chartes de Cluny quand Bernard et Bruel n'ont pas repris le texte : Urbanus, etc. Sedis apostolic\u00e6 benignitas, etc. (Bull. Clun., p.\u00a026, col.\u00a02; D. Bouquet, t.\u00a0XIV, p.\u00a0716.).(C.\u00a0142.)"
        },
        {
            "type": "edition_autre",
            "value": "Ici reprise de Auguste Bernard, Alexandre Bruel, <i>Recueil des chartes de l'abbaye de Cluny<\/i>. V. <i>1091-1210<\/i>, Paris\u00a0: Imprimerie nationale, 1894 <a href=\"http:\/\/gallica.bnf.fr\/ark:\/12148\/bpt6k28911f?rk=64378;0\" target=\"_blank\">[en ligne]<\/a>, p. 45, n\u00b0 3694.",
            "children": {
                "numero_note": "0"
            }
        },
        {
            "type": "edition_autre",
            "value": "Pierre Simon, <i>Bullarium sacri Ordinis cluniacensis, complectens plurima privilegia per summos pontifices tum ipsi cluniacensi abbatiae, tum ei subditis monasteriis hactenus concessa<\/i>, Lyon : Jullieron, 1680, p. 26, col. 2-27, col. 1",
            "children": {
                "numero_note": "1"
            }
        },
        {
            "type": "genre",
            "value": "Bulle"
        }
    ]
}