{
    "id": 25244,
    "name": "aposcripta-2341",
    "type": "acte",
    "url": "http:\/\/telma-chartes.irht.cnrs.fr\/aposcripta\/notice\/25244",
    "project_slug": "aposcripta",
    "project_label": "APOSCRIPTA \u2013 Lettres des papes",
    "user": "lettrespontificalesadmin",
    "last_update": "2020-10-19 16:27:42",
    "licence": "Attribution - Pas d\u2019Utilisation Commerciale - Partage dans les M\u00eames Conditions 3.0 France (CC BY-NC-SA 3.0 FR) ",
    "licence_url": "https:\/\/creativecommons.org\/licenses\/by-nc-sa\/3.0\/fr\/",
    "elements": [
        {
            "type": "pape",
            "value": "Pascal II (1099-1118)"
        },
        {
            "type": "destinataire",
            "value": "( )",
            "children": {
                "numero_note": "0"
            }
        },
        {
            "type": "date_lieu",
            "value": "n.c."
        },
        {
            "type": "date_libre",
            "value": "[1114, avant le 15 octobre (?)]"
        },
        {
            "type": "date",
            "value": "apr\u00e8s 1114\/01 - avant 1114\/10\/15",
            "children": {
                "date_deb_annee": "1114",
                "date_deb_mois": "01",
                "date_deb_type": "apr\u00e8s",
                "date_fin_annee": "1114",
                "date_fin_mois": "10",
                "date_fin_jour": "15",
                "date_fin_type": "avant"
            },
            "range": {
                "date_apres": 11140100,
                "date_avant": 11141015
            }
        },
        {
            "type": "analyse",
            "value": "X pape<br\/>PASCHALIS PAPA II MONASTERII SANCT\u00c6 MARI\u00c6 DE CARITATE, A SESE QUONDAM CONSECRATI, PROTECTIONEM SUSCIPIT, POSSESSIONESQUE \u00abIN PRESENTI SEPTIMA INDICTIONE CONFIRMAT, ODONE PRIORE PER PONTIUM, ABBATEM CLUNIACENSEM, PETENTE\u00bb."
        },
        {
            "type": "transcription",
            "value": "<?xml version=\"1.0\" encoding=\"UTF-8\"?>\nPaschalis, etc. Apostolic\u00e6 sedis auctoritate, etc. \n"
        },
        {
            "type": "edition",
            "value": "Ici tir\u00e9e du projet <i>CBMA - Corpus Burgundiae Medii Aevi<\/i>, document 5341. Site du projet Corpus de la Bourgogne du Moyen \u00c2ge, [En ligne] <a href=\"http:\/\/www.cbma-project.eu\" target=\"_blank\">http:\/\/www.cbma-project.eu<\/a>  "
        },
        {
            "type": "sources_manuscrites",
            "value": "\u00e0 renseigner."
        },
        {
            "type": "remarques",
            "value": "Indications des \u00e9diteurs : Paschalis, etc. Apostolic\u00e6 sedis auctoritate, etc. (In Bibliotheca Hamburgensi, ex schedis Pertzii societatis mon. Germ. Jaff\u00e9-L\u0153venfeld, p.\u00a0753.). "
        },
        {
            "type": "edition_autre",
            "value": "Ici reprise de Auguste Bernard, Alexandre Bruel, <i>Recueil des chartes de l'abbaye de Cluny<\/i>. V. <i>1091-1210<\/i>, Paris\u00a0: Imprimerie nationale, 1894 <a href=\"http:\/\/gallica.bnf.fr\/ark:\/12148\/bpt6k28911f?rk=64378;0\" target=\"_blank\">[en ligne]<\/a>, p. 260, n\u00b0 3910",
            "children": {
                "numero_note": "0"
            }
        },
        {
            "type": "regeste",
            "value": "In Bibliotheca Hamburgensi, ex schedis Pertzii societatis mon. Germ. Jaff\u00e9-L\u0153venfeld, p.\u00a0753.",
            "children": {
                "numero_note": "0"
            }
        },
        {
            "type": "genre",
            "value": "Bulle"
        },
        {
            "type": "genre",
            "value": "Lettre"
        }
    ]
}