{
    "id": 20884,
    "name": "aposcripta-871",
    "type": "acte",
    "url": "http:\/\/telma-chartes.irht.cnrs.fr\/aposcripta\/notice\/20884",
    "project_slug": "aposcripta",
    "project_label": "APOSCRIPTA \u2013 Lettres des papes",
    "user": "lettrespontificalesadmin",
    "last_update": "2020-10-19 16:26:54",
    "licence": "Attribution - Pas d\u2019Utilisation Commerciale - Partage dans les M\u00eames Conditions 3.0 France (CC BY-NC-SA 3.0 FR) ",
    "licence_url": "https:\/\/creativecommons.org\/licenses\/by-nc-sa\/3.0\/fr\/",
    "elements": [
        {
            "type": "pape",
            "value": "Lucius III (1181-1185)"
        },
        {
            "type": "date_lieu",
            "value": "V\u00e9rone"
        },
        {
            "type": "date_libre",
            "value": "II idus novembris"
        },
        {
            "type": "analyse",
            "value": "Lucius\u00a0III burgensibus castri novi Turonensis concedit, ne aut ipsi aut procuratores ipsorum ad locum non securum extra dioecesim Turonensem in causam trahantur, cet."
        },
        {
            "type": "transcription",
            "value": "<?xml version=\"1.0\" encoding=\"UTF-8\"?>\nLucius episcopus, servus servorum Dei, dilectis filiis burgensibus castri novi Turonensis, salutem et apostolicam benedictionem. Ad hoc ex dispositione divina curam omnium et magisterium suscepimus singulorum, ut apostolica sollicitudo, quam gerimus, cunctis in commune prospiciat et pacem simul ac iusticiam subditorum foveat incessabiliter et defendat. Ne igitur status vester secularis malignitatis astutia perturbetur aut vobis ex aliena pravitate contingat, quod tranquillitatis vestrae statum casu periculi a parte qualibet emergentis evertat, presentibus vobis litteris indulgemus, ut universitas vestra nec per se extra civitatem nec procuratores ipsius aut aliquis ex ipsa ad locum non securum extra Turonensem dioecesim trahatur in causam\u00a0; nec alicui liceat, si illuc citati non accesseritis, occasione huius absentiae, excusatione praemissa, quod ad locum non securum accedere non possitis, aliquam in vos sententiam promulgare\u00a0; si vero promulgata fuerit, nos eam auctoritate apostolica vacuantes decernimus non tenere\u00a0; adicientes quoque statuimus, ut, cum a sententia, qua vos dilecti filii nostri canonici beati Martini Turonensis innodasse dicuntur, ex mandato nostro fueritis absoluti, nemini liceat, quamdiu coram ordinario iudice vel alio quolibet a Sede apostolica delegato parati fueritis stare judicio, ecclesiasticam in vos sententiam promulgare, nisi forsitan coniurationis, de qua ecclesia beati Martini conqueritur, infamia laboretis, a qua vos purgare a praefatis canonicis commoniti non velitis, nullis litteris obstantibus harum tenore tacito a Sede apostolica impetratis. Nulli ergo omnino hominum... Datum Veronae, II idus novembris.\n"
        },
        {
            "type": "edition",
            "value": "Ici reprise de Samuel Loewenfeld, <i>Epistolae pontificum romanorum ineditae<\/i>, Leipzig : Veit et Comp., 1885, n. 372, p. 225-226."
        },
        {
            "type": "sources_manuscrites",
            "value": "FRANCE, Paris, Biblioth\u00e8que nationale de France, Coll. Anjou et Touraine V, n.\u00a01950.",
            "children": {
                "type_source": "n.c."
            }
        },
        {
            "type": "date",
            "value": "apr\u00e8s 1184\/11\/12 - avant 1185\/11\/12",
            "children": {
                "date_deb_annee": "1184",
                "date_deb_mois": "11",
                "date_deb_jour": "12",
                "date_deb_type": "apres",
                "date_fin_annee": "1185",
                "date_fin_mois": "11",
                "date_fin_jour": "12",
                "date_fin_type": "avant"
            },
            "range": {
                "date_apres": 11841112,
                "date_avant": 11851112
            }
        },
        {
            "type": "genre",
            "value": "Titre, g\u00e9n\u00e9ral (littere gratiose, cum filo serico)"
        },
        {
            "type": "destinataire",
            "value": "Les bourgeois du Ch\u00e2teau Neuf de Tours"
        }
    ]
}