{
    "id": 24945,
    "name": "aposcripta-2078",
    "type": "acte",
    "url": "http:\/\/telma-chartes.irht.cnrs.fr\/aposcripta\/notice\/24945",
    "project_slug": "aposcripta",
    "project_label": "APOSCRIPTA \u2013 Lettres des papes",
    "user": "j_theryastruc",
    "last_update": "2020-10-19 16:27:37",
    "licence": "Attribution - Pas d\u2019Utilisation Commerciale - Partage dans les M\u00eames Conditions 3.0 France (CC BY-NC-SA 3.0 FR) ",
    "licence_url": "https:\/\/creativecommons.org\/licenses\/by-nc-sa\/3.0\/fr\/",
    "elements": [
        {
            "type": "pape",
            "value": "Innocent IV (1243-1254)"
        },
        {
            "type": "destinataire",
            "value": "Le doyen et les chanoines pr\u00e9montr\u00e9s de l'\u00e9glise des Saints-Ap\u00f4tres Simon et Jude de Goslar (dioc\u00e8se d'Hildesheim)"
        },
        {
            "type": "date_libre",
            "value": "II nonas octobris, anno septimo"
        },
        {
            "type": "date",
            "value": " 1249\/10\/06",
            "children": {
                "date_deb_jour": "06",
                "date_deb_mois": "10",
                "date_deb_annee": "1249"
            },
            "range": {
                "date_apres": 12491006,
                "date_avant": 12491006
            }
        },
        {
            "type": "date_lieu",
            "value": "Lyon"
        },
        {
            "type": "sources_manuscrites",
            "value": "E. ? L'\u00e9diteur fait suivre le texte d'une repr\u00e9sentation de la bulle d'Innocent IV : il a donc manifestement utilis\u00e9 une exp\u00e9dition.",
            "children": {
                "type_source": "",
                "source_edition": ""
            }
        },
        {
            "type": "edition",
            "value": "Ici reprise de Johann Georg Leuckfeld, <i>Antiquitates Poeldenses, oder Historische Beschreibung des vormahligen des vormahligen Praemonstratenser Ordens<\/i>, Groningen : Gottfried  Freytag, 1707, <a target=\"_blank\" href= \"https:\/\/books.google.com\/books?id=vSFoAAAAcAAJ&printsec=frontcover&hl=fr\"> [en ligne]<\/a>, appendix IV, n. 19, p. 290."
        },
        {
            "type": "transcription",
            "value": "<?xml version=\"1.0\" encoding=\"UTF-8\"?>\nInnocentius episcopus, servus servorum Dei, dilectis filiis decano et canonicis ecclesiae sanctorum apostolorum Symonis et Judae in Goslaria, Hild. dioecesis, salutem et apostolicam benedictionem.  Obtentu carissimi in Christo filii nostri Wilhelmi regis Romanorum illustris nobis pro vobis supplicantis, cujus vestra ecclesia specialis capella existit, paci et tranquillitati ejusdem ecclesiae paterna volentes imposterum sollicitudine providere, authoritate vobis presentium indulgemus ut ad provisionem alicujus in pensionibus seu ecclesiasticis beneficiis compelli non possitis per literas apostolicae Sedis vel legatorum ejus impetratas, dummodo non sit per eas jus alicui acquisitum, vel etiam impetrandas absque ipsius Sedis speciali mandato quod de indulgentia hujusmodi ex toto tenore ipsius plenam et expressam fecerit mentionem. Nulli ergo omnino hominum liceat hanc paginam nostrae concessionis infringere vel ei ausu temerario contraire. Si quis autem hoc attemptare praesumpserit, indignationem omnipotentis Dei et beatorum Petri et Pauli apostolorum ejus se noverit incursurum. Datum Lugduni, II nonas octobris, pontificatus nostri anno septimo.\n"
        },
        {
            "type": "genre",
            "value": "Bulle"
        }
    ]
}