{
    "id": 20692,
    "name": "aposcripta-679",
    "type": "acte",
    "url": "http:\/\/telma-chartes.irht.cnrs.fr\/aposcripta\/notice\/20692",
    "project_slug": "aposcripta",
    "project_label": "APOSCRIPTA \u2013 Lettres des papes",
    "user": "lettrespontificalesadmin",
    "last_update": "2020-10-19 16:26:52",
    "licence": "Attribution - Pas d\u2019Utilisation Commerciale - Partage dans les M\u00eames Conditions 3.0 France (CC BY-NC-SA 3.0 FR) ",
    "licence_url": "https:\/\/creativecommons.org\/licenses\/by-nc-sa\/3.0\/fr\/",
    "elements": [
        {
            "type": "pape",
            "value": "Innocent II (1130-1143)"
        },
        {
            "type": "date_lieu",
            "value": "Pise"
        },
        {
            "type": "date_libre",
            "value": "II kalendas septembris"
        },
        {
            "type": "analyse",
            "value": "Innocentius\u00a0II archiepiscopis quibusdam eorumque suffraganeis, abbatibus cet. significat sese Hugonem archiepiscopum Rotomagensem de latere suo misisse ut Alfonsum comitem Tolosanum et Guigonem Delphinum, quorum alter in monasterium S. Aegidii, alter in ecclesiam Romanensem saevierit, coerceat. Praecipit ut, si evocati fuerint, conveniant eique in mandatis exequendis auxilium porrigant."
        },
        {
            "type": "transcription",
            "value": "<?xml version=\"1.0\" encoding=\"UTF-8\"?>\nInnocentius episcopus servus servorum Dei venerabilibus fratribus P[etro] Lugdunensi, St[ephano] Viennensi, A[rnaldo] Narbonensi, B[ernardo] Arelatensi, P[ontio] Aquensi, G[uilielmo]a Ebredunensi archiepiscopis eorumque suffraganeis episcopis et dilectis filiis abbatibus, clero, principibus et populo, per eorum parrochias constitutis, salutem et apostolicam benedictionem. Ubi maiora sanctae Dei ecclesiae emergunt negocia, ibi profecto religiosarum et sapientium personarum, praesentium hoc tempore, sunt adhibenda consilia. Huius rei gratia venerabilem fratrem nostrum Hugonem, Rothomagensem archiepiscopum, cuius utique prudentia, discretio et honestas et ........b, laboribus nostris multotiens ipsius studio et experientia levigatis, in eius mora atque praesentia grata solatia obtinuimus. Verum, sicut pleniter novit fraternitas vestra, nobiles viri A[lfonsus] Tholosanus comes et G[uigo] Dalfinus, alter in monasterium beati Egidii, alter in Romanensem ecclesiam multa gravia et horrenda, prout accepimus, commiserunt\u00a0; et quiac ipsa in beatum Petrum et sedem apostolorum redundare noscuntur, opportunum duximus, eorundem excessuum magnitudinem per sapientem personam et ad hoc idoneam, adhibito vestro consiliod, castigare. Ut igitur tantis malis, auxiliante Domino, finis debitus imponatur, praefatum fratrem nostrum H[ugonem] archiepiscopum Rothomagensem ad partes illas de latere nostro transmittendum et ei pariter supradictarum causarum et aliorum negociorum, si quae iam in partibus illis orta sunt vel interim orientur, decisionem iniunximus. Mandamus itaque universitati vestrae et apostolica auctoritate praecipimus quatenus eundem legatum nostrum honorifice et benigne suscipiatis, et loco ac tempore, quo ab eo vocati fueritis, ad ipsum unanimiter convenire curetis, atque in his, quae ad eadem negocia dirimenda necessaria fuerint, ei vice nostra opem et consilium pro reverentia Sedis apostolicae impendatis. Illud etiam summopere curae vobis sit, ut ad ulciscendam iniuriam beato Petro et nobis illatam ab his, qui, contemptis nostris iussionibus, servare datam a nobis sententiam neglexerunt, pro debito vestri officii operam detis, ut videlicet iuxta praedicti fratris nostri deliberationem hi, qui sanctam matrem suam Romanam contempserunt Ecclesiam et beati Petri claves evacuare temptarunt, dignis animadversionibus feriantur. Ipsum sane ob amorem et reverentiam eiusdem apostolorum principis honeste ac fraterna caritate suscipite et suis praeceptionibus obedite. Data Pisis, II kalendas septembris.\n"
        },
        {
            "type": "edition",
            "value": "Ici reprise de Samuel Loewenfeld, <i>Epistolae pontificum romanorum ineditae<\/i>, Leipzig : Veit et Comp., 1885, n. 180, p. 90-91 <a target=\"_blank\" href=\" https:\/\/archive.org\/stream\/MN41991ucmf_2#page\/n99\/mode\/2up\"> [en ligne]<\/a>."
        },
        {
            "type": "sources_manuscrites",
            "value": "F. FRANCE, Paris, Biblioth\u00e8que nationale de France, Collection Baluze 56, fol.\u00a0159.",
            "children": {
                "type_source": "Copie moderne"
            }
        },
        {
            "type": "sources_manuscrites",
            "value": "G. FRANCE, Paris, Biblioth\u00e8que nationale de France, Collection Baluze 279, fol.\u00a0212<sup>b<\/sup>. ",
            "children": {
                "type_source": "Copie moderne"
            }
        },
        {
            "type": "apparat_critique",
            "value": "E <i>c.<\/i>",
            "children": {
                "numero_note": "a"
            }
        },
        {
            "type": "apparat_critique",
            "value": "<i>Quamquam in codd. lacuna non est, deesse tamen hoc loco quaedam verba patet<\/i>.",
            "children": {
                "numero_note": "b"
            }
        },
        {
            "type": "apparat_critique",
            "value": "<i>sic scripsi pro<\/i> ea <i>cod.<\/i>",
            "children": {
                "numero_note": "c"
            }
        },
        {
            "type": "apparat_critique",
            "value": "nostro <i>c.<\/i>",
            "children": {
                "numero_note": "d"
            }
        },
        {
            "type": "date",
            "value": "1134\/08\/31",
            "children": {
                "date_deb_annee": "1134",
                "date_deb_mois": "08",
                "date_deb_jour": "31",
                "date_deb_type": ""
            },
            "range": {
                "date_apres": 11340831,
                "date_avant": 11340831
            }
        },
        {
            "type": "genre",
            "value": "Lettre, g\u00e9n\u00e9ral (avant 1198)"
        },
        {
            "type": "sources_manuscrites",
            "value": "H. FRANCE, Paris, Biblioth\u00e8que nationale de France, Collection Baluze 279, fol. 221 (hanc copiam fecit Andreas Duchesne).",
            "children": {
                "type_source": "Copie moderne"
            }
        },
        {
            "type": "regeste",
            "value": "JL n. 78726."
        },
        {
            "type": "remarques",
            "value": "Le mill\u00e9sime 1134 donn\u00e9 par Loewenfeld est corrig\u00e9 en 1135 par L. Sp\u00e4tling et U. Vones Liebenstein."
        },
        {
            "type": "bibliographie_generale",
            "value": "Luchesius Sp\u00e4tling, \u00ab Die Legation des Erzbischofs Hugo von Rouen (1134\/35) \u00bb, <i>Antonianum<\/i>, 43, 1968, p. 195-216."
        },
        {
            "type": "bibliographie_generale",
            "value": "Ursula Vones-Liebenstein, \u00ab La <i>Narbonensis<\/i> face au schisme d'Anaclet \u00bb, dans <i>Schismes, dissidences, oppositions<\/i>, \u00e9d. Bernard Barbiche, Rolf Grosse, Paris : \u00c9cole nationale des chartes, Institut historique allemand, 2012, p. 11, 13-14."
        },
        {
            "type": "destinataire",
            "value": "Les archev\u00eaques de Lyon, Vienne, Narbonne, Arles, Aix et Embrun, ainsi que leurs \u00e9v\u00eaques suffragants et les abb\u00e9s de leurs provinces"
        }
    ]
}