{
    "id": 20083,
    "name": "aposcripta-70",
    "type": "acte",
    "url": "http:\/\/telma-chartes.irht.cnrs.fr\/aposcripta\/notice\/20083",
    "project_slug": "aposcripta",
    "project_label": "APOSCRIPTA \u2013 Lettres des papes",
    "user": "lettrespontificalesadmin",
    "last_update": "2020-10-19 16:26:44",
    "licence": "Attribution - Pas d\u2019Utilisation Commerciale - Partage dans les M\u00eames Conditions 3.0 France (CC BY-NC-SA 3.0 FR) ",
    "licence_url": "https:\/\/creativecommons.org\/licenses\/by-nc-sa\/3.0\/fr\/",
    "elements": [
        {
            "type": "date_lieu",
            "value": "Avignon"
        },
        {
            "type": "date_libre",
            "value": "V kalendas martii, anno quarto"
        },
        {
            "type": "analyse",
            "value": "Bulla Joannis XXII qua aggravat sententiam latam adversus Bernardum Delitiosi [Baluze, Mollat]. \t\nLe pape ordonne aux \u00e9v\u00eaques de Pamiers et de Saint-Papoul, juges de Bernard D\u00e9licieux, d\u2019aggraver la sentence port\u00e9e contre lui en lui arrachant le froc religieux [Vidal]."
        },
        {
            "type": "transcription",
            "value": "<?xml version=\"1.0\" encoding=\"UTF-8\"?>\nJohannes episcopus, servus servorum Dei, venerabilibus fratribus .. Appamiensi et .. Sancti Papuli episcopis, salutem et apostolicam benedictionem. Cum nimis indecens videatur quod frater Bernardus Delitiosi, ordinis Minorum, pro tam enormibus criminibus condempnatus religionis adeo venerabilis habitum extra dictum ordinem in carcere deferat, presertim cum, si pro levioribus culpis esset ad ipsius ordinis carcerem deputatus, hujusmodi habitum in eodem ordine non deferret, fraternitati vestre, de fratrum nostrorum consilio, per apostolica scripta precipiendo, mandamus quatinus eidem fratri Bernardo, sublato cujusvis tarditatis obstaculo, dictum habitum auferatis, ab omni mitigatione penitentie per vos eidem imposite, quam nobis et apostolice Sedi reservamus, specialiter abstinendo, nisi a nobis super hoc aliud receperitis in mandatis. Datum Avinioni, V kalendas martii, pontificatus nostri anno quarto.\n"
        },
        {
            "type": "edition",
            "value": "Ici reprise d'\u00c9tienne Baluze, Guillaume Mollat, <i>Vitae paparum Avenionensium. Nouvelle \u00e9dition revue d'apr\u00e8s les manuscrits et compl\u00e9t\u00e9e de notes critiques<\/i>, Paris : Letouzey et An\u00e9, 1914-1922, 3 vol., III, n. LIII, p. 297-298, d'apr\u00e8s G."
        },
        {
            "type": "sources_manuscrites",
            "value": "G. FRANCE, Paris, Biblioth\u00e8que nationale de France, ms. lat. 4270, fol. 192.",
            "children": {
                "type_source": "Copie moderne"
            }
        },
        {
            "type": "pape",
            "value": "Jean XXII (1316-1334)"
        },
        {
            "type": "date",
            "value": "1320\/02\/26",
            "children": {
                "date_deb_annee": "1320",
                "date_deb_mois": "02",
                "date_deb_jour": "26"
            },
            "range": {
                "date_apres": 13200226,
                "date_avant": 13200226
            }
        },
        {
            "type": "genre",
            "value": "Lettre, g\u00e9n\u00e9ral (apr\u00e8s 1198, littere cum filo canapis)"
        },
        {
            "type": "edition_autre",
            "value": "Baluze, <i>Vitae<\/i>, prem. \u00e9d., II, c. 365, d'apr\u00e8s G."
        },
        {
            "type": "edition_autre",
            "value": "Eubel, <i>Bullaire<\/i>, n. 388."
        },
        {
            "type": "edition_autre",
            "value": "Jean-Marie Vidal, <i>Bullaire de l\u2019Inquisition fran\u00e7aise au XIV<sup>e<\/sup> si\u00e8cle et jusqu'\u00e0 la fin du Grand Schisme<\/i>, Paris : Letouzey et An\u00e9, 1913, n. 27, p. 57-58 <a target=\"_blank\" href= \" http:\/\/gallica.bnf.fr\/ark:\/12148\/bpt6k6213406r\/f161.image \"> [en ligne]<\/a>, d'apr\u00e8s Baluze, <i>Vitae<\/i>, II, c. 365."
        },
        {
            "type": "edition_autre",
            "value": "Alan Friedlander, \u00e9d., Processus Bernardi Delitiosi<i> : the Trial of Fr. Bernard D\u00e9licieux, 3 september-8 december 1319<\/i>, Philadelphie, American Philosophical Society (Transactions of the American Philosophical Society, vol. 86, part 1), 1996, p. 219, d'apr\u00e8s G."
        },
        {
            "type": "traduction",
            "value": "Jean, \u00e9v\u00eaque, serviteur des serviteurs de Dieu, \u00e0 ses v\u00e9n\u00e9rables fr\u00e8res les \u00e9v\u00eaques de Pamiers et de Saint-Papoul, salut et b\u00e9n\u00e9diction.\n<lb n=\"\" \/>Comme il appara\u00eet excessivement ind\u00e9cent que fr\u00e8re Bernard D\u00e9licieux, de l\u2019ordre des Mineurs, condamn\u00e9 pour des crimes si \u00e9normes, porte l\u2019habit d\u2019une si v\u00e9n\u00e9rable profession hors dudit ordre, en prison, ce d\u2019autant plus que s\u2019il avait \u00e9t\u00e9 envoy\u00e9 dans une prison dudit ordre, pour des fautes plus l\u00e9g\u00e8res, il n\u2019aurait pu y porter cet habit, nous ordonnons et mandons \u00e0 vos fraternit\u00e9s par \u00e9crit apostolique de retirer ledit habit au m\u00eame fr\u00e8re Bernard en \u00e9cartant tout obstacle susceptible de retarder l\u2019application de cette mesure ; et vous vous abstiendrez d\u2019apporter aucune mitigation \u00e0 sa p\u00e9nitence \u2013 mitigation que nous nous r\u00e9servons sp\u00e9cialement, ainsi qu\u2019au Si\u00e8ge apostolique \u2013, sauf si vous recevez de notre part ordre d\u2019agir autrement.\n<lb n=\"\" \/>Donn\u00e9 \u00e0 Avignon, le 5 des calendes de mars, la quatri\u00e8me ann\u00e9e de notre pontificat "
        },
        {
            "type": "traduction_source",
            "value": "Julien Th\u00e9ry, <i>Le livre des sentences de l'inquisiteur Bernard Gui<\/i>, 2<sup>e<\/sup> \u00e9d. revue et augment\u00e9e, Paris : CNRS \u00e9ditions, 2018, p. 237-238."
        }
    ]
}