{
    "id": 25362,
    "name": "aposcripta-2459",
    "type": "acte",
    "url": "http:\/\/telma-chartes.irht.cnrs.fr\/aposcripta\/notice\/25362",
    "project_slug": "aposcripta",
    "project_label": "APOSCRIPTA \u2013 Lettres des papes",
    "user": "lettrespontificalesadmin",
    "last_update": "2020-10-19 16:27:43",
    "licence": "Attribution - Pas d\u2019Utilisation Commerciale - Partage dans les M\u00eames Conditions 3.0 France (CC BY-NC-SA 3.0 FR) ",
    "licence_url": "https:\/\/creativecommons.org\/licenses\/by-nc-sa\/3.0\/fr\/",
    "elements": [
        {
            "type": "pape",
            "value": "Alexandre III (1159-1181)"
        },
        {
            "type": "destinataire",
            "value": "( )",
            "children": {
                "numero_note": "0"
            }
        },
        {
            "type": "date_lieu",
            "value": "n.c."
        },
        {
            "type": "date_libre",
            "value": "1174, 24 janvier"
        },
        {
            "type": "date",
            "value": " 1174\/01\/24",
            "children": {
                "date_deb_annee": "1174",
                "date_deb_mois": "01",
                "date_deb_jour": "24"
            },
            "range": {
                "date_apres": 11740124,
                "date_avant": 11740124
            }
        },
        {
            "type": "analyse",
            "value": "X pape<br\/>EPISTOLA ALEXANDRI PAP\u00c6 III, QUA PRIORI ET FRATRIBUS CLUNIACENSIBUS PLAUSUM DAT, QUOD [RODULFUM], PRIOREM QUONDAM DE CARITATE, IN MAGISTRUM PARITER ET ABBATEM ELEGERINT."
        },
        {
            "type": "transcription",
            "value": "<?xml version=\"1.0\" encoding=\"UTF-8\"?>\nAlexander, etc. Gratum nobis est, etc. \n"
        },
        {
            "type": "edition",
            "value": "Ici tir\u00e9e du projet <i>CBMA - Corpus Burgundiae Medii Aevi<\/i>, document 5688. Site du projet Corpus de la Bourgogne du Moyen \u00c2ge, [En ligne] <a href=\"http:\/\/www.cbma-project.eu\" target=\"_blank\">http:\/\/www.cbma-project.eu<\/a>  "
        },
        {
            "type": "sources_manuscrites",
            "value": "\u00e0 renseigner."
        },
        {
            "type": "remarques",
            "value": "\r\n\r\n (Bibl. nat. ms. lat.\u00a016992, fol.\u00a0152.)"
        },
        {
            "type": "edition_autre",
            "value": "Ici reprise de Auguste Bernard, Alexandre Bruel, <i>Recueil des chartes de l'abbaye de Cluny<\/i>. V. <i>1091-1210<\/i>, Paris\u00a0: Imprimerie nationale, 1894 <a href=\"http:\/\/gallica.bnf.fr\/ark:\/12148\/bpt6k28911f?rk=64378;0\" target=\"_blank\">[en ligne]<\/a>, p. 606, n\u00b0 4251",
            "children": {
                "numero_note": "0"
            }
        },
        {
            "type": "regeste",
            "value": "L\u0153venfeld, Epistol\u00e6, p.\u00a0143.",
            "children": {
                "numero_note": "0"
            }
        },
        {
            "type": "genre",
            "value": "Bulle"
        },
        {
            "type": "genre",
            "value": "Lettre"
        }
    ]
}