{
    "id": 146765,
    "name": "aposcripta-6395",
    "type": "acte",
    "url": "http:\/\/telma-chartes.irht.cnrs.fr\/aposcripta\/notice\/146765",
    "project_slug": "aposcripta",
    "project_label": "APOSCRIPTA \u2013 Lettres des papes",
    "user": "tgirard",
    "last_update": "2020-10-19 16:39:22",
    "licence": "Attribution - Pas d\u2019Utilisation Commerciale - Partage dans les M\u00eames Conditions 3.0 France (CC BY-NC-SA 3.0 FR) ",
    "licence_url": "https:\/\/creativecommons.org\/licenses\/by-nc-sa\/3.0\/fr\/",
    "elements": [
        {
            "type": "pape",
            "value": "Cl\u00e9ment III (1187-1191)"
        },
        {
            "type": "destinataire",
            "value": "Les \u00e9v\u00eaques de Pavie, Vercelli, Tortone, et tous les abb\u00e9s, prieurs, archidiacres, diacres, pr\u00eatres et pr\u00e9lats auxquels ces lettres parviendront"
        },
        {
            "type": "date_libre",
            "value": "XV kalendas junii, anno primo"
        },
        {
            "type": "date",
            "value": "1188\/05\/18",
            "children": {
                "date_deb_annee": "1188",
                "date_deb_mois": "05",
                "date_deb_jour": "18"
            },
            "range": {
                "date_apres": 11880518,
                "date_avant": 11880518
            }
        },
        {
            "type": "date_lieu",
            "value": "Latran"
        },
        {
            "type": "genre",
            "value": "Mandement (littere cum filo canapis)"
        },
        {
            "type": "analyse",
            "value": "Clemens III schreibt den Bisch\u00f6fen von Pavia, Vercelli, Tortona, an Aebte und andere Geistliche, dass die den Cisterciensern ertheilten Privilegien sich auf selbstbestellten Acker, nicht auf Neubruchland bez\u00f6gen und dass sie dieselben, namentlich die M\u00f6nche von Lucedio (D. Vercelli), in Rechten und Personen sch\u00fctzen sollen. Vergl. die Urkunde vom 3 April 1180."
        },
        {
            "type": "edition",
            "value": "Ici reprise de Julius von Pflugk-Harttung, <i>Acta pontificum Romanorum inedita.<\/i> III. <i>Urkunden der P\u00e4pste vom Jahre 590 bis zum Jahre 1197<\/i>, III, Stuttgart : W. Kohlhammer, 1886, n. 416, p. 362."
        },
        {
            "type": "transcription",
            "value": "<?xml version=\"1.0\" encoding=\"UTF-8\"?>\nClemens episcopus, servus servorum Dei, venerabilibus fratribus Papiensi1, Vercellensi2, Terdonensi3 episcopis et dilectis filiis, abbatibus, prioribus, archidiaconis, decanis, presbiteris et universis ecclesiarum prelatis, ad quos littere iste pervenerint, salutem et apostolicam benedictionem. Audivimus et audientes mirati sumus quod cum dilectis filiis nostris fratribus ordinis Cisterciensis a patribus et predecessoribus nostris concessum sit et a nobis postea confirmatum ut de laboribus quos propriis manibus aut sumptibus excolunt nemini decimas solvere teneantur, quidam ab eis nihilominus contra sedis apostolice indulgentiam decimas exigere et extorquere presumant et prava ac sinistra interpretatione apostolicorum privilegiorum capitulum pervertentes asserunt, de novalibus debere intelligi, ubi de laboribus est inscriptum. Quoniam igitur manifestum est omnibus qui recte sapiunt interpretationem huiusmodi perversam esse et intellectui sano contrariam, universitati vestre per apostolica scripta precipiendo mandamus quatenus omnibus parochianis vestris auctoritate apostolica prohibere curetis, ne ullatenus contra dilectos filios nostros, fratres Locedii, qui Cisterciensem ordinem sunt professi, materiam accipiant malignandi, nec de aliquibus terris, quas propriis manibus aut sumptibus excolunt, sive de nutrimentis animalium suorum quisquam ab eis decimas exigere vel quomodolibet extorquere presumat. Nam si de novalibus tantum vellemus intelligi, ubi ponimus de laboribus, de novalibus poneremus ; sicut in privilegiis quorundam apponimus aliorum. Quia vero non est conveniens ut contra Sedis apostolice indulgentias temere veniatur, que obtinere debent inviolabilem firmitatem, vobis per apostolica scripta precipiendo mandamus ut si qui monachi, canonici, clerici vel laici contra privilegia sua memoratos fratres super decimarum exactione gravaverint, appellatione remota, clericos ab officio suspendatis, laicos autem excommunicationis sententia percellatis et tam excommunicationis, quam suspensionis faciatis usque ad dignam satisfactionem sententias observari. Quod si a Sede apostolica littere fuerint impetrate quarum ocasione quis ab illis decimas exigere vel aliud contra privilegia vel indulgentias eorum ab ipsis extorquere nitatur, tantoa, quod Cisterciensem ordinem sint professi, respondere illis minime teneantur. In quibus etiam si inhibita fuerit appellatio nihilominus appellandi habeant facultatem, nisi pro bono pacis spontanea cum aliquibus composuerint voluntate. Quod si alique compositiones inter eos et aliquos pacis intuitu et utriusque partis consensu super decimis facte fuerint, illos perpetuis temporibus ratas et inconcussas permanere faciatis, si tamen eas de conscientia et approbatione abbatis et fratrum constiterit processisse et nullam, quod absit, contineant pravitatem. Ad hec presentium auctoritate vobis precipiendo mandamus quatenus, si quis eorumdem parochianorum vestrorum in sepe dictos fratres violentas manus iniecerit, eum, candelis accensis, excommunicatum publice muncietis et tamquam excommunicatum faciatis ab omnibus evitari, donec eisdem fratribus congrue satisfaciat et cum litteris diocesani episcopi, rei veritatem continentibus, apostolico se conspectui representet. Datum Laterani, XV kalendas junii, pontificatus nostri anno primo.\n"
        },
        {
            "type": "regeste",
            "value": "Philippe Jaff\u00e9, Wilhelm Wattenbach, Samuel Loewenfeld, Ferdinand Kaltenbrunner, Paul Ewald, <i>Regesta pontificum Romanorum ab condita ecclesia ad annum post Christum natum MCXCVIII<\/i>, 2<sup>e<\/sup> \u00e9d. Leipzig : Veit, 1885-1888, 2 vol., n. 16235 <a target=\"_blank\" href= \"https:\/\/archive.org\/details\/regestapontificu02cath\/page\/544\">[en ligne]<\/a>."
        },
        {
            "type": "apparat_critique",
            "value": "<i>Lesart nicht sicher, obiges kaum richtig, ob<\/i> tamen ?",
            "children": {
                "numero_note": "a"
            }
        },
        {
            "type": "notes_historiques",
            "value": "Lanfrank, Bischof von Pavia, 1180\u20131198.",
            "children": {
                "numero_note": "1"
            }
        },
        {
            "type": "notes_historiques",
            "value": "Albert, Bischof von Vercelli, 1185\u20131205.",
            "children": {
                "numero_note": "2"
            }
        },
        {
            "type": "sources_manuscrites",
            "value": "F. ITALIE, Turin, Archivio di Stato, Mazzo I, Abbazia di Lucedio. Copie du XIII<sup>e<\/sup> si\u00e8cle. ",
            "children": {
                "type_source": "Autre copie m\u00e9di\u00e9vale"
            }
        },
        {
            "type": "notes_historiques",
            "value": "Gondulf ?",
            "children": {
                "numero_note": "3"
            }
        }
    ]
}