{
    "id": 146607,
    "name": "aposcripta-6234",
    "type": "acte",
    "url": "http:\/\/telma-chartes.irht.cnrs.fr\/aposcripta\/notice\/146607",
    "project_slug": "aposcripta",
    "project_label": "APOSCRIPTA \u2013 Lettres des papes",
    "user": "d_cremades",
    "last_update": "2020-10-19 16:39:20",
    "licence": "Attribution - Pas d\u2019Utilisation Commerciale - Partage dans les M\u00eames Conditions 3.0 France (CC BY-NC-SA 3.0 FR) ",
    "licence_url": "https:\/\/creativecommons.org\/licenses\/by-nc-sa\/3.0\/fr\/",
    "elements": [
        {
            "type": "pape",
            "value": "Cl\u00e9ment IV (1265-1268)"
        },
        {
            "type": "destinataire",
            "value": "Le Capitaine, les Anciens, les consuls et le coll\u00e8ge des marchands de Lucques"
        },
        {
            "type": "genre",
            "value": "Lettre, g\u00e9n\u00e9ral (apr\u00e8s 1198, littere cum filo canapis)"
        },
        {
            "type": "analyse",
            "value": "Clemens IV. an Capitano, Anziani, Konsuln und das Kollegium der Kaufleute von Lucca: best\u00e4tigt sie in ihren guten Vors\u00e4tzen und sagt ihnen baldige Hilfe zu. [Thumser]"
        },
        {
            "type": "sources_manuscrites",
            "value": "R<sup>1<\/sup>. CIT\u00c9 DU VATICAN, Archivio segreto Vaticano, <i>Registra Vaticana<\/i> 30, fol. ???",
            "children": {
                "type_source": "Registre de la chancellerie apostolique"
            }
        },
        {
            "type": "sources_manuscrites",
            "value": "R<sup>2<\/sup>. CIT\u00c9 DU VATICAN, Archivio segreto Vaticano, <i>Registra Vaticana<\/i> 33, ep. 533, fol. ???",
            "children": {
                "type_source": "Registre de la chancellerie apostolique"
            }
        },
        {
            "type": "sources_manuscrites",
            "value": "R<sup>3<\/sup>. CIT\u00c9 DU VATICAN, Archivio segreto Vaticano, <i>Registra Vaticana<\/i> 34, fol. ????",
            "children": {
                "type_source": "Registre de la chancellerie apostolique"
            }
        },
        {
            "type": "sources_manuscrites",
            "value": "R<sup>4<\/sup>. CIT\u00c9 DU VATICAN, Archivio segreto Vaticano, <i>Registra Vaticana<\/i> 35, ep. ???, fol. ??",
            "children": {
                "type_source": "Registre de la chancellerie apostolique"
            }
        },
        {
            "type": "edition",
            "value": "Ici reprise de Mathias Thumser, <i>Die Briefe Papst Clemens\u2019 IV. (1265-1268)<\/i>, Vorl\u00e4ufige Edition, MGH, 2015, n. 6."
        },
        {
            "type": "edition_autre",
            "value": "Edmond Mart\u00e8ne, Ursin Durand, <i>Thesaurus novus anecdotorum<\/i>, Paris, 1717, II, n. 14, col. 108-109 <a target=\"_blank\" href=\"https:\/\/archive.org\/stream\/ThesaurusNovusAnecdotorum2\/Thesaurus_novus_anecdotorum_2#page\/n89\/mode\/2up\"> [en ligne]<\/a>."
        },
        {
            "type": "regeste",
            "value": "Potthast, <i>Regesta pontificum Romanorum<\/i>, n. ???? <a target=\"_blank\" href=\"https:\/\/archive.org\/stream\/RegestaPontificumRomanorum\/ph#page\/n1557\/mode\/2up\"> [en ligne]<\/a>."
        },
        {
            "type": "regeste",
            "value": "\u00c9douard Jordan, <i>Les registres de Cl\u00e9ment IV (1265-1268)<\/i>, Paris, 1893-1945, n. 877, d\u2019apr\u00e8s R<sup>1<\/sup>, R<sup>2<\/sup>, R<sup>3<\/sup> et R<sup>4<\/sup>."
        },
        {
            "type": "transcription",
            "value": "<?xml version=\"1.0\" encoding=\"UTF-8\"?>\nCapitaneo, ancianis, consulibus et collegio mercatorum Lucensium spiritum gratie salutaris. Pium propositum, quod a Domino et in Domino concepistis, favore benivolo prosequentes, etsi nondum pervenerit ad effectum, ad stabilitatem eiusdem devotionem vestram obnixius invitamus, quod tanto gratius erit Deo, cum eodem auctore fuerit consummatum, quanto nobis ipsis nedum aliis videtur gravius post tanti temporis exhibita Deo servitia ad hostile dominium transmigrasse. Sane, licet status vester, qualis est modo, nec ad momentum a nobis valeat approbari, quia tamen scimus angustias, que vos obsident, quibus etiam diu fuistis oppressi, ad presens nolumus exponere vos discrimini, sed spem vobis offerimus propinqui subsidii, quod cum in ianuis fuerit, quid vobis agendum erit, statim curabimus intimare. Super aliis a vestris nuntiis nobis propositis eis respondimus, que litteris nolumus commendare, sed super hiis, que vobis dixerint, credatis eisdem.\n"
        },
        {
            "type": "date",
            "value": "apres 1265\/02\/15 - avant 1265\/06\/17",
            "children": {
                "date_deb_annee": "1265",
                "date_deb_mois": "02",
                "date_deb_jour": "15",
                "date_deb_type": "apres",
                "date_fin_annee": "1265",
                "date_fin_mois": "06",
                "date_fin_jour": "17",
                "date_fin_type": "avant"
            },
            "range": {
                "date_apres": 12650215,
                "date_avant": 12650617
            }
        }
    ]
}