{
    "id": 146375,
    "name": "aposcripta-6158",
    "type": "acte",
    "url": "http:\/\/telma-chartes.irht.cnrs.fr\/aposcripta\/notice\/146375",
    "project_slug": "aposcripta",
    "project_label": "APOSCRIPTA \u2013 Lettres des papes",
    "user": "l_valliere",
    "last_update": "2020-10-19 16:39:18",
    "licence": "Attribution - Pas d\u2019Utilisation Commerciale - Partage dans les M\u00eames Conditions 3.0 France (CC BY-NC-SA 3.0 FR) ",
    "licence_url": "https:\/\/creativecommons.org\/licenses\/by-nc-sa\/3.0\/fr\/",
    "elements": [
        {
            "type": "pape",
            "value": "Innocent III (1198-1216)"
        },
        {
            "type": "destinataire",
            "value": "L'archev\u00eaque de Narbonne Guillaume B\u00e9renger et le l\u00e9gat Raniero da Ponza"
        },
        {
            "type": "date_libre",
            "value": "X kalendas januarii"
        },
        {
            "type": "date",
            "value": "1198\/12\/23",
            "children": {
                "date_deb_annee": "1198",
                "date_deb_mois": "12",
                "date_deb_jour": "23"
            },
            "range": {
                "date_apres": 11981223,
                "date_avant": 11981223
            }
        },
        {
            "type": "date_lieu",
            "value": "Latran"
        },
        {
            "type": "genre",
            "value": "Mandement (littere cum filo canapis)"
        },
        {
            "type": "analyse",
            "value": "Carta del papa Innocenci III dirigida a Guillem Berenguer, arquebisbe de Narbona, i al legat pontifici Raniero da Ponza sobre la dimissi\u00f3 del bisbe Ot de Carcassona, en la qual es fa refer\u00e8ncia a la pres\u00e8ncia de l\u2019heretgia a la regi\u00f3 [Torras, Berga, Cingolani]. "
        },
        {
            "type": "sources_manuscrites",
            "value": "R. CIT\u00c9 DU VATICAN, Archivio segreto Vaticano, <i>Registra Vaticana<\/i> 4, ep. CCCCLXXXI, 490, fol. 130.",
            "children": {
                "type_source": "Registre de la chancellerie apostolique"
            }
        },
        {
            "type": "edition",
            "value": "Ici reprise de Sergi Grau Torras, Eduard Berga Salom\u00f3, Stefan\u00f3 M. Cingolani, <i>L\u2019Her\u00e8tica Pravitat a la Corona d\u2019Arag\u00f3 : documents sobre c\u00e0tars, valdesos i altres heretges (1155-1324)<\/i>, I, Barcelone : Fundaci\u00f3 Noguera, 2015, n. 17, p. 86-88."
        },
        {
            "type": "edition_autre",
            "value": "\u00c9tienne Baluze, <i>Epistolarum Innocentii III, Romani pontificis libri undecim<\/i>, Par\u00eds: Franciscus Muguet, 2 vol., 1682, vol. 1, p. 285, doc. 494 <a target=\"_blank\" href=\"https:\/\/books.google.be\/books?vid=GENT900000119588&printsec=frontcover&hl=fr#v=onepage&q&f=false\"> [en ligne]<\/a>."
        },
        {
            "type": "edition_autre",
            "value": "Jacques Paul Migne, <i>Patrologie Latine<\/i>, Par\u00eds, 1844-1855 (r\u00e9imp. Turnhout : Brepols, 1970), t. 214, col. 457-458 <a target=\"_blank\" href=\"https:\/\/archive.org\/details\/patrologiaecurs202unkngoog\/page\/n350\"> [en ligne]<\/a>."
        },
        {
            "type": "edition_autre",
            "value": "Othmar Hageneder, Anton Haidacher, Alfred A. Strnad, <i>Die Register Innocenz\u2019 III. 1. Pontifikatsjahr, 1198\/99<\/i>, Graz, Vienne, Cologne : B\u00f6hlau, 1964, n. 494, p. 722-723."
        },
        {
            "type": "regeste",
            "value": "Potthast, <i>Regesta pontificum Romanorum<\/i>, n. 503 <a target=\"_blank\" href=\"https:\/\/archive.org\/stream\/RegestaPontificumRomanorum\/ph#page\/n57\/mode\/2up\"> [en ligne]<\/a>."
        },
        {
            "type": "regeste",
            "value": "Mart\u00edn Alvira, <i>Pedro el Cat\u00f3lico, Rey de Arag\u00f3n y Conde de Barcelona (1196-1213). Documentos, testimonios y memoria hist\u00f3rica<\/i>, Saragossa: Instituci\u00f3n Fernando el Cat\u00f3lico, 6 vol., 2010, t. 1, n. 184, p. 325."
        },
        {
            "type": "transcription",
            "value": "<?xml version=\"1.0\" encoding=\"UTF-8\"?>\nNarbonensi archiepiscopo et fratri Rainerio. Hanc inter corporalia et spiritualia constat existere differentiam quod corporalia facilius destruuntur quam construantur; e contrario vero spiritualia facilius construuntur, quam destruantur. Unde iuxta canonicas sanctiones episcopus solus dare honorem potest, solus autem non potest auferre. Ex parte siquidem venerabilis fratris nostri Carcassonensis episcopi fuit in audientia nostra propositum quod in suis adeo processit diebus et propter senium vigor naturalis in ipso defecit, quod omnino est inutilis et insufficiens ad portandam curam Carcassonensis Ecclesiae, imo eius administratio, sicut proponitur, animabus sibi commissis perniciosa est potius et damnosa; praesertim cum non solum in temporalibus, imo etiam in spiritualibus, Ecclesia suae curae commissa cum caeteris dioecesanis tantum lapsum incurrerit, quod humani generis inimicus fere universorum corda iniquitatis gladio penetravit, ut eos secum in ignem perpetuae gehennae retrudat, et in tantum in ea dioecesi virus praevaricationis haereticae penetravit, quod diversas et inauditas sectas ministri diabolicae fraudis ibidem adinveniunt et publice profitentur et populum qui sibi credat habent, ita ut vox eorum angelica reputetur, nec sit inter eos qui ab ore ministri verbum affectet quinimo non dedignetur evangelicae praedicationis audire. Propter quod idem episcopus suam insufficientiam recognoscens a nobis humiliter postulavit ut ei cedendi licentiam praeberemus. Nos igitur tam super lapsu Ecclesiae quam interitu animarum, quae per incuriam pastoris in laqueum damnationis incidisse creduntur, pio condolentes affectu et volentes super hoc congruae provisionis remedium adhiberi, discretioni vestrae per apostolica scripta mandamus quatenus, si praefatum episcopum propter impedimentum cordis vel corporis insufficientem esse noveritis ad gerendam sollicitudinem pastoralem, vos auctoritate nostra cessionem eius admittere minime postponatis; et ea libere ac sine pravitate recepta, canonicis Ecclesiae Carcassonensis tribuatis licentiam idoneum episcopum eligendi, qui opere ac sermone fidei praevaricatores ad fidei revocet unitatem et eradicato penitus zizaniorum germine, frumentum cum multiplicato fructu faciat, inspirante divina clementia pullulare. Vobis autem in virtute obedientiae districte praecipimus ut per vos ipsos et quoscunque alios ac praefatos haereticos de Narbonensis provincia penitus excludendos omne studium et operam, quam poteritis, tribuatis. Datum Laterani, X kalendas ianuarii.\n"
        }
    ]
}