{
    "id": 26544,
    "name": "aposcripta-3623",
    "type": "acte",
    "url": "http:\/\/telma-chartes.irht.cnrs.fr\/aposcripta\/notice\/26544",
    "project_slug": "aposcripta",
    "project_label": "APOSCRIPTA \u2013 Lettres des papes",
    "user": "lettrespontificalesadmin",
    "last_update": "2020-10-19 16:28:02",
    "licence": "Attribution - Pas d\u2019Utilisation Commerciale - Partage dans les M\u00eames Conditions 3.0 France (CC BY-NC-SA 3.0 FR) ",
    "licence_url": "https:\/\/creativecommons.org\/licenses\/by-nc-sa\/3.0\/fr\/",
    "elements": [
        {
            "type": "pape",
            "value": "C\u00e9lestin III (1191-1198)"
        },
        {
            "type": "date_lieu",
            "value": "Lateran"
        },
        {
            "type": "date_libre",
            "value": "1196 M\u00e4rz 7 <a class=\"note\" href=\"#note-2\">2<\/a>"
        },
        {
            "type": "date",
            "value": " 1196\/03\/07",
            "children": {
                "date_deb_annee": "1196",
                "date_deb_mois": "03",
                "date_deb_jour": "07"
            },
            "range": {
                "date_apres": 11960307,
                "date_avant": 11960307
            }
        },
        {
            "type": "analyse",
            "value": "C\u00f6lestin III nimmt die Kollegiatkirche Grauhof (D. Hildesheim) in apostolischen Schutz und best\u00e4tigt ihre G\u00fcter und Rechte<a class=\"note\" href=\"#note-1\">1<\/a>."
        },
        {
            "type": "transcription",
            "value": "<?xml version=\"1.0\" encoding=\"UTF-8\"?>\nCelestinus episcopus servus servorum dei dilectis filiisa, preposito sancti Georgii in Goslaria eiusque fratribus, tam presentibus quam futuris, canonice substituendis in  ppm. | Religiosam eligentibus vitam apostolicum convenit adesse presidium, ne forte cuiuslibet temeritatis incursus aut eos a proposito revocet, aut robur ; quod absit, sacre religionisb infringat. Eapropter, dilecti in domino filii, vestris iustis postulationibus clementer | annuimus, et prefatam ecclesiam montis sancti Georgii de Goslaria, in qua divino mancipatic estis obsequio, sub beati Petri et nostra protectione suscipimus, et presentis scripti privilegio communimus. In primis siquidem statuentes, ut ordo canonicus, qui secundum deum et beati Augustini regulam in eodem loco institutus esse dinoscitur, perpetuis ibidem temporibus inviolabiliter observetur. Preterea, quascumque possessiones, quecumque bona eadem ecclesia impresentiarumd iuste et canonice possidet, aut in futurum concessione pontificum, largitione regum vel principum, oblatione fidelium seu aliis iustis modis prestante domino poterit adipisci, firma vobis vestrisque successoribus et illibata permaneant. In quibus hec propriis duximus exprimenda vocabulis : locum ipsum in quo prefata ecclesia sita est cum pertinentiis suis, silvam que dicitur Al, Goslarie contiguam3, cum universis agris cultis et incultis, quicquid est inter duas publicas et antiquas vias, unam que in Imenroth et alteram que Beningeroth ducit, predium quoque in Hoisheim cum decima, predium in Othfridesheim cum decima et molendino, in Eilinrodhe et Bardenhusen iuxta Goslaria molendina duo, iuxta Otfrideheim molendina duo, et molendinum in Mandre, novale in Dierwardinggeroth cum viginti duobus mansis, tredecim areis ac pratis, silvulam etiam que Hurst dicitur, et septem areas in Reinswiderothe, in Suanebeke curtem cum triginta mansis et areis suis atque litoribus et duobus molendinis cum circumadiacentibus pratis, ecclesiam quoque ipsius ville cum sex mansis et dimidio et eius libera concessione, in Ebekestorp mansum cum area, in monte qui Liudberch dicitur quinque mansos et dimidium cum silvula que Nordholt dicitur, comitatum etiam situm in pago qui Hertega dicitur, ab Henrico quinto imperatore ecclesie vestre collatum4, cum omnibus prediis ad ipsam pertinentibus, villis videlicet, mancipiis, pratis, aquis aquarumque discursibus, ordinationem quoque Henrici quarti5 imperatoris atque bone memorie Bertoldi, Ildesemensis episcopi6, pro annua pensione decime, ac census quinque solidorum de agris omnibus silve, que Al dicitur, cultis sive incultis, vel eorundem agrorum iusta repetionef, sicut sine pravitate facta est et hactenus observata, perpetuo iure servandam auctoritate apostolica confirmamus. Sane novalium vestrorum, que propriis manibus aut sumptibus colitis, sive de nutrimentis animalium vestrorum, nullus a vobis decimas exigere vel extorquere presumat. Liceat quoque vobis, clericos ac laicos liberos et absolutos, e seculo fugientes, ad conversionem recipere et eos absque contradictione qualibet retinere. Prohibemus insuper, ut nulli post factam in eadem ecclesia professionem fas sit, absque prepositi sui licentia, nisi artioris religionis obtentu, de eodem loco discedere, discedentem vero absque communium litterarum cautione nullus audeat retinere. Cum autem generale interdictum terre fuerit, liceat vobis, exclusis excommunicatis et interdictis, clausis ianuis, non pulsatis campanis, suppressa voce divina officia celebrare. Crisma vero, oleum sanctum, consecrationes altarium seu basilicarum, ordinationes clericorum, qui ad sacros fuerint ordines promovendi a diocesano suscipiatis episcopo, siquidem catholicus fuerit et gratiam atque communionem apostolice sedis habuerit et ea vobis gratis voluerit et sine pravitate qualibet exhibere, alioquin liceat vobis, quemcumque malueritis catholicum adire antistitem, qui nostra fretus auctoritate vobis, quod postulatur, impendat. Prohibemus insuper, ut infra fines parrochie vestre nullus sine assensu diocesani episcopi et vestro capellam seu oratorium de novo construere audeat, salvis privilegiis Romanorum pontificum. Obeunte vero te, nunc eiusdem loci preposito, vel tuorum quolibet successorum, nullus ibi qualibet surreptionisg astutia seu violentia preponatur, nisi quem fratres communi consensu vel fratrum pars consilii sanioris secundum deum et beati Augustini regulam providerint eligendum. Sepulturam quoque ipsius loci liberam esse decernimus, ut eorum devotioni et extreme voluntati, qui se illic sepeliri deliberaverint, nisi forte excommunicati vel interdicti sint, nullus obsistat, salva tamen iustitia illarum ecclesiarum, a quibus mortuorum corpora assumuntur. Paci quoque et tranquillitati vestre paterna in posterum sollicitudine providere volentes, auctoritate apostolica prohibemus, ut infra ecclesiam vestram, clausuras locorum seu grangiarum vestrarum nullus rapinam seu furtum facere, ignem apponere, sanguinem fundere, hominem temere capere vel interficere, seu violentiam audeat exercere. Libertates quoque et immunitates antiquas et rationabiles consuetudines, ecclesie vestre concessas et hactenus observatas, ratas habemus, et eas futuris temporibus illibatas permanere sancimus. Decernimus ergo, ut nulli omnino hominum liceat, prefatam ecclesiam temere perturbare aut eius possessiones auferre, vel ablatas retinere, minuere aut aliquibus vexationibus fatigare, sed omnia integra conserventur eorum pro quorum gubernatione ac sustentatione concessa sunt, usibus omnimodis profutura, salva sedis apostolice auctoritate et diocesani episcopi canonica iustitia. Si qua igitur in futurum ecclesiastica secularisve persona hanc nostre constitutionis paginam sciens contra eam temere venire temptaverit, secundo terciove commonita, nisi reatum suum congrua satisfactione correxerit, potestatis honorisque sui dignitate careat, reamque se divino iudicio existere de perpetrata iniquitate cognoscat et a sacratissimo corpore ac sanguine dei et domini nostri redemptoris Jesu Christi aliena fiat, atque in extremo examine divine ultioni subiaceat. Cunctis autem eidem loco sua iura servantibus sit pax domini nostri Jesu Christi, quatenus et hic fructum bone actionis percipiant et apud | districtum iudicem premia eterne pacis inveniant. Amen. Am. Amen. \u2014(R) Ego Celestinus catholice ecclesie episcopus ss. (M)\u2020 Ego Albinus Albanensis episcopus ss.\u2020 Ego Octavianus Hostiensis et Velletrensis episcopus ss.\u2020 Ego Petrus Portuensis et sancte Rufine episcopus ss. (6)\u2014 \u2020 Ego Melior sanctorum Johannis et Pauli presbiter cardinalis tit. Pamachii ss.\u2020 Ego Jordanus presbiter cardinalis sancte Pudentiane tit. Pastoris ss.\u2020 Ego Johannes tit. sancti Clementis card., Viterbiensis et Tuscanensis episcopus ss.\u2020 Ego Guido presbiter cardinalis sancte Marie Transtiberim tit. Calixti ss.\u2020 Ego Hugo presbiter cardinalis sancti Martini tit. Equitii ss.\u2020 Ego Centius tit. sancti Laurentii in Lucina presbiter cardinalis ss.\u2020 Ego Soffredus tit. sancte Praxedis presbiter cardinalis ss.\u2020 Ego Fid(antius) tit. sancti Marcelli presbiter cardinalis ss.\u2020 Ego Johannes tit. sancte Prisce presbiter cardinalis ss.\u2014 \u2020 Ego Gratianus sanctorum Cosme et Damiani diaconus cardinalis ss.\u2020 Ego Gerardus sancti Adriani diaconus cardinalis ss.\u2020 Ego Gregorius sancte Marie in porticu diaconus cardinalis ss.\u2020 Ego Gregorius sancte Marie in Aquiro diaconus cardinalis ss.\u2020 Ego Gregorius sancti Georgii ad velum aureum diaconus cardinalis ss.\u2020 Ego Lotarius sanctorum Sergii et Bachi diaconus cardinalis ss.\u2020 Ego Nicolaus sancte Marie in Cosmydin diaconus cardinalis ss.\u2020 Ego Bobo sancti Theodori diaconus cardinalis ss. (1)Dat. Laterani, per manum Centii, sancte Lucie in Orthea diaconi cardinalis domni pape camerariih. Non. Martii. Indictione xiiii. Incarnationis dominice anno mcxcv. Pontificatus vero domni Celestini pp iii anno quinto. \u2014\n"
        },
        {
            "type": "edition",
            "value": "Julius von Pflugk-Harttung, <i>Acta pontificum Romanorum inedita<\/i>, T\u00fcbingen, 1880, I, n. 435, p. 373-374"
        },
        {
            "type": "sources_manuscrites",
            "value": "Or. im Staatsarchive zu Hannover."
        },
        {
            "type": "remarques",
            "value": "Perg. ital., br. 0,629, lang 0,69\u20130,695, unten 0,025\u20130,03 umgeschlagen, durch 2 L\u00f6cher geht die rosa und dunkelgelbe starkf\u00e4dige Seidenschnur, woran die Bulle h\u00e4ngt, unterhalb derselben noch c. 0,48 messend, Faltung der Privilegien. Umschrift und p\u00e4pstliche Unterschrift von der Hand und Dinte des Hauptk\u00f6rpers, ob das E der letzteren und das Ringkreuz von anderer Hand gemacht sind, ist unsicher, ersteres war anfangs zu kurz gezogen und wurde in der zu fr\u00fchen unteren Biegung radirt, auch am Innen- und Aussenkreise ist etwas radirt. Die Datirung r\u00fchrt von dunklerer Dinte her als der Hauptk\u00f6rper, doch wohl von gleicher Hand, das C des Centius ist mit noch dunklerer Dinte eingetragen. Bei den Zeugen ist theilweise mit verschiedener Hand und Dinte gearbeitet, die Diakonen scheinen gr\u00f6ssten Theils vom gleichen Schreiber herzur\u00fchren, der bei Gregor (S. Marie in Aquiro) und Bobo (S. Theodori) im Ductus aus der Rolle fiel, ein gleiches gilt vom Presbyter Guido ; \u2020 Ego des Presbyters Melior und \u2020 E Johanns (S. Clementis) r\u00fchren von anderer Dinte und wohl auch von anderer Hand her als das Uebrige."
        },
        {
            "type": "apparat_critique",
            "value": "a.\u2002<i>Zwischen<\/i> filiis <i>und<\/i> preposito <i>ist ein Raum von 0,046 f\u00fcr den Namen frei geblieben<\/i>.",
            "children": {
                "numero_note": "a"
            }
        },
        {
            "type": "apparat_critique",
            "value": "b.\u2002io <i>auf Rasur<\/i>.",
            "children": {
                "numero_note": "b"
            }
        },
        {
            "type": "apparat_critique",
            "value": "c.\u2002t <i>erst in<\/i> f <i>verschrieben<\/i>.",
            "children": {
                "numero_note": "c"
            }
        },
        {
            "type": "apparat_critique",
            "value": "d.\u2002<i>Urspr\u00fcnglich<\/i> in",
            "children": {
                "numero_note": "d"
            }
        },
        {
            "type": "apparat_critique",
            "value": "e.\u2002in <i>unsicher, steht auf Bruch<\/i>.",
            "children": {
                "numero_note": "e"
            }
        },
        {
            "type": "apparat_critique",
            "value": "f.\u2002repentione (?) = repensione, <i>compensatio. Du Cange, Gloss. V p. 708<\/i>.",
            "children": {
                "numero_note": "f"
            }
        },
        {
            "type": "apparat_critique",
            "value": "g.\u2002<i>Mit dunklerer Dinte wohl von j\u00fcngerer Hand nachgezogen.<\/i>",
            "children": {
                "numero_note": "g"
            }
        },
        {
            "type": "apparat_critique",
            "value": "h.\u2002<i>Von<\/i> ucie <i>an zusammengedr\u00e4ngt auf Rasur<\/i>.",
            "children": {
                "numero_note": "h"
            }
        },
        {
            "type": "notes_historiques",
            "value": "<i>Vergl. die Urk. 26 October 1145, ebenfalls der Abtheilung Grauhof entnommen, und L\u00fcntzel, Gesch. d. Di\u00f6c. Hildesheim II S. 248.<\/i>",
            "children": {
                "numero_note": "1"
            }
        },
        {
            "type": "notes_historiques",
            "value": "<i>Nach Indiction und Pontificat geh\u00f6rt die Urk. in das Jahr 1196 nicht nach 1195, wohin sie L\u00fcntzel, Gesch. II S. 249 versetzt.<\/i>",
            "children": {
                "numero_note": "2"
            }
        },
        {
            "type": "notes_historiques",
            "value": "<i>Wegen der Ortsnamen vergl. L\u00fcntzel, Gesch. II S. 244.<\/i>",
            "children": {
                "numero_note": "3"
            }
        },
        {
            "type": "notes_historiques",
            "value": "<i>Vergl. Stumpf, Reichsk. 3025, 3162.<\/i>",
            "children": {
                "numero_note": "4"
            }
        },
        {
            "type": "notes_historiques",
            "value": "<i>Stumpf, Reichsk. 3162. Nach L\u00fcntzel, Gesch. I S. 358, II S. 249 zweifelhafte Urk. vom Jahre 1099 oder 1119.<\/i>",
            "children": {
                "numero_note": "5"
            }
        },
        {
            "type": "notes_historiques",
            "value": "<i>Berthold, Bischof von Hildesheim, 1118\u20131130 ; Urk. vom Jahre 1128. L\u00fcntzel, Gesch. I S. 359.<\/i>",
            "children": {
                "numero_note": "6"
            }
        },
        {
            "type": "genre",
            "value": "Bulle"
        }
    ]
}