{
    "id": 148804,
    "name": "aposcripta-8374",
    "type": "acte",
    "url": "http:\/\/telma-chartes.irht.cnrs.fr\/aposcripta\/notice\/148804",
    "project_slug": "aposcripta",
    "project_label": "APOSCRIPTA \u2013 Lettres des papes",
    "user": "lettrespontificalesadmin",
    "last_update": "2020-10-19 16:39:49",
    "licence": "Attribution - Pas d\u2019Utilisation Commerciale - Partage dans les M\u00eames Conditions 3.0 France (CC BY-NC-SA 3.0 FR) ",
    "licence_url": "https:\/\/creativecommons.org\/licenses\/by-nc-sa\/3.0\/fr\/",
    "elements": [
        {
            "type": "pape",
            "value": "Innocent IV (1243-1254)"
        },
        {
            "type": "destinataire",
            "value": "L'abb\u00e9 et les relgieux de l'abbaye de Saint-Pierre"
        },
        {
            "type": "date_libre",
            "value": "IXIIII\u00b0 kalendas Marcii, anno octavo"
        },
        {
            "type": "date",
            "value": " 1251\/02\/16",
            "children": {
                "date_deb_annee": "1251",
                "date_deb_mois": "02",
                "date_deb_jour": "16"
            },
            "range": {
                "date_apres": 12510216,
                "date_avant": 12510216
            }
        },
        {
            "type": "date_lieu",
            "value": "Lyon"
        },
        {
            "type": "genre",
            "value": "Mandement (littere cum filo canapis)"
        },
        {
            "type": "analyse",
            "value": "Le pape Innocent IV d\u00e9fend aux religieuses de l\u2019abbaye de Saint-Pierre de Lyon de vendre, d\u2019inf\u00e9oder, d\u2019engager ou d\u2019ali\u00e9ner de n\u2019importe quelle mani\u00e8re leur ch\u00e2teau de la Tour-du-Pin."
        },
        {
            "type": "sources_manuscrites",
            "value": "Vidimus de 1293. \u2014 Archives du Rh\u00f4ne. \u2014 Fonds de l\u2019abbaye de Saint-Pierre, chap. 4, n\u00b0 1.",
            "children": {
                "type_source": "Vidimus"
            }
        },
        {
            "type": "edition",
            "value": "Ici reprise de Marie-Claude Guigue, <i>Cartulaire lyonnais<\/i>, Lyon : Association typographique, I, 1885, I, n. 455, p. 577."
        },
        {
            "type": "transcription",
            "value": "<?xml version=\"1.0\" encoding=\"UTF-8\"?>\nInnocentius, episcopus, servus servorum Dei, dilectis in Christo filiabus abbatisse et conventui monasterii Sancti Petri Lugdunensis, salutem et apostolicam benedictionem. Auctoritate vobis presentium districtius inhibemus ne castrum de Turre, quod ad vestrum monasterium pertinere dignoscitur, vendere vel infeudare aut impignorare seu alienare quomodolibet presumatis. Nos enim exnunc irritum decernimus et inane si quid de castro ipso contra inhibitionem nostram contingerit attemptari. Datum Lugduni, XIIIIo kalendas marcii, pontificatus nostri anno octavo.\n"
        }
    ]
}