{
    "id": 149208,
    "name": "aposcripta-8771",
    "type": "acte",
    "url": "http:\/\/telma-chartes.irht.cnrs.fr\/aposcripta\/notice\/149208",
    "project_slug": "aposcripta",
    "project_label": "APOSCRIPTA \u2013 Lettres des papes",
    "user": "lettrespontificalesadmin",
    "last_update": "2020-10-19 16:39:55",
    "licence": "Attribution - Pas d\u2019Utilisation Commerciale - Partage dans les M\u00eames Conditions 3.0 France (CC BY-NC-SA 3.0 FR) ",
    "licence_url": "https:\/\/creativecommons.org\/licenses\/by-nc-sa\/3.0\/fr\/",
    "elements": [
        {
            "type": "pape",
            "value": "Innocent IV (1243-1254)"
        },
        {
            "type": "destinataire",
            "value": "II.<lb n=\"\"\/>Revocatio collationum vel provisionum in regno Sicilie factarum per legatum vel quoscumque alios"
        },
        {
            "type": "date_libre",
            "value": "VIII kalendas februarii, anno VIII"
        },
        {
            "type": "date",
            "value": " 1251\/01\/25",
            "children": {
                "date_deb_annee": "1251",
                "date_deb_mois": "01",
                "date_deb_jour": "25"
            },
            "range": {
                "date_apres": 12510125,
                "date_avant": 12510125
            }
        },
        {
            "type": "date_lieu",
            "value": "Lugduni"
        },
        {
            "type": "sources_manuscrites",
            "value": "R. CIT\u00c9 DU VATICAN, Archivio Segreto Vaticano, <hi rend=\"italic\">Registra Vaticana<\/hi> ... Inn.\u00a0IV Reg. Vol.\u00a0II, 81; Lib.\u00a0VIII, cur.\u00a05; \u2014 Vol.\u00a0II, 84; Lib.\u00a0VIII, cur.\u00a022. Pertzii exemplaria contulimus cum illis, quae Berger edidit.",
            "children": {
                "type_source": "Registre de la chancellerie apostolique"
            }
        },
        {
            "type": "genre",
            "value": "Mandement (littere cum filo canapis)"
        },
        {
            "type": "analyse",
            "value": "Innocentius IV papa eidem legato mandat, ut super archiepiscopatibus, episcopatibus et abbatiis vacantibus conferendis in regno Siciliae nullatenus absque speciali mandato apostolico procedat. \u2014 Revocat, si quae de huiusmodi dignitatibus collatae fuerint [Rodenberg]."
        },
        {
            "type": "transcription",
            "value": "<?xml version=\"1.0\" encoding=\"UTF-8\"?>\nII.Revocatio collationum vel provisionum in regno Sicilie factarum per legatum vel quoscumque alios.Ad futuram rei memoriam. Quia Sicilie regnum sedis apostolice speciale iamdudum angustias sustinuit et pressuras, a quibus, deficiente illo qui assiduis ipsum pregravabat oneribus et insuetis servitiis ancillabat, iam incipit respirare, decet et expedit, ut nos, quibus imminet cura eius, obtate quietis refrigerium procuremus, ne aliquorum vexetur molestiis neve scandalo aliquo perturbetur. Hinc est, quod cum dilecto filio nostro P. Sancti Georgii ad Velum Aureum diacono cardinali, apostolice sedis legato, per nostras litteras duxerimus inhibendum, ne archiepiscopatus vel episcopatus aut abbatias in regno conferat memorato, nos, ut hec nostra inhibitio firmum robur obtineat et effectum, omnem collationem seu provisionem, si qua fiat per eundem legatum seu quoscumque alios absque nostro speciali mandato de huiusmodi dignitatibus vacantibus seu etiam vacaturis, decernimus ex nunc auctoritate presentium non valere. Nulli ergo etc. nostre constitutionis etc.Dat. Lugduni, VIII Kalendas Februarii, anno VIII\u00b0.\n"
        },
        {
            "type": "edition",
            "value": "Ici reprise de Karl Rodenberg, Epistolae s. XIII e regestis pontificum romanorum selectae, III, Berlin : Weidmann (MGH), 1894, n.\u00a035b, p.\u00a027."
        },
        {
            "type": "edition_autre",
            "value": "?"
        },
        {
            "type": "regeste",
            "value": "?"
        },
        {
            "type": "bibliographie_generale",
            "value": "?"
        },
        {
            "type": "apparat_critique",
            "value": "?",
            "children": {
                "numero_note": "a"
            }
        },
        {
            "type": "apparat_critique",
            "value": "?",
            "children": {
                "numero_note": "b"
            }
        },
        {
            "type": "apparat_critique",
            "value": "?",
            "children": {
                "numero_note": "c"
            }
        },
        {
            "type": "apparat_critique",
            "value": "?",
            "children": {
                "numero_note": "d"
            }
        },
        {
            "type": "apparat_critique",
            "value": "?",
            "children": {
                "numero_note": "e"
            }
        },
        {
            "type": "apparat_critique",
            "value": "?",
            "children": {
                "numero_note": "f"
            }
        },
        {
            "type": "notes_historiques",
            "value": "?",
            "children": {
                "numero_note": "1"
            }
        },
        {
            "type": "notes_historiques",
            "value": "?",
            "children": {
                "numero_note": "2"
            }
        },
        {
            "type": "notes_historiques",
            "value": "?",
            "children": {
                "numero_note": "3"
            }
        }
    ]
}