{
    "id": 20642,
    "name": "aposcripta-629",
    "type": "acte",
    "url": "http:\/\/telma-chartes.irht.cnrs.fr\/aposcripta\/notice\/20642",
    "project_slug": "aposcripta",
    "project_label": "APOSCRIPTA \u2013 Lettres des papes",
    "user": "lettrespontificalesadmin",
    "last_update": "2020-10-19 16:26:51",
    "licence": "Attribution - Pas d\u2019Utilisation Commerciale - Partage dans les M\u00eames Conditions 3.0 France (CC BY-NC-SA 3.0 FR) ",
    "licence_url": "https:\/\/creativecommons.org\/licenses\/by-nc-sa\/3.0\/fr\/",
    "elements": [
        {
            "type": "pape",
            "value": "Urbain II (1088-1099)"
        },
        {
            "type": "date_lieu",
            "value": "n.c."
        },
        {
            "type": "date_libre",
            "value": "1089<a class=\"note\" href=\"#note-1\">1<\/a> (Iuli 1)"
        },
        {
            "type": "analyse",
            "value": "Urbanus\u00a0II Sancium regem Aragonensium laudat, quod regnum suum Romanae ecclesiae tributarium fecerit. Hortatur, ne neptem invitam cuidam in matrimonium det."
        },
        {
            "type": "transcription",
            "value": "<?xml version=\"1.0\" encoding=\"UTF-8\"?>\nDe neptis tue cet. ut in Gratiani decr. C.\u00a0XXXI. qu.\u00a02. c.\u00a03.2 \n"
        },
        {
            "type": "edition",
            "value": "Samuel Loewenfeld, <i>Epistolae pontificum romanorum ineditae<\/i>, Leipzig : Veit et Comp., 1885, n. 130, p. 63-64"
        },
        {
            "type": "sources_manuscrites",
            "value": "Coll. Brit. Urb. ep.\u00a041, l.\u00a0l. fol.\u00a0150<sup>b<\/sup>."
        },
        {
            "type": "notes_historiques",
            "value": "Tempus liquet ex bulla Urbani\u00a0II, rogatu Sancii regis die 1.\u00a0Iul. 1089 data, ap. Ramon de Huesca Iglesias de Aragon VII. 458. Cf. Jaff\u00e9 ed. sec. sub dato.",
            "children": {
                "numero_note": "1"
            }
        },
        {
            "type": "notes_historiques",
            "value": "Cf. Jaff\u00e9 ed. princ.\u00a04113.",
            "children": {
                "numero_note": "2"
            }
        },
        {
            "type": "apparat_critique",
            "value": "emolumentam <i>c.<\/i>",
            "children": {
                "numero_note": "a"
            }
        },
        {
            "type": "date",
            "value": "circa 1088\/07\/01",
            "children": {
                "date_deb_annee": "1088",
                "date_deb_mois": "07",
                "date_deb_jour": "01",
                "date_deb_type": "circa"
            },
            "range": {
                "date_apres": 10880701,
                "date_avant": 10880701
            }
        },
        {
            "type": "genre",
            "value": "Bulle"
        }
    ]
}