{
    "id": 149808,
    "name": "aposcripta-9371",
    "type": "acte",
    "url": "http:\/\/telma-chartes.irht.cnrs.fr\/aposcripta\/notice\/149808",
    "project_slug": "aposcripta",
    "project_label": "APOSCRIPTA \u2013 Lettres des papes",
    "user": "lettrespontificalesadmin",
    "last_update": "2020-10-19 16:40:04",
    "licence": "Attribution - Pas d\u2019Utilisation Commerciale - Partage dans les M\u00eames Conditions 3.0 France (CC BY-NC-SA 3.0 FR) ",
    "licence_url": "https:\/\/creativecommons.org\/licenses\/by-nc-sa\/3.0\/fr\/",
    "elements": [
        {
            "type": "pape",
            "value": "Urbain IV (1261-1264)"
        },
        {
            "type": "destinataire",
            "value": "Magistro Alberto notario nostro"
        },
        {
            "type": "date_libre",
            "value": "III kalendas augusti, anno II"
        },
        {
            "type": "date",
            "value": " 1263\/07\/30",
            "children": {
                "date_deb_annee": "1263",
                "date_deb_mois": "07",
                "date_deb_jour": "30"
            },
            "range": {
                "date_apres": 12630730,
                "date_avant": 12630730
            }
        },
        {
            "type": "date_lieu",
            "value": "Urbemveterem"
        },
        {
            "type": "sources_manuscrites",
            "value": "R. CIT\u00c9 DU VATICAN, Archivio Segreto Vaticano, <hi rend=\"italic\">Registra Vaticana<\/hi> ... Urb.\u00a0IV Reg. Vol.\u00a0I, 102; Lib.\u00a0II, f.\u00a055, ep.\u00a0159. Epistolam nos inde descripsimus.",
            "children": {
                "type_source": "Registre de la chancellerie apostolique"
            }
        },
        {
            "type": "genre",
            "value": "Mandement (littere cum filo canapis)"
        },
        {
            "type": "analyse",
            "value": "Urbanus IV papa magistro Alberto notario suo mandat, ut [Bartholomaeum] archiepiscopum Cusentinum super negotio quod noverit salubriter instruat [Rodenberg]."
        },
        {
            "type": "transcription",
            "value": "<?xml version=\"1.0\" encoding=\"UTF-8\"?>\nMagistro Alberto notario nostro.Ecce venerabilem fratrem nostrum . . archiepiscopum Cusentinum, virum utique experte prudentie et examinate virtutis, in Franciam et in Angliam mittimus pro negotio, quod tu nosti, discretioni tue per apostolica scripta mandantes, quatinus eundem archiepiscopum, communicatis sibi hiis que super commisso tibi ab apostolica sede negotio facere te continget, salubriter instruas et utiliter dirigas, sicut honori Romane ecclesie et promotioni dicti negotii tibi commissi videris expedire.Dat. apud Urbemveterem, III Kalendas Augusti, anno II.\n"
        },
        {
            "type": "edition",
            "value": "Ici reprise de Karl Rodenberg, Epistolae s. XIII e regestis pontificum romanorum selectae, III, Berlin : Weidmann (MGH), 1894, n.\u00a0554, p.\u00a0537."
        },
        {
            "type": "edition_autre",
            "value": "?"
        },
        {
            "type": "regeste",
            "value": "?"
        },
        {
            "type": "bibliographie_generale",
            "value": "?"
        },
        {
            "type": "apparat_critique",
            "value": "?",
            "children": {
                "numero_note": "a"
            }
        },
        {
            "type": "apparat_critique",
            "value": "?",
            "children": {
                "numero_note": "b"
            }
        },
        {
            "type": "apparat_critique",
            "value": "?",
            "children": {
                "numero_note": "c"
            }
        },
        {
            "type": "apparat_critique",
            "value": "?",
            "children": {
                "numero_note": "d"
            }
        },
        {
            "type": "apparat_critique",
            "value": "?",
            "children": {
                "numero_note": "e"
            }
        },
        {
            "type": "apparat_critique",
            "value": "?",
            "children": {
                "numero_note": "f"
            }
        },
        {
            "type": "notes_historiques",
            "value": "?",
            "children": {
                "numero_note": "1"
            }
        },
        {
            "type": "notes_historiques",
            "value": "?",
            "children": {
                "numero_note": "2"
            }
        },
        {
            "type": "notes_historiques",
            "value": "?",
            "children": {
                "numero_note": "3"
            }
        }
    ]
}