{
    "id": 25476,
    "name": "aposcripta-2573",
    "type": "acte",
    "url": "http:\/\/telma-chartes.irht.cnrs.fr\/aposcripta\/notice\/25476",
    "project_slug": "aposcripta",
    "project_label": "APOSCRIPTA \u2013 Lettres des papes",
    "user": "lettrespontificalesadmin",
    "last_update": "2020-10-19 16:27:45",
    "licence": "Attribution - Pas d\u2019Utilisation Commerciale - Partage dans les M\u00eames Conditions 3.0 France (CC BY-NC-SA 3.0 FR) ",
    "licence_url": "https:\/\/creativecommons.org\/licenses\/by-nc-sa\/3.0\/fr\/",
    "elements": [
        {
            "type": "pape",
            "value": "Gr\u00e9goire IX (1227-1241)"
        },
        {
            "type": "destinataire",
            "value": "Les archev\u00eaques, \u00e9v\u00eaques et autres pr\u00e9lats d'\u00e9glises auxquels ces lettres parviendront",
            "children": {
                "numero_note": "0"
            }
        },
        {
            "type": "date_lieu",
            "value": "Anagni\u00e6 (Datum Anagni\u00e6)"
        },
        {
            "type": "date_libre",
            "value": "1233, 10 f\u00e9vrier"
        },
        {
            "type": "date",
            "value": " 1233\/02\/10",
            "children": {
                "date_deb_annee": "1233",
                "date_deb_mois": "02",
                "date_deb_jour": "10"
            },
            "range": {
                "date_apres": 12330210,
                "date_avant": 12330210
            }
        },
        {
            "type": "analyse",
            "value": "Ad archiepiscopos et episcopos, de non gravandis prioratibus et domibus Clun. ordinis per nimias procurationes aut evectiones.\nGr\u00e9goire IX pape recommande aux archev\u00eaques et aux \u00e9v\u00eaques de ne pas accabler les d\u00e9pendances et possessions de l'ordre de Cluny par le biais de proc\u00e9dures et d'appropriations excessives."
        },
        {
            "type": "transcription",
            "value": "<?xml version=\"1.0\" encoding=\"UTF-8\"?>\nGregorius episcopus, servus servorum Dei, venerabilibus fratribus archiepiscopis, episcopis, et aliis ecclesiarum prelatis, ad quos iste pervenerint, salutem et apostolicam benedictionem. Gravem dilectorum filiorum abbatis et conventus Cluniacen. recepimus questionem quod vos adeo graves existitis in procurationibus ab eorum domibus et prioratibus exigendis, ut propter hoc non solum earumdem domorum Rectores et Prioratuum bona compellantur exponere, verum etiam du\u00e6 partes substantiarum aliquarum Domorum et Prioratuum in talibus expendantur, et cum in ipsos pr\u00e6textu privilegiorum \u00e0 sede sibi apostolica indultorum nequeatis Ecclesiasticam exercere censuram, illuc dumtaxat ob procurationem solam acceditis in jure diffinito evectionum numero non contenti : quare petierunt super hoc sibi salubriter provideri. Cum igitur in generali Concilio provida sit deliberatione statutum ut procurationes, qu\u00e6 ratione visitationis debentur archiepiscopis, episcopis, archidiaconis et quibuslibet aliis, absque manifesta et rationabili causa nullatenus erigantur, et tunc evectionum et personarum mediocritas observetur in Lateranensi Concilio diffinita, universitati vestr\u00e6 auctoritate pr\u00e6sentium districtius inhibemus, ne domos et prioratus eosdem in pr\u00e6missis aliquatenus aggravetis contra statuta Concilii memorati. Datum Anagnie IV, idus februarii, pontificatus nostri anno VI.\n"
        },
        {
            "type": "edition",
            "value": "Ici reprise de Pierre Simon, <i>Bullarium sacri Ordinis cluniacensis, complectens plurima privilegia per summos pontifices tum ipsi cluniacensi abbatiae, tum ei subditis monasteriis hactenus concessa<\/i>, Lyon : Jullieron, 1680, p. 112, n. 1, c. 1, num\u00e9ris\u00e9e par le projet <i>CBMA - Corpus Burgundiae Medii Aevi<\/i>, document 6076. Site du projet Corpus de la Bourgogne du Moyen \u00c2ge, [En ligne] <a href=\"http:\/\/www.cbma-project.eu\" target=\"_blank\">http:\/\/www.cbma-project.eu<\/a>."
        },
        {
            "type": "sources_manuscrites",
            "value": "\u00e0 renseigner."
        },
        {
            "type": "genre",
            "value": "Lettre"
        },
        {
            "type": "regeste",
            "value": "Auguste Bernard, Alexandre Bruel, <i>Recueil des chartes de l'abbaye de Cluny<\/i>. VI. <i>1211-1300<\/i>, Paris : Imprimerie nationale, 1903 <a href=\"http:\/\/gallica.bnf.fr\/ark:\/12148\/bpt6k367019?rk=21459;2\" target=\"_blank\">[en ligne]<\/a>, n. 4623, p. 163."
        }
    ]
}