{
    "id": 23827,
    "name": "aposcripta-1030",
    "type": "acte",
    "url": "http:\/\/telma-chartes.irht.cnrs.fr\/aposcripta\/notice\/23827",
    "project_slug": "aposcripta",
    "project_label": "APOSCRIPTA \u2013 Lettres des papes",
    "user": "l_valliere",
    "last_update": "2020-10-19 16:27:19",
    "licence": "Attribution - Pas d\u2019Utilisation Commerciale - Partage dans les M\u00eames Conditions 3.0 France (CC BY-NC-SA 3.0 FR) ",
    "licence_url": "https:\/\/creativecommons.org\/licenses\/by-nc-sa\/3.0\/fr\/",
    "elements": [
        {
            "type": "pape",
            "value": "Innocent IV (1243-1254)"
        },
        {
            "type": "destinataire",
            "value": "Le roi de France Louis IX."
        },
        {
            "type": "date_libre",
            "value": "II idus decembris, anno primo"
        },
        {
            "type": "date",
            "value": " 1243\/12\/12",
            "children": {
                "date_deb_jour": "12",
                "date_deb_mois": "12",
                "date_deb_annee": "1243"
            },
            "range": {
                "date_apres": 12431212,
                "date_avant": 12431212
            }
        },
        {
            "type": "date_lieu",
            "value": "Latran"
        },
        {
            "type": "genre",
            "value": "Lettre, g\u00e9n\u00e9ral (apr\u00e8s 1198, littere cum filo canapis)"
        },
        {
            "type": "analyse",
            "value": "Litterae Innocentii papae IV de comite Tolosano ad gratiam Sedis apostolicae, rogante rege Franciae, admisso."
        },
        {
            "type": "transcription",
            "value": "<?xml version=\"1.0\" encoding=\"UTF-8\"?>\nInnocentius episcopus, servus servorum Dei, carissimo in Christo filio regi Francie illustri, salutem et apostolicam benedictionem. Potentatus tui solii, cui profecto Dominus benedixit in tua persona magnifica, non sine speciali dono divine gratie quasi mirifice sublimatus, strenuitate pollet pre ceteris, tuque ceteros virtutibus antecellis, cum in te mansuetudo, pietas et clementia, que solent potissime inter alia virtutum genera principes insignire, tuam quibusdam specialibus titulis excellentiam efferentes noscantur, non quale quale sed re et nomine regale hospitium invenisse qui pius in operibus, in aspectu clemens et in sermonibus dicens maxime mansuetus. Hac siquidem consideratione inducti, etsi proponamus illustrium ac aliorum principum et nobilium atque devotorum Ecclesie personas, quantum cum Deo possumus, honorare, ad tui tamen, quem specialissimum inter alios orbis reges et principes reputamus, et regni tui jugem exaltationem eo propensius affectu intendere volumus ac effectu quo Sedes Apostolica te in suis oportunitatibus promptiorem repperit et in defensione orthodoxe fidei ac libertatis ecclesiastice precipuum defensorem. Cum igitur dilectos filios magistros G. archidiaconum Constantiensem et Guillelmum de Lemovicis, clericos et familiares tuos, viros utique providos, sollicitos et fideles, pro negotio dilecti filii nobilis viri comitis Tholosani et quibusdam aliis nuper ad Sedem apostolicam tua magnificentia destinarit, ipsos tanquam carissimi nostri nuntios leto vultu recepimus, et, licet eorum petitio quoad negotium ejusdem comitis gravis admodum et difficilis videretur, volentes tamen in hiis et aliis tue satisfacere voluntati, eundem comitem, devicti, prout ei viva voce diximus, precum tuarum instantia, ad gratiam apostolice Sedis admisimus, et predictos nuntios, quos tibi de fidelitate ac circumspectione sollicita in negotiis eisdem a celsitudine tua commissis plurimum commendamus, in aliis que pro te ac tuis petere voluerunt expedivimus, prout tibi referre poterunt, facie letiori. Quocirca serenitatem regiam duximus affectuose rogandam quatinus, de virtute proficiens in virtutem, in Apostolice Sedis devotione, tanquam murus eneus, stabilitate ac firmitate solita perseveres ut de terrene solio dignitatis ad celestis regni fastigium valeas invictissimus pervenire. Ad hec volumus et rogamus ut, de nobis plene confidens, intrepide ac secure nos in tuis oportunitatibus interpelles, quos procul dubio efficaces juxta votum senties et repperies etiam multipliciter gratiosos. Datum Laterani, II. idus decembris, pontificatus nostri anno primo.\n"
        },
        {
            "type": "edition",
            "value": "Ici d'apr\u00e8s Alexandre Teulet, <i>Layettes du Tr\u00e9sor des chartes<\/i>, II, Paris : Henri Plon, 1866 <a target=\"_blank\" href=\"http:\/\/gallica.bnf.fr\/ark:\/12148\/bpt6k31580p\/f613.image\"> [en ligne]<\/a>, n. 3148, p. 524-525 <a target=\"_blank\" href=\"https:\/\/francearchives.fr\/fr\/facomponent\/34b9df6b7a13528b8e557a28bd8487bf7018e46e\">[num\u00e9ris\u00e9e sur le site des Archives de France]<\/a>, d'apr\u00e8s E."
        },
        {
            "type": "sources_manuscrites",
            "value": "E. FRANCE, Paris, Archives nationales, J 352\/2. Original scell\u00e9 (bulle de plomb pendant sur cordelettes de chanvre ; voyez l'<i>Inventaire<\/i>, n. 6048).",
            "children": {
                "type_source": "Exp\u00e9dition"
            }
        },
        {
            "type": "regeste",
            "value": "Potthast, <i>Regesta pontificum Romanorum<\/i>, n. 11192 <a target=\"_blank\" href=\"https:\/\/archive.org\/stream\/RegestaPontificumRomanorum\/ph#page\/n967\/mode\/2up\"> [en ligne]<\/a>."
        },
        {
            "type": "regeste",
            "value": "Bernard Barbiche, <i>Les actes pontificaux originaux des Archives Nationales de Paris<\/i>, Cit\u00e9 du Vatican, 1975-1982, I, n. 448, p. 174, d\u2019apr\u00e8s E."
        },
        {
            "type": "remarques",
            "value": "Absente des registres"
        }
    ]
}