{
    "id": 149520,
    "name": "aposcripta-9083",
    "type": "acte",
    "url": "http:\/\/telma-chartes.irht.cnrs.fr\/aposcripta\/notice\/149520",
    "project_slug": "aposcripta",
    "project_label": "APOSCRIPTA \u2013 Lettres des papes",
    "user": "lettrespontificalesadmin",
    "last_update": "2020-10-19 16:39:59",
    "licence": "Attribution - Pas d\u2019Utilisation Commerciale - Partage dans les M\u00eames Conditions 3.0 France (CC BY-NC-SA 3.0 FR) ",
    "licence_url": "https:\/\/creativecommons.org\/licenses\/by-nc-sa\/3.0\/fr\/",
    "elements": [
        {
            "type": "pape",
            "value": "Innocent IV (1243-1254)"
        },
        {
            "type": "destinataire",
            "value": ". . preposito ecclesie de Alsberch Hyldesemensis diocesis"
        },
        {
            "type": "date_libre",
            "value": "V kalendas iunii, anno XI"
        },
        {
            "type": "date",
            "value": " 1254\/05\/28",
            "children": {
                "date_deb_annee": "1254",
                "date_deb_mois": "05",
                "date_deb_jour": "28"
            },
            "range": {
                "date_apres": 12540528,
                "date_avant": 12540528
            }
        },
        {
            "type": "date_lieu",
            "value": "Asisii"
        },
        {
            "type": "sources_manuscrites",
            "value": "R. CIT\u00c9 DU VATICAN, Archivio Segreto Vaticano, <hi rend=\"italic\">Registra Vaticana<\/hi> ... Inn.\u00a0IV Reg. Vol.\u00a0III, 107; Lib.\u00a0XI, 765. Damus Pertzii exemplar.",
            "children": {
                "type_source": "Registre de la chancellerie apostolique"
            }
        },
        {
            "type": "genre",
            "value": "Mandement (littere cum filo canapis)"
        },
        {
            "type": "analyse",
            "value": "Innocentius IV papa praeposito de Alsberch mandat, ut quosdam homines quondam de corpore ecclesiae Quedelinburgensis, quos abbatissa in saecularium personarum dominium venditionis et commutationis titulo transtulerit, ad ius ecclesiae eiusdem revocet [Rodenberg]."
        },
        {
            "type": "transcription",
            "value": "<?xml version=\"1.0\" encoding=\"UTF-8\"?>\n. . preposito ecclesie de Alsberch Hyldesemensis diocesis.Ex parte Iohannis Meinradi Werneri super curtem capelle Conradi de Langele ac quorundam aliorum hominum quondam de corpore ecclesie Quendeliraburgensis diocesis Alberstadensis fuit propositum coram nobis, quod . . abbatissa et conventus eiusdem ecclesie, minus provide attendentes quod id, quod semel divinis obsequiis deputatum esse dinoscitur, ad humanos usus transferri non debet iuxta canonicas sanctiones, homines supradictos, ipsius ecclesie servos, in secularium personarum dominium venditionis et commutationis titulo transtulerunt, contra promissum suum indebite venientes in eorundem hominum ac ipsius ecclesie non modicum preiudicium et gravamen; super quo apostolice providentie remedium dicti homines implorarunt. Volentes igitur tam ipsorum hominum statui quam indempnitati eiusdem ecclesie provideri, mandamus, quatinus homines ipsos, si eos temere alienatos inveneris vel illicite distractos, ad ius et proprietatem ipsius ecclesie studeas legitime revocare, contradictores [etc.] \u2014 non obstante si aliquibus a sede apostolica sit indultum, quod excommunicari, interdici nequeant vel suspendi.Dat. Asisii, V Kalendas Iunii, anno XI\u00b0.\n"
        },
        {
            "type": "edition",
            "value": "Ici reprise de Karl Rodenberg, Epistolae s. XIII e regestis pontificum romanorum selectae, III, Berlin : Weidmann (MGH), 1894, n.\u00a0292, p.\u00a0261."
        },
        {
            "type": "edition_autre",
            "value": "?"
        },
        {
            "type": "regeste",
            "value": "?"
        },
        {
            "type": "bibliographie_generale",
            "value": "?"
        },
        {
            "type": "apparat_critique",
            "value": "?",
            "children": {
                "numero_note": "a"
            }
        },
        {
            "type": "apparat_critique",
            "value": "?",
            "children": {
                "numero_note": "b"
            }
        },
        {
            "type": "apparat_critique",
            "value": "?",
            "children": {
                "numero_note": "c"
            }
        },
        {
            "type": "apparat_critique",
            "value": "?",
            "children": {
                "numero_note": "d"
            }
        },
        {
            "type": "apparat_critique",
            "value": "?",
            "children": {
                "numero_note": "e"
            }
        },
        {
            "type": "apparat_critique",
            "value": "?",
            "children": {
                "numero_note": "f"
            }
        },
        {
            "type": "notes_historiques",
            "value": "?",
            "children": {
                "numero_note": "1"
            }
        },
        {
            "type": "notes_historiques",
            "value": "?",
            "children": {
                "numero_note": "2"
            }
        },
        {
            "type": "notes_historiques",
            "value": "?",
            "children": {
                "numero_note": "3"
            }
        }
    ]
}