{
    "id": 24449,
    "name": "aposcripta-1600",
    "type": "acte",
    "url": "http:\/\/telma-chartes.irht.cnrs.fr\/aposcripta\/notice\/24449",
    "project_slug": "aposcripta",
    "project_label": "APOSCRIPTA \u2013 Lettres des papes",
    "user": "lettrespontificalesadmin",
    "last_update": "2020-10-19 16:27:29",
    "licence": "Attribution - Pas d\u2019Utilisation Commerciale - Partage dans les M\u00eames Conditions 3.0 France (CC BY-NC-SA 3.0 FR) ",
    "licence_url": "https:\/\/creativecommons.org\/licenses\/by-nc-sa\/3.0\/fr\/",
    "elements": [
        {
            "type": "pape",
            "value": "Innocent IV (1243-1254)"
        },
        {
            "type": "date_lieu",
            "value": "Lyon"
        },
        {
            "type": "date_libre",
            "value": "XV kalendas aprilis, anno septimo"
        },
        {
            "type": "date",
            "value": " 1250\/03\/18",
            "children": {
                "date_deb_annee": "1250",
                "date_deb_mois": "03",
                "date_deb_jour": "18"
            },
            "range": {
                "date_apres": 12500318,
                "date_avant": 12500318
            }
        },
        {
            "type": "analyse",
            "value": "Innocent\u00a0IV confirme les franchises accord\u00e9es par Henri, roi de Chypre, aux habitants de Marseille et de Montpellier pour leur commerce dans le Levant."
        },
        {
            "type": "transcription",
            "value": "<?xml version=\"1.0\" encoding=\"UTF-8\"?>\nInnocentius episcopus, servus servorum Dei, dilectis filiis communis Massiliensis, salutem et apostolicam benedictionem.Habemus vos omnes in visceribus caritatis infixos propter pr\u00e6cedentia devotionis vestr\u00e6 obsequia, et futura etiam qu\u00e6 speramus, quod et dignum reputemus et debitum ut Sedes Apostolica vestris intendat profectibus, et affectibus se inclinet, et vos, sicut in ejus gratiam evenisse noscimini, sic devotius exhibeatis vos paratos et faciles ad ea, ad qu\u00e6 ipsius videritis dirigi voluntatem, qu\u00e6 nos nisi in justiti\u00e6 zelo consistit.Vestris igitur supplicationibus inclinati, libertates quas vobis et hominibus Montispessulani, ac aliis provincialibus, communiter carissimus in Christo filius noster Henricus, illustris rex Cypri, regia liberalitate concessit, quibusdam sibi suisque h\u00e6redibus conditionibus reservatis, prout in privilegio suo, gallico ydiomate scripto, plenius continet, quatenus vos contingunt, ratas habentes, illas auctoritate apostolica confirmamus, et presentis scripti patrocinio communimus, tenorem ipsius privilegii de verbo ad verbum inseri pr\u00e6sentibus facientes, qui talis est\u00a0:In nomine Patris et Filii et Spiritus Sancti, amen. Je Henri, par la grace de Deu, roi de Chypre, faz assauoir a to, ceulx qui sunt present e qui sunt auenir, que Geraut Oliver, consele des Marseill\u00e9s en Acre, et Raymond de Conches uindrent en ma pr\u00e9sence ed. ma cort, et me perent d. par la comune de Marseilles, et de par le poeple de Montpeller, e des autres genz prouencales, que ie lor faisse bont\u00e9 e amor d. la droiture que les marchaans paient en ma terre\u00a0; e ie par loz proiere, e par loz requeste, par le conseil d. mes homes, doing, e otrei, e conferm a la deuandite comune de Marsseilles, e al deuant nome poeple de Monpeller, e a totes les autres gens pronen\u00e7ales, e a toz loz autanz que il uiegnent en ma tre a ma fiance, o tote marchandises e pars quele il apportent ent mon Reaume marchaandises qui soient doutremer, qui doiuent paier d. chalcun C. B., un B. solement d. tot ce quil uenderont en ma tre, ce est assauoir en cele contree o il feront lauence e tot le remanant d. celes mesmes marchaandises quil me venderont en ma tre, puissent porter hors de ma tre la o loz plaira franchement, sens aucune doiture paier a moi, o a mes heirs, o autre persone por nosz\u00a0; e le il achatent aucune marchaandise en mon reaume de Chypre, il paieront encunement la droiture qui est establie en la tre\u00a0; e le il aportent aucune marchaandise d. la tre del soltan del Come, o dautre part d. ca mer, quil uendent en Chypre, il paieront d. chascun C. B., un B. solement\u00a0; e ce il portent cele messme marchandise sens uendre la, il paieront solement por passage de chascun quintar dalum I. B.\u00a0; ed. chascun quintar d. laine II. B.\u00a0; ed. chascun C. d. boquines I. B.\u00a0; ed. chascun rote de soie demi B.\u00a0; ed. draps de soie, ed. totes autres marchaandises de chascun C. B., I. B. solement\u00a0; e cestui passage doiuent paier une fois solement a chascun ueiage de chalcune marchaandise en tot le reaume de Chypr., ce est assauoir en cele contree o li deschargeront premerement\u00a0; e totas les genz deuant nom\u00e9es qui uendront en ma tre de Chypre doiuent iurer loz sainz d. garder ed sauuer moi e mes heirs, e tote nostre terre tant come il seront en Chypre, e quil paieront en bone foi la droiture e le passage enterinement en la maniere d. sus deuisee\u00a0; e se aucun d\u2019eaul par auenture feist encontre, il doit paier la droiture enterinement, e perdre la franchise a tez iors, mais e por ce que cestu mien don desus moti permaine estabe perpetuamment, ie ai cestui present privilige fait faire e garnir d. mon seel de plomb. De ce sunt garens Balian d. Ybelin, seignor d. Barut e conestable d. Chypre, Johan d. Ybelin, Hue d. Ybelin. Arueis d. Gibelet, Baudoin Doumors e Philipe d. Honneur.Ce fu fait a Nicossie, en lan de l\u2019Incarnation d. nostre Seignor m.ccxxxvi ou mois d. marz, done par la main de Bonuassal Daude, chancelier du reaume de Chypre.Nulli ergo omnino hominum liceat hanc paginam nostr\u00e6 confirmationis infringere, vel ei ausu temerario contraire. Si quis autem hoc attemptare pr\u00e6sumpserit, indignationem omnipotentis Dei et beatorum Petri et Pauli, apostolorum ejus, se noverit incursurum.Datum Lugduni, XV kalendas aprilis, pontificatus nostri anno septimo.\n"
        },
        {
            "type": "edition",
            "value": "Julien Rouquette, Augustin Villemagne, <i>Bullaire de l'\u00c9glise de Maguelone<\/i>, Paris, Montpellier : Picard, Valat, 1911-1914, II, n. 423, p. 286-287"
        },
        {
            "type": "remarques",
            "value": ""
        },
        {
            "type": "bibliographie_generale",
            "value": "<span class=\"small-caps\">L. M\u00e9ry<\/span> et <span class=\"small-caps\">Guindon<\/span>, <i>Hist. analytique et chronologique des actes et d\u00e9lib\u00e9ration du corps et du conseil de la municipalit\u00e9 de Marseille<\/i>, t.\u00a0I, p.\u00a0422",
            "children": {
                "numero_note": "0"
            }
        },
        {
            "type": "bibliographie_generale",
            "value": "<span class=\"small-caps\">Germain<\/span>, <i>Hist. du Commerce de Montpellier<\/i>, t.\u00a0II, p.\u00a04.",
            "children": {
                "numero_note": "1"
            }
        },
        {
            "type": "genre",
            "value": "Titre, g\u00e9n\u00e9ral (littere gratiose, cum filo serico)"
        },
        {
            "type": "destinataire",
            "value": "Les gens de la commune de Marseille"
        }
    ]
}