{
    "id": 25953,
    "name": "aposcripta-3050",
    "type": "acte",
    "url": "http:\/\/telma-chartes.irht.cnrs.fr\/aposcripta\/notice\/25953",
    "project_slug": "aposcripta",
    "project_label": "APOSCRIPTA \u2013 Lettres des papes",
    "user": "lettrespontificalesadmin",
    "last_update": "2020-10-19 16:27:51",
    "licence": "Attribution - Pas d\u2019Utilisation Commerciale - Partage dans les M\u00eames Conditions 3.0 France (CC BY-NC-SA 3.0 FR) ",
    "licence_url": "https:\/\/creativecommons.org\/licenses\/by-nc-sa\/3.0\/fr\/",
    "elements": [
        {
            "type": "pape",
            "value": "Boniface VIII (1294-1303)"
        },
        {
            "type": "destinataire",
            "value": "( )",
            "children": {
                "numero_note": "0"
            }
        },
        {
            "type": "date_lieu",
            "value": "n.c."
        },
        {
            "type": "date_libre",
            "value": "1303, Apr 27"
        },
        {
            "type": "date",
            "value": " 1303\/04\/27",
            "children": {
                "date_deb_annee": "1303",
                "date_deb_mois": "04",
                "date_deb_jour": "27"
            },
            "range": {
                "date_apres": 13030427,
                "date_avant": 13030427
            }
        },
        {
            "type": "analyse",
            "value": "X pape<br\/>CONSERVATORIA BONIFACII PAP\u00c6 VIII. Pro Abbate et conventu Cluniac. ad Pr\u00e6positum Ecclesi\u00e6 Vivariensis pro revocatione bonorum illicit\u00e8 alienatorum, vel distractorum."
        },
        {
            "type": "transcription",
            "value": "<?xml version=\"1.0\" encoding=\"UTF-8\"?>\nBonifacius Episcopus servus servorum Dei dilecto filio Pr\u00e6posito Ecclesi\u00e6 Vivariensis salutem, et Apostolicam benedictionem. Ad audientiam nostram pervenit, quod tam dilecti filii Abbas et conventus Monasterii Cluniacensis, Matisconens. Di\u0153cesis, qu\u00e0m Pr\u00e6decessores eorum decimas, Terras, domos, Vineas, Prata, Pascua, Nemora, Molendina, redditus, jura, jurisdictiones, maneria, possessiones, et qu\u00e6dam alia bona ipsius Monasterii, datis super hoc litteris, confectis exinde publicis instrumentis, juramentis interpositis, factis renunciationibus, et p\u0153nis adjectis, in gravem ipsius Monasterii l\u00e6sionem, nonnullis clericis, et laicis aliquibus eorum ad vitam, quibusdam ver\u00f2 ad non modicum tempus, et aliis perpetu\u00f2, ad firmam vel sub censu annuo concesserunt: Quorum aliqui dicuntur super iis confirmationis litteras in forma communi \u00e0 Sede Apostolica impetrasse. Quia ver\u00f2 nostra interest super hoc de opportuno remedio providere: discretioni tu\u00e6 per Apostolica scripta mandamus, quatinus ea, qu\u00e6 de bonis ipsius Monasterii per concessiones hujusmodi alienata inveneris illicit\u00e8, vel distracta, nonobstantibus litteris, instrumentis, juramentis, renunciationibus, p\u0153nis, et confirmationibus supradictis, ad jus et proprietatem ejusdem Monasterii legitim\u00e8 revocare procuretis; contradictores per censuram Ecclesiasticam appellatione postposita compescendo. Testes autem qui fuerint nominati, si se gratia, odio, vel timore subtraxerint, censura simili, appellatione cessante, compellas veritati testimonium perhibere. Datum Laterani V. Kalendas Maii, Pontificatus nostri anno nono.\n"
        },
        {
            "type": "edition",
            "value": "Ici tir\u00e9e du projet <i>CBMA - Corpus Burgundiae Medii Aevi<\/i>, document 11090. Site du projet Corpus de la Bourgogne du Moyen \u00c2ge, [En ligne] <a href=\"http:\/\/www.cbma-project.eu\" target=\"_blank\">http:\/\/www.cbma-project.eu<\/a>  "
        },
        {
            "type": "sources_manuscrites",
            "value": "\u00e0 renseigner."
        },
        {
            "type": "remarques",
            "value": ""
        },
        {
            "type": "edition_autre",
            "value": "Ici reprise de Pierre Simon, <i>Bullarium sacri Ordinis cluniacensis, complectens plurima privilegia per summos pontifices tum ipsi cluniacensi abbatiae, tum ei subditis monasteriis hactenus concessa<\/i>, Lyon : Jullieron, 1680, p. 168, col. 1-2.",
            "children": {
                "numero_note": "0"
            }
        },
        {
            "type": "genre",
            "value": "Bulle"
        },
        {
            "type": "genre",
            "value": "Lettre"
        }
    ]
}