{
    "id": 148984,
    "name": "aposcripta-8551",
    "type": "acte",
    "url": "http:\/\/telma-chartes.irht.cnrs.fr\/aposcripta\/notice\/148984",
    "project_slug": "aposcripta",
    "project_label": "APOSCRIPTA \u2013 Lettres des papes",
    "user": "j_theryastruc",
    "last_update": "2020-10-19 16:39:52",
    "licence": "Attribution - Pas d\u2019Utilisation Commerciale - Partage dans les M\u00eames Conditions 3.0 France (CC BY-NC-SA 3.0 FR) ",
    "licence_url": "https:\/\/creativecommons.org\/licenses\/by-nc-sa\/3.0\/fr\/",
    "elements": [
        {
            "type": "pape",
            "value": "Pie II (1458-1464)"
        },
        {
            "type": "destinataire",
            "value": "Pour m\u00e9moire perp\u00e9tuelle de la chose"
        },
        {
            "type": "date_libre",
            "value": "MCDLVIII, XIII kalendas februarii, anno primo"
        },
        {
            "type": "date",
            "value": "1458\/01\/20",
            "children": {
                "date_deb_jour": "20",
                "date_deb_mois": "01",
                "date_deb_annee": "1458"
            },
            "range": {
                "date_apres": 14580120,
                "date_avant": 14580120
            }
        },
        {
            "type": "date_lieu",
            "value": "Rome, Saint-Pierre"
        },
        {
            "type": "genre",
            "value": "Lettre, g\u00e9n\u00e9ral (apr\u00e8s 1198, littere cum filo canapis)"
        },
        {
            "type": "analyse",
            "value": "Bulla confirmans privilegia cathedrali Leodiensi per Eugenium IV, 7 idus aprilis 1432 et per Pium II, 13 kalendas februarii 1458, concessa, novaque eidem adjiciens, data 9 januarii 1479."
        },
        {
            "type": "sources_manuscrites",
            "value": "F. BELGIQUE, Biblioth\u00e8que royale, n. 10898-10952.",
            "children": {
                "type_source": "Exp\u00e9dition"
            }
        },
        {
            "type": "edition",
            "value": "Ici reprise de Pierre-Fran\u00e7ois-Xavier de Ram, <i>Documents relatifs aux troubles du pays de Liege, sous les princes-\u00e9v\u00eaques Louis de Bourbon et Jean de Horne, 1455-1505<\/i>, Bruxelles : Hayez pour la Commission royale d'histoire, 1844, n. 32, p. 435-439. \u00e0 compl\u00e9ter"
        },
        {
            "type": "transcription",
            "value": "<?xml version=\"1.0\" encoding=\"UTF-8\"?>\nPius episcopus, servus servorum Dei, ad perpetuam rei memoriam. Laudanda Sedis apostolicae rectitudo, quae in suis actibus provida circumspectione dirigitur, illis ex praelatis et personis ecclesiasticis non immerito etiam inconcessis per eam declarationem adjecto beneficio spirituales favores et gratiam impartitur, quos facti evidentia indicante sibi devotos et obsequiosos fuisse et esse cognoscit, ut tales ad ejus beneplacita promptius in posterum se coaptent et alii eorum exemplo ad fideliores essendum propensius exerceantur. Dudum felicis recordationis Eugenio papae quarto praedecessori nostro ob constantem venerabilis fratris nostri Johannis, olim episcopi Leodiensi, ac aliorum ecclesiasticorum civitatis et dioecesis Leodiensis quam ad ipsum et praefatam sedem in arduis et periculosis casibus gesserant, devotionem qua nimirum de ipso et de dicta sede benemeriti exstiterunt inter caetera placuit quod de dignitatibus, personatibus, officiis et beneficiis ecclesiasticis secularibus vel regularibus cujuscumque valoris et quantitatis fuerint quovismodo et ex quavis persona, exceptis infrascriptis reservationibus in civitate et dioecesi Leodiensi, extunc in antea vacare contigerit, ita disponentur, videlicet quod... Datum Romae, apud Sanctam Mariam Majorem, anno Incarnationis dominicae millesimo quadringentesimo quinquagesimo octavo, tertio decimo kalendas februarii, pontificatus nostri anno primo.\n"
        },
        {
            "type": "notes_historiques",
            "value": "APOSCRIPTA n. 8549.",
            "children": {
                "numero_note": "1"
            }
        }
    ]
}