{
    "id": 20396,
    "name": "aposcripta-383",
    "type": "acte",
    "url": "http:\/\/telma-chartes.irht.cnrs.fr\/aposcripta\/notice\/20396",
    "project_slug": "aposcripta",
    "project_label": "APOSCRIPTA \u2013 Lettres des papes",
    "user": "lettrespontificalesadmin",
    "last_update": "2020-10-19 16:26:48",
    "licence": "Attribution - Pas d\u2019Utilisation Commerciale - Partage dans les M\u00eames Conditions 3.0 France (CC BY-NC-SA 3.0 FR) ",
    "licence_url": "https:\/\/creativecommons.org\/licenses\/by-nc-sa\/3.0\/fr\/",
    "elements": [
        {
            "type": "pape",
            "value": "Innocent VI (1352-1362)"
        },
        {
            "type": "date_lieu",
            "value": "Avignon"
        },
        {
            "type": "date_libre",
            "value": "4 avril 1354"
        },
        {
            "type": "analyse",
            "value": "L\u2019\u00e9v\u00eaque de Rodez re\u00e7oit le pouvoir de poursuivre plusieurs religieux de son dioc\u00e8se, adonn\u00e9s aux pratiques de la magie, de la sorcellerie et aux invocations des d\u00e9mons."
        },
        {
            "type": "transcription",
            "value": "<?xml version=\"1.0\" encoding=\"UTF-8\"?>\nDilecto filio .. officiali Ruthenen., salutem, etc. \u2014 Nupe pro parte tua nobis extitit intimatum quod ad audientiam tuam noviter fama publica referente deducto quod nonnulli perditionis et iniquitatis filii Ruthenen. civitatis et diocesis se magicis artibus, sortilegiis et invocationibus demonum implicabant tu ad recipiendum super hiis informationem congruam et etiam diligentem ex officio procedens, per informationem huiusmodi per te rite habitam invenisti Hectorem Lenihati, priorem prioratus de Mayrinhagas1, ac Johannem Carrerii et Pontium de Pradinis2, monachos, Johannem Blanchi et Johannem Girla, conversos monasterii Bonecumbe3, Cluniacen. et Cistercien. ordinum, dicte diocesis, fore de premissis omnibus vehementer suspectos, et etiam difamatos ; sed occasione exemptionis et privilegiorum prefatis ordinibus a Sede apostolica concessorum contra ipsos priorem et monachos et conversos super hiis procedere non es ausus. Nos igitur... discretioni tue descendendi ad inquisitionem hac vice auctoritate nostra si est ita contra predictos priorem, monachos et conversos et quemlibet eorum super premissis omnibus et singulis, eosque si per inquisitionem huiusmodi a te super hiis rite habendam ipsos culpabiles inveneris in premissis vel aliquo premissorum, corrigendi et etiam puniendi iuxta cano nicas sanctiones, non obstante [etc.], plenam et liberam concedimus tenore presentium facultatem. \u2014 Datum Avinioni, ii nonas aprilis, anno secundo.\n"
        },
        {
            "type": "edition",
            "value": "Jean-Marie Vidal, <i>Bullaire de l\u2019Inquisition fran\u00e7aise au XIV<sup>e<\/sup> si\u00e8cle et jusqu'\u00e0 la fin du Grand Schisme<\/i>, Paris : Letouzey et An\u00e9, 1913, n. 218, p. 336"
        },
        {
            "type": "sources_manuscrites",
            "value": "<i>Reg. Aven.<\/i>, t. <span class=\"smal-caps\">cxxvi<\/span>, fol. 436 v\u00b0, n. 96."
        },
        {
            "type": "notes_historiques",
            "value": "Mayrignagues (Aveyron), cant. de Villeneuve, arrond. de Villefranche.",
            "children": {
                "numero_note": "1"
            }
        },
        {
            "type": "notes_historiques",
            "value": "Les localit\u00e9s du nom de <i>Pradines<\/i>, ou <i>Pradinas<\/i> sont nombreuses dans l\u2019arrond. de Rodez.",
            "children": {
                "numero_note": "2"
            }
        },
        {
            "type": "notes_historiques",
            "value": "Bonnecombe (Aveyron), com. de Comps-la-Grandville, cant. de Cassagnes-B\u00e9gonh\u00e8s, arrond. de Rodez.",
            "children": {
                "numero_note": "3"
            }
        },
        {
            "type": "date",
            "value": "1354\/04\/04",
            "children": {
                "date_deb_annee": "1354",
                "date_deb_mois": "04",
                "date_deb_jour": "04"
            },
            "range": {
                "date_apres": 13540404,
                "date_avant": 13540404
            }
        },
        {
            "type": "genre",
            "value": "Bulle"
        }
    ]
}