{
    "id": 20545,
    "name": "aposcripta-532",
    "type": "acte",
    "url": "http:\/\/telma-chartes.irht.cnrs.fr\/aposcripta\/notice\/20545",
    "project_slug": "aposcripta",
    "project_label": "APOSCRIPTA \u2013 Lettres des papes",
    "user": "lettrespontificalesadmin",
    "last_update": "2020-10-19 16:26:50",
    "licence": "Attribution - Pas d\u2019Utilisation Commerciale - Partage dans les M\u00eames Conditions 3.0 France (CC BY-NC-SA 3.0 FR) ",
    "licence_url": "https:\/\/creativecommons.org\/licenses\/by-nc-sa\/3.0\/fr\/",
    "elements": [
        {
            "type": "pape",
            "value": "P\u00e9lage I (556-561)"
        },
        {
            "type": "date_lieu",
            "value": "n.c."
        },
        {
            "type": "date_libre",
            "value": "558 Sept-560"
        },
        {
            "type": "analyse",
            "value": "Pelagius\u00a0I Paulino episcopo iterum quaerenti, num in monasterio S. Iuliani, remotis monachis schismaticis, presbyterum ordinare debeat, respondet.<a class=\"note\" href=\"#note-1\">1<\/a>"
        },
        {
            "type": "transcription",
            "value": "<?xml version=\"1.0\" encoding=\"UTF-8\"?>\nPaulino episcopo. Preterito anno tibi credimus iniunxisse ea, que nos nuper transmissis litteris quasi noviter consuluisti, ut et in monasterio sancti Iuliani debeas ordinare presbiterum, remotis his monachisa, qui ad perseminanda scandala ab ecclesiastica se conmunione suspenderunt\u00a0; et in tua nos dedisse recolimus potestate, utrum in eob voluisses ordinare presbiterum, an certe tuum peculiariter titulum reservare.c \n"
        },
        {
            "type": "edition",
            "value": "Samuel Loewenfeld, <i>Epistolae pontificum romanorum ineditae<\/i>, Leipzig : Veit et Comp., 1885, n. 33, p. 18"
        },
        {
            "type": "sources_manuscrites",
            "value": "Coll. Brit. Pel. ep.\u00a055, l.\u00a0l. fol.\u00a034<sup>b<\/sup>."
        },
        {
            "type": "notes_historiques",
            "value": "Cf. Jaff\u00e9 ed. sec.\u00a01027.",
            "children": {
                "numero_note": "1"
            }
        },
        {
            "type": "apparat_critique",
            "value": "monachi <i>c.<\/i>",
            "children": {
                "numero_note": "a"
            }
        },
        {
            "type": "apparat_critique",
            "value": "meo <i>c.<\/i>",
            "children": {
                "numero_note": "B"
            }
        },
        {
            "type": "apparat_critique",
            "value": "<i>sic scripsi pro<\/i> reservares <i>cod.<\/i>",
            "children": {
                "numero_note": "c"
            }
        },
        {
            "type": "date",
            "value": "apr\u00e8s 0558\/09 - avant 0560",
            "children": {
                "date_deb_annee": "0558",
                "date_deb_mois": "09",
                "date_deb_type": "apres",
                "date_fin_annee": "0560",
                "date_fin_type": "avant"
            },
            "range": {
                "date_apres": 5580900,
                "date_avant": 5609999
            }
        },
        {
            "type": "genre",
            "value": "Bulle"
        }
    ]
}