{
    "id": 146302,
    "name": "aposcripta-6116",
    "type": "acte",
    "url": "http:\/\/telma-chartes.irht.cnrs.fr\/aposcripta\/notice\/146302",
    "project_slug": "aposcripta",
    "project_label": "APOSCRIPTA \u2013 Lettres des papes",
    "user": "j_theryastruc",
    "last_update": "2020-10-19 16:39:17",
    "licence": "Attribution - Pas d\u2019Utilisation Commerciale - Partage dans les M\u00eames Conditions 3.0 France (CC BY-NC-SA 3.0 FR) ",
    "licence_url": "https:\/\/creativecommons.org\/licenses\/by-nc-sa\/3.0\/fr\/",
    "elements": [
        {
            "type": "pape",
            "value": "Innocent III (1198-1216)"
        },
        {
            "type": "destinataire",
            "value": "Simon de Montfort"
        },
        {
            "type": "date_libre",
            "value": "XVI kalendas februarii, anno quinto decimo"
        },
        {
            "type": "date",
            "value": "1213\/01\/15",
            "children": {
                "date_deb_jour": "15",
                "date_deb_mois": "01",
                "date_deb_annee": "1213"
            },
            "range": {
                "date_apres": 12130115,
                "date_avant": 12130115
            }
        },
        {
            "type": "date_lieu",
            "value": "Latran"
        },
        {
            "type": "genre",
            "value": "Mandement (littere cum filo canapis)"
        },
        {
            "type": "analyse",
            "value": "Innocent [III] demande \u00e0 Simon de Montfort de pr\u00eater hommage au roi d'Aragon Pierre [III] pour Carcassonne comme le faisait le vicomte de B\u00e9ziers."
        },
        {
            "type": "sources_manuscrites",
            "value": "E. ?",
            "children": {
                "type_source": "Exp\u00e9dition",
                "source_edition": ""
            }
        },
        {
            "type": "edition",
            "value": "Ici d'apr\u00e8s ?"
        },
        {
            "type": "edition_autre",
            "value": "<i>Die Register Innocenz' III.<\/i>, bd. ???, Pontifikatsjahr, 12\/12, Vienne, ???."
        },
        {
            "type": "regeste",
            "value": "Potthast, <i>Regesta pontificum Romanorum<\/i>, n. 4647<a target=\"_blank\" href=\"https:\/\/archive.org\/stream\/RegestaPontificumRomanorum\/ph#page\/n413\/mode\/2up\"> [en ligne]<\/a>."
        },
        {
            "type": "regeste",
            "value": "Bernard Barbiche, <i>Les actes pontificaux originaux des Archives Nationales de Paris<\/i>, Cit\u00e9 du Vatican, 1975-1982, I, n. ?????"
        },
        {
            "type": "transcription",
            "value": "<?xml version=\"1.0\" encoding=\"UTF-8\"?>\nInnocentius episcopus, servus servorum Dei,...., salutem et apostolicam benedictionem. Cum ad mandatum... . Datum Laterani, XVIII kalendas februarii, pontificatus nostri anno quinto decimo.\n"
        },
        {
            "type": "apparat_critique",
            "value": "n.c.",
            "children": {
                "numero_note": "a"
            }
        },
        {
            "type": "remarques",
            "value": "Registres ?"
        },
        {
            "type": "edition_autre",
            "value": "RHGF, 19, 566.\t"
        },
        {
            "type": "bibliographie_generale",
            "value": "Pierre des Vaux-de-Cernay, <i>Histoire Albigeoise<\/i>, trad. Pascal Gu\u00e9bin, Henri Maisonneuve, Paris : Librairie Philosophique J. Vrin, 1951, p. 160."
        },
        {
            "type": "edition_autre",
            "value": "Baluze, II, 710."
        },
        {
            "type": "edition_autre",
            "value": "Mansi, 22, 873."
        },
        {
            "type": "edition_autre",
            "value": "Catel, M\u00e9moire de l'histoire du Languedoc, 635."
        },
        {
            "type": "edition_autre",
            "value": "Aguirre, Concil. Hisp., V, 170."
        },
        {
            "type": "edition_autre",
            "value": "Mahul, Cartulaire, V, 293."
        }
    ]
}