{
    "id": 147084,
    "name": "aposcripta-6711",
    "type": "acte",
    "url": "http:\/\/telma-chartes.irht.cnrs.fr\/aposcripta\/notice\/147084",
    "project_slug": "aposcripta",
    "project_label": "APOSCRIPTA \u2013 Lettres des papes",
    "user": "v_sentis",
    "last_update": "2020-10-19 16:39:26",
    "licence": "Attribution - Pas d\u2019Utilisation Commerciale - Partage dans les M\u00eames Conditions 3.0 France (CC BY-NC-SA 3.0 FR) ",
    "licence_url": "https:\/\/creativecommons.org\/licenses\/by-nc-sa\/3.0\/fr\/",
    "elements": [
        {
            "type": "pape",
            "value": "Jean XXII (1316-1334)"
        },
        {
            "type": "destinataire",
            "value": "Le seigneur Bernard Jourdain de l'Isle "
        },
        {
            "type": "date_libre",
            "value": "XVI kalendas marcii anno octavo"
        },
        {
            "type": "date",
            "value": "1324\/02\/14",
            "children": {
                "date_deb_jour": "14",
                "date_deb_mois": "02",
                "date_deb_annee": "1324"
            },
            "range": {
                "date_apres": 13240214,
                "date_avant": 13240214
            }
        },
        {
            "type": "date_lieu",
            "value": "Avignon"
        },
        {
            "type": "genre",
            "value": "Lettre, g\u00e9n\u00e9ral (apr\u00e8s 1198, littere cum filo canapis)"
        },
        {
            "type": "analyse",
            "value": "Le pape fait savoir \u00e0 Bernard Jourdain de l'Isle qu'il agr\u00e9e le projet de mariage dont ce seigneur lui a fait part [Gu\u00e9rard]. \nDomino de Insula respondet se tractatum cujusdam matrimonii contrahendi gratum habere [Coulon]."
        },
        {
            "type": "transcription",
            "value": "<?xml version=\"1.0\" encoding=\"UTF-8\"?>\nDicto domino de Insula.  Inter cetera que tue nobilitatis nobis misse noviter littere continebant, ad id de tractatu illius matrimonii de quo mentio in ipsis habebatur litteris respondemus quod, sicut alias, si tua nobilitas recolit, meminimus respondisse, placet nobis valde tractatus hujusmodi et ut matrimonium, actore Deo, consummetur feliciter, gratum nobis existit et acceptum. Circa dotis vero1 congrue constitutionem super eo tua provideat providentia que in talibus, pensata qualitate negotii, consulte fuerint attendenda. Datum Avinione, XVI kalendas marcii, anno octavo.\n"
        },
        {
            "type": "sources_manuscrites",
            "value": "R. CIT\u00c9 DU VATICAN,  Archivio segreto Vaticano, <i>Registra Vaticana<\/i> 112, ep. 713, fol. 37",
            "children": {
                "type_source": "Registre de la chancellerie apostolique"
            }
        },
        {
            "type": "edition",
            "value": "Louis Gu\u00e9rard, <i>Documents pontificaux sur la Gascogne d'apr\u00e8s les archives du Vatican. Pontificat de Jean XXII<\/i>, Paris, Auch : Honor\u00e9 Champion, L\u00e9once Cocharaux, 1896-1903, 2 vol. <a target=\"_blank\" href=\" https:\/\/gallica.bnf.fr\/ark:\/12148\/bpt6k208777t\/f454.image\"> [en ligne]<\/a>, t. II, n. 292, p. 121-122. "
        },
        {
            "type": "edition_autre",
            "value": "Auguste Coulon, Suzanne Cl\u00e9mencet, <i>Jean XXII : lettres secr\u00e8tes et curiales relatives \u00e0 la France<\/i>, Paris, 1906-1973, n. 1969."
        },
        {
            "type": "notes_historiques",
            "value": "Il est peut-\u00eatre question, dans cette lettre, du mariage d'une fille du sire de l'Isle Jourdain. Il avait peut-\u00eatre fait un appel discret \u00e0 la lib\u00e9ralit\u00e9 pontificale au sujet de la constitution de la dot. Cet appel, en ce cas, para\u00eet avoir \u00e9t\u00e9 \u00e9lud\u00e9. ",
            "children": {
                "numero_note": "1"
            }
        }
    ]
}