{
    "id": 28695,
    "name": "aposcripta-4459",
    "type": "acte",
    "url": "http:\/\/telma-chartes.irht.cnrs.fr\/aposcripta\/notice\/28695",
    "project_slug": "aposcripta",
    "project_label": "APOSCRIPTA \u2013 Lettres des papes",
    "user": "j_theryastruc",
    "last_update": "2020-10-19 16:28:21",
    "licence": "Attribution - Pas d\u2019Utilisation Commerciale - Partage dans les M\u00eames Conditions 3.0 France (CC BY-NC-SA 3.0 FR) ",
    "licence_url": "https:\/\/creativecommons.org\/licenses\/by-nc-sa\/3.0\/fr\/",
    "elements": [
        {
            "type": "pape",
            "value": "Cl\u00e9ment VI (1342-1352)"
        },
        {
            "type": "date",
            "value": " 1348\/02\/06",
            "children": {
                "date_deb_jour": "06",
                "date_deb_mois": "02",
                "date_deb_annee": "1348"
            },
            "range": {
                "date_apres": 13480206,
                "date_avant": 13480206
            }
        },
        {
            "type": "date_lieu",
            "value": "Avignon"
        },
        {
            "type": "genre",
            "value": "Titre, g\u00e9n\u00e9ral (littere gratiose, cum filo serico)"
        },
        {
            "type": "analyse",
            "value": "Cl\u00e9ment [VI] ratifie le statut du 2 novembre 1321 qui, au nom du doyen Etienne de la Balme, r\u00e9duit le nombre des chanoines de l'\u00e9glise de Lyon."
        },
        {
            "type": "sources_manuscrites",
            "value": "FRANCE, Lyon, Biblioth\u00e8que municipale, Fonds Coste, ms 88 (recueil de statuts de l'\u00e9glise de Lyon, copie du XIVe si\u00e8cle), fol. 27.",
            "children": {
                "type_source": "Autre copie m\u00e9di\u00e9vale"
            }
        },
        {
            "type": "edition",
            "value": "\u00e0 \u00e9diter."
        },
        {
            "type": "transcription",
            "value": "<?xml version=\"1.0\" encoding=\"UTF-8\"?>\nA \u00e9diter\n"
        },
        {
            "type": "date_libre",
            "value": "VIII idus februarii"
        },
        {
            "type": "sources_manuscrites",
            "value": "FRANCE, Lyon, Biblioth\u00e8que municipale, Fonds Coste, ms 88 (recueil de pi\u00e8ces concernant l'\u00e9glise de Lyon, copie du XVe si\u00e8cle), fol. 40.",
            "children": {
                "type_source": "Autre copie m\u00e9di\u00e9vale"
            }
        },
        {
            "type": "remarques",
            "value": "Absente des registres de D\u00e9prez, Gl\u00e9nisson, Mollat (1 lettre envoy\u00e9e d'Avignon \u00e0 cette date)."
        }
    ]
}