{
    "id": 144477,
    "name": "aposcripta-5679",
    "type": "acte",
    "url": "http:\/\/telma-chartes.irht.cnrs.fr\/aposcripta\/notice\/144477",
    "project_slug": "aposcripta",
    "project_label": "APOSCRIPTA \u2013 Lettres des papes",
    "user": "l_valliere",
    "last_update": "2020-10-19 16:39:00",
    "licence": "Attribution - Pas d\u2019Utilisation Commerciale - Partage dans les M\u00eames Conditions 3.0 France (CC BY-NC-SA 3.0 FR) ",
    "licence_url": "https:\/\/creativecommons.org\/licenses\/by-nc-sa\/3.0\/fr\/",
    "elements": [
        {
            "type": "pape",
            "value": "Honorius III (1216-1227)"
        },
        {
            "type": "destinataire",
            "value": "L'\u00e9v\u00eaque de Trente Gerardo"
        },
        {
            "type": "date_libre",
            "value": "idibus ianuarii, anno octavo"
        },
        {
            "type": "date",
            "value": "1224\/01\/13",
            "children": {
                "date_deb_annee": "1224",
                "date_deb_mois": "01",
                "date_deb_jour": "13"
            },
            "range": {
                "date_apres": 12240113,
                "date_avant": 12240113
            }
        },
        {
            "type": "date_lieu",
            "value": "Latran"
        },
        {
            "type": "genre",
            "value": "Titre, g\u00e9n\u00e9ral (littere gratiose, cum filo serico)"
        },
        {
            "type": "analyse",
            "value": "Onorio III a Gerardo vescovo di Trento: gli permette di alienare i beni episcopali meno utili in caso di necessit\u00e0 e di visitare la Sede apostolica, personalmente o tramite un procuratore, solo ogni tre anni."
        },
        {
            "type": "sources_manuscrites",
            "value": "R. CIT\u00c9 DU VATICAN, Archivio segreto Vaticano, <i>Registra Vaticana<\/i> 12, ep. CLCCVIII, fol. 137.",
            "children": {
                "type_source": "Registre de la chancellerie apostolique"
            }
        },
        {
            "type": "edition",
            "value": "Ici reprise d\u2019Emanuele Curzel, <i>Documenti papali per la storia trentina (fino al 1341)<\/i>, Bologne, 2004 (Annali dell\u2019Istituto storico italo-germanico. Fonti ; 1), n. 9, p. 81, d\u2019apr\u00e8s R."
        },
        {
            "type": "edition_autre",
            "value": "Ferdinando Ughelli, <i>Italia Sacra sive de Episcopis Italiae<\/i>, V, Venezia 1720, c. 604-605 <a target=\"_blank\" href=\"https:\/\/archive.org\/details\/bub_gb_dSy2h6jifCUC\/page\/n343\"> [en ligne]<\/a>."
        },
        {
            "type": "regeste",
            "value": "August Potthast, <i>Regesta Pontificum Romanorum<\/i>, Berlin, 1874-1875, n. 7138 (con correzione da Cremonensi in Tridentino a p. 2094) <a target=\"_blank\" href=\"https:\/\/archive.org\/stream\/RegestaPontificumRomanorum\/ph#page\/n629\/mode\/2up\"> [en ligne]<\/a>."
        },
        {
            "type": "regeste",
            "value": "Pietro Pressutti, <i>Regesta Honorii papae III<\/i>, Rome, 1895, t. II, n. 4671, p. 192-193 <a target=\"_blank\" href=\" https:\/\/archive.org\/details\/RegestaHonoriiPapaeIIIIvssvEtMvnif\/page\/n203\"> [en ligne]<\/a>."
        },
        {
            "type": "transcription",
            "value": "<?xml version=\"1.0\" encoding=\"UTF-8\"?>\nGerardo episcopo Tridentino. De providentia tua plenam in Domino fiduciam optinentes et gratiam tibi volentes facere specialem, tuis supplicationibus inclinati, concedimus ut, cum metropolitani et capitoli tui vel maioris et sanioris partis ipsius consensu, de possessionibus episcopalibus minus utilibus, si necessitas vel utilitas eius exegerit, previa discretionea, infeudare, obligare, vendere valeas et locare, tibi quoque ut per te vel per nuntium non nisi de triennio in triennium visitare sedem apostolicam tenearis auctoritate presentium indulgemus. Nulli ergo nostre concessionis et cetera, si quis et cetera. Datum Laterani, idibus ianuarii, anno octavo.\n"
        },
        {
            "type": "apparat_critique",
            "value": "descriptione <i>Ughelli<\/i>.",
            "children": {
                "numero_note": "a"
            }
        }
    ]
}