{
    "id": 24395,
    "name": "aposcripta-1546",
    "type": "acte",
    "url": "http:\/\/telma-chartes.irht.cnrs.fr\/aposcripta\/notice\/24395",
    "project_slug": "aposcripta",
    "project_label": "APOSCRIPTA \u2013 Lettres des papes",
    "user": "lettrespontificalesadmin",
    "last_update": "2020-10-19 16:27:29",
    "licence": "Attribution - Pas d\u2019Utilisation Commerciale - Partage dans les M\u00eames Conditions 3.0 France (CC BY-NC-SA 3.0 FR) ",
    "licence_url": "https:\/\/creativecommons.org\/licenses\/by-nc-sa\/3.0\/fr\/",
    "elements": [
        {
            "type": "pape",
            "value": "Gr\u00e9goire IX (1227-1241)"
        },
        {
            "type": "date_lieu",
            "value": "n.c."
        },
        {
            "type": "date_libre",
            "value": "29\u00a0octobre 1237"
        },
        {
            "type": "date",
            "value": " 1237\/10\/29",
            "children": {
                "date_deb_annee": "1237",
                "date_deb_mois": "10",
                "date_deb_jour": "29"
            },
            "range": {
                "date_apres": 12371029,
                "date_avant": 12371029
            }
        },
        {
            "type": "analyse",
            "value": "Gr\u00e9goire\u00a0IX recommande \u00e0 l\u2019archev\u00eaque d\u2019Arles, \u00e0 l\u2019archidiacre et au pr\u00e9centeur de cette \u00c9glise d\u2019excommunier Atbrand et ses complices, s\u2019ils ne se soumettent pas aux ordres qu\u2019il leur a intim\u00e9s."
        },
        {
            "type": "transcription",
            "value": "<?xml version=\"1.0\" encoding=\"UTF-8\"?>\nGregorius episcopus, servus servorum Dei, venerabili fratri archiepiscopo, et dilectis filiis archidiacono et magistro Sicardoa, precentori Arelatensi, salutem et apostolicam benedictionem.Significante venerabili fratre nostro, Magalonensi episcopo, nos noveritis accepisse quod Atbrandusb et G. Lamberti, balivi Montispessulani, nuper ut malitiamc quam contra Sacrosanctam Romanam Ecclesiam et Magalonensem etiamd conceperunt, ostenderent nequiter per effectum, universis militibus et aliis de balia sua inhibuerunt expresse ne ipsorum aliquis Dalphino vel Raymundo Ayrrae militibus, seu complicibus eorumdem, comitatum nostrum Melgorii, quem idemf episcopus, nomine jamdicte Ecclesie, tenere dinoscitur, et terram ipsius episcopi offendentibus impedimentum prestent vel inferant aliquod nocumentum\u00a0; sed potiusg toto posse in presidium et auxilium sint eisdem.Et quasi hec eis non sufficerent ad offensam, in vigilia Nativitatis Beate Marie, dictus G. Lamberti et quidam alii sui complices jurisdictionem temporalem, quam episcopus ipse in villa Montispessulani dinoscitur obtinereh ausu temerario infringentes, quemdam preconem suum in eadem jurisdictione capere presumpserunt, et fecerunt eum, in contemptum ipsius episcopi et ecclesiastice libertatis, publice verberari.Sequenti vero die, compulerunt homines ipsius episcopi ad prestandum quoddam indebitum juramentum, alias jura comitatus et Magalonensis Ecclesie predictorum invadendo.Quia vero tante presumptionisi excessum, conniventibus oculis, pertransire nec volumus, nec debemus, eosdem balivos monendos duximus et hortandos attentius, nostris sibi dantes litteris firmiter in preceptisj, ut prefatum episcopum, revocata inhibitionek premissa, et juramento hujusmodi relaxato, uti permittant libere jurisdictione sua in villa et comitatu predictis, ab ipsius molestiis tam super comitatu quam terra Magalonensis Ecclesie predictis penitus desistentesl\u00a0; ac insuper eos qui sub jurisdictione sua consistunt, ad id potestate eis tradita compellentes, jura comitatus et Ecclesie premissorum assistant viriliter episcopo supradicto.Quocirca discretionim vestre per apostolica scripta mandamus, quatenus, si predicti balivi mandatum nostrum neglexerint adimplere, vos ipsos ad id per censuram ecclesiasticam, appellatione remota, cogatis\u00a0; quod si non omnes hiis exequendis potueritis interesse, tu, frater archiepiscopen, cum eorum altero, ea nichilominus exequaris.Datum Laterani, iiii o kalendas novembris, pontificatus nostri anno undecimop.\n"
        },
        {
            "type": "edition",
            "value": "Julien Rouquette, Augustin Villemagne, <i>Bullaire de l'\u00c9glise de Maguelone<\/i>, Paris, Montpellier : Picard, Valat, 1911-1914, II, n. 364-CCLIX, p. 199-200"
        },
        {
            "type": "remarques",
            "value": ""
        },
        {
            "type": "apparat_critique",
            "value": "Bull.\u00a0: <i>Sicardo<\/i>\u00a0; Cart.\u00a0: <i>Siccardo<\/i>.",
            "children": {
                "numero_note": "a"
            }
        },
        {
            "type": "apparat_critique",
            "value": "Cart.\u00a0: <i>Atbrandus<\/i>\u00a0; Bull.\u00a0: <i>Arbrandus<\/i>.",
            "children": {
                "numero_note": "b"
            }
        },
        {
            "type": "apparat_critique",
            "value": "Cart. et Bull.\u00a0: <i>maliciam<\/i>.",
            "children": {
                "numero_note": "c"
            }
        },
        {
            "type": "apparat_critique",
            "value": "Cart.\u00a0: <i>eciam<\/i>\u00a0; Bull.\u00a0: en abr\u00e9g\u00e9.",
            "children": {
                "numero_note": "d"
            }
        },
        {
            "type": "apparat_critique",
            "value": "Bull.\u00a0: <i>Ayrra<\/i>\u00a0; Cart.\u00a0: <i>Ayra<\/i>.",
            "children": {
                "numero_note": "e"
            }
        },
        {
            "type": "apparat_critique",
            "value": "Cart.\u00a0: <i>idem<\/i>\u00a0; Bull.\u00a0: <i>ipse<\/i>.",
            "children": {
                "numero_note": "f"
            }
        },
        {
            "type": "apparat_critique",
            "value": "Bull.\u00a0: <i>potius<\/i>\u00a0; Cart.\u00a0: <i>pocius<\/i>.",
            "children": {
                "numero_note": "g"
            }
        },
        {
            "type": "apparat_critique",
            "value": "Cart.\u00a0: <i>obtinere<\/i>\u00a0; Bull.\u00a0: <i>optinere<\/i>.",
            "children": {
                "numero_note": "h"
            }
        },
        {
            "type": "apparat_critique",
            "value": "Cart. et Bull.\u00a0: <i>presumpcionis<\/i>.",
            "children": {
                "numero_note": "i"
            }
        },
        {
            "type": "apparat_critique",
            "value": "Cart.\u00a0: <i>attencius, nostris sibi dantes litteris firmiter in preceptis<\/i>\u00a0; Bull.\u00a0: <i>attentius, dantes sibi nostris litteris in mandatis<\/i>.",
            "children": {
                "numero_note": "j"
            }
        },
        {
            "type": "apparat_critique",
            "value": "Cart. et Bull.\u00a0: <i>inhibicione<\/i>.",
            "children": {
                "numero_note": "k"
            }
        },
        {
            "type": "apparat_critique",
            "value": "Cart.\u00a0: comme le texte que nous donnons\u00a0; Bull.\u00a0: <i>in villa et comitatu predictis penitus desistentes<\/i>.",
            "children": {
                "numero_note": "l"
            }
        },
        {
            "type": "apparat_critique",
            "value": "Cart.\u00a0: <i>discretioni<\/i>\u00a0; Bull.\u00a0: <i>discrecioni<\/i>.",
            "children": {
                "numero_note": "m"
            }
        },
        {
            "type": "apparat_critique",
            "value": "Bull.\u00a0: <i>archiepiscope<\/i>\u00a0; Cart.\u00a0: <i>archiepiscopo<\/i>.",
            "children": {
                "numero_note": "n"
            }
        },
        {
            "type": "apparat_critique",
            "value": "Cart.\u00a0: <i>IIII<\/i>\u00a0; Bull.\u00a0: <i>IIII<\/i> <sup>to<\/sup>.",
            "children": {
                "numero_note": "o"
            }
        },
        {
            "type": "apparat_critique",
            "value": "Cart.\u00a0: <i>undecimo<\/i>\u00a0; Bull.\u00a0: <i>XI<\/i>\u00b0.",
            "children": {
                "numero_note": "p"
            }
        },
        {
            "type": "bibliographie_generale",
            "value": "<i>Bull. de Maguelone<\/i>, fol.\u00a035\u00a0r\u00b0",
            "children": {
                "numero_note": "0"
            }
        },
        {
            "type": "bibliographie_generale",
            "value": "<i>Cart. de Maguelone<\/i>, reg.\u00a0F, fol.\u00a0168\u00a0v\u00b0.",
            "children": {
                "numero_note": "1"
            }
        },
        {
            "type": "genre",
            "value": "Bulle"
        }
    ]
}