{
    "id": 20269,
    "name": "aposcripta-256",
    "type": "acte",
    "url": "http:\/\/telma-chartes.irht.cnrs.fr\/aposcripta\/notice\/20269",
    "project_slug": "aposcripta",
    "project_label": "APOSCRIPTA \u2013 Lettres des papes",
    "user": "lettrespontificalesadmin",
    "last_update": "2020-10-19 16:26:47",
    "licence": "Attribution - Pas d\u2019Utilisation Commerciale - Partage dans les M\u00eames Conditions 3.0 France (CC BY-NC-SA 3.0 FR) ",
    "licence_url": "https:\/\/creativecommons.org\/licenses\/by-nc-sa\/3.0\/fr\/",
    "elements": [
        {
            "type": "pape",
            "value": "Jean XXII (1316-1334)"
        },
        {
            "type": "date_lieu",
            "value": "Avignon"
        },
        {
            "type": "date_libre",
            "value": "8 mai 1330"
        },
        {
            "type": "analyse",
            "value": "Le pape engage le roi de Majorque<a class=\"note\" href=\"#note-1\">1<\/a> \u00e0 seconder de tout son pouvoir l\u2019action de l\u2019\u00e9v\u00eaque d\u2019Elne et de l\u2019inquisiteur de Majorque contre les h\u00e9r\u00e9tiques du dioc\u00e8se d\u2019Elne<a class=\"note\" href=\"#note-2\">2<\/a>."
        },
        {
            "type": "transcription",
            "value": "<?xml version=\"1.0\" encoding=\"UTF-8\"?>\nRegi Maioricarum. \u2014 Ad audientiam nostri apostolatus perducto quod in civitate ac diocesi Elnen. nonnulle persone de fide suspecte catholica conversantur, ven. fratri nostro.. episcopo Elnen. et dilecto filio.. inquisitori heretice pravitatis in eisdem partibus auctoritate apostolica deputato damus... in mandatis ut adversus personas huiusmodi, ne fideles partium earumdem suis erroribus inficere valeant, procedere studeant diligenter. Quocirca regiam excellentiam attentius deprecamur quatinus eidem episcopo et inquisitori, ac ipsorum cuilibet, in hac part assistere consiliis, auxiliis et oportunis favoribus pro divina et apostolice Sedis reverentia zeloque dicte fidei regalis magnificentia non omittat. \u2014 Datum Avinioni, viii idus maii, anno quartodecimo.\n"
        },
        {
            "type": "edition",
            "value": "Jean-Marie Vidal, <i>Bullaire de l\u2019Inquisition fran\u00e7aise au XIV<sup>e<\/sup> si\u00e8cle et jusqu'\u00e0 la fin du Grand Schisme<\/i>, Paris : Letouzey et An\u00e9, 1913, n. 99, p. 152"
        },
        {
            "type": "sources_manuscrites",
            "value": "<i>Reg. Vat.<\/i>, t. <span class=\"smal-caps\">cxv<\/span>, fol. 398, n. 2025"
        },
        {
            "type": "sources_manuscrites",
            "value": "Vidal, <i>Proc\u00e8s ... contre Adh\u00e9mar de Mosset<\/i>, dans <i>Revue d\u2019hist. de l\u2019\u00c9gl. de France<\/i>, p. 568."
        },
        {
            "type": "notes_historiques",
            "value": "Jacques II, fils de l\u2019infant Fernand de Majorque, n\u00e9 en 1315, mort en 1349, succ\u00e9da \u00e0 son oncle Sanche en 1324. Lecoy de la Marche, <i>Relations de la France avec le royaume de Majorque<\/i>, t. <span class=\"smal-caps\">ii<\/span>, p. 4 sq. Bibliographie, dans Chevalier, <i>R\u00e9pertoire des sources historiques du moyen \u00e2ge, Bio-bibliographie<\/i>, 2<sup>e<\/sup> \u00e9d., col. 2320.",
            "children": {
                "numero_note": "1"
            }
        },
        {
            "type": "notes_historiques",
            "value": "Voir n. 96-97, 124 <i>bis<\/i>, 125, 125 <i>bis<\/i>, 127, 127 <i>bis<\/i>, 127 <i>ter<\/i>, 130 <i>bis<\/i>, 130 <i>ter<\/i>, 132, 135-136, 139.",
            "children": {
                "numero_note": "2"
            }
        },
        {
            "type": "date",
            "value": "1330\/05\/08",
            "children": {
                "date_deb_annee": "1330",
                "date_deb_mois": "05",
                "date_deb_jour": "08"
            },
            "range": {
                "date_apres": 13300508,
                "date_avant": 13300508
            }
        },
        {
            "type": "genre",
            "value": "Bulle"
        }
    ]
}