{
    "id": 25692,
    "name": "aposcripta-2789",
    "type": "acte",
    "url": "http:\/\/telma-chartes.irht.cnrs.fr\/aposcripta\/notice\/25692",
    "project_slug": "aposcripta",
    "project_label": "APOSCRIPTA \u2013 Lettres des papes",
    "user": "lettrespontificalesadmin",
    "last_update": "2020-10-19 16:27:48",
    "licence": "Attribution - Pas d\u2019Utilisation Commerciale - Partage dans les M\u00eames Conditions 3.0 France (CC BY-NC-SA 3.0 FR) ",
    "licence_url": "https:\/\/creativecommons.org\/licenses\/by-nc-sa\/3.0\/fr\/",
    "elements": [
        {
            "type": "pape",
            "value": "Honorius IV (1285-1287)"
        },
        {
            "type": "destinataire",
            "value": "L'abb\u00e9 de Corbie",
            "children": {
                "numero_note": "0"
            }
        },
        {
            "type": "date_lieu",
            "value": "Rome, Sainte-Sabine"
        },
        {
            "type": "date_libre",
            "value": "Nonis maii, anno primo"
        },
        {
            "type": "date",
            "value": " 1286\/05\/07",
            "children": {
                "date_deb_annee": "1286",
                "date_deb_mois": "05",
                "date_deb_jour": "07"
            },
            "range": {
                "date_apres": 12860507,
                "date_avant": 12860507
            }
        },
        {
            "type": "analyse",
            "value": "CONSERVATORIA HONORII PAP\u00c6 IV. directa Abbati Monasterii Corbeyensis Ambianen. Di\u0153c. adversus molestatores personarum, et bonorum Ordinis Clun."
        },
        {
            "type": "transcription",
            "value": "<?xml version=\"1.0\" encoding=\"UTF-8\"?>\nHonorius Episcopus servus servorum Dei, dilecto filio Abati Monasterii de Corbeya, Ambianensis Di\u0153cesis, salutem et Apostolicam benedictionem. Quia nonnulli sic in malitia delectantur, ut voluntatis libito, abstinenti\u00e6 ruptis habenis, ad illicita relaxato, Religiosas personas super bonis suis, Dei timore postposito multipliciter molestare pr\u00e6sumat; consuevit Apostolica Sedes personis ipsis contra pravitatem talium defensionis pr\u00e6sidio misericorditer subvenire per quod eorum bona tuta permaneant, molestatorum ipsorum compescatur temeritas, et aliis aditus committandi similia pr\u00e6cludatur. Cum itaque dilecti filii Abbas, et conventus Monasterii Cluniacensis Matisconensis Di\u0153cesis, ac Abbates, Priores, et Monachi Monasteriorum, Prioratuum, et membrorum eidem Monasterio Cluniacensi subjectorum, sicut ex parte ipsorum fuit propositum coram nobis \u00e0 nonnullis qui nomen Domini in vacuum recipere non formidant, in personis et bonis suis multipliciter molestentur. Nos eorum providere quieti, et molestatorum ipsorum malitiis obujare volentes, discretioni tu\u00e6 per Apostolica scripta mandamus quatenus Abbatibus, conventui, Prioribus, et Monachis pr\u00e6dictis, per te, vel per alium, aut alios opportuni favoris assistens pr\u00e6sidio, non permittas ipsos in personis et bonis suis contra indulta Privilegiorum Sedis Apostolic\u00e6 ab aliquibus indebit\u00e8 molestari molestatores hujusmodi per censuram Ecclesiasticam appellatione postposita compescendo. Nonobstante si aliquibus \u00e0 dicta Sede indultum existat, quod interdici, suspendi, et excommunicari non possint per litteras Apostolicas, qu\u00e6 de indulto hujusmodi plenam et expressam non fecerint mentionem; sive qualibet alia indulgentia Sedis ejusdem, de qua oporteat in nostris litteris plenam et expressam mentionem fieri, et per quam id impediri valeat, vel differri; et constitutione de duabus dietis edita in Concilio generali, dummodo ultra tertiam, vel quartam aliqui extra suam Di\u0153cesim auctoritate pr\u00e6sentium non trahantur. Attentius provisurus ne de iis, qu\u00e6 caus\u00e6 cognitionem exigunt, et qu\u00e6 indulta hujusmodi non contingunt, te aliquatemus intromittas. Nos enim, si secus pr\u00e6sumpseris, tam pr\u00e6sentes litteras, qu\u00e0m etiam processum, quem per te illarum auctoritate haberi contigerit, omnino carere viribus, ac nullius fore decernimus firmitatis. Hujusmodi ergo mandatum nostrum sic prudenter et fideliter exequaris, quod ejus fines quomodolibet non excedas pr\u00e6sentibus post quinquennium minim\u00e8 valituris. Datum Rom\u00e6, apud sanctam Sabinam, nonis maii, Pontificatus nostri anno primo.\n"
        },
        {
            "type": "edition",
            "value": "Ici reprise de  Pierre Simon, <i>Bullarium sacri Ordinis cluniacensis, complectens plurima privilegia per summos pontifices tum ipsi cluniacensi abbatiae, tum ei subditis monasteriis hactenus concessa<\/i>, Lyon : Jullieron, 1680, p. 150."
        },
        {
            "type": "sources_manuscrites",
            "value": "\u00e0 renseigner."
        },
        {
            "type": "remarques",
            "value": "Cf. M. Prou, Reg. d\u2019Honorius IV, n\u00ba\u00a0923."
        },
        {
            "type": "edition_autre",
            "value": "Ici reprise de ",
            "children": {
                "numero_note": "0"
            }
        },
        {
            "type": "edition_autre",
            "value": "Pierre Simon, <i>Bullarium sacri Ordinis cluniacensis, complectens plurima privilegia per summos pontifices tum ipsi cluniacensi abbatiae, tum ei subditis monasteriis hactenus concessa<\/i>, Lyon : Jullieron, 1680, p. 150, qui indique : Est et alia ejusdem Honorii Pap\u00e6 Conservatoria, directa Abbati Monasterii Morbacensis, Basilien. Di\u0153cesis, ad eumdem effectum, et eorumdem tenoris, et dat\u00e6.",
            "children": {
                "numero_note": "1"
            }
        },
        {
            "type": "genre",
            "value": "Mandement (littere cum filo canapis)"
        }
    ]
}