{
    "id": 20015,
    "name": "aposcripta-2",
    "type": "acte",
    "url": "http:\/\/telma-chartes.irht.cnrs.fr\/aposcripta\/notice\/20015",
    "project_slug": "aposcripta",
    "project_label": "APOSCRIPTA \u2013 Lettres des papes",
    "user": "lettrespontificalesadmin",
    "last_update": "2020-10-19 16:26:43",
    "licence": "Attribution - Pas d\u2019Utilisation Commerciale - Partage dans les M\u00eames Conditions 3.0 France (CC BY-NC-SA 3.0 FR) ",
    "licence_url": "https:\/\/creativecommons.org\/licenses\/by-nc-sa\/3.0\/fr\/",
    "elements": [
        {
            "type": "date_lieu",
            "value": "Rome"
        },
        {
            "type": "date_libre",
            "value": "VIII kalendas februarii, anno secundo"
        },
        {
            "type": "analyse",
            "value": "Nicolai papae IV epistola ad Jacobum, regem Majoricarum, in causa Templariorum domus Ruscinonensis."
        },
        {
            "type": "transcription",
            "value": "<?xml version=\"1.0\" encoding=\"UTF-8\"?>\nNicholaus episcopus, servus servorum Dei, carissimo in Christo filio J[acobo], regi Majoricarum illustri, salutem et apostolicam benedictionem. Credentes te firmiter ad illum habere respectum in cujus potentia sunt reges, et regna et omnium potestates, quodque illi intendis totis viribus complacere, ad ea que sibi placent serenitatem tuam fiducialiter precibus invitamus. Sane pro parte dilectorum filiorum magistri et fratrum domus militie Templi Jerosolimitanensis fuit expositum coram nobis quod tu domum militie Templi de Ruscilione, Elnensis diocesis, ad instantiam carissimi in Christo filii nostri .. regis Francie illustris occupasti, et eam adhuc detines occupatam, eo pretextu quod dicta domus de commenda Arragonie ipsius ordinis existebat. Quare iidem magister et fratres super hoc ad apostolice Sedis providentiam recurrerunt. Nos itaque, prefatis magistro et fratribus super hoc benigno compatientes affectu, serenitatem regiam rogamus et hortamur attente quatinus si dicti magister et fratres domus Templi Jerosolimitanensis, prout eis expresse mandavimus, dictam domum talibus gubernandam commiserint qui Romane Ecclesie ac regalis excellentie fideles existant, et de quibus non possit sinistri aliquid suspicari, eam cum fructibus ex ea perceptis pro nostra et apostolice Sedis reverentia magistro et fratribus eisdem restituas, ipsosque illam permittas pacifice possidere, preces nostras in hac parte taliter impleturus quod merearis exinde premium apud Deum nosque magnificentiam tuam possimus exinde dignis in Domino laudibus merito commendare. Datum Rome, apud Sanctam Mariam majorem, VIII kalendas februarii, pontificatus nostri anno secundo.\n"
        },
        {
            "type": "edition",
            "value": "\u00c9tienne Baluze, Guillaume Mollat, <i>Vitae paparum Avenionensium. Nouvelle \u00e9dition revue d'apr\u00e8s les manuscrits et compl\u00e9t\u00e9e de notes critiques<\/i>, Paris : Letouzey et An\u00e9, 1914-1922, t. 3, p. 7-8."
        },
        {
            "type": "sources_manuscrites",
            "value": "Ex authentico, <i>Bal.<\/i>"
        },
        {
            "type": "sources_manuscrites",
            "value": "pi\u00e8ce non retrouv\u00e9e"
        },
        {
            "type": "sources_manuscrites",
            "value": "non enregistr\u00e9e"
        },
        {
            "type": "sources_manuscrites",
            "value": "cf. E. Langlois, <i>Les registres de Nicolas IV,<\/i> t. ii, n. 7533."
        },
        {
            "type": "pape",
            "value": "Nicolas IV (1288-1292)"
        },
        {
            "type": "date",
            "value": "1290\/01\/25",
            "children": {
                "date_deb_annee": "1290",
                "date_deb_mois": "01",
                "date_deb_jour": "25"
            },
            "range": {
                "date_apres": 12900125,
                "date_avant": 12900125
            }
        },
        {
            "type": "genre",
            "value": "Lettre, g\u00e9n\u00e9ral (apr\u00e8s 1198, littere cum filo canapis)"
        }
    ]
}