{
    "id": 24547,
    "name": "aposcripta-1698",
    "type": "acte",
    "url": "http:\/\/telma-chartes.irht.cnrs.fr\/aposcripta\/notice\/24547",
    "project_slug": "aposcripta",
    "project_label": "APOSCRIPTA \u2013 Lettres des papes",
    "user": "lettrespontificalesadmin",
    "last_update": "2020-10-19 16:27:31",
    "licence": "Attribution - Pas d\u2019Utilisation Commerciale - Partage dans les M\u00eames Conditions 3.0 France (CC BY-NC-SA 3.0 FR) ",
    "licence_url": "https:\/\/creativecommons.org\/licenses\/by-nc-sa\/3.0\/fr\/",
    "elements": [
        {
            "type": "pape",
            "value": "Cl\u00e9ment IV (1265-1268)"
        },
        {
            "type": "date_lieu",
            "value": "Viterbe"
        },
        {
            "type": "date_libre",
            "value": "10\u00a0juillet 1268"
        },
        {
            "type": "date",
            "value": " 1268\/07\/10",
            "children": {
                "date_deb_annee": "1268",
                "date_deb_mois": "07",
                "date_deb_jour": "10"
            },
            "range": {
                "date_apres": 12680710,
                "date_avant": 12680710
            }
        },
        {
            "type": "analyse",
            "value": "Cl\u00e9ment\u00a0IV invite l\u2019Universit\u00e9 de Montpellier \u00e0 admettre Guillaume S\u00e9guier parmi ses docteurs, nonobstant ses statuts."
        },
        {
            "type": "transcription",
            "value": "<?xml version=\"1.0\" encoding=\"UTF-8\"?>\nUniversis doctoribus et scolaribus Montispesulani, Magalonensis diocesis. Thesaurus cujusque scientie, quo magis in alios doctrina studiosa diffunditur, eo per studii diligentiam in docente copiosius augmentatur. Hec dilectus filius Guillelmus Seguerii de Montepessulano Magalonensis diocesis, juris civilis professor, prudenter attendens ut donum civilis sapientie sibi a Domino creditum tanto sibi studendo accumularet uberius quanto diligentius docendo aliis studiosius erogaret, post diutinos labores exactos in studio ad magistri gradum aspirans, quia id Bononie propter dissensionem inter dilectum filium archidiaconum Bononie ex parte una et scolares inibi studentes ex alia super creatione doctorum exortam non poterat obtinere, ad nos recursum habens, super hoc provisionis nostre remedium instantia humili postulavit. Nos itaque, ipsius voto favorabili pia benignitate faventes, dilecto filio magistro Berardo de Neapoli, subdiacono et notario nostro, juris civili professori, commisimus ut, eum juxta formam in talibus consuetam diligenter examinans, si ad hoc ipsum ydoneum inveniat, sibi licentiam in eodem jure ubique docendia auctoritate nostra concederet et cetera in hiis solitis sollempnia consumaret. Dictus vero notarius, primo pluribus doctoribus et postea tam illis quam aliis viris peritis de nostra curia convocatis, exacte, tam private quam publice, ipsum examinans, sibi eorumdem doctorum conspirante consensu, licentiam in eadem civili sapientia docendi ubique ac postmodum librum, juxta morem in hiis hactenus observatum, tradita sibi a nobis auctoritate, concessit. Quocirca universitatem vestram rogamus et hortamur attente, mandantes quatinus eumdem Guillelmum, tanquam ejusdem juris doctorem habentes, ipsum in omnibus ad doctorum consortium et docendi officium, non obstante statuto, juramento, excommunicatione vel quacumque firmitate alia roborato quo venerabilis frater noster episcopus Magalonensis et vos, filii doctore[s], statuisse dicimini quod in Montepessulano vel ejus suburbiis nullus presumat ordinarie regere nisi alias ibidem vel Bononie rexerit, aut inibi coram eodem episcopo vel illo cui quoad hec comiserit idem episcopus vices suas, per doctores Montispessulani qui voluerint interesse, seu Bononie fuerit examinatus et etiam approbatus, cum in hoc auctoritatem superioris non ignoretis exceptam, sine difficultate qualibet admittatis. Datum Viterbii, VI idus julii, anno IIIIto.\n"
        },
        {
            "type": "edition",
            "value": "Julien Rouquette, Augustin Villemagne, <i>Bullaire de l'\u00c9glise de Maguelone<\/i>, Paris, Montpellier : Picard, Valat, 1911-1914, II, n. 524, p. 427 <a target=\"_blank\" href= \" http:\/\/gallica.bnf.fr\/ark:\/12148\/bpt6k95555p\/f441.image\"> [en ligne]<\/a>."
        },
        {
            "type": "apparat_critique",
            "value": "Le <i>Cartulaire de l\u2019Universit\u00e9<\/i> porte\u00a0: <i>docenti<\/i>. Il doit y avoir une faute d\u2019impression.",
            "children": {
                "numero_note": "a"
            }
        },
        {
            "type": "bibliographie_generale",
            "value": "<i>Cart. de l\u2019Universit\u00e9 de Montpellier<\/i>, p.\u00a0199, qui donne une courte bibliographie.",
            "children": {
                "numero_note": "0"
            }
        },
        {
            "type": "genre",
            "value": "Mandement (littere cum filo canapis)"
        },
        {
            "type": "destinataire",
            "value": "Tous les docteurs et les \u00e9tudiants de Montpellier"
        }
    ]
}