{
    "id": 149313,
    "name": "aposcripta-8876",
    "type": "acte",
    "url": "http:\/\/telma-chartes.irht.cnrs.fr\/aposcripta\/notice\/149313",
    "project_slug": "aposcripta",
    "project_label": "APOSCRIPTA \u2013 Lettres des papes",
    "user": "lettrespontificalesadmin",
    "last_update": "2020-10-19 16:39:56",
    "licence": "Attribution - Pas d\u2019Utilisation Commerciale - Partage dans les M\u00eames Conditions 3.0 France (CC BY-NC-SA 3.0 FR) ",
    "licence_url": "https:\/\/creativecommons.org\/licenses\/by-nc-sa\/3.0\/fr\/",
    "elements": [
        {
            "type": "pape",
            "value": "Innocent IV (1243-1254)"
        },
        {
            "type": "destinataire",
            "value": "II.<lb n=\"\"\/>. . episcopo Bellicensi"
        },
        {
            "type": "date_libre",
            "value": "III kalendas decembris, anno IX"
        },
        {
            "type": "date",
            "value": " 1251\/11\/29",
            "children": {
                "date_deb_annee": "1251",
                "date_deb_mois": "11",
                "date_deb_jour": "29"
            },
            "range": {
                "date_apres": 12511129,
                "date_avant": 12511129
            }
        },
        {
            "type": "date_lieu",
            "value": "Perusii"
        },
        {
            "type": "sources_manuscrites",
            "value": "R. CIT\u00c9 DU VATICAN, Archivio Segreto Vaticano, <hi rend=\"italic\">Registra Vaticana<\/hi> ... Inn.\u00a0IV Reg. Vol.\u00a0II, 120-121; Lib.\u00a0IX, 58-62. Pertzii exemplaria contulimus cum Regestis.",
            "children": {
                "type_source": "Registre de la chancellerie apostolique"
            }
        },
        {
            "type": "genre",
            "value": "Mandement (littere cum filo canapis)"
        },
        {
            "type": "analyse",
            "value": "Innocentius IV papa mandata dat, ut pecunia, quae a quibusdam excommunicatis provinciarum Burgundiae et nonnullarum civitatum et diocesium Italiae superioris pro absolutione solvenda sit, colligatur et Th[omae] comiti de Sabaudia assignetur [Rodenberg]."
        },
        {
            "type": "transcription",
            "value": "<?xml version=\"1.0\" encoding=\"UTF-8\"?>\nII.. . episcopo Bellicensi.Cum de hiis, que nonnulli in Lugdunensi, Tarantasiensi, Viennensi, Bisuntina, Aquensi et Arelatensi provinciis per pravitatem usurariam ac alias illicite acquisivisse noscuntur, certum tibi per alias litteras nostras mandatum meminerimus direxisse, volumus et sinceritati tue presentium tenore precipiendo mandamus, quatinus pecuniam, quam iuxta ipsius mandati tenorem de acquisitis taliter collegeris, dilecto filio nobili viro Th. comiti de Sabaudia vel eius certo nuntio sine difficultate qualibet assignare procures, quantitatem ipsius pecunie nobis tuis litteris rescripturus.Dat. ut supra.\n"
        },
        {
            "type": "edition",
            "value": "Ici reprise de Karl Rodenberg, Epistolae s. XIII e regestis pontificum romanorum selectae, III, Berlin : Weidmann (MGH), 1894, n.\u00a0122b, p.\u00a0102."
        },
        {
            "type": "edition_autre",
            "value": "?"
        },
        {
            "type": "regeste",
            "value": "?"
        },
        {
            "type": "bibliographie_generale",
            "value": "?"
        },
        {
            "type": "apparat_critique",
            "value": "?",
            "children": {
                "numero_note": "a"
            }
        },
        {
            "type": "apparat_critique",
            "value": "?",
            "children": {
                "numero_note": "b"
            }
        },
        {
            "type": "apparat_critique",
            "value": "?",
            "children": {
                "numero_note": "c"
            }
        },
        {
            "type": "apparat_critique",
            "value": "?",
            "children": {
                "numero_note": "d"
            }
        },
        {
            "type": "apparat_critique",
            "value": "?",
            "children": {
                "numero_note": "e"
            }
        },
        {
            "type": "apparat_critique",
            "value": "?",
            "children": {
                "numero_note": "f"
            }
        },
        {
            "type": "notes_historiques",
            "value": "?",
            "children": {
                "numero_note": "1"
            }
        },
        {
            "type": "notes_historiques",
            "value": "?",
            "children": {
                "numero_note": "2"
            }
        },
        {
            "type": "notes_historiques",
            "value": "?",
            "children": {
                "numero_note": "3"
            }
        }
    ]
}