{
    "id": 24287,
    "name": "aposcripta-1438",
    "type": "acte",
    "url": "http:\/\/telma-chartes.irht.cnrs.fr\/aposcripta\/notice\/24287",
    "project_slug": "aposcripta",
    "project_label": "APOSCRIPTA \u2013 Lettres des papes",
    "user": "lettrespontificalesadmin",
    "last_update": "2020-10-19 16:27:27",
    "licence": "Attribution - Pas d\u2019Utilisation Commerciale - Partage dans les M\u00eames Conditions 3.0 France (CC BY-NC-SA 3.0 FR) ",
    "licence_url": "https:\/\/creativecommons.org\/licenses\/by-nc-sa\/3.0\/fr\/",
    "elements": [
        {
            "type": "pape",
            "value": "Honorius III (1216-1227)"
        },
        {
            "type": "date_lieu",
            "value": "n.c."
        },
        {
            "type": "date_libre",
            "value": "29\u00a0mai 1221"
        },
        {
            "type": "date",
            "value": " 1221\/05\/29",
            "children": {
                "date_deb_annee": "1221",
                "date_deb_mois": "05",
                "date_deb_jour": "29"
            },
            "range": {
                "date_apres": 12210529,
                "date_avant": 12210529
            }
        },
        {
            "type": "analyse",
            "value": "Honorius\u00a0III approuve l\u2019union de l\u2019\u00e9glise de B\u00e9jargues \u00e0 la mense \u00e9piscopale."
        },
        {
            "type": "transcription",
            "value": "<?xml version=\"1.0\" encoding=\"UTF-8\"?>\nHonorius episcopus, servus servorum Dei, venerabili fratri, episcopo Magalonensi, salutem et apostolicam benedictionem.Cum a nobis petitur quod justum est et honestum, tam vigor equitatis quam ordo exigit rationis, ut ida, per sollicitudinem officii nostri, ad debitum perducatur effectum.Cum igitur ecclesia Sancti Stephani de Bejanicis mense Magalonensis episcopi, sicut accepimus, deputata fuerit ab antiquo, nos tuis justis precibus inclinati, auctoritate tibib presentiumc indulgemus ut prefatam ecclesiam tibi de licentia nostra liceat retinere, sicut eam predecessores tui juste ac pacifice hactenus tenuerunt.Nulli ergo omnino hominum liceat hanc paginam nostre concessionis infringere, vel ei ausu temerario contraire. Si quis autem hoc attemptare presumpserit, indignationemd omnipotentis Dei et beatorum Petrie et Pauli, apostolorum ejus, se noverit incursurum.Datum Laterani, iiii kalendas junii, pontificatus nostro anno quinto.\n"
        },
        {
            "type": "edition",
            "value": "Julien Rouquette, Augustin Villemagne, <i>Bullaire de l'\u00c9glise de Maguelone<\/i>, Paris, Montpellier : Picard, Valat, 1911-1914, II, n. 251-CLXIV, p. 55-57"
        },
        {
            "type": "remarques",
            "value": "A plusieurs reprises d\u00e9j\u00e0, nous nous sommes occup\u00e9 de cette \u00e9glise, et avons dit qu\u2019elle formait une vicairie avec le Terral. Elle \u00e9tait situ\u00e9e aupr\u00e8s de Saint-Jean de V\u00e9das, et poss\u00e9dait un h\u00f4pital fond\u00e9 par Guillaume d\u2019Autignac.\n\n[Rouquette-Villemagne]"
        },
        {
            "type": "apparat_critique",
            "value": "Cart. a ce mot\u00a0; Bull. ne l\u2019a pas.",
            "children": {
                "numero_note": "a"
            }
        },
        {
            "type": "apparat_critique",
            "value": "Cart. a ce mot\u00a0; Bull. ne l\u2019a pas.",
            "children": {
                "numero_note": "b"
            }
        },
        {
            "type": "apparat_critique",
            "value": "Cart. et Bull.\u00a0: <i>presencium<\/i>.",
            "children": {
                "numero_note": "c"
            }
        },
        {
            "type": "apparat_critique",
            "value": "Cart. et Bull.\u00a0: <i>indignacionem<\/i>.",
            "children": {
                "numero_note": "d"
            }
        },
        {
            "type": "apparat_critique",
            "value": "Cart.\u00a0: <i>Petri<\/i>\u00a0; Bull.\u00a0: <i>P<\/i>.",
            "children": {
                "numero_note": "e"
            }
        },
        {
            "type": "bibliographie_generale",
            "value": "<i>Bull. de Maguelone<\/i>, fol.\u00a044\u00a0r\u00b0",
            "children": {
                "numero_note": "0"
            }
        },
        {
            "type": "bibliographie_generale",
            "value": "<i>Cart. de Maguelone<\/i>, reg.\u00a0F, fol.\u00a0169\u00a0v\u00b0.",
            "children": {
                "numero_note": "1"
            }
        },
        {
            "type": "genre",
            "value": "Bulle"
        }
    ]
}