{
    "id": 149657,
    "name": "aposcripta-9220",
    "type": "acte",
    "url": "http:\/\/telma-chartes.irht.cnrs.fr\/aposcripta\/notice\/149657",
    "project_slug": "aposcripta",
    "project_label": "APOSCRIPTA \u2013 Lettres des papes",
    "user": "lettrespontificalesadmin",
    "last_update": "2020-10-19 16:40:02",
    "licence": "Attribution - Pas d\u2019Utilisation Commerciale - Partage dans les M\u00eames Conditions 3.0 France (CC BY-NC-SA 3.0 FR) ",
    "licence_url": "https:\/\/creativecommons.org\/licenses\/by-nc-sa\/3.0\/fr\/",
    "elements": [
        {
            "type": "pape",
            "value": "Alexandre IV (1254-1261)"
        },
        {
            "type": "destinataire",
            "value": ". . potestati, consilio et communi Capuanis"
        },
        {
            "type": "date_libre",
            "value": "XV kalendas octobris, anno I"
        },
        {
            "type": "date",
            "value": " 1255\/09\/17",
            "children": {
                "date_deb_annee": "1255",
                "date_deb_mois": "09",
                "date_deb_jour": "17"
            },
            "range": {
                "date_apres": 12550917,
                "date_avant": 12550917
            }
        },
        {
            "type": "date_lieu",
            "value": "Anagnie"
        },
        {
            "type": "sources_manuscrites",
            "value": "R. CIT\u00c9 DU VATICAN, Archivio Segreto Vaticano, <hi rend=\"italic\">Registra Vaticana<\/hi> ... Al.\u00a0IV Reg. Vol.\u00a0I, 94; Lib.\u00a0I, 621b. Damus Pertzii exemplar.",
            "children": {
                "type_source": "Registre de la chancellerie apostolique"
            }
        },
        {
            "type": "genre",
            "value": "Mandement (littere cum filo canapis)"
        },
        {
            "type": "analyse",
            "value": "Alexander IV papa potestati, consilio et communi Capuanis, saepe per hostes ecclesiae dispendiis afflictis, indulget, ut per regnum Siciliae, Campaniam et Maritimam et per omnes terras ecclesiae ab exactionibus perpetuo liberi sint [Rodenberg]."
        },
        {
            "type": "transcription",
            "value": "<?xml version=\"1.0\" encoding=\"UTF-8\"?>\n. . potestati, consilio et communi Capuanis.De meritorum vestrorum multitudine clara procedit, quod affectu sincerissimo vos in Christo diligimus et speciali gratia libentissime confovemus, presertim cum dignum sit, ut qui per sevitiam hostium ecclesie sepe gravibus fuistis afflicti dispendiis, per sedis apostolice pietatem ad statum prosperitatis exurgere gaudeatis. Hinc est, quod universitati vestre auctoritate presentium indulgemus, ut ubique per regnum Sicilie ac per Campaniam et Maritimam nec non per omnes terras ecclesie Romane subiectas a pedagiis et quibuslibet aliis exactionibus perpetuo sitis liberi et immunes. Decernimus etiam nichilominus irritum et inane, si contra tenorem indulgentie huiusmodi adversum vos vel quemcumque vestrum aliquid super hiis contigerit attemptari. Nulli etc. nostre concessionis et constitutionis etc.Dat. Anagnie, XV Kalendas Octobris, anno I\u00b0.\n"
        },
        {
            "type": "edition",
            "value": "Ici reprise de Karl Rodenberg, Epistolae s. XIII e regestis pontificum romanorum selectae, III, Berlin : Weidmann (MGH), 1894, n.\u00a0412, p.\u00a0370."
        },
        {
            "type": "edition_autre",
            "value": "?"
        },
        {
            "type": "regeste",
            "value": "?"
        },
        {
            "type": "bibliographie_generale",
            "value": "?"
        },
        {
            "type": "apparat_critique",
            "value": "?",
            "children": {
                "numero_note": "a"
            }
        },
        {
            "type": "apparat_critique",
            "value": "?",
            "children": {
                "numero_note": "b"
            }
        },
        {
            "type": "apparat_critique",
            "value": "?",
            "children": {
                "numero_note": "c"
            }
        },
        {
            "type": "apparat_critique",
            "value": "?",
            "children": {
                "numero_note": "d"
            }
        },
        {
            "type": "apparat_critique",
            "value": "?",
            "children": {
                "numero_note": "e"
            }
        },
        {
            "type": "apparat_critique",
            "value": "?",
            "children": {
                "numero_note": "f"
            }
        },
        {
            "type": "notes_historiques",
            "value": "?",
            "children": {
                "numero_note": "1"
            }
        },
        {
            "type": "notes_historiques",
            "value": "?",
            "children": {
                "numero_note": "2"
            }
        },
        {
            "type": "notes_historiques",
            "value": "?",
            "children": {
                "numero_note": "3"
            }
        }
    ]
}