{
    "id": 20449,
    "name": "aposcripta-436",
    "type": "acte",
    "url": "http:\/\/telma-chartes.irht.cnrs.fr\/aposcripta\/notice\/20449",
    "project_slug": "aposcripta",
    "project_label": "APOSCRIPTA \u2013 Lettres des papes",
    "user": "lettrespontificalesadmin",
    "last_update": "2020-10-19 16:26:49",
    "licence": "Attribution - Pas d\u2019Utilisation Commerciale - Partage dans les M\u00eames Conditions 3.0 France (CC BY-NC-SA 3.0 FR) ",
    "licence_url": "https:\/\/creativecommons.org\/licenses\/by-nc-sa\/3.0\/fr\/",
    "elements": [
        {
            "type": "pape",
            "value": "Gr\u00e9goire XI (1370-1378)"
        },
        {
            "type": "date_lieu",
            "value": "Villeneuve"
        },
        {
            "type": "date_libre",
            "value": "26 ao\u00fbt 1373"
        },
        {
            "type": "analyse",
            "value": "Le pape d\u00e9l\u00e8gue l\u2019\u00e9v\u00eaque d\u2019Ajaccio et le vicaire du ministre g\u00e9n\u00e9ral des franciscains en Corse, pour absoudre et r\u00e9concilier avec l\u2019\u00c9glise certains h\u00e9r\u00e9tiques relaps de Corse qui manifestent un d\u00e9sir de conversion, pourvu toutefois qu\u2019ils n\u2019aient r\u00e9cidiv\u00e9 qu\u2019une fois et soient dispos\u00e9s \u00e0 abjurer leurs erreurs."
        },
        {
            "type": "transcription",
            "value": "<?xml version=\"1.0\" encoding=\"UTF-8\"?>\nVenerabili fratri Simoni1, episcopo Adiacen., et dilecto filio Gabrieli de Montealcino, dilecti filii ministri generalis2 ordinis fratrum minorum in insula Corsice vicario. \u2014 Ad nostrum pervenit... \u2014 Datum apud Villamnovam, Avinionen. diocesis, vii kalendas septembris, anno III.\n"
        },
        {
            "type": "edition",
            "value": "Jean-Marie Vidal, <i>Bullaire de l\u2019Inquisition fran\u00e7aise au XIV<sup>e<\/sup> si\u00e8cle et jusqu'\u00e0 la fin du Grand Schisme<\/i>, Paris : Letouzey et An\u00e9, 1913, n. 279, p. 402"
        },
        {
            "type": "sources_manuscrites",
            "value": "<i>Reg. Vat.<\/i>, t. <span class=\"smal-caps\">cclxv<\/span>, fol. 69"
        },
        {
            "type": "sources_manuscrites",
            "value": "Wadding, <i>op. cit., Reg. Greg. XI<\/i>, n. <span class=\"smal-caps\">xlv<\/span> (<i>in ext.<\/i>)."
        },
        {
            "type": "notes_historiques",
            "value": "Simon, \u00e9v\u00eaque d\u2019Ajaccio, le 19 d\u00e9cembre 1369 ; mort vers 1400. Eubel, <i>Hier.<\/i>, t. <span class=\"smal-caps\">i<\/span>, p. 69.",
            "children": {
                "numero_note": "1"
            }
        },
        {
            "type": "notes_historiques",
            "value": "L\u00e9onard de Gifon, ma\u00eetre en th\u00e9ologie, provincial de Naples, \u00e9lu g\u00e9n\u00e9ral de l\u2019ordre, le 5 juin 1373 ; cr\u00e9\u00e9 cardinal du titre de Saint-Sixte, le 16 d\u00e9cembre 1378 ; mort en 1407. Baluze, <i>op. cit.<\/i>, col. 1261 ; Eubel, <i>Hier.<\/i>, t. <span class=\"smal-caps\">i<\/span>, p. 26 ; Othon de Pavie, <i>L\u2019Aquitaine s\u00e9raphique<\/i>, t. <span class=\"smal-caps\">ii<\/span>, p. 51.",
            "children": {
                "numero_note": "2"
            }
        },
        {
            "type": "date",
            "value": "1373\/08\/26",
            "children": {
                "date_deb_annee": "1373",
                "date_deb_mois": "08",
                "date_deb_jour": "26"
            },
            "range": {
                "date_apres": 13730826,
                "date_avant": 13730826
            }
        },
        {
            "type": "genre",
            "value": "Bulle"
        }
    ]
}