{
    "id": 20493,
    "name": "aposcripta-480",
    "type": "acte",
    "url": "http:\/\/telma-chartes.irht.cnrs.fr\/aposcripta\/notice\/20493",
    "project_slug": "aposcripta",
    "project_label": "APOSCRIPTA \u2013 Lettres des papes",
    "user": "lettrespontificalesadmin",
    "last_update": "2020-10-19 16:26:50",
    "licence": "Attribution - Pas d\u2019Utilisation Commerciale - Partage dans les M\u00eames Conditions 3.0 France (CC BY-NC-SA 3.0 FR) ",
    "licence_url": "https:\/\/creativecommons.org\/licenses\/by-nc-sa\/3.0\/fr\/",
    "elements": [
        {
            "type": "pape",
            "value": "Cl\u00e9ment VII (antipape ; 1378-1394)"
        },
        {
            "type": "date_lieu",
            "value": "Avignon"
        },
        {
            "type": "date_libre",
            "value": "1<sup>er<\/sup> juin 1393"
        },
        {
            "type": "analyse",
            "value": "Cl\u00e9ment VII conc\u00e8de \u00e0 Antoine Alhaudi<a class=\"note\" href=\"#note-1\">1<\/a>, inquisiteur de Provence, de ne pouvoir \u00eatre destitu\u00e9 sans motif raisonnable, de la charge d\u2019inquisiteur des provinces d\u2019Arles, d\u2019Aix, d\u2019Embrun et de Vienne, \u00e0 laquelle, selon la coutume, il a \u00e9t\u00e9 nomm\u00e9 par le provincial des franciscains de Provence, en ce temps-l\u00e0 Fran\u00e7ois Borrel<a class=\"note\" href=\"#note-2\">2<\/a>."
        },
        {
            "type": "transcription",
            "value": "<?xml version=\"1.0\" encoding=\"UTF-8\"?>\n Dilecto filio Antonio Alhaudi, ordinis fratrum minorum professori, magistro in theologia. \u2014 Religionis zelus... \u2014 Datum Avinioni, kalendis iunii, anno quintodecimo.\n"
        },
        {
            "type": "edition",
            "value": "Jean-Marie Vidal, <i>Bullaire de l\u2019Inquisition fran\u00e7aise au XIV<sup>e<\/sup> si\u00e8cle et jusqu'\u00e0 la fin du Grand Schisme<\/i>, Paris : Letouzey et An\u00e9, 1913, n. 325, p. 461"
        },
        {
            "type": "sources_manuscrites",
            "value": "<i>Reg. Aven.<\/i>, t. <span class=\"smal-caps\">cclxxiii<\/span>, fol. 422"
        },
        {
            "type": "sources_manuscrites",
            "value": "Eubel, <i>Bull.<\/i>, t. <span class=\"smal-caps\">vii<\/span>, n. 883 (<i>in ext.<\/i>)."
        },
        {
            "type": "notes_historiques",
            "value": "Au n. 328, cet inquisiteur porte le nom d\u2019<i>Alphandi<\/i>. En 1419, Martin Vratifia sa destitution de la charge d\u2019inquisiteur que le provincial de Provence avait d\u00e9cr\u00e9t\u00e9e \u2014 car Antoine \u00e9tait vieux et cass\u00e9 \u2014 et il approuva la nomination de Pierre Faure (<i>Fabri<\/i>) \u00e0 sa place. Eubel, <i>op. cit.<\/i>, n. 1421.",
            "children": {
                "numero_note": "1"
            }
        },
        {
            "type": "notes_historiques",
            "value": "Voir n. 286, note 1.",
            "children": {
                "numero_note": "2"
            }
        },
        {
            "type": "date",
            "value": "1393\/06\/01",
            "children": {
                "date_deb_annee": "1393",
                "date_deb_mois": "06",
                "date_deb_jour": "01"
            },
            "range": {
                "date_apres": 13930601,
                "date_avant": 13930601
            }
        },
        {
            "type": "genre",
            "value": "Bulle"
        }
    ]
}