{
    "id": 149924,
    "name": "aposcripta-9487",
    "type": "acte",
    "url": "http:\/\/telma-chartes.irht.cnrs.fr\/aposcripta\/notice\/149924",
    "project_slug": "aposcripta",
    "project_label": "APOSCRIPTA \u2013 Lettres des papes",
    "user": "lettrespontificalesadmin",
    "last_update": "2020-10-19 16:40:06",
    "licence": "Attribution - Pas d\u2019Utilisation Commerciale - Partage dans les M\u00eames Conditions 3.0 France (CC BY-NC-SA 3.0 FR) ",
    "licence_url": "https:\/\/creativecommons.org\/licenses\/by-nc-sa\/3.0\/fr\/",
    "elements": [
        {
            "type": "pape",
            "value": "Cl\u00e9ment IV (1265-1268)"
        },
        {
            "type": "destinataire",
            "value": ". . regi Castelle ac Legionis illustri, in Romanorum regem electo"
        },
        {
            "type": "date_libre",
            "value": "VII idus maii, anno tertio"
        },
        {
            "type": "date",
            "value": " 1267\/05\/09",
            "children": {
                "date_deb_annee": "1267",
                "date_deb_mois": "05",
                "date_deb_jour": "09"
            },
            "range": {
                "date_apres": 12670509,
                "date_avant": 12670509
            }
        },
        {
            "type": "date_lieu",
            "value": "Viterbii"
        },
        {
            "type": "sources_manuscrites",
            "value": "R. CIT\u00c9 DU VATICAN, Archivio Segreto Vaticano, <hi rend=\"italic\">Registra Vaticana<\/hi> ... Clem.\u00a0IV Reg. Vol.\u00a0I, 201; Lib.\u00a0III, cur.\u00a04. Exemplar Raynaldi, Ann. eccl. a. 1267, \u00a7\u00a022, V. Cl. Monaci contulit cum Regestis et cum altero exemplari Ricardo directo, quod ibidem Lib.\u00a0III, cur.\u00a010 reperitur.",
            "children": {
                "type_source": "Registre de la chancellerie apostolique"
            }
        },
        {
            "type": "genre",
            "value": "Mandement (littere cum filo canapis)"
        },
        {
            "type": "analyse",
            "value": "Clemens IV papa [Alfonso] regi Castellae et Legionis, in Romanorum regem electo, a. 1268, Mart. 26 terminum praefigit, quo cum dictis testium, quos super negotio imperii produci contigerit, conspectui apostolico per procuratores se praesentet; addit decretum de productione testium. \u2014 Idem Ricardo scribit [Rodenberg]."
        },
        {
            "type": "transcription",
            "value": "<?xml version=\"1.0\" encoding=\"UTF-8\"?>\n. . regi Castelle ac Legionis illustri, in Romanorum regem electo.Licet nos assidue grandium negotiorum multitudo circumstrepat, licet sollicitudines varie pectus nostrum quasi familiariter incursantes ipsarumque iugis anxietas ad expedienda que imminent officii nostri debitum multipliciter interpellent, expeditionem tamen negotii, quod de regimine tractatur imperii, eius et illud prosequentium qualitas et instantius exigit et ad illam tanto vehementius angimur, tanto amplius anxiamur, quanto gravius intenditur universo fere populo Christiano in ipsius dilatione periculum, quanto maiora ex eiusdem imperii ordinatione celeri commoda speraremus. Attendimus siquidem, immo palpamus cotidie innumera et immensa discrimina, que, te ac carissimo in Christo filio nostro R. in Romanorum regem electo asserentibus ius vobis in ipso imperio per electiones varias acquisitum, eiusdem imperii fluctuatio ingerit, dum matri ecclesie imperialis defensionis suffragium ex huiusmodi fluctuatione subtrahitur et ab ipsius persecutoribus non sine fidei Christiane discrimine in ipsam securius insultatur, dum iniuriose ipsius iura imperii violenti diripiunt et, eius subditis se iniuriis impetentibus mutuis et libere debachantibus in se ipsos, super hiis solitum secularis iudicii remedium non habetur. Hec, fili carissime, aliaque non facile commemoranda pericula, que ipsius imperii tamdiu dilata provisio sumministrat, instanti nos interpellatione sollicitant et mentem nostram instantia frequentis sollicitationis infestant, ut ad expediendum finaliter et celeriter dictum negotium plenis studiis intendamus.Nuper itaque in prefixo ad hec a nobis termino pro memorato R. electo dilecto filio nobili viro Henrico, ipsius R. primogenito, et quibusdam aliis nuntiis et procuratoribus suis, pro te vero dilecto filio magistro Radulfo de Podio Bonizi comparentibus coram nobis, cum varia fuissent hinc inde proposita tam in facto consistentia quam in iure, tandem procuratoribus prefati R. electi ad fundandam intentionem suam varia exhibentibus munimenta et allegantibus dictum magistrum Radulfum seu alium pro parte tua non esse ad impediendam petitionem ipsorum aliquatenus admittendum, cum de tuo nequaquam interesse constaret, utpote cum idem magister solis assertionibus nudis insisteret, nec ad probanda que asserebat litteras vel aliquid aliud exhiberet, prefatus magister, replicans quod forma citationis emisse a nobis ipsum tuo nomine ad probandum tunc temporis aliquid non artabat, presertim cum alias tempore felicis recordationis Alexandri pape predecessoris nostri de iure tuo, quod etiam asserebat esse notorium, per decretum electionis tue ac alias diversas litteras ut dicebat facta fuerit plena fides, nichilominus nobis mandantibus, ut diceret, si vellet amplius de dicto tuo iure docere, dixit se assertiones suas, super quibus etiam articulos certos exhibuit, in Alamannia, Francia, Ispania et Italia necnon et in nostra curia probaturum infra dilationes tanto et tali negotio congruentes.Nos autem, licet mirati fuerimus te tante discretionis principem ad tam arduum negotium nuntium sic nude misisse, videlicet super iure tuo nullam probationis speciem exhibentem, nichilominus tamen in paterna dulcedine tibi deferre volentes, articulos predictos necnon et alios, quos pars altera similiter obtulit, duximus admittendos, tam tibi quam parti eidem primum diem post festum annuntiationis beate Virginis primo venturum terminum peremptorium de fratrum nostrorum consilio prefigentes, in quo cum dictis testium, quos super eisdem articulis produci continget et omnibus aliis actis, rationibus, munimentis et iuribus vos apostolico conspectui per procuratores ydoneos presentetis. Nos enim extunc, sive huiusmodi procuratores miseritis sive non, sive probande intentioni vestre dederitis operam sive id forsan omiseritis, cum nolimus fieri predictum negotium in grandem totius orbis pernitiem immortale, ad ipsius expeditionem finaliter, prout suadebit iustitia et expedire videbimus, divina favente clementia procedemus.Ne autem ratione producendorum testium vobis detur decetero petende ulterioris dilationis occasio, volumus, quod in Alamannia apud Frankenefort, in Francia Parisius, in Ispania in civitate Burgensi, in Italia Bononie et nichilominus in predicta curia nostra coram illis, quos ad hoc duxerimus deputandos, in vigilia festi Omnium sanctorum primo venturi, quam peremptorium terminum, ut extunc productio testium hinc inde incipiat, assignamus, tam tu quam pars altera ad producendos testes, quos producere volueritis, et ad videndum iurare, quos produci continget, studeatis per procuratores ydoneos comparere.Dat. Viterbii, VII Idus Maii, anno tertio.\n"
        },
        {
            "type": "edition",
            "value": "Ici reprise de Karl Rodenberg, Epistolae s. XIII e regestis pontificum romanorum selectae, III, Berlin : Weidmann (MGH), 1894, n.\u00a0661, p.\u00a0675."
        },
        {
            "type": "edition_autre",
            "value": "?"
        },
        {
            "type": "regeste",
            "value": "?"
        },
        {
            "type": "bibliographie_generale",
            "value": "?"
        },
        {
            "type": "apparat_critique",
            "value": "?",
            "children": {
                "numero_note": "a"
            }
        },
        {
            "type": "apparat_critique",
            "value": "?",
            "children": {
                "numero_note": "b"
            }
        },
        {
            "type": "apparat_critique",
            "value": "?",
            "children": {
                "numero_note": "c"
            }
        },
        {
            "type": "apparat_critique",
            "value": "?",
            "children": {
                "numero_note": "d"
            }
        },
        {
            "type": "apparat_critique",
            "value": "?",
            "children": {
                "numero_note": "e"
            }
        },
        {
            "type": "apparat_critique",
            "value": "?",
            "children": {
                "numero_note": "f"
            }
        },
        {
            "type": "notes_historiques",
            "value": "?",
            "children": {
                "numero_note": "1"
            }
        },
        {
            "type": "notes_historiques",
            "value": "?",
            "children": {
                "numero_note": "2"
            }
        },
        {
            "type": "notes_historiques",
            "value": "?",
            "children": {
                "numero_note": "3"
            }
        }
    ]
}