{
    "id": 20171,
    "name": "aposcripta-158",
    "type": "acte",
    "url": "http:\/\/telma-chartes.irht.cnrs.fr\/aposcripta\/notice\/20171",
    "project_slug": "aposcripta",
    "project_label": "APOSCRIPTA \u2013 Lettres des papes",
    "user": "lettrespontificalesadmin",
    "last_update": "2020-10-19 16:26:45",
    "licence": "Attribution - Pas d\u2019Utilisation Commerciale - Partage dans les M\u00eames Conditions 3.0 France (CC BY-NC-SA 3.0 FR) ",
    "licence_url": "https:\/\/creativecommons.org\/licenses\/by-nc-sa\/3.0\/fr\/",
    "elements": [
        {
            "type": "pape",
            "value": "Cl\u00e9ment V (1305-1314)"
        },
        {
            "type": "date_lieu",
            "value": "Avignon"
        },
        {
            "type": "date_libre",
            "value": "XIII kalendas maii, anno octavo"
        },
        {
            "type": "analyse",
            "value": "C\u2019est en vain que le pape a insist\u00e9 aupr\u00e8s de Bertrand Desbordes, ancien \u00e9v\u00eaque d\u2019Albi, puis cardinal<a class=\"note\" href=\"#note-1\">1<\/a>, et aupr\u00e8s des inquisiteurs pour qu\u2019ils terminassent les proc\u00e8s d\u2019un certain nombre de bourgeois d\u2019Albi poursuivis, il y a plus de douze ann\u00e9es, par Bernard de Castanet et par les inquisiteurs, et, depuis ce temps, prisonniers et attendant leur sentence<a class=\"note\" href=\"#note-2\">2<\/a> ; rien n\u2019a \u00e9t\u00e9 d\u00e9cid\u00e9 \u00e0 l\u2019endroit de ces malheureux. Le pape invite l\u2019\u00e9v\u00eaque G\u00e9raud<a class=\"note\" href=\"#note-3\">3<\/a> et les inquisiteurs \u00e0 s\u2019en occuper enfin [Vidal]."
        },
        {
            "type": "transcription",
            "value": "<?xml version=\"1.0\" encoding=\"UTF-8\"?>\nIn eundem modum dilectis filiis .. inquisitori, seu inquisitoribus heretice pravitatis in Carcassonen. et Albien. partibus a Sede apostolica deputatis. \u2014 Dudum, etc., ut supra proximo, nil addito vel mutato usque : protrahatur. Discretioni vestre in virtute sancte obedientie per apostolica scripta districte precipiendo mandamus quatinus una cum venerabili fratre nostro Geraldo, episcopo Albien., cui super hoc etiam litteras nostras dirigimus, cum super hoc ab eo fueritis requisiti, exercentes vestri officii debitum sicut decet, ad inquirendum contra illos contra quos [etc., comme ci-dessus, jusqu\u2019\u00e0] observari ; contra predictos omnes postquam de ipsis plene fuerit inquisitum, necnon et contra illos contra quos jam plene inquisitum est, ad sententiam [etc., comme ci-dessus, jusqu\u2019\u00e0 la fin, mutatis mutandis]. \u2014 Datum ut supra.\n"
        },
        {
            "type": "sources_manuscrites",
            "value": "<i>Reg. Vat.<\/i>, t. <span class=\"smal-caps\">lx<\/span>, fol. 78 v\u00b0, n. 242",
            "children": {
                "type_source": "Registre de la chancellerie apostolique"
            }
        },
        {
            "type": "sources_manuscrites",
            "value": "<i>Reg. Clem. V<\/i>, n. 9163 (<i>in ext.<\/i>)."
        },
        {
            "type": "notes_historiques",
            "value": "Voir n. 7, note 2.",
            "children": {
                "numero_note": "1"
            }
        },
        {
            "type": "notes_historiques",
            "value": "Voir n. 3 (note 1) et 7.",
            "children": {
                "numero_note": "2"
            }
        },
        {
            "type": "notes_historiques",
            "value": "G\u00e9raud de Farges, transf\u00e9r\u00e9 de Lectoure \u00e0 Albi, le 12 janvier 1311 ; mort l\u2019ann\u00e9e suivante. <i>Gall. christ.<\/i>, t. <span class=\"smal-caps\">i<\/span>, col. 23 ; <i>Hist. de Languedoc<\/i>, t. <span class=\"smal-caps\">ix<\/span>, p. 347 ; Eubel, <i>Hier.<\/i>, t. <span class=\"smal-caps\">i<\/span>, p. 80, 311.",
            "children": {
                "numero_note": "3"
            }
        },
        {
            "type": "date",
            "value": "1313\/04\/19",
            "children": {
                "date_deb_annee": "1313",
                "date_deb_mois": "04",
                "date_deb_jour": "19"
            },
            "range": {
                "date_apres": 13130419,
                "date_avant": 13130419
            }
        },
        {
            "type": "genre",
            "value": "Mandement (littere cum filo canapis)"
        },
        {
            "type": "edition_autre",
            "value": "C\u00e9lestin Douais, <i>Les manuscrits du ch\u00e2teau de Merville. Notices, extraits et fac-simil\u00e9s<\/i>, Paris\/Toulouse : A. Picard\/E. Privat, 1890, p. 52-53, https:\/\/gallica.bnf.fr\/ark:\/12148\/bpt6k1303542\/f64.item.zoom d'apr\u00e8s R."
        },
        {
            "type": "edition_autre",
            "value": "Partielle : Jean-Marie Vidal, <i>Bullaire de l\u2019Inquisition fran\u00e7aise au XIV<sup>e<\/sup> si\u00e8cle et jusqu'\u00e0 la fin du Grand Schisme<\/i>, Paris : Letouzey et An\u00e9, 1913, n. 11, p. 25-26."
        }
    ]
}