{
    "id": 148617,
    "name": "aposcripta-8211",
    "type": "acte",
    "url": "http:\/\/telma-chartes.irht.cnrs.fr\/aposcripta\/notice\/148617",
    "project_slug": "aposcripta",
    "project_label": "APOSCRIPTA \u2013 Lettres des papes",
    "user": "j_theryastruc",
    "last_update": "2020-10-19 16:39:47",
    "licence": "Attribution - Pas d\u2019Utilisation Commerciale - Partage dans les M\u00eames Conditions 3.0 France (CC BY-NC-SA 3.0 FR) ",
    "licence_url": "https:\/\/creativecommons.org\/licenses\/by-nc-sa\/3.0\/fr\/",
    "elements": [
        {
            "type": "pape",
            "value": "Beno\u00eet XIII (antipape ; 1394-1423)"
        },
        {
            "type": "destinataire",
            "value": "Tous les fid\u00e8les du Christ qui verront ces lettres"
        },
        {
            "type": "date_libre",
            "value": "Kalendas februarii, anno secundo"
        },
        {
            "type": "date",
            "value": "1396\/02\/01",
            "children": {
                "date_deb_annee": "1396",
                "date_deb_mois": "02",
                "date_deb_jour": "01"
            },
            "range": {
                "date_apres": 13960201,
                "date_avant": 13960201
            }
        },
        {
            "type": "date_lieu",
            "value": "Latran"
        },
        {
            "type": "genre",
            "value": "Mandement (littere cum filo canapis)"
        },
        {
            "type": "analyse",
            "value": "Beno\u00eet XIII accorde des indulgences au b\u00e9n\u00e9fice des fid\u00e8les qui visiteront l'abbaye du Paraclet \u00e0 certaines dates."
        },
        {
            "type": "edition",
            "value": "Ici reprise de Charles Lalore, <i>Cartulaire du Paraclet<\/i> (Collection des principaux cartulaires du dioc\u00e8se de Troyes, 2), 1878, n. 44, p. 60-62 (num\u00e9ris\u00e9e par <a target=\"_blank\" href= \"http:\/\/www.cn-telma.fr\/chartae-galliae\/charte206546\/\"> Chartae Galliae, n. 206546<\/a>)."
        },
        {
            "type": "transcription",
            "value": "<?xml version=\"1.0\" encoding=\"UTF-8\"?>\nBenedictus episcopus, servus servorum Dei, universis fidelibus presentes litteras inspecturis, salutem et apostolicam benedictionem. Licet Is, de cujus munere venit ut sibi a fidelibus suis digne et laudabiliter deserviatur, de abundancia pietatis sue, que merita supplicum excedit et vota bene servientibus sibi multo majora retribuat qua valeant promereri, nichilominus tamen desiderantes Deo reddere populum acceptabilem et bonorum operum sectatorem, fideles ipsos ad complacendum ei quasi quibusdam alectivis muneribus, indulgenciis videlicet et remissionibus invitamus, ut inde reddantur divine gratie aptiores. Cum itaque, sicut accepimus, ecclesia et alia edificia monasterii monialium Paracliti ordinis sancti Benedicti, Trecensis diocesis, propter guerras, que in illis partibus diucius viguerunt, adeo sint destructa quod absque Xpi fidelium elemosinis commode reparari non possint: Nos cupientes ut dicta ecclesia congruis honoribus frequentetur, et dicta edificia reparentur, et ut Xpi fideles eo libentius causa devotionis confluant ad eandem et ad reparationem hujusmodi manus promptius porrigant adjutrices, quo ex hiis ibidem uberioris dono celestis gracie conspexerint se refectos, de omnipotentis Dei misericordia et beatorum Petri et Pauli, apostolorum ejus, auctoritate confisi, omnibus vere penitentibus et confessis, qui in Nativitatis, Circumcisionis, Epiphanie, Resurrectionis, Ascensionis et Corporis Domini nostri Jhu Xpi, et Penthecostes, ac Nativitatis, Annunciacionis, Purificationis et Assumpcionis ejusdem B. Marie, ac Nativitatis B. Johannis Baptiste, dictorum apostolorum Petri et Pauli, ac ecclesie ipsius monasterii Dedicacionis festivitatibus, et in celebritate Omnium Sanctorum; necnon per ipsarum Nativitatis, Epiphanie, Resurrectionis, Ascensionis et Corporis Domini, ac Nativitatis et Assumptionis B. Marie, Nativitatis S. Johannis Baptiste, et Petri et Pauli apostolorum octabas ; ac per sex dies dictam festivitatem Penthecostes immediate sequentes, prefatam ecclesiam visitaverint annuatim, et ad reparacionem predictam manus adjutrices porrexerint, singulis videlicet festivitatum et celebritatis unum annum et XL dies, ac octabarum, et sex dierum predictorum diebus quibus ecclesiam visitaverint et manus porrexerint, ut prefertur, quinquaginta dies de injunctis eis penitenciis misericorditer relaxamus. Ceterum ut omnia et singula que per eosdem fideles sic offerri contigerit in usus ad quos oblata fuerint integre convertantur, sub interminacione divini judicii districtius inhibemus, ne quis, cujuscumque status condicionis vel dignitatis existat, quicquam de oblatis sibi aliquatenus appropriet vel usurpet. Si quis autem hoc attemptare presumpserit non possit a reatu hujusmodi ab aliquo, nisi apud Sedem apostolicam, ac satisfactione debita prius impensa, preterquam in mortis articulo constitutus, absolucionis beneficium obtinere. Datum Avenione, kalendas februarii, pontificatus nostri anno secundo.\n"
        },
        {
            "type": "sources_manuscrites",
            "value": "E. Troyes, AD Aube (original).",
            "children": {
                "type_source": "Exp\u00e9dition"
            }
        }
    ]
}