{
    "id": 20284,
    "name": "aposcripta-271",
    "type": "acte",
    "url": "http:\/\/telma-chartes.irht.cnrs.fr\/aposcripta\/notice\/20284",
    "project_slug": "aposcripta",
    "project_label": "APOSCRIPTA \u2013 Lettres des papes",
    "user": "lettrespontificalesadmin",
    "last_update": "2020-10-19 16:26:47",
    "licence": "Attribution - Pas d\u2019Utilisation Commerciale - Partage dans les M\u00eames Conditions 3.0 France (CC BY-NC-SA 3.0 FR) ",
    "licence_url": "https:\/\/creativecommons.org\/licenses\/by-nc-sa\/3.0\/fr\/",
    "elements": [
        {
            "type": "pape",
            "value": "Jean XXII (1316-1334)"
        },
        {
            "type": "date_lieu",
            "value": "Avignon"
        },
        {
            "type": "date_libre",
            "value": "5 ao\u00fbt 1331"
        },
        {
            "type": "analyse",
            "value": "Jean XXII mande \u00e0 Guillem Astre<a class=\"note\" href=\"#note-1\">1<\/a>, inquisiteur de Provence, de poursuivre l\u2019affaire qu\u2019il a entreprise et au sujet de laquelle il a consult\u00e9 le pape."
        },
        {
            "type": "transcription",
            "value": "<?xml version=\"1.0\" encoding=\"UTF-8\"?>\nGuillelmo Astre, ordinis fratrum minorum, inquisitori heretice pravitatis in provincia Provincie. \u2014 Negotium super quo... \u2014 Datum nonis augusti, anno quintodecimo.\n"
        },
        {
            "type": "edition",
            "value": "Jean-Marie Vidal, <i>Bullaire de l\u2019Inquisition fran\u00e7aise au XIV<sup>e<\/sup> si\u00e8cle et jusqu'\u00e0 la fin du Grand Schisme<\/i>, Paris : Letouzey et An\u00e9, 1913, n. 112, p. 175"
        },
        {
            "type": "sources_manuscrites",
            "value": "<i>Reg. Vat.<\/i>, t. <span class=\"smal-caps\">cxvi<\/span>, fol. 215, n. 914"
        },
        {
            "type": "sources_manuscrites",
            "value": "Eubel, <i>Bullar.<\/i>, n. 922 (<i>in ext.<\/i>)."
        },
        {
            "type": "notes_historiques",
            "value": "N. 49, note 3.",
            "children": {
                "numero_note": "1"
            }
        },
        {
            "type": "date",
            "value": "1331\/08\/05",
            "children": {
                "date_deb_annee": "1331",
                "date_deb_mois": "08",
                "date_deb_jour": "05"
            },
            "range": {
                "date_apres": 13310805,
                "date_avant": 13310805
            }
        },
        {
            "type": "genre",
            "value": "Bulle"
        }
    ]
}