{
    "id": 149319,
    "name": "aposcripta-8882",
    "type": "acte",
    "url": "http:\/\/telma-chartes.irht.cnrs.fr\/aposcripta\/notice\/149319",
    "project_slug": "aposcripta",
    "project_label": "APOSCRIPTA \u2013 Lettres des papes",
    "user": "lettrespontificalesadmin",
    "last_update": "2020-10-19 16:39:56",
    "licence": "Attribution - Pas d\u2019Utilisation Commerciale - Partage dans les M\u00eames Conditions 3.0 France (CC BY-NC-SA 3.0 FR) ",
    "licence_url": "https:\/\/creativecommons.org\/licenses\/by-nc-sa\/3.0\/fr\/",
    "elements": [
        {
            "type": "pape",
            "value": "Innocent IV (1243-1254)"
        },
        {
            "type": "destinataire",
            "value": "Dilectis filiis communi Neapolitano in perpetuum"
        },
        {
            "type": "date_libre",
            "value": "idibus decembris, indictione X, MCCLI, anno nono"
        },
        {
            "type": "date",
            "value": " 1251\/12\/13",
            "children": {
                "date_deb_annee": "1251",
                "date_deb_mois": "12",
                "date_deb_jour": "13"
            },
            "range": {
                "date_apres": 12511213,
                "date_avant": 12511213
            }
        },
        {
            "type": "date_lieu",
            "value": "Perusii"
        },
        {
            "type": "sources_manuscrites",
            "value": "R. CIT\u00c9 DU VATICAN, Archivio Segreto Vaticano, <hi rend=\"italic\">Registra Vaticana<\/hi> ... Inn.\u00a0IV Reg. Vol.\u00a0II, 134; Lib.\u00a0IX, 148. Damus Pertzii exemplar.",
            "children": {
                "type_source": "Registre de la chancellerie apostolique"
            }
        },
        {
            "type": "genre",
            "value": "Mandement (littere cum filo canapis)"
        },
        {
            "type": "analyse",
            "value": "Innocentius IV papa commune [Neapolitanum, cum post mortem F[riderici II], prout etiam ante proposuerit, regni Siciliae et sedis apostolicae negotium constanter assumpserit et conatus assiduos filiorum F[riderici II] virtuose propulset, specialibus privilegiis decorat [Rodenberg]."
        },
        {
            "type": "transcription",
            "value": "<?xml version=\"1.0\" encoding=\"UTF-8\"?>\nDilectis filiis communi Neapolitano in perpetuum.Pure fidei claritate conspicua Neapolitana civitas et lucidis in se ac magnificis proficit actibus et cunctis aliis regni Sicilie spectabili sectandeque probitatis exemplo libertatis amplectende profectum manifeste propinat; propter quod civitas ipsa, que a menium fundatione suorum generoso populo nobilis nobilior gestorum ingenuitate conspicitur, sic apud proximos et remotos multipliciter redditur suorum processuum strenuitate laudabilis et penes nos apostolice sedis precipuis attollenda favoribus et gratiis potioribus honoranda, quod non solum per singulas vicine Italie regiones clare resonat sue preconium bonitatis, sed et longius tuba intonat laudis eius suaque remotius acta volantis fame diffusione notescunt, et nos dictaque sedes totis affectibus ducimur, ut condignis eam honoribus sublimemus. Sublato namque Fr. quondam Romanorum imperatore ac Sicilie rege de medio, qui, austeritate Pharao, Herodes impietate sevitiaque Nero, predictum regnum continue afflictionis iugo depresserat et furoris immanis gladio laniarat, eadem civitas, ut regnum ipsum ad statum reduceretur liberum et tranquillum et a pristine oppressionis erueretur oneribus, que adhuc illius pestilentis reliquie, ipsius videlicet filii, paterne malitie successores, eidem inferre regno more patrio utpote genimina viperarum venenosa egressa de colubro moliuntur, nec non et ad devotionem premisse sedis, ad quam illud specialiter pertinere dinoscitur, cordis stabilitate rediret, ferventis vigore spiritus animata virium collecto robore statim ipsius regni, quinimmo et dicte sedis negotium, prout etiam ante prefati F. decessum proposito firmo conceperat, de divino et matris ecclesie confisa suffragio constanter assumpsit, resistens patenter prefatis nequitie filiis eorumque conatus assiduos virtuose propulsans; sicque in reliquos dicti regni ex huiusmodi repugnantie audacia commendanda resistendi transfusa fiducia, predictorum iniquorum temerarius refrenatus est ausus et superbus eorundem processus non modicum impeditus.Non in hoc utique civitas ipsa proprium dumtaxat attendit commodum, non suis tantum utilitatibus iniavit, sed ad profectus profecto communes pure intentionis direxit affectum, publice quoque tranquillitati et commoditati prospexit, in libertatis quidem antique recuperatione preambula, in exhibitione plene devotionis anterior, prior ac potior contra hostes et in magnifica tanti negotii prosecutione conspectior. Unde valde promeruit specialium privilegiorum insigniis a sede apostolica decorari. Nos igitur, premissis omnibus diligenti consideratione pensatis, volentes propterea eiusdem Neapolitane civitatis honorem predicte sedis donis sublimibus et perpetuis ampliare, vestris in hoc desideriis assensu benivolo concurrendo, personas vestras et civitatem ipsam in devotione sedis persistentes eiusdem cum omnibus bonis etc. usque: communimus, de fratrum nostrorum consilio statuentes, ut eadem civitas perpetuo prefate sedis remaneat, ita quod Romana ecclesia semper absque ullo medio retinens illam sicut terram Campanie vel Maritime, nunquam eam a suo excludat gremio neque aliquando ipsam vel ius quodcunque in ea seu pertinentiis aut in territorio eius cuiquam sive imperatori sive regi seu duci aut principi vel comiti seu cuicunque alii persone concedat. Sane ut ex affluentia beneficiorum sedis eiusdem exultet ipsa civitas gaudio pleniori, vobis illam omnino libertatem in assumendis potestatibus, dummodo fideles vel devotos ecclesie assumatis, et in statutis edendis, ita tamen quod nichil in eis contra prefatam Romanam ecclesiam et libertatem ecclesiasticam presumatur, ac aliis apostolica auctoritate concedimus, quam fideles de Patrimonio beati Petri habere noscuntur. Porro rationabiles consuetudines approbatas dudum in civitate ipsa et pacifice observatas usque ad tempus, quo iamdictus F. suas constitutiones in regno edidit memorato, necnon et ordinationes post ipsius F. obitum inter milites et populares civitatis eiusdem et pro bono et pacifico ipsius civitatis statu ad honorem ecclesie factas, super quibus instrumenta dicuntur esse confecta, vobis de speciali gratia confirmamus. Ad hec ea omnia, que civitas ipsa vel eius cives aliquandiu tenuerunt, quorum quidem iusta per superiorem privatio non apparet, exceptis hiis que per singulares personas prefate civitatis teneri noscuntur, universitati vestre confirmamus de predicte sedis munificentia liberali. Decernimus ergo, ut nulli omnino hominum liceat hanc paginam nostre protectionis, constitutionis, concessionis, confirmationis et collationis infringere vel in aliquo ei ausu temerario contraire. Si qua igitur in futurum ecclesiastica secularisve persona, paginam ipsam sciens, contra eam venire temptaverit etc. usque: ultioni. Cunctis autem paginam ipsam observantibus sit pax domini nostri Iesu Christi etc. usque: Amen.Ego Innocentius catholice ecclesie episcopus subscripsi. Ego Raynaldus Ostiensis et Velletrensis episcopus subscripsi. Ego Petrus Albanensis episcopus subscripsi. Ego Stephanus Sancte Marie Transtiberim tituli Calixti presbyter cardinalis subscripsi. Ego Petrus tituli Sancti Marcelli presbyter cardinalis [subscripsi]. Ego frater Iohannes tituli Sancti Laurentii in Lucina presbyter cardinalis subscripsi. Ego Riccardus Sancti Angeli diaconus cardinalis subscripsi. Ego Petrus Sancti Georgii ad Velum Aureum diaconus cardinalis subscripsi. Ego Willelmus Sancti Eustachii diaconus cardinalis subscripsi.Dat. Perusii per manum magistri Marini sancte Romane ecclesie vicecancellarii, Idibus Decembris, indictione X, incarnationis Dominice anno M\u00b0CC\u00b0LI\u00b0, pontificatus vero domni Innocentii pape IIII anno nono.\n"
        },
        {
            "type": "edition",
            "value": "Ici reprise de Karl Rodenberg, Epistolae s. XIII e regestis pontificum romanorum selectae, III, Berlin : Weidmann (MGH), 1894, n.\u00a0125, p.\u00a0105."
        },
        {
            "type": "edition_autre",
            "value": "?"
        },
        {
            "type": "regeste",
            "value": "?"
        },
        {
            "type": "bibliographie_generale",
            "value": "?"
        },
        {
            "type": "apparat_critique",
            "value": "?",
            "children": {
                "numero_note": "a"
            }
        },
        {
            "type": "apparat_critique",
            "value": "?",
            "children": {
                "numero_note": "b"
            }
        },
        {
            "type": "apparat_critique",
            "value": "?",
            "children": {
                "numero_note": "c"
            }
        },
        {
            "type": "apparat_critique",
            "value": "?",
            "children": {
                "numero_note": "d"
            }
        },
        {
            "type": "apparat_critique",
            "value": "?",
            "children": {
                "numero_note": "e"
            }
        },
        {
            "type": "apparat_critique",
            "value": "?",
            "children": {
                "numero_note": "f"
            }
        },
        {
            "type": "notes_historiques",
            "value": "?",
            "children": {
                "numero_note": "1"
            }
        },
        {
            "type": "notes_historiques",
            "value": "?",
            "children": {
                "numero_note": "2"
            }
        },
        {
            "type": "notes_historiques",
            "value": "?",
            "children": {
                "numero_note": "3"
            }
        }
    ]
}