{
    "id": 149479,
    "name": "aposcripta-9042",
    "type": "acte",
    "url": "http:\/\/telma-chartes.irht.cnrs.fr\/aposcripta\/notice\/149479",
    "project_slug": "aposcripta",
    "project_label": "APOSCRIPTA \u2013 Lettres des papes",
    "user": "lettrespontificalesadmin",
    "last_update": "2020-10-19 16:39:59",
    "licence": "Attribution - Pas d\u2019Utilisation Commerciale - Partage dans les M\u00eames Conditions 3.0 France (CC BY-NC-SA 3.0 FR) ",
    "licence_url": "https:\/\/creativecommons.org\/licenses\/by-nc-sa\/3.0\/fr\/",
    "elements": [
        {
            "type": "pape",
            "value": "Innocent IV (1243-1254)"
        },
        {
            "type": "destinataire",
            "value": ". . episcopo Traiectensi"
        },
        {
            "type": "date_libre",
            "value": "n. c."
        },
        {
            "type": "date",
            "value": " 1254\/02\/22",
            "children": {
                "date_deb_annee": "1254",
                "date_deb_mois": "02",
                "date_deb_jour": "22"
            },
            "range": {
                "date_apres": 12540222,
                "date_avant": 12540222
            }
        },
        {
            "type": "date_lieu",
            "value": "n. c."
        },
        {
            "type": "sources_manuscrites",
            "value": "R. CIT\u00c9 DU VATICAN, Archivio Segreto Vaticano, <hi rend=\"italic\">Registra Vaticana<\/hi> ... Inn.\u00a0IV Reg. Vol.\u00a0III, 63; Lib.\u00a0XI, 492. Pertzii exemplar contulimus cum Regestis.",
            "children": {
                "type_source": "Registre de la chancellerie apostolique"
            }
        },
        {
            "type": "genre",
            "value": "Mandement (littere cum filo canapis)"
        },
        {
            "type": "analyse",
            "value": "Innocentius IV papa [Henrico] episcopo Traiectensi concedit facultatem percipiendi per unum annum proventus beneficiorum ecclesiasticorum diocesis suae, quae usque ad triennium vacaverint, convertendos in subsidium W[illelmi] regis [Rodenberg]."
        },
        {
            "type": "transcription",
            "value": "<?xml version=\"1.0\" encoding=\"UTF-8\"?>\n. . episcopo Traiectensi.Personam tuam, quam circa negotium universalis ecclesie promptam esse intelleximus et apostolice sedi devotam, prosequi favorabiliter intendentes, percipiendi per unum annum proventus ecclesiasticorum beneficiorum, dignitatum et personatuum, que in civitate ac diocesi tua usque ad triennium vacare contigerit, eosque in sumptus, quos pro servitio Romane ecclesie ac carissimi in Christo filii nostri W. regis Romanorum illustris te subire contigerit, integre convertendi nec non et contradictores per censuram ecclesiasticam appellatione postposita compescendi \u2014 non obstante si aliquibus a sede apostolica sit indultum, quod absque speciali mandato sedis ipsius excommunicari aut interdici nequeant vel suspendi, \u2014 liberam tibi auctoritate presentium concedimus facultatem; proviso tamen quod interim huiusmodi beneficia, dignitates et personatus debitis non fraudentur obsequiis et animarum cura in eis, quibus ipsa imminet, nullatenus negligatur.Dat. ut in alia.\n"
        },
        {
            "type": "edition",
            "value": "Ici reprise de Karl Rodenberg, Epistolae s. XIII e regestis pontificum romanorum selectae, III, Berlin : Weidmann (MGH), 1894, n.\u00a0262, p.\u00a0230."
        },
        {
            "type": "edition_autre",
            "value": "?"
        },
        {
            "type": "regeste",
            "value": "?"
        },
        {
            "type": "bibliographie_generale",
            "value": "?"
        },
        {
            "type": "apparat_critique",
            "value": "?",
            "children": {
                "numero_note": "a"
            }
        },
        {
            "type": "apparat_critique",
            "value": "?",
            "children": {
                "numero_note": "b"
            }
        },
        {
            "type": "apparat_critique",
            "value": "?",
            "children": {
                "numero_note": "c"
            }
        },
        {
            "type": "apparat_critique",
            "value": "?",
            "children": {
                "numero_note": "d"
            }
        },
        {
            "type": "apparat_critique",
            "value": "?",
            "children": {
                "numero_note": "e"
            }
        },
        {
            "type": "apparat_critique",
            "value": "?",
            "children": {
                "numero_note": "f"
            }
        },
        {
            "type": "notes_historiques",
            "value": "?",
            "children": {
                "numero_note": "1"
            }
        },
        {
            "type": "notes_historiques",
            "value": "?",
            "children": {
                "numero_note": "2"
            }
        },
        {
            "type": "notes_historiques",
            "value": "?",
            "children": {
                "numero_note": "3"
            }
        }
    ]
}