{
    "id": 25681,
    "name": "aposcripta-2778",
    "type": "acte",
    "url": "http:\/\/telma-chartes.irht.cnrs.fr\/aposcripta\/notice\/25681",
    "project_slug": "aposcripta",
    "project_label": "APOSCRIPTA \u2013 Lettres des papes",
    "user": "lettrespontificalesadmin",
    "last_update": "2020-10-19 16:27:47",
    "licence": "Attribution - Pas d\u2019Utilisation Commerciale - Partage dans les M\u00eames Conditions 3.0 France (CC BY-NC-SA 3.0 FR) ",
    "licence_url": "https:\/\/creativecommons.org\/licenses\/by-nc-sa\/3.0\/fr\/",
    "elements": [
        {
            "type": "pape",
            "value": "Honorius IV (1285-1287)"
        },
        {
            "type": "destinataire",
            "value": "( )",
            "children": {
                "numero_note": "0"
            }
        },
        {
            "type": "date_lieu",
            "value": "n.c."
        },
        {
            "type": "date_libre",
            "value": "1286, 18 mars"
        },
        {
            "type": "date",
            "value": " 1286\/03\/18",
            "children": {
                "date_deb_annee": "1286",
                "date_deb_mois": "03",
                "date_deb_jour": "18"
            },
            "range": {
                "date_apres": 12860318,
                "date_avant": 12860318
            }
        },
        {
            "type": "analyse",
            "value": "X pape<br\/>PRIVILEGIUM HONORII PAP\u00c6 IV ADVERSUS ARCHIEPISCOPOS ET EPISCOPOS ANGLI\u00c6, QUI DE FACTO, CUM DE JURE NON POSSENT, SENTENTIAS EXCOMMUNICATIONIS IN MONACHOS CLUNIACENSES PROFEREBANT. PRIVILEGIUM HONORII PAP\u00c6 IV. adversus Archiepiscopos et Episcopos Angli\u00e6, qui de facto, cum de jure non possent, sententias excommunicationis in Monachos Cluniacenses proferebant, etc."
        },
        {
            "type": "transcription",
            "value": "<?xml version=\"1.0\" encoding=\"UTF-8\"?>\n[Honorius Episcopus servus servorum Dei, dilectis filiis Abbati et conventui Monasterii Cluniacensis, ad Romanam Ecclesiam nullo medio pertinentis, Matisconensis Di\u0153cesis, salutem et Apostolicam benedictionem. Desideriis vestris in iis affectu benevolo libenter annuimus, per qu\u00e6, materia summota gravaminis, personarum et status vestri Ordinis tranquillitas procuretur. San\u00e8 petitio vestra Nobis exhibita continebat quod, licet Abbates, Priores, et Monachi Cluniacensis Ordinis ab omni jurisdictione Archiepiscoporum, Episcoporum, et aliorum quorumlibet judicum Ordinariorum, per specialia Privilegia Sedis Apostolic\u00e6 sint exempti; tamen venerabiles fratres nostri Archiepiscopi, et Episcopi, ac etiam alii ordinarii Regni Angli\u00e6 in Priores, et Monachos dicti Ordinis in Regno ipso existentes excommunicationis sententias de facto, cum de jure non possint, temeritate propria promulgare pr\u00e6sumunt; et si dicti Priores, et Monachi per quadraginta dies hujusmodi sententias sustinuerint, ipsos pr\u00e6textu cujusdam consuetudinis, qu\u00e6 in Regno habetur eodem, per Dominos temporales capi faciunt, et carcerali custodi\u00e6 mancipari, in vestrum et dicti Ordinis pr\u00e6judicium non modicum et gravamen. Quare pro parte vestra fuit nobis humiliter supplicatum, ut salubre super hoc remedium apponere de benignitare Sedis Apostolic\u00e6 curaremus. Cum igitur id videatur in Apostolic\u00e6 Sedis injuriam redundare, nos hoc aliquatenus tolerare nolentes, vestris supplicationibus inclinati auctoritate pr\u00e6sentium districtius inhibemus, ne aliqui Domini, vel judices s\u00e6culares dicti Regni, pr\u00e6textu sententiarum et consuetudinis hujusmodi, si sententi\u00e6 pr\u00e6dict\u00e6 in casu \u00e0 jure non concesso prolat\u00e6 fuerint, dictos Priores vel Monachos capere, vel incarcerare pr\u00e6sumant. Nulli ergo, etc. Datum Rom\u00e6, apud sanctam Sabinam, Pontificatus nostri anno primo.]\n"
        },
        {
            "type": "edition",
            "value": "Ici tir\u00e9e du projet <i>CBMA - Corpus Burgundiae Medii Aevi<\/i>, document 6814. Site du projet Corpus de la Bourgogne du Moyen \u00c2ge, [En ligne] <a href=\"http:\/\/www.cbma-project.eu\" target=\"_blank\">http:\/\/www.cbma-project.eu<\/a>  "
        },
        {
            "type": "sources_manuscrites",
            "value": "\u00e0 renseigner."
        },
        {
            "type": "remarques",
            "value": "\r\n\r\nIndications dans l'\u00e9dition des Chartes de Cluny quand Bernard et Bruel n'ont pas repris le texte : Honorius, etc. Desideriis vestris in, etc. (Bull. Clun., p.\u00a0151, col.\u00a02, n\u00ba\u00a01; cf. M. Prou, Reg. d\u2019Honorius IV, n\u00ba\u00a0400.)."
        },
        {
            "type": "edition_autre",
            "value": "Ici reprise de Auguste Bernard, Alexandre Bruel, <i>Recueil des chartes de l'abbaye de Cluny<\/i>. VI. <i>1211-1300<\/i>, Paris\u00a0: Imprimerie nationale, 1903 <a href=\"http:\/\/gallica.bnf.fr\/ark:\/12148\/bpt6k367019?rk=21459;2\" target=\"_blank\">[en ligne]<\/a>, p. 753, n\u00b0 5330.",
            "children": {
                "numero_note": "0"
            }
        },
        {
            "type": "edition_autre",
            "value": "Pierre Simon, <i>Bullarium sacri Ordinis cluniacensis, complectens plurima privilegia per summos pontifices tum ipsi cluniacensi abbatiae, tum ei subditis monasteriis hactenus concessa<\/i>, Lyon : Jullieron, 1680, p. 151, col. 2, n\u00b01",
            "children": {
                "numero_note": "1"
            }
        },
        {
            "type": "genre",
            "value": "Bulle"
        },
        {
            "type": "genre",
            "value": "Lettre"
        }
    ]
}