{
    "id": 26731,
    "name": "aposcripta-3657",
    "type": "acte",
    "url": "http:\/\/telma-chartes.irht.cnrs.fr\/aposcripta\/notice\/26731",
    "project_slug": "aposcripta",
    "project_label": "APOSCRIPTA \u2013 Lettres des papes",
    "user": "j_theryastruc",
    "last_update": "2020-10-19 16:28:04",
    "licence": "Attribution - Pas d\u2019Utilisation Commerciale - Partage dans les M\u00eames Conditions 3.0 France (CC BY-NC-SA 3.0 FR) ",
    "licence_url": "https:\/\/creativecommons.org\/licenses\/by-nc-sa\/3.0\/fr\/",
    "elements": [
        {
            "type": "pape",
            "value": "Cl\u00e9ment IV (1265-1268)"
        },
        {
            "type": "destinataire",
            "value": "L'abb\u00e9 et les fr\u00e8res de l'abbaye Saint-Pierre de Montier-la-Celle, au dioc\u00e8se de Troyes"
        },
        {
            "type": "date",
            "value": " 1265\/07\/11",
            "children": {
                "date_deb_jour": "11",
                "date_deb_mois": "07",
                "date_deb_annee": "1265"
            },
            "range": {
                "date_apres": 12650711,
                "date_avant": 12650711
            }
        },
        {
            "type": "date_lieu",
            "value": "Latran"
        },
        {
            "type": "genre",
            "value": "Titre, g\u00e9n\u00e9ral (littere gratiose, cum filo serico)"
        },
        {
            "type": "sources_manuscrites",
            "value": "F. FRANCE, Troyes, Archives d\u00e9partementales de l'Aube, H(007) 0300 et H(007) 0301 (Cartulaire), fol. 176v et 180v.",
            "children": {
                "type_source": "Cartulaire"
            }
        },
        {
            "type": "edition",
            "value": "Charles Lalore, <i>Cartulaire de l'abbaye de Montier-la-Celle<\/i>, Paris, Troyes : Thorin, L\u00e9opold Lacroix, 1882 (Collection des principaux cartulaires du dioc\u00e8se de Troyes, t. 6), n. 202, p. 232-234 <a target=\"_blank\" href=\"http:\/\/gallica.bnf.fr\/ark:\/12148\/bpt6k95465q\/f295\"> [en ligne]<\/a> (dat\u00e9e par erreur du 11 juillet 1262), num\u00e9ris\u00e9e par <a target=\"_blank\" href=\"http:\/\/www.cn-telma.fr\/chartae-galliae\/charte207252\/\"><i>Chartae Galliae<\/i>, acte n. 207252<\/a>."
        },
        {
            "type": "regeste",
            "value": "Registres ? Potthast ?"
        },
        {
            "type": "transcription",
            "value": "<?xml version=\"1.0\" encoding=\"UTF-8\"?>\nClemens episcopus, servus servorum Dei, dilectis filiis abbati et fratribus Sancti Petri de Cella Trecensi, salutem et Apostolicam benedictionem. Dignum est et rationi conveniens ut circumspectione apostolica moderaminis eorum insolentia refrenetur qui de subjectorum actibus prius judicant quam intelligant. Quocirca, dilecti in Domino filii, volentes affectu paterne sollicitudinis indemnitati vestre consulere, presentium auctoritate statuimus ne quis in vos vel ecclesias vestras tam parrochiales quam alias excommunicationis vel interdicti absque manifesta et rationabili causa et juris ordine ventilata sententiam audeat promulgare, nisi forte talis reperiatur excessus qui juris ordinem nequaquam exigat observari. Quod si contra prohibitionem contingat attemptari, vires omnino decernimus non habere.  Statuimus etiam ne quis vobis aut prioratibus vestris onus indebite exactionis imponat ; et si forte presbiteri ecclesiarum vestrarum, vobis de justitia vestra tertio commoniti, contumaces et rebelles extiterint, licentiam habeatis eos, pro qualitate delicti, sicut ratio juris expostulat, beneficio a vobis impenso privare. Ad hec devotioni vestre presentibus litteris indulgemus ut liceat vobis de terris et vineis quas propriis sumptibus colitis ad usus proprios decimas retinere. Obeunte vero te, fili abbas, vel quolibet successorum tuorum, quotiens Trecensis episcopus qui pro tempore fuerit, canonice a fratribus electum requisitus ab eis benedicere noluerit et, tertio commonitus, justam causam super hoc non objecerit, licitum sit vobis a quolibet archiepiscopo vel episcopo qui communionem apostolice Sedis obtineat benedictionem abbatis sine contradictione vel appellationis obstaculo postulare. Nulli ergo omnino hominum liceat etc. Datum Laterani, Vo idus julii, pontificatus nostri anno primo.\n"
        }
    ]
}