{
    "id": 24543,
    "name": "aposcripta-1694",
    "type": "acte",
    "url": "http:\/\/telma-chartes.irht.cnrs.fr\/aposcripta\/notice\/24543",
    "project_slug": "aposcripta",
    "project_label": "APOSCRIPTA \u2013 Lettres des papes",
    "user": "lettrespontificalesadmin",
    "last_update": "2020-10-19 16:27:31",
    "licence": "Attribution - Pas d\u2019Utilisation Commerciale - Partage dans les M\u00eames Conditions 3.0 France (CC BY-NC-SA 3.0 FR) ",
    "licence_url": "https:\/\/creativecommons.org\/licenses\/by-nc-sa\/3.0\/fr\/",
    "elements": [
        {
            "type": "pape",
            "value": "Cl\u00e9ment IV (1265-1268)"
        },
        {
            "type": "date_lieu",
            "value": "Viterbe"
        },
        {
            "type": "date_libre",
            "value": "II idus aprilis, anno quarto"
        },
        {
            "type": "date",
            "value": " 1268\/04\/12",
            "children": {
                "date_deb_annee": "1268",
                "date_deb_mois": "04",
                "date_deb_jour": "12"
            },
            "range": {
                "date_apres": 12680412,
                "date_avant": 12680412
            }
        },
        {
            "type": "analyse",
            "value": "Cl\u00e9ment\u00a0IV \u00e9crit \u00e0 l\u2019\u00e9v\u00eaque de Maguelone au sujet de quarante livres tournois dues pour la Terre Sainte [Rouquette - Villemagne].\nClemens IV. an Bischof (Berengar de Fr\u00e9dol) von Magu\u00e9lone: gebietet ihm, die 40 Pfund Turnosen, die Pontius Armandi, Pfarrherr von (Montaren), bei dem Bankier I. Columberii von Montpellier hinterlegt habe, an die Kollektoren des franz\u00f6ischen Kreuzzugszehnten zu \u00fcberweisen [Thumser]"
        },
        {
            "type": "transcription",
            "value": "<?xml version=\"1.0\" encoding=\"UTF-8\"?>\nEpiscopo Magalonensi. Cum, sicut intelleximus, dilectus filius Pontius Armandi rector ecclesie de Monte Areno Uticensis diocesis de mandato tuo penes I Columberii campsorem de Monte Pessulano deposuerit XL libras Turonenses, quas idem rector iuxta mandatum nostrum dare in Terre Sancte subsidium tenebatur, fraternitati tue per apostolica scripta mandamus, quatenus huiusmodi XL libras a dicto campsore aut alio quolibet, qui eas penes se habuerit, recipias easque collectoribus decime carissimo in Christo filio nostro L[udovico] illustri regi Francie pro dicte terre subsidio concesse non differas assignare. Contradictores et cetera ; rescripturus nobis per tuas patentes litteras quicquid duxeris faciendum. Datum Viterbii, II idus aprilis, anno IIII.\n"
        },
        {
            "type": "edition",
            "value": "Julien Rouquette, Augustin Villemagne, <i>Bullaire de l'\u00c9glise de Maguelone<\/i>, Paris, Montpellier : Picard, Valat, 1911-1914, II, n. 520, p. 421-421"
        },
        {
            "type": "remarques",
            "value": ""
        },
        {
            "type": "bibliographie_generale",
            "value": "Edmond Mart\u00e8ne, Ursin Durand, <i>Thesaurus novus anecdotorum<\/i>, Paris, 1717, II, n. 619, col. 584 <a target=\"_blank\" href=\"https:\/\/archive.org\/stream\/ThesaurusNovusAnecdotorum2\/Thesaurus_novus_anecdotorum_2#page\/n327\/mode\/2up\"> [en ligne]<\/a>.",
            "children": {
                "numero_note": "0"
            }
        },
        {
            "type": "bibliographie_generale",
            "value": "Potthast, <i>Regesta pontificum Romanorum<\/i>, n. 20314 <a target=\"_blank\" href=\"https:\/\/archive.org\/stream\/RegestaPontificumRomanorum\/ph#page\/n1651\/mode\/2up\"> [en ligne]<\/a>.",
            "children": {
                "numero_note": "1"
            }
        },
        {
            "type": "bibliographie_generale",
            "value": "<span class=\"small-caps\">F. Fabr\u00e8ge<\/span>, <i>Hist. de Maguelone<\/i>, t.\u00a0II, p.\u00a0154.",
            "children": {
                "numero_note": "2"
            }
        },
        {
            "type": "genre",
            "value": "Mandement (littere cum filo canapis)"
        },
        {
            "type": "sources_manuscrites",
            "value": "R<sup>1<\/sup>. CIT\u00c9 DU VATICAN, Archivio segreto Vaticano, <i>Registra Vaticana<\/i> 30, fol. 79.",
            "children": {
                "type_source": "Formulaire, collection de lettres m\u00e9di\u00e9vale"
            }
        },
        {
            "type": "sources_manuscrites",
            "value": "R<sup>2<\/sup>. CIT\u00c9 DU VATICAN, Archivio segreto Vaticano, <i>Registra Vaticana<\/i> 33, ep. 469, fol. 77.",
            "children": {
                "type_source": "Formulaire, collection de lettres m\u00e9di\u00e9vale"
            }
        },
        {
            "type": "sources_manuscrites",
            "value": "R<sup>3<\/sup>. CIT\u00c9 DU VATICAN, Archivio segreto Vaticano, <i>Registra Vaticana<\/i> 34, fol. 120.",
            "children": {
                "type_source": "Formulaire, collection de lettres m\u00e9di\u00e9vale"
            }
        },
        {
            "type": "sources_manuscrites",
            "value": "R<sup>4<\/sup>. CIT\u00c9 DU VATICAN, Archivio segreto Vaticano, <i>Registra Vaticana<\/i> 35, ep. 476, fol. 88 (<i>II kal. april.<\/i>).",
            "children": {
                "type_source": "Formulaire, collection de lettres m\u00e9di\u00e9vale"
            }
        },
        {
            "type": "edition_autre",
            "value": "Mathias Thumser, <i>Die Briefe Papst Clemens\u2019 IV. (1265-1268)<\/i>, Vorl\u00e4ufige Edition, MGH, 2015, n. 477."
        },
        {
            "type": "regeste",
            "value": "\u00c9douard Jordan, <i>Les registres de Cl\u00e9ment IV (1265-1268)<\/i>, Paris, 1893-1945, n. 1346, d\u2019apr\u00e8s R<sup>1<\/sup>, R<sup>2<\/sup>, R<sup>3<\/sup> et R<sup>4<\/sup>."
        },
        {
            "type": "bibliographie_generale",
            "value": "Mathias Thumser, \u00ab Zur \u00dcberlieferungsgeschichte der Briefe Clemens'IV. (1265-1268) \u00bb, <i>Deutsches Archiv f\u00fcr Erforschung des Mittelalters<\/i>, 51\/1, 1995, p. 115-168."
        },
        {
            "type": "destinataire",
            "value": "L'\u00e9v\u00eaque de Maguelone"
        }
    ]
}