{
    "id": 25251,
    "name": "aposcripta-2348",
    "type": "acte",
    "url": "http:\/\/telma-chartes.irht.cnrs.fr\/aposcripta\/notice\/25251",
    "project_slug": "aposcripta",
    "project_label": "APOSCRIPTA \u2013 Lettres des papes",
    "user": "lettrespontificalesadmin",
    "last_update": "2020-10-19 16:27:42",
    "licence": "Attribution - Pas d\u2019Utilisation Commerciale - Partage dans les M\u00eames Conditions 3.0 France (CC BY-NC-SA 3.0 FR) ",
    "licence_url": "https:\/\/creativecommons.org\/licenses\/by-nc-sa\/3.0\/fr\/",
    "elements": [
        {
            "type": "pape",
            "value": "Calixte II (1119-1124)"
        },
        {
            "type": "destinataire",
            "value": "Cluny (Saint-Pierre et Saint-Paul) (Pons abb\u00e9 abbaye de)",
            "children": {
                "numero_note": "0"
            }
        },
        {
            "type": "date_lieu",
            "value": "n.c."
        },
        {
            "type": "date_libre",
            "value": "1119-1122"
        },
        {
            "type": "date",
            "value": "apr\u00e8s 1119 - avant 1121",
            "children": {
                "date_deb_annee": "1119",
                "date_deb_type": "apr\u00e8s",
                "date_fin_annee": "1121",
                "date_fin_type": "avant"
            },
            "range": {
                "date_apres": 11190000,
                "date_avant": 11219999
            }
        },
        {
            "type": "analyse",
            "value": "Le pape Calixte dit que quiconque peut choisir l'abbaye de Cluny s'il n'ont pas subi d'excommunication. <br\/>LITTER\u00c6 CALIXTI PAP\u00c6 II, AD PONTIUM, CLUNIACENSEM ABBATEM, QUIBUS DECERNIT UT QU\u00c6CUMQUE PERSON\u00c6 CLUNIACENSIUM CLAUSTRORUM MANSIONES ELEGERINT ABSQUE ALICUJUS CONTRADICTIONE SUSCIPIANTUR."
        },
        {
            "type": "transcription",
            "value": "<?xml version=\"1.0\" encoding=\"UTF-8\"?>\nCalixtus, episcopus, servus servorum Dei, karissimo in Christo filio Pontio, Cluniacensi abbati, ejusque successoribus regulariter substituendis. Si monachus, clericus aut laicus, sive cujuslibet ordinis professionisve persona, nisi forte certa de causa excommunicata sit, Cluniacensium claustrorum mansiones elegerit, absque alicujus contradictione suscipiatur, et que, de suo jure attulerit, libere a monasterio habeatur.\n"
        },
        {
            "type": "edition",
            "value": "Ici tir\u00e9e du projet <i>CBMA - Corpus Burgundiae Medii Aevi<\/i>, document 5375. Site du projet Corpus de la Bourgogne du Moyen \u00c2ge, [En ligne] <a href=\"http:\/\/www.cbma-project.eu\" target=\"_blank\">http:\/\/www.cbma-project.eu<\/a>  "
        },
        {
            "type": "sources_manuscrites",
            "value": "\u00e0 renseigner."
        },
        {
            "type": "remarques",
            "value": "Calixte, pape : f\u00e9vrier 1119 - d\u00e9cembre 1124. \r\n\r\nPons de Melgueil, abb\u00e9 de Cluny : 1109 - 1122. (Bibl. nat. fonds lat.\u00a017049, fol.\u00a0605.)"
        },
        {
            "type": "edition_autre",
            "value": "Ici reprise de Auguste Bernard, Alexandre Bruel, <i>Recueil des chartes de l'abbaye de Cluny<\/i>. V. <i>1091-1210<\/i>, Paris\u00a0: Imprimerie nationale, 1894 <a href=\"http:\/\/gallica.bnf.fr\/ark:\/12148\/bpt6k28911f?rk=64378;0\" target=\"_blank\">[en ligne]<\/a>, p. 298-299, n\u00b0 3944",
            "children": {
                "numero_note": "0"
            }
        },
        {
            "type": "genre",
            "value": "Bulle"
        },
        {
            "type": "genre",
            "value": "Lettre"
        }
    ]
}