{
    "id": 20723,
    "name": "aposcripta-710",
    "type": "acte",
    "url": "http:\/\/telma-chartes.irht.cnrs.fr\/aposcripta\/notice\/20723",
    "project_slug": "aposcripta",
    "project_label": "APOSCRIPTA \u2013 Lettres des papes",
    "user": "lettrespontificalesadmin",
    "last_update": "2020-10-19 16:26:52",
    "licence": "Attribution - Pas d\u2019Utilisation Commerciale - Partage dans les M\u00eames Conditions 3.0 France (CC BY-NC-SA 3.0 FR) ",
    "licence_url": "https:\/\/creativecommons.org\/licenses\/by-nc-sa\/3.0\/fr\/",
    "elements": [
        {
            "type": "pape",
            "value": "Eug\u00e8ne III (1145-1153)"
        },
        {
            "type": "date_lieu",
            "value": "n.c."
        },
        {
            "type": "date_libre",
            "value": "1153 Febr 17"
        },
        {
            "type": "analyse",
            "value": "Eugenius\u00a0III Richardo abbati S. Michaelis de Periculo maris praecipit, ut una cum episcopo Abrincensi de electione sua rationem redditurus ad sese veniat."
        },
        {
            "type": "transcription",
            "value": "<?xml version=\"1.0\" encoding=\"UTF-8\"?>\nEugenius episcopus servus servorum dei dilecto filio R(ichardo) abbati S. Michaelis in periculo maris salutem et apostolicam benedictionem. Quoniam de tua electione diversorum ore diversa nostris auribus ingeruntur, ut rei veritas nobis plenius elucescat, te ac venerabilem fratrem nostrum R(ichardum) Abrincensem episcopum ad apostolice sedis presentiam decrevimus evocandos. Presentium itaque tibi significatione mandamus, quatinus una cum ipso fratre nostro apostolice sedi presentiam tuam non differas exhibere, ut, quod inde rei veritas habet, pleniter cognoscere valeamus, et quod ad salutem ecclesie pertinet, sufficientius pertractare. Datum Rome apud S. Petrum XIII Kalendas Martii.\n"
        },
        {
            "type": "edition",
            "value": "Samuel Loewenfeld, <i>Epistolae pontificum romanorum ineditae<\/i>, Leipzig : Veit et Comp., 1885, n. 211, p. 113"
        },
        {
            "type": "sources_manuscrites",
            "value": "1)\u00a0Bibl. publ. Abrinc. cod.\u00a082 in folio praefixo man. s.\u00a0<span class=\"smal-caps\">xii<\/span> <a class=\"app\" href=\"#app-a\">a<\/a>\u00a0"
        },
        {
            "type": "sources_manuscrites",
            "value": "2)\u00a0Bibl. nat. Paris. ms. lat.\u00a016992 fol.\u00a0111. Scripsit Martene."
        },
        {
            "type": "apparat_critique",
            "value": "<i>mihi dedit Leop. Delisle V. I.<\/i>",
            "children": {
                "numero_note": "a"
            }
        },
        {
            "type": "date",
            "value": "1153\/02\/17",
            "children": {
                "date_deb_annee": "1153",
                "date_deb_mois": "02",
                "date_deb_jour": "17"
            },
            "range": {
                "date_apres": 11530217,
                "date_avant": 11530217
            }
        },
        {
            "type": "genre",
            "value": "Bulle"
        }
    ]
}