{
    "id": 20782,
    "name": "aposcripta-769",
    "type": "acte",
    "url": "http:\/\/telma-chartes.irht.cnrs.fr\/aposcripta\/notice\/20782",
    "project_slug": "aposcripta",
    "project_label": "APOSCRIPTA \u2013 Lettres des papes",
    "user": "lettrespontificalesadmin",
    "last_update": "2020-10-19 16:26:53",
    "licence": "Attribution - Pas d\u2019Utilisation Commerciale - Partage dans les M\u00eames Conditions 3.0 France (CC BY-NC-SA 3.0 FR) ",
    "licence_url": "https:\/\/creativecommons.org\/licenses\/by-nc-sa\/3.0\/fr\/",
    "elements": [
        {
            "type": "pape",
            "value": "Alexandre III (1159-1181)"
        },
        {
            "type": "date_lieu",
            "value": "Rome, Saint-Pierre"
        },
        {
            "type": "date_libre",
            "value": "III kalendas maii"
        },
        {
            "type": "analyse",
            "value": "Alexander\u00a0III archiepiscopis et episcopis, in quorum dioecesibus Maius-monasterium possessiones habet, mandat, ne parochianos a fratribus monasterii decimas exigere patiantur."
        },
        {
            "type": "transcription",
            "value": "<?xml version=\"1.0\" encoding=\"UTF-8\"?>\nAlexander episcopus servus servorum Dei venerabilibus fratribus archiepiscopis et episcopis, in quorum episcopatibus dilecti filii nostri abbas et fratres Maioris monasterii ecclesias vel possessiones habere noscuntur, salutem et apostolicam benedictionem. Minus diligenter injunctum vobis officium exsequimini, si praedictos fratres vel alios ecclesiasticos viros a laicis decimarum exactione patimini fatigari, cum omnis prohibeat ratio et censura canonum detestetur, laicis a quibuslibet nedum a religiosis viris decimas exhiberi. Mandamus itaque fraternitati vestrae atque praecipimus, quatinus universis laicis parochianis vestris sub excommunicationis interminatione prohibere curetis, ne a fratribus Maioris monasterii decimas exigere vel extorquere praesumant. Si qui autem contra inhibitionem vestram venire praesumpserint, eos contradictione aut appellatione cessante excommunicationis sententiae supponatis et eam faciatis usque ad dignam satisfactionem inviolabiliter observari. Datum Romae apud S. Petrum III Calendas Maii.\n"
        },
        {
            "type": "edition",
            "value": "Samuel Loewenfeld, <i>Epistolae pontificum romanorum ineditae<\/i>, Leipzig : Veit et Comp., 1885, n. 270, p. 154-155"
        },
        {
            "type": "sources_manuscrites",
            "value": "Bibl. nat. Paris. ms. lat.\u00a012879 fol.\u00a0150. Descripsit Martene ex autographo.",
            "children": {
                "type_source": "Copie moderne"
            }
        },
        {
            "type": "date",
            "value": "1178\/04\/29",
            "children": {
                "date_deb_annee": "1178",
                "date_deb_mois": "04",
                "date_deb_jour": "29"
            },
            "range": {
                "date_apres": 11780429,
                "date_avant": 11780429
            }
        },
        {
            "type": "genre",
            "value": "Mandement (littere cum filo canapis)"
        }
    ]
}