{
    "id": 27726,
    "name": "aposcripta-4309",
    "type": "acte",
    "url": "http:\/\/telma-chartes.irht.cnrs.fr\/aposcripta\/notice\/27726",
    "project_slug": "aposcripta",
    "project_label": "APOSCRIPTA \u2013 Lettres des papes",
    "user": "l_valliere",
    "last_update": "2020-10-19 16:28:18",
    "licence": "Attribution - Pas d\u2019Utilisation Commerciale - Partage dans les M\u00eames Conditions 3.0 France (CC BY-NC-SA 3.0 FR) ",
    "licence_url": "https:\/\/creativecommons.org\/licenses\/by-nc-sa\/3.0\/fr\/",
    "elements": [
        {
            "type": "pape",
            "value": "Lucius III (1181-1185)"
        },
        {
            "type": "destinataire",
            "value": "L'abb\u00e9 de Saint-Gilles Ermengaud"
        },
        {
            "type": "date_libre",
            "value": "kalendas februarii"
        },
        {
            "type": "date",
            "value": " 1183\/02\/01",
            "children": {
                "date_deb_jour": "01",
                "date_deb_mois": "02",
                "date_deb_annee": "1183"
            },
            "range": {
                "date_apres": 11830201,
                "date_avant": 11830201
            }
        },
        {
            "type": "date_lieu",
            "value": "Velletri"
        },
        {
            "type": "genre",
            "value": "Lettre, g\u00e9n\u00e9ral (avant 1198)"
        },
        {
            "type": "analyse",
            "value": "Bulle de Lucius III<a href=\"#note-1\"><sup>1<\/sup><\/a> dat\u00e9e de Velletri, d\u00e9fendant aux moines de Saint-Gilles d'appeler de leur abb\u00e9 au pape quand il s'agira de la discipline r\u00e9guli\u00e8re<a href=\"#note-2\"><sup>2<\/sup><\/a>."
        },
        {
            "type": "sources_manuscrites",
            "value": "E. FRANCE, N\u00eemes, Archives d\u00e9partementales, H 785, n. 26 (auj. 27). Original sur parchemin en bon \u00e9tat<a target=\"_blank\" href=\"https:\/\/gallica.bnf.fr\/ark:\/12148\/bpt6k9201379\/f190.image\"> [inventaire en ligne]<\/a>.",
            "children": {
                "type_source": "Original"
            }
        },
        {
            "type": "sources_manuscrites",
            "value": "F. FRANCE, Biblioth\u00e8que nationale, Paris, Collection de Languedoc, XLI, fol. 103v.",
            "children": {
                "type_source": "Copie moderne"
            }
        },
        {
            "type": "edition",
            "value": "Ici reprise de l'abb\u00e9 Goiffon, <i>Bullaire de l\u2019abbaye de Saint-Gilles<\/i>, N\u00eemes\u00a0: P. Jouve, 1882, LXXII, p. 95-96 <a target=\"_blank\" href=\" https:\/\/gallica.bnf.fr\/ark:\/12148\/bpt6k111623c\/f98.image\"> [en ligne]<\/a>."
        },
        {
            "type": "regeste",
            "value": "Philippe Jaff\u00e9, <i>Regesta pontificum Romanorum<\/i>, 2 vol., Leipzig, 1885-1888, II, n. 14829 <a target=\"_blank\" href=\" https:\/\/archive.org\/stream\/regestapontificu02cath#page\/451\/mode\/1up\"> [en ligne]<\/a>."
        },
        {
            "type": "transcription",
            "value": "<?xml version=\"1.0\" encoding=\"UTF-8\"?>\nLucius episcopus, servus servorum Dei, dilecto filio Ermengario abbati Sancti Egidii, salutem et apostolicam benedictionem. In corrigendis que fuerint in subditis corrigenda et eorum excessibus congrue puniendis omnium ecclesiarum prelatis competentem expedit sollicitudinem adhibere. Cum igitur abbates suorum monachorum excessus etiam de mandato regule quam fatentur, qualitate culparum inspecta, corrigere teneantur, ad reddenda stipendia meritorum oportet eos existere diligentes. Verum ne zelus eorumdem appellatione interposita valeat impediri, que non ad defensionem iniquitatis sed ad presidium innocentium noscitur instituta, malitie penam emeritam subterfugere cupientium solerter convenit obviare, ita quod votis que a rationis tramite non discordant facilis prebeatur assensus et iniquis quod eis debetur via non pateat evadendi. Quapropter, dilecte in Domino fili, tuis justis postulationibus gratum impertientes assensum, ne monachi tui, cum pro aliquo excessu fuerint corrigendi contra regularem ordinis disciplinam, appellare presumant, auctoritate apostolica prohibemus. Si autem pro disciplina vitanda presumpserint ad appellationis subterfugia convolare, presentibus tibi indulgemus ut nichilominus tibi liceat penam eis infligere regularem. Nulli ergo omnino hominum liceat hanc paginam nostre concessionis infringere vel ei ausu temerario contraire. Si quis autem hoc attemptare presumpserit, indignationem omnipotentis Dei et beatorum Petri et Pauli apostolorum ejus se noverit incursurum. Datum Velletri3, kalendas februarii.\n"
        },
        {
            "type": "notes_historiques",
            "value": "Luce III, \u00e9lu le 1<sup>er<\/sup> septembre 1181, mourut le 25 novembre 1185, il r\u00e9gna quatre ans, deux mois et vingt-cinq jours.",
            "children": {
                "numero_note": "1"
            }
        },
        {
            "type": "notes_historiques",
            "value": "Voir le n. CXVI.-67 <a target=\"_blank\" href=\" http:\/\/telma-chartes.irht.cnrs.fr\/aposcripta\/notice\/27794\"> [APOSCRIPTA n. 4353]<\/a>, bulle par laquelle le pape Cl\u00e9ment IV conf\u00e9ra \u00e0 l'abb\u00e9 de Saint-Gilles de semblables privil\u00e8ges.",
            "children": {
                "numero_note": "2"
            }
        },
        {
            "type": "notes_historiques",
            "value": "<i>Velletri<\/i>, ville \u00e9piscopale des \u00c9tats pontificaux.",
            "children": {
                "numero_note": "3"
            }
        },
        {
            "type": "remarques",
            "value": "Nous avons corrig\u00e9, tout comme Jaff\u00e9, la date du 4 f\u00e9vrier, manifestement erron\u00e9e, donn\u00e9e par l'abb\u00e9 Goiffon."
        }
    ]
}