{
    "id": 25055,
    "name": "aposcripta-2152",
    "type": "acte",
    "url": "http:\/\/telma-chartes.irht.cnrs.fr\/aposcripta\/notice\/25055",
    "project_slug": "aposcripta",
    "project_label": "APOSCRIPTA \u2013 Lettres des papes",
    "user": "l_valliere",
    "last_update": "2020-10-19 16:27:39",
    "licence": "Attribution - Pas d\u2019Utilisation Commerciale - Partage dans les M\u00eames Conditions 3.0 France (CC BY-NC-SA 3.0 FR) ",
    "licence_url": "https:\/\/creativecommons.org\/licenses\/by-nc-sa\/3.0\/fr\/",
    "elements": [
        {
            "type": "pape",
            "value": "Honorius III (1216-1227)"
        },
        {
            "type": "destinataire",
            "value": "L'\u00e9v\u00eaque de Soissons, l'abb\u00e9 de Saint-Jean-des-Vignes et le doyen de Soissons"
        },
        {
            "type": "date_libre",
            "value": "idus decembris, anno primo"
        },
        {
            "type": "date",
            "value": " 1216\/12\/13",
            "children": {
                "date_deb_jour": "13",
                "date_deb_mois": "12",
                "date_deb_annee": "1216"
            },
            "range": {
                "date_apres": 12161213,
                "date_avant": 12161213
            }
        },
        {
            "type": "date_lieu",
            "value": "Rome, Saint-Pierre"
        },
        {
            "type": "analyse",
            "value": "Bulla Honorii papae III episcopo Suessionensi, abbati Sancti Johannis in Vineis et decano Suessionensi ut, si quid Erardus de Brena et Philippa ejus uxor in comitem Campaniae attemptare praesumant, eorum ausus censura ecclesiastica compescant."
        },
        {
            "type": "sources_manuscrites",
            "value": "E. FRANCE, Paris, Archives nationales, J 209 B\/47. Original scell\u00e9 (bulle de plomb sur cordelettes de chanvre ; voyez l'<i>Inventaire des Sceaux<\/i>, n. 6046).",
            "children": {
                "type_source": "",
                "source_edition": ""
            }
        },
        {
            "type": "sources_manuscrites",
            "value": "R. CIT\u00c9 DU VATICAN, Archivio segreto Vaticano, <i>Registra Vaticana<\/i> 9, ep. 124, fol. 30 [<i>in e.m.<\/i>]."
        },
        {
            "type": "regeste",
            "value": "Potthast, <i>Regesta pontificum Romanorum<\/i>, n. 5389 [<i>in e.m.<\/i>] <a target=\"_blank\" href=\"https:\/\/archive.org\/stream\/RegestaPontificumRomanorum\/ph#page\/n485\/mode\/2up\"> [en ligne]<\/a>."
        },
        {
            "type": "regeste",
            "value": "Alexandre Teulet, <i>Layettes du Tr\u00e9sor des chartes<\/i>, I, Paris : Henri Plon, 1863 <a target=\"_blank\" href=\"http:\/\/digi.ub.uni-heidelberg.de\/diglit\/teulet1863bd1\/0591\"> [en ligne]<\/a>, n. 1203, p. 439 <a target=\"_blank\"href=\"https:\/\/francearchives.fr\/fr\/facomponent\/f76531a018b786b23bf775bca3f85b13ee49f61c\">[num\u00e9ris\u00e9e sur le site des Archives de France]<\/a>, d'apr\u00e8s E."
        },
        {
            "type": "regeste",
            "value": "C\u00e9sar-Auguste Horoy, <i>Medii aevi bibliotheca patristica : Honorii III opera omnia<\/i>, 5 t., Paris, 1879-1883, II, col. 132, n. 100 [<i>in e.m.<\/i>], d\u2019apr\u00e8s une copie moderne <a target=\"_blank\" href=\"https:\/\/archive.org\/stream\/mediiaevibiblio01unkngoog#page\/n304\/mode\/2up\"> [en ligne]<\/a>."
        },
        {
            "type": "regeste",
            "value": "Pietro Pressuti, <i>Regesta Honorii papae III ex Vaticanis archetypis aliisque fontibus<\/i>, Rome, 1888-1895, n. 173 [<i>in e.m.<\/i>], d\u2019apr\u00e8s R."
        },
        {
            "type": "regeste",
            "value": "Bernard Barbiche, <i>Les actes pontificaux originaux des Archives Nationales de Paris<\/i>, Cit\u00e9 du Vatican, 1975-1982, I, n. 135, p. 57, d\u2019apr\u00e8s E."
        },
        {
            "type": "transcription",
            "value": "<?xml version=\"1.0\" encoding=\"UTF-8\"?>\nCum felicis memorie Innocentii pape predecessoris nostri fuisset dudum auribus intimatum, etc. Datum Rome apud Sanctum Petrum, idus decembris, pontificatus nostri anno primo.\n"
        },
        {
            "type": "remarques",
            "value": "A \u00e9diter\nCette bulle reproduit, en l'abr\u00e9geant, le texte de la bulle adress\u00e9e par Innocent III le 4 f\u00e9vrier 1216 (<a target=\"_blank\" href= \"http:\/\/telma-chartes.irht.cnrs.fr\/aposcripta\/notice\/25048\">APOSCRIPTA n. 2145<\/a>), \u00e0 l'\u00e9v\u00eaque de Soissons, \u00e0 l'abb\u00e9 de Saint-Jean des Vignes et au doyen de l'\u00e9glise de Soissons."
        },
        {
            "type": "genre",
            "value": "Bulle"
        }
    ]
}