{
    "id": 145593,
    "name": "aposcripta-5939",
    "type": "acte",
    "url": "http:\/\/telma-chartes.irht.cnrs.fr\/aposcripta\/notice\/145593",
    "project_slug": "aposcripta",
    "project_label": "APOSCRIPTA \u2013 Lettres des papes",
    "user": "l_valliere",
    "last_update": "2020-10-19 16:39:10",
    "licence": "Attribution - Pas d\u2019Utilisation Commerciale - Partage dans les M\u00eames Conditions 3.0 France (CC BY-NC-SA 3.0 FR) ",
    "licence_url": "https:\/\/creativecommons.org\/licenses\/by-nc-sa\/3.0\/fr\/",
    "elements": [
        {
            "type": "pape",
            "value": "Jean XXII (1316-1334)"
        },
        {
            "type": "destinataire",
            "value": "Les abb\u00e9s des monast\u00e8res San Stefano, San Procolo et San Felice de Bologne"
        },
        {
            "type": "date_libre",
            "value": "III idus novembris, anno duodecimo"
        },
        {
            "type": "date",
            "value": "1327\/11\/11",
            "children": {
                "date_deb_annee": "1327",
                "date_deb_mois": "11",
                "date_deb_jour": "11"
            },
            "range": {
                "date_apres": 13271111,
                "date_avant": 13271111
            }
        },
        {
            "type": "date_lieu",
            "value": "Avignon"
        },
        {
            "type": "genre",
            "value": "Mandement (littere cum filo canapis)"
        },
        {
            "type": "analyse",
            "value": "Giovanni XXII conferisce a Filippo, figlio di <i>Mathiolis de Becchadellis<\/i>, chierico bolognese, un canonicato con prebenda nella chiesa di Trento, vacanti per la morte di Pietro, cardinale diacono di Sant\u2019Angelo."
        },
        {
            "type": "sources_manuscrites",
            "value": "R<sup>1<\/sup>. CIT\u00c9 DU VATICAN, Archivio segreto Vaticano, <i>Registra Avenionensia<\/i> 29, M, fol. 633 (cancell\u00e9e ; taxe XXIIII).",
            "children": {
                "type_source": "Registre de la chancellerie apostolique"
            }
        },
        {
            "type": "sources_manuscrites",
            "value": "R<sup>2<\/sup>. CIT\u00c9 DU VATICAN, Archivio segreto Vaticano, <i>Registra Vaticana<\/i> 86, fol. 1<a href=\"#note-1\"><sup>1<\/sup><\/a>.",
            "children": {
                "type_source": "Registre de la chancellerie apostolique"
            }
        },
        {
            "type": "edition",
            "value": "Ici reprise d\u2019Emanuele Curzel, <i>Documenti papali per la storia trentina (fino al 1341)<\/i>, Bologne, 2004 (Annali dell\u2019Istituto storico italo-germanico. Fonti ; 1), n. 235, p. 351-353, d\u2019apr\u00e8s R<sup>1<\/sup> et R<sup>2<\/sup>."
        },
        {
            "type": "regeste",
            "value": "Guillaume Mollat, <i>Jean XXII (1316-1334). Lettres communes<\/i> (Biblioth\u00e8que des \u00c9coles Fran\u00e7aises d\u2019Ath\u00e8nes et de Rome), Paris, 1904-1947, n. 29081."
        },
        {
            "type": "transcription",
            "value": "<?xml version=\"1.0\" encoding=\"UTF-8\"?>\nDilectis filiis .. Sancti Stephani et .. Sancti Proculi ac .. Sancti Felicis, Bononiensium monasteriorum abbatibus, salutem. Exigentibus devotionis et probitatis meritis, super quibus apud nos dilectus filius Philippus, natus dilecti filii Mathiolis de Becchadellis, clericus Bononiensis, fidedignorum testimonio commendatur, inducimura ut sibi reddamur in exhibitione gratie liberales. Dudum siquidem, intendentes de canonicatibus [et prebendis cete]risque b[eneficiis] ecclesiasticis, que bone memorie Petrus, Sancti Angeli diaconus cardinalis, ex provisione s[eu concessione Sedis apostolice, dum viveret], obtinebat, cum illa per eius obitum vacare contingeret, per eiusdem Sedis [providentiam ordinari, canonicatus et prebendas ac bene]ficia supradicta, in quibuscunque ecclesiis seu locis existerent, dum adh[uc idem cardinalis ageret in humanis, non] obstante si forsan in apostolicis litteris, quarum auctoritate dictus cardinalis canonicatus [et prebendas ac beneficia supradicta fuerat assecutus], caveretur expresse vel alias per Sedem eandem existeret ordinatum [quod, eo cedente vel decedente, canonicatus et prebende ac] beneficia prelibata ad pristinum statum redirent nec apud Sedem [vacare intelligerentur eandem, collationi et dispositioni] nostre duximus specialiter reservanda, decernendo ex tunc irritum et in[ane si secus super hiis per quoscunque, quavis auctoritate], scienter vel ignoranter, contingeret attemptari, cum itaque plures canonicatus et prebende, [quos dictus cardinalis in ecclesia Tridentina, dum vixit|, ex provisione seu concessione Sedis eiusdem obtinuit, per eius obitum, qui dudum apud dictam Sedem diem clausit extremum, vacavisse et adhuc aliqui ex eis vacare dicantur nullusque de eis, si est ita, preter nos disponere potuerit neque possit, reservatione et decreto nostris obsistentibus supradictis, nos, volentes dicto Philippo premissorum meritorum suorum intuitu gratiam facere specialem, discretioni vestre per apostolica scripta mandamus quatinus vos vel duo aut unus vestrum, per vos vel alium seu alios, canonicatum et prebendam dicte ecclesie Tridentine, si qui per ipsius cardinalis obitum vacant, ut premittitur, in ecclesia supradicta, dicto Philippo vel procuratori suo pro eo cum plenitudine iuris canonici ac omnibus iuribus et pertinentiis suis auctoritate nostra conferre et assignare curetis, inducentes eum vel dictum procuratorem eius nomine in ipsorum canonicatus et prebende ac iurium et pertinentiarum predictorum corporalem possessionem et defendentes inductum, amoto exinde quolibet detentore ac facientes ipsum vel prefatum procuratoremb pro eo ad dictam prebendam in eadem ecclesia Tridentina in canonicum recipi et in fratrem, stallo sibi in choro et loco in capitulo cum plenitudine iuris canonici assignatis sibique de ipsorum canonicatus et prebende fructibus, redditibus, proventibus, iuribus et obventionibus universis integre responderi, contradictores auctoritate nostra appellatione postposita compescendo, non obstantibus quibuscumque statutis et consuetudinibus eiusdem ecclesie Tridentine contrariis, iuramento, confirmatione apostolica vel alia quacumque firmitate vallatis, aut si aliqui apostolica vel alia quavis auctoritate in eadem ecclesia in canonicos sint recepti vel ut recipiantur insistant, seu si super [provisi]onibus sibi faciendis de canonicatibus et prebendis in eadem ecclesia speciales vel de beneficiis ecclesiasticis in illis partibus generales [dicte] Sedis vel legatorum eius litteras impetrarint, etiam si per eas ad inhibitionem, reservationem et decretum vel alias quomodolibet sit processum, quibus omnibus in assecutione dictorum canonicatus et prebende, si, ut premittitur, vacant, eundem Philippum volumus anteferri, sed nullum per hoc eis quo ad assecutionem canonicatuum, prebendarum et beneficiorum aliorum preiudicium generari, aut si venerabili fratri nostro .. episcopo et dilectis filiis capitulo Tridentinis seu quibusvis aliis, comuniter vel divisim, a prefata sit Sede indultum quod ad receptionem vel provisionem alicuius minime teneantur et ad id compelli aut quod interdici, suspendi vel excomunicari non possint quodque de canonicatibus et prebendis eiusdem ecclesie ceterisque beneficiis ecclesiasticis ad eorum collationem, provisionem seu quamcumque aliam dispositionem, coniunctimc vel separatim spectantibus, nequeat alicui provideri per litteras apostolicas non facientes plenam et expressam ac de verbo ad verbum de indulto huiusmodi mentionem et qualibet alia dicte Sedis indulgentia generali vel speciali, cuiuscumque tenoris existat, per quam, presentibus non expressam vel totaliter non insertam, effectus huiusmodi gratie impediri valeat quomodolibet vel differri et de qua cuiusque toto tenore habenda sit in nostris litteris mentio specialis, aut si idem Philippus presens non fuerit ad prestandum de observandis statutis et consuetudinibus eiusdem ecclesie solitum iuramentum, dummodo in absentia sua per procuratorem ydoneum et, cum ad ecclesiam ipsam accesserit corporaliter, illud prestet. Nos insuper, si dicti canonicatus et prebenda vacant ut premittitur, irritum, prout est, decernimus et inane si secus de eisdem, scienter vel ignoranter, attemptatum forsan est hactenus vel contigerit imposterum attemptari. [Datum Avinione], III idus novembris, anno duodecimo.\n"
        },
        {
            "type": "apparat_critique",
            "value": "inducimur <i>dans l'interligne R<sup>1<\/sup><\/i>.",
            "children": {
                "numero_note": "a"
            }
        },
        {
            "type": "apparat_critique",
            "value": "procuratorem prefatum <i>R<sup>2<\/sup><\/i>.",
            "children": {
                "numero_note": "b"
            }
        },
        {
            "type": "apparat_critique",
            "value": "coniuctim <i>sans signe d'abr\u00e9viation R<sup>1<\/sup> et R<sup>2<\/sup><\/i>.",
            "children": {
                "numero_note": "c"
            }
        },
        {
            "type": "notes_historiques",
            "value": "Le folio 633 du Reg. Aven. est en grande partie d\u00e9lav\u00e9 ; ce qui est entre crochets se fonde sur la transcription du Reg. Vat.",
            "children": {
                "numero_note": "1"
            }
        }
    ]
}