{
    "id": 26331,
    "name": "aposcripta-3410",
    "type": "acte",
    "url": "http:\/\/telma-chartes.irht.cnrs.fr\/aposcripta\/notice\/26331",
    "project_slug": "aposcripta",
    "project_label": "APOSCRIPTA \u2013 Lettres des papes",
    "user": "lettrespontificalesadmin",
    "last_update": "2020-10-19 16:27:59",
    "licence": "Attribution - Pas d\u2019Utilisation Commerciale - Partage dans les M\u00eames Conditions 3.0 France (CC BY-NC-SA 3.0 FR) ",
    "licence_url": "https:\/\/creativecommons.org\/licenses\/by-nc-sa\/3.0\/fr\/",
    "elements": [
        {
            "type": "pape",
            "value": "Eug\u00e8ne III (1145-1153)"
        },
        {
            "type": "date_lieu",
            "value": "n.c."
        },
        {
            "type": "date_libre",
            "value": "1148 October\u2013November Pisa"
        },
        {
            "type": "date",
            "value": "apr\u00e8s 1148\/10 - avant 1148\/11",
            "children": {
                "date_deb_annee": "1148",
                "date_deb_mois": "10",
                "date_deb_type": "apr\u00e8s",
                "date_fin_annee": "1148",
                "date_fin_mois": "11",
                "date_fin_type": "avant"
            },
            "range": {
                "date_apres": 11481000,
                "date_avant": 11481199
            }
        },
        {
            "type": "analyse",
            "value": "Eugen III nimmt das Kloster Mont St.-Eloi-l\u00e8s-Arras in apostolischen Schutz und best\u00e4tigt ihm seine Besitzth\u00fcmer."
        },
        {
            "type": "transcription",
            "value": "<?xml version=\"1.0\" encoding=\"UTF-8\"?>\nEugenius episcopus servus servorum dei dilectis filiis Hugoni, abbati de monte sancti Eligii, eiusque fratribus, tam presentibus quam futuris canonicam vitam professis, in perpetuum. Pie postulatio voluntatis effectu debet prosequente compleri, ut devotionis sinceritas laudabiliter enitescat et utilitas postulata vires indubitanter assumat. Eapropter, dilecti in domino filii, vestris iustis postulationibus clementer annuimus et ecclesiam beati Vindiciani1, in qua divino mancipati estis obsequio, sub beati Petri et nostra protectione suscipimus, et presentis scripti privilegio munimus. Statuentes, ut quascumque possessiones, quecumque bona in presentiarum iuste et canonice possidetis, aut in futurum concessione pontificum, largitione regum vel principum, oblatione fidelium seu aliis iustis modis, prestante domino, poteritis adipisci, firma vobis vestrisque successoribus et illibata permaneant. In quibus hec propriis nominibus duximus exprimenda : altare de Amerin, altare de Asc, altare de Divion, altare de Ambringne, ecclesiam de Albiniaco cum appendiciis suis, in qua siquidem per vos ex nostro mandato est religio auctore domino reformata. Adicientes etiam, ut, canonicis secularibus, qui in ipsa ecclesia sunt, decedentibus, prebende eorum in usus ipsorum, qui vivunt, communiter redigantur. Decernimus ergo, ut nulli omnino hominum liceat, prefatam ecclesiam temere perturbare aut eius possessiones auferre vel ablatas retinere, minuere seu aliquibus vexationibus fatigare, sed omnia integra conserventur eorum, pro quorum gubernatione et sustentatione concessa sunt, usibus omnimodis profutura, salva sedis apostolice auctoritate et dyocesani episcopi canonica iustitia. Si qua igitur in futurum ecclesiastica secularisve persona hanc nostre constitutionis paginam sciens contra eam temere venire temptaverit, secundo terciove commonita, si non satisfactione congrua emendaverit, potestatis honorisque sui dignitate careat, reamque se divino iudicio existere de perpetrata iniquitate cognoscat, et a sacratissimo corpore ac sanguine dei et domini nostri Jesu Christi aliena fiat, atque in extremo examine districte ultioni subiaceat. Cunctis autem eidem loco sua iura servantibus sit pax domini nostri Jesu Christi, quatinus et hic fructum bone actionis percipiant et apud districtum iudicem premia eterne pacis inveniant. Amen.Datum Pisis. Incarnationis dominice anno mcxxxvii. Pontificatus vero domni Eugenii pape tercii anno v.\n"
        },
        {
            "type": "edition",
            "value": "Julius von Pflugk-Harttung, <i>Acta pontificum Romanorum inedita<\/i>, T\u00fcbingen, 1880, I, n. 222, p. 205"
        },
        {
            "type": "sources_manuscrites",
            "value": "Abschrift vom 14 Jahrh. des Cart. de la prieur\u00e9 d\u2019Aubigny fol. 13, im Archive des D\u00e9p. Pas-de-Calais zu Arras."
        },
        {
            "type": "remarques",
            "value": "Die Datirung ist vollst\u00e4ndig in Unordnung ; wir haben die Urkunde nach dem Ausstellungsorte datirt, der am meisten Zuvertrauen zu verdienen scheint. Uebrigens war Innocenz II im Jahre 1137 in Pisa, Pont. 7."
        },
        {
            "type": "notes_historiques",
            "value": "<i>Dasselbe wie Mons S. Eligii, die Gebeine des heil. Vindican waren im Kloster beigesetzt.<\/i>",
            "children": {
                "numero_note": "1"
            }
        },
        {
            "type": "genre",
            "value": "Bulle"
        }
    ]
}