{
    "id": 20294,
    "name": "aposcripta-281",
    "type": "acte",
    "url": "http:\/\/telma-chartes.irht.cnrs.fr\/aposcripta\/notice\/20294",
    "project_slug": "aposcripta",
    "project_label": "APOSCRIPTA \u2013 Lettres des papes",
    "user": "lettrespontificalesadmin",
    "last_update": "2020-10-19 16:26:47",
    "licence": "Attribution - Pas d\u2019Utilisation Commerciale - Partage dans les M\u00eames Conditions 3.0 France (CC BY-NC-SA 3.0 FR) ",
    "licence_url": "https:\/\/creativecommons.org\/licenses\/by-nc-sa\/3.0\/fr\/",
    "elements": [
        {
            "type": "pape",
            "value": "Jean XXII (1316-1334)"
        },
        {
            "type": "date_lieu",
            "value": "Avignon"
        },
        {
            "type": "date_libre",
            "value": "6 octobre 1332"
        },
        {
            "type": "analyse",
            "value": "Jean XXII reproche vivement \u00e0 Dominique Grima, \u00e9v\u00eaque de Pamiers, sa n\u00e9gligence coupable en ce qui concerne la r\u00e9pression de l\u2019h\u00e9r\u00e9sie dans son dioc\u00e8se. Il l\u2019engage \u00e0 secouer sa torpeur et \u00e0 remplir son devoir."
        },
        {
            "type": "transcription",
            "value": "<?xml version=\"1.0\" encoding=\"UTF-8\"?>\nDominico1, episcopo Appamiarum. \u2014 Ad nostri apostolatus displicibili ad modum insinuatione pervenit quod pestis heresis in tua diocesi crebrius solito, cuius occasio esse pro magna parte prelati negligentia dicitur, invalescit. Cum autem ad pestem huiusmodi de tuis civitate et diocesi extirpandam adeo ex debito tui pastoralis officii sis astrictus quod si notabiliter circa hec te negligentem redderes ab eodem esses officio repellendus, fraternitatem tuam attentius exhortamur quatinus premissa necnon laudabilem diligenciam quam tui predecessores circa extirpationem adhibuerunt huiusmodi consideranter attendens, te a pigricie sompno nocivo plurimum excitans adversus hereticos, credentes, fautores et receptatores eorum solerti adhibita diligencia, iuxta sanxiones canonicas et privilegia officio Inquisitionis heretice pravitatis concessa procedere, sermonesque innovare ac facere sicut alii pastores vigiles non postponas ; ita quod hac extirpata peste mortifera, fides ibidem catholica fulgeat curaque tua circa custodiam comissi tibi gregis dominici appareat, quamvis excussa negligentia, merito fructuosa. Ad creandos enim plures prelatos in illis partibus2 principaliter hoc nos movit, ut per eorum vigilationem credulam (sic) hec pestis Deo odibilis nimium et infectiva catholici populi de partium ipsarum finibus fugaretur. \u2014 Datum Avinioni, ii nonas octobris, anno XVII\u00b0.\n"
        },
        {
            "type": "edition",
            "value": "Jean-Marie Vidal, <i>Bullaire de l\u2019Inquisition fran\u00e7aise au XIV<sup>e<\/sup> si\u00e8cle et jusqu'\u00e0 la fin du Grand Schisme<\/i>, Paris : Letouzey et An\u00e9, 1913, n. 124, p. 184"
        },
        {
            "type": "sources_manuscrites",
            "value": "<i>Reg. Vat.<\/i>, t. <span class=\"smal-caps\">cxvii<\/span>, n. 402."
        },
        {
            "type": "notes_historiques",
            "value": "Dominique Grima, voir n. 82, note 1.",
            "children": {
                "numero_note": "1"
            }
        },
        {
            "type": "notes_historiques",
            "value": "Allusion \u00e0 la cr\u00e9ation de nouveaux \u00e9v\u00each\u00e9s dans la province de Toulouse, faite en 1317-1318. L\u2019\u00e9v\u00each\u00e9 de Pamiers avait \u00e9t\u00e9 fond\u00e9 par Boniface VIII, en 1295. Vidal, <i>Les origines de la province eccl\u00e9siastique de Toulouse<\/i>, extrait des <i>Annales du Midi<\/i>, Toulouse, Privat, 1903.",
            "children": {
                "numero_note": "2"
            }
        },
        {
            "type": "date",
            "value": "1332\/10\/06",
            "children": {
                "date_deb_annee": "1332",
                "date_deb_mois": "10",
                "date_deb_jour": "06"
            },
            "range": {
                "date_apres": 13321006,
                "date_avant": 13321006
            }
        },
        {
            "type": "genre",
            "value": "Bulle"
        }
    ]
}