{
    "id": 26212,
    "name": "aposcripta-3291",
    "type": "acte",
    "url": "http:\/\/telma-chartes.irht.cnrs.fr\/aposcripta\/notice\/26212",
    "project_slug": "aposcripta",
    "project_label": "APOSCRIPTA \u2013 Lettres des papes",
    "user": "lettrespontificalesadmin",
    "last_update": "2020-10-19 16:27:57",
    "licence": "Attribution - Pas d\u2019Utilisation Commerciale - Partage dans les M\u00eames Conditions 3.0 France (CC BY-NC-SA 3.0 FR) ",
    "licence_url": "https:\/\/creativecommons.org\/licenses\/by-nc-sa\/3.0\/fr\/",
    "elements": [
        {
            "type": "pape",
            "value": "Pascal II (1099-1118)"
        },
        {
            "type": "date_lieu",
            "value": "Puy"
        },
        {
            "type": "date_libre",
            "value": "1107 Juli 14"
        },
        {
            "type": "date",
            "value": " 1107\/07\/14",
            "children": {
                "date_deb_annee": "1107",
                "date_deb_mois": "07",
                "date_deb_jour": "14"
            },
            "range": {
                "date_apres": 11070714,
                "date_avant": 11070714
            }
        },
        {
            "type": "analyse",
            "value": "Paschalis II schildert die Beilegung des Streites um ein Kanonikat zwischen den M\u00f6nchen von Aurillac (D. Clermont) und den Kanonikern von Monsal\u00e8s (auch Monsalvy ; D. Rodez), welches er den ersteren best\u00e4tigt."
        },
        {
            "type": "transcription",
            "value": "<?xml version=\"1.0\" encoding=\"UTF-8\"?>\n Paschalis episcopus servus servorum dei. Inter Aureliacensis monasterii monachos et Montis salvi canonicos querela diutius agitata est pro eorum canonica, quam in beati Giraldi1 alodio idem monachi constructam reclamabant. Nos igitur post diutinas quaerimonias utrosque ante nostram praesentiam evocantes, super eorum quaerela ex communi fratrum deliberatione huiusmodi iudicium dedimus, ut videlicet iuxta sancti praedecessoris nostri Urbani papae iudicium, quod utraeque partes audierunt, Aureliacensis abbas manu tertia confirmaret cartam sui monasterii et illam pariter Gilberti vicecomitis2 recognitionem, quam nobis abbas ipse significavit, quia videlicet vicecomes idem, cum vellet castrum Mandarufum construere, abbate ostendente, cognovit, loca illa esse beati Petri et alodium sancti Geraldi, et ideo cum abbate pactum instituit, quod si factum esset, lite sospita, sui iuris alodium beatus Giraldus reciperet, alioquin canonici locum, de quo agebatur, quiete obtinerent. Utrisque igitur ante iudices, quibus hoc negotium commiseramus, convenientibus, cum abbas, prout iudicatum fuerat, testes protulisset, testibus non reprobatis, de loco iudicii idem canonici discesserunt. Iterum Aureliacensibus monachis, apud nos reclamantibus, eosdem canonicos ante praesentiam nostram evocavimus. Visum est igitur fratribus nostris episcopis, qui nobiscum aderant, Riccardo Albano3, Leodegario Bituricensi4, Giraldo Engolismensi5, Petro Claromontensi6 et venerabilibus Romanae ecclesiae presbiteris cardinalibus Divizoni de titulo sancti Martini7, Landulfo de titulo Lucinae8, ut Aureliacensis abbas9, qui actor10 erat, sacramento firmaret, praedecessorem suum11 ad exequendum supradictum iudicium paratum cum testibus affuisse et eosdem canonicos prius de loco iudicii surrexisse ac discessisse. Qua sacramenti exhibitione peracta, nos fratrum nostrorum iudicium confirmantes, locum ipsum de quo agebatur, Aureliacensi monasterio, omni prorsus lite sospita, restituimus et in perpetuum possidendum scripti praesentis auctoritate firmamus. Si quis vero adversus hanc definitionem agere praesumpserit, canonicae districtionis animadversione multetur.Datum apud Anicium. ii Idus Julii. Indictione xv. Incarnationis dominicae anno mcvii.\n"
        },
        {
            "type": "edition",
            "value": "Julius von Pflugk-Harttung, <i>Acta pontificum Romanorum inedita<\/i>, T\u00fcbingen, 1880, I, n. 103, p. 94"
        },
        {
            "type": "sources_manuscrites",
            "value": "Abschrift des MS. Moreau 42 fol. 177, in der Bibl. Nat. zu Paris."
        },
        {
            "type": "remarques",
            "value": "\u201eCollation\u00e9 \u00e0 l\u2019original \u00e9tant dans les archives de l\u2019abbaye d\u2019Aurillac, en un parchemin d\u2019un pied (0,32 M.) de longueur sur neuf pouces (0,24 M.) de largeur, auquel il ne demeure plus de sceau, mais seulement un reste de lac de soye rouge, engag\u00e9 dans l\u2019un de deux petits trous situ\u00e9s vers le milieu du repli, qui se trouve au bas du dit parchemin, \u00e0 Aurillac le 12 Novembre 1786. Vacher de Bourg-l\u2019ange\u201c. \u2014 Das beigegebene Facsimile zeigt das einleitende Paschal\u2019 in Majuskeln, alles Uebrige in fr\u00e4nkischer Curiale ausgef\u00fchrt, wie sie unter Paschalis oft vorkommt (also : Schrift des Privilegiums nicht des Breve ; das Actenst\u00fcck selber geh\u00f6rt nach seinem Aeusseren zur Gattung der unfeierlichen Privilegien)."
        },
        {
            "type": "notes_historiques",
            "value": "<i>Auch Aurillac war dem heil. Gerald geweiht.<\/i>",
            "children": {
                "numero_note": "1"
            }
        },
        {
            "type": "notes_historiques",
            "value": "<i>Gilbert, Vicomte de Milhaud, de Gevaudan und de Carlad, Gemahl der Gerberge von Provence. Vergl. Vic et Vaissete, Hist. de Languedoc, III p. 241, 250, 276.<\/i>",
            "children": {
                "numero_note": "2"
            }
        },
        {
            "type": "notes_historiques",
            "value": "<i>Richard von Albano kommt von 1102\u20131114 auf p\u00e4pstl. Urk. vor.<\/i>",
            "children": {
                "numero_note": "3"
            }
        },
        {
            "type": "notes_historiques",
            "value": "<i>Leodegar, Erzbischof von Bourges, 1097\u20131120.<\/i>",
            "children": {
                "numero_note": "4"
            }
        },
        {
            "type": "notes_historiques",
            "value": "<i>Gerard II, Bischof von Angoul\u00eame, 1101\u20131136.<\/i>",
            "children": {
                "numero_note": "5"
            }
        },
        {
            "type": "notes_historiques",
            "value": "<i>Petrus Roux, Bischof von Clermont, c. 1105\u20131111.<\/i>",
            "children": {
                "numero_note": "6"
            }
        },
        {
            "type": "notes_historiques",
            "value": "<i>Diviso, Card. Presb. tit. St. Martini et S. Silvestri kommt im J. 1107 vor.<\/i>",
            "children": {
                "numero_note": "7"
            }
        },
        {
            "type": "notes_historiques",
            "value": "<i>Landulf, Card. Presb. tit. S. Lucinae kommt 1106 und 1107 vor.<\/i>",
            "children": {
                "numero_note": "8"
            }
        },
        {
            "type": "notes_historiques",
            "value": "<i>Damals war Peter II de Cizieres Abt von Aurillac.<\/i>",
            "children": {
                "numero_note": "9"
            }
        },
        {
            "type": "notes_historiques",
            "value": "<i>Actor : Kl\u00e4ger, Anwalt. Diefenbach, Gloss. p. 11 ; Brinckmeier I p. 26.<\/i>",
            "children": {
                "numero_note": "10"
            }
        },
        {
            "type": "notes_historiques",
            "value": "<i>Emilius.<\/i>",
            "children": {
                "numero_note": "11"
            }
        },
        {
            "type": "genre",
            "value": "Bulle"
        }
    ]
}