{
    "id": 148636,
    "name": "aposcripta-6060",
    "type": "acte",
    "url": "http:\/\/telma-chartes.irht.cnrs.fr\/aposcripta\/notice\/148636",
    "project_slug": "aposcripta",
    "project_label": "APOSCRIPTA \u2013 Lettres des papes",
    "user": "j_theryastruc",
    "last_update": "2020-10-19 16:39:47",
    "licence": "Attribution - Pas d\u2019Utilisation Commerciale - Partage dans les M\u00eames Conditions 3.0 France (CC BY-NC-SA 3.0 FR) ",
    "licence_url": "https:\/\/creativecommons.org\/licenses\/by-nc-sa\/3.0\/fr\/",
    "elements": [
        {
            "type": "pape",
            "value": "Gr\u00e9goire XI (1370-1378)"
        },
        {
            "type": "destinataire",
            "value": "Le doyen de Saint-Nicolas de Provins, dioc\u00e8se de Sens"
        },
        {
            "type": "date_libre",
            "value": "XV kalendas februarii, anno secundo"
        },
        {
            "type": "date",
            "value": "1372\/01\/18",
            "children": {
                "date_deb_annee": "1372",
                "date_deb_mois": "01",
                "date_deb_jour": "18"
            },
            "range": {
                "date_apres": 13720118,
                "date_avant": 13720118
            }
        },
        {
            "type": "date_lieu",
            "value": "Avignon"
        },
        {
            "type": "genre",
            "value": "Mandement (littere cum filo canapis)"
        },
        {
            "type": "analyse",
            "value": "?"
        },
        {
            "type": "edition",
            "value": "Ici reprise de Charles Lalore, <i>Cartulaire du Paraclet<\/i> (Collection des principaux cartulaires du dioc\u00e8se de Troyes, 2), 1878, n. 42, p. 57-58 (num\u00e9ris\u00e9e par <a target=\"_blank\" href= \"http:\/\/www.cn-telma.fr\/chartae-galliae\/charte206544\/\"> Chartae Galliae, n. 206544<\/a>)."
        },
        {
            "type": "transcription",
            "value": "<?xml version=\"1.0\" encoding=\"UTF-8\"?>\nGregorius episcopus, servus servorum Dei, dilecto filio .. decano ecclesie sancti Nicolai de Pruvino, Senonensis diocesis, salutem et apostolicam benedictionem.  Significarunt nobis dilecte in Christo filie .. abbatissa et conventus monasterii Paracliti ordinis sancti Benedicti, Trecensis diocesis, quod nonnulli iniquitatis filii, quos prorsus ignorant, decimas, redditus, census, terras, vinos [sic], vineas, prata, pascua, nemora, maneria, molendina, castra, casalia, penciones, legata, libros ecclesiasticos, cruces, calices, ornamenta sacerdotolia, instrumenta publica, et nonnulla alia bona ipsius monasterii tenere et maliciose occultare et occulte detinere presumant, non curantes ea prefatis abbatisse et conventui exhibere in animarum suarum periculum et ipsorum abbatisse et conventus ac monasterii non modicum detrimentum, super quo iidem abbatissa et conventus apostolice Sedis remedium imploraverunt. Quocirca discretioni tue per apostolica scripta mandamus quatinus omnes hujusmodi detentores occultos decimarum, reddituum, censuum et aliorum bonorum predictorum, ex parte nostra, publice in ecclesiis coram populo, per te vel per alium moneas ut infra competentem terminum, quem eis prefixeris, ea predictis abbatisse et conventui a se debita restituant et revelent ac de ipsis plenam et debitam satisfactionem impendant ; et si id non adimpleverint infra alium competentem terminum, quam eis ad hoc duxeris peremptorie prefigendum, ex tunc in eos generalem excommunicacionis sentenciam proferas et eam facias, ubi et quando expedire videris, usque ad satisfactionem condignam, solemniter publicari. Datum Avenione, kalendas februarii, pontificatus nostri anno secundo.\n"
        },
        {
            "type": "sources_manuscrites",
            "value": "E. Troyes, AD Aube (original).",
            "children": {
                "type_source": "Exp\u00e9dition"
            }
        }
    ]
}