{
    "id": 20390,
    "name": "aposcripta-377",
    "type": "acte",
    "url": "http:\/\/telma-chartes.irht.cnrs.fr\/aposcripta\/notice\/20390",
    "project_slug": "aposcripta",
    "project_label": "APOSCRIPTA \u2013 Lettres des papes",
    "user": "lettrespontificalesadmin",
    "last_update": "2020-10-19 16:26:48",
    "licence": "Attribution - Pas d\u2019Utilisation Commerciale - Partage dans les M\u00eames Conditions 3.0 France (CC BY-NC-SA 3.0 FR) ",
    "licence_url": "https:\/\/creativecommons.org\/licenses\/by-nc-sa\/3.0\/fr\/",
    "elements": [
        {
            "type": "pape",
            "value": "Innocent VI (1352-1362)"
        },
        {
            "type": "date_lieu",
            "value": "Avignon"
        },
        {
            "type": "date_libre",
            "value": "8 janvier 1353"
        },
        {
            "type": "analyse",
            "value": "Le pape Innocent VI mande au roi de Naples de seconder les efforts des inquisiteurs de son royaume qui ont re\u00e7u mission de pourchasser les nombreux h\u00e9r\u00e9tiques \u00e9migr\u00e9s des montagnes de l\u2019Embrunois jusque dans la Calabre. \u2014 A l\u2019inquisiteur du royaume de Naples, \u00e0 Alexandre de Padula, Marchesino de Monopoli, Fran\u00e7ois de Messine et Barth\u00e9lemy de Solmone, autres inquisiteurs, il donne ordre de s\u00e9vir contre ces r\u00e9fugi\u00e9s."
        },
        {
            "type": "transcription",
            "value": "<?xml version=\"1.0\" encoding=\"UTF-8\"?>\n In e. m. Bartholomeo de Sulmona, ord. pred.\n"
        },
        {
            "type": "edition",
            "value": "Jean-Marie Vidal, <i>Bullaire de l\u2019Inquisition fran\u00e7aise au XIV<sup>e<\/sup> si\u00e8cle et jusqu'\u00e0 la fin du Grand Schisme<\/i>, Paris : Letouzey et An\u00e9, 1913, n. 213, p. 329-330"
        },
        {
            "type": "sources_manuscrites",
            "value": "<i>Reg. Vat.<\/i>, t. <span class=\"smal-caps\">ccxxxv<\/span>, fol. 9 v\u00b0, 10"
        },
        {
            "type": "sources_manuscrites",
            "value": "Deprez, <i>Innocent VI<\/i> (<i>1352-1362<\/i>), <i>Lettres closes, patentes et curiales se rapportant \u00e0 la France<\/i>, Paris, 1909, n. 14-16 (<i>in ext.<\/i>)."
        },
        {
            "type": "notes_historiques",
            "value": "Louis de Tarente, mari de Jeanne I<sup>re<\/sup>, reine de Naples, couronne roi le 27 mai 1352, mort le 25 mai 1362.",
            "children": {
                "numero_note": "1"
            }
        },
        {
            "type": "notes_historiques",
            "value": "Alexandre de Padula fut institu\u00e9 inquisiteur dans le royaume de Naples en 1352. Qu\u00e9tif et Echard, <i>op. cit.<\/i>, t. <span class=\"smal-caps\">i<\/span>, p. 640.",
            "children": {
                "numero_note": "2"
            }
        },
        {
            "type": "notes_historiques",
            "value": "Marchesino de Monopoli \u00e9tait d\u00e9j\u00e0 inquisiteur en Apulie, en 1343, ainsi qu\u2019il r\u00e9sulte d\u2019un dipl\u00f4me que lui adressait, le 24 novembre de cette ann\u00e9e Jeanne, reine de Naples. Qu\u00e9tif et Echard, <i>op. cit.<\/i>, t. <span class=\"smal-caps\">i<\/span>, p. 616.",
            "children": {
                "numero_note": "3"
            }
        },
        {
            "type": "date",
            "value": "1353\/01\/08",
            "children": {
                "date_deb_annee": "1353",
                "date_deb_mois": "01",
                "date_deb_jour": "08"
            },
            "range": {
                "date_apres": 13530108,
                "date_avant": 13530108
            }
        },
        {
            "type": "genre",
            "value": "Mandement (littere cum filo canapis)"
        },
        {
            "type": "destinataire",
            "value": "Le roi de Naples"
        }
    ]
}