{
    "id": 23953,
    "name": "aposcripta-1133",
    "type": "acte",
    "url": "http:\/\/telma-chartes.irht.cnrs.fr\/aposcripta\/notice\/23953",
    "project_slug": "aposcripta",
    "project_label": "APOSCRIPTA \u2013 Lettres des papes",
    "user": "l_valliere",
    "last_update": "2020-10-19 16:27:20",
    "licence": "Attribution - Pas d\u2019Utilisation Commerciale - Partage dans les M\u00eames Conditions 3.0 France (CC BY-NC-SA 3.0 FR) ",
    "licence_url": "https:\/\/creativecommons.org\/licenses\/by-nc-sa\/3.0\/fr\/",
    "elements": [
        {
            "type": "pape",
            "value": "Alexandre IV (1254-1261)"
        },
        {
            "type": "destinataire",
            "value": "Les archev\u00eaques et \u00e9v\u00eaques du royaume de France ainsi que les \u00e9v\u00eaques de Cambrai, Verdun et Metz"
        },
        {
            "type": "date_libre",
            "value": "III nonas maii, anno tercio"
        },
        {
            "type": "date",
            "value": " 1257\/05\/04",
            "children": {
                "date_deb_jour": "04",
                "date_deb_mois": "05",
                "date_deb_annee": "1257"
            },
            "range": {
                "date_apres": 12570504,
                "date_avant": 12570504
            }
        },
        {
            "type": "date_lieu",
            "value": "Latran"
        },
        {
            "type": "genre",
            "value": "Mandement (littere cum filo canapis)"
        },
        {
            "type": "analyse",
            "value": "Alexander papa IV omnibus Franciae praesulibus necnon Cameracensi, Virdunensi, Metensique episcopis praecipit ut caveant ne pecunia ad subsidium Terrae sanctae legata in alios usus distrahatur."
        },
        {
            "type": "sources_manuscrites",
            "value": "F. FRANCE, Paris, Archives nationales, J 312\/34 (12). Copie authentique (ins\u00e9r\u00e9e dans un vidimus du mois de d\u00e9cembre 1268 donn\u00e9 par le tr\u00e9sorier de Saint-Hilaire de Poitiers).",
            "children": {
                "type_source": "Vidimus",
                "source_edition": ""
            }
        },
        {
            "type": "edition",
            "value": "Ici d'apr\u00e8s Joseph de Laborde, <i>Layettes du Tr\u00e9sor des chartes<\/i>, III, Paris : Henri Plon, 1875 <a target=\"_blank\" href=\"http:\/\/digi.ub.uni-heidelberg.de\/diglit\/teulet1875bd3\/0441\"> [en ligne]<\/a>, n. 4337, p. 355 <a target=\"_blank\"href=\"https:\/\/francearchives.fr\/fr\/facomponent\/6dda7c224e3292800a8a5139fcee2bf878e1747e\">[num\u00e9ris\u00e9e sur le site des Archives de France]<\/a>, d'apr\u00e8s F."
        },
        {
            "type": "transcription",
            "value": "<?xml version=\"1.0\" encoding=\"UTF-8\"?>\nAlexander episcopus, servus servorum Dei, venerabilibus fratribus .. archiepiscopis et episcopis per regnum Francie constitutis, necnon et Cameracensi, Virdunensi et Metensi episcopis salutem et apostolicam benedictionem. Cupientes negocio Terre sancte quo possumus studio subvenire, fraternitati vestre per apostolica scripta mandamus quatinus per vestras civitates et dyoceses inhibere curetis ne legata relicta vel alia quocunque modo deputata vel eciam deputanda succursui dicte Terre in usus alios aliquatenus convertantur, non obstante si aliquibus quod ea convertant in usus alios sit concessum seu quod excommunicari aut interdici non possint per litteras Sedis apostolice que plenam et expressam non fecerint de indulgencia hujusmodi mencionem, sive qualibet alia indulgencia quibuscunque ab eadem Sede concessa generaliter vel divisim seu eciam concedenda per quam presentibus non expressam et totaliter non insertam predicta impediri valeant vel differri, contradictores per censuram ecclesiasticam appellacione postposita compescendo. Nolumus autem quod per hoc indulgenciis et concessionibus factis ab ipsa Sede Hospitalariis et Templariis aliquod prejudicium generetur. Datum Laterani, III nonas maii, pontificatus nostri anno tercio.\n"
        }
    ]
}