{
    "id": 144594,
    "name": "aposcripta-5693",
    "type": "acte",
    "url": "http:\/\/telma-chartes.irht.cnrs.fr\/aposcripta\/notice\/144594",
    "project_slug": "aposcripta",
    "project_label": "APOSCRIPTA \u2013 Lettres des papes",
    "user": "l_valliere",
    "last_update": "2020-10-19 16:39:01",
    "licence": "Attribution - Pas d\u2019Utilisation Commerciale - Partage dans les M\u00eames Conditions 3.0 France (CC BY-NC-SA 3.0 FR) ",
    "licence_url": "https:\/\/creativecommons.org\/licenses\/by-nc-sa\/3.0\/fr\/",
    "elements": [
        {
            "type": "pape",
            "value": "Innocent IV (1243-1254)"
        },
        {
            "type": "destinataire",
            "value": "Le cardinal-diacre de Saint-Georges <i>ad Velum Aureum<\/i> Pietro, l\u00e9gat du Si\u00e8ge apostolique"
        },
        {
            "type": "date_libre",
            "value": "kalendis octobris, anno V"
        },
        {
            "type": "date",
            "value": "1247\/10\/01",
            "children": {
                "date_deb_annee": "1247",
                "date_deb_mois": "10",
                "date_deb_jour": "01"
            },
            "range": {
                "date_apres": 12471001,
                "date_avant": 12471001
            }
        },
        {
            "type": "date_lieu",
            "value": "Lyon"
        },
        {
            "type": "genre",
            "value": "Titre, provisions de b\u00e9n\u00e9fice (littere gratiose, cum filo serico)"
        },
        {
            "type": "analyse",
            "value": "Innocenzo IV a Pietro, cardinale diacono di San Giorgio ad Velum Aureum, legato della sede apostolica : vista la richiesta di Alberto conte del Tirolo e di altri nobili, gli ordina di porre Brunone, canonico di Magdeburgo, a capo della Chiesa trentina."
        },
        {
            "type": "sources_manuscrites",
            "value": "R. CIT\u00c9 DU VATICAN, Archivio segreto Vaticano, <i>Registra Vaticana<\/i> 21, ep. CCXXVIII, fol. 464v.",
            "children": {
                "type_source": "Registre de la chancellerie apostolique"
            }
        },
        {
            "type": "edition",
            "value": "Ici reprise d\u2019Emanuele Curzel, <i>Documenti papali per la storia trentina (fino al 1341)<\/i>, Bologne, 2004 (Annali dell\u2019Istituto storico italo-germanico. Fonti ; 1), n. 23, p. 90-91, d\u2019apr\u00e8s R."
        },
        {
            "type": "edition_autre",
            "value": "Elie Berger, <i>Les Registres d\u2019Innocent IV (1243-1254) <\/i> (Biblioth\u00e8que des \u00c9coles Fran\u00e7aises d\u2019Ath\u00e8nes et de Rome), Paris, 1884-1921, n. 3277, d'apr\u00e8s R."
        },
        {
            "type": "edition_autre",
            "value": "Karl Rodenberg, <i>Epistolae saeculi XIII e regestis Pontificum Romanorum selectae<\/i> (M.G.H.), 3 t., Berlin, 1883-1894, II, n. 434, p. 314-315 <a target=\"_blank\" href=\" https:\/\/www.dmgh.de\/de\/fs1\/object\/display\/bsb00000516_00333.html?sortIndex=040%3A030%3A0002%3A010%3A00%3A00\"> [en ligne]<\/a>, d'apr\u00e8s R."
        },
        {
            "type": "edition_autre",
            "value": "Franz Huter, <i>Tiroler Urkundenbuch. Die Urkunden zur Geschichte des Deutschen Etschlandes und des Vintschgaus<\/i>, III: <i>1231-1253<\/i>, Innsbruck 1957, n. 1209."
        },
        {
            "type": "transcription",
            "value": "<?xml version=\"1.0\" encoding=\"UTF-8\"?>\nPetro, Sancti Georgii ad Velum Aureum diacono cardinali, apostolice Sedis legato. Dilectus filius nobilis vir Albertus, comes de Tirol, et quidam alii nobiles suis nobis litteris intimarunta quod ecclesia Tridentina graviter collapsa est, in spiritualibus et temporalibus diminuta, iuribus, possessionibus et aliis bonis eius iam longo tempore per Fridericum quondam imperatorem oppressis et fere ad nichilum iam redactis, nobis per easdem litteras humiliter supplicantes ut, cum ipsa ecclesia per Brunonem, canonicum Magdeburgensem, virum, ut asserunt, litteratum, providum et discretum et qui de maioribus terre Suewie adherentibus ecclesie traxit originem, possit gubernari utiliter eiusque iura defendi, eum ipsi ecclesie preficeremus in episcopum et pastorem, dicto comite, qui ecclesie prefate dicitur advocatus, una cum eisdem nobilibus ipsius canonici consanguineis et amicis, utpote potentibus, eorum viribus in unum conflatis, canonici eiusdem obtentu ad sublevationem ipsius ecclesie ac iurium defensionem eiusdem proponente intendere ac utiliter et efficaciter laborare. Ideoque mandamus quatinus, si quod de iamdicto canonico asseritur veritate fulcitur et videris ad hoc posse concurrere alia supradicta ecclesiaque predicta de iureb vacat ad presens, de sepedicto canonico auctoritate nostra per tec vel per venerabilem fratrem nostrum .. episcopum Herbipolensem, qui huiusmodi facti notitiam habere dicitur, provideas ecclesie memorate, contradictores et cetera. Datum Lugduni, kalendis octobris, anno Vo.\n"
        },
        {
            "type": "apparat_critique",
            "value": "<i>Reg. Vat.<\/i> intimavit.",
            "children": {
                "numero_note": "a"
            }
        },
        {
            "type": "apparat_critique",
            "value": "Berger <i>e<\/i> Huter <i>omettono<\/i> de iure.",
            "children": {
                "numero_note": "b"
            }
        },
        {
            "type": "apparat_critique",
            "value": "<i>Segue<\/i> vel per te <i>espunto e depennato<\/i>.",
            "children": {
                "numero_note": "c"
            }
        }
    ]
}