{
    "id": 24199,
    "name": "aposcripta-1351",
    "type": "acte",
    "url": "http:\/\/telma-chartes.irht.cnrs.fr\/aposcripta\/notice\/24199",
    "project_slug": "aposcripta",
    "project_label": "APOSCRIPTA \u2013 Lettres des papes",
    "user": "lettrespontificalesadmin",
    "last_update": "2020-10-19 16:27:25",
    "licence": "Attribution - Pas d\u2019Utilisation Commerciale - Partage dans les M\u00eames Conditions 3.0 France (CC BY-NC-SA 3.0 FR) ",
    "licence_url": "https:\/\/creativecommons.org\/licenses\/by-nc-sa\/3.0\/fr\/",
    "elements": [
        {
            "type": "pape",
            "value": "Innocent III (1198-1216)"
        },
        {
            "type": "date_lieu",
            "value": "Segni"
        },
        {
            "type": "date_libre",
            "value": "II  julii, anno quarto"
        },
        {
            "type": "date",
            "value": " 1201\/07\/14",
            "children": {
                "date_deb_annee": "1201",
                "date_deb_mois": "07",
                "date_deb_jour": "14"
            },
            "range": {
                "date_apres": 12010714,
                "date_avant": 12010714
            }
        },
        {
            "type": "analyse",
            "value": "Innocent\u00a0III prend sous sa protection Guillem\u00a0VIII et ses biens\u00a0: il pourra toujours faire c\u00e9l\u00e9brer les offices dans sa chapelle, m\u00eame en cas d\u2019interdit g\u00e9n\u00e9ral, \u00e0 moins que la peine canonique ne soit port\u00e9e contre ses chapelains ou contre lui-m\u00eame."
        },
        {
            "type": "transcription",
            "value": "<?xml version=\"1.0\" encoding=\"UTF-8\"?>\nInnocentius episcopus, servus servorum Dei, dilecto filio, nobili viro Guillelmo, domino Montispessulani, salutem et apostolicam benedictionem. Monet et movet nos tue devotionis sinceritas et sollicitudo continua, qua, sicut accepimus, ferves in operibus pietatis, ut in hiis que Dei sunt favorem tibi apostolicum non negemus.Eapropter, dilecte in Domino fili, tuis justis precibus inclinati, capellam, quam in domo tua inclite recordationis progenitorum tuorum devotione fundatam, in pluribus ampliasti, cum omnibus bonis que in presentiarum rationabiliter possideta, aut in futurum justis modis, prestante Domino, poteritb adipisci, sub beati Petri et nostra protectione suscipimus, et presentis scripti patrocinio communimus, auctoritate presentium indulgentes, ut, cum generale interdictum terre tue fuerit, liceat capellanis ipsius, dum tamen ipsi excommunicati vel interdicti non fuerint, clausis januis, exclusis excommunicatis et interdictis, et te quoque, si te forsan, quod absit, excommunicari contingat, non pulsatis campanis, suppressa voce, officia celebrare divina.Nulli ergo omnino hominum liceat hanc paginam nostre protectionis et concessionis infringere vel ei ausu temerario contraire. Si quis autem hoc attemptare presumpserit, indignationem omnipotentis Dei et beatorum Petri et Pauli, apostolorum ejus, se noverit incursurum.Datum Signie, ii idus julii, pontificatus nostri anno iiii to c.\n"
        },
        {
            "type": "edition",
            "value": "Julien Rouquette, Augustin Villemagne, <i>Bullaire de l'\u00c9glise de Maguelone<\/i>, Paris, Montpellier : Picard, Valat, 1911-1914, I, n. 163-CXXIII, p. 276-276"
        },
        {
            "type": "remarques",
            "value": "  Date. \u2014 <span class=\"small-caps\">Potthast<\/span> indique cette lettre comme \u00e9tant sans date de mois. D\u2019apr\u00e8s notre manuscrit, ce doute est tranch\u00e9\u00a0: elle est du 14\u00a0juillet 1201.\n\n[Rouquette-Villemagne]"
        },
        {
            "type": "apparat_critique",
            "value": "Ms.\u00a0: <i>possidet<\/i>\u00a0; Germain\u00a0: <i>possides<\/i>.",
            "children": {
                "numero_note": "a"
            }
        },
        {
            "type": "apparat_critique",
            "value": "Ms.\u00a0: <i>poterit<\/i>\u00a0; Germain\u00a0: <i>poteris<\/i>.",
            "children": {
                "numero_note": "b"
            }
        },
        {
            "type": "apparat_critique",
            "value": "Ms.\u00a0: <i>IIII<\/i> <sup>to<\/sup>\u00a0; Germain\u00a0: <i>quarto<\/i>.",
            "children": {
                "numero_note": "c"
            }
        },
        {
            "type": "bibliographie_generale",
            "value": "<i>Cart. des Guillems<\/i>, fol.\u00a016\u00a0r\u00b0\u00a0; \u00e9d. <span class=\"small-caps\">Germain<\/span>, p.\u00a063",
            "children": {
                "numero_note": "0"
            }
        },
        {
            "type": "bibliographie_generale",
            "value": "<span class=\"small-caps\">Gariel<\/span>, <i>Series<\/i>, t.\u00a0I, p.\u00a0268",
            "children": {
                "numero_note": "1"
            }
        },
        {
            "type": "bibliographie_generale",
            "value": "<i>Gallia christiana<\/i>, t.\u00a0VI, <i>Instr.<\/i>, p.\u00a0362",
            "children": {
                "numero_note": "2"
            }
        },
        {
            "type": "bibliographie_generale",
            "value": "<span class=\"small-caps\">Migne<\/span>, <i>Innocentii opera<\/i>, t.\u00a0IV, col.\u00a090",
            "children": {
                "numero_note": "3"
            }
        },
        {
            "type": "bibliographie_generale",
            "value": "<span class=\"small-caps\">Potthast<\/span>, n\u00b0\u00a01450",
            "children": {
                "numero_note": "4"
            }
        },
        {
            "type": "bibliographie_generale",
            "value": "<span class=\"small-caps\">F. Fabr\u00e8ge<\/span>, <i>Hist. de Maguelone<\/i>, t.\u00a0I, p.\u00a0321.",
            "children": {
                "numero_note": "5"
            }
        },
        {
            "type": "genre",
            "value": "Titre, g\u00e9n\u00e9ral (littere gratiose, cum filo serico)"
        },
        {
            "type": "destinataire",
            "value": "Le seigneur de Montpellier Guilhem VIII"
        }
    ]
}