{
    "id": 20290,
    "name": "aposcripta-277",
    "type": "acte",
    "url": "http:\/\/telma-chartes.irht.cnrs.fr\/aposcripta\/notice\/20290",
    "project_slug": "aposcripta",
    "project_label": "APOSCRIPTA \u2013 Lettres des papes",
    "user": "lettrespontificalesadmin",
    "last_update": "2020-10-19 16:26:47",
    "licence": "Attribution - Pas d\u2019Utilisation Commerciale - Partage dans les M\u00eames Conditions 3.0 France (CC BY-NC-SA 3.0 FR) ",
    "licence_url": "https:\/\/creativecommons.org\/licenses\/by-nc-sa\/3.0\/fr\/",
    "elements": [
        {
            "type": "pape",
            "value": "Jean XXII (1316-1334)"
        },
        {
            "type": "date_lieu",
            "value": "Avignon"
        },
        {
            "type": "date_libre",
            "value": "12 juin 1332"
        },
        {
            "type": "analyse",
            "value": "Guillem Astre<a class=\"note\" href=\"#note-1\">1<\/a>, de l\u2019ordre des fr\u00e8res mineurs, inquisiteur de Provence, est promu \u00e0 l\u2019\u00e9v\u00each\u00e9 d\u2019Apt, vacant par la translation de Bertrand Acciajoli \u00e0 l\u2019\u00e9v\u00each\u00e9 de Bologne."
        },
        {
            "type": "transcription",
            "value": "<?xml version=\"1.0\" encoding=\"UTF-8\"?>\nGuilelmo Astre, electo Apten. \u2014 Supreme dignitatis fastigio... \u2014 Datum Avinioni, ii idus iunii, anno sextodecimo.\n"
        },
        {
            "type": "edition",
            "value": "Jean-Marie Vidal, <i>Bullaire de l\u2019Inquisition fran\u00e7aise au XIV<sup>e<\/sup> si\u00e8cle et jusqu'\u00e0 la fin du Grand Schisme<\/i>, Paris : Letouzey et An\u00e9, 1913, n. 119, p. 179-181"
        },
        {
            "type": "sources_manuscrites",
            "value": "<i>Reg. Vat.<\/i>, t. <span class=\"smal-caps\">cii<\/span>, n. 1086"
        },
        {
            "type": "sources_manuscrites",
            "value": "Wadding, <i>Reg. Joan. XXII<\/i>, n. <span class=\"smal-caps\">cxlvi<\/span>"
        },
        {
            "type": "sources_manuscrites",
            "value": "Eubel, <i>Bull.<\/i>, n. 984 (<i>in ext.<\/i>)"
        },
        {
            "type": "sources_manuscrites",
            "value": "Alban\u00e8s, <i>Gallia christ. novissima<\/i>, t. <span class=\"smal-caps\">i<\/span> <i>Instr.<\/i>, col. 148 (<i>in ext.<\/i>)."
        },
        {
            "type": "notes_historiques",
            "value": "N. 49, note 3.",
            "children": {
                "numero_note": "1"
            }
        },
        {
            "type": "date",
            "value": "1332\/06\/12",
            "children": {
                "date_deb_annee": "1332",
                "date_deb_mois": "06",
                "date_deb_jour": "12"
            },
            "range": {
                "date_apres": 13320612,
                "date_avant": 13320612
            }
        },
        {
            "type": "genre",
            "value": "Bulle"
        }
    ]
}