{
    "id": 26685,
    "name": "aposcripta-3648",
    "type": "acte",
    "url": "http:\/\/telma-chartes.irht.cnrs.fr\/aposcripta\/notice\/26685",
    "project_slug": "aposcripta",
    "project_label": "APOSCRIPTA \u2013 Lettres des papes",
    "user": "j_theryastruc",
    "last_update": "2020-10-19 16:28:04",
    "licence": "Attribution - Pas d\u2019Utilisation Commerciale - Partage dans les M\u00eames Conditions 3.0 France (CC BY-NC-SA 3.0 FR) ",
    "licence_url": "https:\/\/creativecommons.org\/licenses\/by-nc-sa\/3.0\/fr\/",
    "elements": [
        {
            "type": "pape",
            "value": "Gr\u00e9goire IX (1227-1241)"
        },
        {
            "type": "destinataire",
            "value": "Le prieur et les fr\u00e8res de l'ordre des Pr\u00eacheurs en Autriche"
        },
        {
            "type": "date",
            "value": " 1232\/09\/03",
            "children": {
                "date_deb_jour": "03",
                "date_deb_mois": "09",
                "date_deb_annee": "1232"
            },
            "range": {
                "date_apres": 12320903,
                "date_avant": 12320903
            }
        },
        {
            "type": "date_lieu",
            "value": "Anagni"
        },
        {
            "type": "genre",
            "value": "Bulle"
        },
        {
            "type": "analyse",
            "value": "Ut contra detestabilia et nefanda flagitia viriliter agant fratribus Praedicatoribus in Austria constitutis praescribit [Ripoll]. Gregorius IX papa priori et fratribus Praedicatorum Austriae mandat ut eos qui innaturali vitio Deo suisque fidelibus inimico maculati sint, comminationibus terreant ut resipiscant [Rodenberg]. Priorem et fratres ordinis Praedicatorum in Austria constitutos rogat et obsecrat quatenus cum Theutonia in quibusdam partibus et Austria praecipue innaturali vitio macularetur, noxa labis tam pestiferae laborantes comminationibus terreant [Auvray]."
        },
        {
            "type": "sources_manuscrites",
            "value": "R. CIT\u00c9 DU VATICAN, Archivio segreto Vaticano, <i>Registra Vaticana<\/i> 16, fol. 33, c. 80."
        },
        {
            "type": "edition",
            "value": "Ici reprise de Karl Rodenberg, <i>Epistolae s. XIII e regestis pontificum romanorum selectae<\/i>, 1, Berlin : Weidmann, 1883, n. 482, p. 388-389 <a target=\"_blank\" href=\"http:\/\/www.dmgh.de\/de\/fs1\/object\/display\/bsb00000517_00406.html\">[en ligne]<\/a>, d'apr\u00e8s R."
        },
        {
            "type": "regeste",
            "value": "Potthast, <i>Regesta pontificum Romanorum<\/i>, n. 8995 <a target=\"_blank\" href=\"https:\/\/archive.org\/stream\/RegestaPontificumRomanorum\/\"> [en ligne]<\/a>. "
        },
        {
            "type": "transcription",
            "value": "<?xml version=\"1.0\" encoding=\"UTF-8\"?>\n.. priori et fratribus ordinis Predicatorum in Austria constitutis. Regio Theutonie in virtutum preminentia olim extimata regina, quia incedendo via regia et religionis opus ac rectitudinis amplexando Regem regum dominum Iesum Christum, puritate fidei et sancte caritatis operibus multipliciter honorabat, nunc, sicut dolentes audivimus et gementes referimus, innaturali vitio Deo suisque fidelibus ineffabiliter inimico peccatis exigentibus ita in quibusdam partibus, et Austria precipue, maculata dicitur, quod quasi lepre perfusa turpitudine reputatur. Verum quia sordea tam horribili vestri virtute sermonis auctore Deo sagaciter expianda vobis scripta nostra direximus confidenter, universitatem vestram rogamus et obsecramus in Domino Iesu Christo, per apostolica vobis scripta mandantes quatinus illos qui noxab labis tam pestifere laborantes, ut Sodoma peccata sua predicent nec abscondantc1 quasi viam vite non videant, nec verbum salutis audiant obvoluti tenebris peccatorum, nisi vestris salutaribus monitis eruditi resipiscere curaverint, ab huiusmodi perpetratione facinoris omnino detestabilis et iniqui ipsos comminationibus asperis nostro nomine terreatis, viva voce dicentes quod nobis de mandato nostro in scriptis eorum expressa nomina transmittetis, ut in ipsos velut in Crucifixi perfidos inimicos et christiane fidei contemptores ultionis ecclesiastice gladium exeramus, et faciamus eosdem ab omnibus sicut hereticos evitari. Taliter autem quod in istis et aliis litteris duximus exprimendum vestra diligentia prosequatur quod inde sit vobis felicitatis eterne perceptio, et devotionem vestram Sedes apostolica favore continuo prosequatur.  Data Anagnie, III nonas septembris, anno sexto.\n"
        },
        {
            "type": "apparat_critique",
            "value": "<i>an<\/i> pro sorde <i>? Rodenberg<\/i>. Pro sorde <i>Ripoll<\/i>.",
            "children": {
                "numero_note": "a"
            }
        },
        {
            "type": "apparat_critique",
            "value": "noxe  <i>R.<\/i> noxa <i>Ripoll<\/i>.",
            "children": {
                "numero_note": "b"
            }
        },
        {
            "type": "apparat_critique",
            "value": "abscondunt <i>R.<\/i> abscondunt <i>Ripoll<\/i>.",
            "children": {
                "numero_note": "c"
            }
        },
        {
            "type": "regeste",
            "value": "Auvray, <i>Les registres de Gr\u00e9goire IX<\/i>, Paris : \u00c9cole Fran\u00e7aise de Rome, 1896-1955, n. 864."
        },
        {
            "type": "regeste",
            "value": "Fritz Schillmann, <i>Die Formularsammlung des Marinus von Eboli. Untersucht und Bearbeitet<\/i>. I. <i>Entstehung und Inhalt<\/i>, Rome : W. Regenberg (Bibliothek des Preussichen historischen Instituts in Rom, 26), 1929, n. 1318."
        },
        {
            "type": "edition_autre",
            "value": "Thomas Ripoll, <i>Bullarium ordinis Praedicatorum<\/i>, I, Rome : Ex typographia Hieronymi Mainardi, 1729, n. 54, p. 39-40, d'apr\u00e8s F."
        },
        {
            "type": "sources_manuscrites",
            "value": "F. <i>Ex Arch. Ord. lib. A. fol. 349<\/i> (Ripoll)."
        },
        {
            "type": "notes_historiques",
            "value": "Is 3, 9 : <i>Agnitio vultus eorum respondit eis et peccatum suum quasi Sodomae praedicaverunt nec absconderunt. Vae animae eorum, quoniam reddita sunt eis mala<\/i>.",
            "children": {
                "numero_note": "1"
            }
        }
    ]
}