{
    "id": 147714,
    "name": "aposcripta-7336",
    "type": "acte",
    "url": "http:\/\/telma-chartes.irht.cnrs.fr\/aposcripta\/notice\/147714",
    "project_slug": "aposcripta",
    "project_label": "APOSCRIPTA \u2013 Lettres des papes",
    "user": "f_delerue",
    "last_update": "2020-10-19 16:39:35",
    "licence": "Attribution - Pas d\u2019Utilisation Commerciale - Partage dans les M\u00eames Conditions 3.0 France (CC BY-NC-SA 3.0 FR) ",
    "licence_url": "https:\/\/creativecommons.org\/licenses\/by-nc-sa\/3.0\/fr\/",
    "elements": [
        {
            "type": "pape",
            "value": "Innocent IV (1243-1254)"
        },
        {
            "type": "destinataire",
            "value": "Le pr\u00e9v\u00f4t de Santa Maria di Voltaggio (dioc\u00e8se de G\u00eanes), Stephano"
        },
        {
            "type": "date_libre",
            "value": "IV kalendas decembris, anno nono"
        },
        {
            "type": "date",
            "value": "1251\/11\/28",
            "children": {
                "date_deb_annee": "1251",
                "date_deb_mois": "11",
                "date_deb_jour": "28"
            },
            "range": {
                "date_apres": 12511128,
                "date_avant": 12511128
            }
        },
        {
            "type": "date_lieu",
            "value": "P\u00e9rouse"
        },
        {
            "type": "genre",
            "value": "Mandement (littere cum filo canapis)"
        },
        {
            "type": "analyse",
            "value": "Innocenzo IV ordina a [Stefano], preposito di S. Maria di Voltaggio nella diocesi di Genova, di provvedere un beneficio ecclesiastico nella stessa diocesi allo studente Ruffinetto, figlio di Ruffina del Bosco, residente a Voltaggio, che desidera entrare nella carriera ecclesiastica."
        },
        {
            "type": "sources_manuscrites",
            "value": "F<sup>1<\/sup>. ITALIE, G\u00eanes, Archivio di Stato di Genova, Cartolare 28 c. 49v. Copia dall'originale inserta in atto del 9 gennaio 1252, rogato a Genova dal notaio Filippo di Sauro.",
            "children": {
                "type_source": "Autre copie m\u00e9di\u00e9vale"
            }
        },
        {
            "type": "sources_manuscrites",
            "value": "F<sup>2<\/sup>. Copia dall'originale in lettera esecutoria, manca.",
            "children": {
                "type_source": "Autre copie m\u00e9di\u00e9vale"
            }
        },
        {
            "type": "edition",
            "value": "Ici reprise de Franco Guerello,<i> Lettere di Innocenzo IV dai cartolari notarili genovesi<\/i>, Rome : Pontificia Universit\u00e0 Gregoriana, 1961, n. 81, p. 117-118, d'apr\u00e8s F<sup>1<\/sup>."
        },
        {
            "type": "regeste",
            "value": "Arturo Ferretto, \u00ab Documenti genovesi di Novi e valle Scrivia \u00bb, <i>Biblioteca della Societa\u0300 storica subalpina<\/i>, Pinerolo, Brignolo, 1909, n. 726, p. 184, d'apr\u00e8s F<sup>1<\/sup>."
        },
        {
            "type": "transcription",
            "value": "<?xml version=\"1.0\" encoding=\"UTF-8\"?>\nInnocentius episcopus, servus servorum Dei, dilecto filio preposito ecclesie Sancte Marie de Vultabio, Ianuensis diocesis, salutem et apostolicam benedictionem. Volentes dilectum filium Rufinetum, scolarem, natum nobilis mulieris Rufine de Bosco, in castro Vultabio commorantis, favore prosequi gratie specialis, discretioni tue per apostolica scripta mandamus quatinus ipsum, clericali ascribi milicie sicut asserit cupientem, in aliqua ecclesiarum civitatis vel diocesis Ianuensis auctoritate nostra facias per te vel per alium in canonicum vel clericum recipi et in fratrem, sibique de prebenda vel beneficio, eciam si curam habeat animarum et vacat ad presens vel quam primum ad id se facultas obtulerit, provideri, non obstantibus certo canonicorum vel clericorum numero, iuramento vel confirmacione sedis apostolice vel quocumque alio munimine roborato, aut si direximus in ecclesia in qua sibi providendum decreveris scripta nostra pro aliis, quibus nolumus auctoritate presencium preiudicium generari, aut si aliqui ad mandatum legatorum sedis eiusdem vel capituli seu clericorum ipsius ecclesie spontanea voluntate sunt in ipsa recepti, quibus eum in assecutione prebende volumus, ut de iurea fuerit, anteferri, aut qualibet indulgentia dicte sedis per quam in nostris litteris non expressam seu totaliter non insertam huiusmodi gratia impediri valeat vel differri, contradictores per censuram ecclesiasticam, appellatione post posita, compescendo. Datum Perusii, IIII kalendas decembris, pontificatus nostri anno nono.\n"
        },
        {
            "type": "apparat_critique",
            "value": "<i>In D. segue<\/i> deberet <i>depennato<\/i>.",
            "children": {
                "numero_note": "a"
            }
        },
        {
            "type": "sources_manuscrites",
            "value": "G. Copia di F<sup>2<\/sup> non datata inserta in atto del 23 febbraio 1252, rogato a Genova dal notaio Filippo di Sauro.",
            "children": {
                "type_source": "Autre copie m\u00e9di\u00e9vale"
            }
        }
    ]
}