{
    "id": 20851,
    "name": "aposcripta-838",
    "type": "acte",
    "url": "http:\/\/telma-chartes.irht.cnrs.fr\/aposcripta\/notice\/20851",
    "project_slug": "aposcripta",
    "project_label": "APOSCRIPTA \u2013 Lettres des papes",
    "user": "lettrespontificalesadmin",
    "last_update": "2020-10-19 16:26:53",
    "licence": "Attribution - Pas d\u2019Utilisation Commerciale - Partage dans les M\u00eames Conditions 3.0 France (CC BY-NC-SA 3.0 FR) ",
    "licence_url": "https:\/\/creativecommons.org\/licenses\/by-nc-sa\/3.0\/fr\/",
    "elements": [
        {
            "type": "pape",
            "value": "Alexandre III (1159-1181)"
        },
        {
            "type": "date_lieu",
            "value": "n.c."
        },
        {
            "type": "date_libre",
            "value": "1159-81"
        },
        {
            "type": "analyse",
            "value": "Alexander\u00a0III prohibet, ne scholae Bituricenses vendantur neve quis sine licentia Odonis archischoli in urbe vel suburbiis \u201elegere\u201c audeat."
        },
        {
            "type": "transcription",
            "value": "<?xml version=\"1.0\" encoding=\"UTF-8\"?>\nAlexander etc.a Odoni archiscolob Bituricensi. Si quando postulatur a nobis, quod rationi conveniat et consonet honestati, petentium desideriis clementius nos convenit condescendere et eorum vota effectu prosequente complere. Tuis itaque petitionibus annuentes et prosequentes officii nostri debitum, auctoritate apostolica prohibemus, ne tu vel quilibet alius scolas Bituricenses audeat vendere nec alicui liceat sine licentia tua vel successorum tuorum, dummodo scole non vendantur, in urbe vel suburbiis legere, nisi forte aliquis canonicorum alicuius ecclesiae Bituricensis concanonicis suis aut clericis de choro ipsius ecclesiae tantum legere voluerit. Nulli ergo hominum liceat, hanc paginam etc.c d e \n"
        },
        {
            "type": "edition",
            "value": "Samuel Loewenfeld, <i>Epistolae pontificum romanorum ineditae<\/i>, Leipzig : Veit et Comp., 1885, n. 339, p. 202-203"
        },
        {
            "type": "sources_manuscrites",
            "value": "F. FRANCE, Paris, Biblioth\u00e8que nationale de France, Chartul. Bituric. s.\u00a0<span class=\"smal-caps\">xiii.<\/span> ms. lat. nouv. acqu.\u00a01274. fol.\u00a018.",
            "children": {
                "type_source": "Collection canonique, collection de d\u00e9cr\u00e9tales"
            }
        },
        {
            "type": "apparat_critique",
            "value": "<i>sic cod.<\/i>",
            "children": {
                "numero_note": "a"
            }
        },
        {
            "type": "apparat_critique",
            "value": "archicole <i>c.<\/i>",
            "children": {
                "numero_note": "b"
            }
        },
        {
            "type": "apparat_critique",
            "value": "<i>sic cod.\u00a0; cetera desunt.<\/i>",
            "children": {
                "numero_note": "c"
            }
        },
        {
            "type": "date",
            "value": "apr\u00e8s 1159 - avant 1181",
            "children": {
                "date_deb_annee": "1159",
                "date_deb_type": "apres",
                "date_fin_annee": "1181",
                "date_fin_type": "avant"
            },
            "range": {
                "date_apres": 11590000,
                "date_avant": 11819999
            }
        },
        {
            "type": "genre",
            "value": "Bulle"
        },
        {
            "type": "destinataire",
            "value": "L'\u00e9col\u00e2tre de Bourges"
        }
    ]
}