{
    "id": 148708,
    "name": "aposcripta-6291",
    "type": "acte",
    "url": "http:\/\/telma-chartes.irht.cnrs.fr\/aposcripta\/notice\/148708",
    "project_slug": "aposcripta",
    "project_label": "APOSCRIPTA \u2013 Lettres des papes",
    "user": "j_theryastruc",
    "last_update": "2020-10-19 16:39:48",
    "licence": "Attribution - Pas d\u2019Utilisation Commerciale - Partage dans les M\u00eames Conditions 3.0 France (CC BY-NC-SA 3.0 FR) ",
    "licence_url": "https:\/\/creativecommons.org\/licenses\/by-nc-sa\/3.0\/fr\/",
    "elements": [
        {
            "type": "pape",
            "value": "Jean XXII (1316-1334)"
        },
        {
            "type": "date_libre",
            "value": "n. c."
        },
        {
            "type": "date",
            "value": "1317\/01\/18",
            "children": {
                "date_deb_jour": "18",
                "date_deb_mois": "01",
                "date_deb_annee": "1317"
            },
            "range": {
                "date_apres": 13170118,
                "date_avant": 13170118
            }
        },
        {
            "type": "date_lieu",
            "value": "Avignon"
        },
        {
            "type": "genre",
            "value": "Lettre, g\u00e9n\u00e9ral (apr\u00e8s 1198, littere cum filo canapis)"
        },
        {
            "type": "analyse",
            "value": "Regi de muneribus quae in festo Circumcisionis ipsi miserat, gratias agit sub forma ampliori [Coulon]."
        },
        {
            "type": "sources_manuscrites",
            "value": "R. CIT\u00c9 DU VATICAN,  Archivio segreto Vaticano, <i>Registra Vaticana<\/i> 110, pars prima, c. 47, fol. 14.",
            "children": {
                "type_source": "Registre de la chancellerie apostolique"
            }
        },
        {
            "type": "edition",
            "value": "Ici reprise d'Auguste Coulon, \u00ab Un pr\u00e9sent de Philippe V, roi de France, au pape Jean XXII \u00bb, <i>M\u00e9langes d'arch\u00e9ologie et d'histoire de l\u2019\u00c9cole fran\u00e7aise de Rome<\/i>, 1894, p. 611-614 <a target=\"_blank\" href=\" http:\/\/www.persee.fr\/doc\/mefr_0223-4874_1894_num_14_1_6813\"> [en ligne]<\/a>, \u00e0 la p. 614."
        },
        {
            "type": "transcription",
            "value": "<?xml version=\"1.0\" encoding=\"UTF-8\"?>\nCarissimo in Christo filio Philippo, regi Francie et Navarre illustri.1. Presentata nobis nuper in festo Circumcisionis dominice grandia tue serenitatis munera, ipsa quidem materia nec minus opere superante in plerisque materiam pretiosa, affectu grato suscepimus, que singulariter sub propriis designationibus volumus presentibus exprimi, ne illa sub generalitate transcurrendo silentio, parvi pendere videremus. Recepimus etenim unum pulcrum ciphum de auro coopertum cum esmaltis, ac robinos et [s]maragdos. Item potum ad vinum de auro seminatum esmaltis et unum ciphum cum coopertorio similis materie et operis. Item unum ciphum ad tres pedes, coopertum cum esmaltis viridibus ad foliagium elevatum de argento et unum potum ad aquam, materie operis consimilis, quos quidem ciphum et potum in quamdam excellentie tue memoriam nostro statim ibidem cotidiano usui duximus deputandos. Item duo pulcra barrilia de nigro marmore, ligata circulis argenteis deauratis, ad esmalta Francie et Navarre. Item alia duo barrilia pulcra de alabaustro [sic] ad corrigias de sirico viridi. Recepimus etiam duos magnos smaragdos, duos pulcros robinos et duos pulcros saphiros, singulos singulis anulis decenter insertos, ac unum pulcrum speculum de calibe non parum conferens virtuti visive. Set et duo recepimus lingaria, unum videlicet de auro pulcherrimum, ad sex linguas serpentinas, artificiose seminatum in habundantia robinis, smaragdis et perllis, aliud vero antiquum de argento ad lingas magnas XI serpentinas. Per horum officiosam diversitatem tuam ad nos filialem gratanter advertimus caritatem, dum per illa non solum in hiis que ad comunem usum et ornatum pertinere noscuntur, quin etiam in illis que visui conferunt et produnt veneficorum insidiis, te nobis voluisse prospicere contemplamus, tuam exinde liberalitatem uberibus gratiarum actionibus prosequentes. Datum1.\n"
        },
        {
            "type": "notes_historiques",
            "value": "Voir APOSCRIPTA n. 6292.",
            "children": {
                "numero_note": "1"
            }
        },
        {
            "type": "destinataire",
            "value": "Le roi de France Philippe V le Long"
        },
        {
            "type": "edition_autre",
            "value": "Auguste Coulon, <i>Jean XXII . Lettres secr\u00e8tes et curiales (relatives \u00e0 la France)<\/i>, n. 985."
        },
        {
            "type": "date",
            "value": "1318\/01\/18",
            "children": {
                "date_deb_annee": "1318",
                "date_deb_mois": "01",
                "date_deb_jour": "18"
            },
            "range": {
                "date_apres": 13180118,
                "date_avant": 13180118
            }
        },
        {
            "type": "date",
            "value": "1319\/01\/18",
            "children": {
                "date_deb_annee": "1319",
                "date_deb_mois": "01",
                "date_deb_jour": "18"
            },
            "range": {
                "date_apres": 13190118,
                "date_avant": 13190118
            }
        },
        {
            "type": "date",
            "value": "1320\/01\/18",
            "children": {
                "date_deb_annee": "1320",
                "date_deb_mois": "01",
                "date_deb_jour": "18"
            },
            "range": {
                "date_apres": 13200118,
                "date_avant": 13200118
            }
        }
    ]
}