{
    "id": 25094,
    "name": "aposcripta-2191",
    "type": "acte",
    "url": "http:\/\/telma-chartes.irht.cnrs.fr\/aposcripta\/notice\/25094",
    "project_slug": "aposcripta",
    "project_label": "APOSCRIPTA \u2013 Lettres des papes",
    "user": "lettrespontificalesadmin",
    "last_update": "2020-10-19 16:27:40",
    "licence": "Attribution - Pas d\u2019Utilisation Commerciale - Partage dans les M\u00eames Conditions 3.0 France (CC BY-NC-SA 3.0 FR) ",
    "licence_url": "https:\/\/creativecommons.org\/licenses\/by-nc-sa\/3.0\/fr\/",
    "elements": [
        {
            "type": "pape",
            "value": "Innocent II (1130-1143)"
        },
        {
            "type": "destinataire",
            "value": "Autun (Saint-Nazaire) ( chapitre cath\u00e9dral de)",
            "children": {
                "numero_note": "0"
            }
        },
        {
            "type": "date_lieu",
            "value": "n.c."
        },
        {
            "type": "date_libre",
            "value": "1132, 26 f\u00e9vrier"
        },
        {
            "type": "date",
            "value": " 1132\/02\/26",
            "children": {
                "date_deb_annee": "1132",
                "date_deb_mois": "02",
                "date_deb_jour": "26"
            },
            "range": {
                "date_apres": 11320226,
                "date_avant": 11320226
            }
        },
        {
            "type": "analyse",
            "value": "Innocent 2 pape<br\/>Le pape Innocent II confirme le Chapitre d\u2019Autun dans la possession d\u2019un terrain qui lui avait \u00e9t\u00e9 conc\u00e9d\u00e9 par Hugues II duc de Bourgogne, pour construire l\u2019\u00e9glise de Saint-Lazare; des terres de Tillenay, d\u2019Ouge et de Champdostre; des \u00e9glises de Reclesne et de Laizy, et de certaines propri\u00e9t\u00e9s situ\u00e9es au territoire de Saint-Brice en Berry."
        },
        {
            "type": "transcription",
            "value": "<?xml version=\"1.0\" encoding=\"UTF-8\"?>\nInnocentius servus servorum Dei dilectis filiis Eduensis ecclesi\u00e6 canonicis tam pr\u00e6sentibus quam futuris in perpetuum. Officii nostri nos hortatur auctoritas pro ecclesiarum statu satagere et earum quieti et utilitati salubriter, auxiliante Domino, providere. Quod igitur, dilecti in Christo filii, a nobis humiliter postulastis ut videlicet possessiones et bona qu\u00e6 ad jus ecclesiarum beatorum Nazarii et Lazari pertinent, auctoritate apostolica firmaremus, venerabilis fratris nostri Stephani episcopi vestri discreti siquidem et sanct\u00e6 roman\u00e6 Ecclesi\u00e6 amatoris viri precibus inclinati, vestris petitionibus duximus annuendum. Statuimus enim ut quascumque possessiones, qu\u00e6cumque bona predict\u00e6 ecclesi\u00e6 in pr\u00e6sentiarum juste et canonice possident, aut in futurum concessione pontificum, liberalitate regum vel principum, oblatione fidelium, seu aliis justis modis, pr\u00e6stante Domino, poterunt adipisci, firma vobis in perpetuum et illibata permaneant. In quibus h\u00e6c propriis nominibus adnotanda subjunximus: terram scilicet in qua beati Lazari ecclesia sita est quemadmodum certis finibus noscitur limitata: ex uno siquidem latere via publica est qu\u00e6 ab ejusdem castri porta ante januas ecclesi\u00e6 recta extenditur usque ad claustrum canonicorum; inde derivatur alia publica via in civitate euntibus Rebellum, qu\u00e6 ex alio latere terminus est supradict\u00e6 terr\u00e6 ad quadrivium quod sancti Quintini appellatur. Alia nichilominus publica via qu\u00e6 predictam castri portam ingredientes ducit ad dexteram ilico recta sed postmodum obliquata similiter terminus est prefat\u00e6 terr\u00e6 usque ad supradictum sancti Quintini quadrivium; quam immunem ab omnibus exactionibus et consuetudinibus liberam ab illustri viro Hugone Burgundi\u00e6 duce vobis concessam pr\u00e6sentis scripti pagina confirmamus; Tyliniacensem, Candostrensem atque Ulgensem ecclesias cum omnibus earum pertinentiis quas bon\u00e6 memori\u00e6 Gualterius Cabillonensis episcopus, salvo siquidem sinodali jure, universitati vestr\u00e6 restituit atque concessit; ecclesias beat\u00e6 Mari\u00e6 de Roclena cum terra pro qua Guillelmus cantor vobis statutum censum annualiter persolvebat; ecclesiam de Lasiaco et terram in eadem potestate sitam cum hominibus, molendinis, piscariis et consuetudinibus qu\u00e6 Gualterius de Glana pro anim\u00e6 su\u00e6 remedio vobis tradidit et postmodum Aldone illustri viro idipsum nichilominus collaudante; in territorio Bituricensi apud castrum sancti Bricii quindecim solidos et obolum a monachis ipsius loci vobis annualiter persolvendos. Decernimus ergo ut nulli omnino hominum liceat pr\u00e6fatas ecclesias temere perturbare aut earum possessiones auferre, vel oblatas retinere aut minuere aut aliquibus molestiis fatigare, sed omnia integra conserventur vestris usibus profutura, salva utique Eduensis episcopi justitia et reverentia. Si qua igitur in futurum ecclesiastica secularisve persona hanc nostr\u00e6 constitutionis paginam sciens contra eam temere venire temptaverit, secundo tertiove commonita, si non satisfactione congrua emendaverit, potestatis honorisque sui dignitate careat reamque se divino judicio existere de perpetrata iniquitate cognoscat et a sacratissimo corpore et sanguine Dei et Domini Redemptoris nostri Jesu Christi aliena fiat, atque in extremo examine district\u00e6 ultioni subjaceat: conservantes autem, intervenientibus beatorum Apostolorum, meritis, omnipotentis Dei gratia \u00e6tern\u00e6 felicitatis pr\u00e6mia consequantur. Amen. Amen. Ego Innocentius catholic\u00e6 Ecclesi\u00e6 episcopus subscripsi. Ego Matheus Albanensis episcopus subscripsi. Ego Johannes tituli sancti Chrysogonis presbyter cardinalis subscripsi. Ego Romanus diaconus cardinalis SS. Sergei et Bacchi subscripsi. Datum Lugduni per manum Aimerici sanct\u00e6 roman\u00e6 Ecclesi\u00e6 diaconi cardinalis et cancellarii, IIII kal. martii, indictione X, incarnationis vero Dominic\u00e6 anno MCXXXII, pontificatus autem domni Innocentii pap\u00e6 II anno III.\n"
        },
        {
            "type": "edition",
            "value": "Ici tir\u00e9e du projet <i>CBMA - Corpus Burgundiae Medii Aevi<\/i>, document 642. Site du projet Corpus de la Bourgogne du Moyen \u00c2ge, [En ligne] <a href=\"http:\/\/www.cbma-project.eu\" target=\"_blank\">http:\/\/www.cbma-project.eu<\/a>  "
        },
        {
            "type": "sources_manuscrites",
            "value": "\u00e0 renseigner. Texte pr\u00e9c\u00e9d\u00e9 de la rubrique: <i>PRIVILEGIUM INNOCENTII PAP\u00c6.<\/i>"
        },
        {
            "type": "remarques",
            "value": ""
        },
        {
            "type": "edition_autre",
            "value": "Ici reprise d\u2019Anatole de Charmasse, <i>Cartulaire de l\u2019\u00e9glise d\u2019Autun<\/i>,\u00a0I, Paris\u00a0: Durand, 1865 <a href=\"https:\/\/archive.org\/details\/bub_gb_JwpoAAAAMAAJ\" target=\"_blank\">[en ligne]<\/a>, r\u00e9imp. Gen\u00e8ve\u00a0: M\u00e9gariotis Reprints, 1978, I, p. 5-7, n\u00b0 IV.",
            "children": {
                "numero_note": "0"
            }
        },
        {
            "type": "genre",
            "value": "Bulle"
        }
    ]
}