{
    "id": 26176,
    "name": "aposcripta-3255",
    "type": "acte",
    "url": "http:\/\/telma-chartes.irht.cnrs.fr\/aposcripta\/notice\/26176",
    "project_slug": "aposcripta",
    "project_label": "APOSCRIPTA \u2013 Lettres des papes",
    "user": "lettrespontificalesadmin",
    "last_update": "2020-10-19 16:27:55",
    "licence": "Attribution - Pas d\u2019Utilisation Commerciale - Partage dans les M\u00eames Conditions 3.0 France (CC BY-NC-SA 3.0 FR) ",
    "licence_url": "https:\/\/creativecommons.org\/licenses\/by-nc-sa\/3.0\/fr\/",
    "elements": [
        {
            "type": "pape",
            "value": "Urbain II (1088-1099)"
        },
        {
            "type": "date_lieu",
            "value": "Angers"
        },
        {
            "type": "date_libre",
            "value": "1096 Februar 10"
        },
        {
            "type": "date",
            "value": " 1096\/02\/10",
            "children": {
                "date_deb_annee": "1096",
                "date_deb_mois": "02",
                "date_deb_jour": "10"
            },
            "range": {
                "date_apres": 10960210,
                "date_avant": 10960210
            }
        },
        {
            "type": "analyse",
            "value": "Urban II befiehlt dem Bischofe Philipp von Ch\u00e2lons-sur-Marne, def\u00fcr zu sorgen, dass seine Sprengelangeh\u00f6rigen von Vergewaltigungen des Priorats St.-Nicolas (D. Ch\u00e2lons) abstehen und deswegen Genugthuung leisten, ferner ersucht er ihn, das Priorat ruhig dem Abte von St.-Vanne (D. Verdun) unterthan sein zu lassen und seinen Bruder, den Grafen Hugo von Champagne, zu bitten, den Ort zu sch\u00fctzen."
        },
        {
            "type": "transcription",
            "value": "<?xml version=\"1.0\" encoding=\"UTF-8\"?>\nUrbanus episcopus servus servorum dei dilecto fratri Ph(ilippo), Cataluoduensi episcopo1, salutem et apostolicam benedictionem. Frater iste, praesentium portitor, apud nos conquestus est, et se et fratres suos a quibusdam parrochianis tuis, tam clericis quam laicis, in ecclesia sancti Nicolai, constructa in silva quae dicitur Lugolli2, multis iniuriis affectos et eorum priorem de eadem ecclesia exturbatum. Quam ob rem dilectioni tuae praesentia scripta dirigimus praecipientes, ut eosdem parochianos tuos super huiusmodi iniuriis ipsis fratribus satisfacere et in posterum cessare compellas. De cetero etiam rogamus, ut fratres ipsos pro amore beati Petri et nostro salvationum tuarum munimine tuearis et eos sub dispositione venerabilis Radulfi, Virdunensis abbatis3, quiete et stabiliter facias permanere ; fratrem quoque tuum Hugonem comitem4 tam per nos quam per te rogatum volumus, ut eundem locum pro animae suae salute tueatur et protegat et infestatores eius brachio suae potestatis cohibeat. \u2014 Data Andegavi, iiii Idus Februarii.\n"
        },
        {
            "type": "edition",
            "value": "Julius von Pflugk-Harttung, <i>Acta pontificum Romanorum inedita<\/i>, T\u00fcbingen, 1880, I, n. 67, p. 64"
        },
        {
            "type": "sources_manuscrites",
            "value": "Abschriften des MS. lat. 17,639 fol. 67"
        },
        {
            "type": "sources_manuscrites",
            "value": "5214 p. 182"
        },
        {
            "type": "sources_manuscrites",
            "value": "5435 fol. 57"
        },
        {
            "type": "sources_manuscrites",
            "value": "MS. Moreau 35 fol. 215 nach dem Cart. de l\u2019\u00e9gl. de Verdun fol. 182, in der Bibl. Nat. zu Paris."
        },
        {
            "type": "remarques",
            "value": ""
        },
        {
            "type": "notes_historiques",
            "value": "<i>Philipp de Champagne, Bischof von Ch\u00e2lons-sur-Marne, 1095\u20131100.<\/i>",
            "children": {
                "numero_note": "1"
            }
        },
        {
            "type": "notes_historiques",
            "value": "<i>Die gew\u00f6hnliche Form ist Luviz, vergl. Annuaire Historique<\/i> (<i>de la soci\u00e9t\u00e9 de l\u2019hist. de France<\/i>) <i>1838 p. 175.<\/i>",
            "children": {
                "numero_note": "2"
            }
        },
        {
            "type": "notes_historiques",
            "value": "<i>Rudolf I, Abt von St.-Vanne, 1075\u20131099.<\/i>",
            "children": {
                "numero_note": "3"
            }
        },
        {
            "type": "notes_historiques",
            "value": "<i>Hugo, Graf von Champagne, 1093\u20131125. Vergl. auch d\u2019Arbois de Jubain-ville, Hist. des comtes de Champagne III p. 425.<\/i>",
            "children": {
                "numero_note": "4"
            }
        },
        {
            "type": "genre",
            "value": "Bulle"
        }
    ]
}