{
    "id": 149678,
    "name": "aposcripta-9241",
    "type": "acte",
    "url": "http:\/\/telma-chartes.irht.cnrs.fr\/aposcripta\/notice\/149678",
    "project_slug": "aposcripta",
    "project_label": "APOSCRIPTA \u2013 Lettres des papes",
    "user": "lettrespontificalesadmin",
    "last_update": "2020-10-19 16:40:02",
    "licence": "Attribution - Pas d\u2019Utilisation Commerciale - Partage dans les M\u00eames Conditions 3.0 France (CC BY-NC-SA 3.0 FR) ",
    "licence_url": "https:\/\/creativecommons.org\/licenses\/by-nc-sa\/3.0\/fr\/",
    "elements": [
        {
            "type": "pape",
            "value": "Alexandre IV (1254-1261)"
        },
        {
            "type": "destinataire",
            "value": "Henrico electo Spirensi"
        },
        {
            "type": "date_libre",
            "value": "XVI kalendas aprilis, anno secundo"
        },
        {
            "type": "date",
            "value": " 1256\/03\/17",
            "children": {
                "date_deb_annee": "1256",
                "date_deb_mois": "03",
                "date_deb_jour": "17"
            },
            "range": {
                "date_apres": 12560317,
                "date_avant": 12560317
            }
        },
        {
            "type": "date_lieu",
            "value": "Lateran."
        },
        {
            "type": "sources_manuscrites",
            "value": "R. CIT\u00c9 DU VATICAN, Archivio Segreto Vaticano, <hi rend=\"italic\">Registra Vaticana<\/hi> ... Al.\u00a0IV Reg. Vol.\u00a0I, 155-156; Lib.\u00a0II, 200. Pertzii exemplar contulimus cum Regestis.",
            "children": {
                "type_source": "Registre de la chancellerie apostolique"
            }
        },
        {
            "type": "genre",
            "value": "Mandement (littere cum filo canapis)"
        },
        {
            "type": "analyse",
            "value": "Alexander IV papa Henrico electo Spirensi confirmat arbitrium, a tribus cardinalibus in controversia de episcopatu Herbipolensi exorta a. 1256, Ian. 4 latum, per quod Iringo episcopo Herbipolensi episcopatus ille adiudicatus sit, Henrico vero damna illata resarciri debeant [Rodenberg]."
        },
        {
            "type": "transcription",
            "value": "<?xml version=\"1.0\" encoding=\"UTF-8\"?>\nHenrico electo Spirensi.Ea, que iudicio etc. . . . . . . . . . . confirmamus etc. usque: communimus, tenorem instrumenti eiusdem presentibus de verbo ad verbum inseri facientes; qui talis est:Universis presentes litteras inspecturis miseratione divina frater H[ugo] tituli Sancte Sabine presbyter, R[iccardus] Sancti Angeli et P[etrus] Sancti Georgii ad Velum Aureum diaconi cardinales salutem in Domino. Quia superni iudicis oculus iustitiam inspicit et vultus eius desiderat equitatem, iudicum terrenorum interesse dinoscitur, ut similiter et illam inspiciant hancque desiderent, subvertendo detestandas iniurias et unicuique quod suum est iusto iudicio tribuendo. Sane inter venerabilem patrem dominum Iringum episcopum Herbipolensem et virum venerabilem Henricum electum Spirensem tam super episcopatu [Herbipolensi] quam super dampnis, iniuriis, expensis et captivis hinc inde detentis ac rebus aliis coram venerabili patre domino S[tephano] episcopo Prenestino a sede apostolica partibus auditore concesso questione suborta, tandem dominus noster dominus A. summus pontifex, intellecto quod Herbipolensis ecclesia occasione huiusmodi discordie multipliciter collabatur, timens eam ad exinanitionis extreme profundum diuturnitate litigii devenire, nobis viva voce summatim audiendi causam ipsam, ordinandi et disponendi de ea, dampnis, expensis, captivis et iniuriis ac omnibus aliis causam contingentibus et que contingere possunt, intervenientibus etiam ad hec eadem consensibus tam ipsius domini Iringi episcopi Herbipolensis ex parte una quam magistri Diteri eiusdem electi Spirensis procuratoris habentis ad hoc speciale mandatum, sicut apparet per ipsius electi patentes litteras evidenter, ex altera, qui in nos sollempniter et plene compromiserunt corporali super hoc prestito iuramento et sub pena X milium marcarum argenti parti servanti fidem a parte altera solvendarum, prout apparet per publicum instrumentum confectum per manus Riccardi de Pofis scriniarii, plenam contulit potestatem. Nos autem tam auctoritate prefati domini nostri quam huiusmodi compromissi, visis, auditis et intellectis que tam idem episcopus pro se quam dictus magister Diterus procuratorio nomine prefati electi in nostra presentia constituti coram nobis proponere voluerunt, Dei nomine invocato ordinando, arbitrando et sententialiter declarando adiudicamus dictum episcopatum Herbipolensem domino Iringo episcopo supradicto, super eodem episcopatu dicto electo perpetuum silentium imponentes et eidem electo mandantes, quod prefato episcopo super ipso episcopatu nullam de cetero secrete vel publice moveat vel moveri faciat questionem, immo civitatem Herbipolensem, castra, villas et quicquid per se vel per alios tenet vel possidet, quod spectat ad eundem episcopatum Herbipolensem, memorato episcopo vel nunciis suis absque difficultate, quantum in se fuerit, deliberet et assignet absolvatque de facto clericos et laicos episcopatus [eiusdem ab omni iuramento tam fidelitatis quam alio, que recepit ab eis, a quibus nos etiam ipsos clericos vel laicos qui ea prestitisse dinoscuntur] reddimus absolutos. Preterea cassamus, cassum et irritum nunciamus, quicquid idem electus tamquam provisus seu prelatus Herbipolensis egit obligando, infeudando, locando, donando vel quocumque modo alienando de quibuscumque bonis dicti episcopatus Herbipolensis, decernentes huiusmodi obligationes, infeudationes, locationes, donationes seu alienationes, quocumque nomine censeantur, carere omni robore firmitatis. Et quia prefatus electus Spirensis, credens se ius habere in episcopatu predicto, personaliter ad sedem apostolicam laboravit et labores plurimos subiit et onera expensarum ac nonnulli amici et consanguinei sui occasione huiusmodi discordie capti sunt et in carcere detinentur, laudamus et pronunciando mandamus, quod idem episcopus captivos eosdem liberet vel liberari faciat et liberari procuret, alioquin in subsidium redemptionis eorum ex nunc usque ad unum annum mille marcas puri argenti ad pondus terre electo predicto integre absque diminutione persolvat. Cum autem in isto negotio tam idem electus quam ecclesia Spirensis magna subierint onera expensarum, nos, iis super hiis providere volentes, laudamus similiter et mandamus, quod episcopus persolvat eisdem electo et ecclesie duo milia marcarum puri argenti ad pondus predictum, mille marcas videlicet ipsi ecclesie totidemque electo, in recompensationem huiusmodi expensarum. Solutionem vero dictorum duorum milium marcarum hoc modo fieri precepimus, scilicet quod prefatus episcopus a die solutionis predictarum mille marcarum, que fieri debet ut supradictum est anno presenti pro redemptionis subsidio captivorum, ad septem annos immediate sequentes ipsa duo milia marcarum prefatis electo et ecclesie vel eorum nunciis apud Magunciam cum integritate persolvat, ita quod singulis annis eodem die, scilicet in octava Innocentum, trecente marce, ultimo vero anno ducente solvantur. Ceterum, quia perniciosum est in clericis et specialiter in prelatis, ut inter se discordiam nutriant, qui trahere tenentur ad pacem alios per exemplum, pronunciando mandamus, quatinus dicti episcopus et electus remittant sibi ad invicem sibique adherentibus prelatis, canonicis, clericis, vassallis, ministerialibus, militibus, civibus et aliis laicis tam civitatis quam diocesis Herbipolensis, et specialiter civibus Herbipolensibus, super hiis, que hac occasione generaliter vel specialiter commisisse noscuntur, omne odium et rancorem remittantque sibi similiter dampna et iniurias hinc inde pretextu dicte questionis illata, de quibus alterum alteri predictis auctoritatibus reddimus absolutum. Ad hec eidem episcopo sub debito prestiti iuramenti precipimus, quod antequam recedat de curia, de quantitate predictarum mille marcarum prime solutionis prefato magistro Ditero centum marcas pro solutione debitorum suorum, quibus in curia esse dicitur obligatus et sine quibus ut asserit recedere nequit, exinde solvere, si comode poterit, non omittat. Tenor autem predictarum litterarum talis est:Sanctissimo patri ac domino Alexandro summo pontifici Henricus Spirensis electus, imperialis aule cancellarius, cum humili subiectione devota pedum oscula beatorum. Noverit sanctitas vestra, quod in curia vestre sanctitatis constitutus facio, ordino et constituo Adelvoltum scolasticum et magistrum Diterum canonicum et cancellarium Spirenses meos procuratores in solidum, ita quod occupantis non sit melior conditio, in omnibus causis et litibus motis et movendis, quas habeo vel habere possum vel alius nomine meo movere vellet domino Iringo, qui pro episcopo Herbipolensi se gerit, vel ipse mihi vellet movere in curia sanctitatis vestre coram quocumque iudice super causa possessionis vel proprietatis episcopatus Herbipolensis seu super dampnis et violentiis et expensis, de quibus una pars contra alteram agere vellet vel posset, in petendo, exigendo, agendo et defendendo, excipiendo et replicando, in compromittendo cum pena et sine pena ad voluntatem cuiuslibet predictorum, in paciscendo, in componendo et transigendo et in supponendo se ordinationi domini pape vel quorumcumque cardinalium, secundum quod eis videbitur expedire, et ad prestandum in animam meam cuiuslibet generis sacramentum et ad omnes obligationes faciendas, quas facere nomine meo vellent, et ad omnia alia facienda et singula, que ego facere possem, si presens essem, dans eis in omnibus speciale mandatum, in quibus speciale mandatum desideratur, ratum habiturus et gratum quicquid per predictos vel eorum alterum super premissis ordinatum fuerit vel in aliquo predictorum. In cuius rei testimonium sigillum meum duxi presentibus apponendum. Dat. Rome, VIIII Kalendas Decembris, anno Domini M\u00b0CC\u00b0LV\u00b0.Nos autem in predictorum testimonium et cautelam presentes litteras fieri et sigillorum nostrorum munimine roborari ac per predictum Riccardum in publica redigi fecimus munimenta. Hec ordinatio seu sententia lata fuit in palatio Sancte Sabine de Urbe, presentibus episcopo et magistro Dithero prefatis, anno Domini MCCLVI, pontificatus domini Alexandri papa IIII anno secundo, mense Ianuario, die quarto, indictionis XIIIIe, coram hiis testibus ad hoc specialiter vocatis: videlicet domino Arnoldo decano Herbipolensi, domino Berardo archipresbytero Maguntino, magistro Gisone canonico Maguntino, domino Stephano dicto Surdo, domino Stephano Anibaldi et pluribus aliis. Et ego Riccardus de Pofis sancte Romane ecclesie scriniarius predictis interfui et ea de mandato dictorum dominorum cardinalium scripsi, complevi et in publicam formam redegi.Nulli etc. nostre confirmationis etc.Dat. Lateran., XVI Kalendas Aprilis, anno secundo.\n"
        },
        {
            "type": "edition",
            "value": "Ici reprise de Karl Rodenberg, Epistolae s. XIII e regestis pontificum romanorum selectae, III, Berlin : Weidmann (MGH), 1894, n.\u00a0430, p.\u00a0387."
        },
        {
            "type": "edition_autre",
            "value": "?"
        },
        {
            "type": "regeste",
            "value": "?"
        },
        {
            "type": "bibliographie_generale",
            "value": "?"
        },
        {
            "type": "apparat_critique",
            "value": "?",
            "children": {
                "numero_note": "a"
            }
        },
        {
            "type": "apparat_critique",
            "value": "?",
            "children": {
                "numero_note": "b"
            }
        },
        {
            "type": "apparat_critique",
            "value": "?",
            "children": {
                "numero_note": "c"
            }
        },
        {
            "type": "apparat_critique",
            "value": "?",
            "children": {
                "numero_note": "d"
            }
        },
        {
            "type": "apparat_critique",
            "value": "?",
            "children": {
                "numero_note": "e"
            }
        },
        {
            "type": "apparat_critique",
            "value": "?",
            "children": {
                "numero_note": "f"
            }
        },
        {
            "type": "notes_historiques",
            "value": "?",
            "children": {
                "numero_note": "1"
            }
        },
        {
            "type": "notes_historiques",
            "value": "?",
            "children": {
                "numero_note": "2"
            }
        },
        {
            "type": "notes_historiques",
            "value": "?",
            "children": {
                "numero_note": "3"
            }
        }
    ]
}