{
    "id": 26440,
    "name": "aposcripta-3519",
    "type": "acte",
    "url": "http:\/\/telma-chartes.irht.cnrs.fr\/aposcripta\/notice\/26440",
    "project_slug": "aposcripta",
    "project_label": "APOSCRIPTA \u2013 Lettres des papes",
    "user": "lettrespontificalesadmin",
    "last_update": "2020-10-19 16:28:00",
    "licence": "Attribution - Pas d\u2019Utilisation Commerciale - Partage dans les M\u00eames Conditions 3.0 France (CC BY-NC-SA 3.0 FR) ",
    "licence_url": "https:\/\/creativecommons.org\/licenses\/by-nc-sa\/3.0\/fr\/",
    "elements": [
        {
            "type": "pape",
            "value": "Calixte III (antipape ; 1168-1178)"
        },
        {
            "type": "date_lieu",
            "value": "Viterbo"
        },
        {
            "type": "date_libre",
            "value": "1169 Mai 16<a class=\"note\" href=\"#note-2\">2<\/a>"
        },
        {
            "type": "date",
            "value": " 1169\/05\/16",
            "children": {
                "date_deb_annee": "1169",
                "date_deb_mois": "05",
                "date_deb_jour": "16"
            },
            "range": {
                "date_apres": 11690516,
                "date_avant": 11690516
            }
        },
        {
            "type": "analyse",
            "value": "Calixt III schreibt der Aebtissin Irmentrud von Dietkirchen (D. K\u00f6ln), dass er den vom Propste und Dekane des Domstiftes zu K\u00f6ln gef\u00e4llten Urtheilsspruch in der Streitsache zwischen ihr und den Pfarrangeh\u00f6rigen von Sechtem (unfern Bonn) best\u00e4tige<a class=\"note\" href=\"#note-1\">1<\/a>."
        },
        {
            "type": "transcription",
            "value": "<?xml version=\"1.0\" encoding=\"UTF-8\"?>\n Calixtus episcopus servus servorum dei dilecte in Christo filie .IR(mentrudi)a, abbatisse de Didenkirken, salutem et apostolicam | benedictionem. Ea que a viris religiosis super causis, a sede apostolica commissis, iuste et rationabiliter diffini|ta sunt, apostolica nos convenit auctoritate roborare, ne in posterum aliqua possint malignantium presumptione in irritum revocari. Inde est, quod Nos sententiam, quam dilecti filii nostri Bruno, maioris ecclesie in Colonia prepositus, et Hugo, eiusdem ecclesie decanus, super controversia, que inter te, dilecta in Christo filia .IR(mentrudis)a, abbatissa de Didenkirkenb et parrochianos de Setheme vertebatur, iuste et rationabiliter protulerunt, auctoritate apostolica confirmamus et presentis scripti patrocinio communimus. Statuentes, ut nulli omnino hominum fas sit, hanc nostre confirmationis paginam ausu temerario infringere vel ei aliquatenus contraire. Si quis autem hoc attemptare presumpserit, indignationem dei omnipotentis | et beatorum Petri et Pauli apostolorum eius et nostram se noverit incursurum. \u2014 Dat. Viterbii, xvii Kl. Junii. \u2014\n"
        },
        {
            "type": "edition",
            "value": "Julius von Pflugk-Harttung, <i>Acta pontificum Romanorum inedita<\/i>, T\u00fcbingen, 1880, I, n. 331, p. 296"
        },
        {
            "type": "sources_manuscrites",
            "value": "Or. im Staatsarchive zu D\u00fcsseldorf."
        },
        {
            "type": "remarques",
            "value": "Perg. ital., br. 0,252\u20130,257, lang 0,205, unten c. 0,025 umgeschlagen, durch 2 L\u00f6cher geht die d\u00fcnnf\u00e4dige rosa und gelbe Seidenschnur, an der die Bulle h\u00e4ngt. Faltung der Breven. Schrift : Gemisch von Breven- und Privilegienschrift. Der Context steht links und rechts c. 0,015 vom Pergamentrande entfernt."
        },
        {
            "type": "apparat_critique",
            "value": "a.\u2002<span class=\"small-caps\">Ir<\/span> <i>mit anderer Hand und Dinte eingetragen.<\/i>",
            "children": {
                "numero_note": "a"
            }
        },
        {
            "type": "apparat_critique",
            "value": "b.\u2002Dindenkirken.",
            "children": {
                "numero_note": "b"
            }
        },
        {
            "type": "notes_historiques",
            "value": "<i>Vergl. die vorige und n\u00e4chste Urk.<\/i>",
            "children": {
                "numero_note": "1"
            }
        },
        {
            "type": "notes_historiques",
            "value": "<i>Die Jahreszahl ergiebt sich mit Wahrscheinlichkeit aus der Aufzeichnung Hugos als eines noch lebenden.<\/i>",
            "children": {
                "numero_note": "2"
            }
        },
        {
            "type": "genre",
            "value": "Bulle"
        }
    ]
}