{
    "id": 145597,
    "name": "aposcripta-5943",
    "type": "acte",
    "url": "http:\/\/telma-chartes.irht.cnrs.fr\/aposcripta\/notice\/145597",
    "project_slug": "aposcripta",
    "project_label": "APOSCRIPTA \u2013 Lettres des papes",
    "user": "l_valliere",
    "last_update": "2020-10-19 16:39:10",
    "licence": "Attribution - Pas d\u2019Utilisation Commerciale - Partage dans les M\u00eames Conditions 3.0 France (CC BY-NC-SA 3.0 FR) ",
    "licence_url": "https:\/\/creativecommons.org\/licenses\/by-nc-sa\/3.0\/fr\/",
    "elements": [
        {
            "type": "pape",
            "value": "Jean XXII (1316-1334)"
        },
        {
            "type": "destinataire",
            "value": "Les prieur et couvent des fr\u00e8res de l'ordre Pr\u00eacheur de Trente"
        },
        {
            "type": "date_libre",
            "value": "VI kalendas marcii, anno duodecimo"
        },
        {
            "type": "date",
            "value": "1328\/02\/25",
            "children": {
                "date_deb_annee": "1328",
                "date_deb_mois": "02",
                "date_deb_jour": "25"
            },
            "range": {
                "date_apres": 13280225,
                "date_avant": 13280225
            }
        },
        {
            "type": "date_lieu",
            "value": "Avignon"
        },
        {
            "type": "genre",
            "value": "Titre, g\u00e9n\u00e9ral (littere gratiose, cum filo serico)"
        },
        {
            "type": "analyse",
            "value": "Giovanni XXII ai frati domenicani di Trento: permette loro di trasferirsi dal convento extracittadino, soggetto ad inondazioni ed esposto a saccheggi, ad un luogo posto all\u2019interno delle mura."
        },
        {
            "type": "sources_manuscrites",
            "value": "R<sup>1<\/sup>. CIT\u00c9 DU VATICAN, Archivio segreto Vaticano, <i>Registra Avenionensia<\/i> 29, MLXIIII, fol. 647 (cancell\u00e9e ; taxe : XVI).",
            "children": {
                "type_source": "Registre de la chancellerie apostolique"
            }
        },
        {
            "type": "sources_manuscrites",
            "value": "R<sup>2<\/sup>. CIT\u00c9 DU VATICAN, Archivio segreto Vaticano, <i>Registra Vaticana<\/i> 86, fol. 23<a href=\"#note-1\"><sup>1<\/sup><\/a>.",
            "children": {
                "type_source": "Registre de la chancellerie apostolique"
            }
        },
        {
            "type": "edition",
            "value": "Ici reprise d\u2019Emanuele Curzel, <i>Documenti papali per la storia trentina (fino al 1341)<\/i>, Bologne, 2004 (Annali dell\u2019Istituto storico italo-germanico. Fonti ; 1), n. 239, p. 359-361, d\u2019apr\u00e8s R<sup>1<\/sup>, R<sup>2<\/sup> et F."
        },
        {
            "type": "regeste",
            "value": "Guillaume Mollat, <i>Jean XXII (1316-1334). Lettres communes<\/i> (Biblioth\u00e8que des \u00c9coles Fran\u00e7aises d\u2019Ath\u00e8nes et de Rome), Paris, 1904-1947, n. 40511."
        },
        {
            "type": "transcription",
            "value": "<?xml version=\"1.0\" encoding=\"UTF-8\"?>\nDilectisa filiis .. priori et conventui fratrum ordinis Predicatorum Tridentinorum, salutemb. Sacra [vestra religio], refectac virtutum fecunditate, meretur ut nos illa gratia favorabiliter prosequamur quam vestris [fore] conspicimus necessitatibus oportunam. Sane peticio vestra nobis exhibita continebat quod inter locum vestrum, extra civitatis Tridentine muros et menia situatum, in quo ad presens degitis, ac civitatem ipsam quoddam magnum flumen adeo violentumd existit, quod dum crescit predictum locum vestrum occupat, dormitorium, refectorium, cellarium, infirmitorium et alias officinas loci ipsius impetuose intrando, pontem etiam eiusdem civitatis nonnunquam destruit, sic quod contingit alioquotiense quod per quatuor annos et plus nullus de civitate predicta ad vos accedere potest, nec vos civitatem ipsam intrare valetis nisi cum navi et tunc etiam cumf periculo personarum et sic vos, quo ad spiritualia, inutiles civitati reddimini memorate quodque, cum eadem civitas invaditur ab hostibus, locus vester predictus per inimicos occupatur et etiam spoliatur ac fratres dicti loci mortis periculis et civitas ipsa dampnis plurimis exponuntur, quare nobis humiliter supplicastis ut, pro periculis huiusmodi evitandis vobis, quod dictum locum vestrum infra civitatem ipsam transferre et, si necesse foret, cum alio permutare de benignitate Sedis apostolice licentiam concedere dignaremur. Nos itaque, volentes huiusmodi periculis obviare, vestris supplicationibus inclinati, predictum locum vestrum dimittendi et alium locum vobis aptum per vos acquirendum infra civitatem ipsam recipiendi vel ipsum locum in quo degitis, si necesse fuerit, cum alio infra dictam civitatem permutandi ipsumque recipiendi, iure parrochialis ecclesie in cuius parrochia locus ipse novus fuerit et cuiuslibet alterius in omnibus semper salvo, vosque de ipso loco priori ad locum ipsum alium per vos infra civitatem ipsam recipiendum, ut premittitur, transferendi inibi Domino servituros, constitutione felicis recordationis Bonifacii pape VIII3 predecessoris nostri et qualibet alia in contrarium edita non obstante, auctoritate vobis presentium plenam et liberam licentiam elargimur, proviso quod ecclesia et cimiterium eiusdem prioris loci, in qua quidem ecclesia pro divinis celebrandis officiisg unus presbyter deputetur ad clericos seu laycos, sicut hereditas minime transferatur. Nulli ergo et ceterah, nostre concessionis infringere et ceterai. Datum Avinione, VI kalendas marciij, anno duodecimo.\n"
        },
        {
            "type": "apparat_critique",
            "value": "<i>pr\u00e9c\u00e9d\u00e9 de<\/i> Iohannes episcopus servus servorum Dei <i>F<\/i>.",
            "children": {
                "numero_note": "a"
            }
        },
        {
            "type": "apparat_critique",
            "value": "et apostolicam benedictionem <i>ajout\u00e9 F<\/i>.",
            "children": {
                "numero_note": "b"
            }
        },
        {
            "type": "apparat_critique",
            "value": "referta <i>F<\/i>.",
            "children": {
                "numero_note": "c"
            }
        },
        {
            "type": "apparat_critique",
            "value": "in quo ad presens degitis <i>suit, supprim\u00e9, R<sup>2<\/sup><\/i>.",
            "children": {
                "numero_note": "d"
            }
        },
        {
            "type": "apparat_critique",
            "value": "aliquotiens <i>F<\/i>.",
            "children": {
                "numero_note": "e"
            }
        },
        {
            "type": "apparat_critique",
            "value": "cum <i>dans l'interligne R<sup>2<\/sup><\/i>.",
            "children": {
                "numero_note": "f"
            }
        },
        {
            "type": "apparat_critique",
            "value": "officiis <i>omis F<\/i>.",
            "children": {
                "numero_note": "g"
            }
        },
        {
            "type": "apparat_critique",
            "value": "omnino hominum liceat hanc paginam <i>compl\u00e9t\u00e9 F<\/i>.",
            "children": {
                "numero_note": "h"
            }
        },
        {
            "type": "apparat_critique",
            "value": "vel ei ausu temerario contraire. Si quis autem hoc attemptare presumpserit, indignationem omnipotentis Dei et beatorum Petri et Pauli, apostolorum eius, se noverit incursurum <i>compl\u00e9t\u00e9 F<\/i>.",
            "children": {
                "numero_note": "i"
            }
        },
        {
            "type": "notes_historiques",
            "value": "Le folio 647 du Reg. Aven. est partiellement d\u00e9lav\u00e9 ; ce qui est entre crochets se fonde sur la transcription du Reg. Vat.",
            "children": {
                "numero_note": "1"
            }
        },
        {
            "type": "sources_manuscrites",
            "value": "F. Italie, Trente, Biblioteca Communale, ms. 13 (Miscellanea Alberti, VI) (avec la date erron\u00e9e de 1329)<a href=\"#note-1\"><sup>2<\/sup><\/a>. Transcription du XVIII<sup>e<\/sup> si\u00e8cle de l'original alors encore conserv\u00e9 aux archives du couvent dominicain de San Lorenzo.",
            "children": {
                "type_source": "Copie moderne"
            }
        },
        {
            "type": "apparat_critique",
            "value": "pontificatus nostri <i>ajout\u00e9 F<\/i>.",
            "children": {
                "numero_note": "j"
            }
        },
        {
            "type": "notes_historiques",
            "value": "Extravag. Comm. III, 6, c. 2 (= Clem. III, 7, c. 2) (<i>Corpus Iuris Canonici<\/i>, II: Emil Friedberg (\u00e9d.), <i>Decretalium Collectiones<\/i>, Lipsiae 1879, coll. 1273, 1162-1164).",
            "children": {
                "numero_note": "2"
            }
        }
    ]
}