{
    "id": 25979,
    "name": "aposcripta-3076",
    "type": "acte",
    "url": "http:\/\/telma-chartes.irht.cnrs.fr\/aposcripta\/notice\/25979",
    "project_slug": "aposcripta",
    "project_label": "APOSCRIPTA \u2013 Lettres des papes",
    "user": "lettrespontificalesadmin",
    "last_update": "2020-10-19 16:27:51",
    "licence": "Attribution - Pas d\u2019Utilisation Commerciale - Partage dans les M\u00eames Conditions 3.0 France (CC BY-NC-SA 3.0 FR) ",
    "licence_url": "https:\/\/creativecommons.org\/licenses\/by-nc-sa\/3.0\/fr\/",
    "elements": [
        {
            "type": "pape",
            "value": "Gr\u00e9goire XI (1370-1378)"
        },
        {
            "type": "destinataire",
            "value": "( )",
            "children": {
                "numero_note": "0"
            }
        },
        {
            "type": "date_lieu",
            "value": "n.c."
        },
        {
            "type": "date_libre",
            "value": "1376, Sep 25"
        },
        {
            "type": "date",
            "value": " 1376\/09\/25",
            "children": {
                "date_deb_annee": "1376",
                "date_deb_mois": "09",
                "date_deb_jour": "25"
            },
            "range": {
                "date_apres": 13760925,
                "date_avant": 13760925
            }
        },
        {
            "type": "analyse",
            "value": "X pape<br\/>PRIVILEGIUM GREGORII PAP\u00c6 XI. de quinque officiis Claustri Cluniacensis, qu\u00e6 non vult conferri expectantibus virtute litterarum Apostolicarum."
        },
        {
            "type": "transcription",
            "value": "<?xml version=\"1.0\" encoding=\"UTF-8\"?>\nGregorius Episcopus servus servorum Dei, ad perpetuam Rei memoriam. Apostolic\u00e6 Sedis providentia circumspecta dubia, qu\u00e6 in actis seu gestis per Sedem eamdem interdum insurgunt, dilucidat et declarat, ut exinde dispendia litium inter personas Ecclesiasticas pr\u00e6sertim Religiosas valeant evitari. San\u00e8 dudum felicis recordationis Urbanus Papa V. pr\u00e6decessor noster, quondam Simonis Abbatis, et dilectorum filiorum conventus Monasterii Cluniacensis, Matisconensis Di\u0153cesis supplicationibus inclinatus, per suas litteras statuit, et etiam ordinavit quod deinceps Prioratus Majoris, Sacristi\u00e6, Decanatus, Eleemosynari\u00e6, et Archidiaconatus Officia in dicto Monasterio consistentia, seu eorum aliqua, cum illa vacare contingeret, per quoscumque Beneficia Ecclesiastica, ac dignitates, personatus, et officia per Monachos ipsius Monasterii gubernari consueta auctoritate litterarum Apostolicarum expectantes, earumdem litterarum sub quacumque forma verborum eis concessarum vigore acceptare non valerent, nec de ipsis Beneficiis posset eis quomodolibet provideri, nisi in eisdem litteris de ipsis Prioratus majoris, sacristi\u00e6, Decanatus, Eleemosynari\u00e6, ac Archidiaconatus Officiis plena, specialis, et expressa mentio haberetur. Quarum quidem litterarum tenor sequitur in h\u00e6c verba. Urbanus, etc. ut supr\u00e0. Cum igitur, sicut accepimus, ab aliquibus in dubium revocetur an hujusmodi statum et Ordinatio, post dicti pr\u00e6decessoris obitum, et pr\u00e6sertim propter Clausulas, qu\u00e6 in litteris, quas \u00e0 Sede Apostolica quandoque impetrari contingit, apponuntur, perpetua debeant reputari. Nos, ad hujusmodi ambiguitatis tollendum dubium auctoritate Apostolica tenore pr\u00e6sentium volumus pr\u00e6missa statutum, et Ordinationem, ac litteras fore perpetua, et robur habere debere perpetu\u00e6 firmitatis; quodque per litteras qualitercumque \u00e0 Sede Apostolica impetratas, et inante\u00e0 impetrandas, etiamsi in litteris ipsis express\u00e8 caveatur, quod nonobstantibus si Abbati et conventui dicti Monasterii, vel quibusvis aliis communiter, vel divisim ab eadem sit Sede indultum, quod ad receptionem, vel provisionem alicujus minim\u00e8 teneantur, et ad id compelli non possint, quodque de dignitatibus, personatibus, administrationibus, vel Officiis, aut aliis Beneficiis Ecclesiasticis ad eorum collationem, provisionem, pr\u00e6sentationem, electionem, seu aliam dispositionem conjunctim, vel separatim spectantibus nulli debeat provideri per litteras Apostolicas non facientes plenam et expressam, ac de verbo ad verbum, de indulto hujusmodi mentionem; et qualibet alia dict\u00e6 Sedis indulgentia generali vel speciali, cujuscumque tenoris existat, per quam pr\u00e6sentibus non expressam, vel totaliter non insertam effectus earum impediri valeat quomodolibet, vel differri, et de qua, cujusque toto tenore habenda sit in litteris mentio specialis. Ipsa Prioratus majoris, Sacristi\u00e6, Decanatus, Eleemosynari\u00e6, et Archidiaconatus Officia, seu eorum aliqua, cum vacabunt, per hujusmodi impetrantes acceptari non valeant, nec de ipsis officiis possit eis quomodolibet provideri, nisi in eisdem litteris de pr\u00e6missis statuto et ordinatione dicti pr\u00e6decessoris, et hujusmodi voluntate nostra specialis et expressa, ac de verbo ad verbum habeatur mentio, et insuper irritum decernimus et inane quidquid contra pr\u00e6missa \u00e0 quoquam quavis auctoritate scienter, vel ignoranter contigerit attentari. Nulli ergo, etc. Datum Massili\u00e6 VII. Kalendas Octobris, Pontificatus nostri anno VI. Sunt et ali\u00e6 tres Bull\u00e6 ejusdem Pontificis, una per quam commendat Abbati Cluniacensi quendam Guibertum Abbatem Figiacensem \u00e0 se institutum, data Avenioni Idibus Februarii, Pontificatus anno VI. altera per quam mandat officiali Matisconensi, ut Provideat domnum Raymundum de Cadoenac Priorem Claustralem Cluniacensis Monasterii de Prioratu majore tunc vacante, per provisionem factam Domno Petro Vincentii ante\u00e0 Priorem majorem de Prioratu Paterniaci Lausanensis Di\u0153cesis, data etiam Avenioni VI. Idus Maii, Pontificatus anno VI. tertia, per quam confirmat quandam concessionem per Ioannem de Pino Abbatem et conventum Cluniac. factam Domno Raymundo Rabasse Priori Prioratus de Tornaco Nemausensis Di\u0153cesis, Procuratori Ordinis Cluniac. in Curia Romana; qu\u00e6 quia sunt particulares, non fuerunt hic exscript\u00e6, de domibus de Valensoliis, Vill\u00e6-Dei, et Albarni Regensis Di\u0153cesis ad vitam ipsius, pro pensione annua sexcentorum Florenorum auri. Data item Avenioni Idibus Iunii, Pontificatus anno II.\n"
        },
        {
            "type": "edition",
            "value": "Ici tir\u00e9e du projet <i>CBMA - Corpus Burgundiae Medii Aevi<\/i>, document 11117. Site du projet Corpus de la Bourgogne du Moyen \u00c2ge, [En ligne] <a href=\"http:\/\/www.cbma-project.eu\" target=\"_blank\">http:\/\/www.cbma-project.eu<\/a>  "
        },
        {
            "type": "sources_manuscrites",
            "value": "\u00e0 renseigner."
        },
        {
            "type": "remarques",
            "value": ""
        },
        {
            "type": "edition_autre",
            "value": "Ici reprise de Pierre Simon, <i>Bullarium sacri Ordinis cluniacensis, complectens plurima privilegia per summos pontifices tum ipsi cluniacensi abbatiae, tum ei subditis monasteriis hactenus concessa<\/i>, Lyon : Jullieron, 1680, p. 182, col. 2-183, col. 2.",
            "children": {
                "numero_note": "0"
            }
        },
        {
            "type": "genre",
            "value": "Bulle"
        }
    ]
}