{
    "id": 20270,
    "name": "aposcripta-257",
    "type": "acte",
    "url": "http:\/\/telma-chartes.irht.cnrs.fr\/aposcripta\/notice\/20270",
    "project_slug": "aposcripta",
    "project_label": "APOSCRIPTA \u2013 Lettres des papes",
    "user": "lettrespontificalesadmin",
    "last_update": "2020-10-19 16:26:47",
    "licence": "Attribution - Pas d\u2019Utilisation Commerciale - Partage dans les M\u00eames Conditions 3.0 France (CC BY-NC-SA 3.0 FR) ",
    "licence_url": "https:\/\/creativecommons.org\/licenses\/by-nc-sa\/3.0\/fr\/",
    "elements": [
        {
            "type": "pape",
            "value": "Jean XXII (1316-1334)"
        },
        {
            "type": "date_lieu",
            "value": "Avignon"
        },
        {
            "type": "date_libre",
            "value": "30 juin 1330"
        },
        {
            "type": "analyse",
            "value": "Le pape renvoie \u00e0 l\u2019\u00e9v\u00eaque de Paris<a class=\"note\" href=\"#note-1\">1<\/a> et \u00e0 l\u2019inquisiteur de France<a class=\"note\" href=\"#note-2\">2<\/a> le dossier du franciscain Conrad<a class=\"note\" href=\"#note-3\">3<\/a>, ainsi que les opinions motiv\u00e9es des cardinaux de Sainte-Prisque<a class=\"note\" href=\"#note-4\">4<\/a> et de Saint-\u00c9tienne au mont C\u00e9lius<a class=\"note\" href=\"#note-5\">5<\/a>, qui en ont fait l\u2019examen. L\u2019\u00e9v\u00eaque et l\u2019inquisiteur devront continuer le proc\u00e8s."
        },
        {
            "type": "transcription",
            "value": "<?xml version=\"1.0\" encoding=\"UTF-8\"?>\nEpiscopo Parisien. et.. inquisitori heretice pravitatis in partibus Francie auctoritate apostolica deputato. \u2014 Processum contra Conradum... \u2014 Datum Avinioni, ii kalendas iulii, anno quartodecimo.\n"
        },
        {
            "type": "edition",
            "value": "Jean-Marie Vidal, <i>Bullaire de l\u2019Inquisition fran\u00e7aise au XIV<sup>e<\/sup> si\u00e8cle et jusqu'\u00e0 la fin du Grand Schisme<\/i>, Paris : Letouzey et An\u00e9, 1913, n. 100, p. 152-153"
        },
        {
            "type": "sources_manuscrites",
            "value": "<i>Reg. Vat.<\/i>, t. <span class=\"smal-caps\">cxv<\/span>, fol. 325 v\u00b0, n. 1701"
        },
        {
            "type": "sources_manuscrites",
            "value": "Eubel, <i>Bull.<\/i>, n. 857 (<i>in ext.<\/i>)."
        },
        {
            "type": "notes_historiques",
            "value": "Hugues de Besan\u00e7on, n. 92, note 1.",
            "children": {
                "numero_note": "1"
            }
        },
        {
            "type": "notes_historiques",
            "value": "Aubert de Ch\u00e2lons, n. 89, note 2.",
            "children": {
                "numero_note": "2"
            }
        },
        {
            "type": "notes_historiques",
            "value": "Voir n. 92, note 2.",
            "children": {
                "numero_note": "3"
            }
        },
        {
            "type": "notes_historiques",
            "value": "Jacques Fournier, n. 24, note 1.",
            "children": {
                "numero_note": "4"
            }
        },
        {
            "type": "notes_historiques",
            "value": "Pierre de Mortemart, n. 46, note 4.",
            "children": {
                "numero_note": "5"
            }
        },
        {
            "type": "date",
            "value": "1330\/06\/30",
            "children": {
                "date_deb_annee": "1330",
                "date_deb_mois": "06",
                "date_deb_jour": "30"
            },
            "range": {
                "date_apres": 13300630,
                "date_avant": 13300630
            }
        },
        {
            "type": "genre",
            "value": "Bulle"
        }
    ]
}