{
    "id": 20849,
    "name": "aposcripta-836",
    "type": "acte",
    "url": "http:\/\/telma-chartes.irht.cnrs.fr\/aposcripta\/notice\/20849",
    "project_slug": "aposcripta",
    "project_label": "APOSCRIPTA \u2013 Lettres des papes",
    "user": "lettrespontificalesadmin",
    "last_update": "2020-10-19 16:26:53",
    "licence": "Attribution - Pas d\u2019Utilisation Commerciale - Partage dans les M\u00eames Conditions 3.0 France (CC BY-NC-SA 3.0 FR) ",
    "licence_url": "https:\/\/creativecommons.org\/licenses\/by-nc-sa\/3.0\/fr\/",
    "elements": [
        {
            "type": "pape",
            "value": "Alexandre III (1159-1181)"
        },
        {
            "type": "date_lieu",
            "value": "n.c."
        },
        {
            "type": "date_libre",
            "value": "1180\u00a0?"
        },
        {
            "type": "analyse",
            "value": "Alexander\u00a0III fratres Giseburnenses excommunicari vel eorum ecclesiam interdici vetat\u00a0; cet."
        },
        {
            "type": "transcription",
            "value": "<?xml version=\"1.0\" encoding=\"UTF-8\"?>\nPriori et fratribus de Giseburne.a Iustis postulacionibus religiosorum virorum assensum nos convenit facilem indulgere, ut tanto citius eorum preces optatumb sortiantur effectum, quanto per eos Domino gracius obsequium exhibetur. Hac itaque ratione inducti et vestris iustis postulationibus inclinati auctoritate apostolica prohibemus, ut nulli omnino liceat in vos vel ecclesiam vestram absque manifesta et rationabili causa excommunicationis vel interdicti sententiam promulgare. Ad hec auctoritate vobis apostolica indulgemus, ut in causis ecclesie vestre fratres eiusdem domus, si canonica eis non obviaverint instituta, ad testimonium sine contradictione qualibet admittantur. Nulli ergo omnino hominum liceat hanc paginam nostre prohibitionis et constitutionis infringere, etc.\n"
        },
        {
            "type": "edition",
            "value": "Samuel Loewenfeld, <i>Epistolae pontificum romanorum ineditae<\/i>, Leipzig : Veit et Comp., 1885, n. 337, p. 201-202"
        },
        {
            "type": "sources_manuscrites",
            "value": "Reg. Alex. fragm. ep.\u00a034, l.\u00a0l. fol.\u00a0120<sup>b<\/sup>."
        },
        {
            "type": "apparat_critique",
            "value": "Giseburn\u0304<i>c.<\/i>",
            "children": {
                "numero_note": "a"
            }
        },
        {
            "type": "apparat_critique",
            "value": "obtatum <i>c.<\/i>",
            "children": {
                "numero_note": "B"
            }
        },
        {
            "type": "date",
            "value": "apres 1180 - avant 1180",
            "children": {
                "date_deb_annee": "1180",
                "date_deb_type": "apres",
                "date_fin_annee": "1180",
                "date_fin_type": "avant"
            },
            "range": {
                "date_apres": 11800000,
                "date_avant": 11809999
            }
        },
        {
            "type": "genre",
            "value": "Bulle"
        }
    ]
}