{
    "id": 25342,
    "name": "aposcripta-2439",
    "type": "acte",
    "url": "http:\/\/telma-chartes.irht.cnrs.fr\/aposcripta\/notice\/25342",
    "project_slug": "aposcripta",
    "project_label": "APOSCRIPTA \u2013 Lettres des papes",
    "user": "lettrespontificalesadmin",
    "last_update": "2020-10-19 16:27:43",
    "licence": "Attribution - Pas d\u2019Utilisation Commerciale - Partage dans les M\u00eames Conditions 3.0 France (CC BY-NC-SA 3.0 FR) ",
    "licence_url": "https:\/\/creativecommons.org\/licenses\/by-nc-sa\/3.0\/fr\/",
    "elements": [
        {
            "type": "pape",
            "value": "Adrien IV (1154-1159)"
        },
        {
            "type": "destinataire",
            "value": "( )",
            "children": {
                "numero_note": "0"
            }
        },
        {
            "type": "date_lieu",
            "value": "n.c."
        },
        {
            "type": "date_libre",
            "value": "1156, 19 ao\u00fbt"
        },
        {
            "type": "date",
            "value": " 1156\/08\/19",
            "children": {
                "date_deb_annee": "1156",
                "date_deb_mois": "08",
                "date_deb_jour": "19"
            },
            "range": {
                "date_apres": 11560819,
                "date_avant": 11560819
            }
        },
        {
            "type": "analyse",
            "value": "X pape<br\/>LITTER\u00c6 ADRIANI PAP\u00c6 IV, AD S[TEPHANUM] VIENNENSEM, ET E[RACLIUM] LUGDUNENSEM ARCHIEPISCOPOS, QUIBUS MANDAT, ROGATU PETRI, ABBATIS CLUNIACENSIS, NE MONASTERIUM CELSINIACENSE VEXARI AB EUSTACHIO, FRATRE EJUSDEM PETRI, PATIANTUR. EPISTOLA ADRIANI PAP\u00c6 IV. ad Viennensem et Lugdunensem Archiepiscopos de Celsiniacensi Monasterio, cujus homines vexabat Eust. frater Petri Abbatis Clun."
        },
        {
            "type": "transcription",
            "value": "<?xml version=\"1.0\" encoding=\"UTF-8\"?>\n[Adrianus Episcopus, servus servorum Dei, venerabilibus fratribus S. Viennensi, et C. Lugdunensi Archiepiscopis, salutem et Apostolicam benedictionem Dilectus filius noster Petrus Abbas Cluniacensis Celsiniacense C\u0153nobium, quod ad jus pertinet Cluniacensis Ecclesi\u00e6, \u00e0 fratre suo Eust. occasione trecentarum marcarum argenti, quas ab eo requirit, graviter conqueritur infestari; cum ipse tamen se paratum asserat extitisse, quod justum est, illi mediante judicio exhibere. Homines siquidem supradict\u00e6 Ecclesi\u00e6 capit, bona eorum diripit, et quibus modis potest incessanter affligit. Unde nos, quoniam perturbatoribus Cluniacensis Ecclesi\u00e6, tam per nos qu\u00e0m per fratres et Coepiscopos nostros exacta volumus diligentia contra\u00efre; per pr\u00e6sentia vobis scripta mandamus, quatinus pr\u00e6fatum E. ut ab infestatione pr\u00e6nominati C\u0153nobii et hominum ipsius abstineat, et iniqu\u00e8 ablata restituat, districtius moneatis. Si ver\u00f2 monitionibus vestris obedire contempserit, excommunicationis eum vinculo innodetis, et donec resipiscat, sicut excommunicatum faciatis attentius evitari. San\u00e8 si adversum Cluniacensem Ecclesiam vel obedientias ejus quicquam juris habuerit, vos in unum convenientes partes ante vestram pr\u00e6sentiam evocetis, et rationibus hinc inde diligenter auditis et plenari\u00e8 cognitis, quod justum inde fuerit, judicetis, et prosecutione faciatis operis adimpleri. Datum Narni\u00e6 XIV. Kalendas Septembris, Pontificatus nostri anno.]\n"
        },
        {
            "type": "edition",
            "value": "Ici tir\u00e9e du projet <i>CBMA - Corpus Burgundiae Medii Aevi<\/i>, document 5626. Site du projet Corpus de la Bourgogne du Moyen \u00c2ge, [En ligne] <a href=\"http:\/\/www.cbma-project.eu\" target=\"_blank\">http:\/\/www.cbma-project.eu<\/a>  "
        },
        {
            "type": "sources_manuscrites",
            "value": "\u00e0 renseigner."
        },
        {
            "type": "remarques",
            "value": "\r\n\r\nIndications dans l'\u00e9dition des Chartes de Cluny quand Bernard et Bruel n'ont pas repris le texte : Adrianus, etc. Dilectus filius noster, etc. (Bull. Clun., p.\u00a068, col.\u00a01, n\u00ba\u00a02; D. Bouquet, t.\u00a0XV, p.\u00a0674.).(Or. au Brit. Mus., Addition. Charters, 1539.)"
        },
        {
            "type": "edition_autre",
            "value": "Ici reprise de Auguste Bernard, Alexandre Bruel, <i>Recueil des chartes de l'abbaye de Cluny<\/i>. V. <i>1091-1210<\/i>, Paris\u00a0: Imprimerie nationale, 1894 <a href=\"http:\/\/gallica.bnf.fr\/ark:\/12148\/bpt6k28911f?rk=64378;0\" target=\"_blank\">[en ligne]<\/a>, p. 536, n\u00b0 4189.",
            "children": {
                "numero_note": "0"
            }
        },
        {
            "type": "edition_autre",
            "value": "Pierre Simon, <i>Bullarium sacri Ordinis cluniacensis, complectens plurima privilegia per summos pontifices tum ipsi cluniacensi abbatiae, tum ei subditis monasteriis hactenus concessa<\/i>, Lyon : Jullieron, 1680, p. 68, col. 1-2",
            "children": {
                "numero_note": "1"
            }
        },
        {
            "type": "genre",
            "value": "Lettre, g\u00e9n\u00e9ral (avant 1198)"
        }
    ]
}