{
    "id": 26223,
    "name": "aposcripta-3302",
    "type": "acte",
    "url": "http:\/\/telma-chartes.irht.cnrs.fr\/aposcripta\/notice\/26223",
    "project_slug": "aposcripta",
    "project_label": "APOSCRIPTA \u2013 Lettres des papes",
    "user": "lettrespontificalesadmin",
    "last_update": "2020-10-19 16:27:57",
    "licence": "Attribution - Pas d\u2019Utilisation Commerciale - Partage dans les M\u00eames Conditions 3.0 France (CC BY-NC-SA 3.0 FR) ",
    "licence_url": "https:\/\/creativecommons.org\/licenses\/by-nc-sa\/3.0\/fr\/",
    "elements": [
        {
            "type": "pape",
            "value": "Pascal II (1099-1118)"
        },
        {
            "type": "date_lieu",
            "value": "n.c."
        },
        {
            "type": "date_libre",
            "value": "Um 1110<a class=\"note\" href=\"#note-1\">1<\/a>"
        },
        {
            "type": "date",
            "value": "apres 1110 - avant 1110",
            "children": {
                "date_deb_annee": "1110",
                "date_deb_type": "apres",
                "date_fin_annee": "1110",
                "date_fin_type": "avant"
            },
            "range": {
                "date_apres": 11100000,
                "date_avant": 11109999
            }
        },
        {
            "type": "analyse",
            "value": "Paschalis II befiehlt dem Bischof von Saintes dem durch Isembert von Chatelaillon und Johann von Angoumois gesch\u00e4digten Kloster St.-Maixent (D. Poitiers) Gerechtigkeit zu verschaffen."
        },
        {
            "type": "transcription",
            "value": "<?xml version=\"1.0\" encoding=\"UTF-8\"?>\nP(aschalis) episcopus servus servorum dei venerabili fratri Santonensi episcopo2 salutem et apostolicam benedictionem. Adversus Isembertum de castello Allione et Joannem de Engumesio milites G(aufredus)3, abbas sancti Maxentii, queritur, quod ...... vesa monasterio suo molestias ferunt. Tue igitur fraternitati precipimus, ut tam de his, quam de aliis monasterii querelis eidem efficacem iustitiam facias.\n"
        },
        {
            "type": "edition",
            "value": "Julius von Pflugk-Harttung, <i>Acta pontificum Romanorum inedita<\/i>, T\u00fcbingen, 1880, I, n. 114, p. 102"
        },
        {
            "type": "sources_manuscrites",
            "value": "Abschrift des MS. Moreau 45 fol. 93, in der Bibl. Nat. zu Paris."
        },
        {
            "type": "remarques",
            "value": "\u201eCette piece est dans le cartulaire original de l\u2019abbaye de S. Maixent p. 42\u201c."
        },
        {
            "type": "apparat_critique",
            "value": "a.\u2002graves ?",
            "children": {
                "numero_note": "a"
            }
        },
        {
            "type": "notes_historiques",
            "value": "<i>Vergl. Jaff\u00e9, Reg. 4646, 4647, 4648.<\/i>",
            "children": {
                "numero_note": "1"
            }
        },
        {
            "type": "notes_historiques",
            "value": "<i>Wohl Peter de Soubise, Bischof von Saintes, c. 1107\u2013c. 1111.<\/i>",
            "children": {
                "numero_note": "2"
            }
        },
        {
            "type": "notes_historiques",
            "value": "<i>Gottfried, Abt von St.-Maixent, 1107\u20131134.<\/i>",
            "children": {
                "numero_note": "3"
            }
        },
        {
            "type": "genre",
            "value": "Bulle"
        }
    ]
}