{
    "id": 149705,
    "name": "aposcripta-9268",
    "type": "acte",
    "url": "http:\/\/telma-chartes.irht.cnrs.fr\/aposcripta\/notice\/149705",
    "project_slug": "aposcripta",
    "project_label": "APOSCRIPTA \u2013 Lettres des papes",
    "user": "lettrespontificalesadmin",
    "last_update": "2020-10-19 16:40:02",
    "licence": "Attribution - Pas d\u2019Utilisation Commerciale - Partage dans les M\u00eames Conditions 3.0 France (CC BY-NC-SA 3.0 FR) ",
    "licence_url": "https:\/\/creativecommons.org\/licenses\/by-nc-sa\/3.0\/fr\/",
    "elements": [
        {
            "type": "pape",
            "value": "Alexandre IV (1254-1261)"
        },
        {
            "type": "destinataire",
            "value": "Henrico electo Leodiensi"
        },
        {
            "type": "date_libre",
            "value": "kalendis iunii, anno tertio"
        },
        {
            "type": "date",
            "value": " 1257\/06\/01",
            "children": {
                "date_deb_annee": "1257",
                "date_deb_mois": "06",
                "date_deb_jour": "01"
            },
            "range": {
                "date_apres": 12570601,
                "date_avant": 12570601
            }
        },
        {
            "type": "date_lieu",
            "value": "Viterbii"
        },
        {
            "type": "sources_manuscrites",
            "value": "R. CIT\u00c9 DU VATICAN, Archivio Segreto Vaticano, <hi rend=\"italic\">Registra Vaticana<\/hi> ... Al.\u00a0IV Reg. Vol.\u00a0II, 43; Lib.\u00a0III, 323. Exemplar tabularii contulimus cum Regestis.",
            "children": {
                "type_source": "Registre de la chancellerie apostolique"
            }
        },
        {
            "type": "genre",
            "value": "Mandement (littere cum filo canapis)"
        },
        {
            "type": "analyse",
            "value": "Alexander IV papa Henrico electo Leodiensi tempus consecrationis propter quaedam impedimenta de novo usque ad quattuor tempora mensis Decembris futuri prorogat [Rodenberg]."
        },
        {
            "type": "transcription",
            "value": "<?xml version=\"1.0\" encoding=\"UTF-8\"?>\nHenrico electo Leodiensi.Ex parte tua fuit nobis humiliter supplicatum, ut cum nos olim tempus tue ordinationis et consecrationis usque ad certa quatuor tempora \u2014 non obstante statuto a nobis contra electos ecclesiarum consecrationis munus suscipere non curantes edito \u2014 duxerimus prorogandum, prout in apostolicis litteris super hoc obtentis plenius continetur, et propter quedam impedimenta, que tibi emersere de novo, nequiveris iuxta litterarum nostrarum continentiam sacros suscipere ordines et in episcopum consecrari, prorogare tibi adhuc tempus huiusmodi de benignitate apostolica curaremus. Nos igitur, attendentes tue devotionis obsequia, quibus favorem sedis apostolice promereris, ac volentes adhuc ob id tibi facere gratiam in hac parte, tuis supplicationibus inclinati, huiusmodi tempus usque ad quatuor tempora mensis Decembris proximo futuri \u2014 non obstante statuto predicto \u2014 tibi auctoritate apostolica prorogamus, ita quod ex tunc promoveri ad sacros ordines et in episcopum consecrari te facias iuxta priorum nostrarum continentiam litterarum. Nulli \u2014 nostre prorogationis etc.Dat. Viterbii, Kalendis Iunii, anno tertio.\n"
        },
        {
            "type": "edition",
            "value": "Ici reprise de Karl Rodenberg, Epistolae s. XIII e regestis pontificum romanorum selectae, III, Berlin : Weidmann (MGH), 1894, n.\u00a0456, p.\u00a0420."
        },
        {
            "type": "edition_autre",
            "value": "?"
        },
        {
            "type": "regeste",
            "value": "?"
        },
        {
            "type": "bibliographie_generale",
            "value": "?"
        },
        {
            "type": "apparat_critique",
            "value": "?",
            "children": {
                "numero_note": "a"
            }
        },
        {
            "type": "apparat_critique",
            "value": "?",
            "children": {
                "numero_note": "b"
            }
        },
        {
            "type": "apparat_critique",
            "value": "?",
            "children": {
                "numero_note": "c"
            }
        },
        {
            "type": "apparat_critique",
            "value": "?",
            "children": {
                "numero_note": "d"
            }
        },
        {
            "type": "apparat_critique",
            "value": "?",
            "children": {
                "numero_note": "e"
            }
        },
        {
            "type": "apparat_critique",
            "value": "?",
            "children": {
                "numero_note": "f"
            }
        },
        {
            "type": "notes_historiques",
            "value": "?",
            "children": {
                "numero_note": "1"
            }
        },
        {
            "type": "notes_historiques",
            "value": "?",
            "children": {
                "numero_note": "2"
            }
        },
        {
            "type": "notes_historiques",
            "value": "?",
            "children": {
                "numero_note": "3"
            }
        }
    ]
}