{
    "id": 25712,
    "name": "aposcripta-2809",
    "type": "acte",
    "url": "http:\/\/telma-chartes.irht.cnrs.fr\/aposcripta\/notice\/25712",
    "project_slug": "aposcripta",
    "project_label": "APOSCRIPTA \u2013 Lettres des papes",
    "user": "lettrespontificalesadmin",
    "last_update": "2020-10-19 16:27:48",
    "licence": "Attribution - Pas d\u2019Utilisation Commerciale - Partage dans les M\u00eames Conditions 3.0 France (CC BY-NC-SA 3.0 FR) ",
    "licence_url": "https:\/\/creativecommons.org\/licenses\/by-nc-sa\/3.0\/fr\/",
    "elements": [
        {
            "type": "pape",
            "value": "Nicolas IV (1288-1292)"
        },
        {
            "type": "destinataire",
            "value": "L'abb\u00e9 de Cluny Guillaume",
            "children": {
                "numero_note": "0"
            }
        },
        {
            "type": "date_lieu",
            "value": "n.c."
        },
        {
            "type": "date_libre",
            "value": "1290, 7 mars"
        },
        {
            "type": "date",
            "value": " 1290\/03\/07",
            "children": {
                "date_deb_annee": "1290",
                "date_deb_mois": "03",
                "date_deb_jour": "07"
            },
            "range": {
                "date_apres": 12900307,
                "date_avant": 12900307
            }
        },
        {
            "type": "analyse",
            "value": "X pape<br\/>LITTER\u00c6 NICOLAI PAP\u00c6 IV, QUIBUS CONCEDIT GUILLELMO, ABBATI CLUNIACENSI, FACULTATEM ELIGENDI SIBI CONFESSOREM PROPRIUM."
        },
        {
            "type": "transcription",
            "value": "<?xml version=\"1.0\" encoding=\"UTF-8\"?>\nNicolaus, etc. Desideriis tuis in, etc. \n"
        },
        {
            "type": "edition",
            "value": "Ici tir\u00e9e du projet <i>CBMA - Corpus Burgundiae Medii Aevi<\/i>, document 6863. Site du projet Corpus de la Bourgogne du Moyen \u00c2ge, [En ligne] <a href=\"http:\/\/www.cbma-project.eu\" target=\"_blank\">http:\/\/www.cbma-project.eu<\/a>  "
        },
        {
            "type": "sources_manuscrites",
            "value": "\u00e0 renseigner."
        },
        {
            "type": "remarques",
            "value": ""
        },
        {
            "type": "edition_autre",
            "value": "Ici reprise de Auguste Bernard, Alexandre Bruel, <i>Recueil des chartes de l'abbaye de Cluny<\/i>. VI. <i>1211-1300<\/i>, Paris\u00a0: Imprimerie nationale, 1903 <a href=\"http:\/\/gallica.bnf.fr\/ark:\/12148\/bpt6k367019?rk=21459;2\" target=\"_blank\">[en ligne]<\/a>, p. 780, n\u00b0 5378",
            "children": {
                "numero_note": "0"
            }
        },
        {
            "type": "regeste",
            "value": "E. Langlois, Reg. de Nicolas IV, n\u00ba\u00a02395.",
            "children": {
                "numero_note": "0"
            }
        },
        {
            "type": "genre",
            "value": "Lettre"
        }
    ]
}