{
    "id": 20741,
    "name": "aposcripta-728",
    "type": "acte",
    "url": "http:\/\/telma-chartes.irht.cnrs.fr\/aposcripta\/notice\/20741",
    "project_slug": "aposcripta",
    "project_label": "APOSCRIPTA \u2013 Lettres des papes",
    "user": "lettrespontificalesadmin",
    "last_update": "2020-10-19 16:26:52",
    "licence": "Attribution - Pas d\u2019Utilisation Commerciale - Partage dans les M\u00eames Conditions 3.0 France (CC BY-NC-SA 3.0 FR) ",
    "licence_url": "https:\/\/creativecommons.org\/licenses\/by-nc-sa\/3.0\/fr\/",
    "elements": [
        {
            "type": "pape",
            "value": "Adrien IV (1154-1159)"
        },
        {
            "type": "date_lieu",
            "value": "Latran"
        },
        {
            "type": "date_libre",
            "value": "VIII idus februarii"
        },
        {
            "type": "analyse",
            "value": "Hadrianus\u00a0IV episcopis quibusdam mandat ut reliquiis S. Florentii in capsa nova recondendis assistant et fidelibus ibi convenientibus peccatorum remissionem indulgeant."
        },
        {
            "type": "transcription",
            "value": "<?xml version=\"1.0\" encoding=\"UTF-8\"?>\nAdrianus episcopus servus servorum Dei, venerabilibus fratribus W(illelmo) Cenomannensi, B(ernardo) Namnetensi, M(atthaeo) Andegavensi et S(tephano) Redonensi salutem et apostolicam benedictionem. Dilecti filii nostri Philippus abbas et monachi Salmurenses corpus B. Florentii, quod in eorum requiescit ecclesia, in capsam novam studiosius praeparatam debita desiderant veneratione transferri. Quocirca per apostolica vobis scripta mandamus quatinus, cum ab eisdem fratribus fueritis invitati, ad eorum ecclesiam accedatis et praedicti Sancti reliquias in loco novo devotione congrua iuxta pium ipsorum fratrum desiderium recondentes, convenientibus ibi devotionis intuitu fidelibus christianis peccatorum suorum remissionem, sicut convenire videritis, faciatis. Datum Laterani, VIII idus februarii.\n"
        },
        {
            "type": "edition",
            "value": "Ici reprise de Samuel Loewenfeld, <i>Epistolae pontificum romanorum ineditae<\/i>, Leipzig : Veit et Comp., 1885, n. 229, p. 125-126."
        },
        {
            "type": "sources_manuscrites",
            "value": "F. FRANCE, Paris, Bibl. nat. Paris. Coll. Anjou et Touraine 5 n.\u00a01761<sup>b<\/sup> et 1792 (manu s.\u00a0XVIII).",
            "children": {
                "type_source": "Copie moderne"
            }
        },
        {
            "type": "date",
            "value": "1157\/02\/06",
            "children": {
                "date_deb_annee": "1157",
                "date_deb_mois": "02",
                "date_deb_jour": "06"
            },
            "range": {
                "date_apres": 11570206,
                "date_avant": 11570206
            }
        },
        {
            "type": "genre",
            "value": "Mandement (littere cum filo canapis)"
        }
    ]
}