{
    "id": 24023,
    "name": "aposcripta-1176",
    "type": "acte",
    "url": "http:\/\/telma-chartes.irht.cnrs.fr\/aposcripta\/notice\/24023",
    "project_slug": "aposcripta",
    "project_label": "APOSCRIPTA \u2013 Lettres des papes",
    "user": "l_valliere",
    "last_update": "2020-10-19 16:27:21",
    "licence": "Attribution - Pas d\u2019Utilisation Commerciale - Partage dans les M\u00eames Conditions 3.0 France (CC BY-NC-SA 3.0 FR) ",
    "licence_url": "https:\/\/creativecommons.org\/licenses\/by-nc-sa\/3.0\/fr\/",
    "elements": [
        {
            "type": "pape",
            "value": "Urbain IV (1261-1264)"
        },
        {
            "type": "destinataire",
            "value": "L'abb\u00e9 de Saint-Denis en France, dioc\u00e8se de Paris"
        },
        {
            "type": "date_libre",
            "value": "XII kalendas januarii, anno primo"
        },
        {
            "type": "date",
            "value": " 1261\/12\/21",
            "children": {
                "date_deb_jour": "21",
                "date_deb_mois": "12",
                "date_deb_annee": "1261"
            },
            "range": {
                "date_apres": 12611221,
                "date_avant": 12611221
            }
        },
        {
            "type": "date_lieu",
            "value": "Viterbe"
        },
        {
            "type": "genre",
            "value": "Mandement (littere cum filo canapis)"
        },
        {
            "type": "analyse",
            "value": "Urbanus IV papa abbati Sancti Dionysii in Francia mandat quatinus non permittat Lodowicum regem Francorum contra privilegia et indulgentias ipsi a Sede apostolica concessa ab aliquibus indebite molestari."
        },
        {
            "type": "sources_manuscrites",
            "value": "E. FRANCE, Paris, Archives nationales, J 695\/175 (2). Original scell\u00e9 (scell\u00e9 en plomb sur cordes de chanvre).",
            "children": {
                "type_source": "Exp\u00e9dition",
                "source_edition": ""
            }
        },
        {
            "type": "regeste",
            "value": "Potthast, <i>Regesta pontificum Romanorum<\/i>, n. 18193 <a target=\"_blank\" href=\"https:\/\/archive.org\/stream\/RegestaPontificumRomanorum\/ph#page\/n1493\/mode\/2up\"> [en ligne]<\/a>."
        },
        {
            "type": "transcription",
            "value": "<?xml version=\"1.0\" encoding=\"UTF-8\"?>\nCum, sicut ex... Datum Viterbii, XII kalendas januarii, pontificatus nostri anno primo.\n"
        },
        {
            "type": "remarques",
            "value": "\u00e0 \u00e9diter - Absente des registres - Proche de <a target=\"_blank\" href= \"http:\/\/telma-chartes.irht.cnrs.fr\/aposcripta\/notice\/24022\"> Aposcripta, n. 1175<\/a>."
        },
        {
            "type": "sources_manuscrites",
            "value": "F. FRANCE, Paris, Archives nationales, J 940\/14. Copie authentique (vidimus du 11 octobre 1305 donn\u00e9 par l'official de Paris).",
            "children": {
                "type_source": "Exp\u00e9dition"
            }
        },
        {
            "type": "edition_autre",
            "value": "Partielle : Adolfe et Joseph Tardif, <i>Privil\u00e8ges accord\u00e9s \u00e0 la Couronne de France par le Saint-Si\u00e8ge, publi\u00e9s d'apr\u00e8s les originaux conserv\u00e9s aux Archives de l'Empire et \u00e0 la Biblioth\u00e8que imp\u00e9riale<\/i>, Paris :  Imprimerie nationale, 1855, p. 29, n. 36 <a target=\"_blank\" href= \"https:\/\/archive.org\/stream\/privilgesaccor00cath#page\/28\/mode\/2up\"> [en ligne]<\/a>, d'apr\u00e8s E."
        },
        {
            "type": "regeste",
            "value": "Henri-Fran\u00e7ois Delaborde, <i>Layettes du Tr\u00e9sor des chartes<\/i>, V, Paris : Henri Plon, 1909 <a target=\"_blank\" href=\" http:\/\/digi.ub.uni-heidelberg.de\/diglit\/teulet1908bd5\/0484\/image\"> [en ligne]<\/a>, n. 738, p. 248, d\u2019apr\u00e8s F."
        },
        {
            "type": "regeste",
            "value": "Bernard Barbiche, <i>Les actes pontificaux originaux des Archives Nationales de Paris<\/i>, Cit\u00e9 du Vatican, 1975-1982, II, n. 1094, p. 7, d\u2019apr\u00e8s E."
        }
    ]
}