{
    "id": 24694,
    "name": "aposcripta-1844",
    "type": "acte",
    "url": "http:\/\/telma-chartes.irht.cnrs.fr\/aposcripta\/notice\/24694",
    "project_slug": "aposcripta",
    "project_label": "APOSCRIPTA \u2013 Lettres des papes",
    "user": "l_valliere",
    "last_update": "2020-10-19 16:27:33",
    "licence": "Attribution - Pas d\u2019Utilisation Commerciale - Partage dans les M\u00eames Conditions 3.0 France (CC BY-NC-SA 3.0 FR) ",
    "licence_url": "https:\/\/creativecommons.org\/licenses\/by-nc-sa\/3.0\/fr\/",
    "elements": [
        {
            "type": "pape",
            "value": "Urbain IV (1261-1264)"
        },
        {
            "type": "destinataire",
            "value": "Tous les archev\u00eaques, \u00e9v\u00eaques, fr\u00e8res Pr\u00eacheurs et Mineurs d\u00e9put\u00e9s par le Si\u00e8ge apostolique pour l'affaire de la croisade"
        },
        {
            "type": "date_libre",
            "value": "IIII kalendas aprilis, anno secundo"
        },
        {
            "type": "date",
            "value": " 1263\/03\/29",
            "children": {
                "date_deb_jour": "29",
                "date_deb_mois": "03",
                "date_deb_annee": "1263"
            },
            "range": {
                "date_apres": 12630329,
                "date_avant": 12630329
            }
        },
        {
            "type": "date_lieu",
            "value": "Orvieto"
        },
        {
            "type": "genre",
            "value": "Mandement (littere cum filo canapis)"
        },
        {
            "type": "analyse",
            "value": "Urbanus IV universis archiepiscopis et episcopis scribit, fratribusque tam ordinis Praedicatorum quam ordinis Minorum caeterisque executoribus per diversa christiana regna mundi ad crucis negotium pro Terrae Sanctae subventione a Sede Apostolica deputatis et in posterum deputandis. Facultatem eis concedit providendi ut privilegia indulgentiaeque et immunitates, quae crucesignatis in generali concilio sunt concessa, observentur, contradictoresque per censuram ecclesiasticam appellatione postposita compescendi. Tenorem porro dictorum privilegiorum, indulgentiarum et immunitatum, sumptum ex regesto Innocentii III, praesentibus litteris inserit, his verbis in principio distinctum : \u00ab Ad liberandam Terram Sanctam \u00bb et : \u00ab Datum Laterani, XVIIII kalendas januarii, pontificatus nostri anno octavodecimo \u00bb."
        },
        {
            "type": "sources_manuscrites",
            "value": "E1. FRANCE, Paris, Archives nationales, J 447\/71 (1). Original scell\u00e9 (scell\u00e9 de la bulle d'Urbain IV, port\u00e9e sur cordelettes de chanvre. Au dos, en haut, la mention : \"PRO TERRA SANCTA.\" La bulle d'Innocent III, ins\u00e9r\u00e9e dans celle d'Urbain IV, n'est autre que le canon du quatri\u00e8me concile de Latran, relatif \u00e0 la croisade de Terre Sainte, exp\u00e9di\u00e9 \u00e0 la date du 19 d\u00e9cembre 1215, et bien connu sous cette forme. La pi\u00e8ce portant le n. J. 447, 71 (3) doit \u00eatre examin\u00e9e \u00e0 part ; elle est adress\u00e9e \u00e0 l'archev\u00eaque de Tyr).",
            "children": {
                "type_source": "Exp\u00e9dition"
            }
        },
        {
            "type": "sources_manuscrites",
            "value": "E2. FRANCE, Paris, Archives nationales, J 447\/71 (2). Original scell\u00e9 (scell\u00e9 de la bulle d'Urbain IV, port\u00e9e sur cordelettes de chanvre. Au dos, en haut, la mention : \"PRO TERRA SANCTA.\")",
            "children": {
                "type_source": "Exp\u00e9dition"
            }
        },
        {
            "type": "sources_manuscrites",
            "value": "E3. FRANCE, Paris, Archives nationales, J 447\/71 (4). Original scell\u00e9 (scell\u00e9 de la bulle d'Urbain IV, port\u00e9e sur cordelettes de chanvre. Au dos, en haut, la mention : \"PRO TERRA SANCTA.\")",
            "children": {
                "type_source": "Exp\u00e9dition"
            }
        },
        {
            "type": "sources_manuscrites",
            "value": "E4. FRANCE, Paris, Archives nationales, J 447\/71 (5). Original scell\u00e9 (scell\u00e9 de la bulle d'Urbain IV, port\u00e9e sur cordelettes de chanvre. Au dos, en haut, la mention : \"PRO TERRA SANCTA.\")",
            "children": {
                "type_source": "Exp\u00e9dition"
            }
        },
        {
            "type": "sources_manuscrites",
            "value": "E5. FRANCE, Paris, Archives nationales, J 447\/71 (6). Original scell\u00e9 (scell\u00e9 de la bulle d'Urbain IV, port\u00e9e sur cordelettes de chanvre. Au dos, en haut, la mention : \"PRO TERRA SANCTA.\")",
            "children": {
                "type_source": "Exp\u00e9dition"
            }
        },
        {
            "type": "sources_manuscrites",
            "value": "E6. FRANCE, Paris, Archives nationales, J 447\/71 (7). Original scell\u00e9 (scell\u00e9 de la bulle d'Urbain IV, port\u00e9e sur cordelettes de chanvre. Au dos, en haut, la mention : \"PRO TERRA SANCTA.\")",
            "children": {
                "type_source": "Exp\u00e9dition"
            }
        },
        {
            "type": "sources_manuscrites",
            "value": "E7. FRANCE, Paris, Archives nationales, J 447\/71 (8). Original scell\u00e9 (scell\u00e9 de la bulle d'Urbain IV, port\u00e9e sur cordelettes de chanvre. Au dos, en haut, la mention : \"PRO TERRA SANCTA.\")",
            "children": {
                "type_source": "Exp\u00e9dition"
            }
        },
        {
            "type": "sources_manuscrites",
            "value": "E8. FRANCE, Paris, Archives nationales, J 447\/71 (9). Original scell\u00e9 (scell\u00e9 de la bulle d'Urbain IV, port\u00e9e sur cordelettes de chanvre. Au dos, en haut, la mention : \"PRO TERRA SANCTA.\")",
            "children": {
                "type_source": "Exp\u00e9dition"
            }
        },
        {
            "type": "regeste",
            "value": "Potthast, <i>Regesta pontificum Romanorum<\/i>, n. 18510 <a target=\"_blank\" href=\"https:\/\/archive.org\/stream\/RegestaPontificumRomanorum\/ph#page\/n1515\/mode\/2up\"> [en ligne]<\/a>."
        },
        {
            "type": "regeste",
            "value": "\u00c9lie Berger, <i>Layettes du Tr\u00e9sor des chartes<\/i>, IV, Paris : Henri Plon, 1902 <a target=\"_blank\" href=\"http:\/\/digi.ub.uni-heidelberg.de\/diglit\/teulet1902bd4\/0140\"> [en ligne]<\/a>, n. 4814, p. 54-55 <a target=\"_blank\"href=\"https:\/\/francearchives.fr\/fr\/facomponent\/cd54a8635121dee4a82eb5bb08fbdbb2199b09e1\">[num\u00e9ris\u00e9e sur le site des Archives de France]<\/a>, d'apr\u00e8s E"
        },
        {
            "type": "transcription",
            "value": "<?xml version=\"1.0\" encoding=\"UTF-8\"?>\nCum negotium crucis... Datum apud Urbemveterem, IIII kalendas aprilis, pontificatus nostri anno secundo.\n"
        },
        {
            "type": "remarques",
            "value": "\u00e0 \u00e9diter - Les cotes originales ont \u00e9t\u00e9 rectifi\u00e9es selon Barbiche, <i>Les actes pontificaux<\/i>, n. 1173, p. 39-40."
        },
        {
            "type": "edition",
            "value": "Edition partielle Giovanni Giacinto Sbaralea, <i>Bullarium franciscanum<\/i>, II,  Rome : Typis Sacrae Congregationis de Propaganda Fide, 1761, n. 51, p. 459 <a target=\"_blank\" href= \" https:\/\/archive.org\/stream\/bub_gb_aIY5JaccTd4C#page\/n489\"> [en ligne]<\/a>."
        },
        {
            "type": "regeste",
            "value": "Bernard Barbiche, <i>Les actes pontificaux originaux des Archives Nationales de Paris<\/i>, Cit\u00e9 du Vatican, 1975-1982, II, n. 1173, p. 39-40."
        }
    ]
}