{
    "id": 26026,
    "name": "aposcripta-3123",
    "type": "acte",
    "url": "http:\/\/telma-chartes.irht.cnrs.fr\/aposcripta\/notice\/26026",
    "project_slug": "aposcripta",
    "project_label": "APOSCRIPTA \u2013 Lettres des papes",
    "user": "lettrespontificalesadmin",
    "last_update": "2020-10-19 16:27:52",
    "licence": "Attribution - Pas d\u2019Utilisation Commerciale - Partage dans les M\u00eames Conditions 3.0 France (CC BY-NC-SA 3.0 FR) ",
    "licence_url": "https:\/\/creativecommons.org\/licenses\/by-nc-sa\/3.0\/fr\/",
    "elements": [
        {
            "type": "pape",
            "value": "Urbain II (1088-1099)"
        },
        {
            "type": "destinataire",
            "value": "( )",
            "children": {
                "numero_note": "0"
            }
        },
        {
            "type": "date_lieu",
            "value": "n.c."
        },
        {
            "type": "date_libre",
            "value": "1095, 7\u00a0d\u00e9cembre"
        },
        {
            "type": "date",
            "value": " 1095\/12\/07",
            "children": {
                "date_deb_annee": "1095",
                "date_deb_mois": "12",
                "date_deb_jour": "07"
            },
            "range": {
                "date_apres": 10951207,
                "date_avant": 10951207
            }
        },
        {
            "type": "analyse",
            "value": "X pape<br\/>Urbain\u00a0II confirme \u00e0 Marcigny la possession des \u00e9glises de Varennes-l\u2019Arconce, Briant, Sarry, Baugy, Chambilly, Saint-Nizier de Marcigny, Sainte-Foy, Saint-Christophe-en-Brionnais, Saint-L\u00e9ger, de la chapelle Sainte-Marie de Semur et du quart de celle de Saint-Martin-de-la-Vall\u00e9e (dioc\u00e8se d\u2019Autun); de Saint-Jacques (dioc\u00e8se de M\u00e2con); de la moiti\u00e9 de Vitry, des \u00e9glises de Saint-Martin du Lac, Briennon, Saint-Romain-la-Motte, de la chapelle de Sell\u00e9e, de la terre d\u2019Hugues Li\u00e9baud \u00e0 Chezeul (tous attribu\u00e9s au dioc\u00e8se de Lyon); des \u00e9glises de Loddes, Ludesse et Tres Fontes (dioc\u00e8se de Clermont); de quatre \u00e9glises \u00e0 Aurel (dioc\u00e8se de Die); de celle de la Baume-Cornillane (dioc\u00e8se de Valence); de celle de Morlaas (en B\u00e9arn); de deux \u00e9glises au dioc\u00e8se de Poitiers; de celle de Montours (dioc\u00e8se de Saintes); d\u2019Aywaille et Rachamps (dioc\u00e8se de Li\u00e8ge); d\u2019Aquabella (dioc\u00e8se de Rouen); des quinze meix de la prieure Agilmodis \u00e0 Maurens (dioc\u00e8se de P\u00e9rigueux); de l\u2019\u00e9glise de Saint-Constant (dioc\u00e8se de Cahors); de trois villages au dioc\u00e8se de Najera."
        },
        {
            "type": "transcription",
            "value": "<?xml version=\"1.0\" encoding=\"UTF-8\"?>\nUrbanus episcopus, servus servorum Dei, Marciniacensis coenobii sanctimonialibus, salutem et apostolicam benedictionem. Ad hoc nos, disponente Domino, in apostolicae Sedis servitium promotos agnoscimus ut ejus auxilium implorantibus efficaciter subvenire et ei obedientes tueri ac protegere, prout Dominus dederit, debeamus. Unde oportet nos venerabilibus locis protectionis manum porrigere et Deo servientium quieti attentius providere. Igitur tam pro vestra speciali religione quam pro venerabilis fratris nostri Hugonis Cluniacensis abbatis dilectione, ad cujus curam ex Cluniacensis coenobii jure locus vester pertinet, vestris, filiae in Christo carissimae, precibus annuentes, monasterium vestrum praesentis decreti auctoritate munimus. Statuimus enim ut quaecumque hodie idem coenobium juste possidet, sive in futurum, concessione pontificum, liberalitate principum vel oblatione fidelium, juste atque canonice poterit adipisci, vobis et his qui post vos in loco eodem ac religione successerint, firma semper et illibata permaneant, in quibus haec propriis nominibus duximus exprimenda: in episcopatu Augustodunensi ecclesia de Varennis, de Brianno, de Sarrierio, de Belgiaco, de Camboliaco, ecclesiae Sancti Nicetii, Sanctae Fidei, Sancti Christofori, Sancti Leodegarii, capellam Sanctae Mariae in oppido Sinemuro cum decimis et cimiteriis suis, quartam partem ecclesiae Sancti Martini extra Sinemurum; in episcopatu Matisconensi ecclesiam Sancti Jacobi; in Lugdunensi, medietatem villae Vitriaci, ecclesiam Sancti Martini, ecclesiam Sancti Reveriani apud Brianonum, ecclesiam Sancti Romani, capellam de Celerias, terram Hugonis Letbaldi, cum aliis quibusdam apud Casiotum; in episcopatu Arvernensi ecclesiam Sancti Petri de Lodda, Sancti Vincentii de Lodessa, cum decimis et cimiteriis, Sancti Nicolai ad Tres Fontes; in episcopatu Diensi, apud oppidum seu territorium de Orello, ecclesias quatuor; in Valentino episcopatu, ecclesiam Sancti Stephani ad Balmam; in comitatu Beardensi, ecclesiam Sanctae Fidei apud villam quae dicitur Furcas; in episcopatu Pictaviensi, ecclesias duas; in Santonensi, ecclesiam de Montoso; in Leodiensi, villam quae dicitur Aiquales cum ecclesia et decimis et aliam quae dicitur Reicampus; in Rotomagensi, villam quae dicitur Aquabella; in Petragoricensi, mansos quindecim Agimoldis priorissae apud villam Maurensem; in Caturcensi, ecclesiam Sancti Constantii; in Nazarensi episcopatu, villas tres, Villela, Ataid, Glanga, cum universis possessionibus et appendiciis suis. Praeterea decernimus ut nulli omnino hominum liceat eandem ecclesiam temere perturbare aut ejus possessiones auferre vel ablatas retinere, minuere vel temerariis vexationibus fatigare, sed omnia integra conserventur earum pro quarum sustentatione ac gubernatione concessa sunt, usibus omnimodis profutura, salva in omnibus debita abbatum Cluniacensium reverentia. Sepulturam ejusdem loci omnino liberam esse sancimus, ut eorum qui illic sepeliri deliberaverint devotioni et extremae voluntati, nisi forte excommunicati sint, nullus obsistat. Hoc quoque praesenti capitulo subjungimus ut nulli jam liceat congregationi vestrae vel excommunicationis gravamen inferre, vel divinum officium interdicere, vel sepulturae debitum prohibere, aut interdicti cujuslibet molestiam irrogare, quia pro Dei timore clausae et saeculo jam estis emortuae (sic), quatenus ab omni infestatione securae omnique gravamine mundanae oppressionis remotae, ad aeterni sponsi semper desiderabilem visionem totius mentis et animae viribus anheletis. Si qua sane in crastinum ecclesiastica secularisve persona, hanc nostrae constitutionis paginam sciens, contra eam temere venire temptaverit, secundo, tertio commonita, si non satisfactione congrua emendaverit, potestatis honorisque sui dignitate careat reamque se divino judicio existere de perpetrata iniquitate cognoscat, et a sacratissimo corpore et sanguine Dei et Domini Redemptoris nostri Jesu Christi aliena fiat atque in extremo examine districtae ultioni subjaceat. Cunctis autem eidem loco justa servantibus sit pax Domini nostri Jesu Christi quatenus et hic fructum bonae actionis percipiant et apud districtum Judicem praemia aeternae pacis inveniant. Amen, amen, amen. Benedictus Deus et Pater Domini nostri Jesu Christi. Amen. Datum apud oppidum Sancti Flori per manum Joannis sanctae Romanae ecclesiae diaconi cardinalis, indictione tertia, anno Dominicae incarnationis millesimo nonagesimo sexto, pontificatus autem domini Urbani\u00a0II papae octavo, septimo idus decembris.\n"
        },
        {
            "type": "edition",
            "value": "Ici tir\u00e9e du projet <i>CBMA - Corpus Burgundiae Medii Aevi<\/i>, document 11385. Site du projet Corpus de la Bourgogne du Moyen \u00c2ge, [En ligne] <a href=\"http:\/\/www.cbma-project.eu\" target=\"_blank\">http:\/\/www.cbma-project.eu<\/a>  "
        },
        {
            "type": "sources_manuscrites",
            "value": "\u00e0 renseigner. Texte pr\u00e9c\u00e9d\u00e9 de la rubrique: <i>Livre II, Bull. Icy sont les ordonnances apostoliques touchant les terres appartenantes a ce lieu et touchant les \u00e9glises"
        },
        {
            "type": "sources_manuscrites",
            "value": "premi\u00e8rement celle de dom Urbain, pape second"
        },
        {
            "type": "sources_manuscrites",
            "value": "ensuite celle de Calixte, pape second"
        },
        {
            "type": "sources_manuscrites",
            "value": "ensuite celle de Innocent.<\/i>"
        },
        {
            "type": "remarques",
            "value": "\r\n\r\n B, fos\u00a045-46. Traduction: E, p.\u00a069-70. \u00c9ditions: Bibliotheca Cluniacensis, notes, col.\u00a086-87; Patr. Lat., CLI, col.\u00a0442; Bullarium sacri ordinis Cluniacensis, p.\u00a022. "
        },
        {
            "type": "edition_autre",
            "value": "Ici reprise de Jean Richard, <i>Le Cartulaire de Marcigny-sur-Loire, 1045-1144, essai de reconstitution d'un manuscrit disparu<\/i>, Dijon : Bernigaud et Privat, Soci\u00e9t\u00e9 des Analecta burgundica, 1957, p. 144-147, n\u00b0 269.",
            "children": {
                "numero_note": "0"
            }
        },
        {
            "type": "genre",
            "value": "Bulle"
        }
    ]
}