{
    "id": 149056,
    "name": "aposcripta-8622",
    "type": "acte",
    "url": "http:\/\/telma-chartes.irht.cnrs.fr\/aposcripta\/notice\/149056",
    "project_slug": "aposcripta",
    "project_label": "APOSCRIPTA \u2013 Lettres des papes",
    "user": "l_valliere",
    "last_update": "2020-10-19 16:39:53",
    "licence": "Attribution - Pas d\u2019Utilisation Commerciale - Partage dans les M\u00eames Conditions 3.0 France (CC BY-NC-SA 3.0 FR) ",
    "licence_url": "https:\/\/creativecommons.org\/licenses\/by-nc-sa\/3.0\/fr\/",
    "elements": [
        {
            "type": "pape",
            "value": "Cl\u00e9ment IV (1265-1268)"
        },
        {
            "type": "destinataire",
            "value": "L'\u00e9v\u00eaque de Trente"
        },
        {
            "type": "date_libre",
            "value": " II idus decembris, anno secundo<a href=\"#note-1\"><sup>1<\/sup><\/a>"
        },
        {
            "type": "date",
            "value": "1265\/12\/12",
            "children": {
                "date_deb_annee": "1265",
                "date_deb_mois": "12",
                "date_deb_jour": "12"
            },
            "range": {
                "date_apres": 12651212,
                "date_avant": 12651212
            }
        },
        {
            "type": "date_lieu",
            "value": "P\u00e9rouse"
        },
        {
            "type": "genre",
            "value": "Mandement (littere cum filo canapis)"
        },
        {
            "type": "analyse",
            "value": "Papst Clemens IV. anempfiehlt dem Bischof von Trient die auf Bitte des Abts und Konvents von Weingarten durch ihn bewilligte Einverleibung der Eink\u00fcnfte der St. Georgskapelle zu Lana in genanntes Kloster und verbietet dem Bischof und dem Grafen von Tirol, das letztere in Aus\u00fcbung seines Patronatsrechts \u00fcber die St. Pankrazkirche in Ulten zu sch\u00e4digen [Wirtembergische Urkundenbuch]."
        },
        {
            "type": "sources_manuscrites",
            "value": "F. ALLEMAGNE, Stuttgart, Hauptstaatsarchiv, B 520 U 2. Nach einem Vidimus auf italienischem Pergament mit einem Notariatssignet an der Spitze. Das Vidimus beginnt folgenderma\u00dfen: \u201e<i>Anno domini millesimo CCLXXV indictione tercia, die nono exeuntis Oct<\/i>ubris, ad Uollan<a href=\"#note-2\"><sup>2<\/sup><\/a> in curia Olrici Houerii in presentia domini Hainrici capellani de Weingart, domini Hartemanni plebani de [M]aiesf<a href=\"#note-f\"><sup>f<\/sup><\/a><a href=\"#note-3\"><sup>3<\/sup><\/a> , domini Uolchemari plebani de Lonan, Gebeni et suorum fratrum Hainci Pfaffi et Alberti de Maienberch<a href=\"#note-4\"><sup>4<\/sup><\/a> , Friderici Hellerii, Reimanni de Uollan, Olrici Zehentenerig<a href=\"#note-g\"><sup>g<\/sup><\/a> de Lanan et aliorum item rogatorum, ibique dominus Heremannus venerabilis abbas sancti Martini de Weingarten rogavit me infrascriptum Bertelotum notarium, ut sibi exemplarem literam bullatam et cedula integra et illesa, tenor qualis talis est\u201c. Es schlie\u00dft mit den Worten: \u201e<i>Ego Bertelotus, notarius domini H.<\/i><a href=\"#note-5\"><sup>5<\/sup><\/a> <i>regis, hanc literam bullatam vidi et legi et sicut in illa continebatur ita et in ista continetur, nichil addens vel minuens nisi forte literam sillabam vel punctum et hoc sine fraude, meum singnum aposui atque me subscripsi<\/i>\u201c und tr\u00e4gt auf dem R\u00fccken folgende ziemlich gleichzeitige Aufschrift: \u201eRescriptum litere papalis de verbo ad verbum pro ecclesiis in Vltun et sancti Georgii apud Lounon\u201c.",
            "children": {
                "type_source": "Vidimus"
            }
        },
        {
            "type": "edition",
            "value": "Ici reprise de <i>Wirtembergische Urkundenbuch<\/i>, VI, Stuttgart : In Commission bei Karl Aue, 1894, n. 1841, p. 236-237 <a target=\"_blank\" href=\"http:\/\/www.wubonline.de\/?wub=2592\"> [en ligne]<\/a>."
        },
        {
            "type": "transcription",
            "value": "<?xml version=\"1.0\" encoding=\"UTF-8\"?>\nClemens episcopus, servus servorum dei, dilecto fratri .. Tridentino episcopo salutem et apostolicam benedictionem. Quoniam referentibus dilectis filiis .. abbate et conventu monasterii in Wingart, ordinis sancti Benedicti, Constantiensis diocesis, nobis plene constitit, quod bona eorum adeo sint inculta, ut de percipiendis ab eisdem usuris non parvam sustineant diminucionem, quibus, ut apostolice beningnitatis interest, misericorditer concurrentes provida dispensatione indulgemus eisdem, quatenus dotis sive decimarum redditus cappelle sancti Georii apud Lonan, tue diocesis, deinceps singulis annis percipiantur, iuste ac canonice divinis in ea consueto more procuretisa. Ideoque fraternitati tue mandamus, ut salvab ecclesie debita iusticia ob reverenciam apostolice Sedis huic indulgencie dictos red[d]itus depreciando non deroges nec quisquam te abeunte tuorum successorum intendat obiurgare, nec valeant dicti abbas et conventus compelli per apostolice Sedis aut eius legatorum literas, ut cuiquam conferant dictam capellam, cuius patronatus ipsis competit, non obstante si specialiter de huiusmodi indulgencia faciant mentionem. Ab[b]as eciam sua peticione nobis monstraruntc, quod tua fraternitas nec non et noster filius . . comes de Tirol contra privilegia Romanorum pontificum alternatis vicibus in iure patronatus ecclesie sancti Pancracii in Vltun evidenter eis confirmato ipsos collationem anticipando nichilominus contendatis ac disponatis divestire, quam iniuriam forte ipsis, ut opinamur, nescienter illatam de cetero salubriter volentes detruncare vobis utrisque indicimus, ne in derisum apostolice auctoritatis desipiatis amplius presumentes iam fate ecclesied investituram vestre dicioni vendicare, nee si forte alter vestrum per priora instrumenta poterit hoc de iure sufficienter probare. Alioquin si quis in prescriptis molestus eis extiterit, omnipotentis Dei et apostolorum eius Petri et Pauli indingnationem noverit se incurrisse atque in extremo examine non dubitet districte ulcioni subiacere. Datum Perusii, II idus decembris, pontificatus nostri anno secundo1.\n"
        },
        {
            "type": "apparat_critique",
            "value": "Wohl verschrieben f\u00fcr procuratis.",
            "children": {
                "numero_note": "a"
            }
        },
        {
            "type": "apparat_critique",
            "value": "Hier ist eine L\u00fccke f\u00fcr den Namen der Kirche.",
            "children": {
                "numero_note": "b"
            }
        },
        {
            "type": "apparat_critique",
            "value": "In diesem Satz fehlt entweder hinter <i>abbas: et conventus<\/i> oder sollte es <i>monstravit<\/i> hei\u00dfen.",
            "children": {
                "numero_note": "c"
            }
        },
        {
            "type": "apparat_critique",
            "value": "In der Vorlage verschrieben: <i>ecclesia<\/i>.",
            "children": {
                "numero_note": "d"
            }
        },
        {
            "type": "apparat_critique",
            "value": "Vielleicht verschrieben f\u00fcr: <i>nec<\/i>.",
            "children": {
                "numero_note": "e"
            }
        },
        {
            "type": "apparat_critique",
            "value": "Der Anfangsbuchstabe fehlt in Folge einer L\u00fccke im Pergament, er ergibt sich aber aus der entsprechenden Vidimationsformel der Urkunde von 1266 Dezember 29.",
            "children": {
                "numero_note": "f"
            }
        },
        {
            "type": "apparat_critique",
            "value": "Dieses Z hat eine seit dem 12. Jahrhundert in Italien und Frankreich h\u00e4ufige Form.",
            "children": {
                "numero_note": "g"
            }
        },
        {
            "type": "notes_historiques",
            "value": "In diesem Datum steckt ein Fehler, wohl ein Schreibfehler der Abschrift. Nach August Potthast (Hrsg.): <i>Regesta pontificum Romanorum inde ab anno post Christum natum MCXCVIII ad annum MCCCIV<\/i>, 2 Bde., Berlin 1874-75, Bd. 2, S. 1575, 1604, 1626, befand sich Papst Clemens IV., welcher hier wohl allein in Betracht kommen kann, zu Perugia nur im Dezember 1265, seinem ersten Pontifikatsjahr, sonst stets zu Viterbo, es kann der Fehler somit im Ort oder im Jahr liegen. Da jedoch ein Verschreiben bei einer Jahreszahl doch eher anzunehmen ist als bei einem Ortsnamen, zumal wenn dieselbe in Zahlzeichen geschrieben war, so ist wahrscheinlicher, dass es statt <i>anno secundo<\/i> hei\u00dfen sollte <i>anno primo<\/i>.",
            "children": {
                "numero_note": "1"
            }
        },
        {
            "type": "notes_historiques",
            "value": "V\u00f6llan, Lana, Trentino-S\u00fcdtirol, Italien.",
            "children": {
                "numero_note": "2"
            }
        },
        {
            "type": "notes_historiques",
            "value": "Untermais, Meran, Trentino-S\u00fcdtirol, Italien.",
            "children": {
                "numero_note": "3"
            }
        },
        {
            "type": "notes_historiques",
            "value": "Mayenburg (Ruine), Lana, Trentino-S\u00fcdtirol, Italien.",
            "children": {
                "numero_note": "4"
            }
        },
        {
            "type": "notes_historiques",
            "value": "Dieses <i>H<\/i> bedeutet ohne Zweifel <i>Henricus<\/i>, d.h. den in der Namensform <i>Enzio<\/i> bekannteren nat\u00fcrlichen Sohn K. Friederichs II. (gest. 1272), welcher im Jahre 1238 Adelasia, die Erbin der beiden Judicate Torre und Gallura in Sardinien, heiratete, in Folge hievon den k\u00f6niglichen Titel annahm und sich auch noch in seinem Testament von 1272 M\u00e4rz 6 <i>Henricus Dei gratia rex Sardiniae nannte<\/i>. In seinem Dienst w\u00e4re somit dieser Notar, ohne Zweifel ein S\u00fcdtiroler, fr\u00fcher gestanden. Ein <i>Bertholotus sacri palatii notarius<\/i> kommt auch in einer Urkunde des Markgrafen Bonifazius von Montferrat \u00fcber Verhandlungen mit Gesandten K. Friederichs II., d.d. Chivasso, 1239 August 4, bei Eduard Winkelmann (Hrsg.): <i>Acta imperii inedita<\/i>, 2 Bde., Innsbruck 1880-85, Bd. 1, S. 528, vor. \r\n",
            "children": {
                "numero_note": "5"
            }
        }
    ]
}