{
    "id": 142039,
    "name": "aposcripta-4927",
    "type": "acte",
    "url": "http:\/\/telma-chartes.irht.cnrs.fr\/aposcripta\/notice\/142039",
    "project_slug": "aposcripta",
    "project_label": "APOSCRIPTA \u2013 Lettres des papes",
    "user": "j_theryastruc",
    "last_update": "2020-10-19 16:38:38",
    "licence": "Attribution - Pas d\u2019Utilisation Commerciale - Partage dans les M\u00eames Conditions 3.0 France (CC BY-NC-SA 3.0 FR) ",
    "licence_url": "https:\/\/creativecommons.org\/licenses\/by-nc-sa\/3.0\/fr\/",
    "elements": [
        {
            "type": "pape",
            "value": "Adrien IV (1154-1159)"
        },
        {
            "type": "destinataire",
            "value": "Le cam\u00e9rier de l'\u00e9glise Saint-Paul de Lyon"
        },
        {
            "type": "date_libre",
            "value": "kalendas junii"
        },
        {
            "type": "date",
            "value": "apres 1155 - avant 1158",
            "children": {
                "date_deb_annee": "1155",
                "date_deb_type": "apres",
                "date_fin_annee": "1158",
                "date_fin_type": "avant"
            },
            "range": {
                "date_apres": 11550000,
                "date_avant": 11589999
            }
        },
        {
            "type": "date_lieu",
            "value": "Rome, Saint-Pierre"
        },
        {
            "type": "genre",
            "value": "Titre, g\u00e9n\u00e9ral (littere gratiose, cum filo serico)"
        },
        {
            "type": "analyse",
            "value": "Adrien [IV] confirme \u00e0 Trancerius, cam\u00e9rier de Saint-Paul [de Lyon], une transaction faite entre son pr\u00e9d\u00e9cesseur A[zon] et Etienne de Vilar concernant la garde de l'ob\u00e9ance de Rigneux[-le-Franc]."
        },
        {
            "type": "sources_manuscrites",
            "value": "E. FRANCE, Lyon, Archives d\u00e9partementales et m\u00e9tropolitaines du Rh\u00f4ne, 13 G 983 (mont\u00e9e sur onglet dans un recueil de diverses charte), jadis bull\u00e9e sur fils de soie jaune encore pr\u00e9sents.",
            "children": {
                "type_source": "Exp\u00e9dition"
            }
        },
        {
            "type": "edition",
            "value": "Julien Th\u00e9ry pour APOSCRIPTA, 4 d\u00e9cembre 2018, d'apr\u00e8s E."
        },
        {
            "type": "edition_autre",
            "value": "M.-C. Guigue, <i>Documents in\u00e9dits pour servir \u00e0 l'histoire de Dombes<\/i>, Tr\u00e9voux : Typographie et lithographie Damour (<i>Bibliotheca Dumbensis<\/i>, II), 1868, n. 38, p. 41 (avec trois erreur), d'apr\u00e8s E <a href=\" https:\/\/archive.org\/details\/mmoirespourserv03guiggoog\/page\/n58\"> [en ligne]<\/a>."
        },
        {
            "type": "regeste",
            "value": "JL ?"
        },
        {
            "type": "transcription",
            "value": "<?xml version=\"1.0\" encoding=\"UTF-8\"?>\nAdrianus episcopus, servus servorum Dei, dilecto filio Trancerio, camerario ecclesie sancti Pauli, salutem et apostolicam benedictionem. Ea que inter aliquos discordantes transactione vel concordia mediante rationabiliter statuuntur nullo debent ausu temeritatis infringi, nulla presumptione mutari. Eapropter, dilecte in Domino fili T., tuis justis postulationibus grato concurrentes assensu, transactionem que inter A.a, predecessorem tuum et Stephanum de Vilar superb custodia obedientie de Riniaco et possessionibus ejus utriusque partis assensu facta fuisse dinoscitur et scripto firmata, nos auctoritate apostolica confirmamus et presentis scripti patrocinio communimusc, statuentes ut nulli omnino hominum liceat hanc paginam nostre confirmationis infringere vel ei aliquatenus contraire. Si quis autem hoc attemptared presumpserit, indignationem omnipotentise Dei et beatorum Petri et Pauli apostolorum ejus se noverit incursurum. Datum Rome, apud Sanctum, kalendas junii.\n"
        },
        {
            "type": "apparat_critique",
            "value": "inter A. <i>lecture incertaine<\/i>.",
            "children": {
                "numero_note": "a"
            }
        },
        {
            "type": "apparat_critique",
            "value": "supra <i>Guigue<\/i>.",
            "children": {
                "numero_note": "b"
            }
        },
        {
            "type": "apparat_critique",
            "value": "corroboravimus <i>Guigue<\/i>.",
            "children": {
                "numero_note": "c"
            }
        },
        {
            "type": "apparat_critique",
            "value": "attemtare <i>Guigue<\/i>.",
            "children": {
                "numero_note": "d"
            }
        },
        {
            "type": "apparat_critique",
            "value": "omnipententis <i>Guigue<\/i>.",
            "children": {
                "numero_note": "e"
            }
        }
    ]
}