{
    "id": 147743,
    "name": "aposcripta-7365",
    "type": "acte",
    "url": "http:\/\/telma-chartes.irht.cnrs.fr\/aposcripta\/notice\/147743",
    "project_slug": "aposcripta",
    "project_label": "APOSCRIPTA \u2013 Lettres des papes",
    "user": "j_theryastruc",
    "last_update": "2020-10-19 16:39:36",
    "licence": "Attribution - Pas d\u2019Utilisation Commerciale - Partage dans les M\u00eames Conditions 3.0 France (CC BY-NC-SA 3.0 FR) ",
    "licence_url": "https:\/\/creativecommons.org\/licenses\/by-nc-sa\/3.0\/fr\/",
    "elements": [
        {
            "type": "pape",
            "value": "Honorius III (1216-1227)"
        },
        {
            "type": "destinataire",
            "value": "Le doyen et le chantre de Paris"
        },
        {
            "type": "date_libre",
            "value": "n. c."
        },
        {
            "type": "date",
            "value": "n. c.",
            "children": {
                "date_deb_annee": "n. c."
            },
            "range": {
                "date_apres": 0,
                "date_avant": 0
            }
        },
        {
            "type": "date_lieu",
            "value": "n. c."
        },
        {
            "type": "genre",
            "value": "Mandement (littere cum filo canapis)"
        },
        {
            "type": "analyse",
            "value": "Honorius [III] \u00e9crit aux chanoines de Paris au sujet d'un canonicat que le roi de France Philippe [II] Auguste souhaite voir conf\u00e9r\u00e9 \u00e0 Sainte-Croix d'Orl\u00e9ans \u00e0 son familier ma\u00eetre Etienne de Paris."
        },
        {
            "type": "sources_manuscrites",
            "value": "Collection Baluze 279, fol. 204.",
            "children": {
                "type_source": "Formulaire, collection de lettres m\u00e9di\u00e9vale"
            }
        },
        {
            "type": "edition",
            "value": "Ici reprise de Charles-Victor Langlois, \u00ab Formulaires de lettres du XII<sup>e<\/sup>, du XIII<sup>e<\/sup> et du XIV<sup>e<\/sup> si\u00e8cles (3<sup>e<\/sup> article) \u00bb, dans  <i>Notices et extraits des manuscrits de la Biblioth\u00e8que nationale<\/i>, t. XXXIV-2, Paris, 1895, p. 4 <a target=\"_blank\" href= \" https:\/\/archive.org\/details\/NoticesEtExtraits34-2Gh\/page\/n13\/mode\/2up\">[en ligne]<\/a>."
        },
        {
            "type": "transcription",
            "value": "<?xml version=\"1.0\" encoding=\"UTF-8\"?>\nHonorius episcopus, servus servorum Dei, dilectis filiis decano et cantori Parisiensibus, salutem et apostolicam benedictionem. Inducti dudum laudabili testimonio... \u00e0 recopier\n"
        }
    ]
}