{
    "id": 24696,
    "name": "aposcripta-1846",
    "type": "acte",
    "url": "http:\/\/telma-chartes.irht.cnrs.fr\/aposcripta\/notice\/24696",
    "project_slug": "aposcripta",
    "project_label": "APOSCRIPTA \u2013 Lettres des papes",
    "user": "l_valliere",
    "last_update": "2020-10-19 16:27:33",
    "licence": "Attribution - Pas d\u2019Utilisation Commerciale - Partage dans les M\u00eames Conditions 3.0 France (CC BY-NC-SA 3.0 FR) ",
    "licence_url": "https:\/\/creativecommons.org\/licenses\/by-nc-sa\/3.0\/fr\/",
    "elements": [
        {
            "type": "pape",
            "value": "Urbain IV (1261-1264)"
        },
        {
            "type": "destinataire",
            "value": "L'archev\u00eaque de Tyr Gilles"
        },
        {
            "type": "date_libre",
            "value": "X kalendas maii, anno secundo"
        },
        {
            "type": "date",
            "value": " 1263\/04\/22",
            "children": {
                "date_deb_jour": "22",
                "date_deb_mois": "04",
                "date_deb_annee": "1263"
            },
            "range": {
                "date_apres": 12630422,
                "date_avant": 12630422
            }
        },
        {
            "type": "date_lieu",
            "value": "Orvieto"
        },
        {
            "type": "genre",
            "value": "Lettre"
        },
        {
            "type": "analyse",
            "value": "Urbanus IV AEgidio, archiepiscopo Tyrensi, mandat ut omnes crucesignatos et crucesignandos pro subsidio Terrae sanctae non permittat contra immunitates et privilegia crucesignatis ab apostolica Sede concessa ab aliquibus indebite molestari."
        },
        {
            "type": "sources_manuscrites",
            "value": "E. FRANCE, Paris, Archives nationales, J 448\/73. Original scell\u00e9 (scell\u00e9 de la bulle d'Urbain IV, sur cordelettes de chanvre. Au dos, en haut, la mention : <i>PRO TERRA SANCTA<\/i>)."
        },
        {
            "type": "regeste",
            "value": "\u00c9lie Berger, <i>Layettes du Tr\u00e9sor des chartes<\/i>, IV, Paris : Henri Plon, 1902 <a target=\"_blank\" href=\"http:\/\/digi.ub.uni-heidelberg.de\/diglit\/teulet1902bd4\/0144\"> [en ligne]<\/a>, n. 4823, p. 58 <a target=\"_blank\"href=\"https:\/\/francearchives.fr\/fr\/facomponent\/0dac411a125adb139b2c6a8ae099cb5ae9bb958c\">[num\u00e9ris\u00e9e sur le site des Archives de France]<\/a>, d'apr\u00e8s E."
        },
        {
            "type": "transcription",
            "value": "<?xml version=\"1.0\" encoding=\"UTF-8\"?>\nCum predicationem crucis... Datum apud Urbemveterem, X kalendas maii, pontificatus nostri anno secundo.\n"
        },
        {
            "type": "remarques",
            "value": "\u00e0 \u00e9diter - Inconnue de Potthast"
        },
        {
            "type": "genre",
            "value": "Bulle"
        },
        {
            "type": "regeste",
            "value": "Jean Guiraud, Suzanne Cl\u00e9mencet, <i>Les registres d\u2019Urbain IV (1261-1264)<\/i>, Paris, 1901-1958, n. 378, d'apr\u00e8s R."
        },
        {
            "type": "regeste",
            "value": "Bernard Barbiche, <i>Les actes pontificaux originaux des Archives Nationales de Paris<\/i>, Cit\u00e9 du Vatican, 1975-1982, II, n. 1175, p. 40-41, d\u2019apr\u00e8s E."
        },
        {
            "type": "sources_manuscrites",
            "value": "R. CIT\u00c9 DU VATICAN, Archivio segreto Vaticano, <i>Registra Vaticana<\/i> 26, ep. 240, fol. 126v."
        }
    ]
}