{
    "id": 148692,
    "name": "aposcripta-8279",
    "type": "acte",
    "url": "http:\/\/telma-chartes.irht.cnrs.fr\/aposcripta\/notice\/148692",
    "project_slug": "aposcripta",
    "project_label": "APOSCRIPTA \u2013 Lettres des papes",
    "user": "M_GuerreroMeral",
    "last_update": "2020-10-19 16:39:48",
    "licence": "Attribution - Pas d\u2019Utilisation Commerciale - Partage dans les M\u00eames Conditions 3.0 France (CC BY-NC-SA 3.0 FR) ",
    "licence_url": "https:\/\/creativecommons.org\/licenses\/by-nc-sa\/3.0\/fr\/",
    "elements": [
        {
            "type": "pape",
            "value": "Gr\u00e9goire IX (1227-1241)"
        },
        {
            "type": "destinataire",
            "value": "L'archev\u00eaque de Vienne, l\u00e9gat du Si\u00e8ge apostolique"
        },
        {
            "type": "date",
            "value": "1233\/07\/27",
            "children": {
                "date_deb_annee": "1233",
                "date_deb_mois": "07",
                "date_deb_jour": "27"
            },
            "range": {
                "date_apres": 12330727,
                "date_avant": 12330727
            }
        },
        {
            "type": "date_lieu",
            "value": "Anagni"
        },
        {
            "type": "genre",
            "value": "Mandement (littere cum filo canapis)"
        },
        {
            "type": "analyse",
            "value": "Gregorio IX nomina l\u2019arcivescovo di Vienne legato papale nelle province di Narbona, Arles, Aix-en-Provence, Vienne e nelle diocesi di Clermont, Agen, Albi, Rodez, Cahors, Mende, P\u00e9rigeuex, Comminges, Lectour e Le Puy-en-Velay e lo incarica di estirpare l\u2019eretica pravit\u00e0 dalle province di Auch, Brouges, Embrun, dalla diocesi di Limoges e dalle diocesi della Catalogna [Sala]."
        },
        {
            "type": "sources_manuscrites",
            "value": "R. CIT\u00c9 DU VATICAN, Archivio segreto Vaticano, <i>Registra Vaticana<\/i>  17, VII, n. 251, fol. 73.",
            "children": {
                "type_source": "Registre de la chancellerie apostolique"
            }
        },
        {
            "type": "edition",
            "value": "Ici reprise d'Alessandro Sala, <i>Lo sviluppo dell'<\/i>inquisitio haereticae pravitatis<i> nelle lettere di Gregorio IX (1227-1241)<\/i>, th\u00e8se de doctorat, Universit\u00e0 degli studi di Milano, 2015-2016, 2 vol., II, n. 68, p. 85-86. "
        },
        {
            "type": "regeste",
            "value": "Johannes Bernoulli, <i>Acta Pontificum Helvetica. Quellen schweizerischer Geschichte aus dem p\u00e4pstlichen Archiv in Rom<\/i>, I, B\u00e2le : Reich Buchhandlung, 1892, I, n. 165.\n"
        },
        {
            "type": "transcription",
            "value": "<?xml version=\"1.0\" encoding=\"UTF-8\"?>\n.. archiepiscopo Viennensi, apostolice Sedis legato. Cum ex iniuncte nobis servitutis officio universalis Ecclesie curam teneamur gerere generalem, quia non est conditionis humane ut quis eodem tempore, diversis locis valeat presentialiter interesse nec per consequens variis negotiis personaliter imminere, necesse habeamus super agendis quibus angimur, viris idoneis committere vices nostras, ut ipsi efficere videamur que per eos auctoritate nostra provide peraguntur. Hinc est quod de fide ac discretione tua plenam fiduciam optinentes, tibi in Narbonensi, Arelatensi, Aquensi, Viennensi provinciis et Claromontensi, Agennensi, Albiensi, Ruthenensi, Caturcensi, Mimatensi, Petragoricensi, Convenarum, Lectorensi et Aniciensi diocesibus, legationis officium providimus committendum, concesso tibi nichilominus ut in Auxitana, Burdegalensi et Ebredunensi provinciis et diocesibus Cathalonie, Terraconensi provincie, et diocesi Lemovicensi, illos qui contra negotium pacis et fidei in provinciis et diocesibus tibi commissis aliquid molirentur, valeas cohercere, cum etsi ex parte sint ibi extirpata vitia et plantate virtutes, adhuc sit locus diligentiori culture, ne vel extirpata repullulent vel plantata torpescant, sed potius adhuc extirpanda radiciter extirpentur, ut plantatio latior habeatur. Ideoque fraternitatem tuam monemus attente, per apostolica tibi scripta in virtute obedientie, firmiter precipiendo mandantes quatinus legationem pro Christo suscipiens, eam iuxta datam tibi a Domino gratia, studeas laudabiliter exercere ut recta regens et dirigens indirecta, aspera convertas in plana. Ita quod, ad onus assumptus tuum videaris ministerium honorare ac exinde tibi apud Deum meritum et apud homines compares nomen bonum nosque diligentiam tuam merito commendamus. Datum Anagnie, VI kalendas augusti, anno septimo.\n"
        },
        {
            "type": "date_libre",
            "value": "VI kalendas augusti, anno septimo"
        },
        {
            "type": "edition_autre",
            "value": "Lucien Auvray, <i>Les registres de Gr\u00e9goire IX<\/i>, I, n. 1472."
        },
        {
            "type": "regeste",
            "value": "Ulysse Chevalier, <i>Regeste dauphinois ou r\u00e9pertoire chronologique et analytique des documents imprim\u00e9s et manuscrits relatifs \u00e0 l\u2019histoire de Dauphin\u00e9, des origines chr\u00e9tiennes \u00e0 l\u2019ann\u00e9e 1349<\/i>, II, Valence : Imprimerie Valentinoise, 1913, n. 7215."
        },
        {
            "type": "edition_autre",
            "value": "Santiago Dom\u00ednguez S\u00e1nchez, <i>Documentos de Gregorio IX referentes a Espa\u00f1a<\/i>, Le\u00f3n, Universidad de Le\u00f3n Secredariado Publicaciones, 2004, n. 310."
        }
    ]
}