{
    "id": 20210,
    "name": "aposcripta-197",
    "type": "acte",
    "url": "http:\/\/telma-chartes.irht.cnrs.fr\/aposcripta\/notice\/20210",
    "project_slug": "aposcripta",
    "project_label": "APOSCRIPTA \u2013 Lettres des papes",
    "user": "lettrespontificalesadmin",
    "last_update": "2020-10-19 16:26:46",
    "licence": "Attribution - Pas d\u2019Utilisation Commerciale - Partage dans les M\u00eames Conditions 3.0 France (CC BY-NC-SA 3.0 FR) ",
    "licence_url": "https:\/\/creativecommons.org\/licenses\/by-nc-sa\/3.0\/fr\/",
    "elements": [
        {
            "type": "pape",
            "value": "Jean XXII (1316-1334)"
        },
        {
            "type": "date_lieu",
            "value": "Avignon"
        },
        {
            "type": "date_libre",
            "value": "1<sup>er<\/sup> septembre 1323"
        },
        {
            "type": "analyse",
            "value": "Malgr\u00e9 sa r\u00e9cente promotion \u00e0 l\u2019\u00e9v\u00each\u00e9 de Tuy, Bernard Gui pourra continuer jusqu\u2019\u00e0 nouvel ordre \u00e0 exercer les fonctions d\u2019inquisiteur de Toulouse."
        },
        {
            "type": "transcription",
            "value": "<?xml version=\"1.0\" encoding=\"UTF-8\"?>\nBernardo, electo Tuden.1. \u2014 Licet de te inquisitore heretice pravitatis in partibus Tholosanis auctoritate apostolica deputato, nuper ecclesie Tuden. tunc pastoris solatio destitute meritis tuis exigentibus, intendentes potius providere ecclesie quam persone, duxerimus providendum, te preficiendo illi in episcopum et pastorem ; volumus tamen et nostre intentionis existit quod officium Inquisitionis predicte geras et prosequaris diligenter ac fideliter donec aliud ordinaverimus super hoc2, sicut prius. \u2014 Datum Avinioni, kalendis septembris, anno VII\u00b0.\n"
        },
        {
            "type": "edition",
            "value": "Jean-Marie Vidal, <i>Bullaire de l\u2019Inquisition fran\u00e7aise au XIV<sup>e<\/sup> si\u00e8cle et jusqu'\u00e0 la fin du Grand Schisme<\/i>, Paris : Letouzey et An\u00e9, 1913, n. 44, p. 76-77"
        },
        {
            "type": "sources_manuscrites",
            "value": "<i>Reg. Vat.<\/i>, t. <span class=\"smal-caps\">cxi<\/span>, n. 895"
        },
        {
            "type": "sources_manuscrites",
            "value": "Coulon, <i>op. cit.<\/i>, n. 1778 (anal.)."
        },
        {
            "type": "notes_historiques",
            "value": "Bernard Gui, dominicain, inquisiteur \u00e0 Toulouse, de 1307 \u00e0 1324 ; promu \u00e0 l\u2019\u00e9v\u00each\u00e9 de Tuy, en Galice, le 26 ao\u00fbt 1323 ; transf\u00e9r\u00e9 \u00e0 Lod\u00e8ve, le 20 juillet 1324 ; mort le 30 d\u00e9cembre 1331. Personnage tr\u00e8s connu, sur lequel il nous para\u00eet inutile d\u2019insister. Voir, sur sa vie, ses \u0153uvres et son r\u00f4le comme inquisiteur : Qu\u00e9tif et \u00c9chard, <i>Script. ord. praed.<\/i>, t. <span class=\"smal-caps\">i<\/span>, p. 576-580 ; <i>Gallia christ.<\/i>, t. <span class=\"smal-caps\">vi<\/span>, col. 554-555 ; <i>Hist. de Languedoc<\/i>, t. <span class=\"smal-caps\">ix<\/span>, p. 395 et note 4 ; L. Delisle, <i>Notice sur les manuscrits de B. Gui<\/i>, 1879, p. 170-188 ; Molinier, <i>L\u2019Inquisition dans le Midi<\/i>, p. 206-210 ; Eubel, <i>Hier.<\/i>, t. <span class=\"smal-caps\">i<\/span>, p. 323, 529 ; Haupt, dans <i>Realencyclop\u00e4die<\/i> de Hauck, t. <span class=\"smal-caps\">vii<\/span>, p. 230, art. <i>Guidonis<\/i> ; Hurter, <i>Nomenclator litterarius theologiae catholicae<\/i>, \u00e9d. 1906, t. <span class=\"smal-caps\">ii<\/span>, col. 574-579.",
            "children": {
                "numero_note": "1"
            }
        },
        {
            "type": "notes_historiques",
            "value": "Il est probable que Bernard Gui conserva le titre et les fonctions d\u2019inquisiteur de Toulouse jusqu\u2019\u00e0 la nomination de Pierre Brun, qui eut lieu le 27 juillet 1324 (n. 59). Entre temps, le s\u00e9n\u00e9chal de Toulouse, Jean de Trie, demanda \u00e0 Jean XXII de pourvoir \u00e0 la charge d\u2019inquisiteur dans la province d\u2019Auch. Le pape r\u00e9pondit, le 20 d\u00e9cembre 1323, que la nomination du titulaire ne pourrait beaucoup tarder (n. 57 <i>bis<\/i>).",
            "children": {
                "numero_note": "2"
            }
        },
        {
            "type": "date",
            "value": "1323\/09\/01",
            "children": {
                "date_deb_annee": "1323",
                "date_deb_mois": "09",
                "date_deb_jour": "01"
            },
            "range": {
                "date_apres": 13230901,
                "date_avant": 13230901
            }
        },
        {
            "type": "genre",
            "value": "Bulle"
        }
    ]
}