{
    "id": 149875,
    "name": "aposcripta-9438",
    "type": "acte",
    "url": "http:\/\/telma-chartes.irht.cnrs.fr\/aposcripta\/notice\/149875",
    "project_slug": "aposcripta",
    "project_label": "APOSCRIPTA \u2013 Lettres des papes",
    "user": "lettrespontificalesadmin",
    "last_update": "2020-10-19 16:40:05",
    "licence": "Attribution - Pas d\u2019Utilisation Commerciale - Partage dans les M\u00eames Conditions 3.0 France (CC BY-NC-SA 3.0 FR) ",
    "licence_url": "https:\/\/creativecommons.org\/licenses\/by-nc-sa\/3.0\/fr\/",
    "elements": [
        {
            "type": "pape",
            "value": "Urbain IV (1261-1264)"
        },
        {
            "type": "destinataire",
            "value": "Dilecte in Christo filie nobili mulieri S. Caserte comitisse vidue"
        },
        {
            "type": "date_libre",
            "value": "X kalendas iulii, anno tertio"
        },
        {
            "type": "date",
            "value": " 1264\/06\/22",
            "children": {
                "date_deb_annee": "1264",
                "date_deb_mois": "06",
                "date_deb_jour": "22"
            },
            "range": {
                "date_apres": 12640622,
                "date_avant": 12640622
            }
        },
        {
            "type": "date_lieu",
            "value": "Urbemveterem"
        },
        {
            "type": "sources_manuscrites",
            "value": "R. CIT\u00c9 DU VATICAN, Archivio Segreto Vaticano, <hi rend=\"italic\">Registra Vaticana<\/hi> ... Urb.\u00a0IV Reg. Vol.\u00a0IV [beneficia], f.\u00a0324, ep.\u00a01717. Epistolam ex Regestis descripsit V. Cl. Monaci.",
            "children": {
                "type_source": "Registre de la chancellerie apostolique"
            }
        },
        {
            "type": "genre",
            "value": "Mandement (littere cum filo canapis)"
        },
        {
            "type": "analyse",
            "value": "Urbanus IV papa S[ifridinae] Casertae comitissae viduae indulget, ut licet loca, ad quae Manfredum, Ricardum Casertanum et Thomam Acerrarum comites, Galvanum et Fredericum Lancea devenire contingat, interdicto supposita sint, tamen in locis sibi et dicto comiti Casertano nato suo subiectis divina sibi celebrari faciat [Rodenberg]."
        },
        {
            "type": "transcription",
            "value": "<?xml version=\"1.0\" encoding=\"UTF-8\"?>\nDilecte in Christo filie nobili mulieri S. Caserte comitisse vidue.Quia Deo et ecclesie devota esse diceris, personam tuam prosequi volumus gratiosi exhibitione favoris. Cum itaque civitates et loca, ad que Manfredum quondam principem Tarentinum, Riccardum Casertanum et Thomam Acerrarum comites, Galvanum et Fredericum Lancea fratres devenire contingit, quamdiu in illis steterint, eorum culpis exigentibus per sedem apostolicam ecclesiastico sint supposita interdicto: nos, ne tali pretextu divinis quandoque defraudari [te] contingat, tuis devotis supplicationibus annuentes, auctoritate tibi apostolica indulgemus, ut \u2014 hoc non obstante \u2014 infra huiusmodi civitates et loca tibi vel dicto comiti Casertano, nato tuo, subiecta, etiam dum Manfredus, comites et fratres predicti vel aliqui eorum ibidem steterint, si te ad illa devenire contigerit aut in eis forsitan commorari, divina in locis religiosis, in quibus illa ex indulto sedis apostolice celebrantur, seu in capellis tuis a tuis propriis capellanis vel aliis regularibus tibi cum quinque honestis mulieribus audire ac eisdem capellanis et regularibus simul aut divisim ea celebrare liceat necnon tibi et eisdem mulieribus ab eis recipere ac illis vobis sacramenta ecclesiastica ministrare, et si te decedere forte contingat, in cimiterio ecclesiastico sepeliri, dummodo divina ipsa clausis ianuis, non pulsatis campanis, excommunicatis et interdictis aliisque universis exclusis et voce suppressa in locis et capellis celebrentur eisdem, ac tu, prefati capellani, regulares et mulieres causam non dederitis interdicto, nec id tibi aut eis contingat specialiter interdici. Nulli ergo \u2014 nostre concessionis etc. usque: incursurum; presentibus post triennium minime valituris.Dat. apud Urbemveterem, X Kalendas Iulii, anno tertio.\n"
        },
        {
            "type": "edition",
            "value": "Ici reprise de Karl Rodenberg, Epistolae s. XIII e regestis pontificum romanorum selectae, III, Berlin : Weidmann (MGH), 1894, n.\u00a0616, p.\u00a0609."
        },
        {
            "type": "edition_autre",
            "value": "?"
        },
        {
            "type": "regeste",
            "value": "?"
        },
        {
            "type": "bibliographie_generale",
            "value": "?"
        },
        {
            "type": "apparat_critique",
            "value": "?",
            "children": {
                "numero_note": "a"
            }
        },
        {
            "type": "apparat_critique",
            "value": "?",
            "children": {
                "numero_note": "b"
            }
        },
        {
            "type": "apparat_critique",
            "value": "?",
            "children": {
                "numero_note": "c"
            }
        },
        {
            "type": "apparat_critique",
            "value": "?",
            "children": {
                "numero_note": "d"
            }
        },
        {
            "type": "apparat_critique",
            "value": "?",
            "children": {
                "numero_note": "e"
            }
        },
        {
            "type": "apparat_critique",
            "value": "?",
            "children": {
                "numero_note": "f"
            }
        },
        {
            "type": "notes_historiques",
            "value": "?",
            "children": {
                "numero_note": "1"
            }
        },
        {
            "type": "notes_historiques",
            "value": "?",
            "children": {
                "numero_note": "2"
            }
        },
        {
            "type": "notes_historiques",
            "value": "?",
            "children": {
                "numero_note": "3"
            }
        }
    ]
}