{
    "id": 23951,
    "name": "aposcripta-1131",
    "type": "acte",
    "url": "http:\/\/telma-chartes.irht.cnrs.fr\/aposcripta\/notice\/23951",
    "project_slug": "aposcripta",
    "project_label": "APOSCRIPTA \u2013 Lettres des papes",
    "user": "l_valliere",
    "last_update": "2020-10-19 16:27:20",
    "licence": "Attribution - Pas d\u2019Utilisation Commerciale - Partage dans les M\u00eames Conditions 3.0 France (CC BY-NC-SA 3.0 FR) ",
    "licence_url": "https:\/\/creativecommons.org\/licenses\/by-nc-sa\/3.0\/fr\/",
    "elements": [
        {
            "type": "pape",
            "value": "Alexandre IV (1254-1261)"
        },
        {
            "type": "destinataire",
            "value": "Les consuls et la communaut\u00e9 de Montpellier, dioc\u00e8se de Maguelone"
        },
        {
            "type": "date_libre",
            "value": "kalendis febroarii, anno tercio"
        },
        {
            "type": "date",
            "value": " 1257\/02\/01",
            "children": {
                "date_deb_jour": "01",
                "date_deb_mois": "02",
                "date_deb_annee": "1257"
            },
            "range": {
                "date_apres": 12570201,
                "date_avant": 12570201
            }
        },
        {
            "type": "date_lieu",
            "value": "Latran"
        },
        {
            "type": "analyse",
            "value": "Alexander papa IV prohibet ne quis homines et terram Montispessulani vi et armis impugnet."
        },
        {
            "type": "sources_manuscrites",
            "value": "F. FRANCE, Paris, Archives nationales, J 339\/23. Copie ancienne (extrait du fragment de cartulaire intitul\u00e9 : <i>Liber de consuetudinibus et libertatibus ville Montispessulani<\/i>, fol. 16 r\u00b0, col. 1. En marge on lit : <i>Que hom non venga ab armas contra Monpeslier<\/i>)."
        },
        {
            "type": "edition",
            "value": "Ici d'apr\u00e8s Joseph de Laborde, <i>Layettes du Tr\u00e9sor des chartes<\/i>, III, Paris : Henri Plon, 1875 <a target=\"_blank\" href=\"http:\/\/digi.ub.uni-heidelberg.de\/diglit\/teulet1875bd3\/0435\"> [en ligne]<\/a>, n. 4323, p. 349 <a target=\"_blank\"href=\"https:\/\/francearchives.fr\/fr\/facomponent\/3d4fba9a49df1514d0c2ba5595c3dc581ca015bd\">[num\u00e9ris\u00e9e sur le site des Archives de France]<\/a>, d'apr\u00e8s F."
        },
        {
            "type": "transcription",
            "value": "<?xml version=\"1.0\" encoding=\"UTF-8\"?>\nAlexander, episcopus, servus servorum Dei, dilectis filiis, consulibus et universsitati hominum Montispessulani, Magalonensis diocesis, salutem et apostolicam benedictionem. Pro devocionis et fidelitatis, quas ad Sedem Apostolicam habere vos novimus, gratis studiis, dignum arbitramur et congruum ut, vestris justis peticionibus favorabiliter annuentes, vobis adversus superborum et perversorum iniquos conatus et insultus oportunis temporibus illo provideamus remedio, per quod, hujusmodi conatibus et insultibus cohibitis, quietis et pacis vestre solacium procuretur. Vobis sane significantibus nobis, accepimus quod non nulli nobiles et alii laici, de sua potencia confidentes, contra vos et terram vestram, indebito rancore concepto, vos et terram ipsam, divino timore postposito, armata manu disponunt inpetere et vobis jacturas et dampna gravia irrogare, super quo Apostolice providencie auxilium implorastis. Futuris ergo vestris ac ejusdem terre discriminibus et dispendiis occurrere, et iniquis animositatibus hominum resistere afectantes, vestris suplicacionibus inclinati, ne aliqui adversus vos et terram predictam armata manu indebite venire presumant auctoritate presencium districtius inhibemus. Nulli ergo omnino hominum liceat hanc paginam nostre inhibicionis infringere, vel ei ausu temerario contraire. Si quis autem hoc atemptare presumpserit, indignacionem Omnipotentis Dei et Beatorum Petri et Pauli, apostolorum ejus, se noverit incursurum. Datum Laterani, kalendis febroarii, pontificatus nostri anno tercio.\n"
        },
        {
            "type": "genre",
            "value": "Titre, g\u00e9n\u00e9ral (littere gratiose, cum filo serico)"
        },
        {
            "type": "remarques",
            "value": "Inconnue de Potthast - Absente des registres - Voy. A. Germain, <i>Histoire de la commune de Montpellier<\/i>, t. Ier , p. 232 et 233."
        }
    ]
}