{
    "id": 26308,
    "name": "aposcripta-3387",
    "type": "acte",
    "url": "http:\/\/telma-chartes.irht.cnrs.fr\/aposcripta\/notice\/26308",
    "project_slug": "aposcripta",
    "project_label": "APOSCRIPTA \u2013 Lettres des papes",
    "user": "lettrespontificalesadmin",
    "last_update": "2020-10-19 16:27:58",
    "licence": "Attribution - Pas d\u2019Utilisation Commerciale - Partage dans les M\u00eames Conditions 3.0 France (CC BY-NC-SA 3.0 FR) ",
    "licence_url": "https:\/\/creativecommons.org\/licenses\/by-nc-sa\/3.0\/fr\/",
    "elements": [
        {
            "type": "pape",
            "value": "Eug\u00e8ne III (1145-1153)"
        },
        {
            "type": "date_lieu",
            "value": "Vetralla"
        },
        {
            "type": "date_libre",
            "value": "1145 December 13"
        },
        {
            "type": "date",
            "value": " 1145\/12\/13",
            "children": {
                "date_deb_annee": "1145",
                "date_deb_mois": "12",
                "date_deb_jour": "13"
            },
            "range": {
                "date_apres": 11451213,
                "date_avant": 11451213
            }
        },
        {
            "type": "analyse",
            "value": "Eugen III nimmt das Kloster St.-Mihiel (D. Verdun) in apostolischen Schutz und best\u00e4tigt ihm seine Besitzth\u00fcmer und Rechte."
        },
        {
            "type": "transcription",
            "value": "<?xml version=\"1.0\" encoding=\"UTF-8\"?>\nEugenius episcopus servus servorum dei dilectis filiis Kaloni, abbati monasterii sancti Michaelis super Mosam, eiusque fratribus tam presentibus quam futuris regularem vitam professis, in perpetuum. Pi\u0229 postulatio voluntatis effectu debet prosequente compleri, quatinus et devotionis sinceritas laudabiliter enitescat et utilitas postulata vires indubitanter assumat. Eapropter, dilecti in domino filii, vestris iustis postulationibus clementer annuimus, et prefatum sancti Michaelis monasterium, in quo divino mancipati estis obsequio, sub beati Petri et nostra protectione suscipimus et presentis scripti privilegio communimus. Statuentes, ut quascumque possessiones, quecumque bona in presentiarum iuste et canonice possidetis aut in futurum concessione pontificum, liberalitate regum, largitione principum, oblatione fidelium seu aliis iustis modis, prestante domino, poteritis adipisci, firma vobis vestrisque successoribus et illibata permaneant. In quibus h\u0229c propriis duximus exprimenda vocabulis : cellam Asmingi\u0229 cum omnibus appendiciis suis, \u0229cclesiam de Tyreio1 cum omnibus decimis et appendiciis suis, cellam Asmanti\u0229 cum omnibus appendiciis suis, cellam Monciacensem cum capella castri et reliquis appendiciis, grangiam apud Briacum cum redecimationibus dominicalium comitis, cellam apud Barrum cum parrochia et appendiciis reliquis, \u0229cclesiam de Solascurt cum omnibus decimis suis, cellam apud Bolmunt cum parrochia et domo dei infra ipsam constituta, \u0229cclesiam de Mannes cum omnibus decimis suis, cellam de Mareio cum parrochiali \u0229cclesia ipsius vill\u0229 et ceteris appendiciis, cellam apud Herevillam et \u0229cclesiam parrochialem cum omnibus decimis suis, \u0229cclesiam de Perier, \u0229cclesiam de Curcellis, \u0229cclesiam de Wahecurt, \u0229cclesiam de Hotramcurt, \u0229cclesiam de Janivilla, \u0229cclesiam de Frivilla, \u0229cclesiam de Avodicurte cum omnibus decimis et appendiciis earum, alodium de Bures datum pro elemosina a nobili matrona Lancenna, alodium de Basoniscurte datum pro elemosina a nobili viro Eustachio, alodium de Heis datum a nobili viro Amalrico, alodium de Landeni villa et \u0229cclesiam de Siricurt cum decimis suis, alodium de Baniols, alodium de Clinchamp, capellam sancti Petri in civitate Virdunensi sitam cum alodio septem mansorum, alodium apud Croiam datum a Bernacrio milite, alodium de Gyrovisin (datum) a Lyetardo milite, decimas etiam quas \u0229lemosinarius ad usus pauperum possidet ubicumque eas iure possidere dinoscitur, decimas quoque minutas2 sicut hactenus quiete habuistis. Praeterea libertates sive immunitates ab episcopis vel regibus sive etiam principibus vobis rationabiliter concessas et scripto firmatas presentis scripti pagina confirmamus, et, ut nullus princeps, nullus advocatus, nullus iudex nec aliquis omnino hominum eas infringere audeat, auctoritate apostolica prohibemus. Sanctimus autem, ut ordo monasticus secundum beati Benedicti regulam perpetuis ibi temporibus inviolabiliter conservetur. Obeunte vero te, nunc eiusdem loci abbate, vel tuorum quolibet successorum nullus ibi qualibet surreptionis astucia seu violentia preponatur, nisi quem fratres communi consensu, aut pars consilii sanioris secundum dei timorem et beati Benedicti regulam providerint eligendum. Ad h\u0229c predecessoris nostri, felicis memori\u0229 pape Urbani, vestigiis inherentes3 statuimus, ut in parrochialibus \u0229cclesiis, quas tenetis, honestos sacerdotes eligatis et diocesano episcopo presentetis, quibus, si idonei fuerint, idem episcopus animarum curam vestro assensu committat, ut huiusmodi sacerdotes de plebis quidem cura episcopo respondeant, vobis autem pro rebus temporalibus debitam subiectionem exibeant. Sepulturam quoque ipsius loci liberam esse decernimus, ut eorum, qui illic sepeliri deliberaverint, devotioni et extreme voluntati, nisi forte excommunicati sint, nullus obsistat, salva iusticia matricis \u0229cclesi\u0229. Decernimus ergo, ut nulli omnino hominum liceat, prefatum monasterium temere perturbare, aut eius possessiones auferre vel ablatas retinere, minuere seu quibuslibet vexationibus fatigare, set omnia integra conserventur eorum, pro quorum gubernatione et sustentatione concessa sunt, usibus omnimodis profutura, salva sedis apostolic\u0229 auctoritate et diocesani episcopi canonica iusticia. Si qua igitur in futurum \u0229cclesiastica secularisve persona huius nostr\u0229 constitutionis paginam sciens contra eam temere venire temptaverit, secundo terciove commonita, si non reatum suum digna satisfactione correxerit, potestatis honorisque sui dignitate careat, reamque se divino iudicio existere de perpetrata iniquitate cognoscat, et a sacratissimo corpore ac sanguine dei et domini redemptoris nostri Jesu Christi aliena fiat, atque in extremo examine district\u0229 ultioni subiaceat. Cunctis autem eidem loco iusta servantibus sit pax domini nostri Jesu Christi, quatinus et hic fructum bon\u0229 actionis percipiant et apud districtum iudicem premia \u0229tern\u0229 pacis inveniant. Amen. Amen. Amen.Dat. Vetrall\u0229, per manum Roberti, sanct\u0229 Roman\u0229 \u0229cclesi\u0229 presbiteri cardinalis et cancellarii. Idus Decembris. Indictione viii. Incarnationis dominic\u0229 anno mcxlv. Pontificatus vero domni Eugenii iii pape anno i.\n"
        },
        {
            "type": "edition",
            "value": "Julius von Pflugk-Harttung, <i>Acta pontificum Romanorum inedita<\/i>, T\u00fcbingen, 1880, I, n. 199, p. 181"
        },
        {
            "type": "sources_manuscrites",
            "value": "Abschrift des Cart. de l\u2019abbaye de St.-Mihiel fol. 114\u2013117 im Archive des D\u00e9p. Meuse zu Bar-le Duc."
        },
        {
            "type": "remarques",
            "value": ""
        },
        {
            "type": "notes_historiques",
            "value": "<i>Vergl. die Urk. vom 20 April 1139.<\/i>",
            "children": {
                "numero_note": "1"
            }
        },
        {
            "type": "notes_historiques",
            "value": "<i>Vergl. S. 135 Anm. 4. Es mag noch erw\u00e4hnt werden, dass man unter dem kleinen Blutzehnt bisweilen nur das Federvich und dessen Erzeugnisse versteht ; dass der Zehnt \u00fcberhaupt nicht immer gerade den zehnten Theil auszumachen brauchte, sondern auch als zw\u00f6lfter, dreizehnter Theil und dergl. vorkommt. Wetzer und Welte, Kirchen-Lex. XI S. 1260 ; Aschbach, Kirchen-Lex. IV S. 1192 ; Littr\u00e9, Dict. II p. 1166.<\/i>",
            "children": {
                "numero_note": "2"
            }
        },
        {
            "type": "notes_historiques",
            "value": "<i>Jaff\u00e9 4268<\/i> (<i>?<\/i>), <i>Cart. de St.-Mihiel p. 88. Ein anderes Schriftst\u00fcck Urbans II f\u00fcr St.-Mihiel befindet sich nicht im Archive von Bar-le Duc.<\/i>",
            "children": {
                "numero_note": "3"
            }
        },
        {
            "type": "genre",
            "value": "Bulle"
        }
    ]
}