{
    "id": 20524,
    "name": "aposcripta-511",
    "type": "acte",
    "url": "http:\/\/telma-chartes.irht.cnrs.fr\/aposcripta\/notice\/20524",
    "project_slug": "aposcripta",
    "project_label": "APOSCRIPTA \u2013 Lettres des papes",
    "user": "lettrespontificalesadmin",
    "last_update": "2020-10-19 16:26:50",
    "licence": "Attribution - Pas d\u2019Utilisation Commerciale - Partage dans les M\u00eames Conditions 3.0 France (CC BY-NC-SA 3.0 FR) ",
    "licence_url": "https:\/\/creativecommons.org\/licenses\/by-nc-sa\/3.0\/fr\/",
    "elements": [
        {
            "type": "pape",
            "value": "G\u00e9lase I (492-496)"
        },
        {
            "type": "date_lieu",
            "value": "n.c."
        },
        {
            "type": "date_libre",
            "value": "494 ex-495 Aug"
        },
        {
            "type": "analyse",
            "value": "Gelasius\u00a0I Epiphanio episcopo nuntiat, Tullinum presbyterum, a sese consecratum, in eius paroeciam redire, invito Mastallone, se iussisse.<a class=\"note\" href=\"#note-1\">1<\/a>"
        },
        {
            "type": "transcription",
            "value": "<?xml version=\"1.0\" encoding=\"UTF-8\"?>\nEpifanio episcopo.2 Filius noster vir illustris Mastallo comes sacrarum largitionuma magno opere postulavit, ut Tullinus delegantibus nobis factus hic presbiter remaneret\u00a0; qui etiam dilectionem tuam hoc voluisse non tacuit. Quem tamen eatenus consecratum ad tue dilectionis redire fecimus parroechiam, ut sub tuo semper iure consistens tanquam a te semet noverit ordinatum\u00a0; quoniamb sicut dilectionem tuam non sibi prereptum iudicare confidimus, quod nostra sit factum dispositione, sic tuo pontificio nichil ducimus subtrahendum.\n"
        },
        {
            "type": "edition",
            "value": "Samuel Loewenfeld, <i>Epistolae pontificum romanorum ineditae<\/i>, Leipzig : Veit et Comp., 1885, n. 12, p. 7-8"
        },
        {
            "type": "sources_manuscrites",
            "value": "Coll. Brit. Gel. ep.\u00a021, l.\u00a0l. fol.\u00a013.",
            "children": {
                "type_source": "Collection canonique, collection de d\u00e9cr\u00e9tales"
            }
        },
        {
            "type": "notes_historiques",
            "value": "Cf. Jaff\u00e9 ed. sec.\u00a0657.",
            "children": {
                "numero_note": "1"
            }
        },
        {
            "type": "notes_historiques",
            "value": "Beneventano.",
            "children": {
                "numero_note": "2"
            }
        },
        {
            "type": "apparat_critique",
            "value": "largitionum <i>addidit Ewald, Neues Archiv V. 516 n.\u00a03<\/i>.",
            "children": {
                "numero_note": "a"
            }
        },
        {
            "type": "apparat_critique",
            "value": "qui <i>c.<\/i>",
            "children": {
                "numero_note": "b"
            }
        },
        {
            "type": "date",
            "value": "apr\u00e8s 0494\/09 - avant 0495\/08",
            "children": {
                "date_deb_annee": "0494",
                "date_deb_mois": "09",
                "date_deb_type": "apres",
                "date_fin_annee": "0495",
                "date_fin_mois": "08",
                "date_fin_type": "avant"
            },
            "range": {
                "date_apres": 4940900,
                "date_avant": 4950899
            }
        },
        {
            "type": "genre",
            "value": "Lettre, g\u00e9n\u00e9ral (avant 1198)"
        },
        {
            "type": "destinataire",
            "value": "L'\u00e9v\u00eaque de B\u00e9n\u00e9vent Epifanio"
        }
    ]
}