{
    "id": 20484,
    "name": "aposcripta-471",
    "type": "acte",
    "url": "http:\/\/telma-chartes.irht.cnrs.fr\/aposcripta\/notice\/20484",
    "project_slug": "aposcripta",
    "project_label": "APOSCRIPTA \u2013 Lettres des papes",
    "user": "lettrespontificalesadmin",
    "last_update": "2020-10-19 16:26:50",
    "licence": "Attribution - Pas d\u2019Utilisation Commerciale - Partage dans les M\u00eames Conditions 3.0 France (CC BY-NC-SA 3.0 FR) ",
    "licence_url": "https:\/\/creativecommons.org\/licenses\/by-nc-sa\/3.0\/fr\/",
    "elements": [
        {
            "type": "pape",
            "value": "Cl\u00e9ment VII (antipape ; 1378-1394)"
        },
        {
            "type": "date_lieu",
            "value": "Avignon"
        },
        {
            "type": "date_libre",
            "value": "13 novembre 1381"
        },
        {
            "type": "analyse",
            "value": "Le cardinal Guillaume d\u2019Aigrefeuille re\u00e7oit commission de nommer le dominicain Martin d\u2019Amance, inquisiteur en Lorraine, \u00e0 l\u2019\u00e9v\u00each\u00e9 de Gabala et \u00e0 la coadjutorerie des \u00e9v\u00each\u00e9s de Metz et de Toul. Les \u00e9v\u00eaques de ces deux si\u00e8ges devront assurer une pension suffisante \u00e0 leur auxiliaire."
        },
        {
            "type": "transcription",
            "value": "<?xml version=\"1.0\" encoding=\"UTF-8\"?>\nClemens episcopus servus servorum Dei dilecto filio Guillelmo1, tituli sancti Stephani in Celiomonte presbitero cardinali, apostolice Sedis legato, salutem, etc. \u2014 Solicite considerationis intuitum... Dudum siquidem bone memorie Andrea2, episcopo Gabulen., regimini Gabulen. ecclesie presidente, nos cupientes eidem ecclesie cum vacaret... utilem et ydoneam presidere personam, provisionem dicte ecclesie ordinationi et dispositioni nostre ea vice duximus specialiter reservandam... Postmodum vero dicta ecclesia per obitum ipsius Andree episcopi... vacante, nos vacatione huiusmodi fidedignis relatibus intellecta, considerantes quod dilectus filius Martinus de Amantia3, ordinis fratrum predicatorum professor, in theologia magister, et in Lothoringia heretice pravitatis inquisitor, religionis zelo conspicuus, vite ac morum honestate decorus, in spiritualibus providus et tepmoralibus circumspectus aliisque multiplicium virtutum meritis apud nos multipliciter commendatus ad regimen et administrationem ipsius ecclesie utilis et ydonus existeret ; et quod venerabiles fratres nostri Theodericus4, Meten., et Johannes  5, Tullen. episcopi, asserentes se suffragiis unius episcopi ad exercendum in civitatibus et diocesibus suis pontificalia indigere, eidem Martino, si de ipso dicte ecclesie provideretur, ut decentius statum suum iuxta pontificalis dignitatis exigentiam tenere valeret, cum dicta Gabulen. ecclesia in fructibus non habundet, pensionem annuam congruam et sufficientem assignare obtulerunt se paratos ; cupientesque eidem ecclesie de cuius provisione nullus preter nos hac vice se intromittere potuit neque potest, reservatione et decreto obnitentibus supradictis, ne ecclesia ipsa longe vacationis exponeretur incommodis de persona ydonea ac statui dicti Martini salubriter providere, circumspectioni tue... committimus et mandamus quatinus de persona ipsius Martini prefate ecclesie hac vice auctoritate nostra provideas ipsumque illi preficias in episcopum et pastorem... Ac quamprimum de ipso Martino eidem ecclesie provideris eidem Martino per dictos Theodericum et Johannem episcopos pensionem annuam ducentorum florenorum auri de camera de et super bonis ad mensas episcopales Meten. et Tullen. spectantibus auctoritate predicta facias assignari... etc. \u2014 Datum Avinioni, idus novembris, anno quarto.\n"
        },
        {
            "type": "edition",
            "value": "Ici d'apr\u00e8s Jean-Marie Vidal, <i>Bullaire de l\u2019Inquisition fran\u00e7aise au XIV<sup>e<\/sup> si\u00e8cle et jusqu'\u00e0 la fin du Grand Schisme<\/i>, Paris : Letouzey et An\u00e9, 1913, n. 316, p. 448"
        },
        {
            "type": "sources_manuscrites",
            "value": "<i>Reg. Aven.<\/i>, t. <span class=\"smal-caps\">ccxxxi<\/span> (Clem. VII, t. <span class=\"smal-caps\">xxvii<\/span>), fol. 314"
        },
        {
            "type": "sources_manuscrites",
            "value": "Eubel, <i>Avign. Obedienz<\/i>, etc., n. 169 (anal.)."
        },
        {
            "type": "notes_historiques",
            "value": "Guillaume d\u2019Aigrefeuille le jeune, neveu de Cl\u00e9ment VI ; cr\u00e9\u00e9 cardinal du titre de Saint-\u00c9tienne, le 12 mai 1367 ; mort \u00e0 Avignon, le 13 janvier 1401. Baluze, <i>loc. cit.<\/i>, col. 997 ; Ciacconius, <i>op. cit.<\/i>, t. <span class=\"smal-caps\">ii<\/span>, col. 565-566 ; Eubel, <i>Hier.<\/i>, t. <span class=\"smal-caps\">i<\/span>, p. 20.",
            "children": {
                "numero_note": "1"
            }
        },
        {
            "type": "notes_historiques",
            "value": "Andr\u00e9, dominicain, \u00e9v\u00eaque titulaire de Gabala, suffragant de Metz, le 27 octobre 1380. Eubel, <i>Hier.<\/i>, t. <span class=\"smal-caps\">i<\/span>, p. 268 ; Eubel, <i>Avign. Obedienz<\/i>, etc., n. 132.",
            "children": {
                "numero_note": "2"
            }
        },
        {
            "type": "notes_historiques",
            "value": "Eubel, <i>Hier.<\/i>, t. <span class=\"smal-caps\">i<\/span>, p. 268.",
            "children": {
                "numero_note": "3"
            }
        },
        {
            "type": "notes_historiques",
            "value": "Th\u00e9od\u00e9ric Beyer de Boppard, chapelain du pape ; d\u2019abord \u00e9v\u00eaque de Worms (15 mai 1359), puis de Metz, le 13 ao\u00fbt 1365 ; mort le 18 janvier 1383. <i>Gall. chr.<\/i>, t. <span class=\"smal-caps\">v<\/span>, col. 682 ; t. <span class=\"smal-caps\">xiii<\/span>, col. 775-777 ; Eubel, <i>Hier.<\/i>, t. <span class=\"smal-caps\">i<\/span>, p. 354, 567.",
            "children": {
                "numero_note": "4"
            }
        },
        {
            "type": "notes_historiques",
            "value": "Jean de Neufch\u00e2tel, cousin de Cl\u00e9ment VII, d\u2019abord \u00e9v\u00eaque de Nevers (10 f\u00e9vrier 1371) ; transf\u00e9r\u00e9 \u00e0 Toul, le 27 ao\u00fbt 1372 ; cardinal des SS. IV Couronn\u00e9s, le 23 d\u00e9cembre 1383 ; \u00e9v\u00eaque d\u2019Ostie, en 1392 ; mort le 4 octobre 1398. Baluze, <i>op. cit.<\/i>, col. 1315 ; <i>Gall. christ.<\/i>, t. <span class=\"smal-caps\">xii<\/span>, col. 650 ; t. <span class=\"smal-caps\">xiii<\/span>, col. 1030 ; Eubel, <i>Hier.<\/i>, t. <span class=\"smal-caps\">i<\/span>, p. 27, 386, 531.",
            "children": {
                "numero_note": "5"
            }
        },
        {
            "type": "date",
            "value": "1381\/11\/13",
            "children": {
                "date_deb_annee": "1381",
                "date_deb_mois": "11",
                "date_deb_jour": "13"
            },
            "range": {
                "date_apres": 13811113,
                "date_avant": 13811113
            }
        },
        {
            "type": "genre",
            "value": "Bulle"
        }
    ]
}