{
    "id": 146522,
    "name": "aposcripta-6209",
    "type": "acte",
    "url": "http:\/\/telma-chartes.irht.cnrs.fr\/aposcripta\/notice\/146522",
    "project_slug": "aposcripta",
    "project_label": "APOSCRIPTA \u2013 Lettres des papes",
    "user": "j_theryastruc",
    "last_update": "2020-10-19 16:39:19",
    "licence": "Attribution - Pas d\u2019Utilisation Commerciale - Partage dans les M\u00eames Conditions 3.0 France (CC BY-NC-SA 3.0 FR) ",
    "licence_url": "https:\/\/creativecommons.org\/licenses\/by-nc-sa\/3.0\/fr\/",
    "elements": [
        {
            "type": "pape",
            "value": "Gr\u00e9goire X (1271-1276)"
        },
        {
            "type": "date_libre",
            "value": "II kalendas augusti, anno primo"
        },
        {
            "type": "date",
            "value": "1272\/07\/31",
            "children": {
                "date_deb_annee": "1272",
                "date_deb_mois": "07",
                "date_deb_jour": "31"
            },
            "range": {
                "date_apres": 12720731,
                "date_avant": 12720731
            }
        },
        {
            "type": "date_lieu",
            "value": "Orvieto"
        },
        {
            "type": "genre",
            "value": "Titre, g\u00e9n\u00e9ral (littere gratiose, cum filo serico)"
        },
        {
            "type": "analyse",
            "value": "Eis indulget ut in suos fugitivos monachos et conversos ordinem Cartusiensem professos, si post diligentem monitionem non curaverint ad ordinem predictum redire, possint censuram ecclesiasticam exercere [Barbiche]."
        },
        {
            "type": "edition",
            "value": "Jean Guiraud, <i>Registre de Gr\u00e9goire X<\/i>, n. 989."
        },
        {
            "type": "regeste",
            "value": "Bernard Barbiche, <i>Les actes pontificaux originaux des Archives Nationales de Paris<\/i>, Cit\u00e9 du Vatican, 1975-1982, II, n. 1478, p. 174, d\u2019apr\u00e8s E."
        },
        {
            "type": "transcription",
            "value": "<?xml version=\"1.0\" encoding=\"UTF-8\"?>\nGregorius episcopus, servus servorum Dei, dilectis filiis .. priori Cartusie ac ceteris prioribus Cartusiensis ordinis, salutem et apostolicam benedictionem. Devotionis vestre precibus... Datum apud Urbem Veterem, II kalendas augusti, pontificatus nostri anno primo.\n"
        },
        {
            "type": "destinataire",
            "value": "Le prieur de la Chartreuse et les autres prieurs du m\u00eame ordre"
        },
        {
            "type": "sources_manuscrites",
            "value": "E. FRANCE, Paris, Archives nationales de France, L 263, n. 12. <i>Bulla deperdita, extat extat filum sericum<\/i>. Bulle provenant des archives de la chartreuse de Vauvert.",
            "children": {
                "type_source": "Exp\u00e9dition"
            }
        },
        {
            "type": "remarques",
            "value": "Inconnue de Potthast."
        }
    ]
}