{
    "id": 145431,
    "name": "aposcripta-5932",
    "type": "acte",
    "url": "http:\/\/telma-chartes.irht.cnrs.fr\/aposcripta\/notice\/145431",
    "project_slug": "aposcripta",
    "project_label": "APOSCRIPTA \u2013 Lettres des papes",
    "user": "l_valliere",
    "last_update": "2020-10-19 16:39:09",
    "licence": "Attribution - Pas d\u2019Utilisation Commerciale - Partage dans les M\u00eames Conditions 3.0 France (CC BY-NC-SA 3.0 FR) ",
    "licence_url": "https:\/\/creativecommons.org\/licenses\/by-nc-sa\/3.0\/fr\/",
    "elements": [
        {
            "type": "pape",
            "value": "Jean XXII (1316-1334)"
        },
        {
            "type": "destinataire",
            "value": "Le chanoine de Bressanone Enrico, fils du noble Guillelmo da Egna"
        },
        {
            "type": "date_libre",
            "value": "XIIII kalendas septembris, anno undecimo"
        },
        {
            "type": "date",
            "value": "1327\/08\/19",
            "children": {
                "date_deb_annee": "1327",
                "date_deb_mois": "08",
                "date_deb_jour": "19"
            },
            "range": {
                "date_apres": 13270819,
                "date_avant": 13270819
            }
        },
        {
            "type": "date_lieu",
            "value": "Avignon"
        },
        {
            "type": "genre",
            "value": "Titre, provisions de b\u00e9n\u00e9fice (littere gratiose, cum filo serico)"
        },
        {
            "type": "analyse",
            "value": "Giovanni XXII a Enrico figlio del nobile Guglielmo da Egna : gli conferisce un canonicato nella chiesa di Bressanone, con riserva di prebenda, nonostante sia in lite per un canonicato con prebenda nella chiesa di Costanza. Il vescovo di Trento \u00e8 tra gli incaricati della messa in possesso."
        },
        {
            "type": "sources_manuscrites",
            "value": "R<sup>1<\/sup>. CIT\u00c9 DU VATICAN, Archivio segreto Vaticano, <i>Registra Avenionensia<\/i> 28, fol. 260r, avec num\u00e9ro illisible (cancell\u00e9e; taxe: XI, XIII).",
            "children": {
                "type_source": "Registre de la chancellerie apostolique"
            }
        },
        {
            "type": "sources_manuscrites",
            "value": "R<sup>2<\/sup>. CIT\u00c9 DU VATICAN, Archivio segreto Vaticano, <i>Registra Vaticana<\/i> 84, MMDCCXXXXVI, fol. 282v-283r.",
            "children": {
                "type_source": "Registre de la chancellerie apostolique"
            }
        },
        {
            "type": "edition",
            "value": "Ici reprise de celle, partielle, d\u2019Emanuele Curzel, <i>Documenti papali per la storia trentina (fino al 1341)<\/i>, Bologne, 2004 (Annali dell\u2019Istituto storico italo-germanico. Fonti ; 1), n. 229, p. 339, d\u2019apr\u00e8s R<sup>1<\/sup> et R<sup>2<\/sup>."
        },
        {
            "type": "regeste",
            "value": "Guillaume Mollat, <i>Jean XXII (1316-1334). Lettres communes<\/i> (Biblioth\u00e8que des \u00c9coles Fran\u00e7aises d\u2019Ath\u00e8nes et de Rome), Paris, 1904-1947, n. 29531."
        },
        {
            "type": "transcription",
            "value": "<?xml version=\"1.0\" encoding=\"UTF-8\"?>\nDilecto filio Henrico nato dilecti filii nobilis viri Wilhelmi domini de Ennaa, canonico Brixinensi, salutem. Nobilitas generis, vite ac morum honestas aliaque tue probitatis merita [...]. Canonicatum ecclesie Brixinensis cum plenitudine iuris canonici apostolica auctoritate conferimus [...] seu quod prob canonicatu et prebenda ecclesie Constantiensis in Romana curia nosceris litigare. Nulli ergo et cetera, nostre collationis, provisionis, reservationis, inhibitionis et constitutionis infringere et cetera. Datum Avinione, XIIII kalendas septembris, anno undecimo.  In eodem modo venerabili fratri .. episcopo Tridentino, et dilectis filiis .. preposito monasterii Novecelle per prepositum soliti gubernari, Brixinensis diocesis, ac magistro Ambrosio de Mediolano, canonico Mediolanensis, salutem. Nobilitas generis et cetera... Datum ut supra.\n"
        },
        {
            "type": "apparat_critique",
            "value": "Euna <i>sic R<sup>2<\/sup> et Mollat.<\/i>",
            "children": {
                "numero_note": "a"
            }
        },
        {
            "type": "apparat_critique",
            "value": "de <i>R<sup>2<\/sup><\/i>.",
            "children": {
                "numero_note": "b"
            }
        }
    ]
}