{
    "id": 25766,
    "name": "aposcripta-2863",
    "type": "acte",
    "url": "http:\/\/telma-chartes.irht.cnrs.fr\/aposcripta\/notice\/25766",
    "project_slug": "aposcripta",
    "project_label": "APOSCRIPTA \u2013 Lettres des papes",
    "user": "lettrespontificalesadmin",
    "last_update": "2020-10-19 16:27:48",
    "licence": "Attribution - Pas d\u2019Utilisation Commerciale - Partage dans les M\u00eames Conditions 3.0 France (CC BY-NC-SA 3.0 FR) ",
    "licence_url": "https:\/\/creativecommons.org\/licenses\/by-nc-sa\/3.0\/fr\/",
    "elements": [
        {
            "type": "pape",
            "value": "Eug\u00e8ne III (1145-1153)"
        },
        {
            "type": "destinataire",
            "value": "( )",
            "children": {
                "numero_note": "0"
            }
        },
        {
            "type": "date_lieu",
            "value": "n.c."
        },
        {
            "type": "date_libre",
            "value": "1145"
        },
        {
            "type": "date",
            "value": "apres 1145 - avant 1145",
            "children": {
                "date_deb_annee": "1145",
                "date_deb_type": "apres",
                "date_fin_annee": "1145",
                "date_fin_type": "avant"
            },
            "range": {
                "date_apres": 11450000,
                "date_avant": 11459999
            }
        },
        {
            "type": "analyse",
            "value": "X pape<br\/>Le pape Eug\u00e8ne\u00a0III confirme la donation faite \u00e0 l\u2019abb\u00e9 de Mol\u00eame, du monast\u00e8re des religieuses de Jully, par Milon, comte de Bar-sur-Seine, confirm\u00e9e par Jocerand, \u00e9v\u00eaque de Langres, et veut qu\u2019il demeure sous l\u2019autorit\u00e9 de cet abb\u00e9, ainsi que les maisons qui en sont issues. Mais comme ces religieuses observent une cl\u00f4ture absolue, elles auront, pour g\u00e9rer les affaires au dehors, des moines de Mol\u00eame."
        },
        {
            "type": "transcription",
            "value": "<?xml version=\"1.0\" encoding=\"UTF-8\"?>\n[texte manquant]\n"
        },
        {
            "type": "edition",
            "value": "Ici tir\u00e9e du projet <i>CBMA - Corpus Burgundiae Medii Aevi<\/i>, document 7408. Site du projet Corpus de la Bourgogne du Moyen \u00c2ge, [En ligne] <a href=\"http:\/\/www.cbma-project.eu\" target=\"_blank\">http:\/\/www.cbma-project.eu<\/a>  "
        },
        {
            "type": "sources_manuscrites",
            "value": "\u00e0 renseigner."
        },
        {
            "type": "remarques",
            "value": "\r\n\r\n (Arch. de l\u2019Yonne. Fonds du prieur\u00e9 de Jully. \u2014 Ed. Cartul. de l\u2019Yonne, t.\u00a0I, p.\u00a0397.)"
        },
        {
            "type": "edition_autre",
            "value": "Ici reprise de Ernest Petit, <i>Cartulaire du prieur\u00e9 de Jully-les-Nonnains<\/i>, Auxerre\u00a0: Imprimerie de Georges Rouill\u00e9, 1881 <a href=\"http:\/\/gallica.bnf.fr\/ark:\/12148\/bpt6k91106d.r\" target=\"_blank\">[en ligne]<\/a>, p. 14.",
            "children": {
                "numero_note": "0"
            }
        },
        {
            "type": "genre",
            "value": "Bulle"
        },
        {
            "type": "genre",
            "value": "Lettre"
        }
    ]
}