{
    "id": 25791,
    "name": "aposcripta-2888",
    "type": "acte",
    "url": "http:\/\/telma-chartes.irht.cnrs.fr\/aposcripta\/notice\/25791",
    "project_slug": "aposcripta",
    "project_label": "APOSCRIPTA \u2013 Lettres des papes",
    "user": "lettrespontificalesadmin",
    "last_update": "2020-10-19 16:27:49",
    "licence": "Attribution - Pas d\u2019Utilisation Commerciale - Partage dans les M\u00eames Conditions 3.0 France (CC BY-NC-SA 3.0 FR) ",
    "licence_url": "https:\/\/creativecommons.org\/licenses\/by-nc-sa\/3.0\/fr\/",
    "elements": [
        {
            "type": "pape",
            "value": "Alexandre IV (1254-1261)"
        },
        {
            "type": "destinataire",
            "value": "( )",
            "children": {
                "numero_note": "0"
            }
        },
        {
            "type": "date_lieu",
            "value": "n.c."
        },
        {
            "type": "date_libre",
            "value": "1256 Octobre 13"
        },
        {
            "type": "date",
            "value": " 1256\/10\/13",
            "children": {
                "date_deb_annee": "1256",
                "date_deb_mois": "10",
                "date_deb_jour": "13"
            },
            "range": {
                "date_apres": 12561013,
                "date_avant": 12561013
            }
        },
        {
            "type": "analyse",
            "value": "X pape<br\/>Confirmation par Alexandre\u00a0IV des privil\u00e9ges, libert\u00e9s, exemptions et droits divers poss\u00e9d\u00e9s jusqu\u2019alors par les moines de La Charit\u00e9."
        },
        {
            "type": "transcription",
            "value": "<?xml version=\"1.0\" encoding=\"UTF-8\"?>\nAlexander episcopus, servus servorum Dei, dilectis filiis priori et conventui beate Marie de Charitate, Cluniacensis ordinis, Autissiodorensis diocesis, salutem et apostolicam benedictionem. Solet annuere sedes apostolica piis votis et justis petentium precibus favorem benevolum impertiri. Eapropter dilecti in Domino filii, vestris justis precibus inclinati, omnes libertates et immunitates a predecessoribus nostris Romanis pontificibus, sive per privilegia, sive per indulgentias ordini seu monasterio aut locis vestris specialiter concessis, nec non libertates et exemptiones secularium exactionum a regibus et principibus vel aliis Christi fidelibus rationabiliter vobis indultas, consuetudines quoque laudabiles et antiquas et hactenus pacifice observatas, sicut eas rationabiliter obtinetis, authoritate apostolica confirmamur et presentis scripti patrocinio communimus. Nulli ergo omnino hominum liceat hanc paginam nostre confirmationis infringere vel ei ausu temerario contra ire. Si quis autem hoc attentare presumpserit, indignationem omnipotentis Dei et beatorum Petri et Pauli apostolorum ejus se noverit incursurum. Datum Anagnie, III idus octobris, pontificatus nostri anno secundo.\n"
        },
        {
            "type": "edition",
            "value": "Ici tir\u00e9e du projet <i>CBMA - Corpus Burgundiae Medii Aevi<\/i>, document 7608. Site du projet Corpus de la Bourgogne du Moyen \u00c2ge, [En ligne] <a href=\"http:\/\/www.cbma-project.eu\" target=\"_blank\">http:\/\/www.cbma-project.eu<\/a>  "
        },
        {
            "type": "sources_manuscrites",
            "value": "\u00e0 renseigner. Texte pr\u00e9c\u00e9d\u00e9 de la rubrique: <i>EJUSDEM PAPE DIPLOMA DE CONFIRMATIONE PRIVILEGIORUM LIBERTATUM ET EXEMPTIONUM.<\/i>"
        },
        {
            "type": "remarques",
            "value": ""
        },
        {
            "type": "edition_autre",
            "value": "Ici reprise de Ren\u00e9 de Lespinasse, <i>Cartulaire du prieur\u00e9 de la Charit\u00e9-sur-Loire (Ni\u00e8vre), ordre de Cluni<\/i>, Nevers, Paris\u00a0: Morin-Boutillier, Honor\u00e9 Champion, 1887 <a href=\"http:\/\/gallica.bnf.fr\/ark:\/12148\/bpt6k56197710.r\" target=\"_blank\">[en ligne]<\/a>, p. 44-45, n\u00b0 XV.",
            "children": {
                "numero_note": "0"
            }
        },
        {
            "type": "genre",
            "value": "Bulle"
        },
        {
            "type": "genre",
            "value": "Lettre"
        }
    ]
}