{
    "id": 27393,
    "name": "aposcripta-4100",
    "type": "acte",
    "url": "http:\/\/telma-chartes.irht.cnrs.fr\/aposcripta\/notice\/27393",
    "project_slug": "aposcripta",
    "project_label": "APOSCRIPTA \u2013 Lettres des papes",
    "user": "l_valliere",
    "last_update": "2020-10-19 16:28:13",
    "licence": "Attribution - Pas d\u2019Utilisation Commerciale - Partage dans les M\u00eames Conditions 3.0 France (CC BY-NC-SA 3.0 FR) ",
    "licence_url": "https:\/\/creativecommons.org\/licenses\/by-nc-sa\/3.0\/fr\/",
    "elements": [
        {
            "type": "pape",
            "value": "Innocent VI (1352-1362)"
        },
        {
            "type": "destinataire",
            "value": "Le pr\u00e9v\u00f4t des marchands et les \u00e9chevins de la ville de Paris"
        },
        {
            "type": "date_libre",
            "value": "IIII idus februarii anno quinto"
        },
        {
            "type": "date",
            "value": " 1357\/02\/10",
            "children": {
                "date_deb_jour": "10",
                "date_deb_mois": "02",
                "date_deb_annee": "1357"
            },
            "range": {
                "date_apres": 13570210,
                "date_avant": 13570210
            }
        },
        {
            "type": "date_lieu",
            "value": "Avignon"
        },
        {
            "type": "genre",
            "value": "Lettre, g\u00e9n\u00e9ral (apr\u00e8s 1198, littere cum filo canapis)"
        },
        {
            "type": "analyse",
            "value": "Innocent VI au pr\u00e9v\u00f4t des marchands et aux \u00e9chevins de la ville de Paris, pour les exhorter \u00e0 \u00e9carter toute cause de dissentiment entre eux et le duc de Normandie."
        },
        {
            "type": "sources_manuscrites",
            "value": "R. CIT\u00c9 DU VATICAN, Archivio segreto Vaticano, <i>Registra Vaticana<\/i> 239, fol. 23.",
            "children": {
                "type_source": "Registre de la chancellerie apostolique"
            }
        },
        {
            "type": "edition",
            "value": "Ici reprise de Roland Delachenal, <i>Chronique des r\u00e8gnes de Jean II et de Charles V<\/i>, III, Paris : Soci\u00e9t\u00e9 de l'histoire de France, 1920, VIII, p. 73-75<a target=\"_blank\" href=\"https:\/\/gallica.bnf.fr\/ark:\/12148\/bpt6k5720910q\/f129.image\"> [en ligne]<\/a>, \u00ab copie communiqu\u00e9e par M. F. Soehn\u00e9e, ancien membre de l'\u00c9cole fran\u00e7aise de Rome \u00bb, d'apr\u00e8s R."
        },
        {
            "type": "edition_autre",
            "value": "Partielle : Henri Denifle, <i>La d\u00e9solation des \u00e9glises, monast\u00e8res et h\u00f4pitaux en France pendant la guerre de Cent Ans<\/i>, Paris, 1899, t. I, p. 138, n. 2 <a target=\"_blank\" href=\"https:\/\/archive.org\/stream\/ladsolationdesg00denigoog#page\/n165\/mode\/2up\">[en ligne]<\/a>."
        },
        {
            "type": "edition_autre",
            "value": "Pierre Gasnault, Marie-Hyacinthe Laurent, Nicole Gotteri, <i>Innocent VI (1352-1362), Lettres secr\u00e8tes et curiales publi\u00e9e d'apr\u00e8s les Registres des archives vaticanes<\/i>, Paris, 1959-2006, n. 2573, d'apr\u00e8s R."
        },
        {
            "type": "transcription",
            "value": "<?xml version=\"1.0\" encoding=\"UTF-8\"?>\nDilectis filiis preposito mercatorum et scabinis civitatis Parisiensis salutem et apostolicam benedictionem. Pertulit ad nos fama celerior et multorum habet inculcata relatio quod dilecto filio nobili viro Carolo, primogenilo carissimi in Christo filii nostri Johannis, regis Francorum illustris, duce Normannie, vobiscum de dispositione regni Francorum, quod, peccatis exigentibus, diebus hiis procellis multis illuditur, habente consilium, et illo ac vobis non sapientibus idem concorditer circa illam, inter vos alterutrum dissensionis materiam pacis emulus conatus est suscitare, et quod idem dux ac vos dolos ejusdem pacis hostis circa id cognoscentes, dissensionem hujusmodi in ipso ortus ejus principio laudando studio prefocastis, ne si, quod absit, vires susciperet, ipse pacis emulus nocendi causam facilius inveniret. Hec profecto, filii, causam nobis turbationis simul et gaudii pepererunt, et quantum audita dissensio mentem nostram amaricavit, fortius et vehementius conturbavit, tanto nunciata concordia cor nostrum respersit ampliori dulcedine pociorique jocunditate replevit. Solet enim amantium dissensio, que presertim ex radice nascitur caritatis, reintegrare amorem et dilectionem instaurare majorem. Sed inter hec nobis zelum fidei vestre ac devotionis fervorem, qui occasionem dissencioni hujusmodi prestiterunt, ac regis et regni predictorum statum paterna consideratione pensantibus, occurrit, filii, quantis subjecta periculis, quantisque malis onusta foret quecumque ducis ejusdem vestraque discordia, modica et levis quantumlibet, quantaque discrimina parturiret. Solus enim rumor illius si \u2014 quod absit ! \u2014 contingeret, diligentibus regem regnumque predictos dolorem ingereret, eorum vires minueret, corda demitteret, enervaret animos, debilitaret et mentes, ac contra odientibus leticiam pareret, augeret gaudium, nutriret audaciam securitatemque prestaret. Omissis itaque multis que considerationi provide possunt occurrere et que, sicut non ambigimus, vos discrete pensatis, ac terribili sententia illa quam diviso in se regno comminatur Evangelica veritas clausa silentio, premisso dumtaxat exemplo contenti, universitatem vestram monemus, requirimus et hortamur in Domino, illam attentius deprecantes vobisque sanis consiliis et sinceris affectibus suadentes, quatinus, provide attendentes quod hujusmodi regis et regni predictorum status et condiciones temporis exigunt, ut quecumque pro liberatione regis et conservatione regni predictorum agenda fuerint caucius disponantur, et, considerantes etiam quod dux idem, utpote juvenis et captivitatis compassione anxius filiali, est interdum, etiam si juveniliter ageret, tolerandus, omnem viam omnesque aditus quos ad quamcumque discordiam pacis emulus inveniret, prudentie vestre studio precludatis, idem cum eo ipseque vobiscum concorditer sapiatis ac ipsum salutaribus dirigatis consiliis et efficacibus auxiliis faveatis. Cum enim inter communitates alias dicti regni preminentiam teneatis, et ob hoc in vos oculi earum respiciunt, ad efficacem assistenciam inpendendam et salutaria consilia danda prefato duci quodam obligamini debito speciali. Nam quicquid honoris et commodi ex earumdem communitatum ordinatione regi et regno resultabit, eisdem vobis specialiter ascribetur. Ceterum, quia, sicut audivimus, quosdam ex officialibus dicti regis exacti temporis regimen vobis constituit odiosos et, successus adversos imputantes eisdem, pro eorum punitione instanter instatis, nos, que ex hiis nasci possent pericula cogitantes et proinde illa credentes sani esse consilii si in tempus aliud differantur, precibus nostris adicimus ut ab hiis velitis, prout utililati regis et regni predictorum expedire videritis, istis temporibus abstinere. Datum Avinione, IIII idus februarii anno quinto.\n"
        }
    ]
}