{
    "id": 144323,
    "name": "aposcripta-5602",
    "type": "acte",
    "url": "http:\/\/telma-chartes.irht.cnrs.fr\/aposcripta\/notice\/144323",
    "project_slug": "aposcripta",
    "project_label": "APOSCRIPTA \u2013 Lettres des papes",
    "user": "l_valliere",
    "last_update": "2020-10-19 16:38:58",
    "licence": "Attribution - Pas d\u2019Utilisation Commerciale - Partage dans les M\u00eames Conditions 3.0 France (CC BY-NC-SA 3.0 FR) ",
    "licence_url": "https:\/\/creativecommons.org\/licenses\/by-nc-sa\/3.0\/fr\/",
    "elements": [
        {
            "type": "pape",
            "value": "Lucius II (1144-1145)"
        },
        {
            "type": "destinataire",
            "value": "L'abbesse Judith et les soeurs du monast\u00e8re de Remiremont "
        },
        {
            "type": "date_libre",
            "value": "XI kalendas aprilis, indictione VII, MCXLIII, anno primo"
        },
        {
            "type": "date",
            "value": "1144\/03\/22",
            "children": {
                "date_deb_annee": "1144",
                "date_deb_mois": "03",
                "date_deb_jour": "22"
            },
            "range": {
                "date_apres": 11440322,
                "date_avant": 11440322
            }
        },
        {
            "type": "date_lieu",
            "value": "Latran"
        },
        {
            "type": "genre",
            "value": "Lettre, g\u00e9n\u00e9ral (avant 1198)"
        },
        {
            "type": "analyse",
            "value": "Lucius II, pape, confirme l'accord conclu \u00e0 Metz entre le duc de Lorraine Mathieu I<sup>er<\/sup> et l'abbaye de Remiremont, en pr\u00e9sence de Conrad III, roi des Romains, et de plusieurs \u00e9v\u00eaques et princes."
        },
        {
            "type": "sources_manuscrites",
            "value": "E. FRANCE, Paris, Biblioth\u00e8que Nationale, Nouv. acq. latines 2528, n. 4.",
            "children": {
                "type_source": "Original"
            }
        },
        {
            "type": "edition",
            "value": "Ici reprise de l'acte n. 715 dans \u00ab Chartes originales conserv\u00e9es en France (1121-1220) \u00bb, Christelle Balouzat-Loubet, Jean-Baptiste Renault, \u00e9ds., Nancy : Centre de M\u00e9di\u00e9vistique Jean Schneider ; \u00e9ds \u00e9lectronique Orl\u00e9ans : Institut de Recherche et d'Histoire des Textes, 2013 (Telma) <a target=\"_blank\" href=\" http:\/\/www.cn-telma.fr\/originaux2\/charte268270\/\"> [en ligne]<\/a>."
        },
        {
            "type": "edition_autre",
            "value": "L\u00e9opold Duhamel, \u00ab Des relations des empereurs et des ducs de Lorraine avec l'abbaye de Remiremont \u00bb, <i>Annales de la soci\u00e9t\u00e9 des Vosges<\/i>, 1865, t. XII, cahier II, p. 195-294, aux p. 261-262 \u00bb<a target=\"_blank\" href=\" https:\/\/gallica.bnf.fr\/ark:\/12148\/bpt6k33355d\/f262.image\"> [en ligne]<\/a>."
        },
        {
            "type": "regeste",
            "value": "Jaff\u00e9-Loewenfeld, <i>Regesta pontificum Romanorum<\/i>, 2 vol., Leipzig, 1885-1888, II, n. 8539 <a target=\"_blank\" href=\" https:\/\/archive.org\/details\/regestapontificu02cath\/page\/8\"> [en ligne]<\/a>."
        },
        {
            "type": "transcription",
            "value": "<?xml version=\"1.0\" encoding=\"UTF-8\"?>\nLUCIUS episcopus, servus servorum Dei, dilectis in [Christo filia]bus JUDITH abbatissae et SORORIBUS Romaricensis monasterii salutem et apostolicam benedictionem. Quotiens in quibusdam conventionibus precipue in his quae ad quietem et utilitatem religiosarum personarum noster expectatur assensus ne in dubium veniant quae geruntur ratio ea pro securitate partium debet habita solidare. Matheus siquidem dux Lotharingie de multis gravaminibus, dampnis, [exactio]nibus et injuriis quae Romaricensi monasterio intulerat culpam suam recognoscens, in [present]ia karissimi filii nostri C[unradi] illustris Romanorum regis, multorum quoque episcoporum et principum, Metis vobiscum pacem composuit. Quam prefatus rex ibidem scripto suo firmavit et idem dux postea apud Romaricense monasterium, in presentia fratris ; nostri Henrici Tullensis episcopi et clericorum suorum, scripti sui munimine roboravit. Quia igitur nostri officii est male acta corrigere et bene gesta firmare, eandem concordiam quemadmodum pacis in [tuitu] ra[ti]onabiliter facta est atque prefati regis et ejusdem ducis scriptis continetur apostolicae Sedis auct[oritate] firmamus et ratam manere censemus. Si qua igitur in futurum ecclesiastica secul[aris]ve persona hujus nostrae confirmationis ; paginam sciens contra temere venire temptaverit, vel eam sacrilego ausu infringere presumpserit, secundo tertiove commonita, si non satisfactione congrua emendaverit, potestatis honorisque sui dignitate careat, reamque se divino judicio existere de perpetrata iniquitate cognoscat et a sacratissimo Corpore ac Sanguine Dei et Domini Redemptoris nostri Jhesu Christi aliena fiat atque in extremo examine districte ultioni subjaceat. Observantibus autem sit pax Domini nostri Jhesu Christi quatinus et hic fructum bone actionis percipiant et apud districtum Judicem premia eternae pacis inveniant. Amen. Amen. Amen. Ego Lucius catholice ecclesie episcopus SS. [croix] Ego Conradus Sabinensia episcopus SS. [croix] Ego Gregorius diaconus cardinalis sanctorum Sergii et Bachib SS. [croix] Ego Theodewinus sancte Rufine episcopus SS. [croix] Ego Otto diaconus cardinalis Sancti Georgii ad Velum Aureum SS. [croix] Ego Albericus Ostiensis episcopus SS. [croix] Ego Imarius Tusculanus episcopus SS. Datum Laterani per manum BARONIS capellani et scriptoris, XI kalendas aprilis, indictione VII, incarnationis dominice anno M\u00b0C\u00b0XL\u00b0III\u00b0, pontificatus vero domini LUCII II pape anno primo.\n"
        },
        {
            "type": "apparat_critique",
            "value": "Sic.",
            "children": {
                "numero_note": "a"
            }
        },
        {
            "type": "apparat_critique",
            "value": "Sic.",
            "children": {
                "numero_note": "b"
            }
        }
    ]
}