{
    "id": 25897,
    "name": "aposcripta-2994",
    "type": "acte",
    "url": "http:\/\/telma-chartes.irht.cnrs.fr\/aposcripta\/notice\/25897",
    "project_slug": "aposcripta",
    "project_label": "APOSCRIPTA \u2013 Lettres des papes",
    "user": "lettrespontificalesadmin",
    "last_update": "2020-10-19 16:27:50",
    "licence": "Attribution - Pas d\u2019Utilisation Commerciale - Partage dans les M\u00eames Conditions 3.0 France (CC BY-NC-SA 3.0 FR) ",
    "licence_url": "https:\/\/creativecommons.org\/licenses\/by-nc-sa\/3.0\/fr\/",
    "elements": [
        {
            "type": "pape",
            "value": "Alexandre IV (1254-1261)"
        },
        {
            "type": "destinataire",
            "value": "( )",
            "children": {
                "numero_note": "0"
            }
        },
        {
            "type": "date_lieu",
            "value": "n.c."
        },
        {
            "type": "date_libre",
            "value": "1257, 13 JUIN"
        },
        {
            "type": "date",
            "value": " 1257\/06\/13",
            "children": {
                "date_deb_annee": "1257",
                "date_deb_mois": "06",
                "date_deb_jour": "13"
            },
            "range": {
                "date_apres": 12570613,
                "date_avant": 12570613
            }
        },
        {
            "type": "analyse",
            "value": "X pape<br\/>Le pape Alexandre IV accorde \u00e0 ceux qui visiteront l\u2019\u00e9glise de Sainte-Colombe et de Saint Loup de Sens, le jour de la f\u00eate de ces saints, cent jours d\u2019indulgence."
        },
        {
            "type": "transcription",
            "value": "<?xml version=\"1.0\" encoding=\"UTF-8\"?>\n[texte manquant]\n"
        },
        {
            "type": "edition",
            "value": "Ici tir\u00e9e du projet <i>CBMA - Corpus Burgundiae Medii Aevi<\/i>, document 9245. Site du projet Corpus de la Bourgogne du Moyen \u00c2ge, [En ligne] <a href=\"http:\/\/www.cbma-project.eu\" target=\"_blank\">http:\/\/www.cbma-project.eu<\/a>  "
        },
        {
            "type": "sources_manuscrites",
            "value": "\u00e0 renseigner."
        },
        {
            "type": "remarques",
            "value": "\r\n\r\n D. Cottron, Chronicon c\u0153nobii Sanct\u00e6-Colomb\u00e6 Senonensis, MS p.\u00a0351, Bibl. d\u2019Auxerre, n\u00ba\u00a0116."
        },
        {
            "type": "edition_autre",
            "value": "Ici reprise de Maximilien Quantin, <i>Recueil de pi\u00e8ces pour faire suite au Cartulaire g\u00e9n\u00e9ral de l'Yonne : XIIIe si\u00e8cle<\/i>, Auxerre : Soci\u00e9t\u00e9 des sciences historiques et naturelles de l'Yonne, 1873, p. , n\u00b0 568.",
            "children": {
                "numero_note": "0"
            }
        },
        {
            "type": "genre",
            "value": "Bulle"
        },
        {
            "type": "genre",
            "value": "Lettre"
        }
    ]
}