{
    "id": 25391,
    "name": "aposcripta-2488",
    "type": "acte",
    "url": "http:\/\/telma-chartes.irht.cnrs.fr\/aposcripta\/notice\/25391",
    "project_slug": "aposcripta",
    "project_label": "APOSCRIPTA \u2013 Lettres des papes",
    "user": "lettrespontificalesadmin",
    "last_update": "2020-10-19 16:27:44",
    "licence": "Attribution - Pas d\u2019Utilisation Commerciale - Partage dans les M\u00eames Conditions 3.0 France (CC BY-NC-SA 3.0 FR) ",
    "licence_url": "https:\/\/creativecommons.org\/licenses\/by-nc-sa\/3.0\/fr\/",
    "elements": [
        {
            "type": "pape",
            "value": "Urbain III (1185-1187)"
        },
        {
            "type": "destinataire",
            "value": "L'abb\u00e9 de Cluny Hugues",
            "children": {
                "numero_note": "0"
            }
        },
        {
            "type": "date_lieu",
            "value": "V\u00e9rone"
        },
        {
            "type": "date_libre",
            "value": "1186-1187, 25 juin"
        },
        {
            "type": "date",
            "value": "apr\u00e8s 1186\/06\/25 - avant 1187\/06\/25",
            "children": {
                "date_deb_annee": "1186",
                "date_deb_mois": "06",
                "date_deb_jour": "25",
                "date_deb_type": "apr\u00e8s",
                "date_fin_annee": "1187",
                "date_fin_mois": "06",
                "date_fin_jour": "25",
                "date_fin_type": "avant"
            },
            "range": {
                "date_apres": 11860625,
                "date_avant": 11870625
            }
        },
        {
            "type": "analyse",
            "value": "X pape<br\/>PRIVILEGIUM URBANI PAP\u00c6 III, QUO CONFIRMAT SUBJECTIONEM ABBATI\u00c6 SANCTI GERMANI AUTISSIODORENSIS MONASTERIO CLUNIACENSI. PRIVILEGIUM URBANI PAP\u00c6 III. ad Hugonem IV. Abb. de subjectione Abbati\u00e6 S. Germani Altisiodorensis Cluniacensium Abbatum jurisdictioni."
        },
        {
            "type": "transcription",
            "value": "<?xml version=\"1.0\" encoding=\"UTF-8\"?>\nUrbanus episcopus, servus servorum Dei, dilectis filiis Hugoni abbati et conventui Cluniacensibus, salutem et apostolicam benedictionem. Quanto specialius c\u0153nobium vestrum beati Petri juris existit, et ad nostram provisionem nullo mediante pertinet et tutelam, ac vos et pr\u00e6decessores vestri in eo c\u0153lestis magisterio subditi disciplin\u00e6, per infusionem Sancti Spiritus odorem honestatis et religionis in vestro hactenus ordine observat\u00e6 latius expandistis tant\u00f2 ad conservandum jura vestra ill\u00e6sa, et justas devotionis vestr\u00e6 petitiones benignius admittendas tenemur existere promptiores. Quia igitur, sicut ex rescriptis S. quondam comitis Blesensis et A. uxoris ejus et felicis recordationis Urbani secundi et Paschalis Romanorum pontificum, sub sigillis dilectorum filiorum nostrorum B. sancti Angeli, et S. Mari\u00e6 in via lata Diaconorum Cardinalium apostolic\u00e6 Sedis legatorum, ad pr\u00e6sentiam nostram transmissis, nobis innotuit monasterium sancti Germani Altisiodorensis, in quo adeo per negligentiam provisorum regularis observantia perierat disciplin\u00e6 et terren\u00e6 defecerant facultates, quod ejus custodia abjectis traderetur personis, ad preces pr\u00e6dicti comitis monasterii ejusdem Patroni, et bon\u00e6 memori\u00e6 Hubaldi tunc Altisiodorensis Episcopi et aliorum plurium pr\u00e6dictus Urbanus secundus antecessor noster beato Hugoni tunc monasterii vestri abbati et successoribus ipsius provida deliberatione concessit secundum beati Benedicti regulam reformandum, et sub ordinatione monasterii Cluniacensis futuris temporibus perpetu\u00f2 possidendum ; sic tamen quod monasterium ipsum abbatis non deberet provisione carere: quam concessionem et pr\u00e6dicti Comitis donationem Paschalis antecessor noster postmodum confirmavit. Nos, pr\u00e6decessorum nostrorum vestigiis inh\u00e6rentes, ad exemplar eorum eamdem concessionem ratam esse decernimus et pr\u00e6sentis scripti pagina confirmamu, statuentes ut nulli omnin\u00f2 hominum liceat hanc paginam nostr\u00e6 confirmationis infringere vel ei ausu temerario contraire. Si quis autem hoc attentare pr\u00e6sumpserit, indignationem omnipotentis Dei, et beatorum Petri et Pauli Apostolorum ejus se noverit incursurum. Datum Veron\u00e6, VII kalendas julii.\n"
        },
        {
            "type": "edition",
            "value": "Ici tir\u00e9e du projet <i>CBMA - Corpus Burgundiae Medii Aevi<\/i>, document 5749. Site du projet Corpus de la Bourgogne du Moyen \u00c2ge, [En ligne] <a href=\"http:\/\/www.cbma-project.eu\" target=\"_blank\">http:\/\/www.cbma-project.eu<\/a>  "
        },
        {
            "type": "remarques",
            "value": "\r\n\r\nIndications dans l'\u00e9dition des Chartes de Cluny quand Bernard et Bruel n'ont pas repris le texte : Urbanus, etc. Quanto specialius, etc. (Bull. Clun., p.\u00a085, col.\u00a01, n\u00ba\u00a01.)."
        },
        {
            "type": "edition_autre",
            "value": "Ici reprise de Auguste Bernard, Alexandre Bruel, <i>Recueil des chartes de l'abbaye de Cluny<\/i>. V. <i>1091-1210<\/i>, Paris\u00a0: Imprimerie nationale, 1894 <a href=\"http:\/\/gallica.bnf.fr\/ark:\/12148\/bpt6k28911f?rk=64378;0\" target=\"_blank\">[en ligne]<\/a>, p. 669, n\u00b0 4310.",
            "children": {
                "numero_note": "0"
            }
        },
        {
            "type": "edition_autre",
            "value": "Pierre Simon, <i>Bullarium sacri Ordinis cluniacensis, complectens plurima privilegia per summos pontifices tum ipsi cluniacensi abbatiae, tum ei subditis monasteriis hactenus concessa<\/i>, Lyon : Jullieron, 1680, p. 85, col. 1",
            "children": {
                "numero_note": "1"
            }
        },
        {
            "type": "genre",
            "value": "Privil\u00e8ge mineur (avant 1198)"
        }
    ]
}