{
    "id": 26184,
    "name": "aposcripta-3263",
    "type": "acte",
    "url": "http:\/\/telma-chartes.irht.cnrs.fr\/aposcripta\/notice\/26184",
    "project_slug": "aposcripta",
    "project_label": "APOSCRIPTA \u2013 Lettres des papes",
    "user": "lettrespontificalesadmin",
    "last_update": "2020-10-19 16:27:55",
    "licence": "Attribution - Pas d\u2019Utilisation Commerciale - Partage dans les M\u00eames Conditions 3.0 France (CC BY-NC-SA 3.0 FR) ",
    "licence_url": "https:\/\/creativecommons.org\/licenses\/by-nc-sa\/3.0\/fr\/",
    "elements": [
        {
            "type": "pape",
            "value": "Pascal II (1099-1118)"
        },
        {
            "type": "date_lieu",
            "value": "n.c."
        },
        {
            "type": "date_libre",
            "value": "Um 1100<a class=\"note\" href=\"#note-1\">1<\/a>"
        },
        {
            "type": "date",
            "value": "apres 1100 - avant 1100",
            "children": {
                "date_deb_annee": "1100",
                "date_deb_type": "apres",
                "date_fin_annee": "1100",
                "date_fin_type": "avant"
            },
            "range": {
                "date_apres": 11000000,
                "date_avant": 11009999
            }
        },
        {
            "type": "analyse",
            "value": "Paschalis II befiehlt dem Bischofe Philipp I von Ch\u00e2lons-sur-Marne den Abt von Montier-en-Der (D. Ch\u00e2lons) nicht zum Besuche seiner Synoden zu zwingen und dessen M\u00f6nche nicht gegen den Willen des Abtes aufzunehmen."
        },
        {
            "type": "transcription",
            "value": "<?xml version=\"1.0\" encoding=\"UTF-8\"?>\nPaschalis episcopus servus servorum dei venerabili fratri et coepiscopo Philippo Kathalaunensi2 salutem et apostolicam benedictionem. Cum neminem episcopum liceat, canones ignorare multum miramur, quod abbatem sancti Bercharii ad civitatis tue festivitates cogendo non dubites invitare. Quod, quam absurdum sit, quamque officio tuo contrarium nemo dubitat, qui novit, quod sacri canones etiam ad sinodum abbates cogi prohibeant3. Clericum quoque alterius vel monachum ab aliquo suscipi, quomodo sanctorum patrum sanctiones inhibeant, fraternitati tue ignotum esse non credimus, quod te de monachis prefati abbatis facere, non sine admiratione audivimus. Presentium igitur auctoritate dilectioni tue precipimus, ne prefatum abbatem ad festivitates tuas ire cogas, neve monachos eius contra eum suscipias.\n"
        },
        {
            "type": "edition",
            "value": "Julius von Pflugk-Harttung, <i>Acta pontificum Romanorum inedita<\/i>, T\u00fcbingen, 1880, I, n. 75, p. 69"
        },
        {
            "type": "sources_manuscrites",
            "value": "Abschrift vom 12 Jahrh. des Cart. de l\u2019abbaye de Montier-en-Der fol. 97, im Archive des D\u00e9p. Haute-Marne zu Chaumont"
        },
        {
            "type": "sources_manuscrites",
            "value": "daraus neuere Abschr. des MS. lat. Nouv. Acq. 1251 fol. 97, in der Bibl. Nat. zu Paris."
        },
        {
            "type": "remarques",
            "value": ""
        },
        {
            "type": "notes_historiques",
            "value": "<i>Die Datirung ergiebt sich aus der Urk. vom 10 April 1100 und der Regierungszeit des Bisch. Philipp.<\/i>",
            "children": {
                "numero_note": "1"
            }
        },
        {
            "type": "notes_historiques",
            "value": "<i>Philipp I de Champagne, Bischof von Ch\u00e2lons-sur-Marne, 1095\u20131100.<\/i>",
            "children": {
                "numero_note": "2"
            }
        },
        {
            "type": "notes_historiques",
            "value": "<i>Vergl. auch die Urk. vom 11 April 1100 fin.<\/i>",
            "children": {
                "numero_note": "3"
            }
        },
        {
            "type": "genre",
            "value": "Bulle"
        }
    ]
}