{
    "id": 24616,
    "name": "aposcripta-1767",
    "type": "acte",
    "url": "http:\/\/telma-chartes.irht.cnrs.fr\/aposcripta\/notice\/24616",
    "project_slug": "aposcripta",
    "project_label": "APOSCRIPTA \u2013 Lettres des papes",
    "user": "lettrespontificalesadmin",
    "last_update": "2020-10-19 16:27:32",
    "licence": "Attribution - Pas d\u2019Utilisation Commerciale - Partage dans les M\u00eames Conditions 3.0 France (CC BY-NC-SA 3.0 FR) ",
    "licence_url": "https:\/\/creativecommons.org\/licenses\/by-nc-sa\/3.0\/fr\/",
    "elements": [
        {
            "type": "pape",
            "value": "Urbain IV (1261-1264)"
        },
        {
            "type": "date_lieu",
            "value": "n.c."
        },
        {
            "type": "date_libre",
            "value": "5\u00a0juillet 1263"
        },
        {
            "type": "date",
            "value": " 1263\/07\/05",
            "children": {
                "date_deb_annee": "1263",
                "date_deb_mois": "07",
                "date_deb_jour": "05"
            },
            "range": {
                "date_apres": 12630705,
                "date_avant": 12630705
            }
        },
        {
            "type": "analyse",
            "value": "Urbain\u00a0IV mande \u00e0 l\u2019\u00e9v\u00eaque de Maguelone de relever de leur excommunication certains marchands de Sienne."
        },
        {
            "type": "transcription",
            "value": "<?xml version=\"1.0\" encoding=\"UTF-8\"?>\nEpiscopus Magalonensis (sic).Dudum in cives Senenses, pro eo quod Manfredo, quondam principi Tarentino, persecutori Ecclesie manifesto, adherendo, ei prestiterunt auxilium et favorem, ac etiam quia captivos civitatis Lucane non restituerunt pristine libertati, mandavimus excommunicationis sententiam generaliter promulgari, ac etiam inhiberi ne quis illis vel eorum alicui de debitis respondeat eorumdem\u00a0; ac postmodum, eorum contumacia excrescente, ipsos, assistentibus nobis fratribus nostris et aliis quampluribus prelatis, publice in cathedrali ecclesia Urbevetana, coram populo, excommunicationis et anathematis vincula duximus innodandos, venerabilibus fratribus nostris, universis patriarchis, archiepiscopis, episcopis, ceterisque Ecclesiarum prelatis, necnon principibus, ducibus, marchionibus, comitibus, baronibus ac potestatibus, capitaneis, consulibus, consiliariis et communitatibus tam civitatem quam castrorum aliorumque locorum ubilibet constitutis, de ipsorum fratrum consilio, sub pena excommunicationis, apostolica auctoritate mandantes et districte precipientes, ut bona eorumdem Senensium civium, in terris eorum dominio et jurisdictioni subjectis existentia, capiant et detineant, donec eis super hoc nostrum beneplacitum duxerimus intimandum.Sane dilectos filios Bonaventuram Bernardini et Franciscum Guidi, cives et mercatores Senenses, propter multa obsequia et devotionis promptitudinem, que nobis et Ecclesie Romane in suis necessitatibus impenderunt, et quia obsequium ipsorum est nobis et predicte Ecclesie continue oportunum, volumus predictis sententiis, mandatis ac preceptis aliquatenus non includi.Nuper quoque ipsos specialiter, sicut et quosdam alios cives Senenses, ad devotionem Ecclesie specialiter redeuntes ac jurantes super hiis, super quibus dicte sententie late erant, nostris et ipsius Ecclesie parere mandatis, ex superhabundanti cautela ab hujusmodi et universis excommunicationum sententiis, quas nos in predictos cives Senenses et eorum terram propter suam indevotionem generaliter promulgavimus, juxta formam Ecclesie duximus absolvendos.Cum igitur Vivolus Salvanelli, Ventura Cambii, Jacobus Curradi, Lottus Ugolini et Ventura Benedicti, socii predictorum mercatorum, apud Montem Pesulanum et Sallonum commorantes, simile prestare velint, sicut intelleximus, juramentum, fraternitati tue per apostolica scripta mandamus quatenus ab eis publice ac patenter, presentibus multis probis idoneisque personis, abjuratis prius cunctis sacramentis, confederationibus, pactis et promissionibus quibus persecutori tenentur eidem, recipias per te vel alium ab ipsis, nostro et Ecclesie Romane nomine, juramentum, quod super hiis, pro quibus in eos hujusmodi excommunicative sententie sunt hac occasione per Sedem Apostolicam promulgate, nostris et Ecclesie mandatis, que ipsis semel et pluries per nos vel per alios, quibus hoc committendum duxerimus, faciemus, precise parebunt, quodque deinceps dictum Manfredum non habebunt nec assument in dominum, nullumque omnino sibi suisve nuntiis et officialibus aut Senensibus perfidis, ipsius M. fautoribus, qui nunc Senensem detinent civitatem, in equis, armis, pecunia et quibuscumque aliis prebebunt consilium, auxilium vel favorem publicum vel occultum, nec ejusdem M. recipient nuntios, quin immo nobis et predicte Ecclesie contra Manfredum ipsum, ad nostrum et nuntiorum nostrorum mandatum, potenter et patenter assistent. Quibus (ut decet) rite peractis, tu eos juxta formam Ecclesie ab hujusmodi sententiis excommunicationis absolvas, faciens exinde fieri publica instrumenta, illa nobis fideliter transmissurus, et tam eos quam mercatores prefatos per omnia loca in quibus petierint, per te et alios denunties absolutos et nostris se beneplacitis coaptasse, non permittens ipsos in personis, et bonis eorum, aut debitis ipsorum, occasione hujusmodi, ab aliquo molestari.Ex parte quoque nostra universis judicibus, eis a Sede Apostolica deputatis et subdelegatis, ipsorum ac locorum ordinariis nunties, ut de suis debitoribus ac quibuslibet injuriatoribus eis studeant plenam justitiam exhibere.Contradictores autem \u2014. Non obstantibus aliquibus litteris apostolicis ad te vel alios contra Senenses predictos specialiter vel generaliter impetratis, et processibus habitis per easdem, vel si aliquibus quod suspendi, vel interdici, aut excommunicari, seu extra certa loca conveniri non possint, a Sede Apostolica sit indultum.Datum apud Urbemveterem, iii nonas julii, anno secundo.\n"
        },
        {
            "type": "edition",
            "value": "Julien Rouquette, Augustin Villemagne, <i>Bullaire de l'\u00c9glise de Maguelone<\/i>, Paris, Montpellier : Picard, Valat, 1911-1914, II, n. 604-479\u00a0d, p. 529-530"
        },
        {
            "type": "remarques",
            "value": ""
        },
        {
            "type": "bibliographie_generale",
            "value": "<span class=\"small-caps\">J. Guiraud<\/span>, <i>Registres d\u2019Urbain\u00a0IV<\/i>, t.\u00a0I, p.\u00a045.",
            "children": {
                "numero_note": "0"
            }
        },
        {
            "type": "genre",
            "value": "Bulle"
        }
    ]
}