{
    "id": 20701,
    "name": "aposcripta-688",
    "type": "acte",
    "url": "http:\/\/telma-chartes.irht.cnrs.fr\/aposcripta\/notice\/20701",
    "project_slug": "aposcripta",
    "project_label": "APOSCRIPTA \u2013 Lettres des papes",
    "user": "lettrespontificalesadmin",
    "last_update": "2020-10-19 16:26:52",
    "licence": "Attribution - Pas d\u2019Utilisation Commerciale - Partage dans les M\u00eames Conditions 3.0 France (CC BY-NC-SA 3.0 FR) ",
    "licence_url": "https:\/\/creativecommons.org\/licenses\/by-nc-sa\/3.0\/fr\/",
    "elements": [
        {
            "type": "pape",
            "value": "Lucius II (1144-1145)"
        },
        {
            "type": "date_lieu",
            "value": "n.c."
        },
        {
            "type": "date_libre",
            "value": "1144 Mart 29"
        },
        {
            "type": "analyse",
            "value": "Lucius\u00a0II episcopo Aniciensi negotium dat, ut abbati S. Theofredi de parochianis quibusdam, qui \u201eDesiderii\u201c vocantur, satisfaciat."
        },
        {
            "type": "transcription",
            "value": "<?xml version=\"1.0\" encoding=\"UTF-8\"?>\nLucius episcopus servus servorum Dei Hu(mberto) venerabili fratri episcopi Aniciensi salutem et apostolicam benedictionem. Ad tuum spectat officium, religiosos viros et eorum loca, praecipue quae in commisso tibi episcopatu sita sunt, diligere et fovere et a perversorum incursibus defensare. Quocirca per praesentia tibi sit manifestum vel mandatum, quatenus dilectum filium nostrum B(eraldum) abbatem S. Theofredi et fratres suos iuves et manuteneas et de parrochianis tuis, qui Desiderii vocantur, et aliis, de quibus tibi conquesti fuerint, canonicam eis iustitiam facias. Dat. Laterani IIII Kal. Aprilis.\n"
        },
        {
            "type": "edition",
            "value": "Samuel Loewenfeld, <i>Epistolae pontificum romanorum ineditae<\/i>, Leipzig : Veit et Comp., 1885, n. 189, p. 96-97"
        },
        {
            "type": "sources_manuscrites",
            "value": "Bibl. nat. Paris. Cartul. l.\u00a0l. fol.\u00a096 (Coll. Moreau l.\u00a0l. fol.\u00a076)."
        },
        {
            "type": "date",
            "value": "1144\/03\/29",
            "children": {
                "date_deb_annee": "1144",
                "date_deb_mois": "03",
                "date_deb_jour": "29"
            },
            "range": {
                "date_apres": 11440329,
                "date_avant": 11440329
            }
        },
        {
            "type": "genre",
            "value": "Bulle"
        }
    ]
}