{
    "id": 24495,
    "name": "aposcripta-1646",
    "type": "acte",
    "url": "http:\/\/telma-chartes.irht.cnrs.fr\/aposcripta\/notice\/24495",
    "project_slug": "aposcripta",
    "project_label": "APOSCRIPTA \u2013 Lettres des papes",
    "user": "lettrespontificalesadmin",
    "last_update": "2020-10-19 16:27:30",
    "licence": "Attribution - Pas d\u2019Utilisation Commerciale - Partage dans les M\u00eames Conditions 3.0 France (CC BY-NC-SA 3.0 FR) ",
    "licence_url": "https:\/\/creativecommons.org\/licenses\/by-nc-sa\/3.0\/fr\/",
    "elements": [
        {
            "type": "pape",
            "value": "Alexandre IV (1254-1261)"
        },
        {
            "type": "date_lieu",
            "value": "Latran"
        },
        {
            "type": "date_libre",
            "value": "Nonis januarii, anno tercio"
        },
        {
            "type": "date",
            "value": " 1257\/01\/05",
            "children": {
                "date_deb_annee": "1257",
                "date_deb_mois": "01",
                "date_deb_jour": "05"
            },
            "range": {
                "date_apres": 12570105,
                "date_avant": 12570105
            }
        },
        {
            "type": "analyse",
            "value": "Alexandre\u00a0IV interdit aux d\u00e9biteurs de chercher un asile dans les \u00e9glises."
        },
        {
            "type": "transcription",
            "value": "<?xml version=\"1.0\" encoding=\"UTF-8\"?>\nAlexander episcopus, servus servorum Dei, dilectis filiis consulibus et universitati hominum Montispessulani, Magalonensis diocesis, salutem et apostolicam benedictionem.Fidei ac devotionis vestre studia merito nos inducunt, ut vos affectu benivolo prosequamur, et a gravaminibus et dispendiis, quantum cum Deo possumus, preservemus, vobis adversus illatores gravaminum et dispendiorum hujusmodi congruis remediis precavendo.Sane lecta coram nobis petitionis vestre series continebat, quod nonnulli laici de Montepessulano, ex mutui seu depositi aut aliis causis legitimis diversis creditoribus obligati, ut creditores ipsos jure suo defraudent, ad ecclesias loci ejusdem et alias Magalonensis diocesis confugiunt, qui per easdem ecclesias defenduntur, ut debita, que juste debentur, predictis creditoribus non solvantur, sicque tali pretextu predicti creditores jus suum nequeunt obtinere.Quare nobis humiliter supplicastis, ut, cum Ecclesia nullos debeat in injustitiaa confovere, a qua omnis justitieb rectitudo deberet potius suboriri, providere indempnitati vestre super hoc paterna sollicitudine curaremus.Jacturis igitur et dampnis vestris in hac parte volentes occurrere, devotionis vestre supplicationibus inclinati, ne aliqui ecclesiarum prelati vel clerici Magalonensis diocesis tales in ecclesiis suis receptare seu taliter defensare presumant, auctoritate presentium districtius inhibemus.Nulli ergo omnino hominum liceat hanc paginam nostre inhibitionis infringere, vel ei ausu temerario contraire. Si quis autem hoc attemptare presumpserit, indignationem omnipotentis Dei et beatorum Petri et Pauli, apostolorum ejus, se noverit incursurum.Datum Laterani, nonis januarii, pontificatus nostri anno tertio.\n"
        },
        {
            "type": "edition",
            "value": "Julien Rouquette, Augustin Villemagne, <i>Bullaire de l'\u00c9glise de Maguelone<\/i>, Paris, Montpellier : Picard, Valat, 1911-1914, II, n. 470-CCCXXXVI, p. 355-355"
        },
        {
            "type": "remarques",
            "value": ""
        },
        {
            "type": "apparat_critique",
            "value": "Orig.\u00a0: <i>injusticia<\/i>.",
            "children": {
                "numero_note": "a"
            }
        },
        {
            "type": "apparat_critique",
            "value": "Orig.\u00a0: <i>justicie<\/i>.",
            "children": {
                "numero_note": "b"
            }
        },
        {
            "type": "bibliographie_generale",
            "value": "Archives municipales de Montpellier, arm.\u00a0F, cass.\u00a05, n\u00b0\u00a02866 de l\u2019Inventaire <span class=\"small-caps\">Louvet<\/span>, \u00e9dit\u00e9 par <span class=\"small-caps\">M.J. Berthel\u00e9<\/span>\u00a0; original sur parchemin\u00a0; sceau de plomb attach\u00e9 par des cordons de soie jaune et rouge",
            "children": {
                "numero_note": "0"
            }
        },
        {
            "type": "bibliographie_generale",
            "value": "<i>Grand Thalamus<\/i>, fol.\u00a0153\u00a0v\u00b0 (non collationn\u00e9)",
            "children": {
                "numero_note": "1"
            }
        },
        {
            "type": "bibliographie_generale",
            "value": "<span class=\"small-caps\">Germain<\/span>, <i>Hist. du Commerce de Montpellier<\/i>, t.\u00a0I, p.\u00a0224.",
            "children": {
                "numero_note": "2"
            }
        },
        {
            "type": "genre",
            "value": "Titre, g\u00e9n\u00e9ral (littere gratiose, cum filo serico)"
        },
        {
            "type": "destinataire",
            "value": "Les consuls et la communaut\u00e9 des hommes de Montpellier"
        }
    ]
}