{
    "id": 26337,
    "name": "aposcripta-3416",
    "type": "acte",
    "url": "http:\/\/telma-chartes.irht.cnrs.fr\/aposcripta\/notice\/26337",
    "project_slug": "aposcripta",
    "project_label": "APOSCRIPTA \u2013 Lettres des papes",
    "user": "lettrespontificalesadmin",
    "last_update": "2020-10-19 16:27:59",
    "licence": "Attribution - Pas d\u2019Utilisation Commerciale - Partage dans les M\u00eames Conditions 3.0 France (CC BY-NC-SA 3.0 FR) ",
    "licence_url": "https:\/\/creativecommons.org\/licenses\/by-nc-sa\/3.0\/fr\/",
    "elements": [
        {
            "type": "pape",
            "value": "Eug\u00e8ne III (1145-1153)"
        },
        {
            "type": "date_lieu",
            "value": "Lateran"
        },
        {
            "type": "date_libre",
            "value": "1146\u20131153"
        },
        {
            "type": "date",
            "value": "apr\u00e8s 1146 - avant 1153",
            "children": {
                "date_deb_annee": "1146",
                "date_deb_type": "apr\u00e8s",
                "date_fin_annee": "1153",
                "date_fin_type": "avant"
            },
            "range": {
                "date_apres": 11460000,
                "date_avant": 11539999
            }
        },
        {
            "type": "analyse",
            "value": "Eugen III tr\u00e4gt dem Bischofe Stefan von Metz auf, daf\u00fcr zu sorgen, dass die Herrn von Amanty (Meuse) den Hof Moivron (Meurthe) dem Kloster Gorze (D. Metz) \u00fcberlassen oder deswegen Gen\u00fcge thun."
        },
        {
            "type": "transcription",
            "value": "<?xml version=\"1.0\" encoding=\"UTF-8\"?>\nEugenius episcopus servus servorum dei venerabili fratri (Stephani)a, Mettensi episcopo1, salutem et apostolicam benedictionem. Dilecti filii nostri Gorziensis abbatis adversus .C... de Asmantia et Becelinum, filium eius, nuper querelam accepimus, quod curiam de Monviron, ecclesie sue de iure, sicut asserit, pertinentem, ei contra iusticiam auferre presumpsitb. Quoniam igitur nobis et fratribus nostris episcopis presertim incumbit, ut ecclesiarum filii contra secularium virorum incursus bona sua conservare valeant, imminuta per apostolica scripta fraternitati tue mandamus, quatinus antefatos viros omni cum districtione commoneas, ut vel curiam ipsam eidem filio nostro in pace dimittant vel, omni tergiversatione cessante, in presentia tua ei exhibeant iusticie complementum. Si vero neutrum horum executioni mandaverint, ita canonicam de ipsis iustitiam facias, ut antedictus abbas non cogatur, ulterius pro defectu iusticie laborare. \u2014 Data Laterani.\n"
        },
        {
            "type": "edition",
            "value": "Julius von Pflugk-Harttung, <i>Acta pontificum Romanorum inedita<\/i>, T\u00fcbingen, 1880, I, n. 228, p. 212"
        },
        {
            "type": "sources_manuscrites",
            "value": "Abschrift vom 12 Jahrh. des Cartulaire de Gorze Nr. 76 p. 215, in der Bibliothek zu Metz."
        },
        {
            "type": "remarques",
            "value": "Das mangelhafte Datum f\u00e4llt dem Copisten zur Last ; vergl. die \u00fcbrigen Urkunden f\u00fcr Gorze."
        },
        {
            "type": "apparat_critique",
            "value": "a.\u2002<i>Im Codex ist der Raum frei gelassen.<\/i>",
            "children": {
                "numero_note": "a"
            }
        },
        {
            "type": "apparat_critique",
            "value": "b.\u2002presum <i>von hier an Rasur<\/i>.",
            "children": {
                "numero_note": "b"
            }
        },
        {
            "type": "notes_historiques",
            "value": "<i>Stefan von Bar. Bischof von Metz, 1120\u20131163.<\/i>",
            "children": {
                "numero_note": "1"
            }
        },
        {
            "type": "genre",
            "value": "Bulle"
        }
    ]
}