{
    "id": 26893,
    "name": "aposcripta-3732",
    "type": "acte",
    "url": "http:\/\/telma-chartes.irht.cnrs.fr\/aposcripta\/notice\/26893",
    "project_slug": "aposcripta",
    "project_label": "APOSCRIPTA \u2013 Lettres des papes",
    "user": "j_theryastruc",
    "last_update": "2020-10-19 16:28:06",
    "licence": "Attribution - Pas d\u2019Utilisation Commerciale - Partage dans les M\u00eames Conditions 3.0 France (CC BY-NC-SA 3.0 FR) ",
    "licence_url": "https:\/\/creativecommons.org\/licenses\/by-nc-sa\/3.0\/fr\/",
    "elements": [
        {
            "type": "destinataire",
            "value": "L'abb\u00e9 de Saint-Nicolas de Memmingen (dioc\u00e8se d'Augsbourg) Bruno, et les fr\u00e8res du monast\u00e8re"
        },
        {
            "type": "date",
            "value": " 1186\/07\/30",
            "children": {
                "date_deb_jour": "30",
                "date_deb_mois": "07",
                "date_deb_annee": "1186"
            },
            "range": {
                "date_apres": 11860730,
                "date_avant": 11860730
            }
        },
        {
            "type": "date_lieu",
            "value": "V\u00e9rone"
        },
        {
            "type": "genre",
            "value": "Bulle"
        },
        {
            "type": "analyse",
            "value": "Urban III nimmt das Schottenkloster St. Nicolaus von Memmingen (D. Augsburg) in apostolischen Schutz und best\u00e4tigt ihm seine Besitzth\u00fcmer und Rechte<a href=\"#note-1\"><sup>1<\/sup><\/a>."
        },
        {
            "type": "sources_manuscrites",
            "value": "B. ALLEMAGNE, Munich, Bayerisches Hauptstaatsarchiv, copie dat\u00e9e de 1423.",
            "children": {
                "type_source": "Copie"
            }
        },
        {
            "type": "edition",
            "value": "Ici reprise de Julius von Pflugk-Harttung, <i>Acta pontificum Romanorum inedita. Urkunden der P\u00e4pste vom Jahre 748 bis zum Jahre 1197<\/i>, II, Stuttgart : W. Kohlhammer, 1884, n. 446, p. 392-393."
        },
        {
            "type": "transcription",
            "value": "<?xml version=\"1.0\" encoding=\"UTF-8\"?>\nUrbanus episcopus, servus servorum Dei, dilectis filiis Bruno[ni], abbati sancti Nicolai in Memmingen eiusque fratribus tam presentibus quam futuris regularem vitam professis, im perpetuum. Quotiens a nobis petitur, quod religioni et honestati convenire dinoscitur, animo nos decet libenti concedere et petencium desideriis congruum suffragium impertiri.Eapropter, dilecti in domino filii, vestris iustis postulacionibus clementer annuimus, et monasterium sancti Nicolai in Memmingen, in quo divino mancipati estis obsequio, sub beati Petri et nostra proteccione suscipimus, et presentis scripti privilegio communimus. Inprimis siquidem statuentes, ut ordo monasticus, qui secundum deum et beati Benedicti regulam in eodem loco institutus esse dinoscitur, perpetuis ibidem temporibus inviolabiliter observetur. Preterea quascumque possessiones, quecumque bona idem monasterium in presenciarum iuste et canonice possidet aut in futurum concessione pontificum, largicione regum vel principum, oblacione fidelium seu aliis iustis modis, prestante domino, poterit adipisci, firma vobis vestrisque successoribus et illibata permaneant. Specialiter autem octo iugera terre, que nobilis vir Welfo dux cum assensu Friderici imperatoris2 vobis pia largicione donavit, sicut in ipsius autentico scripto expressius continetur. Sane novalium vestrorum, que propriis manibus aut sumptibus colitis, sive de nutrimentis animalium vestrorum decimas a vobis nullus extorquere presumat. Liceat quoque vobis, clericos vel laicos e seculo fugientes, liberos et absolutos ad conversionema recipere et eos sine contradiccione aliqua retinere. Prohibemus insuper, ne ulli fratrum vestrorum post factam in loco vestro professionem fas sit, de eodem loco nisi arcioris religionis obtentu sine licencia sui abbatis discedere, discedentem vero absque communium litterarum caucione nullus audeat retinere. Cum autem generale interdictum terre fuerit, liceat vobis, clausis ianuis, exclusis excommunicatis et interdictis, non pulsatis campanis, suppressa voce divina officia celebrare. Apostolica quoque auctoritate statuimus, ne quis in vos vel ecclesiam vestram excommunicationis, suspensionis seu interdicti sentenciam sine manifesta et racionabili causa promulgare presumat. Sepulturam quoque ipsius loci liberam esse decernimus, ut eorum devocioni et extreme voluntati, qui se illic sepelire deliberaverint, nisi forte excommunicati sint vel interdicti, nullus obsistat, salva tamen iusticia illarum ecclesiarum, a quibus mortuorum corpora assumuntur. Obeunte vero te, nunc eiusdem loci abbate, vel tuorum quolibet successorum, nullus ibi qualibet subrepcionis astucia seu violencia preponatur, nisi quem fratres communi consensu vel fratrum maior pars consilii sanioris secundum Dei timorem et beati Benedicti regulam providerint eligendum. Decernimus ergo, ut nulli omnino hominum liceat, prefatum monasterium... usibus omnimodis profutura, salva Sedis apostolice auctoritate et diocesani episcopi canonica iusticia. Si qua igitur... Cunctis autem... inveniant. Amen. Amen. [R] Ego Urbanus catholice ecclesie episcopus ss. [M] \u2020 Ego Henricus Albanensis episcopus ss. \u2020 Ego Paulus Prenestinus episcopus ss. \u2020 Ego Iohannes presbiter cardinalis tit. sancti Marci ss. \u2020 Ego Laborans presbiter cardinalis sancte Marie Transtiberim tit. Calixti ss. \u2020 Ego Pandulfus presbiter cardinalis tit. XII apostolorum ss. \u2020 Ego Albinus presbiter cardinalis tit. sancte Crucis in Ierusalem ss. \u2020 Ego Melior presbiter cardinalis sanctorum Iohannis et Pauli tit. Pagmachii ss. \u2020 Ego Iacinctus diaconus cardinalis sancte Marie in Cosmedinb ss. \u2020 Ego Gracianus sanctorum Cosme et Damiani diaconus cardinalis ss. \u2020 Ego Bobo sancti Angeli cardinalis diaconus ss. \u2020 Ego Octavianus sanctorum Sergii et Bachi diaconus cardinalis ss. \u2020 Ego Petrus sancti Nicolai in carcere Tulliano diaconus cardinalis ss. Datum Verone, per manum Alberti, sancte Romane ecclesie presbiteri cardinalis et cancellarii, III kalendas augusti, indictione IIII, Incarnacionis dominice anno MCLXXXVI, pontificatus vero domni Urbani pape III anno primo.\n"
        },
        {
            "type": "apparat_critique",
            "value": "concesionem",
            "children": {
                "numero_note": "a"
            }
        },
        {
            "type": "apparat_critique",
            "value": "Comedis",
            "children": {
                "numero_note": "b"
            }
        },
        {
            "type": "notes_historiques",
            "value": "Am 31 Juli hat Urban III an K\u00f6nig Wilhelm von Schottland und an mehrere schottische Bisch\u00f6fe geschrieben. Jaff\u00e9, Reg. 9835, 9836.",
            "children": {
                "numero_note": "1"
            }
        },
        {
            "type": "notes_historiques",
            "value": "Einer der F\u00e4lle, wo die Memoration fehlt.",
            "children": {
                "numero_note": "2"
            }
        },
        {
            "type": "date_libre",
            "value": "III kalendas augusti, indictione IIII, Incarnacionis dominice anno MCLXXXVI, anno primo."
        },
        {
            "type": "pape",
            "value": "Urbain III (1185-1187)"
        }
    ]
}