{
    "id": 25306,
    "name": "aposcripta-2403",
    "type": "acte",
    "url": "http:\/\/telma-chartes.irht.cnrs.fr\/aposcripta\/notice\/25306",
    "project_slug": "aposcripta",
    "project_label": "APOSCRIPTA \u2013 Lettres des papes",
    "user": "lettrespontificalesadmin",
    "last_update": "2020-10-19 16:27:43",
    "licence": "Attribution - Pas d\u2019Utilisation Commerciale - Partage dans les M\u00eames Conditions 3.0 France (CC BY-NC-SA 3.0 FR) ",
    "licence_url": "https:\/\/creativecommons.org\/licenses\/by-nc-sa\/3.0\/fr\/",
    "elements": [
        {
            "type": "pape",
            "value": "Lucius II (1144-1145)"
        },
        {
            "type": "destinataire",
            "value": "( )",
            "children": {
                "numero_note": "0"
            }
        },
        {
            "type": "date_lieu",
            "value": "n.c."
        },
        {
            "type": "date_libre",
            "value": "1145, 19 janvier"
        },
        {
            "type": "date",
            "value": " 1145\/01\/19",
            "children": {
                "date_deb_annee": "1145",
                "date_deb_mois": "01",
                "date_deb_jour": "19"
            },
            "range": {
                "date_apres": 11450119,
                "date_avant": 11450119
            }
        },
        {
            "type": "analyse",
            "value": "X pape<br\/>PRIVILEGIUM LUCII PAP\u00c6 II, QUO CONCEDIT MONASTERIO CLUNIACENSI MONASTERIUM SANCTI SAB\u00c6 DE URBE [ROMA]. PRIVILEGIUM LUCII PAP\u00c6 II. ad Petrum Venerab. Abbatem Clun. quo ei concedit suisque successoribus Monasterium sancti Sab\u00e6 de urbe perpetu\u00f2 disponendum et gubernandum ut membrum ordinis Cluniacensis."
        },
        {
            "type": "transcription",
            "value": "<?xml version=\"1.0\" encoding=\"UTF-8\"?>\n[Lucius Episcopus servus servorum Dei dilecto filio Petro Cluniacensi Abbati ejusque successoribus regulariter substituendis in perpetuum. Etsi Ecclesiarum omnium cura nobis ex Apostolic\u00e6 sedis administratione immineat; illis tamen locis, qu\u00e6 nostro regimini specialiter commissa sunt, atque infra urbem sita juris sanct\u00e6 Roman\u00e6 Ecclesi\u00e6 esse noscuntur, propensiori nos convenit affectionis studio imminere. Beati Sab\u00e6 Monasterium \u00e0 temporibus sanctissimi Pap\u00e6 Gregorii in religione et honestate fundatum, atque magnis et amplissimis possessionibus ditatum fuisse dignoscitur. Nunc autem peccatis exigentibus et Religio elapsa est, et pravorum hominum superabundante nequitia bona et possessiones distracta sunt, et ab ipso contra justitiam alienata. Eapropter, dilecte in Domino fili Petre Abbas, quoniam Cluniacense Monasterium per omnipotentis Dei gratiam jamdiu long\u00e8 lat\u00e9que Religione pr\u00e6cipua floruit, et bon\u00e6 opinionis odore multos aspersit, pr\u00e6fatum sancti Sab\u00e6 Monasterium cum omnibus ad ipsum pertinentibus, ad reformandam ibidem Religionem, ad meliorandum etiam et disponendum, tibi tuisque successoribus in perpetuum committimus, ut in ipsius restitutione et gubernatione studium et sollicitudinem impendatis, et potestatem habeatis. Decernimus etiam ut sine Cluniacensis Abbatis provisione et consilio ibidem Abbas de c\u00e6tero nullatenus eligatur: sed vestra semper provideat diligentia quatinus idonea, et huic officio digna in loco regiminis secundum Regulam sancti Benedicti persona subrogetur, et quicquid in Monasterio ad augmentum et observationem Monastic\u00e6 Religionis institui, vel emendari oportuerit, vestro semper magisterio et dispensatione administretur, salva quidem in omnibus auctoritate sedis Apostolic\u00e6, cujus juris locus ille esse dignoscitur. Si qua igitur Ecclesiastica s\u00e6cularisve persona hanc nostr\u00e6 constitutionis paginam sciens contra eam temer\u00e8 venire tentaverit, secund\u00f2 terti\u00f3ve commonita, si non satisfactione congrua emendaverit, potestatis honorisque sui dignitate careat, reamque se divino judicio existere de perpetrata iniquitate cognoscat, et \u00e0 sacratissimo Corpore ac sanguine Dei et Domini Redemptoris nostri Jesu Christi aliena fiat, atque in extremo examine district\u00e6 ultioni subjaceat. Cunctis autem eidem C\u0153nobio justa servantibus sit pax Domini nostri Jesu Christi, quatinus et hic fructum bon\u00e6 actionis percipiant, et apud districtum judicem pr\u00e6mia \u00e6tern\u00e6 pacis inveniant. Amen. Ego LUCIUS Catholic\u00e6 Ecclesi\u00e6 Episcopus. Ego Conradus Sabinensis Episcopus. Ego Theodevinus sanct\u00e6 Rufin\u00e6 Episcopus. Ego Rainerius Presbyter Card. tit. Vestin\u00e6. Ego Vuido Presb. Card. tit. SS. Laurentii et Damasi. Ego Nicolaus Presbyter Card. tit. S. Cyriaci. Ego Hugo S.R. Ecclesi\u00e6 Presbyter Card. tit. S. Laurentii in Lucina. Ego Julius Presbyter Card. tit. S. Marcelli. Ego Villanus Presbyter Cardinalis tit. S. Stephani in Monte Celio. Ego Manfredus Presbyter Card. tit. S. Sabin\u00e6. Ego Gregorius Diaconus Card. tit. S. Sergii et Bachi. Ego Otto Diaconus Card. tit. S. Georgii ad Velum aureum. Ego Guido Diac. Card. tit. SS. Cosm\u00e6 et Damiani. Ego Joannes Diaconus Card. S. Adriani. Ego Joannes Diaconus Card. S. Mari\u00e6 Nov\u00e6. Ego Artaldus Diaconus Card. S. Eustachii. Ego Cinthius Diaconus Card. S. Roman\u00e6 Ecclesi\u00e6. Datum Rom\u00e6 per manum Baronis S. R. Ecclesi\u00e6 Subdiaconi XIV. Kalend. Februarii, Indictione VIII. Incarnationis Dominic\u00e6 anno M. C. XLIII. Pontificatus ver\u00f2 Domni Lucii secundi Pap\u00e6 anno primo.]\n"
        },
        {
            "type": "edition",
            "value": "Ici tir\u00e9e du projet <i>CBMA - Corpus Burgundiae Medii Aevi<\/i>, document 5534. Site du projet Corpus de la Bourgogne du Moyen \u00c2ge, [En ligne] <a href=\"http:\/\/www.cbma-project.eu\" target=\"_blank\">http:\/\/www.cbma-project.eu<\/a>  "
        },
        {
            "type": "sources_manuscrites",
            "value": "\u00e0 renseigner."
        },
        {
            "type": "remarques",
            "value": "\r\n\r\nIndications dans l'\u00e9dition des Chartes de Cluny quand Bernard et Bruel n'ont pas repris le texte : Lucius, etc. Etsi ecclesiarum, etc. (Bibl. Clun., col.\u00a01408, d\u2019apr\u00e8s E.; Bull. Clun., p.\u00a055, col.\u00a01; Mansi, t.\u00a0XXI, p.\u00a0613.).(Bib. nat. or.\u00a0237; E.\u00a036, XXXI.)"
        },
        {
            "type": "edition_autre",
            "value": "Ici reprise de Auguste Bernard, Alexandre Bruel, <i>Recueil des chartes de l'abbaye de Cluny<\/i>. V. <i>1091-1210<\/i>, Paris\u00a0: Imprimerie nationale, 1894 <a href=\"http:\/\/gallica.bnf.fr\/ark:\/12148\/bpt6k28911f?rk=64378;0\" target=\"_blank\">[en ligne]<\/a>, p. 448, n\u00b0 4097.",
            "children": {
                "numero_note": "0"
            }
        },
        {
            "type": "edition_autre",
            "value": "Pierre Simon, <i>Bullarium sacri Ordinis cluniacensis, complectens plurima privilegia per summos pontifices tum ipsi cluniacensi abbatiae, tum ei subditis monasteriis hactenus concessa<\/i>, Lyon : Jullieron, 1680, p. 55, col. 1-2",
            "children": {
                "numero_note": "1"
            }
        },
        {
            "type": "genre",
            "value": "Bulle"
        },
        {
            "type": "genre",
            "value": "Lettre"
        }
    ]
}