{
    "id": 20218,
    "name": "aposcripta-205",
    "type": "acte",
    "url": "http:\/\/telma-chartes.irht.cnrs.fr\/aposcripta\/notice\/20218",
    "project_slug": "aposcripta",
    "project_label": "APOSCRIPTA \u2013 Lettres des papes",
    "user": "lettrespontificalesadmin",
    "last_update": "2020-10-19 16:26:46",
    "licence": "Attribution - Pas d\u2019Utilisation Commerciale - Partage dans les M\u00eames Conditions 3.0 France (CC BY-NC-SA 3.0 FR) ",
    "licence_url": "https:\/\/creativecommons.org\/licenses\/by-nc-sa\/3.0\/fr\/",
    "elements": [
        {
            "type": "pape",
            "value": "Jean XXII (1316-1334)"
        },
        {
            "type": "date_lieu",
            "value": "Avignon"
        },
        {
            "type": "date_libre",
            "value": "5 novembre 1323"
        },
        {
            "type": "analyse",
            "value": "L\u2019ordinaire dont le sire de Parthenay est le sujet ne pouvant \u00eatre clairement d\u00e9termin\u00e9, \u00e0 cause de la multiplicit\u00e9 des domiciles de ce seigneur, le pape d\u00e9cide que les \u00e9v\u00eaques d\u2019Arras et de Viviers prendront sa place au tribunal d\u2019Inquisition, aupr\u00e8s de l\u2019inquisiteur Maurice de Saint-Paul."
        },
        {
            "type": "transcription",
            "value": "<?xml version=\"1.0\" encoding=\"UTF-8\"?>\nVenerabilibus fratribus Petro, Atrabaten., et Petro, Vivarien. episcopis, et dilecto filio Mauricio de Sancto Paulo, inquisitori heretice pravitatis in provincia Turonen. auctoritate apostolica deputato. \u2014 Pridem pro parte viri nobilis Johannis, dicti Archiepiscopi, domini de Pertiniaco [etc., voir aux n. 46, 47 le d\u00e9tail des parties narrative et dispositive, jusqu\u2019\u00e0 la fin du n. 47]. Cum autem propter diversa domicilia que dictus nobilis in diversis locis habere dicitur, quis eius sit diocesanus hesitari probabiliter et negotium posset huiusmodi non absque periculis retardari, nos super hiis et ne dictus nobilis longa detentione carceris contra iusticiam pregravetur diucius, providere salubriter cupientes, discretioni vestre per apostolica scripta mandamus quatinus, vos, dicti episcopi, vel alter vestrum una tecum, inquisitore predicto, prefati nobilis irrequisito diocesano, nisi ante presentationem presentium vobis faciendam extitisset super hiis (cui in tali casu preiudicare non intendimus) forcitan requisitus, mature procedere super eodem negocio studeatis ; aliarum litterarum nostrarum tenoribus plene super omnibus aliis observatis. \u2014 Datum Avinioni, nonis novembris, anno octavo.\n"
        },
        {
            "type": "edition",
            "value": "Jean-Marie Vidal, <i>Bullaire de l\u2019Inquisition fran\u00e7aise au XIV<sup>e<\/sup> si\u00e8cle et jusqu'\u00e0 la fin du Grand Schisme<\/i>, Paris : Letouzey et An\u00e9, 1913, n. 52, p. 89-90"
        },
        {
            "type": "sources_manuscrites",
            "value": "<i>Reg. Vat.<\/i>, t. <span class=\"smal-caps\">cxii<\/span>, n. 507"
        },
        {
            "type": "sources_manuscrites",
            "value": "Vidal, <i>loc. cit.<\/i>, p. 428."
        },
        {
            "type": "date",
            "value": "1323\/11\/05",
            "children": {
                "date_deb_annee": "1323",
                "date_deb_mois": "11",
                "date_deb_jour": "05"
            },
            "range": {
                "date_apres": 13231105,
                "date_avant": 13231105
            }
        },
        {
            "type": "genre",
            "value": "Bulle"
        }
    ]
}