{
    "id": 148923,
    "name": "aposcripta-2051",
    "type": "acte",
    "url": "http:\/\/telma-chartes.irht.cnrs.fr\/aposcripta\/notice\/148923",
    "project_slug": "aposcripta",
    "project_label": "APOSCRIPTA \u2013 Lettres des papes",
    "user": "j_theryastruc",
    "last_update": "2020-10-19 16:39:51",
    "licence": "Attribution - Pas d\u2019Utilisation Commerciale - Partage dans les M\u00eames Conditions 3.0 France (CC BY-NC-SA 3.0 FR) ",
    "licence_url": "https:\/\/creativecommons.org\/licenses\/by-nc-sa\/3.0\/fr\/",
    "elements": [
        {
            "type": "genre",
            "value": "Privil\u00e8ge solennel"
        },
        {
            "type": "destinataire",
            "value": "L'abb\u00e9 de Meaux Philippe et les fr\u00e8res du monast\u00e8re"
        },
        {
            "type": "pape",
            "value": "Alexandre III (1159-1181)"
        },
        {
            "type": "transcription",
            "value": "<?xml version=\"1.0\" encoding=\"UTF-8\"?>\nAlexander episcopus, servus servorum Dei, dilectis filiis Philippo abbati monasterii de Melsa ejusque fratribus tam presentibus quam futuris regularem vitam professis, in perpetuum. Religiosam vitam eligentibus apostolicum convenit adesse presidium, ne forte cujuslibet temeritatis incursus aut eos a proposito revocet aut robur, quod absit, sacre religionis infringat. Eapropter, dilecti in Domino fili, vestris justis postulacionibus clementer annuimus et prefatum monasterium in quo divino mancipati estis obsequio sub beati Petri et nostra protectione suscipimus et presentis scripti privilegio communimus. In primis siquidem... ...Judicem premia eterne pacis inveniant. Amen. Amen. Amen. Datum Venetiis, in Rivo Alto, per manum Gratiani, sancte Romane ecclesie subdiaconi et notarii, Xo kalendas julii, indictione decima, Incarnationis dominice anno MoCoLXXoVIIo, pontificatus vero domini Alexandri pape III anno XVIIIo.\n"
        },
        {
            "type": "apparat_critique",
            "value": "<i>sic pour eos<\/i> [APO].",
            "children": {
                "numero_note": "a"
            }
        },
        {
            "type": "edition",
            "value": "Ici reprise de William Farrer, <i>Early Yorkshire Charters...<\/i>, III, 1916, r\u00e9imp. Cambrige University Press, 2013, n. 1392, p. 103-105. A compl\u00e9ter"
        },
        {
            "type": "analyse",
            "value": "Confirmation by Alexander III to Philip, abbot of Meaux, and the brethren there, of the granges of Wawne, Salthagh, La More, etc. [Farrer]."
        },
        {
            "type": "date",
            "value": "1177\/06\/22",
            "children": {
                "date_deb_annee": "1177",
                "date_deb_mois": "06",
                "date_deb_jour": "22"
            },
            "range": {
                "date_apres": 11770622,
                "date_avant": 11770622
            }
        },
        {
            "type": "sources_manuscrites",
            "value": "Chartul. of Meaux ; Lansd. ms. 424, fol. 7.",
            "children": {
                "type_source": "Cartulaire"
            }
        },
        {
            "type": "date_libre",
            "value": "X kalendas julii, indictione X, MCLXXVII, anno XVIII"
        },
        {
            "type": "date_lieu",
            "value": "Venise, Rialto"
        }
    ]
}