{
    "id": 146672,
    "name": "aposcripta-6302",
    "type": "acte",
    "url": "http:\/\/telma-chartes.irht.cnrs.fr\/aposcripta\/notice\/146672",
    "project_slug": "aposcripta",
    "project_label": "APOSCRIPTA \u2013 Lettres des papes",
    "user": "tgirard",
    "last_update": "2020-10-19 16:39:21",
    "licence": "Attribution - Pas d\u2019Utilisation Commerciale - Partage dans les M\u00eames Conditions 3.0 France (CC BY-NC-SA 3.0 FR) ",
    "licence_url": "https:\/\/creativecommons.org\/licenses\/by-nc-sa\/3.0\/fr\/",
    "elements": [
        {
            "type": "pape",
            "value": "Beno\u00eet XIII (antipape ; 1394-1423)"
        },
        {
            "type": "destinataire",
            "value": "L'archidiacre de Saint-Antonin Jean Carrier"
        },
        {
            "type": "date_libre",
            "value": "XVI kalendas septembris, anno vicesimo sexto"
        },
        {
            "type": "date",
            "value": "1420\/08\/17",
            "children": {
                "date_deb_annee": "1420",
                "date_deb_mois": "08",
                "date_deb_jour": "17"
            },
            "range": {
                "date_apres": 14200817,
                "date_avant": 14200817
            }
        },
        {
            "type": "date_lieu",
            "value": "Pe\u00f1\u00edscola"
        },
        {
            "type": "analyse",
            "value": "Bulle de Benoit XIII mandant \u00e0 Jean Carrier, archidiacre de Saint-Antonin en l'\u00e9glise de Rodez, d'agir, en vertu de l'autorit\u00e9 apostolique, contre les partisans d'Othon Colonna (Martin V) qui r\u00e9sident dans les \u00e9tats du comte d'Armagnac toutes les fois qu'il en sera requis par ledit comte (Jean IV) et d'attribuer \u00e0 ce dernier les biens de ces schismatiques qu'il aura ainsi confisqu\u00e9s."
        },
        {
            "type": "sources_manuscrites",
            "value": "R. CIT\u00c9 DU VATICAN, Archivio segreto Vaticano, <i>Registra Avinionensia<\/i> 65, fol. 490.",
            "children": {
                "type_source": "Registre de la chancellerie apostolique"
            }
        },
        {
            "type": "edition",
            "value": "No\u00ebl Valois, \u00ab La prolongation du grand schisme d'Occident : au XV<sup>e<\/sup> si\u00e8cle dans le Midi de la France \u00bb, <i>Annuaire-Bulletin de la Soci\u00e9t\u00e9 de l'histoire de France<\/i>, 36\/2, 1899, p. 161-195, aux p. 179-181 <a target=\"_blank\" href=\"https:\/\/gallica.bnf.fr\/ark:\/12148\/bpt6k122722\/f19.image\"> [en ligne]<\/a>."
        },
        {
            "type": "transcription",
            "value": "<?xml version=\"1.0\" encoding=\"UTF-8\"?>\nDilecto filio Johanni Carrerii, archidiacono Sancti Antonini in ecclesia Ruthenensi, salutem, etc. Ne glorientur reprobi sue perversitatis opera sine condignis demeritorum stipendiis preteriri, decet apostolice Sedis providenciam super hoc de oportuno remedio providere, itaque, ad iniquorum terrorem et consolacionem proborum, sic regat discretio in disciplina mansuetudinem, et in mansuetudine temperet discipline rigorem, quod nec justicia sit plus debito rigida, nec presidentis lenitas jaceat dissoluta. Dudum siquidem, per quandam constitucionem Massilie, XIIII kalendas junii, pontificatus nostri anno XIII, per nos editam, que incipit \u00ab In dierum successu \u00bb, contra omnes statum Ecclesie perturbantes et nos in prosecucione unionis Ecclesie impedientes, vel a nobis appellare presumentes, aut se a nostra obediencia subtrahentes, seu in subtractione vel appellacione hujusmodi persistentes, aut eis qui in premissis impedimentis, appellacionibus, subtractionibus seu perturbacionibus scienter per se vel per alium seu alios quavis occasione vel colore quesito darent auxilium, consilium vel favorem, cujuscumque status, gradus, dignitatis, vel condicionis existerent, etiam si cardinalatus, patriarchali, archiepiscopali, imperiali, regali, aut alia quacumque ecclesiastica vel mundana prefulgerent dignitate, auctoritate apostolica excommunicationis sententiam [promulgavimus, atque eos] omnibus indulgentiis graciis, libertatibus et immunitatibus, realibus vel divisim, sub quacumque forma vel expressione verborum, ab Apostolica Sede concessis, et quibuscumque dignitatibus, personatibus, officiis et beneficiis cum cura vel sine cura, etiam si episcopalis, archiepiscopalis, patriarchalis vel cardinalatus, seu quevis alia dignitas forsan existeret, eadem auctoritate privavimus ac privatos esse decrevimus, predictorum omnium tam ecclesiasticorum quam secularium, et cujuslibet ipsorum vassalos et homines a juramento, fidelitate, et alia quacumque obligatione, quibus eis tenerentur, quomodolibet absolventes, prout hec et alia in constitutione predicta, cujus tenorem presentibus haberi volumus pro expresso, lacius continetur. Cum autem, sicut pro parte dilecti filii nobilis viri Johannis, comitis Armaniaci, fuit pridem propositum coram nobis, in suis comitatu et terris sue dicioni subjectis et alibi sint nonnulli iniquitatus filii perdicionisque alumpni, qui, post Satanam abeuntes, abhominacionis ydolum, Otonem videlicet de Columna, in sede apostolica notorie [intrusum], papam nominare pollutis labiis non verentur, publice adheserunt actenus et adherent, ac sibi seu ipsius sequacibus prebuerunt et prebent auxilium, consilium vel favorem ; ipseque comes desideret, tanquam verus Ecclesie catholice filius, adherentes et sequaces hujusmodi ad gremium Ecclesie sancte reduci, et de ipsis, si in eorum malicia obstinati ad veritatem Ecclesie predicte redire contempserint, justiciam ministrari: pro parte dicti comitis fuit nobis humiliter supplicatum, ut providere super hoc de oportuno provisionis remedio curaremus. Nos igitur, attendentes quod iidem iniquitatis filii, propter premissa et alia, privaciones, sentencias atque penas in dicta constitutione contentas, ut premittitur, incurrerunt, et propterea ne, tanquam oves morbose, fideles inficiant, vel sic aberrantes in profundum baratri demergantur, salubriter providere, prout tenemur ex debito pastoralis officii, paterna benivolencia cupientes, discretioni tue, de qua in hoc et aliis in Domino fiduciam gerimus specialem, per apostolica scripta committimus et mandamus quatinus, tociens quociens per dictum comitem vel pro parte ipsius super his fueris requisitus, omnes et singulos Otoni predicto, ut premittitur, adherentes, ac sibi seu ipsius sequacibus auxilium, consilium vel favorem prebentes, cujuscumque dignitatis, gradus vel condicionis extiterint, ut prefertur, ut ad nostram et Romane Ecclesie odedienciam et devocionem,in eis fideliter permansuri, redeant, caritative moneas, ipsis, si hujusmodi salutaribus monitis attributam, de absolucionis ab ipsis sentenciis necnon habilitacionis beneficio providendo. Si vero, ut prefertur, moniti, infra mensem a die monicionis hujusmodi computandum, ad eandem obedienciam redire efficaciter non curaverint, vel si reducti, ut premittitur, non perseveraverint in eadem, ipsos per te vel alium seu alios capiendi et carceribus mancipandi, ac juxta eorum demerita puniendi, corrigendi et castigandi, et alias de ipsis justiciam ministrandi, eorumque bona mobilia et immobilia per ipsos ex industria vel alias justo titulo acquisita que tamen altaris vel altarium aut ecclesiarum vel monasteriorum seu capitulorum aut conventuum aliquorum, prelaturarum, dignitatum seu beneficiorum suorum vel aliorum non fuerint, illa videlicet que tempore monicionis hujusmodi obtinebunt, quecumque, quotcumque et qualiacumque fuerint, ad manus tuas, etiam per te vel alium seu alios viros ydoneos et securos, recipiendi, illaque, postquam sic recepta fuerint, eidem comiti auctoritate predicta realiter dandi, tradendi et perpetuo assignandi, plenam et liberam presencium auctoritate concedimus facultatem ; contradictores quoslibet et rebelles, etiam per captionem personarum, et alia remedia de quibus tibi videbitur expedire, appellacione postposita, compescendo ; invocato ad hec, si opus fuerit, auxilio brachii secularis ; non obstantibus omnibus et singulis, que in predicta constitucione voluimus non obstare ; presentibus post annum a data presencium computandum minime valituris. Datum Paniscole, Dertusensis diocesis, XVI kalendas septembris, pontificatus nostri anno vicesimo sexto.\n"
        },
        {
            "type": "genre",
            "value": "Mandement (littere cum filo canapis)"
        },
        {
            "type": "remarques",
            "value": "Voir <a target=\"_blank\" href=\" http:\/\/telma-chartes.irht.cnrs.fr\/aposcripta\/notice-acte\/146694\"> APOSCRIPTA n. 6324 <\/a> : m\u00eame lettre, au m\u00eame destinataire, au b\u00e9n\u00e9fice de Bernard, comte de Pardiac, fr\u00e8re du comte d'Armagnac Jean IV."
        }
    ]
}