{
    "id": 148740,
    "name": "aposcripta-8310",
    "type": "acte",
    "url": "http:\/\/telma-chartes.irht.cnrs.fr\/aposcripta\/notice\/148740",
    "project_slug": "aposcripta",
    "project_label": "APOSCRIPTA \u2013 Lettres des papes",
    "user": "lettrespontificalesadmin",
    "last_update": "2020-10-19 23:13:14",
    "licence": "Attribution - Pas d\u2019Utilisation Commerciale - Partage dans les M\u00eames Conditions 3.0 France (CC BY-NC-SA 3.0 FR) ",
    "licence_url": "https:\/\/creativecommons.org\/licenses\/by-nc-sa\/3.0\/fr\/",
    "elements": [
        {
            "type": "pape",
            "value": "n.c."
        },
        {
            "type": "destinataire",
            "value": "remployer doublon"
        },
        {
            "type": "date_libre",
            "value": "XV Kalendas Augusti, anno VIII"
        },
        {
            "type": "date",
            "value": " 1250\/07\/18",
            "children": {
                "date_deb_annee": "1250",
                "date_deb_mois": "07",
                "date_deb_jour": "18"
            },
            "range": {
                "date_apres": 12500718,
                "date_avant": 12500718
            }
        },
        {
            "type": "date_lieu",
            "value": "Lugduni"
        },
        {
            "type": "sources_manuscrites",
            "value": "<value>R. CIT\u00c9 DU VATICAN, Archivio Segreto Vaticano, <i>Registra Vaticana<\/i> ... <i>Inn.\u00a0IV Reg. Vol.\u00a0II, 3\u00a0; Lib.\u00a0VIII, 10. Pertzii exemplar contulimus cum Regestis.<\/i><\/value>",
            "children": {
                "type_source": "Registre de la chancellerie apostolique"
            }
        },
        {
            "type": "genre",
            "value": "Mandement (littere cum filo canapis)"
        },
        {
            "type": "analyse",
            "value": "Innocentius IV papa Ottoni II comiti Gelrensi indulget, ut quarundam decimarum fructus percipiat, dummodo eos vel partem eorum W[ilhelmo] regi Romanorum assistendo expendat [Rodenberg]."
        },
        {
            "type": "transcription",
            "value": "<?xml version=\"1.0\" encoding=\"UTF-8\"?>\nNobili viro Octoni comiti Gelrensi.Ut super perceptione fructuum decimarum, quas te ac antecessores tuos a tempore cuius memoria non existit asseris percepisse, tue conscientie, quam remordentem habere diceris, satisfiat: promerente tue devotionis affectu, quod ipsarum decimarum fructus libere possis percipere, dummodo receptos vel eorum partem et recipiendos expendas carissimo in Christo filio nostro W. illustri regi Romanorum in negotio ecclesie assistendo, auctoritate tibi presentium indulgemus. Nulli ergo etc.Dat. Lugduni, XV Kalendas Augusti, anno VIII\u00b0.\n"
        },
        {
            "type": "edition",
            "value": "Ici reprise de Karl Rodenberg, Epistolae s. XIII e regestis pontificum romanorum selectae, III, Berlin : Weidmann (MGH), 1894, n.\u00a02, p.\u00a01 [en ligne]."
        },
        {
            "type": "edition_autre",
            "value": "?"
        },
        {
            "type": "regeste",
            "value": "?"
        },
        {
            "type": "bibliographie_generale",
            "value": "?"
        },
        {
            "type": "apparat_critique",
            "value": "<value>?<\/value>",
            "children": {
                "numero_note": "a"
            }
        },
        {
            "type": "apparat_critique",
            "value": "<value>?<\/value>",
            "children": {
                "numero_note": "b"
            }
        },
        {
            "type": "apparat_critique",
            "value": "<value>?<\/value>",
            "children": {
                "numero_note": "c"
            }
        },
        {
            "type": "apparat_critique",
            "value": "<value>?<\/value>",
            "children": {
                "numero_note": "d"
            }
        },
        {
            "type": "apparat_critique",
            "value": "<value>?<\/value>",
            "children": {
                "numero_note": "e"
            }
        },
        {
            "type": "apparat_critique",
            "value": "<value>?<\/value>",
            "children": {
                "numero_note": "f"
            }
        },
        {
            "type": "notes_historiques",
            "value": "<value>?<\/value>",
            "children": {
                "numero_note": "1"
            }
        },
        {
            "type": "notes_historiques",
            "value": "<value>?<\/value>",
            "children": {
                "numero_note": "2"
            }
        },
        {
            "type": "notes_historiques",
            "value": "<value>?<\/value>",
            "children": {
                "numero_note": "3"
            }
        }
    ]
}