{
    "id": 149321,
    "name": "aposcripta-8884",
    "type": "acte",
    "url": "http:\/\/telma-chartes.irht.cnrs.fr\/aposcripta\/notice\/149321",
    "project_slug": "aposcripta",
    "project_label": "APOSCRIPTA \u2013 Lettres des papes",
    "user": "lettrespontificalesadmin",
    "last_update": "2020-10-19 16:39:56",
    "licence": "Attribution - Pas d\u2019Utilisation Commerciale - Partage dans les M\u00eames Conditions 3.0 France (CC BY-NC-SA 3.0 FR) ",
    "licence_url": "https:\/\/creativecommons.org\/licenses\/by-nc-sa\/3.0\/fr\/",
    "elements": [
        {
            "type": "pape",
            "value": "Innocent IV (1243-1254)"
        },
        {
            "type": "destinataire",
            "value": "Nobili viro Florentio de Hollandia, carissimi in Christo filii nostri W. regis Romanorum illustris germano"
        },
        {
            "type": "date_libre",
            "value": "X kalendas ianuarii, anno IX"
        },
        {
            "type": "date",
            "value": " 1251\/12\/23",
            "children": {
                "date_deb_annee": "1251",
                "date_deb_mois": "12",
                "date_deb_jour": "23"
            },
            "range": {
                "date_apres": 12511223,
                "date_avant": 12511223
            }
        },
        {
            "type": "date_lieu",
            "value": "Perusii"
        },
        {
            "type": "sources_manuscrites",
            "value": "R. CIT\u00c9 DU VATICAN, Archivio Segreto Vaticano, <hi rend=\"italic\">Registra Vaticana<\/hi> ... Inn.\u00a0IV Reg. Vol.\u00a0II, 133; Lib.\u00a0IX, 144. Damus Pertzii exemplar.",
            "children": {
                "type_source": "Registre de la chancellerie apostolique"
            }
        },
        {
            "type": "genre",
            "value": "Mandement (littere cum filo canapis)"
        },
        {
            "type": "analyse",
            "value": "Innocentius IV papa Florentio de Hollandia indulget, ut in eum excommunicationis et in comitatum Hollandiae, a W[illelmo] rege Romanorum fratre eius ipsi commissum, interdicti sententiae absque speciali mandato apostolico ferri non possint [Rodenberg]."
        },
        {
            "type": "transcription",
            "value": "<?xml version=\"1.0\" encoding=\"UTF-8\"?>\nNobili viro Florentio de Hollandia, carissimi in Christo filii nostri W. regis Romanorum illustris germano.Ut eo fortius sedis apostolice obsequiis astringaris, quo maiorem ab ea gratiam fueris assecutus, auctoritate tibi presentium indulgemus, ut nullus apostolice sedis delegatus vel subdelegatus ab eo, conservator aut etiam executor a sede deputatus eadem possit excommunicationis in personam tuam et in comitatum Hollandie, tue prudentie a fratre tuo commissum, interdicti sententiam promulgare absque speciali mandato nostro, faciente plenam et expressam de hac indulgentia mentionem. Nulli ergo etc. nostre concessionis etc.Dat. Perusii, X Kalendas Ianuarii, anno VIIII\u00b0.Datus est ei super hoc conservator . . abbas de Migdelburg Premonstratensis ordinis Traiectensis diocesis.\n"
        },
        {
            "type": "edition",
            "value": "Ici reprise de Karl Rodenberg, Epistolae s. XIII e regestis pontificum romanorum selectae, III, Berlin : Weidmann (MGH), 1894, n.\u00a0127, p.\u00a0108."
        },
        {
            "type": "edition_autre",
            "value": "?"
        },
        {
            "type": "regeste",
            "value": "?"
        },
        {
            "type": "bibliographie_generale",
            "value": "?"
        },
        {
            "type": "apparat_critique",
            "value": "?",
            "children": {
                "numero_note": "a"
            }
        },
        {
            "type": "apparat_critique",
            "value": "?",
            "children": {
                "numero_note": "b"
            }
        },
        {
            "type": "apparat_critique",
            "value": "?",
            "children": {
                "numero_note": "c"
            }
        },
        {
            "type": "apparat_critique",
            "value": "?",
            "children": {
                "numero_note": "d"
            }
        },
        {
            "type": "apparat_critique",
            "value": "?",
            "children": {
                "numero_note": "e"
            }
        },
        {
            "type": "apparat_critique",
            "value": "?",
            "children": {
                "numero_note": "f"
            }
        },
        {
            "type": "notes_historiques",
            "value": "?",
            "children": {
                "numero_note": "1"
            }
        },
        {
            "type": "notes_historiques",
            "value": "?",
            "children": {
                "numero_note": "2"
            }
        },
        {
            "type": "notes_historiques",
            "value": "?",
            "children": {
                "numero_note": "3"
            }
        }
    ]
}