{
    "id": 149452,
    "name": "aposcripta-9015",
    "type": "acte",
    "url": "http:\/\/telma-chartes.irht.cnrs.fr\/aposcripta\/notice\/149452",
    "project_slug": "aposcripta",
    "project_label": "APOSCRIPTA \u2013 Lettres des papes",
    "user": "lettrespontificalesadmin",
    "last_update": "2020-10-19 16:39:59",
    "licence": "Attribution - Pas d\u2019Utilisation Commerciale - Partage dans les M\u00eames Conditions 3.0 France (CC BY-NC-SA 3.0 FR) ",
    "licence_url": "https:\/\/creativecommons.org\/licenses\/by-nc-sa\/3.0\/fr\/",
    "elements": [
        {
            "type": "pape",
            "value": "Innocent IV (1243-1254)"
        },
        {
            "type": "destinataire",
            "value": ". . Malumbrunensi et . . Uterine Vallis Cisterciensis ordinis Spirensis diocesis abbatibus"
        },
        {
            "type": "date_libre",
            "value": "idibus novembris, anno XI"
        },
        {
            "type": "date",
            "value": " 1253\/11\/13",
            "children": {
                "date_deb_annee": "1253",
                "date_deb_mois": "11",
                "date_deb_jour": "13"
            },
            "range": {
                "date_apres": 12531113,
                "date_avant": 12531113
            }
        },
        {
            "type": "date_lieu",
            "value": "Lateran."
        },
        {
            "type": "sources_manuscrites",
            "value": "R. CIT\u00c9 DU VATICAN, Archivio Segreto Vaticano, <hi rend=\"italic\">Registra Vaticana<\/hi> ... Inn.\u00a0IV Reg. Vol.\u00a0III, 29-30; Lib.\u00a0XI, 247. Pertzii exemplar contulimus cum Regestis.",
            "children": {
                "type_source": "Registre de la chancellerie apostolique"
            }
        },
        {
            "type": "genre",
            "value": "Mandement (littere cum filo canapis)"
        },
        {
            "type": "analyse",
            "value": "Innocentius IV papa Mulembrunnensi et Uterinae Vallis abbatibus mandat, ut licet ecclesiis liberam electionem restituerit, tamen secundum mandatum eidem abbati Uterinae Vallis et [Eberhardo] episcopo Constantiensi olim datum [Henrico II] electo Spirensi propter eximia merita eius de aliquo archiepiscopatu vel episcopatu Alamanniae, quem acceptandum duxerit, provideant [Rodenberg]."
        },
        {
            "type": "transcription",
            "value": "<?xml version=\"1.0\" encoding=\"UTF-8\"?>\n. . Malumbrunensi et . . Uterine Vallis Cisterciensis ordinis Spirensis diocesis abbatibus.Attendentes olim devotionem sinceram, puritatem fidei et probitatis merita dilecti filii . . electi Spirensis, quibus utpote vir genere ac moribus nobilis se dignum reddit sedis apostolice gratia et favore, tibi, fili abbas Uterine Vallis, et venerabili fratri nostro . . episcopo Constantiensi, sicut eo intimante accepimus, super provisione facienda sibi de archiepiscopatu vel episcopatu aliquo, quem duceret acceptandum, in regno Alamannie sub certa forma direximus scripta nostra. Licet autem postmodum super eo, quod de archiepiscopatibus, episcopatibus seu abbatiis et prioratibus mandavimus per nostras litteras in diversis partibus provideri, sanius reputantes provideri ecclesiis, cum de ipsarum regimine agitur, quam personis, providendi ac ordinandi canonice de premissis omnibus liberam illis, ad quos predictorum electio, ordinatio seu collatio sive provisio pertinet, concesserimus sub certa forma auctoritate apostolica potestatem \u2014 non obstantibus quibuslibet litteris generalibus vel specialibus sub quacumque [forma] verborum super quorumcumque promotionibus vel provisionibus impetratis a sede apostolica vel legatis ipsius aut etiam impetrandis, seu reservationibus vel prohibitionibus aut nominationibus earundem litterarum auctoritate factis vel faciendis, aut processibus per eas habitis vel habendis in posterum, que omnia volumus viribus omnino carere \u2014, decernendo irritum et inane, quicquid contra concessionis nostre tenorem vel libertatem iuris seu potestatis patriarcharum, archiepiscoporum et episcoporum, abbatum, priorum et aliorum prelatorum necnon capitulorum, conventuum et collegiorum ecclesiarum in hac parte a quoquam huiusmodi litterarum occasione factum est vel fuerit aut presumptum, ac relaxando interdicti, suspensionis et excommunicationis sententias, sique litterarum ipsarum pretextu late sunt hactenus, et quas deinceps promulgari contigerit, censentes penitus nullas esse: quia tamen idem electus tamquam de virtute in virtutem proficiens merito debet provehi de gratia in gratiam pleniorem, nolentes eidem super predicta provisione facienda pretextu concessionis, statuti, relaxationis et decreti huiusmodi aliquod preiudicium generari, quominus, cum vacaverit archiepiscopatus vel episcopatus in regno Alamannie, possit de ipso electo provideri eidem, mandamus, quatinus ad faciendam eandem provisionem de predictis archiepiscopatu vel episcopatu ipsi electo \u2014 premissis concessione, statuto seu relaxatione aut decreto nequaquam obstantibus \u2014, cum vacaverint, procedatis. Quod si non ambo etc.Dat. Lateran., Idibus Novembris, anno XI\u00b0.\n"
        },
        {
            "type": "edition",
            "value": "Ici reprise de Karl Rodenberg, Epistolae s. XIII e regestis pontificum romanorum selectae, III, Berlin : Weidmann (MGH), 1894, n.\u00a0237, p.\u00a0203."
        },
        {
            "type": "edition_autre",
            "value": "?"
        },
        {
            "type": "regeste",
            "value": "?"
        },
        {
            "type": "bibliographie_generale",
            "value": "?"
        },
        {
            "type": "apparat_critique",
            "value": "?",
            "children": {
                "numero_note": "a"
            }
        },
        {
            "type": "apparat_critique",
            "value": "?",
            "children": {
                "numero_note": "b"
            }
        },
        {
            "type": "apparat_critique",
            "value": "?",
            "children": {
                "numero_note": "c"
            }
        },
        {
            "type": "apparat_critique",
            "value": "?",
            "children": {
                "numero_note": "d"
            }
        },
        {
            "type": "apparat_critique",
            "value": "?",
            "children": {
                "numero_note": "e"
            }
        },
        {
            "type": "apparat_critique",
            "value": "?",
            "children": {
                "numero_note": "f"
            }
        },
        {
            "type": "notes_historiques",
            "value": "?",
            "children": {
                "numero_note": "1"
            }
        },
        {
            "type": "notes_historiques",
            "value": "?",
            "children": {
                "numero_note": "2"
            }
        },
        {
            "type": "notes_historiques",
            "value": "?",
            "children": {
                "numero_note": "3"
            }
        }
    ]
}