{
    "id": 26335,
    "name": "aposcripta-3414",
    "type": "acte",
    "url": "http:\/\/telma-chartes.irht.cnrs.fr\/aposcripta\/notice\/26335",
    "project_slug": "aposcripta",
    "project_label": "APOSCRIPTA \u2013 Lettres des papes",
    "user": "lettrespontificalesadmin",
    "last_update": "2020-10-19 16:27:59",
    "licence": "Attribution - Pas d\u2019Utilisation Commerciale - Partage dans les M\u00eames Conditions 3.0 France (CC BY-NC-SA 3.0 FR) ",
    "licence_url": "https:\/\/creativecommons.org\/licenses\/by-nc-sa\/3.0\/fr\/",
    "elements": [
        {
            "type": "pape",
            "value": "Eug\u00e8ne III (1145-1153)"
        },
        {
            "type": "date_lieu",
            "value": "Lateran"
        },
        {
            "type": "date_libre",
            "value": "1152 December 31"
        },
        {
            "type": "date",
            "value": " 1152\/12\/31",
            "children": {
                "date_deb_annee": "1152",
                "date_deb_mois": "12",
                "date_deb_jour": "31"
            },
            "range": {
                "date_apres": 11521231,
                "date_avant": 11521231
            }
        },
        {
            "type": "analyse",
            "value": "Eugen III nimmt das Domkapitel von Troyes in apostolischen Schutz und best\u00e4tigt ihm seine Besitzth\u00fcmer und Rechte."
        },
        {
            "type": "transcription",
            "value": "<?xml version=\"1.0\" encoding=\"UTF-8\"?>\nEugeniusa episcopus servus servorum dei dilectis filiis Petro decano et canonicis Trecensis ecclesi\u0229 tam presentibus quam futuris canonice promovendis in ppm. Effectum iusta postulantibus indulgere, et vigor equitatis et ordo exigit rationis, presertim quando petentium voluntatem et pietas adiuvat et veritas non relinquit. Iccirco, dilec|ti in domino filii, vestris iustis petitionibus benigno concurrentes assensu, prefatam \u0229cclesiam, in qua divinis obsequiis imminetis, sub beati Petri et nostra protectione suscipimus et presentis scripti patrocinio communimus. Statuentes, ut quascunque possessiones, quecunque bona per eandem ecclesiam in presentiarum iuste et canonice possidetis aut in futurum concessione pontificum, largitione regum vel principum, oblatione fidelium seu aliis iustis modis, prestante domino, poteritis adipisci, firma vobis vestrisque successoribus et illibata permaneant. In quibus hec propriis duximus vocabulis exprimenda : archidiaconatum civitatis vestr\u0229 qui dicitur archidiaconatus Banleie, decimas vini quas habetis Trecis, ecclesiam de Fontisvenna et decimam, ecclesiam de Maceio et decimam, ecclesiam de Moreio et decimam, ecclesiam de Aurovillari cum villa et decima, ecclesiam de Valant cum villa et decima, ecclesiam de sancto Georgio cum villa et decima, ecclesiam de sancto Saviniano cum villa et decima, ecclesiam de Cappella cum villa et decima, ecclesiam de Basseio, ecclesiam de sancto Remigio super Barbusiam, ecclesiam de Rameruco et decimas, ecclesiam de Troan, villam et decimam, ecclesiam de Mansotecelini et decimam, ecclesiam de Corboloio et decimam, ecclesiam de Donamanto et decimam, ecclesiam de Torceio et decimas, ecclesiam de Quercu et decimas, ecclesiam de Beurona, ecclesiam de Rosun, ecclesiam de Alefoi, ecclesiam de Creneio, ecclesiam de Ponte, ecclesiam de sanctob Aventino, ecclesiam de Vaartio. In archiepiscopatu Senonensi1 ecclesiam de Gigeo et villam ipsam cum appenditiis suis, molendina de Jallart, molendina de Harden, molendina Raaldi, molendina de Valant, molendina de Villeirs, molendina de Gigeoc, villam qu\u0229 dicitur Esginileium, et villam qu\u0229 nuncupatur Noe. Preterea confirmamus vobis et his, qui post vos successerint, libertatem domorum vestrarum et servientium, in vestra familia commorantium, necnon quattuor servientium, qui communi sunt servitio deputati, maioris videlicet granetarii2, cellerarii et clausarii3, suburbii quoque quod burgus sancti Dionnisii nominatur, quam nobilis memori\u0229 comes Hugo4 pro anim\u0229 su\u0229 redemptione concessit, ut scilicet iustiti\u0229, consuetudini aut exactioni comitis vel ministrorum eius non debeant ulterius subiacere. Confirmamus itidem vobis tertium thelonei atque iustiti\u0229d decimi fori, ex quo in sexta feria incipiet et in die sabbati terminabitur, quemadmodum vobis antefatus comes concessisse dinoscitur et distinxisse5. Ad hec compositionem illam, qu\u0229 inter vos et dominos de Triagno super his, qu\u0229 apud Aureum villarem, sanctum Georgium et Valant, atque in omnibus locis vestris usque ad Secanam sibi competere contendebant, facta est, ratam et inconcussam perpetuis temporibus decernimus permanere. Qui nimirum centum triginta libris, a vobis acceptis, omnia, qu\u0229 ibidem reclamabant, excepta commendatione falconis, tribus illic mulieribus sibi retentis, vobis et ecclesi\u0229 vestr\u0229 refutaverunt. Elemosinam quoque quadraginta solidorum de censu Vill\u0229 nov\u0229, qu\u0229 iuxta Barrum sita est, in festo sancti Remigii vobis annis singulis persolvendam, quam nobilis memori\u0229 Milo Barrensis comes, pro anim\u0229 su\u0229 salute fecisse dinoscitur, auctoritate vobis apostolica confirmamus et imminutam futuris temporibus permanere sancimus. Decernimus ergo, ut nulli omnino hominum liceat, prefatam ecclesiam temere perturbare aut eius possessiones auferre vel ablatas retinere, minuere seu aliquibus vexationibus fatigare, sed inconcussa omnia et integra conserventur eorum, pro quorum gubernatione ac sustentatione concessa sunt, usibus omnimodis profutura, salva nimirum in prefata ecclesia de Gigeo Senonensis archiepiscopi et in ceteris episcopi vestri canonica iustitia et reverentia. Si qua igitur in futurum ecclesiastica secularisve persona hanc nostr\u0229 constitutionis paginam sciens contra eam temere venire temptaverit, secundo tertiove commonita, nisi presumptionem suam congrua satisfactione correxerit, potestatis honorisque sui dignitate careat, reamque se divino iuditio existere de perpetrata iniquitate cognoscat, et a sacratissimo corpore ac sanguine dei et domini redemptoris nostri Jesu Christi aliena fiat, atque in extremo examine district\u0229 | ultioni subiaceat. Cunctis autem eidem loco sua iura servantibus sit pax domini nostri Jesu Christi, quatenus et hic fructum actionis bon\u0229 percipiant et apud supremum iudicem premia etern\u0229 pacis inveniant. Amen. Am. Amen.(R) Ego Eugenius catholic\u0229 ecclesi\u0229 episcopus ss. (M)\u2020 Ego Ismarus Tusculanus episcopus ss.\u2020 Ego Hugo Hostiensis episcopus ss. (5)\u2014 \u2020 Ego GG(Gregorius) presbiter cardinalis tit. Calixti ss. (2)\u2020 Ego Aribertus tit. sancte Anastasie presbiter cardinalis ss. (1)\u2020 Ego Octavianus presbiter cardinalis tit. sanct\u0229 Cecili\u0229 ss. (1)\u2020 Ego Rolandus presbiter cardinalis tit. sancti Marci ss.\u2014 \u2020 Ego Oddo diaconus cardinalis sancti Georgii ad velum aureum ss.\u2020 Ego Gregorius diaconus cardinalis sancti Angeli ss. (3)\u2020 Ego Ger[ardus] diaconus cardinalis sanct\u0229 Marie in via lata ss. (1)\u2020 Ego Bernardus diaconus cardinalis sanctorum Cosme et Damiani ss.Dat. Laterani, per manum Bosonis, sanct\u0229 Roman\u0229 ecclesi\u0229 scriptoris. ii Kl. Jan. Indictione xv. Incarnationis dominic\u0229 anno mclii. Pontificatus vero domni Eugenii pp iii anno octavo.\n"
        },
        {
            "type": "edition",
            "value": "Julius von Pflugk-Harttung, <i>Acta pontificum Romanorum inedita<\/i>, T\u00fcbingen, 1880, I, n. 226, p. 211"
        },
        {
            "type": "sources_manuscrites",
            "value": "Or. im Archive des D\u00e9p. Aube zu Troyes."
        },
        {
            "type": "remarques",
            "value": "Perg. ital., breit 0,54, lang 0,675, unten umgeschlagen, durch 3 L\u00f6cher ging die Schnur, welche jetzt mit der Bulle verloren, Faltung der Privilegien. Liniirung noch bis unter die Datumzeile. Monogramm Nr. 3<sup>a<\/sup>, Verewigungszeichen Nr. 2, sehr schmale aber betonte Buchstaben, f\u00fcllt 0,135, Amen Nr. 5<sup>c<\/sup>. Die Datirung r\u00fchrt von anderer Hand und hellerer Dinte her als der Context, Bosonis wahrscheinlich nachgetragen. Von den Zeugen hat der Prbr. Gregor seine Unterschrift zusammengedr\u00e4ngt, um nicht in die Rota zu kommen, der Bischof Imar schrieb so weit auseinander, dass der Diakon Gregor \u00fcber sein eps ss wegzeichnen musste, woraus sich ergiebt 1) dass Imar fr\u00fcher schrieb 2) dass die Diakonen wom\u00f6glich mit ganzer Signatur links vom Monogramme standen, 3) dass Gregor den Platz unter Otto, welcher ihm dem Range nach zukam, behaupten wollte, obwohl unter ihm 3 Zeilen frei blieben. Ego Octavianus r\u00fchrt von schwarzer presbiter cardinalis tit. sancte Cecilie ss von brauner Dinte her, erstere tritt auch bei dem Prbr. Gregor, bei Imar u. A. hervor."
        },
        {
            "type": "apparat_critique",
            "value": "a.\u2002<i>Das erste<\/i> u <i>steht etwas gedr\u00fcckt und scheint in der Dinte des Datumschreibers ausgef\u00fchrt zu sein.<\/i>",
            "children": {
                "numero_note": "a"
            }
        },
        {
            "type": "apparat_critique",
            "value": "b.\u2002sanct <i>auf Rasur<\/i>.",
            "children": {
                "numero_note": "b"
            }
        },
        {
            "type": "apparat_critique",
            "value": "c.\u2002<i>Oder<\/i> Cigeo, <i>theilweis auf Rasur<\/i>.",
            "children": {
                "numero_note": "c"
            }
        },
        {
            "type": "apparat_critique",
            "value": "d.\u2002tertium thelonei atque iustitie <i>theilweise auf Rasur<\/i>.",
            "children": {
                "numero_note": "d"
            }
        },
        {
            "type": "notes_historiques",
            "value": "<i>Sens.<\/i>",
            "children": {
                "numero_note": "1"
            }
        },
        {
            "type": "notes_historiques",
            "value": "<i>Granatarius, Granetarius : a<\/i>) <i>Officium monasticum ; qui annonam recipit, qui granario<\/i> (<i>Kornboden<\/i>) <i>praeest in monasteriis ; b<\/i>) <i>Publicanus, qui praeest rei salariae. Du Cange, Gloss. IV p. 551, 554 ;<\/i> (<i>Adelung<\/i>) <i>Gloss. Man. IV p. 824 ; Brinckmeier, Gloss. I p. 932.<\/i>",
            "children": {
                "numero_note": "2"
            }
        },
        {
            "type": "notes_historiques",
            "value": "<i>Clausarius, Closarius : qui clausariis praeerat serviens, custos ; Schliesser. Du Cange II p. 385, 402 ; Brinckmeier I S. 509.<\/i>",
            "children": {
                "numero_note": "3"
            }
        },
        {
            "type": "notes_historiques",
            "value": "<i>Hugo, Graf von Champagne, 1093\u20131125.<\/i>",
            "children": {
                "numero_note": "4"
            }
        },
        {
            "type": "notes_historiques",
            "value": "<i>Um 1125, vergl. d\u2019Arbois du Jubainville, Hist. des comtes de Champagne III p. 422.<\/i>",
            "children": {
                "numero_note": "5"
            }
        },
        {
            "type": "genre",
            "value": "Bulle"
        }
    ]
}