{
    "id": 20280,
    "name": "aposcripta-267",
    "type": "acte",
    "url": "http:\/\/telma-chartes.irht.cnrs.fr\/aposcripta\/notice\/20280",
    "project_slug": "aposcripta",
    "project_label": "APOSCRIPTA \u2013 Lettres des papes",
    "user": "lettrespontificalesadmin",
    "last_update": "2020-10-19 16:26:47",
    "licence": "Attribution - Pas d\u2019Utilisation Commerciale - Partage dans les M\u00eames Conditions 3.0 France (CC BY-NC-SA 3.0 FR) ",
    "licence_url": "https:\/\/creativecommons.org\/licenses\/by-nc-sa\/3.0\/fr\/",
    "elements": [
        {
            "type": "pape",
            "value": "Jean XXII (1316-1334)"
        },
        {
            "type": "date_lieu",
            "value": "Avignon"
        },
        {
            "type": "date_libre",
            "value": "14 mars 1331"
        },
        {
            "type": "analyse",
            "value": "Le pape a re\u00e7u la plainte de ma\u00eetre Jean Anselme de G\u00eanes, chirurgien, contre l\u2019\u00e9v\u00eaque de Paris et l\u2019inquisiteur de France. Ceux-ci, l\u2019ayant faussement accus\u00e9 d\u2019h\u00e9r\u00e9sie et de sortil\u00e8ge, l\u2019ont d\u00e9tenu pendant longtemps dans leur prison, puis, au m\u00e9pris des conseils de jurisconsultes \u00e9minents, l\u2019ont condamn\u00e9, comme parjure, \u00e0 \u00eatre banni et \u00e0 faire le p\u00e8lerinage de Saint-Jacques de Compostelle, \u00e0 jeuner, sept ans durant, tous les vendredis au pain et \u00e0 l\u2019eau, et \u00e0 payer une amende de 100 livres parisis. Ils lui ont, au pr\u00e9alable, extorqu\u00e9 par la force le serment de ne point faire appel de leur sentence injuste. Mais le malheureux, d\u00e9livr\u00e9 de ses cha\u00eenes, a recouru au pape. Celui-ci ordonne \u00e0 l\u2019\u00e9v\u00eaque et \u00e0 l\u2019inquisiteur de faire ex\u00e9cuter par leurs notaires une copie authentique des actes de ce proc\u00e8s et de l\u2019envoyer au Saint-Si\u00e8ge avant deux mois."
        },
        {
            "type": "transcription",
            "value": "<?xml version=\"1.0\" encoding=\"UTF-8\"?>\nVenerabili fratri..1 episcopo Parisien. et dilecto filio Auberto de Cathalauno2, ordinis fratrum predicatorum, inquisitori heretice pravitatis in regno Francie auctoritate apostolica deputato, salutem, etc. \u2014 Gravem dilecti filii magistri Johannis Anselmi de Janua, cyrurgici laici, olim Parisius commorantis, querelam recepimus continentem quod vos minus veraciter asserentes eundem in crimine sortilegii deliquisse sibique aliqua heretica, seu heresim sapientia imponentes ex arupto, nulla contra ipsum super premissis infamia precedente, nulloque iuris ordine observato, omnique deffensione legitima sibi penitus denegata contra ipsum inquisivistis et processum fecistia super premissis et eorum occasione perperam, indebite et iniuste eum que per multa tempora detinuistis carceri mancipatum ; eoque ab excommunicationis sententia quam eum pretendebatis propterea incurrisse, primitus absoluto, contra ipsum, spreto consilio quamplurium magistrorum in sacra pagina et decretis universitatis Parisien. et aliorum iurisperitorum, quamvis ad hoc per vos fuisset eorum consilium requisitum, sententiam promulgastis iniquam, ipsum per dictam sententiam declarando periurum, eumque a toto regno Francie baniendo, sibique imponendo quod ad sanctum Jacobum3 peregre proficisci, et quod in pane et aqua singulis sextis feriis usque ad septem annos debeat ieiunare, ipsumque ad solvendum nobis (sic) centum libras bonorum Parisiensium condempnastis, sibique plura alia gravamina et iniurias multiplices inferendo ; receptis postmodum ab eodem ante et post prefatam sententiam per vim et metum nichilominus iuramentis, quod de vobis querelam non deponeret, nec reclamaret, nec impugnaret sententiam memoratam ; et de quibusdam aliis non faciendis vel non dicendis et aliquibus faciendis et dicendis per eum prout nobis (sic) illa libuit ab eodem quem tenebatis in durissimo carcere extorquere ; postque relaxastis eundem a carcere prelibato. Quare prefatus magister Johannes super premissis ad apostolicam Sedem recurrens nobis humiliter supplicari (sic) ut cum huiusmodi inquisitio, sententia et processus perperam facti et lati fuerint contra eum et pro parte ipsius fuerit propterea ad nostram audientiam sicut asserit apellatum, dictaque iuramenta inique vi et metu extorta fuerint ab eodem ac Inquisitionis sententie ac processus predictorum copiam per eum petitam pro deffentione sua non potuerit nec possit habere, predicta iuramenta relaxare, si relaxatione indigeant ac causam seu causas nullitatis, iniquitatis, et iniustitie inquisitionis et sententie ac processus predictorum ac appellationis prefate ac etiam negotii principalis in romana curia audiendas et decidendas committere dignaremur ; non obstante quod huiusmodi cause non sint de sui natura in dicta curia pertractande. Quocirca discretioni vestre per apostolica scripta mandamus quatinus vos vel alter vestrum cui presentes littere fuerint presentate huiusmodi inquisitionem et sententiam, omnesque processus per vos habitos super premissis fideliter per notarios publicos per vos in prefatis inquisitione et sententia ac processibus dudum adhibitos in scriptis redactos sub vestris inclusos sigillis infra duorum mensium spatium a receptione presentium computandum nobis per proprium nuntium destinare curetis4. Et si forte volueritis vel vestra crederitis interesse aliquam vel aliquas personam seu personas super predictis instructas ad nostram presentiam destinetis ; diem vero receptionis presentium et remissionis inquisitionis et sententie ac processus predictorum nobis per vestras litteras harum seriem continentes fideliter intimare curetis. \u2014 Datum Avinioni, ii idus martii, anno quintodecimo.\n"
        },
        {
            "type": "edition",
            "value": "Jean-Marie Vidal, <i>Bullaire de l\u2019Inquisition fran\u00e7aise au XIV<sup>e<\/sup> si\u00e8cle et jusqu'\u00e0 la fin du Grand Schisme<\/i>, Paris : Letouzey et An\u00e9, 1913, n. 109, p. 168-169"
        },
        {
            "type": "sources_manuscrites",
            "value": "<i>Reg. Aven.<\/i>, t. <span class=\"smal-caps\">xxxviii<\/span>, fol. 704"
        },
        {
            "type": "sources_manuscrites",
            "value": "<i>Reg. Vat.<\/i>, t. <span class=\"smal-caps\">c<\/span>, n. 723."
        },
        {
            "type": "notes_historiques",
            "value": "Hugues Michel de Besan\u00e7on ; voir n. 92, note 1.",
            "children": {
                "numero_note": "1"
            }
        },
        {
            "type": "notes_historiques",
            "value": "Voir n. 89, note 2.",
            "children": {
                "numero_note": "2"
            }
        },
        {
            "type": "notes_historiques",
            "value": "Saint-Jacques de Galice, l\u2019un des grands p\u00e8lerinages.",
            "children": {
                "numero_note": "3"
            }
        },
        {
            "type": "notes_historiques",
            "value": "Le pape accuse r\u00e9ception de ces pi\u00e8ces le 14 juin (n. 111).",
            "children": {
                "numero_note": "4"
            }
        },
        {
            "type": "date",
            "value": "1331\/03\/14",
            "children": {
                "date_deb_annee": "1331",
                "date_deb_mois": "03",
                "date_deb_jour": "14"
            },
            "range": {
                "date_apres": 13310314,
                "date_avant": 13310314
            }
        },
        {
            "type": "genre",
            "value": "Bulle"
        }
    ]
}