{
    "id": 150012,
    "name": "aposcripta-9575",
    "type": "acte",
    "url": "http:\/\/telma-chartes.irht.cnrs.fr\/aposcripta\/notice\/150012",
    "project_slug": "aposcripta",
    "project_label": "APOSCRIPTA \u2013 Lettres des papes",
    "user": "lettrespontificalesadmin",
    "last_update": "2020-10-19 16:40:07",
    "licence": "Attribution - Pas d\u2019Utilisation Commerciale - Partage dans les M\u00eames Conditions 3.0 France (CC BY-NC-SA 3.0 FR) ",
    "licence_url": "https:\/\/creativecommons.org\/licenses\/by-nc-sa\/3.0\/fr\/",
    "elements": [
        {
            "type": "pape",
            "value": "Paul III (1534-1549)"
        },
        {
            "type": "destinataire",
            "value": "Le duc Andrea Gritti"
        },
        {
            "type": "date_libre",
            "value": ".XIJ. jun. 1535 a. p.\u00b0"
        },
        {
            "type": "date",
            "value": " 1535\/06\/12",
            "children": {
                "date_deb_annee": "1535",
                "date_deb_mois": "06",
                "date_deb_jour": "12"
            },
            "range": {
                "date_apres": 15350612,
                "date_avant": 15350612
            }
        },
        {
            "type": "date_lieu",
            "value": "Rome"
        },
        {
            "type": "genre",
            "value": "Bref commun"
        },
        {
            "type": "sources_manuscrites",
            "value": "Arch. secr. Vatic. Pauli III brev. min. a. MDXXXV, II, 51, breve 163.",
            "children": {
                "type_source": "Original"
            }
        },
        {
            "type": "edition",
            "value": "Ici reprise de B. Fontana, \u00ab Documenti vaticani contro l'eresia luterana in Italia \u00bb <hi rend=\"italic\">Archivio della Reale Societ\u00e0 Romana di Storia Patria<\/hi>, 15, 1892, 15, n. 1, p. 76."
        },
        {
            "type": "transcription",
            "value": "<?xml version=\"1.0\" encoding=\"UTF-8\"?>\nDuci Venetiarum.Dilecte fili. Intelleximus nuper iniquitatis filium Sigismundum Germanum, qui heresim lutheranam in diocesi Vicentina disseminabat, mandato nobilitatis tue ad vicarium episcopi Vicentini in spiritualibus generalem pro iustitia puniendum fuisse transmissum. Quod sicut pietati inclytae tue nobilitatis consentaneum, ita nobis gratissimum fuit, teque fili ex animo hortamur, ut si quo in alio idem acciderit faciendum, eandem tuam pietatem ostendas. Erit enim res digna et isto inclito dominio, et nobis post Deum omnipotentem semper accepta et grata. Datum Rome apud S. Mar. .XIJ. jun. 1535 a. p.\u00b0Blos. Andreae Gritti gratulationem et c.\n"
        }
    ]
}