{
    "id": 20718,
    "name": "aposcripta-705",
    "type": "acte",
    "url": "http:\/\/telma-chartes.irht.cnrs.fr\/aposcripta\/notice\/20718",
    "project_slug": "aposcripta",
    "project_label": "APOSCRIPTA \u2013 Lettres des papes",
    "user": "lettrespontificalesadmin",
    "last_update": "2020-10-19 16:26:52",
    "licence": "Attribution - Pas d\u2019Utilisation Commerciale - Partage dans les M\u00eames Conditions 3.0 France (CC BY-NC-SA 3.0 FR) ",
    "licence_url": "https:\/\/creativecommons.org\/licenses\/by-nc-sa\/3.0\/fr\/",
    "elements": [
        {
            "type": "pape",
            "value": "Eug\u00e8ne III (1145-1153)"
        },
        {
            "type": "date_lieu",
            "value": "n.c."
        },
        {
            "type": "date_libre",
            "value": "1152 Iul 7"
        },
        {
            "type": "analyse",
            "value": "Eugenius\u00a0III Richardo episcopo Abrincensi praecipit, ut Richardum electum S. Michaelis abbatem, timore ducis Normanniae postposito, benedicat, intrusum vero, nisi infra octo dies locum dimiserit, excommunicet."
        },
        {
            "type": "transcription",
            "value": "<?xml version=\"1.0\" encoding=\"UTF-8\"?>\nEugenius episcopus servus servorum Dei venerabili fratri nostro R(ichardo) Abrincensi episcopo salutem et apostolicam benedictionem. Etb venientium ad nos quorundam ex fratribus de Monte S. Michaelis relatione et litterarum tuarum attestatione cognovimus, qualiter nobilis vir H(enricus) Normanniae dux ipsius loci ordinationem pro sue voluntatis arbitrio impedivit et, fugato communi filio nostro R(ichardo), quem libera convenientiac monachorum sibi secundum Deum eligisse dicitur in abbatem, alium illuc contra Deum et canonicas sanctiones intrusit. Sane cum dominus et magister noster Christus Iesus timendos eosd inhibeat, qui corpus tantum possunt occidere, animae vero non habent quid faciant, plurimum ammiramur, quod propter metum illius in praefatum electum adimplere, quod tuum fuerat, omisisti. Quoniam igitur nulliuse violentie metus pontificis animum debet ab his, que recta sunt, prepedire, per presentia scripta fraternitati tue mandamus, quatenus, si res ita se habeat, sicut tuis nobis litteris indicasti, cum venerabilis fratris nostri Hu(gonis) Rothomagensis archiepiscopi praeceptum inde susceperis, omni humano terrore postposito, electum ipsum in abbatem auctore Domino benedicas. Si vero praecipere noluerit, tu ei, sicut tuum est, benedictionis gratiam non differas exhibere. Porro ille,f qui per potentiam supradicti ducis dicitur in ecclesiam ipsam intrusus, nisi infra octo dies post commonitionem tuam usurpatum locum sine reluctationeg dimiserit, nos excommunicationi subicimus et, donec resipuerit, sicut excommunicatum praecipimus evitarih. Datum Signiae Nonis Iulii.\n"
        },
        {
            "type": "edition",
            "value": "Samuel Loewenfeld, <i>Epistolae pontificum romanorum ineditae<\/i>, Leipzig : Veit et Comp., 1885, n. 206, p. 110"
        },
        {
            "type": "sources_manuscrites",
            "value": "1)\u00a0Bibl. publ. Abrinc. cod.\u00a082 in folio praefixo man. s.\u00a0<span class=\"smal-caps\">xii<\/span> <a class=\"app\" href=\"#app-a\">a<\/a>\u00a0"
        },
        {
            "type": "sources_manuscrites",
            "value": "2)\u00a0Bibl. nat. Paris. ms. lat.\u00a016992 fol.\u00a0110. Scripsit Martene."
        },
        {
            "type": "apparat_critique",
            "value": "<i>Mihi misit Leopoldus Delisle V. I.<\/i>",
            "children": {
                "numero_note": "a"
            }
        },
        {
            "type": "apparat_critique",
            "value": "ex 2.",
            "children": {
                "numero_note": "B"
            }
        },
        {
            "type": "apparat_critique",
            "value": "coniventia 2.",
            "children": {
                "numero_note": "c"
            }
        },
        {
            "type": "apparat_critique",
            "value": "vos 2.",
            "children": {
                "numero_note": "d"
            }
        },
        {
            "type": "apparat_critique",
            "value": "nulle 1.",
            "children": {
                "numero_note": "e"
            }
        },
        {
            "type": "apparat_critique",
            "value": "<i>an<\/i> illum\u00a0?",
            "children": {
                "numero_note": "f"
            }
        },
        {
            "type": "apparat_critique",
            "value": "retractatione 2.",
            "children": {
                "numero_note": "g"
            }
        },
        {
            "type": "apparat_critique",
            "value": "haberi 2.",
            "children": {
                "numero_note": "h"
            }
        },
        {
            "type": "date",
            "value": "1152\/07\/07",
            "children": {
                "date_deb_annee": "1152",
                "date_deb_mois": "07",
                "date_deb_jour": "07"
            },
            "range": {
                "date_apres": 11520707,
                "date_avant": 11520707
            }
        },
        {
            "type": "genre",
            "value": "Bulle"
        }
    ]
}