{
    "id": 26763,
    "name": "aposcripta-3665",
    "type": "acte",
    "url": "http:\/\/telma-chartes.irht.cnrs.fr\/aposcripta\/notice\/26763",
    "project_slug": "aposcripta",
    "project_label": "APOSCRIPTA \u2013 Lettres des papes",
    "user": "l_valliere",
    "last_update": "2020-10-19 16:28:04",
    "licence": "Attribution - Pas d\u2019Utilisation Commerciale - Partage dans les M\u00eames Conditions 3.0 France (CC BY-NC-SA 3.0 FR) ",
    "licence_url": "https:\/\/creativecommons.org\/licenses\/by-nc-sa\/3.0\/fr\/",
    "elements": [
        {
            "type": "pape",
            "value": "Cl\u00e9ment V (1305-1314)"
        },
        {
            "type": "destinataire",
            "value": "Le roi de France Philippe IV le Bel"
        },
        {
            "type": "date_libre",
            "value": "III nonas decembris, anno tertio"
        },
        {
            "type": "date",
            "value": " 1307\/12\/03",
            "children": {
                "date_deb_jour": "03",
                "date_deb_mois": "12",
                "date_deb_annee": "1307"
            },
            "range": {
                "date_apres": 13071203,
                "date_avant": 13071203
            }
        },
        {
            "type": "date_lieu",
            "value": "Poitiers"
        },
        {
            "type": "genre",
            "value": "Lettre, g\u00e9n\u00e9ral (apr\u00e8s 1198, littere cum filo canapis)"
        },
        {
            "type": "analyse",
            "value": "Le pape prie le roi de parfaire sa paix avec Edouard II et de conclure le mariage projet\u00e9 entre sa fille et le roi d\u2019Angleterre."
        },
        {
            "type": "sources_manuscrites",
            "value": "E. FRANCE, Paris, Archives nationales, J 703, n. 167. Scell\u00e9, adresse au dos.",
            "children": {
                "type_source": "Original"
            }
        },
        {
            "type": "edition",
            "value": "Georges Lizerand, <i>Cl\u00e9ment V et Philippe le Bel<\/i>, Paris : Hachette, 1910, pi\u00e8ce just. n.  9, p. 437-440 <a target=\"_blank\" href=\"https:\/\/archive.org\/details\/LizerandGClementVEtPhilippeIVLeBel1910\/page\/n481\">[en ligne]<\/a>, d\u2019apr\u00e8s E."
        },
        {
            "type": "regeste",
            "value": "Bernard Barbiche, <i>Les actes pontificaux originaux des Archives Nationales de Paris<\/i>, Cit\u00e9 du Vatican, 1975-1982, III, n. 2323, p. 38-39, d\u2019apr\u00e8s E."
        },
        {
            "type": "transcription",
            "value": "<?xml version=\"1.0\" encoding=\"UTF-8\"?>\nClemens episcopus, servus servorum Dei, carissimo in Christo filio Philippo regi Francorum illustri, salutem et apostolicam benedictionem. Mater ecclesia leta consurgens ad Dominum in laudis iubilum reverenter exultat sibique plenis gaudiis exoluit multitudinem gratiarum, et in apostolice mentis precordiis ex eo resonat canticum iocunde laudis assidue quod, sicut ex tenore litterarum celsitudinis regie nobis per dilectum filium magistrum Egidium de Remin[o]1, canonicum Novionensem, clericum et familiarem tuum, latorem presentium quas, non sine magna cordis recreatione recepimus, collegimus manifeste, et desiderata commoditas appropinquat quod, inter te et carissimum in Christo filium nostrum Edvardum, regem Anglie illustrem, pax et concordia tamdiu anxiis desideriis exspectata, multis studiis exquisitata, solerter et indefexis laboribus et sollicitudinibus procurata, Illius operante clementia per quem reges regnant in seculo et in cuius manu corda sunt principum, desideratum effectum percipient et inconcusse persistent stabili firmamento. O dilectissime fili, utinam mentis nostre posses intueri precordia ut manifeste cognosceres qualiter in medio eius residet preparatio sedis tue, quantumve in huiusmodi tam votiva perceptione rumorum delectationis augmenta suscepimus, quanta odoris fragrantia nostra rumores ipsi precordia perfuderunt, et quante dulcedinis mella in suavitate spiritus gustavimus affluenter ! Gaudemus inquam, et ingenti letitia exultamus in Domino Deo nostro ... quod, tam felicis pacis consilia cunctis fidelibus profutura reservavit in terris nostris temporalibus seminanda. Profecto a notitia celsitudinis regie fore non credimus alienum qualiter, propter nimiam caritatem qua te ac predictum regem Anglie tumque ac eiusdem r\u00e9gna diligimus, exultantes in utriusque pulchritudine pacis pro generali comodo fidelium populorum, ac feliciori promotione negotii Terre Sancte, cuius assidue deploramus angustias, tuum et ipsius regis Anglie succursum celerem oportunumque subsidium expectantes ad ipsius reformationem pacis quam oportunam in terris novimus et speramus fore placidam in excelsis, post nostre coronationis auspicia nullis parcendo laboribus, nullisque indulgendo oneribus expensarum, desideria nostra, vires et animum duximus convertendos, Romanam urbem inclitam apostolice Sedis filiam predilectam, et domicilium speciale in qua ecclesie fundamenta et summi Sedem apostolatus divina dispositio stabilivit, et eiusdem urbis prefate Sedi ac nobis amantissimum popullum, necnon et urbis ipsius ac peculiaris terre et diversarum provinciarum illarum partium statum fidelium, multis guerrarum turbationibus laceratum, diversarum tribulationum vexatum angustiis et multiplicibus fidelium eorumdem stragibus et sanguinis effusione respersum, et alias terram et provincias ipsas miserabili desolationi subiectas, nos, infra einsdem regni tui terminos residentes, omisimus ut fructus pacis ipsius commodius et celerius possemus colligere amabiles et salubres, nec illud duximus omittendum qualiter clare memorie Edvardus, rex Anglie, genitor regis prefati, a nobis per litteras et nuntios speciales seriosus postulavit quod, cum ipse, propter multiplices turbationes et scandala in partibus Scotie peccatis exigentibus suscitata et alia que sibi tunc temporis contraria imminebant, eundem filium suum pro matrimonio inter ipsum et dilectam in Christo filiam Isabellam, natam tuam, contrahendo in Franciam destinare non posset, apud te curaremus instare quod, eandem filiam tuam in Angliam destinares sepedicto filio suo matrimonialiter copulandam, offerens se, pro tui ac sui honoris augmente, illam, ut decebat, magnifice recepturum cui [?] postmodum filium eundum ad te pro complendis illis qui compleri debebant iuxta formam pacis evestigio transmissurum, per dictos nuntios duximus respondendum quod, cum illa ad que tue magnitudini tenebatur ad debitum non produxisset effectum, nos circa premissa insistere non decebat, nisi aliqua alia que sibi mandaveramus exprimi per eosdem offerret tue celsitudini exhibenda ; et demum, eodem rege Anglie, sicut Domino placuit, sublato de medio, dicto regi, filio suo, hec eadem intimantes, et sperantes eum dicti genitoris sui sequi vestigia, credebamus ut apud te haberemus super premissis insitare, per eum a nobis cum instantia postulari eius de die in diem nuntios exspectantis, quamvis iam decem diebus elapsis, de requisitione tibi super premisses per dictum regem Anglie facienda ad notitiam nostram pervenerit dubitantes ne aliquibus occasionibus levibus ductus in huiusmodi negotiis vacillares. Et quia ingenti desiderio ducimur totisque visceribus affectamus ut negotium matrimonii et pacis huiusmodi, summotis impedimentis quibuslibet, felicem et celerem, Deo propitio, sorciatur effectum, et considerantes attentius quod in mutatione loci valde periculosa foret dilatio, cum mutatio ipsa absque regis requisitione predicti aliquo modo fieri non valeret, sicque in mittendo nuntios ad eundem et etiam redeundo, negotium ipsum de facili non absque maximo detrimento differi, multaque ipsi obici possent obstacula et impedimenta parari, et illius hostis antiqui qui sue virus nequitie ibi studiosius effundere nititur ubi se magis extimat obrutum [?] timemtes versutias, pro securitate negotii constanter supponimus preordinatum locum et tempus ad negotii consumationem eiusdem nullatenus immutandum, licet ubi corde et animo desideranter aderimus ibi nostram libenter exhiberemus presentiam corporatem, propter quod tua magnitudo moleste non gerat si pro mutatione loci apud dictum regem Anglie non instamus. Rogamus igitur celsitudinem regiam et hortamur in filio Dei patris tibique nichilominus affectu quo possumus paterno et sano consilio suademus quatinus, premissis diligenti meditationis et sollicita recensitis, locum predictum acceptes benignius et ad perfectionem pacis et matrimonii predictorum in predictis loco et termino, Deo auspire, profuturam intendas celeriter et labores efficaliter cum affectu ; ita quod Regis eterni clementia percipiat te tua desideria suis in hac parte beneplacitis conformare, in te dona sue benedictionis et gratie celestis adaugeat nomenque regum dignis propter hoc laudum preconiis attollat, rescripturus nobis per litteras tuas quicquid fieri contingerit in negotio memorato ac mentem nostram super illo quod exitum sortiri felicem appetimus letifices prout desiderabiliter expectamus. Datum Pictavis, III nonas decembris, pontificatus nostri anno tertio.\n"
        },
        {
            "type": "notes_historiques",
            "value": "Un Egidius de Remino, notaire public, instrumente en juin 1303 dans l'assembl\u00e9e du Louvre (Picot, <i>Documents relatifs aux \u00c9tats-G\u00e9n\u00e9raux sous Philippe le Bel<\/i>, p. 53) ; le m\u00eame Egidius assiste Plaisians en 1313 dans ses n\u00e9gociations avec l'archev\u00eaque de Lyon (Menestrier, <i>Histoire de la ville de Lyon<\/i>, p. 437).",
            "children": {
                "numero_note": "1"
            }
        },
        {
            "type": "remarques",
            "value": "Absente des registres"
        }
    ]
}