{
    "id": 25377,
    "name": "aposcripta-2474",
    "type": "acte",
    "url": "http:\/\/telma-chartes.irht.cnrs.fr\/aposcripta\/notice\/25377",
    "project_slug": "aposcripta",
    "project_label": "APOSCRIPTA \u2013 Lettres des papes",
    "user": "lettrespontificalesadmin",
    "last_update": "2020-10-19 16:27:43",
    "licence": "Attribution - Pas d\u2019Utilisation Commerciale - Partage dans les M\u00eames Conditions 3.0 France (CC BY-NC-SA 3.0 FR) ",
    "licence_url": "https:\/\/creativecommons.org\/licenses\/by-nc-sa\/3.0\/fr\/",
    "elements": [
        {
            "type": "pape",
            "value": "Lucius III (1181-1185)"
        },
        {
            "type": "destinataire",
            "value": "( )",
            "children": {
                "numero_note": "0"
            }
        },
        {
            "type": "date_lieu",
            "value": "n.c."
        },
        {
            "type": "date_libre",
            "value": "1184, 19 ou 20 avril"
        },
        {
            "type": "date",
            "value": "apr\u00e8s 1184\/04\/19 - avant 1184\/04\/20",
            "children": {
                "date_deb_annee": "1184",
                "date_deb_mois": "04",
                "date_deb_jour": "19",
                "date_deb_type": "apr\u00e8s",
                "date_fin_annee": "1184",
                "date_fin_mois": "04",
                "date_fin_jour": "20",
                "date_fin_type": "avant"
            },
            "range": {
                "date_apres": 11840419,
                "date_avant": 11840420
            }
        },
        {
            "type": "analyse",
            "value": "X pape<br\/>PRIVILEGIUM LUCII PAP\u00c6 III, QUO CONFIRMAT OMNIA BONA ET JURA PRIORATUS SANCTI ARNULFI DE CRISPEIO, ORDINIS CLUNIACENSIS. PRIVILEGIUM LUCII PAP\u00c6 III. per quod confirmat omnia bona et jura Prioratus sancti Arnulphi Crispeiensis, ordinis Cluniacensis, Silvanectensis Di\u0153cesis."
        },
        {
            "type": "transcription",
            "value": "<?xml version=\"1.0\" encoding=\"UTF-8\"?>\n[Lucius Episcopus, servus servorum Dei, dilectis filiis Humberto, Priori Monasterii sancti Arnulphi, martyris Crespeii, aliisque fratribus tam pr\u00e6sentibus qu\u00e0m futuris regularem vitam professis in perpetuam memoriam Effectum justa postulantibus indulgere et vigor \u00e6quitatis et ordo exigit rationis, pr\u00e6sertim quando petentium voluntatem et pietas adjuvat et veritas non relinquit. Eapropter, dilecti in Domino filii, vestris postulationibus clementer annuimus, et pr\u00e6decessorum nostrorum sanct\u00e6 recordationis Joannis, Paschalis, Innocentii, Eugenii et Alexandri Romanorum Pontificum vestigiis inh\u00e6rentes, pr\u00e6fatum sancti Arnulphi martyris Monasterium Crespeii, in quo divino mancipati estis obsequio, quod etiam nullius ditioni vel potestati, nisi Romani Pontificis et Abbatis Cluniacensis subjectum esse dignoscitur, sub beati Petri et nostra protectione suscipimus, et pr\u00e6sentis scripti privilegio communimus. Imprimis siquidem statuentes, ut omnia qu\u00e6 \u00e0 fundatoribus loci vestri, \u00e0 Gualterio videlicet Ambianensi quondam Comite et conjuge ejus Adela vestro Monasterio concessa et tradita esse noscuntur, ad exemplar eorumdem pr\u00e6decessorum nostrorum vobis vestrisque successoribus in ea qua sunt tradita libertate conservari sancimus. Pr\u00e6terea quascumque possessiones, qu\u00e6cumque bona idem Monasterium impr\u00e6sentiarum just\u00e8 et canonic\u00e8 possidet, aut in futurum concessione Pontificum, largitione Regum aut Principum, oblatione fidelium, sive aliis justis modis pr\u00e6stante Domino poterit adipisci, firma vobis vestrisque successoribus et illibata permaneant, tam \u00e0 vobis qu\u00e0m ab aliis qui per Cluniacenses Abbates Priores pr\u00e6positi fuerint, perpetu\u00f2 possidenda, disponenda ac regenda, in quibus h\u00e6c propriis duximus exprimenda vocabulis. Locum ipsum in quo pr\u00e6fatum Monasterium situm est cum terris, vineis, decimis, et aliis omnibus pertinentiis suis, marcatum scilicet et suburbium castri Crespeii cum cultura qu\u00e6 eidem castro adjacet, in qua pars castri fundata est, altare et villam Ogeri cum decimis et omnibus eidem loco pertinentibus, molendinum unum sub declivio montis castri Crespei positum, in villa de Dilveiro unum, super Alturnam aquam pratum unum et vineas, Chasiam villam in Othivensi pago sitam cum omnibus pertinentiis suis, terris, sylvis, pratis, molendinis, duabusque Ecclesiis, matricem videlicet Ecclesiam ejusdem vill\u00e6, qu\u00e6 est fundata in honorem sancti Dionysii martyris, et subjacentem Capellam sancti Gengulphi cum decimis suis, Ecclesiam sancti Martini sitam penes castellum pontis Arensis cum terris, vineis, et aliis pertinentiis suis, qu\u00e6 quidem juxta tenorem privilegiorum vestrorum tam vobis qu\u00e0m vestris subjaceat successoribus, vestroque favore consilioque ordinetur. In sylva Biera villam qu\u00e6 dicitur Fagil cum omnibus pertinentiis suis, in Meldensi pago Ecclesiam unam, in villa qu\u00e6 dicitur Mallos cum terris, hominibus et decimis. In Episcopatu Silvanectensi Ecclesiam sanct\u00e6 Agath\u00e6 toto jure Parochiali totius castri Crespeii, et omnibus pertinentiis suis, altare de Frencto, in Episcopatu Belvacensi altare et villamde Locellis cum omnibus pertinentiis suis, cellam de Franceriis cum omnibus pertinentiis suis, teneuram de Noitello, domos videlicet et vineas et decimas de Harcheri. In Episcopatu Ambianensi cellam qu\u00e6 vocatur Morandi, Monasterium cum grangia de avenis et omnibus suis pertinentiis, quam quidem in eadem libertate semper manere sancimus, in qua hactenus mansisse dignoscitur. Possessiones de villa Vilet prope montem desiderii, altare Villaris, altaria de Germiniaco, qu\u00e6 per Falconis quondam Ambianensis Episcopi chirographum possidetis cum omni jure Parochiali ejusdem vill\u00e6 et decimis. In Episcopatu Suessionensi Ecclesiam de Bunoculo cum grangia, terris, vineis, pratis, ac decimis, aliisque redditibus. Allodium Guidonis militis apud Meromontem, allodium Leotaldi apud Dilucium cum aliis qu\u00e6 ibi habetis, villam Vallis, villam Novam, villam Galcherii militis, et allodium de Frovesta. Adjicientes quoque Apostolic\u00e6 Sedis auctoritate sancimus, ut quemadmodum sanct\u00e6 recordationis pr\u00e6decessore nostro Joanne Papa statutum atque firmatum est, quando idem locus sibi \u00e0 jam dicto bon\u00e6 memori\u00e6 Gualterio Ambianensi Comite in su\u00e6 fundationis exordio oblatus est, atque ab eo tamquam novella plantatio in propriam et specialem sanct\u00e6 Sedis Apostolic\u00e6 filiam eadem domus est adoptata, ut nulli umquam Archiepiscoporum vel Episcoporum liceat excommunicationis seu interdicti sententiam absque assensu et mandato Romani Pontificis, vel Legati ejus \u00e0 latere distincti in idem C\u0153nobium promulgare, seu consuetudines aliquas ibi exigere, vel Missas publicas contra voluntatem vestram celebrare, aut alicujus gravaminis causa manum apponere. Neque enim dignum est, ut qui ad jus sacr\u00e6 Roman\u00e6 Ecclesi\u00e6, qu\u00e6 omnium Ecclesiarum caput et mater est, pertinere noscuntur, quorumlibet oppressionibus graventur, vel incursionibus agitentur. Liceat quoque vobis in Ecclesiis vestris Presbyteros eligere et Di\u0153cesano Episcopo pr\u00e6sentare, quibus si idonei inventi fuerint, Episcopus animarum curam committat, ita quidem quod ei de spiritualibus, vobis de temporalibus sine aliqua contradictione respondeant. San\u00e8 si Presbyterum aliquem ad divina officia celebranda, in quo divino mancipati estis obsequio duxeritis retinendum, de altari Crucis, quod ad vos pertinet, nulli interim teneatur respondere. Decimas quoque Novalium vestrarum qu\u00e6 propriis manibus aut sumptibus colitis, sive de nutrimentis vestrorum animalium nullus \u00e0 vobis pr\u00e6sumat exigere, sed sine omni contradictione Episcoporum et Episcopalium Ministrorum eas deinceps quiet\u00e8 possideatis, qui vestra peregrinis et pauperibus erogatis. Neque cuilibet facultas sit vos pro vivorum seu defunctorum eleemosynis ob salutem animarum vobis canonic\u00e8 datis inquietare. Sed tam vivorum qu\u00e0m defunctorum in dona et oblationes qu\u00e6 ad vos deferentur, in usus servorum Dei et pauperum profuturas, salva justitia matricis Ecclesi\u00e6 vobis retinere liceat et habere. Porro idem Monasterium cum omnibus pertinentiis suis, sicut hactenus ex concessione sanct\u00e6 Sedis Apostolic\u00e6 fuisse dignoscitur, sub Cluniacensis Monasterii libera ordinatione et dispositione consistat. Decernimus ergo, ut nulli omnino hominum fas sit pr\u00e6fatum Monasterium temer\u00e8 perturbare, aut ejus possessiones auferre, aut ablatas retinere, minuereve, seu quibuslibet exactionibus fatigare; sed omnia integra conserventur eorum, pro quorum gubernatione et sustentatione concessa sunt, usibus omnibus profutura, salva in omnibus Sedis Apostolic\u00e6 dignitate, et in supradictis Ecclesiis Di\u0153cesanorum Episcoporum canonica justitia. Si qua igitur in futurum Ecclesiastica s\u00e6cularisve persona hanc nostr\u00e6 constitutionis paginam sciens, contra eam temer\u00e8 venire tentaverit, secund\u00f2 terti\u00f3ve commonita, nisi reatum suum digna satisfactione correxerit, potestatis honorisque sui dignitate careat, reamque se divino judicio existere de perpetrata iniquitate cognoscat, et \u00e0 sacratissimo Corpore et Sanguine Dei et Domini Redemptoris nostri Jesu Christi aliena fiat, atque in extremo examine divin\u00e6 ultioni subjaceat. Cunctis autem eidem loco sua jura servantibus sit pax Domini nostri Jesu Christi, quatenus et hic fructum bon\u00e6 actionis percipiant, et apud districtum Judicem pr\u00e6mia \u00e6tern\u00e6 pacis inveniant. Amen. Amen. Ego LUCIUS Catholic\u00e6 Ecclesi\u00e6. Ego Thedius Portuensis et sanct\u00e6 Rufin\u00e6 Episcopus. Ego Lerius Albani Episcopus. Ego Joannes Presbyter Cardinalis tituli sancti Marci. Ego Petrus Presbyter Cardinalis tituli sanct\u00e6 Susann\u00e6. Ego Laborans Presbyter Cardinalis sanct\u00e6 Mari\u00e6 trans Tiberim tituli sancti Calixti. Ego Paulus Presbyter Cardinalis tituli Basilic\u00e6 sanctorum Apostolorum. Ego Jacobus Diac. Card. S. Mari\u00e6. Ego Gratianus sanctorum Cosin\u00e6 et Damiani Diaconus Cardinalis. Ego Laborans S. Angeli Diac. Cardinalis. Ego Goffredus sanct\u00e6 Mari\u00e6 in via lata Diaconus Cardinalis. Datum Verul per manum Alberti sanct\u00e6 Roman\u00e6 Ecclesi\u00e6 Presbyteri, Cardinalis et Cancellarii XII. Kalendas Maii, indictione II. Incarnationis Dominic\u00e6 anno millesimo centesimo octuagesimo quarto, Pontificatus ver\u00f2 Domni Lucii Pap\u00e6 tertii anno tertio.]\n"
        },
        {
            "type": "edition",
            "value": "Ici tir\u00e9e du projet <i>CBMA - Corpus Burgundiae Medii Aevi<\/i>, document 5729. Site du projet Corpus de la Bourgogne du Moyen \u00c2ge, [En ligne] <a href=\"http:\/\/www.cbma-project.eu\" target=\"_blank\">http:\/\/www.cbma-project.eu<\/a>  "
        },
        {
            "type": "sources_manuscrites",
            "value": "\u00e0 renseigner."
        },
        {
            "type": "remarques",
            "value": "\r\n\r\nIndications dans l'\u00e9dition des Chartes de Cluny quand Bernard et Bruel n'ont pas repris le texte : Lucius, etc. Effectum justa postulantibus, etc. (Bull. Clun., p.\u00a078, col.\u00a01.).(Bibl. nat. cop.\u00a087-97.)"
        },
        {
            "type": "edition_autre",
            "value": "Ici reprise de Auguste Bernard, Alexandre Bruel, <i>Recueil des chartes de l'abbaye de Cluny<\/i>. V. <i>1091-1210<\/i>, Paris\u00a0: Imprimerie nationale, 1894 <a href=\"http:\/\/gallica.bnf.fr\/ark:\/12148\/bpt6k28911f?rk=64378;0\" target=\"_blank\">[en ligne]<\/a>, p. 658, n\u00b0 4292.",
            "children": {
                "numero_note": "0"
            }
        },
        {
            "type": "edition_autre",
            "value": "Pierre Simon, <i>Bullarium sacri Ordinis cluniacensis, complectens plurima privilegia per summos pontifices tum ipsi cluniacensi abbatiae, tum ei subditis monasteriis hactenus concessa<\/i>, Lyon : Jullieron, 1680, p. 78-79, col. 1",
            "children": {
                "numero_note": "1"
            }
        },
        {
            "type": "genre",
            "value": "Bulle"
        },
        {
            "type": "genre",
            "value": "Lettre"
        }
    ]
}