{
    "id": 20727,
    "name": "aposcripta-714",
    "type": "acte",
    "url": "http:\/\/telma-chartes.irht.cnrs.fr\/aposcripta\/notice\/20727",
    "project_slug": "aposcripta",
    "project_label": "APOSCRIPTA \u2013 Lettres des papes",
    "user": "lettrespontificalesadmin",
    "last_update": "2020-10-19 16:26:52",
    "licence": "Attribution - Pas d\u2019Utilisation Commerciale - Partage dans les M\u00eames Conditions 3.0 France (CC BY-NC-SA 3.0 FR) ",
    "licence_url": "https:\/\/creativecommons.org\/licenses\/by-nc-sa\/3.0\/fr\/",
    "elements": [
        {
            "type": "pape",
            "value": "Anastase IV (1153-1154)"
        },
        {
            "type": "date_lieu",
            "value": "Latran"
        },
        {
            "type": "date_libre",
            "value": "II kalendas augusti"
        },
        {
            "type": "analyse",
            "value": "Anastasius\u00a0IV Alienorem ducissam Normannorum hortatur, moneat virum, ut ab iniuriis in Richardum electum S. Michaelis in periculo maris abbatem desistat."
        },
        {
            "type": "transcription",
            "value": "<?xml version=\"1.0\" encoding=\"UTF-8\"?>\nAnastasius episcopus, servus servorum Dei, dilecte in Christo filie Alienor Normannorum ducisseb salutem et apostolicam benedictionem. Dilectus filius noster R[ichardus], abbas S. Michaelis in periculo maris, ad apostolice Sedis clementiam veniens violenciam et injuriam quam a viro tuo Normannorum duce1 iam diu passus est, et predecessori nostro sancte memorie pape Eugenio et nobis, qui in locum eius disponente Domino subrogati sumus, plenius demonstravit. Cognoscentes itaquec ipsius causam iustitia et racione fulciri, eum in abbatem predicti monasterii Deo auctore confirmavimus et illumd, qui in locum eius per potentiam viri tui intrusus fuerat, prestito iuramento, quod nostro deberet stare mandato, a vinculo excommunicationis absolvimus et, ut ipsum abbatem de cetero nullatenus inquietare praesumat, ei sub debito ipsius iuramenti precepimus.  Quia ergo particeps mercedis existit, qui se bonorum operum exhibet adiutorem, per presentia scripta nobilitati tue mandamus, monemus et exhortamur in Domino, ut memorato viro tuo duci diligenter et efficaciter suggerere studeas, quatenus abbatem ipsum ad monasterium suum in pace redire et ipsum regulariter ordinaree permittat et nullam ei de cetero molestiam inferat vel a suis hominibus inferri permittat. Quod si non fecerit, et nos iustitie ipsius abbatis deesse non poterimus et antedicto duci timendum erit, ne gravem propter hoc in se beati Petri sentiat ultionem. Datum Lateranis, II kalendas augusti.\n"
        },
        {
            "type": "edition",
            "value": "Samuel Loewenfeld, <i>Epistolae pontificum romanorum ineditae<\/i>, Leipzig : Veit et Comp., 1885, n. 215, p. 115-117"
        },
        {
            "type": "sources_manuscrites",
            "value": "1)\u00a0Bibl. publ. Abrinc. cod.\u00a082 in fol. praefixo, man. s.\u00a0<span class=\"smal-caps\">xii<\/span> <a class=\"app\" href=\"#app-a\">a<\/a>\u00a0"
        },
        {
            "type": "sources_manuscrites",
            "value": "2)\u00a0Bibl. nat. Paris. ms. lat.\u00a016992 fol.\u00a0112. Descripsit Martene ex ms. S. Mich. de peric. maris."
        },
        {
            "type": "notes_historiques",
            "value": "Henrico.",
            "children": {
                "numero_note": "1"
            }
        },
        {
            "type": "apparat_critique",
            "value": "<i>mihi dedit Leop. Delisle V. Ill.<\/i>",
            "children": {
                "numero_note": "a"
            }
        },
        {
            "type": "apparat_critique",
            "value": "duci <i>c.<\/i>\u00a01.",
            "children": {
                "numero_note": "b"
            }
        },
        {
            "type": "apparat_critique",
            "value": "igitur <i>c.<\/i>\u00a02.",
            "children": {
                "numero_note": "c"
            }
        },
        {
            "type": "apparat_critique",
            "value": "eum <i>c.<\/i>\u00a02.",
            "children": {
                "numero_note": "d"
            }
        },
        {
            "type": "apparat_critique",
            "value": "ordinari <i>c.<\/i>\u00a02.",
            "children": {
                "numero_note": "e"
            }
        },
        {
            "type": "date",
            "value": "1153\/07\/31",
            "children": {
                "date_deb_annee": "1153",
                "date_deb_mois": "07",
                "date_deb_jour": "31"
            },
            "range": {
                "date_apres": 11530731,
                "date_avant": 11530731
            }
        },
        {
            "type": "genre",
            "value": "Mandement (littere cum filo canapis)"
        },
        {
            "type": "destinataire",
            "value": "La duchesse d'Aquitaine Ali\u00e9nor"
        },
        {
            "type": "remarques",
            "value": "Voir <a target=\"_blank\" href= \"http:\/\/telma-chartes.irht.cnrs.fr\/aposcripta\/notice-acte\/20728\">APOSCRIPTA n. 715<\/a>, "
        }
    ]
}