{
    "id": 24503,
    "name": "aposcripta-1654",
    "type": "acte",
    "url": "http:\/\/telma-chartes.irht.cnrs.fr\/aposcripta\/notice\/24503",
    "project_slug": "aposcripta",
    "project_label": "APOSCRIPTA \u2013 Lettres des papes",
    "user": "lettrespontificalesadmin",
    "last_update": "2020-10-19 16:27:30",
    "licence": "Attribution - Pas d\u2019Utilisation Commerciale - Partage dans les M\u00eames Conditions 3.0 France (CC BY-NC-SA 3.0 FR) ",
    "licence_url": "https:\/\/creativecommons.org\/licenses\/by-nc-sa\/3.0\/fr\/",
    "elements": [
        {
            "type": "pape",
            "value": "Alexandre IV (1254-1261)"
        },
        {
            "type": "date_lieu",
            "value": "n.c."
        },
        {
            "type": "date_libre",
            "value": "28\u00a0avril 1259"
        },
        {
            "type": "date",
            "value": " 1259\/04\/28",
            "children": {
                "date_deb_annee": "1259",
                "date_deb_mois": "04",
                "date_deb_jour": "28"
            },
            "range": {
                "date_apres": 12590428,
                "date_avant": 12590428
            }
        },
        {
            "type": "analyse",
            "value": "Alexandre\u00a0IV annule un accord conclu entre le prieur de Saint-Firmin et le prieur des Dominicains."
        },
        {
            "type": "transcription",
            "value": "<?xml version=\"1.0\" encoding=\"UTF-8\"?>\nAlexander episcopus, servus servorum Dei, dilectis filiis, priori et fratribus domus Fratrum Predicatorum juxta Montempessulanum, salutem et apostolicam benedictionem.Religionis favor, sub qua virtutum Domino deservitisa, et devotionisb vestre merita nos inducunt ut vos illa prosequamur gratia, que vobis et ordini vestro dinoscitur oportuna. Sane ad nostrum pervenit auditum, quod, cum dilecti filii prepositus et capitulum Magalonensis Ecclesie, et prior Sancti Firmini de Montepessulano, Magalonensis diocesis, vos et domum vestram super diversis et variis articulis multipliciter aggravarent, tandem inter vos et eosdem prepositum, capitulum et priorem, sine magistri tamen et capituli generalis Ordinis vestri assensu, inter cetera super infrascriptis articulis taliter extitit ordinatumc, videlicet quod in cimiterio vestro non sepeliretis aliquem, nisi esset frater vestri Ordinisd, vel conversus, et sanus propriis pedibus ad vos accederet, vobiscum in vestro Ordine moraturus\u00a0; nullum etiame ea occasione in conversum reciperetis, vel fratrem, ut ipsum possetis, cum decederet, in vestro cimiterio sepelire\u00a0: clericos quoque et scolares de Montepessulano infirmos in fratres recipere non possetis\u00a0; nullum insuper excommunicatum vel interdictum nominatum in ecclesia vestra ad divinum admitteretis officium, et sententias, ab episcopo, archidiaconis et archipresbiteris Magalonensibus, ac preposito et priore predictis latas, curaretis inviolabiliter observare\u00a0; clericos vero vel laicosf, nisi alienigene forent, ad penitentiasg seu confessiones nullomodo deberetis admittere\u00a0; nec cuiquam concederetis viaticum sine dicti prioris licentiah speciali\u00a0; preterea nullus prior vel frater domus ejusdem post prandium in plateis, nisi infra septa domus vestre, vel in ecclesiis, claustris seu cimiteriis predicaret\u00a0; et si de loco vestro ad alium locum contingeret vos transferre, locum vestrum, in quo nunc degetisi, cum omnibus juribus et pertinentiisj suis non possetis nisi cum Magalonensi Ecclesia permutare\u00a0; in ecclesia vero vestra nonnisi duask squillas habere possetis, quas pulsaretis horis canonicis, ut moris est.Compositioneml etiamm ipsam seu ordinationemn acceptantes et laudantes, ex certa scientia, bona fide, promisistis eandem, utpote provide aco juste de consilio et assensu quondam fratris Raymundi, tunc prioris provincialis vestri factam, servare, renuntiantesp cuilibet juris beneficioq promulgato vel etiamr promulgando.Consensistiss etiamt quod nulla carta, nullumu instrumentum, vel munimentum contrarium huic compositioniv noceret, vel contra eam habere posset alicujus roboris firmitatem\u00a0; et, si contra compositionemw hujusmodi scienter contingeritx vos venire, nisi infra certum tempus, post monitionemy dicti prioris Sancti Firmini, de transgressione seu violationez compositionisaa ipsius ecclesie Sancti Firmini satisfacere curaretis, ex tunc tamdiuab cessaretis a divinorum celebrationeac in ecclesia vestra, donec esset de premissis ecclesie eidem Sancti Firmini satisfactum.Cum igitur ex hujusmodi ordinationead, que sine dictorum magistri et generalis capituli assensu facta dicitur, hiis que Ordini vestro tam ex Apostolice Sedis privilegiis vel indulgentiisae, quam etiamaf a jure concessa noscuntur, plurimum, ut asseriturag, derogetur, decens est et conveniens rationi ut privilegiis et indulgentiisah, Ordini vestro a predicta Sede concessis, vos et predicta domus vestra, sicut alie domus et fratres ejusdem Ordinis, plenarie gaudeatis\u00a0; acai dignum existit ut, quod a jure conceditur, vobisaj deditis sancte contemplationisak otioal non negetur.Nos itaque, volentes vobis super hoc providere ut in predictis articulis, non obstante ordinacioneam seu compositionean hujusmodi, etiamao si sit per Sedem eandem confirmata, uti possitis indulgentiisap et privilegiis. Ordini vestro et vobis a Sede predicta concessis ac jure communi, liberam vobis, auctoritate presentium, concedimus facultatem, decernentes irritum et inane quicquid contra vos, vel aliquem vestrum, aut locum vestrum, seu quoscumque alios, premissorum articulorum occasione vel alicujus eorum, per quemcumque de cetero fuerit attemptatum.Nulli ergo omnino hominum liceat hanc paginam nostre concessionis et constitutionisaq infringere, vel ei ausu temerario contraire. Si quis autem hoc attemptare presumpserit, indignationemar omnipotentis Dei et beatorum Petri et Pauli, apostolorum ejus, se noverit incursurum.Datum Anagnie, iiii to as kalendas maii, pontificatus nostri anno quinto.\n"
        },
        {
            "type": "edition",
            "value": "Julien Rouquette, Augustin Villemagne, <i>Bullaire de l'\u00c9glise de Maguelone<\/i>, Paris, Montpellier : Picard, Valat, 1911-1914, II, n. 478-CCCXLIII, p. 362-364"
        },
        {
            "type": "remarques",
            "value": "  <span class=\"small-caps\">Germain<\/span>, dans son \u00e9tude sur <i>le Couvent des Dominicains<\/i>, ni dans ses autres travaux, ne mentionne pas cette bulle, qui lui aurait permis, bien plus que celle d\u2019Honorius\u00a0III (voir N\u00b0\u00a0262), de parler de la jalousie des chanoines de Maguelone, du prieur de Saint-Firmin en particulier, envers les religieux.\n\nNous ne nous \u00e9tendrons pas sur cet accord, conclu entre le prieur de Saint-Firmin et celui des Dominicains. Celui-ci avait accept\u00e9 des conditions bien dures, et nous comprenons que le Pape ait protest\u00e9 contre cet accord, qui portait atteinte aux privil\u00e8ges de l\u2019Ordre et m\u00eame au droit commun.\n\nIl faudrait d\u2019ailleurs, pour bien appr\u00e9cier cette bulle, la comparer avec le r\u00e8glement fait le 24\u00a0mai 1263 par B\u00e9renger de Fr\u00e9dol, et qui r\u00e9glait la situation du couvent des Dominicains avec les paroisses de la ville (Cf. <i>Cart. de Maguelone<\/i>, reg.\u00a0E, fol.\u00a05\u00a0v\u00b0, \u00e9d. par <span class=\"small-caps\">Germain<\/span> dans\u00a0: <i>Le Couvent des Dominicains<\/i>, p.\u00a070). On voit, quand on lit ce r\u00e8glement, que les deux parties tinrent grand compte de la bulle d\u2019Alexandre\u00a0IV.\n\n[Rouquette-Villemagne]"
        },
        {
            "type": "apparat_critique",
            "value": "Cart.\u00a0: <i>deservitis<\/i>\u00a0; Bull.\u00a0: <i>servitis<\/i>.",
            "children": {
                "numero_note": "a"
            }
        },
        {
            "type": "apparat_critique",
            "value": "Cart. et Bull.\u00a0: <i>composicionis<\/i>.",
            "children": {
                "numero_note": "aa"
            }
        },
        {
            "type": "apparat_critique",
            "value": "Cart.\u00a0: <i>ex tunc tandiu<\/i>\u00a0; Bull.\u00a0: <i>et tunc tamdiu<\/i>.",
            "children": {
                "numero_note": "ab"
            }
        },
        {
            "type": "apparat_critique",
            "value": "Cart. et Bull.\u00a0: <i>celebracione<\/i>.",
            "children": {
                "numero_note": "ac"
            }
        },
        {
            "type": "apparat_critique",
            "value": "Cart. et Bull.\u00a0: <i>ordinacione<\/i>.",
            "children": {
                "numero_note": "ad"
            }
        },
        {
            "type": "apparat_critique",
            "value": "Cart. et Bull.\u00a0: <i>indulgenciis<\/i>.",
            "children": {
                "numero_note": "ae"
            }
        },
        {
            "type": "apparat_critique",
            "value": "Cart.\u00a0: <i>eciam<\/i>\u00a0; Bull.\u00a0: en abr\u00e9g\u00e9.",
            "children": {
                "numero_note": "af"
            }
        },
        {
            "type": "apparat_critique",
            "value": "Bull.\u00a0: <i>asseritur<\/i>\u00a0; Cart.\u00a0: <i>aseritur<\/i>.",
            "children": {
                "numero_note": "ag"
            }
        },
        {
            "type": "apparat_critique",
            "value": "Cart. et Bull.\u00a0: <i>indulgenciis<\/i>.",
            "children": {
                "numero_note": "ah"
            }
        },
        {
            "type": "apparat_critique",
            "value": "Cart.\u00a0: <i>ac<\/i>\u00a0; Bull.\u00a0: <i>ut<\/i>.",
            "children": {
                "numero_note": "ai"
            }
        },
        {
            "type": "apparat_critique",
            "value": "Cart.\u00a0: <i>vobis<\/i>\u00a0; Bull.\u00a0: <i>vos<\/i>.",
            "children": {
                "numero_note": "aj"
            }
        },
        {
            "type": "apparat_critique",
            "value": "Cart. et Bull.\u00a0: <i>contemplacionis<\/i>.",
            "children": {
                "numero_note": "ak"
            }
        },
        {
            "type": "apparat_critique",
            "value": "Cart.\u00a0: <i>ocio<\/i>\u00a0; Bull.\u00a0: <i>otio<\/i>.",
            "children": {
                "numero_note": "al"
            }
        },
        {
            "type": "apparat_critique",
            "value": "Cart. et Bull.\u00a0: <i>ordinacione<\/i>.",
            "children": {
                "numero_note": "am"
            }
        },
        {
            "type": "apparat_critique",
            "value": "Cart. et Bull.\u00a0: <i>composicione<\/i>.",
            "children": {
                "numero_note": "an"
            }
        },
        {
            "type": "apparat_critique",
            "value": "Cart.\u00a0: <i>eciam<\/i>\u00a0; Bull.\u00a0: en abr\u00e9g\u00e9.",
            "children": {
                "numero_note": "ao"
            }
        },
        {
            "type": "apparat_critique",
            "value": "Cart. et Bull.\u00a0: <i>indulgenciis<\/i>.",
            "children": {
                "numero_note": "ap"
            }
        },
        {
            "type": "apparat_critique",
            "value": "Cart. et Bull.\u00a0: <i>constitucionis<\/i>.",
            "children": {
                "numero_note": "aq"
            }
        },
        {
            "type": "apparat_critique",
            "value": "Cart. et Bull.\u00a0: <i>indignacionem<\/i>.",
            "children": {
                "numero_note": "ar"
            }
        },
        {
            "type": "apparat_critique",
            "value": "Bull.\u00a0: <i>IIII<\/i> <sup>to<\/sup>\u00a0; Cart.\u00a0: <i>IIII<\/i>.",
            "children": {
                "numero_note": "as"
            }
        },
        {
            "type": "apparat_critique",
            "value": "Cart. et Bull.\u00a0: <i>devocionis<\/i>.",
            "children": {
                "numero_note": "b"
            }
        },
        {
            "type": "apparat_critique",
            "value": "Cart.\u00a0: <i>ordinatum<\/i>\u00a0; Bull.\u00a0: <i>exordinatum<\/i>.",
            "children": {
                "numero_note": "c"
            }
        },
        {
            "type": "apparat_critique",
            "value": "Bull. n\u2019a pas les mots\u00a0: <i>frater vestri Ordinis<\/i>\u00a0; Cart. les a.",
            "children": {
                "numero_note": "d"
            }
        },
        {
            "type": "apparat_critique",
            "value": "Cart.\u00a0: <i>eciam<\/i>\u00a0; Bull.\u00a0: en abr\u00e9g\u00e9.",
            "children": {
                "numero_note": "e"
            }
        },
        {
            "type": "apparat_critique",
            "value": "Cart.\u00a0: <i>laicos<\/i>\u00a0; Bull.\u00a0: <i>laycos<\/i>.",
            "children": {
                "numero_note": "f"
            }
        },
        {
            "type": "apparat_critique",
            "value": "Cart.\u00a0: <i>penitencias<\/i>\u00a0; Bull.\u00a0: en abr\u00e9g\u00e9.",
            "children": {
                "numero_note": "g"
            }
        },
        {
            "type": "apparat_critique",
            "value": "Cart.\u00a0: <i>licentia<\/i>\u00a0; Bull.\u00a0: <i>licencia<\/i>.",
            "children": {
                "numero_note": "h"
            }
        },
        {
            "type": "apparat_critique",
            "value": "Cart.\u00a0: <i>degetis<\/i>\u00a0; Bull.\u00a0: <i>digitis<\/i>.",
            "children": {
                "numero_note": "i"
            }
        },
        {
            "type": "apparat_critique",
            "value": "Cart. et Bull.\u00a0: <i>pertinenciis<\/i>.",
            "children": {
                "numero_note": "j"
            }
        },
        {
            "type": "apparat_critique",
            "value": "Cart. a ce mot\u00a0; Bull. ne l\u2019a pas.",
            "children": {
                "numero_note": "k"
            }
        },
        {
            "type": "apparat_critique",
            "value": "Cart. et Bull.\u00a0: <i>composicionem<\/i>.",
            "children": {
                "numero_note": "l"
            }
        },
        {
            "type": "apparat_critique",
            "value": "Cart.\u00a0: <i>eciam<\/i>\u00a0; Bull.\u00a0: en abr\u00e9g\u00e9.",
            "children": {
                "numero_note": "m"
            }
        },
        {
            "type": "apparat_critique",
            "value": "Cart. et Bull.\u00a0: <i>ordinacionem<\/i>.",
            "children": {
                "numero_note": "n"
            }
        },
        {
            "type": "apparat_critique",
            "value": "Cart.\u00a0: <i>ac<\/i>\u00a0; Bull.\u00a0: <i>et<\/i>.",
            "children": {
                "numero_note": "o"
            }
        },
        {
            "type": "apparat_critique",
            "value": "Cart. et Bull.\u00a0: <i>renunciantes<\/i>.",
            "children": {
                "numero_note": "p"
            }
        },
        {
            "type": "apparat_critique",
            "value": "Bull.\u00a0: <i>juris beneficio<\/i>\u00a0; Cart.\u00a0: <i>juri et beneficio<\/i>.",
            "children": {
                "numero_note": "q"
            }
        },
        {
            "type": "apparat_critique",
            "value": "Cart.\u00a0: <i>eciam<\/i>\u00a0; Bull.\u00a0: en abr\u00e9g\u00e9.",
            "children": {
                "numero_note": "r"
            }
        },
        {
            "type": "apparat_critique",
            "value": "Bull.\u00a0: <i>concessistis<\/i>\u00a0; Cart.\u00a0: <i>consensistis<\/i>.",
            "children": {
                "numero_note": "s"
            }
        },
        {
            "type": "apparat_critique",
            "value": "Cart.\u00a0: <i>eciam<\/i>\u00a0; Bull.\u00a0: en abr\u00e9g\u00e9.",
            "children": {
                "numero_note": "t"
            }
        },
        {
            "type": "apparat_critique",
            "value": "Bull.\u00a0: <i>nullum<\/i>\u00a0; Cart.\u00a0: <i>nullumque<\/i>.",
            "children": {
                "numero_note": "u"
            }
        },
        {
            "type": "apparat_critique",
            "value": "Cart. et Bull.\u00a0: <i>composicioni<\/i>.",
            "children": {
                "numero_note": "v"
            }
        },
        {
            "type": "apparat_critique",
            "value": "Cart. et Bull.\u00a0: <i>composicionem<\/i>.",
            "children": {
                "numero_note": "w"
            }
        },
        {
            "type": "apparat_critique",
            "value": "Cart.\u00a0: <i>contigeret<\/i>\u00a0; Bull.\u00a0: <i>contingerit<\/i>.",
            "children": {
                "numero_note": "x"
            }
        },
        {
            "type": "apparat_critique",
            "value": "Cart. et Bull.\u00a0: <i>monicionem<\/i>.",
            "children": {
                "numero_note": "y"
            }
        },
        {
            "type": "apparat_critique",
            "value": "Cart. et Bull.\u00a0: <i>violacione<\/i>.",
            "children": {
                "numero_note": "z"
            }
        },
        {
            "type": "bibliographie_generale",
            "value": "<i>Bull. de Maguelone<\/i>, fol.\u00a09\u00a0r\u00b0",
            "children": {
                "numero_note": "0"
            }
        },
        {
            "type": "bibliographie_generale",
            "value": "<i>Cart. de Maguelone<\/i>, reg.\u00a0E, fol.\u00a07\u00a0r\u00b0",
            "children": {
                "numero_note": "1"
            }
        },
        {
            "type": "bibliographie_generale",
            "value": "<span class=\"small-caps\">Ripolli<\/span>\u00a0; <i>Bull. Pr\u00e6d.<\/i>, t.\u00a0I, p.\u00a0373",
            "children": {
                "numero_note": "2"
            }
        },
        {
            "type": "bibliographie_generale",
            "value": "<span class=\"small-caps\">Potthast<\/span>, n\u00b0\u00a017545.",
            "children": {
                "numero_note": "3"
            }
        },
        {
            "type": "genre",
            "value": "Bulle"
        }
    ]
}