{
    "id": 25114,
    "name": "aposcripta-2211",
    "type": "acte",
    "url": "http:\/\/telma-chartes.irht.cnrs.fr\/aposcripta\/notice\/25114",
    "project_slug": "aposcripta",
    "project_label": "APOSCRIPTA \u2013 Lettres des papes",
    "user": "lettrespontificalesadmin",
    "last_update": "2020-10-19 16:27:40",
    "licence": "Attribution - Pas d\u2019Utilisation Commerciale - Partage dans les M\u00eames Conditions 3.0 France (CC BY-NC-SA 3.0 FR) ",
    "licence_url": "https:\/\/creativecommons.org\/licenses\/by-nc-sa\/3.0\/fr\/",
    "elements": [
        {
            "type": "pape",
            "value": "Innocent IV (1243-1254)"
        },
        {
            "type": "destinataire",
            "value": "L'\u00e9v\u00eaque d'Autun",
            "children": {
                "numero_note": "0"
            }
        },
        {
            "type": "date_lieu",
            "value": "Lyon"
        },
        {
            "type": "date_libre",
            "value": "1247, 15 octobre"
        },
        {
            "type": "date",
            "value": " 1247\/10\/15",
            "children": {
                "date_deb_annee": "1247",
                "date_deb_mois": "10",
                "date_deb_jour": "15"
            },
            "range": {
                "date_apres": 12471015,
                "date_avant": 12471015
            }
        },
        {
            "type": "analyse",
            "value": "Innocent 4 pape<br\/>* Bulle du pape Innocent IV, par laquelle il d\u00e9charge l\u2019\u00e9v\u00eaque d\u2019Autun [Anselle de Pomard] du paiement des dettes de son \u00e9glise, \u00e0 moins qu\u2019elles n\u2019aient \u00e9t\u00e9 contract\u00e9es au profit de son si\u00e9ge."
        },
        {
            "type": "transcription",
            "value": "<?xml version=\"1.0\" encoding=\"UTF-8\"?>\nInnocentius episcopus, servus servorum Dei, venerabili fratri episcopo Eduensi salutem et apostolicam benedictionem. Cupientes indempnitati ecclesie tue, que, ut dicitur, est gravata plurimum onere debitorum, quantum cum Deo possumus precavere, tuis supplicationibus inclinati, auctoritate tibi presentium indulgemus, ut ad solutionem debitorum ipsorum minime tenearis nec compelli valeas nisi ea constiterit in utilitatem ejusdem ecclesie fuisse conversa. Nulli ergo, etc. Si quis autem, etc. Datum Lugduni, idus octobris, pontificatus nostri anno quarto.\n"
        },
        {
            "type": "edition",
            "value": "Ici tir\u00e9e du projet <i>CBMA - Corpus Burgundiae Medii Aevi<\/i>, document 1223. Site du projet Corpus de la Bourgogne du Moyen \u00c2ge, [En ligne] <a href=\"http:\/\/www.cbma-project.eu\" target=\"_blank\">http:\/\/www.cbma-project.eu<\/a>  "
        },
        {
            "type": "sources_manuscrites",
            "value": "\u00e0 renseigner."
        },
        {
            "type": "remarques",
            "value": "Dans l'analyse donn\u00e9e par l'\u00e9diteur, l'ast\u00e9risque signale les chartes originales.* Les chartes pr\u00e9c\u00e9d\u00e9es du signe * ont \u00e9t\u00e9 revues sur l\u2019original et offrent ainsi un texte plus exact et plus complet que celui des autres pi\u00e8ces du Cartulaire."
        },
        {
            "type": "edition_autre",
            "value": "Ici reprise d\u2019Anatole de Charmasse, <i>Cartulaire de l'Ev\u00each\u00e9 d'Autun<\/i>,\u00a0II, Paris\u00a0: Durand, 1880, p. 264, n\u00b0 XXIV.",
            "children": {
                "numero_note": "0"
            }
        },
        {
            "type": "genre",
            "value": "Bulle"
        }
    ]
}