{
    "id": 25755,
    "name": "aposcripta-2852",
    "type": "acte",
    "url": "http:\/\/telma-chartes.irht.cnrs.fr\/aposcripta\/notice\/25755",
    "project_slug": "aposcripta",
    "project_label": "APOSCRIPTA \u2013 Lettres des papes",
    "user": "lettrespontificalesadmin",
    "last_update": "2020-10-19 16:27:48",
    "licence": "Attribution - Pas d\u2019Utilisation Commerciale - Partage dans les M\u00eames Conditions 3.0 France (CC BY-NC-SA 3.0 FR) ",
    "licence_url": "https:\/\/creativecommons.org\/licenses\/by-nc-sa\/3.0\/fr\/",
    "elements": [
        {
            "type": "pape",
            "value": "Alexandre III (1159-1181)"
        },
        {
            "type": "destinataire",
            "value": "Les \u00e9v\u00eaques d'Autun, Clermont et Nevers, le doyen et le chapitre de Bourges",
            "children": {
                "numero_note": "0"
            }
        },
        {
            "type": "date_lieu",
            "value": "Tusculum"
        },
        {
            "type": "date_libre",
            "value": "VI idus februarii"
        },
        {
            "type": "date",
            "value": " 1181\/02\/08",
            "children": {
                "date_deb_annee": "1181",
                "date_deb_mois": "02",
                "date_deb_jour": "08"
            },
            "range": {
                "date_apres": 11810208,
                "date_avant": 11810208
            }
        },
        {
            "type": "analyse",
            "value": "EPISTOLA ALEXANDRI PAP\u00c6 III AD EDUENSEM, CLAROMONTENSEM, ET NIVERNENSEM EPISCOPOS, NECNON ET DECANUM BITURICENSIS ECCLESI\u00c6, UT DAMPNA ECCLESI\u00c6 SILVINIACENSIS A W. SENESCALCO DE BORBONO ET FRATRE EJUS ET DUCISSA DE MOLINS ILLATA RESARCIRI FACIANT."
        },
        {
            "type": "transcription",
            "value": "<?xml version=\"1.0\" encoding=\"UTF-8\"?>\nAlexander episcopus, servus servorum Dei, venerabilibus fratribus .. Eduensi, .. Claromontensi et .. Nivernensi episcopis et dilectis filiis .. decano et capitulo Bituricensis ecclesie, salutem et apostolicam benedictionem. Querelam dilectorum filiorum nostrorum T. abbatis et fratrum Cluniacensium intelleximus quod nobilis vir W. senescalcus de Borbono et frater ejus et Ducissa de Molins ecclesie Silviniacensi, que ad prescriptum monasterium pertinet, dampna gravia, estimationis decem milium solidorum, nequiter intulerunt. Quoniam igitur nimie negligentie redargui videremur si pateremur prescriptum monasterium in capite vel in membris maliciosa quorumlibet vexatione turbari, discretioni vestre per apostolica scripta mandamus atque precipimus quatinus, si res ita se habet, memoratas personas moneatis illata dampna pre- scripte ecclesie resarcire, et ab hujus modi de cetero iniquitate cessare. Si vero monitis vestris acquiescere forte noluerint, eos, contradictione et appellatione cessante, vinculo anathematis innodetis, et si nec sic resipuerint, terram eorum ubi pr\u00e9sentes fuerint interdicti sententie supponatis, et tam excommunicationis quam interdicti sententiam faeiatis usque ad dignam satisfactionem inviolabiliter observari. Ceterum, quia predictus senescalcus in quendam presbiterum, monachum predictorum fratrum, sicut asserunt, violentas manus injecit, equum ei abstulit, cimiterium violavit, et ipse idem quendam alium monachum, et frater ejus prepositum eorum, laicum, usque ad effusionem guinis infra cimiterium verberarunt, eos, si res ita se habet, sublato appellationis obstaculo, candelis accensis, excommunicatos publice nuntietis et sicut excommunicatos faciatis arctius evitari donec memoratis fratribus ablata restituant, de illatis injuriis satisfaciant et prefatus senescalcus, cum litteris vestris continentibus veritatem, apostolico se conspectui representet. Datum Tusculani, VI idus februarii.\n"
        },
        {
            "type": "edition",
            "value": "Ici reprise de L\u00e9opold Delisle, \u00ab Examen d'un privil\u00e8ge d'Innocent III pour le prieur\u00e9 de Lihons \u00bb, <i>Biblioth\u00e8que de l'\u00c9cole des chartes<\/i>, 57, 1896, p. 516-528, aux p. 518-519 <a target=\"_blank\" href=\" https:\/\/www.persee.fr\/doc\/bec_0373-6237_1896_num_57_1_447863\"> [en ligne]<\/a>. "
        },
        {
            "type": "sources_manuscrites",
            "value": "E. FRANCE, Paris, BnF, cote ?",
            "children": {
                "type_source": "Exp\u00e9dition"
            }
        },
        {
            "type": "remarques",
            "value": ""
        },
        {
            "type": "regeste",
            "value": "Auguste Bernard, Alexandre Bruel, <i>Recueil des chartes de l'abbaye de Cluny<\/i>. VI. <i>1211-1300<\/i>, Paris : Imprimerie nationale, 1903 <a href=\"http:\/\/gallica.bnf.fr\/ark:\/12148\/bpt6k367019?rk=21459;2\" target=\"_blank\">[en ligne]<\/a>, n. 4280bis, p. 931.",
            "children": {
                "numero_note": "0"
            }
        },
        {
            "type": "genre",
            "value": "Mandement (littere cum filo canapis)"
        },
        {
            "type": "sources_manuscrites",
            "value": "F. Cartulaire de Cluny",
            "children": {
                "type_source": "Cartulaire"
            }
        }
    ]
}