{
    "id": 24353,
    "name": "aposcripta-1504",
    "type": "acte",
    "url": "http:\/\/telma-chartes.irht.cnrs.fr\/aposcripta\/notice\/24353",
    "project_slug": "aposcripta",
    "project_label": "APOSCRIPTA \u2013 Lettres des papes",
    "user": "lettrespontificalesadmin",
    "last_update": "2020-10-19 16:27:28",
    "licence": "Attribution - Pas d\u2019Utilisation Commerciale - Partage dans les M\u00eames Conditions 3.0 France (CC BY-NC-SA 3.0 FR) ",
    "licence_url": "https:\/\/creativecommons.org\/licenses\/by-nc-sa\/3.0\/fr\/",
    "elements": [
        {
            "type": "pape",
            "value": "Gr\u00e9goire IX (1227-1241)"
        },
        {
            "type": "date_lieu",
            "value": "n.c."
        },
        {
            "type": "date_libre",
            "value": "17\u00a0juin 1229"
        },
        {
            "type": "date",
            "value": " 1229\/06\/17",
            "children": {
                "date_deb_annee": "1229",
                "date_deb_mois": "06",
                "date_deb_jour": "17"
            },
            "range": {
                "date_apres": 12290617,
                "date_avant": 12290617
            }
        },
        {
            "type": "analyse",
            "value": "Gr\u00e9goire\u00a0IX renouvelle, en faveur de l\u2019\u00e9v\u00eaque de Maguelone, la bulle que son pr\u00e9d\u00e9cesseur, Honorius\u00a0III, avait adress\u00e9e au chapitre au sujet des d\u00eemes."
        },
        {
            "type": "transcription",
            "value": "<?xml version=\"1.0\" encoding=\"UTF-8\"?>\nGregorius episcopus, servus servorum Dei, venerabili fratri, episcopo Magalonensi, salutem et apostolicam benedictionem.In audientiaa est nostra propositum, quod parrochiani tui decimas ecclesiis tibi concessis nolunt cum integritate persolvere, volentes ex ipsis expensas primum deducere, quas in seminibus vel congregandis frugibus, seu agricultura, vel aliis modis, fecisse noscuntur.Quia vero non debent excusationemb illam Deo pretendere, qui tradidit universa, quam militibus seculi non pretendunt, cum quibus proventus agrorum frequentiusc partiunturd, presentiume tibi auctoritate duximus indulgendum, quod si, quando prefati parrochiani sub velamento isto decimas detinere presumpserintf, et eas, sicut antiquitus consuetum est, postg commonitionemh tuam noluerint, sine talium expensarum deductione, persolvere, compellandii eos, sine appellationis obstaculo, per censuram ecclesiasticam, liberam habeas facultatem.Datum Perusii, xv kalendas julii, pontificatus nostri anno tertioj.\n"
        },
        {
            "type": "edition",
            "value": "Julien Rouquette, Augustin Villemagne, <i>Bullaire de l'\u00c9glise de Maguelone<\/i>, Paris, Montpellier : Picard, Valat, 1911-1914, II, n. 321-CCXXV, p. 148-148"
        },
        {
            "type": "remarques",
            "value": "Cette bulle est pareille \u00e0 celle d\u2019Honorius\u00a0III sur le m\u00eame sujet, que nous avons \u00e9dit\u00e9e (Voir N\u00b0\u00a0216).\n\n[Rouquette-Villemagne]"
        },
        {
            "type": "apparat_critique",
            "value": "Bull. et Cart.\u00a0: <i>audiencia<\/i>.",
            "children": {
                "numero_note": "a"
            }
        },
        {
            "type": "apparat_critique",
            "value": "Bull. et Cart.\u00a0: <i>excusacionem<\/i>.",
            "children": {
                "numero_note": "b"
            }
        },
        {
            "type": "apparat_critique",
            "value": "Bull. et Cart.\u00a0: <i>frequencius<\/i>.",
            "children": {
                "numero_note": "c"
            }
        },
        {
            "type": "apparat_critique",
            "value": "Bull.\u00a0: <i>parciuntur<\/i>\u00a0; Cart.\u00a0: <i>partiuntur<\/i>.",
            "children": {
                "numero_note": "d"
            }
        },
        {
            "type": "apparat_critique",
            "value": "Bull.\u00a0: <i>presencium<\/i>\u00a0; Cart.\u00a0: <i>presentium<\/i>.",
            "children": {
                "numero_note": "e"
            }
        },
        {
            "type": "apparat_critique",
            "value": "Cart.\u00a0: <i>presumpserint<\/i>\u00a0; Bull.\u00a0: <i>presumpserunt<\/i>.",
            "children": {
                "numero_note": "f"
            }
        },
        {
            "type": "apparat_critique",
            "value": "Cart. a ce mot\u00a0; Bull. ne l\u2019a pas.",
            "children": {
                "numero_note": "g"
            }
        },
        {
            "type": "apparat_critique",
            "value": "Cart. et Bull.\u00a0: <i>commonicionem<\/i>.",
            "children": {
                "numero_note": "h"
            }
        },
        {
            "type": "apparat_critique",
            "value": "Cart.\u00a0: <i>compellandi<\/i>\u00a0; Bull.\u00a0: <i>compellendi<\/i>.",
            "children": {
                "numero_note": "i"
            }
        },
        {
            "type": "apparat_critique",
            "value": "Cart.\u00a0: <i>tertio<\/i>\u00a0; Bull.\u00a0: <i>tercio<\/i>.",
            "children": {
                "numero_note": "j"
            }
        },
        {
            "type": "bibliographie_generale",
            "value": "<i>Bull. de Maguelone<\/i>, fol.\u00a054\u00a0v\u00b0",
            "children": {
                "numero_note": "0"
            }
        },
        {
            "type": "bibliographie_generale",
            "value": "<i>Cart. de Maguelone<\/i>, reg.\u00a0F, fol.\u00a0117\u00a0v\u00b0.",
            "children": {
                "numero_note": "1"
            }
        },
        {
            "type": "genre",
            "value": "Bulle"
        }
    ]
}