{
    "id": 148005,
    "name": "aposcripta-7620",
    "type": "acte",
    "url": "http:\/\/telma-chartes.irht.cnrs.fr\/aposcripta\/notice\/148005",
    "project_slug": "aposcripta",
    "project_label": "APOSCRIPTA \u2013 Lettres des papes",
    "user": "l_valliere",
    "last_update": "2020-10-19 16:39:40",
    "licence": "Attribution - Pas d\u2019Utilisation Commerciale - Partage dans les M\u00eames Conditions 3.0 France (CC BY-NC-SA 3.0 FR) ",
    "licence_url": "https:\/\/creativecommons.org\/licenses\/by-nc-sa\/3.0\/fr\/",
    "elements": [
        {
            "type": "pape",
            "value": "Cl\u00e9ment IV (1265-1268)"
        },
        {
            "type": "destinataire",
            "value": "Le cardinal-\u00e9v\u00eaque d'Albano Raoul, l\u00e9gat du Si\u00e8ge apostolique"
        },
        {
            "type": "date_libre",
            "value": "XIX\/XVIII kalendas februarii, anno tercio"
        },
        {
            "type": "date",
            "value": "apres 1268\/01\/14 - avant 1268\/01\/15",
            "children": {
                "date_fin_annee": "1268",
                "date_fin_mois": "01",
                "date_fin_jour": "15",
                "date_fin_type": "avant",
                "date_deb_annee": "1268",
                "date_deb_mois": "01",
                "date_deb_jour": "14",
                "date_deb_type": "apres"
            },
            "range": {
                "date_apres": 12680114,
                "date_avant": 12680115
            }
        },
        {
            "type": "date_lieu",
            "value": "Viterbe"
        },
        {
            "type": "genre",
            "value": "Mandement (littere cum filo canapis)"
        },
        {
            "type": "analyse",
            "value": "Mandat R[adulfo] episcopo Albanensi, apostolice Sedis legato, ut quibusdam episcopatibus qui valorem triginta unciarum auri modice excedant, provideat; fratri Philippo Minorum ordinis locum det, si potuerit, et papam instruat de fratre P. de Corneliaco promovendo. \u00ab Ad abbatias de quibus nobis scripsisti regendas bonos queremus monachos... \u00bb [Jordan].\nClemens IV. an (Raoul Grosparmi,) Kardinalbischof von Albano, apostolischer Legat: erteilt ihm verschiedene Anweisungen zur Besetzung von Kirchen\u00e4mtern (im K\u00f6nigreich Sizilien) [Thumser]."
        },
        {
            "type": "sources_manuscrites",
            "value": "R<sup>1<\/sup>. CIT\u00c9 DU VATICAN, Archivio segreto Vaticano, <i>Registra Vaticana<\/i> 30, fol. 69v (<i>kal. febr.<\/i>).",
            "children": {
                "type_source": "Formulaire, collection de lettres m\u00e9di\u00e9vale"
            }
        },
        {
            "type": "sources_manuscrites",
            "value": "R<sup>2<\/sup>. CIT\u00c9 DU VATICAN, Archivio segreto Vaticano, <i>Registra Vaticana<\/i> 33, ep. 408, fol. 68v.",
            "children": {
                "type_source": "Formulaire, collection de lettres m\u00e9di\u00e9vale"
            }
        },
        {
            "type": "sources_manuscrites",
            "value": "R<sup>3<\/sup>. CIT\u00c9 DU VATICAN, Archivio segreto Vaticano, <i>Registra Vaticana<\/i> 34, fol. 105.",
            "children": {
                "type_source": "Formulaire, collection de lettres m\u00e9di\u00e9vale"
            }
        },
        {
            "type": "sources_manuscrites",
            "value": "R<sup>4<\/sup>. CIT\u00c9 DU VATICAN, Archivio segreto Vaticano, <i>Registra Vaticana<\/i> 35, ep. 411, fol. 77 (sans date).",
            "children": {
                "type_source": "Formulaire, collection de lettres m\u00e9di\u00e9vale"
            }
        },
        {
            "type": "edition",
            "value": "Ici reprise de Mathias Thumser, <i>Die Briefe Papst Clemens\u2019 IV. (1265-1268)<\/i>, Vorl\u00e4ufige Edition, MGH, 2015, n. 416."
        },
        {
            "type": "edition_autre",
            "value": "Edmond Mart\u00e8ne, Ursin Durand, <i>Thesaurus novus anecdotorum<\/i>, Paris, 1717, II, n. 580, col. 562 <a target=\"_blank\" href=\"https:\/\/archive.org\/stream\/ThesaurusNovusAnecdotorum2\/Thesaurus_novus_anecdotorum_2#page\/n315\/mode\/2up\"> [en ligne]<\/a>."
        },
        {
            "type": "regeste",
            "value": "Potthast, <i>Regesta pontificum Romanorum<\/i>, n. 20219 <a target=\"_blank\" href=\"https:\/\/archive.org\/stream\/RegestaPontificumRomanorum\/ph#page\/n1643\/mode\/2up\"> [en ligne]<\/a>."
        },
        {
            "type": "regeste",
            "value": "\u00c9douard Jordan, <i>Les registres de Cl\u00e9ment IV (1265-1268)<\/i>, Paris, 1893-1945, n. 1285, d\u2019apr\u00e8s R<sup>1<\/sup>, R<sup>2<\/sup>, R<sup>3<\/sup> et R<sup>4<\/sup>."
        },
        {
            "type": "bibliographie_generale",
            "value": "Mathias Thumser, \u00ab Zur \u00dcberlieferungsgeschichte der Briefe Clemens'IV. (1265-1268) \u00bb, <i>Deutsches Archiv f\u00fcr Erforschung des Mittelalters<\/i>, 51\/1, 1995, p. 115-168."
        },
        {
            "type": "transcription",
            "value": "<?xml version=\"1.0\" encoding=\"UTF-8\"?>\nEidem. Licet de quibusdam episcopatibus nobis scripseris, quod valorem XXX unciarum auri excedunt, quantum plus valeant, non scripsisti, et idcirco, que persone querende sint ad eorundem regimen, ignoramus. Si ergo modicus est excessus, provideat eis tua fraternitas, prout viderit expedire. Sciasque, quod nobis frequenter extitit supplicatum pro Fratre Philippo Minore, qui diu lector fuit in ordine et minister, ut dicitur, provincialis in regno et in predicationibus plurimum gratiosus. Da ei locum, si potes, et nos iterum instrue, an id de fratre P[etro] de Corneliaco facere debeamus. Ad abbatias, de quibus nobis scripsisti, regendas bonos queremus monachos, si eos possumus invenire. Datum Viterbii, XIX\/XVIII kalendas februarii, anno III.\n"
        }
    ]
}