{
    "id": 144182,
    "name": "aposcripta-5543",
    "type": "acte",
    "url": "http:\/\/telma-chartes.irht.cnrs.fr\/aposcripta\/notice\/144182",
    "project_slug": "aposcripta",
    "project_label": "APOSCRIPTA \u2013 Lettres des papes",
    "user": "l_valliere",
    "last_update": "2020-10-19 16:38:56",
    "licence": "Attribution - Pas d\u2019Utilisation Commerciale - Partage dans les M\u00eames Conditions 3.0 France (CC BY-NC-SA 3.0 FR) ",
    "licence_url": "https:\/\/creativecommons.org\/licenses\/by-nc-sa\/3.0\/fr\/",
    "elements": [
        {
            "type": "pape",
            "value": "Pascal II (1099-1118)"
        },
        {
            "type": "destinataire",
            "value": "L'abb\u00e9 du monast\u00e8re de Sainte-Foy de Conques B\u00e9gon"
        },
        {
            "type": "date_libre",
            "value": "VIIII kalendas januarii"
        },
        {
            "type": "date_lieu",
            "value": "Latran"
        },
        {
            "type": "genre",
            "value": "Lettre, g\u00e9n\u00e9ral (avant 1198)"
        },
        {
            "type": "analyse",
            "value": "Pascal II, pape, autorise les moines de Conques \u00e0 je\u00fbner la veille de la f\u00eate de sainte Foy et \u00e0 nommer au canon de la messe le nom de sainte Foy, approuve la lecture de sa passion et de ses miracles \u00e0 l'\u00e9glise et accorde \u00e0 l'abb\u00e9 de Conques le droit de participer \u00e0 l'\u00e9lection de l'\u00e9v\u00eaque de Rodez."
        },
        {
            "type": "sources_manuscrites",
            "value": "A. FRANCE, Rodez, Archives d\u00e9partementales de l'Aveyron, G 410, n. 1, R 45. Fac-simil\u00e9 publi\u00e9 par le projet \u00ab Chartes ant\u00e9rieures \u00e0 1121 conserv\u00e9es en France \u00bb<a target=\"_blank\" href=\" http:\/\/www.cn-telma.fr\/originaux\/charte3936\/\"> [en ligne]<\/a>.",
            "children": {
                "type_source": "Autre copie m\u00e9di\u00e9vale"
            }
        },
        {
            "type": "edition",
            "value": "Ici reprise de l'acte n. 3936 dans \u00ab Chartes originales ant\u00e9rieures \u00e0 1121 conserv\u00e9es en France \u00bb, C\u00e9dric Giraud, Jean-Baptiste Renault et Beno\u00eet-Michel Tock, \u00e9ds., Nancy : Centre de M\u00e9di\u00e9vistique Jean Schneider ; \u00e9ds \u00e9lectronique Orl\u00e9ans : Institut de Recherche et d'Histoire des Textes, 2010 (Telma), avec fac-simil\u00e9 (sous la date impossible du 24\/12\/1118) <a target=\"_blank\" href=\" http:\/\/www.cn-telma.fr\/originaux\/charte3936\/\"> [en ligne]<\/a>."
        },
        {
            "type": "edition_autre",
            "value": "Edmond Mart\u00e8ne, Ursin Durand, <i>Thesaurus novus Anecdotorum complectens Regum ac Principum aliorumque virorum illustrium epistolas et diplomata monumenta plura de Schismate Pontificum Aveniensium chronica varia, monumenta historica, varia concilia, statuta synodalia et opuscula varia SS. Patrum aliorum que auctorum Ecclesiasticorum<\/i>, Paris, 1717, 5 vol. I, col. 337-338 (s.d.) <a target=\"_blank\" href=\" https:\/\/archive.org\/details\/bub_gb_uN9npfGESQ8C\/page\/n247\"> [en ligne]<\/a>."
        },
        {
            "type": "regeste",
            "value": "Jaff\u00e9-Loewenfeld, <i>Regesta pontificum Romanorum<\/i>, 2 vol., Leipzig, 1885-1888, n. 6218  (avec la fouchette de dates 1099-1109) <a target=\"_blank\" href=\" https:\/\/gallica.bnf.fr\/ark:\/12148\/bpt6k55983718\/f772.item\"> [en ligne]<\/a>."
        },
        {
            "type": "bibliographie_generale",
            "value": "Gustave Desjardins, \u00ab Essai sur le cartulaire de l'abbaye de Conques en Rouergue\u00ab l \u00bb, <i>Biblioth\u00e8que de l'\u00c9cole des chartes<\/i>, 33, 1872, p. 254-282, p. 273 <a target=\"_blank\" href=\" http:\/\/www.persee.fr\/doc\/bec_0373-6237_1872_num_33_1_446426\"> [en ligne]<\/a>."
        },
        {
            "type": "transcription",
            "value": "<?xml version=\"1.0\" encoding=\"UTF-8\"?>\nPASCHALIS, EPISCOPUS, SERVUS SERVORUM DEI, DILECTO IN CHRISTO FILIO BEGONI, MONASTERII BEATE FIDIS CONCHENSIS ABBATI, ejusdemque loci fratribus omnibus salutem et apostolicam benedictionem. Licet \u0229cclesiasticorum offitiorum tenor in \u0229cclesiasticis libris legitimo habeatur ordine constitutus, nichil tamen religioni obesse, immo prodesse plurimum credimus, si quis eisdem officiis rationabiliter observantie quicquam et devotionis adjecerit. Samaritanus etenim noster cum duos denarios stabulario ad infirmi curam protulit, ait : Si quid super errogaveris, ego, cum rediero, reddam tibi. In Rutenico igitur pago, presertim apud Conchense monasterium vestrum ubi beate FIDIS corpus requiescere creditur, ante II nonas octobris quibus eadem virgo martirium consumasse legitur, sicut ex more vos devotissime agere audivimus vigilias et sollempne jejunium celebrari annuimus et decreti presentis auctoritate firmamus. Ubi enim beati martires corporali presentia requiescunt, dignum profecto est et \u0229cclesiastica consuetudine confirmatum ut celebrioribus offitiis honorentur. Unde etiam concedimus ut in ordine miss\u0229, inter alias virgines, ejusdem sanct\u0229 virginis ac martiris memoria ex nomine celebretur. Passionem quoque seu miracula que de eadem sancta virgine a katholicis viris scripta creduntur, in \u0229cclesia legi pro ejusdem reverentia virginis adprobamus. Siquidem ipsius gloriose virginis ac martiris natalicia, tam in nostra sacrosancta Romana \u0229cclesia quam in aliis mundi partibus, ad honorem Dei et comunem salutem cum magna obtamus devocione ac reverentia celebrari, ad devotionem quoque supradict\u0229 martiris et monasterii Conchensis honorem adicimus ut ad Rutenensis episcopi electione Conchensis abbas semper deinceps debeat advocari, quia et in urbe ipsa electio solet citra ordinem plerumque presumi et Conchensis locus adeo urbi habetur proximus et tanta persona censetur abbatis ut precipue tanto \u0229cclesi\u0229 negocio merito debeat interesse. Cetera monasterii vestri negotia tamque ad nos specialius pertinentia legatis nostris sive qui nunc sunt sive qui post futuri sunt in Galliis sollicitis diffinienda mandamus. Vestrum enim cenobium et omnia ad idem pertinentia quieta, libera et integra cum suis semper volumus privilegiis permanere. Omnipotens dominus sua vos gratia benedicat et per sancte conversationis instantiam ad vitam \u0229ternam perducat. Amen. Datum Laterani VIIII kalendas januarii. [sceau].\n"
        },
        {
            "type": "remarques",
            "value": "Nous suivons ici la fourchette de dates propos\u00e9e par Jaff\u00e9-Loewenfeld."
        },
        {
            "type": "date",
            "value": "apres 1099 - avant 1109",
            "children": {
                "date_deb_annee": "1099",
                "date_deb_type": "apres",
                "date_fin_annee": "1109",
                "date_fin_type": "avant"
            },
            "range": {
                "date_apres": 10990000,
                "date_avant": 11099999
            }
        }
    ]
}