{
    "id": 24496,
    "name": "aposcripta-1647",
    "type": "acte",
    "url": "http:\/\/telma-chartes.irht.cnrs.fr\/aposcripta\/notice\/24496",
    "project_slug": "aposcripta",
    "project_label": "APOSCRIPTA \u2013 Lettres des papes",
    "user": "lettrespontificalesadmin",
    "last_update": "2020-10-19 16:27:30",
    "licence": "Attribution - Pas d\u2019Utilisation Commerciale - Partage dans les M\u00eames Conditions 3.0 France (CC BY-NC-SA 3.0 FR) ",
    "licence_url": "https:\/\/creativecommons.org\/licenses\/by-nc-sa\/3.0\/fr\/",
    "elements": [
        {
            "type": "pape",
            "value": "Alexandre IV (1254-1261)"
        },
        {
            "type": "date_lieu",
            "value": "Latran"
        },
        {
            "type": "date_libre",
            "value": "II kalendas februarii, anno tertio"
        },
        {
            "type": "date",
            "value": " 1257\/01\/31",
            "children": {
                "date_deb_annee": "1257",
                "date_deb_mois": "01",
                "date_deb_jour": "31"
            },
            "range": {
                "date_apres": 12570131,
                "date_avant": 12570131
            }
        },
        {
            "type": "analyse",
            "value": "Alexandre\u00a0IV confirme aux consuls de Montpellier les libert\u00e9s que leur avaient accord\u00e9es les seigneurs de cette ville."
        },
        {
            "type": "transcription",
            "value": "<?xml version=\"1.0\" encoding=\"UTF-8\"?>\nAlexander episcopus, servus servorum Dei, dilectis filiis consulibus et universitati hominum Montispesulani, Magalonensis diocesis, salutem et apostolicam benedictionem.Hiis que ad bonum statum vestrum a Cristi fidelibus vobis liberali munificentia conceduntur, tanto libentius apostolici muniminis firmitatem adicimus, quanto amplius in vestri honoris et prosperitatis delectamur augmento.Vestra sane nobis devotio intimavit quod domini Montispessulani, Magalonensis diocesis, qui fuerunt pro tempore, prout ad ipsos spectabat, vobis et singulis de universitate vestra nonnullas diversas libertates, deliberatione provida, concesserunt, prout in litteris inde confectis plenius dicitur contineri.Nos itaque vestris suplicationibus inclinati, quod super hoc ab eisdem dominis absque cujusquam prejudicio provide factum est, ratum habentes et gratum, illud necnon rationabiles antiquas et approbatas consuetudines vestras, sicut eas juste ac pacifice obtinetis, auctoritate apostolica confirmamus, et presentis scripti patrocinio communimus.Nulli ergo omnino hominum liceat hanc paginam nostre confirmationis infringere, vel ei ausu temerario contraire. Si quis autem hoc attemptare presumpserit, indignationem omnipotentis Dei et beatorum Petri et Pauli, apostolorum ejus, se noverit incursurum.Datum Laterani, ii kalendas februarii, pontificatus nostri anno tertioa.\n"
        },
        {
            "type": "edition",
            "value": "Julien Rouquette, Augustin Villemagne, <i>Bullaire de l'\u00c9glise de Maguelone<\/i>, Paris, Montpellier : Picard, Valat, 1911-1914, II, n. 471-CCCXXXVII, p. 356-356"
        },
        {
            "type": "remarques",
            "value": "  Date. \u2014 L\u2019original porte au dos la date de 1256\u00a0: date \u00e0 rejeter.\n\n[Rouquette-Villemagne]"
        },
        {
            "type": "apparat_critique",
            "value": "Orig.\u00a0: <i>tercio<\/i>.",
            "children": {
                "numero_note": "a"
            }
        },
        {
            "type": "bibliographie_generale",
            "value": "Archives municipales de Montpellier, arm.\u00a0F, cass.\u00a05, n\u00b0\u00a02246 de l\u2019Inventaire <span class=\"small-caps\">Louvet<\/span>, publi\u00e9 par <span class=\"small-caps\">M.J. Berthel\u00e9<\/span>\u00a0; original sur parchemin\u00a0; sceau de plomb attach\u00e9 par des cordons de soie jaune et rouge",
            "children": {
                "numero_note": "0"
            }
        },
        {
            "type": "bibliographie_generale",
            "value": "<span class=\"small-caps\">Germain<\/span>, <i>Hist. de la commune de Montpellier<\/i>, t.\u00a0I, p.\u00a0234",
            "children": {
                "numero_note": "1"
            }
        },
        {
            "type": "bibliographie_generale",
            "value": "<span class=\"small-caps\">F. Fabr\u00e8ge<\/span>, <i>Hist. de Maguelone<\/i>, t.\u00a0II, p.\u00a099.",
            "children": {
                "numero_note": "2"
            }
        },
        {
            "type": "genre",
            "value": "Titre, g\u00e9n\u00e9ral (littere gratiose, cum filo serico)"
        },
        {
            "type": "destinataire",
            "value": "Les consuls et la communaut\u00e9 des hommes de Montpellier"
        }
    ]
}