{
    "id": 28703,
    "name": "aposcripta-4467",
    "type": "acte",
    "url": "http:\/\/telma-chartes.irht.cnrs.fr\/aposcripta\/notice\/28703",
    "project_slug": "aposcripta",
    "project_label": "APOSCRIPTA \u2013 Lettres des papes",
    "user": "j_theryastruc",
    "last_update": "2020-10-19 16:28:21",
    "licence": "Attribution - Pas d\u2019Utilisation Commerciale - Partage dans les M\u00eames Conditions 3.0 France (CC BY-NC-SA 3.0 FR) ",
    "licence_url": "https:\/\/creativecommons.org\/licenses\/by-nc-sa\/3.0\/fr\/",
    "elements": [
        {
            "type": "pape",
            "value": "Alexandre IV (1254-1261)"
        },
        {
            "type": "date_libre",
            "value": "II idus aprilis, anno primo"
        },
        {
            "type": "date",
            "value": " 1255\/04\/12",
            "children": {
                "date_deb_jour": "12",
                "date_deb_mois": "04",
                "date_deb_annee": "1255"
            },
            "range": {
                "date_apres": 12550412,
                "date_avant": 12550412
            }
        },
        {
            "type": "date_lieu",
            "value": "Naples"
        },
        {
            "type": "genre",
            "value": "Lettre, g\u00e9n\u00e9ral (avant 1198)"
        },
        {
            "type": "analyse",
            "value": "Alexandre [IV] confirme l'union de la maison de Cuires et de ses d\u00e9pendances \u00e0 la manse d'Ainay."
        },
        {
            "type": "sources_manuscrites",
            "value": "FRANCE, Lyon, Biblioth\u00e8que municipale, Fonds Coste 254. ",
            "children": {
                "type_source": "Exp\u00e9dition"
            }
        },
        {
            "type": "sources_manuscrites",
            "value": "FRANCE, Lyon, Biblioth\u00e8que municipale, Fonds Coste 248 (grand cartulaire d'Ainay, 1332-1361). ",
            "children": {
                "type_source": "Cartulaire"
            }
        },
        {
            "type": "edition",
            "value": "<i>Cartulaire d'Ainay<\/i>, Lyon : Pitrat, 1885, I, p. 32."
        },
        {
            "type": "transcription",
            "value": "<?xml version=\"1.0\" encoding=\"UTF-8\"?>\nExhibita nobis dilectorum filiorum.... \u00e0 \u00e9diter\n"
        },
        {
            "type": "remarques",
            "value": "Absente des registres (6 lettres envoy\u00e9es de Naples \u00e0 cette date)."
        }
    ]
}