{
    "id": 149469,
    "name": "aposcripta-9032",
    "type": "acte",
    "url": "http:\/\/telma-chartes.irht.cnrs.fr\/aposcripta\/notice\/149469",
    "project_slug": "aposcripta",
    "project_label": "APOSCRIPTA \u2013 Lettres des papes",
    "user": "lettrespontificalesadmin",
    "last_update": "2020-10-19 16:39:59",
    "licence": "Attribution - Pas d\u2019Utilisation Commerciale - Partage dans les M\u00eames Conditions 3.0 France (CC BY-NC-SA 3.0 FR) ",
    "licence_url": "https:\/\/creativecommons.org\/licenses\/by-nc-sa\/3.0\/fr\/",
    "elements": [
        {
            "type": "pape",
            "value": "Innocent IV (1243-1254)"
        },
        {
            "type": "destinataire",
            "value": "Magistro Iohanni de Sancto Germano subdiacono et capellano nostro"
        },
        {
            "type": "date_libre",
            "value": "VI kalendas februarii, anno XI"
        },
        {
            "type": "date",
            "value": " 1254\/01\/27",
            "children": {
                "date_deb_annee": "1254",
                "date_deb_mois": "01",
                "date_deb_jour": "27"
            },
            "range": {
                "date_apres": 12540127,
                "date_avant": 12540127
            }
        },
        {
            "type": "date_lieu",
            "value": "Lateran."
        },
        {
            "type": "sources_manuscrites",
            "value": "R. CIT\u00c9 DU VATICAN, Archivio Segreto Vaticano, <hi rend=\"italic\">Registra Vaticana<\/hi> ... Inn.\u00a0IV Reg. Vol.\u00a0III, 54; Lib.\u00a0XI, 422. Epistolam ex Regestis descripsit V. Cl. Meynke.",
            "children": {
                "type_source": "Registre de la chancellerie apostolique"
            }
        },
        {
            "type": "genre",
            "value": "Mandement (littere cum filo canapis)"
        },
        {
            "type": "analyse",
            "value": "Innocentius IV papa magistro Iohanni de S. Germano subdiacono et capellano suo mandat, ut Marottam sororem Aymonis de Aquino, ecclesiae devoti, quae olim de mandato P[etri] S. Georgii ad Velum Aureum diaconi cardinalis, tunc legati, monasterio S. Mariae de Capua praefecta sit, in possessionem eiusdem abbatiae inducat [Rodenberg]."
        },
        {
            "type": "transcription",
            "value": "<?xml version=\"1.0\" encoding=\"UTF-8\"?>\nMagistro Iohanni de Sancto Germano subdiacono et capellano nostro.Exposuit nobis dilecta in Christo filia Marotta abbatissa monasterii sancte Marie de Capua ordinis sancti Benedicti, soror nobilis viri Aymonis de Aquino, nostri et ecclesie Romane devoti, quod olim venerabilis frater noster . . episcopus Alatrinus de mandato dilecti filii nostri P. Sancti Georgii ad Velum Aureum diaconi cardinalis, tunc in regno Sicilie apostolice sedis legati, ipsam prefecit in abbatissam eidem monasterio tunc vacanti, nosque, quod per eundem episcopum factum fuerat in hac parte gratum et ratum habentes, id auctoritate apostolica duximus confirmandum, eidem legato nostris dantes litteris in mandatis, ut ipsi M. benedictionis munus faceret exhiberi. Prefatus autem episcopus ad ipsius legati mandatum huiusmodi sibi munus impendit. Postmodum vero condam Altruda de Preturo ipsius monasterii moniali asserente se a conventu eiusdem monasterii in abbatissam fuisse electam et electionem de se factam a capitulo Capuane ecclesie confirmatam, super abbatia ipsius monasterii inter easdem M. et A. questio est exorta, quam primo bone memorie P[etro] Sabinensi episcopo ac demum eo defuncto dilecto filio magistro Martino Ispano capellano nostro commisimus audiendam. Cumque super eadem abbatia fuisset aliquamdiu litigatum, tandem, questione ipsa pendente, predicta A. viam fuit universe carnis ingressa. Unde prefata M. nobis humiliter supplicavit, ut providere in hac parte sibi de benignitate solita curaremus. Nos igitur, ipsius supplicationibus inclinati, provisionem factam eidem monasterio auctoritate eiusdem legati de ipsa firmam manere volentes, mandamus, quatinus \u2014 premissis nequaquam obstantibus \u2014 provisionem eandem debite auctoritate nostra confirmans ac supplens defectum, si quis in ea extitit, de plenitudine potestatis, amota ab ipso monasterio qualibet illicita detentrice, inducas eam per te vel per alium in possessionem eiusdem abbatie et defendas inductam, faciens sibi a personis eiusdem monasterii obedientiam et reverentiam debitam exhiberi; contradictores \u2014.Dat. Lateran., VI Kalendas Februarii, anno XI\u00b0.\n"
        },
        {
            "type": "edition",
            "value": "Ici reprise de Karl Rodenberg, Epistolae s. XIII e regestis pontificum romanorum selectae, III, Berlin : Weidmann (MGH), 1894, n.\u00a0252, p.\u00a0215."
        },
        {
            "type": "edition_autre",
            "value": "?"
        },
        {
            "type": "regeste",
            "value": "?"
        },
        {
            "type": "bibliographie_generale",
            "value": "?"
        },
        {
            "type": "apparat_critique",
            "value": "?",
            "children": {
                "numero_note": "a"
            }
        },
        {
            "type": "apparat_critique",
            "value": "?",
            "children": {
                "numero_note": "b"
            }
        },
        {
            "type": "apparat_critique",
            "value": "?",
            "children": {
                "numero_note": "c"
            }
        },
        {
            "type": "apparat_critique",
            "value": "?",
            "children": {
                "numero_note": "d"
            }
        },
        {
            "type": "apparat_critique",
            "value": "?",
            "children": {
                "numero_note": "e"
            }
        },
        {
            "type": "apparat_critique",
            "value": "?",
            "children": {
                "numero_note": "f"
            }
        },
        {
            "type": "notes_historiques",
            "value": "?",
            "children": {
                "numero_note": "1"
            }
        },
        {
            "type": "notes_historiques",
            "value": "?",
            "children": {
                "numero_note": "2"
            }
        },
        {
            "type": "notes_historiques",
            "value": "?",
            "children": {
                "numero_note": "3"
            }
        }
    ]
}