{
    "id": 24411,
    "name": "aposcripta-1562",
    "type": "acte",
    "url": "http:\/\/telma-chartes.irht.cnrs.fr\/aposcripta\/notice\/24411",
    "project_slug": "aposcripta",
    "project_label": "APOSCRIPTA \u2013 Lettres des papes",
    "user": "lettrespontificalesadmin",
    "last_update": "2020-10-19 16:27:29",
    "licence": "Attribution - Pas d\u2019Utilisation Commerciale - Partage dans les M\u00eames Conditions 3.0 France (CC BY-NC-SA 3.0 FR) ",
    "licence_url": "https:\/\/creativecommons.org\/licenses\/by-nc-sa\/3.0\/fr\/",
    "elements": [
        {
            "type": "pape",
            "value": "Innocent IV (1243-1254)"
        },
        {
            "type": "date_lieu",
            "value": "Latran"
        },
        {
            "type": "date_libre",
            "value": "27\u00a0janvier 1244"
        },
        {
            "type": "date",
            "value": " 1244\/01\/27",
            "children": {
                "date_deb_annee": "1244",
                "date_deb_mois": "01",
                "date_deb_jour": "27"
            },
            "range": {
                "date_apres": 12440127,
                "date_avant": 12440127
            }
        },
        {
            "type": "analyse",
            "value": "Innocent\u00a0IV confirme l\u2019absolution donn\u00e9e \u00e0 Raimond Gaucelm, seigneur de Lunel."
        },
        {
            "type": "transcription",
            "value": "<?xml version=\"1.0\" encoding=\"UTF-8\"?>\nNobili viro Raimundo Gaucelmi, domino Lunelli, Magalonensis diocesis.Cum a nobis petitur etc., usque effectum.Constitutus siquidem in presentia nostra, nobis humiliter supplicasti ut, cum venerabilis frater noster .. archiepiscopus Baren., de speciali mandato nostro, ab omnibus excommunicationum sententiis in personam tuam quacumque auctoritate prolatis, recepta prius a te de parendo mandatis Ecclesie juratoria cautione, te duxerit juxta formam Ecclesie absolvendum, id apostolico dignaremur munimine roborare.Tuis igitur supplicationibus inclinati, absolutionem eandem, ab eodem archiepiscopo de speciali mandato nostro factam, auctoritate apostolica confirmamus, et presentis scripti patrocinio communimus.Nulli igitur nostre confirmationis etc. Si quis autem etc. Datum Laterani, vi kalendas februarii, anno primo.\n"
        },
        {
            "type": "edition",
            "value": "Julien Rouquette, Augustin Villemagne, <i>Bullaire de l'\u00c9glise de Maguelone<\/i>, Paris, Montpellier : Picard, Valat, 1911-1914, II, n. 383, p. 232-232"
        },
        {
            "type": "remarques",
            "value": "Nous devons cette bulle \u00e0 l\u2019obligeance de notre confr\u00e8re et ami, M. l\u2019abb\u00e9 <span class=\"small-caps\">F. Bourret<\/span>, chapelain \u00e0 Saint-Louis des Fran\u00e7ais, qui a bien voulu la copier sur l\u2019original, ainsi que trois autres de ce m\u00eame Pape que nous lui avons demand\u00e9es. <span class=\"small-caps\">\u00c9lie Berger<\/span> n\u2019avait publi\u00e9 que les trois premiers mots de la bulle, avec un court sommaire. La bulle enti\u00e8re ne nous renseigne nullement sur le fait pr\u00e9cis pour lequel ce seigneur de Lunel avait \u00e9t\u00e9 excommuni\u00e9. Il n\u2019est pas douteux, cependant, qu\u2019il ne s\u2019agisse de Raimond Gaucelm\u00a0V (Cf. abb\u00e9 <span class=\"small-caps\">Rouet<\/span>, <i>Notice sur la ville de Lunel<\/i>, pp.\u00a0109 et sq.).\n\n[Rouquette-Villemagne]"
        },
        {
            "type": "bibliographie_generale",
            "value": "<span class=\"small-caps\">\u00c9lie Berger<\/span>, <i>Registres d\u2019Innocent\u00a0IV<\/i>, t.\u00a0I, p.\u00a073, n\u00b0\u00a0409.",
            "children": {
                "numero_note": "0"
            }
        },
        {
            "type": "genre",
            "value": "Bulle"
        }
    ]
}