{
    "id": 149424,
    "name": "aposcripta-8987",
    "type": "acte",
    "url": "http:\/\/telma-chartes.irht.cnrs.fr\/aposcripta\/notice\/149424",
    "project_slug": "aposcripta",
    "project_label": "APOSCRIPTA \u2013 Lettres des papes",
    "user": "lettrespontificalesadmin",
    "last_update": "2020-10-19 16:39:58",
    "licence": "Attribution - Pas d\u2019Utilisation Commerciale - Partage dans les M\u00eames Conditions 3.0 France (CC BY-NC-SA 3.0 FR) ",
    "licence_url": "https:\/\/creativecommons.org\/licenses\/by-nc-sa\/3.0\/fr\/",
    "elements": [
        {
            "type": "pape",
            "value": "Innocent IV (1243-1254)"
        },
        {
            "type": "destinataire",
            "value": ". . episcopo Frisingensi"
        },
        {
            "type": "date_libre",
            "value": "X kalendas iulii, anno decimo"
        },
        {
            "type": "date",
            "value": " 1253\/06\/22",
            "children": {
                "date_deb_annee": "1253",
                "date_deb_mois": "06",
                "date_deb_jour": "22"
            },
            "range": {
                "date_apres": 12530622,
                "date_avant": 12530622
            }
        },
        {
            "type": "date_lieu",
            "value": "Asisii"
        },
        {
            "type": "sources_manuscrites",
            "value": "R. CIT\u00c9 DU VATICAN, Archivio Segreto Vaticano, <hi rend=\"italic\">Registra Vaticana<\/hi> ... Inn.\u00a0IV Reg. Vol.\u00a0II, 283; Lib.\u00a0X, 785. Pertzii exemplar contulimus cum Regestis.",
            "children": {
                "type_source": "Registre de la chancellerie apostolique"
            }
        },
        {
            "type": "genre",
            "value": "Mandement (littere cum filo canapis)"
        },
        {
            "type": "analyse",
            "value": "Innocentius IV papa [Conrado] episcopo Frisingensi, cuius proventus per [Ottonem II] ducem Bawariae aliosque valde diminuti sint, concedit, ut redditus beneficiorum diocesis suae usque ad triennium vacantium per annum retinere possit [Rodenberg]."
        },
        {
            "type": "transcription",
            "value": "<?xml version=\"1.0\" encoding=\"UTF-8\"?>\n. . episcopo Frisingensi.Meritis tue probitatis et devotionis inducimur, ut te sincere dilectionis brachiis amplectentes, petitionibus tuis, quantum cum Deo possumus, favorabiliter annuamus. Cum igitur, sicut ex tenore tue petitionis accepimus, ecclesie tue redditus et proventus per nobilem virum . . ducem Bawarie ac alios inimicos ecclesie sint adeo diminuti, quod ex eis nequeas penitus sustentari, maxime cum pro custodia et defensione castrorum eiusdem ecclesie te oporteat gravia subire onera expensarum, nos, dignum arbitrantes et congruum ut super hoc in nobis remedium invenisse gaudeas oportunum, presentium tibi auctoritate concedimus, ut redditus beneficiorum tue civitatis et diocesis vacantium usque ad triennium per unum annum pro sustentatione tua et defensione castrorum ipsorum \u2014 non obstantibus aliquibus indulgentiis quibuscumque personis ab apostolica sede concessis \u2014 possis libere retinere; proviso quod interim eadem beneficia debitis obsequiis non fraudentur. Nulli etc. nostre concessionis etc.Dat. Asisii, X Kalendas Iulii, anno decimo.\n"
        },
        {
            "type": "edition",
            "value": "Ici reprise de Karl Rodenberg, Epistolae s. XIII e regestis pontificum romanorum selectae, III, Berlin : Weidmann (MGH), 1894, n.\u00a0212, p.\u00a0184."
        },
        {
            "type": "edition_autre",
            "value": "?"
        },
        {
            "type": "regeste",
            "value": "?"
        },
        {
            "type": "bibliographie_generale",
            "value": "?"
        },
        {
            "type": "apparat_critique",
            "value": "?",
            "children": {
                "numero_note": "a"
            }
        },
        {
            "type": "apparat_critique",
            "value": "?",
            "children": {
                "numero_note": "b"
            }
        },
        {
            "type": "apparat_critique",
            "value": "?",
            "children": {
                "numero_note": "c"
            }
        },
        {
            "type": "apparat_critique",
            "value": "?",
            "children": {
                "numero_note": "d"
            }
        },
        {
            "type": "apparat_critique",
            "value": "?",
            "children": {
                "numero_note": "e"
            }
        },
        {
            "type": "apparat_critique",
            "value": "?",
            "children": {
                "numero_note": "f"
            }
        },
        {
            "type": "notes_historiques",
            "value": "?",
            "children": {
                "numero_note": "1"
            }
        },
        {
            "type": "notes_historiques",
            "value": "?",
            "children": {
                "numero_note": "2"
            }
        },
        {
            "type": "notes_historiques",
            "value": "?",
            "children": {
                "numero_note": "3"
            }
        }
    ]
}