{
    "id": 148216,
    "name": "aposcripta-7832",
    "type": "acte",
    "url": "http:\/\/telma-chartes.irht.cnrs.fr\/aposcripta\/notice\/148216",
    "project_slug": "aposcripta",
    "project_label": "APOSCRIPTA \u2013 Lettres des papes",
    "user": "l_valliere",
    "last_update": "2020-10-19 16:39:42",
    "licence": "Attribution - Pas d\u2019Utilisation Commerciale - Partage dans les M\u00eames Conditions 3.0 France (CC BY-NC-SA 3.0 FR) ",
    "licence_url": "https:\/\/creativecommons.org\/licenses\/by-nc-sa\/3.0\/fr\/",
    "elements": [
        {
            "type": "pape",
            "value": "Cl\u00e9ment IV (1265-1268)"
        },
        {
            "type": "destinataire",
            "value": "Le citoyen de Sienne Giacomo, fils de <i>Diusalvi<\/i>"
        },
        {
            "type": "date_libre",
            "value": "nonis julii, anno quarto"
        },
        {
            "type": "date",
            "value": "1268\/07\/07",
            "children": {
                "date_deb_annee": "1268",
                "date_deb_mois": "07",
                "date_deb_jour": "07"
            },
            "range": {
                "date_apres": 12680707,
                "date_avant": 12680707
            }
        },
        {
            "type": "date_lieu",
            "value": "Viterbe"
        },
        {
            "type": "genre",
            "value": "Titre, g\u00e9n\u00e9ral (littere gratiose, cum filo serico)"
        },
        {
            "type": "analyse",
            "value": "Concedit ei judicatus et tabellionatus officia, cum potestate dandi tutores et curatores, et decreta interponendi, alimenta decernendi, testes recipiendi, et publicandi instrumenta, acta et protocolla exemplandi, necnon et auctoritatem prestandi emancipare, manumittere, adoptare volentibus [Jordan].\nClemens IV. an Iacobus, Sohn des verstorbenen Diusalvi, B\u00fcrger von Siena: \u00fcbertr\u00e4gt ihm das Richter- und des Notarsamtes [Thumser]."
        },
        {
            "type": "sources_manuscrites",
            "value": "R<sup>1<\/sup>. CIT\u00c9 DU VATICAN, Archivio segreto Vaticano, <i>Registra Vaticana<\/i> 30, fol. 83v.",
            "children": {
                "type_source": "Formulaire, collection de lettres m\u00e9di\u00e9vale"
            }
        },
        {
            "type": "sources_manuscrites",
            "value": "R<sup>2<\/sup>. CIT\u00c9 DU VATICAN, Archivio segreto Vaticano, <i>Registra Vaticana<\/i> 33, ep. 512, fol. 81v.",
            "children": {
                "type_source": "Formulaire, collection de lettres m\u00e9di\u00e9vale"
            }
        },
        {
            "type": "sources_manuscrites",
            "value": "R<sup>3<\/sup>. CIT\u00c9 DU VATICAN, Archivio segreto Vaticano, <i>Registra Vaticana<\/i> 34, fol. 128.",
            "children": {
                "type_source": "Formulaire, collection de lettres m\u00e9di\u00e9vale"
            }
        },
        {
            "type": "sources_manuscrites",
            "value": "R<sup>4<\/sup>. CIT\u00c9 DU VATICAN, Archivio segreto Vaticano, <i>Registra Vaticana<\/i> 35, ep. 450, fol. 82v (<i>Dat. etc.<\/i>).",
            "children": {
                "type_source": "Formulaire, collection de lettres m\u00e9di\u00e9vale"
            }
        },
        {
            "type": "edition",
            "value": "Ici reprise de Mathias Thumser, <i>Die Briefe Papst Clemens\u2019 IV. (1265-1268)<\/i>, Vorl\u00e4ufige Edition, MGH, 2015, n. 520."
        },
        {
            "type": "regeste",
            "value": "Potthast, <i>Regesta pontificum Romanorum<\/i>, n. 20409 <a target=\"_blank\" href=\"https:\/\/archive.org\/stream\/RegestaPontificumRomanorum\/ph#page\/n1657\/mode\/2up\"> [en ligne]<\/a>."
        },
        {
            "type": "bibliographie_generale",
            "value": "Mathias Thumser, \u00ab Zur \u00dcberlieferungsgeschichte der Briefe Clemens'IV. (1265-1268) \u00bb, <i>Deutsches Archiv f\u00fcr Erforschung des Mittelalters<\/i>, 51\/1, 1995, p. 115-168."
        },
        {
            "type": "transcription",
            "value": "<?xml version=\"1.0\" encoding=\"UTF-8\"?>\nDilecto filio Iacobo nato quondam Diusalvi civi Senensi. Cum emula iuris alieni cupiditas novas cotidie pariat questiones, ne immortales existerent et vitam litigantium superarent, congrua fuit deliberatione provisum, ut certe persone ad iudicatus sumerentur officium, per quas orte lites fine debito sopirentur, sed et, ne contractuum memoria deperiret, inventum est tabellionatus officium, quo contractus legitimi ad cautelam presentium et memoriam futurorum manu publica notarentur. Hinc est quod predicta iudicatus et tabellionatus officia cum potestate dandi tutores et curatores, decreta interponendi, alimenta decernendi, testes recipiendi et publicandi instrumenta, acta et protocolla exemplandi necnon et auctoritatem prestandi emancipare, manumittere et adoptare volentibus, ad que fuisti repertus idoneus, tibi duximus concedenda, ut illa prudenter et fideliter exequaris et ad te, cum necesse fuerit, in omnibus que ad officia ipsa pertinent recurratur. Nulli ergo et cetera nostre concessionis et cetera. Datum Viterbii, nonis iulii, anno IIII.\n"
        },
        {
            "type": "edition_autre",
            "value": "Edmond Mart\u00e8ne, Ursin Durand, <i>Thesaurus novus anecdotorum<\/i>, Paris, 1717, II, n. 670, col. 613 <a target=\"_blank\" href=\"https:\/\/archive.org\/stream\/ThesaurusNovusAnecdotorum2\/Thesaurus_novus_anecdotorum_2#page\/n341\/mode\/2up\"> [en ligne]<\/a>."
        },
        {
            "type": "regeste",
            "value": "\u00c9douard Jordan, <i>Les registres de Cl\u00e9ment IV (1265-1268)<\/i>, Paris, 1893-1945, n. 1389, d\u2019apr\u00e8s R<sup>1<\/sup>, R<sup>2<\/sup>, R<sup>3<\/sup> et R<sup>4<\/sup>."
        }
    ]
}