{
    "id": 20521,
    "name": "aposcripta-508",
    "type": "acte",
    "url": "http:\/\/telma-chartes.irht.cnrs.fr\/aposcripta\/notice\/20521",
    "project_slug": "aposcripta",
    "project_label": "APOSCRIPTA \u2013 Lettres des papes",
    "user": "lettrespontificalesadmin",
    "last_update": "2020-10-19 16:26:50",
    "licence": "Attribution - Pas d\u2019Utilisation Commerciale - Partage dans les M\u00eames Conditions 3.0 France (CC BY-NC-SA 3.0 FR) ",
    "licence_url": "https:\/\/creativecommons.org\/licenses\/by-nc-sa\/3.0\/fr\/",
    "elements": [
        {
            "type": "pape",
            "value": "G\u00e9lase I (492-496)"
        },
        {
            "type": "date_lieu",
            "value": "n.c."
        },
        {
            "type": "date_libre",
            "value": "494 ex-495 Aug"
        },
        {
            "type": "analyse",
            "value": "Gelasius\u00a0I Teiae comiti scribit, Eucharistum, cum in curia apostolica fuisset non praesente accusatore, de novo evocatum esse, ut criminationibus sese purgaret. Quae comes obiecit, Faustum antea Eucharisto familiarem fuisse cet., ea refutat. Hortatur, ne causis ecclesiasticis sese intromittat.<a class=\"note\" href=\"#note-1\">1<\/a>"
        },
        {
            "type": "transcription",
            "value": "<?xml version=\"1.0\" encoding=\"UTF-8\"?>\nItem. Nobilitatem tuam cet. ut in Neues Archiv V. 514.\n"
        },
        {
            "type": "edition",
            "value": "Samuel Loewenfeld, <i>Epistolae pontificum romanorum ineditae<\/i>, Leipzig : Veit et Comp., 1885, n. 9, p. 6"
        },
        {
            "type": "sources_manuscrites",
            "value": "Coll. Brit. Gel. ep.\u00a014, l.\u00a0l. fol.\u00a011."
        },
        {
            "type": "notes_historiques",
            "value": "Cf. Jaff\u00e9 ed. sec.\u00a0650.",
            "children": {
                "numero_note": "1"
            }
        },
        {
            "type": "apparat_critique",
            "value": "<i>an<\/i> non\u00a0?",
            "children": {
                "numero_note": "a"
            }
        },
        {
            "type": "apparat_critique",
            "value": "ob <i>aliena manu supra linea additum est<\/i>.",
            "children": {
                "numero_note": "B"
            }
        },
        {
            "type": "apparat_critique",
            "value": "ma <i>superscriptum est<\/i>.",
            "children": {
                "numero_note": "c"
            }
        },
        {
            "type": "apparat_critique",
            "value": "<i>superscriptum est<\/i> nos.",
            "children": {
                "numero_note": "d"
            }
        },
        {
            "type": "apparat_critique",
            "value": "comoverunt.",
            "children": {
                "numero_note": "e"
            }
        },
        {
            "type": "apparat_critique",
            "value": "convincit <i>c.<\/i>",
            "children": {
                "numero_note": "f"
            }
        },
        {
            "type": "date",
            "value": "apr\u00e8s 0494\/09 - avant 0495\/08",
            "children": {
                "date_deb_annee": "0494",
                "date_deb_mois": "09",
                "date_deb_type": "apres",
                "date_fin_annee": "0495",
                "date_fin_mois": "08",
                "date_fin_type": "avant"
            },
            "range": {
                "date_apres": 4940900,
                "date_avant": 4950899
            }
        },
        {
            "type": "genre",
            "value": "Bulle"
        }
    ]
}