{
    "id": 20693,
    "name": "aposcripta-680",
    "type": "acte",
    "url": "http:\/\/telma-chartes.irht.cnrs.fr\/aposcripta\/notice\/20693",
    "project_slug": "aposcripta",
    "project_label": "APOSCRIPTA \u2013 Lettres des papes",
    "user": "lettrespontificalesadmin",
    "last_update": "2020-10-19 16:26:52",
    "licence": "Attribution - Pas d\u2019Utilisation Commerciale - Partage dans les M\u00eames Conditions 3.0 France (CC BY-NC-SA 3.0 FR) ",
    "licence_url": "https:\/\/creativecommons.org\/licenses\/by-nc-sa\/3.0\/fr\/",
    "elements": [
        {
            "type": "pape",
            "value": "Innocent II (1130-1143)"
        },
        {
            "type": "date_lieu",
            "value": "Pise"
        },
        {
            "type": "date_libre",
            "value": "II idus junii"
        },
        {
            "type": "analyse",
            "value": "Innocentius\u00a0II Hugoni episcopo Altissiodorensi et Hugoni abbati Pontiniacensi mandat, ut inter abbates S. Petri vivi et S. Iohannis Senonenses et S. Iohannis Pratensem d. 4.\u00a0Augusti iudicent\u00a0; quod si fieri nequierit, abbates proximis Idibus Martii ad sese accedere iubet."
        },
        {
            "type": "transcription",
            "value": "<?xml version=\"1.0\" encoding=\"UTF-8\"?>\nInnocentius episcopus servus servorum Dei venerabilibus fratribus Hugoni Altissiodorensi episcopo et Hugoni Pontiniacensi abbati salutem et apostolicam benedictionem. Inter dilectum filium nostrum Herbertum sancti Petri vivi, Raimundum sancti Iohannis Senonensis et E.a sancti Iohannis de Prato abbates super quibusdam capitulis controversia agitatur, quam profecto prudentiae vestrae duximus committendam, ut videlicet pridie Nonas proximi Augusti eosdem faciatis ante vestram praesentiam convenire et, auditis hinc inde rationibus, quod iustitia dictaverit, decernatis. Quod si inter praefatos abbates per iustitiam vel concordiam componi non poterit, proximis Martii Idibus nostro se conspectui repraesentent, quod iustitia dictaverit, exequi praeparati. Praefatum autem sancti Petri vivi abbatemb, qui de vestrac benignitate erga se nobis bona plurima nunciavit et de vobis valde confidit, pro nostra reverentia habeatis attentius commendatum. Data Pisis II Idus Iunii.\n"
        },
        {
            "type": "edition",
            "value": "Samuel Loewenfeld, <i>Epistolae pontificum romanorum ineditae<\/i>, Leipzig : Veit et Comp., 1885, n. 181, p. 92"
        },
        {
            "type": "sources_manuscrites",
            "value": "Bibl. nat. Paris. Coll. Baluze 46 fol.\u00a0390<sup>b<\/sup> manu s.\u00a0<span class=\"smal-caps\">xvii<\/span>.",
            "children": {
                "type_source": "Copie moderne"
            }
        },
        {
            "type": "apparat_critique",
            "value": "<i>an<\/i> G.\u00a0? <i>vide ep.\u00a0183<\/i>",
            "children": {
                "numero_note": "a"
            }
        },
        {
            "type": "apparat_critique",
            "value": "abbatem <i>addidi<\/i>.",
            "children": {
                "numero_note": "b"
            }
        },
        {
            "type": "apparat_critique",
            "value": "nostra <i>c.<\/i>",
            "children": {
                "numero_note": "c"
            }
        },
        {
            "type": "date",
            "value": "apr\u00e8s 1134\/06\/12 - avant 1136\/06\/12",
            "children": {
                "date_deb_annee": "1134",
                "date_deb_mois": "06",
                "date_deb_jour": "12",
                "date_deb_type": "apres",
                "date_fin_annee": "1136",
                "date_fin_mois": "06",
                "date_fin_jour": "12",
                "date_fin_type": "avant"
            },
            "range": {
                "date_apres": 11340612,
                "date_avant": 11360612
            }
        },
        {
            "type": "genre",
            "value": "Mandement (littere cum filo canapis)"
        },
        {
            "type": "destinataire",
            "value": "L'\u00e9v\u00eaque d'Auxerre Hugues et l'abb\u00e9 de Pontigny Hugues"
        }
    ]
}