{
    "id": 20155,
    "name": "aposcripta-142",
    "type": "acte",
    "url": "http:\/\/telma-chartes.irht.cnrs.fr\/aposcripta\/notice\/20155",
    "project_slug": "aposcripta",
    "project_label": "APOSCRIPTA \u2013 Lettres des papes",
    "user": "lettrespontificalesadmin",
    "last_update": "2020-10-19 16:26:45",
    "licence": "Attribution - Pas d\u2019Utilisation Commerciale - Partage dans les M\u00eames Conditions 3.0 France (CC BY-NC-SA 3.0 FR) ",
    "licence_url": "https:\/\/creativecommons.org\/licenses\/by-nc-sa\/3.0\/fr\/",
    "elements": [
        {
            "type": "date_lieu",
            "value": "Fondi"
        },
        {
            "type": "date_libre",
            "value": "18 d\u00e9cembre 1378"
        },
        {
            "type": "analyse",
            "value": "Litterae Clementis VII de legatione Guillelmi de Agrifolio cardinalis ad regna Bohemiae et Alamanniae."
        },
        {
            "type": "transcription",
            "value": "<?xml version=\"1.0\" encoding=\"UTF-8\"?>\nClemens, episcopus, servus servorum Dei, dilecto filio Guillelmo, tituli Sancti Stephani in Celio monte presbitero cardinali, apostolice Sedis legato, salutem et apostolicam benedictionem.Cum te ad regnum Bohemie ac Alamanie et nonnullas alias partes atque terras in nostris inde confectis literis expressas, commisso tibi plene legationis in illis officio, duxerimus destinandum, et, sicut accepimus, in eisdem regnis, partibus atque terris sint nonnulle persone ecclesiastice tam seculares quam regulares que scelerato viro Bartholomeo, olim Barensi archiepiscopo, in Sedem apostolicam violenter intruso pertinaciter adheserunt et faverunt, adherent et favent, et literis suis usi fuerunt et utuntur, ad gremium sancte romane Ecclesie regredi non curantes, nos, attendentes quia sicut favorem devotio promeretur, sic indevotis ac rebellibus est favor merito subtrahendus ac cupientes hujusmodi temerariis ausibus obviare, circumspectioni tue, de qua in hiis et aliis fiduciam gerimus in Domino specialem, procedendi auctoritate apostolica contra omnes et singulas hujusmodi personas prout de jure tibi videbitur faciendum ac alias ipsarum de quibus tibi legitime, informatione summaria precedente, constiterit, quia in hujusmodi adhesione et fautoria pertinaci rebellione perstiterint, et ab illis desistere ac literas hujusmodi quibus usi fuerint et utuntur, ut prefertur, canonice moniti restituere noluerint, a suis officiis et beneficiis ecclesiasticis, etiamsi dignitates, personatus vel officia cum cura aut sine cura fuerint, privandi et perpetuo amovendi ab eisdem, necnon beneficia ipsa, cum ea per privationem vel amotionem hujusmodi vacare contigerit, singula videlicet eorum cum omnibus juribus et pertinentiis suis singulis personis ydoneis quas ad hoc duxeris eligendas, dummodo non sit in eisdem beneficiis seu ad illa alicui specialiter jus quesitum, auctoritate predicta conferendi et de illis etiam providendi, etiamsi singule persone hujusmodi unum vel duo aut tria seu plura aut unicum vel duo dumtaxat beneficium ecclesiasticum vel ecclesiastica, et cetera, invocato ad hoc si opus fuerit auxilio brachii secularis, non obstantibus quibuscumque statutis et consuetudinibus ecclesiarum in quibus hujusmodi beneficia fuerint forsan contrariis juramento, confirmatione apostolica, vel quacumque firmitate alia roboratis, et cetera. Datum Fundis, XV kalendas januarii, pontificatus nostri anno primo.\n"
        },
        {
            "type": "edition",
            "value": "\u00c9tienne Baluze, Guillaume Mollat, <i>Vitae paparum Avenionensium. Nouvelle \u00e9dition revue d'apr\u00e8s les manuscrits et compl\u00e9t\u00e9e de notes critiques<\/i>, Paris : Letouzey et An\u00e9, 1914-1922, IV, n. CXCVII, p. 194-195."
        },
        {
            "type": "sources_manuscrites",
            "value": "Ex archivo monasterii Helenensis (Baluze). Pi\u00e8ce non retrouv\u00e9e (Mollat)."
        },
        {
            "type": "pape",
            "value": "Cl\u00e9ment VII (antipape ; 1378-1394)"
        },
        {
            "type": "date",
            "value": "1378\/12\/18",
            "children": {
                "date_deb_annee": "1378",
                "date_deb_mois": "12",
                "date_deb_jour": "18"
            },
            "range": {
                "date_apres": 13781218,
                "date_avant": 13781218
            }
        },
        {
            "type": "genre",
            "value": "Lettre"
        },
        {
            "type": "destinataire",
            "value": "Le cardinal-pr\u00eatre de Saint-Etienne au mont Celio Guillaume, l\u00e9gat du Si\u00e8ge apostolique, "
        },
        {
            "type": "genre",
            "value": "Bulle"
        }
    ]
}