{
    "id": 25912,
    "name": "aposcripta-3009",
    "type": "acte",
    "url": "http:\/\/telma-chartes.irht.cnrs.fr\/aposcripta\/notice\/25912",
    "project_slug": "aposcripta",
    "project_label": "APOSCRIPTA \u2013 Lettres des papes",
    "user": "lettrespontificalesadmin",
    "last_update": "2020-10-19 16:27:50",
    "licence": "Attribution - Pas d\u2019Utilisation Commerciale - Partage dans les M\u00eames Conditions 3.0 France (CC BY-NC-SA 3.0 FR) ",
    "licence_url": "https:\/\/creativecommons.org\/licenses\/by-nc-sa\/3.0\/fr\/",
    "elements": [
        {
            "type": "pape",
            "value": "Eug\u00e8ne III (1145-1153)"
        },
        {
            "type": "destinataire",
            "value": "( )",
            "children": {
                "numero_note": "0"
            }
        },
        {
            "type": "date_lieu",
            "value": "n.c."
        },
        {
            "type": "date_libre",
            "value": "1145-1153"
        },
        {
            "type": "date",
            "value": "apr\u00e8s 1145 - avant 1153",
            "children": {
                "date_deb_annee": "1145",
                "date_deb_type": "apr\u00e8s",
                "date_fin_annee": "1153",
                "date_fin_type": "avant"
            },
            "range": {
                "date_apres": 11450000,
                "date_avant": 11539999
            }
        },
        {
            "type": "analyse",
            "value": "X pape<br\/>Bref d\u2019Eugene III. qui confirme cette donation."
        },
        {
            "type": "transcription",
            "value": "<?xml version=\"1.0\" encoding=\"UTF-8\"?>\nEugenius Episcopus servus servorum Dei, dilecto filio Petro Trenorchiensi Abbati salutem &amp; apostolicam benedictionem. Qu\u00e6 \u00e0 fratribus nostris Episcopis rationabili providentia fiunt, in sua volumus stabilitate subsistere, &amp; ut futuris observentur temporibus, confirmationis nostr\u00e6 munimine roborare. Quocirc\u00e0, dilecte in Domino fili, tuis justis postulationibus gratum impertientes assensum, donationem Ecclesi\u00e6 de Moncellis quam Petrus bon\u00e6 memori\u00e6, &amp; Ubertus Lugdunenses Archiepiscopi monasterio tuo fecisse, &amp; scripti sui pagina roborasse noscuntur, tibi, &amp; per te ipsi monasterio, auctoritate Sedis Apostolic\u00e6 confirmamus, &amp; ratam in posterum permanere decernimus, salva Lugdunensis Ecclesi\u00e6 canonica justitia, &amp; debita reverentia. Nulli ergo omnin\u00f2 hominum liceat hujus nostr\u00e6 confirmationis paginam temerario ausu infringere, seu modis quibuslibet perturbare. Si quis autem id attentare pr\u00e6sumpserit, indignationem omnipotentis Dei &amp; beatorum Petri &amp; Pauli Apostolorum ejus incurrat. Datum Rom\u00e6 apud Sanctum Petrum VIII. Idus Junii. -- In plumbo -- EUGENIUS Papa III.\n"
        },
        {
            "type": "edition",
            "value": "Ici tir\u00e9e du projet <i>CBMA - Corpus Burgundiae Medii Aevi<\/i>, document 9504. Site du projet Corpus de la Bourgogne du Moyen \u00c2ge, [En ligne] <a href=\"http:\/\/www.cbma-project.eu\" target=\"_blank\">http:\/\/www.cbma-project.eu<\/a>  "
        },
        {
            "type": "sources_manuscrites",
            "value": "\u00e0 renseigner."
        },
        {
            "type": "remarques",
            "value": ""
        },
        {
            "type": "edition_autre",
            "value": "Ici reprise de Pierre Ju\u00e9nin, <i>Nouvelle Histoire de l'abbaye royale et coll\u00e9giale de Saint-Filibert et de la ville de Tournus...<\/i>, Dijon : Preuves, 1733, p. 164.",
            "children": {
                "numero_note": "0"
            }
        },
        {
            "type": "genre",
            "value": "Bulle"
        },
        {
            "type": "genre",
            "value": "Lettre"
        }
    ]
}