{
    "id": 24340,
    "name": "aposcripta-1491",
    "type": "acte",
    "url": "http:\/\/telma-chartes.irht.cnrs.fr\/aposcripta\/notice\/24340",
    "project_slug": "aposcripta",
    "project_label": "APOSCRIPTA \u2013 Lettres des papes",
    "user": "lettrespontificalesadmin",
    "last_update": "2020-10-19 16:27:28",
    "licence": "Attribution - Pas d\u2019Utilisation Commerciale - Partage dans les M\u00eames Conditions 3.0 France (CC BY-NC-SA 3.0 FR) ",
    "licence_url": "https:\/\/creativecommons.org\/licenses\/by-nc-sa\/3.0\/fr\/",
    "elements": [
        {
            "type": "pape",
            "value": "Gr\u00e9goire IX (1227-1241)"
        },
        {
            "type": "date_lieu",
            "value": "n.c."
        },
        {
            "type": "date_libre",
            "value": "10\u00a0juillet 1228"
        },
        {
            "type": "date",
            "value": " 1228\/07\/10",
            "children": {
                "date_deb_annee": "1228",
                "date_deb_mois": "07",
                "date_deb_jour": "10"
            },
            "range": {
                "date_apres": 12280710,
                "date_avant": 12280710
            }
        },
        {
            "type": "analyse",
            "value": "Gr\u00e9goire\u00a0IX, \u00e0 l\u2019exemple de ses pr\u00e9d\u00e9cesseurs, donne au pr\u00e9v\u00f4t le pouvoir d\u2019obliger, m\u00eame par les censures, les prieurs \u00e0 accepter leur changement."
        },
        {
            "type": "transcription",
            "value": "<?xml version=\"1.0\" encoding=\"UTF-8\"?>\nGregorius episcopus, servus servorum Dei, dilecto filio, preposito Magalonensi, salutem et apostolicam benedictionem.Ad nostram noveris audientiam pervenisse quod, cum a pie recordationis Alexandro Papa, predecessore nostro, super instituendis et destituendis canonicis in ecclesiis ad te et ad capitulum pertinentibus, et super aliis institutio facta fuerit et scripto autentico comprehensa, quidam canonicorum tuorum, obviantes ejus finem, si destituantur, aliquando nichilominus per potentiam suam in ipsis ecclesiis remanent, et eas debitis onerare presumunt.Unde quia non est a nobis in patientiaa tolerandum, ut quod ab eodem predecessore nostro statutum est, temeritate cujuslibet violetur, ad exemplar felicis recordationis Clementis Pape, predecessoris nostri, per hujus scripti paginam discretioni tue duximus indulgendum, ut, si qui predictorum canonicorum contra constitutionem prefatam super hiis temere venire presumpserint, fas tibi sit eos, sine appellationis diffugio, per censuram ecclesiasticam coercere.Datum Perusii, vi\u00b0 idus julii, pontificatus nostri anno secundo.\n"
        },
        {
            "type": "edition",
            "value": "Julien Rouquette, Augustin Villemagne, <i>Bullaire de l'\u00c9glise de Maguelone<\/i>, Paris, Montpellier : Picard, Valat, 1911-1914, II, n. 307-CCXIV, p. 126-126"
        },
        {
            "type": "remarques",
            "value": ""
        },
        {
            "type": "apparat_critique",
            "value": "Priv.\u00a0: <i>pacientia<\/i>.",
            "children": {
                "numero_note": "a"
            }
        },
        {
            "type": "bibliographie_generale",
            "value": "<i>Priv. de Maguelone<\/i>, fol.\u00a05\u00a0r\u00b0",
            "children": {
                "numero_note": "0"
            }
        },
        {
            "type": "bibliographie_generale",
            "value": "mentionn\u00e9e par <span class=\"small-caps\">Germain<\/span>, <i>Maguelone sous ses \u00e9v\u00eaques<\/i>, p.\u00a0179",
            "children": {
                "numero_note": "1"
            }
        },
        {
            "type": "bibliographie_generale",
            "value": "et <span class=\"small-caps\">F. Fabr\u00e8ge<\/span>, <i>Hist. de Maguelone<\/i>, t.\u00a0II, p.\u00a047.",
            "children": {
                "numero_note": "2"
            }
        },
        {
            "type": "genre",
            "value": "Bulle"
        }
    ]
}