{
    "id": 26960,
    "name": "aposcripta-3771",
    "type": "acte",
    "url": "http:\/\/telma-chartes.irht.cnrs.fr\/aposcripta\/notice\/26960",
    "project_slug": "aposcripta",
    "project_label": "APOSCRIPTA \u2013 Lettres des papes",
    "user": "j_theryastruc",
    "last_update": "2020-10-19 16:28:07",
    "licence": "Attribution - Pas d\u2019Utilisation Commerciale - Partage dans les M\u00eames Conditions 3.0 France (CC BY-NC-SA 3.0 FR) ",
    "licence_url": "https:\/\/creativecommons.org\/licenses\/by-nc-sa\/3.0\/fr\/",
    "elements": [
        {
            "type": "pape",
            "value": "Cl\u00e9ment IV (1265-1268)"
        },
        {
            "type": "destinataire",
            "value": "L'abbesse et la communaut\u00e9 du monast\u00e8re Notre-Dame de Flines"
        },
        {
            "type": "date_libre",
            "value": " III nonas decembris, anno tertio. "
        },
        {
            "type": "date",
            "value": " 1267\/12\/03",
            "children": {
                "date_deb_jour": "03",
                "date_deb_mois": "12",
                "date_deb_annee": "1267"
            },
            "range": {
                "date_apres": 12671203,
                "date_avant": 12671203
            }
        },
        {
            "type": "date_lieu",
            "value": "Viterbe"
        },
        {
            "type": "genre",
            "value": "Titre, g\u00e9n\u00e9ral (littere gratiose, cum filo serico)"
        },
        {
            "type": "analyse",
            "value": " Cl\u00e9ment IV permet aux pr\u00eatres du monast\u00e8re de Flines d'administrer les sacrements aux serviteurs et de leur donner la s\u00e9pulture. "
        },
        {
            "type": "sources_manuscrites",
            "value": "F. FRANCE, Lille, Archives d\u00e9partementales du Nord, 31 H. Original sur parchemin, scell\u00e9 de la bulle du pape Cl\u00e9ment IV. ",
            "children": {
                "type_source": "Exp\u00e9dition",
                "source_edition": ""
            }
        },
        {
            "type": "edition",
            "value": "Ici reprise d'Edouard Hautcoeur, <i>Cartulaire de l'abbaye de Flines (1200-1630)<\/i>, I, Lille, Bruxelles, 1873, n. 163, p. 173-174 <a target=\"_blank\" href=\"http:\/\/archive.org\/stream\/cartulairedelab00flingoog#page\/n198\/mode\/2up\">[en ligne]<\/a> (num\u00e9ris\u00e9e par <a target=\"_blank\" href=\"http:\/\/www.cn-telma.fr\/chartae-galliae\/charte206216\/\">Chartae Galliae, n. 206216<\/a>)."
        },
        {
            "type": "transcription",
            "value": "<?xml version=\"1.0\" encoding=\"UTF-8\"?>\nClemens episcopus, servus servorum Dei, dilectis in Christo filiabus abbatisse et conventui monasterii de Felines, Cisterciensis ordinis, Atrebatensis diocesis, salutem et apostolicam benedictionem. Obtentu dilecte in Christo filie nobilis mulieris comitisse Flandrie, monasterii vestri patrone, vobis auctoritate presentium indulgemus ut presbyteri qui pro tempore fuerint pro divinis celebrandis officiis ad vestrum servitium deputati confessiones mercenariorum ipsius monasterii, cum eos infirmari contigerit, audire valeant, et debitam eis absolutionem impendere ac ministrare ipsis ecclesiastica sacramenta et corpora eorum, si decesserint ibidem, in cimiterio predicti monasterii ecclesiastice tradere sepulture, dumtamen eam inibi duxerint eligendam, ecclesie cui debita fuerit canonica justitia semper salva, presentibus post quinquennium minime valituris. Nulli ergo omnino hominum liceat hanc nostre concessionis paginam infringere vel ei ausu temerario contraire. Si quis autem hoc attemptare presumpserit, indignationem omnipotentis Dei et beatorum Petri et Pauli apostolorum ejus se noverit incursurum. Datum Viterbii, III nonas decembris, pontificatus nostri anno tertio.\n"
        }
    ]
}