{
    "id": 149177,
    "name": "aposcripta-8740",
    "type": "acte",
    "url": "http:\/\/telma-chartes.irht.cnrs.fr\/aposcripta\/notice\/149177",
    "project_slug": "aposcripta",
    "project_label": "APOSCRIPTA \u2013 Lettres des papes",
    "user": "lettrespontificalesadmin",
    "last_update": "2020-10-19 16:39:54",
    "licence": "Attribution - Pas d\u2019Utilisation Commerciale - Partage dans les M\u00eames Conditions 3.0 France (CC BY-NC-SA 3.0 FR) ",
    "licence_url": "https:\/\/creativecommons.org\/licenses\/by-nc-sa\/3.0\/fr\/",
    "elements": [
        {
            "type": "pape",
            "value": "Innocent IV (1243-1254)"
        },
        {
            "type": "destinataire",
            "value": ".. abbati et conventui monasterii Morbacensis, ad Romanam ecclesiam nullo medio pertinentis, ordinis sancti Benedicti Basiliensis diocesis"
        },
        {
            "type": "date_libre",
            "value": "II idus septembris, anno VIII"
        },
        {
            "type": "date",
            "value": " 1250\/09\/12",
            "children": {
                "date_deb_annee": "1250",
                "date_deb_mois": "09",
                "date_deb_jour": "12"
            },
            "range": {
                "date_apres": 12500912,
                "date_avant": 12500912
            }
        },
        {
            "type": "date_lieu",
            "value": "Lugduni"
        },
        {
            "type": "sources_manuscrites",
            "value": "R. CIT\u00c9 DU VATICAN, Archivio Segreto Vaticano, <hi rend=\"italic\">Registra Vaticana<\/hi> ... Inn.\u00a0IV Reg. Vol.\u00a0II, 14\u00a0; Lib.\u00a0VIII, 76. Pertzii exemplar contulimus cum illo, quod Berger edidit.",
            "children": {
                "type_source": "Registre de la chancellerie apostolique"
            }
        },
        {
            "type": "genre",
            "value": "Mandement (littere cum filo canapis)"
        },
        {
            "type": "analyse",
            "value": "Innocentius IV papa abbati et conventui Murbacensibus ad preces [Henrici III] episcopi Argentinensis indulget, ut cum propter negotium ecclesiae plurima onera expensarum sustinuerint, unam vel duas de ecclesiis suis, curam animarum habentibus, quarum redditus quinquaginta marcarum valentiam annuatim non excedant, cum vacaverint, in usus proprios convertant [Rodenberg]."
        },
        {
            "type": "transcription",
            "value": "<?xml version=\"1.0\" encoding=\"UTF-8\"?>\n.. abbati et conventui monasterii Morbacensis, ad Romanam ecclesiam nullo medio pertinentis, ordinis sancti Benedicti Basiliensis diocesis.Ad faciendam vobis gratiam specialem venerabilis fratris nostri .. episcopi Argentinensis devota precamina et sinceritatis vestre devotio, quam ad nos specialiter et Romanam ecclesiam habere noscimini, nos inducunt. Cum itaque, sicut ex parte vestra fuit propositum coram nobis, monasterium vestrum propter negotium ecclesie quod nunc agitur labores plurimos et onera sustinuerit expensarum, nos, hoc non indigne pensantes ac volentes labores et onera huiusmodi de consueta sedis apostolice clementia relevare, ut unam de vestris ecclesiis, in quibus ius patronatus habetis, habentibus curam animarum annexam, cuius redditus secundum communem extimationem quinquaginta marcarum valentiam annis singulis non excedant, vel duas ex eisdem ecclesiis, que simul sint valoris eiusdem, cum eam vel eas vacare contigerit, in usus proprios convertere ac perpetuo retinere et ipsius vel ipsarum possessionem nullius requisito assensu apprehendere corporalem libere valeatis, auctoritate vobis presentium indulgemus \u2014 non obstantibus aliquibus indulgentiis seu litteris a sede apostolica vel eius legatis pro quibuslibet impetratis, de quibus expressam vel plenam sub quacumque forma verborum oporteat in litteris nostris fieri mentionem, seu etiam impetrandis \u2014; proviso quod in eadem ecclesia, si unam tantum, vel in utraque, si duas duxeritis retinendas, per idoneum vicarium presentandum a vobis, prout ad vos pertinet, serviatur, reservata eidem vicario de proventibus ipsius vel earundem ecclesiarum congrua portione ad debita procurationum diocesan[o] et archid[iacono] loci onera supportanda, et in aliis diocesani eiusdem in omnibus iure salvo. Nulli ergo etc. nostre concessionis etc.Dat. Lugduni, II Idus Septembris, anno VIII\u00b0.Datus est eis super hoc conservator .. abbas Sancti Vincentii Bisuntini.\n"
        },
        {
            "type": "edition",
            "value": "Ici reprise de Karl Rodenberg, Epistolae s. XIII e regestis pontificum romanorum selectae, III, Berlin : Weidmann (MGH), 1894, n.\u00a08, p.\u00a07."
        },
        {
            "type": "edition_autre",
            "value": "?"
        },
        {
            "type": "regeste",
            "value": "?"
        },
        {
            "type": "bibliographie_generale",
            "value": "?"
        },
        {
            "type": "apparat_critique",
            "value": "?",
            "children": {
                "numero_note": "a"
            }
        },
        {
            "type": "apparat_critique",
            "value": "?",
            "children": {
                "numero_note": "b"
            }
        },
        {
            "type": "apparat_critique",
            "value": "?",
            "children": {
                "numero_note": "c"
            }
        },
        {
            "type": "apparat_critique",
            "value": "?",
            "children": {
                "numero_note": "d"
            }
        },
        {
            "type": "apparat_critique",
            "value": "?",
            "children": {
                "numero_note": "e"
            }
        },
        {
            "type": "apparat_critique",
            "value": "?",
            "children": {
                "numero_note": "f"
            }
        },
        {
            "type": "notes_historiques",
            "value": "?",
            "children": {
                "numero_note": "1"
            }
        },
        {
            "type": "notes_historiques",
            "value": "?",
            "children": {
                "numero_note": "2"
            }
        },
        {
            "type": "notes_historiques",
            "value": "?",
            "children": {
                "numero_note": "3"
            }
        }
    ]
}