{
    "id": 23959,
    "name": "aposcripta-1139",
    "type": "acte",
    "url": "http:\/\/telma-chartes.irht.cnrs.fr\/aposcripta\/notice\/23959",
    "project_slug": "aposcripta",
    "project_label": "APOSCRIPTA \u2013 Lettres des papes",
    "user": "l_valliere",
    "last_update": "2020-10-19 16:27:20",
    "licence": "Attribution - Pas d\u2019Utilisation Commerciale - Partage dans les M\u00eames Conditions 3.0 France (CC BY-NC-SA 3.0 FR) ",
    "licence_url": "https:\/\/creativecommons.org\/licenses\/by-nc-sa\/3.0\/fr\/",
    "elements": {
        "0": {
            "type": "pape",
            "value": "Alexandre IV (1254-1261)"
        },
        "1": {
            "type": "destinataire",
            "value": "L'\u00e9v\u00eaque de Langres"
        },
        "2": {
            "type": "date_libre",
            "value": "V kalendas martii, anno quarto"
        },
        "3": {
            "type": "date",
            "value": " 1258\/02\/25",
            "children": {
                "date_deb_jour": "25",
                "date_deb_mois": "02",
                "date_deb_annee": "1258"
            },
            "range": {
                "date_apres": 12580225,
                "date_avant": 12580225
            }
        },
        "4": {
            "type": "date_lieu",
            "value": "Viterbe"
        },
        "5": {
            "type": "analyse",
            "value": "Litterae Alexandri papae IV ad episcopum Lingonensem directae de clericis uxores habentibus sive negotiantibus, privilegio immunitatis ecclesiasticae exuendis."
        },
        "6": {
            "type": "sources_manuscrites",
            "value": "E. FRANCE, Paris, Archives nationales, J 198 B\/142. Original scell\u00e9 (bulle de plomb sur cordelettes de chanvre ; <i>Inventaire<\/i>, n. 6049).",
            "children": {
                "type_source": "Exp\u00e9dition"
            }
        },
        "7": {
            "type": "edition",
            "value": "Ici d'apr\u00e8s Joseph de Laborde, <i>Layettes du Tr\u00e9sor des chartes<\/i>, III, Paris : Henri Plon, 1875 <a target=\"_blank\" href=\"http:\/\/digi.ub.uni-heidelberg.de\/diglit\/teulet1875bd3\/0479\"> [en ligne]<\/a>, n. 4392, p. 393-394 <a target=\"_blank\"href=\"https:\/\/francearchives.fr\/fr\/facomponent\/d41a3e31e934db3f65bbc398500ef69414f455d0\">[num\u00e9ris\u00e9e sur le site des Archives de France]<\/a>, d'apr\u00e8s E."
        },
        "8": {
            "type": "transcription",
            "value": "<?xml version=\"1.0\" encoding=\"UTF-8\"?>\nAlexander episcopus, servus servorum Dei, venerabili fratri .. episcopo Lingonensi, salutem et apostolicam benedictionem. Significavit nobis carissimus in Christo filius noster .. illustris rex Navarre, Campanie ac Brie comes palatinus, quod nonnulli clerici comitatuum et terrarum ac villarum ejus, bigami et qui cum viduis contraxerunt et alii in minoribus ordinibus constituti, licet uxores habeant et passim negotiationes seculares tam vini, pannorum et lanarum quam alias clericis interdictas, et etiam dampnabile lucrum exerceant usurarum, supportare onera et servare consuetudines et statuta comitatuum, terrarum et villarum ipsarum sicut ceteri laici contradicunt, intendendo potius hujusmodi negotiationibus quam divinis officiis et privilegium immunitatis ecclesiastice pretendendo in ipsius regis prejudicium et gravamen. Cum igitur hii ex quorum actibus Ecclesie deformatur honestas non sint in suis excessibus ab Ecclesia confovendi, fraternitati tue per apostolica scripta mandamus quatinus si tales tue diocesis, tertio a te moniti, ab hujusmodi non resipuerint sed, pretermissis divinis officiis, negotiationibus institerint supradictis, cum facto privilegium abiciant clericale, tu eos quominus, dum hiis se implicant, de suis facultatibus statutis et consuetudinibus patrie subjaceant non defendas. Datum Viterbii, V kalendas martii, pontificatus nostri anno quarto.\n"
        },
        "12": {
            "type": "genre",
            "value": "Mandement (littere cum filo canapis)"
        }
    }
}