{
    "id": 149756,
    "name": "aposcripta-9319",
    "type": "acte",
    "url": "http:\/\/telma-chartes.irht.cnrs.fr\/aposcripta\/notice\/149756",
    "project_slug": "aposcripta",
    "project_label": "APOSCRIPTA \u2013 Lettres des papes",
    "user": "lettrespontificalesadmin",
    "last_update": "2020-10-19 16:40:03",
    "licence": "Attribution - Pas d\u2019Utilisation Commerciale - Partage dans les M\u00eames Conditions 3.0 France (CC BY-NC-SA 3.0 FR) ",
    "licence_url": "https:\/\/creativecommons.org\/licenses\/by-nc-sa\/3.0\/fr\/",
    "elements": [
        {
            "type": "pape",
            "value": "Alexandre IV (1254-1261)"
        },
        {
            "type": "destinataire",
            "value": "Dilectis in Christo filiabus . . abbatisse et capitulo secularis ecclesie in Quidelingeburg, ad Romanam ecclesiam nullo medio pertinentis, Halberstadensis diocesis"
        },
        {
            "type": "date_libre",
            "value": "VI kalendas iunii, anno sexto"
        },
        {
            "type": "date",
            "value": " 1260\/05\/27",
            "children": {
                "date_deb_annee": "1260",
                "date_deb_mois": "05",
                "date_deb_jour": "27"
            },
            "range": {
                "date_apres": 12600527,
                "date_avant": 12600527
            }
        },
        {
            "type": "date_lieu",
            "value": "Anagnie"
        },
        {
            "type": "sources_manuscrites",
            "value": "R. CIT\u00c9 DU VATICAN, Archivio Segreto Vaticano, <hi rend=\"italic\">Registra Vaticana<\/hi> ... Al.\u00a0IV Reg. Vol.\u00a0II, 249-250; Lib.\u00a0VI, 76. Pertzii exemplar contulimus cum editione duorum authenticorum, quam Schmidt, U.B. des Hochst. Halberstadt t.\u00a0II, p.\u00a0235, n.\u00a01010 praebuit [A]. In tergo alterius authentici legitur: <hi rend=\"italic\">Claromonten. R | R | LXXVI \u2014 capitulo anno sexto.<\/hi> Nimirum epistola ex hoc exemplari registrata est.",
            "children": {
                "type_source": "Registre de la chancellerie apostolique"
            }
        },
        {
            "type": "genre",
            "value": "Mandement (littere cum filo canapis)"
        },
        {
            "type": "analyse",
            "value": "Alexander IV papa [Gertrudae] abbatissae et capitulo Quedlinburgensibus confirmat chartam, per quam Volradus episcopus et capitulum Halberstadenses eis quoddam servitium recepta quadam pecuniae quantitate totaliter remiserint [Rodenberg]."
        },
        {
            "type": "transcription",
            "value": "<?xml version=\"1.0\" encoding=\"UTF-8\"?>\nDilectis in Christo filiabus . . abbatisse et capitulo secularis ecclesie in Quidelingeburg, ad Romanam ecclesiam nullo medio pertinentis, Halberstadensis diocesisInducunt nos vestre devotionis merita, ut vos prosequamur benivolentia gratiosa. Sane petitio vestra nobis exhibita continebat, quod Halberstadenses episcopi, qui fuerunt pro tempore, ad ecclesiam vestram in dominica in ramis palmarum annis singulis consueverunt accedere vosque ipsis tunc consuevistis providere in victualibus et in festo purificationis beate Marie virginis annuatim septem candelas et unum fertonem auri Halberstadensi ecclesie exhibere a tempore cuius memoria non existit. Porro venerabilis frater noster . . episcopus et capitulum Halberstadenses, attendentes quod ex hoc interdum eadem ecclesia vestra multipliciter gravabatur, vobis et predicte ecclesie vestre premissa omnia totaliter remiserunt, recepta propter hoc a vobis quadam pecunie quantitate. Ad hoc cum inter vos ex parte una et eosdem episcopum et capitulum super ecclesia de Walbeke ad predictam ecclesiam vestram etc. . . . . . Nos itaque, vestris supplicationibus inclinati, quod super hiis ab eisdem episcopo et capitulo provide factum est, ratum et firmum habentes, id auctoritate apostolica confirmamus et presentis scripti patrocinio communimus, tenorem litterarum ipsarum de verbo ad verbum presentibus inseri facientes; qui talis est:Volradus Dei gratia Halberstadensis ecclesie episcopus, Hermannus prepositus, Wikertus decanus totumque eiusdem ecclesie capitulum omnibus in perpetuum. Propter variabiles hominum voluntates, presentis temporis brevem vitam et precipue propter oblivionem, que ratione corruptionis nature humane virtutem memorie obfuscavit, opere pretium est ea, que perpetuo inviolabiliter observari debent, roborari testimonio scripturarum, ut supervenientibus novis preterita tamquam presentia cognoscantur. Hinc est, quod notum esse volumus tam presentibus quam futuris, quod cum ita fuisset antiquitus observatum, ut episcopus Halberstadensis, qui pro tempore extitit, in ramis palmarum veniens ad monasterium Quidelingeburg ad ampliandum cultum Dei ob reverentiam diei sancte, licet numerus evectionum fuisset sibi aliquando per venerabilem Conradum, Portuensem episcopum, tunc legatum sedis apostolice, constitutus, tamen per nobiles terre, milites et plures alios, qui ad sollempnitatem huius diei confluebant, dictum monasterium plurimum gravabatur; item quod in festo purificationis septem candele nostre dabantur ecclesie, ferto auri, qui similiter nostre ecclesie a iam dicto monasterio tradebatur. Quia hec omnia monasterio Quidelingeberg dampnosa fuerunt, eo quod in preiudicium libertatis monasterii fieri videbantur et ecclesie nostre utilitatis modicum conferebant, ita duximus de prudentum virorum, clericorum, laicorum, ministerialium utriusque ecclesie, [consilio] ordinandum, ut receptis a prefato monasterio ducentis marcis Halberstadensis argenti relaxavimus omnia supradicta, nos et successores nostros tenore presentium obligantes, quod nec ius nec consuetudinem nec aliquid aliud, quocumque nomine appellari possit, contra monasterium sepedictum super huiusmodi ullo umquam tempore allegabunt, omnibus etiam exceptionibus, que circa tenorem presentis scripti oriri possent, renunciantes penitus et in totum. Adicimus preterea de cenobio Walbeke, de quo aliquando inter antedictum monasterium et ecclesiam nostram orta fuerat materia questionis, quod in eodem cenobio nec in temporalibus nec in spiritualibus nec in prepositi loci illius institutione aut destitutione nobis nichil iuris penitus dicimus aut dicemus, nec etiam prepositus venire ad synodum aliquatenus teneatur, quia in privilegiis monasterii Quidelingeburg invenimus cenobium Walbeke ad hec omnia non teneri, sed monasterium Quidelingeburg in prefato cenobio Walbeke, quemadmodum in cenobio sancte Marie ordinis sancti Benedicti in Monte, sancti Wichberti ordinis beati Augustini et in Wonethusen, pleno iure gaudeat et omnimoda libertate, hoc adiuncto quod parrochie ville Walbeke prepositus loci, qui pro tempore fuerit, sacerdotem preficiet, qui ab archidiacono loci curam recipiet animarum. Huius rei testes sunt: Hermannus prepositus, Wicketus decanus, Burchardus vicedominus, Cono de Diefolt, Rodulphus portenarius, Volradus de Kircberg, Evervinus prepositus Sancti Bonifatii, Henricus de Regensten, Widekindus de Nivenberg, Henricus de Drondorp, Hermannus scolasticus, Albertus de Aldenburg, Bertoldus de Clectenberg, Cristianus de Scalberg, Hermannus Hodo, Ludegerus Struz, Guntherus de Mannesvelt, Ludolfus de Dalem, Octo prepositus Wallebicon., Arino de Heymburg, Withmatinus de Barbvic, Heidenricus de Schartvelt, Heidenricus de Tangenberg, nostre maioris ecclesie canonici. Laici vero: Fridericus comes de Kircberge, Wernerus de Sheronbeke, Evetardus de Suseliz, nobiles. Ministeriales autem nostre ecclesie: Iohannes de Katersleve, Nicolaus de Heymburg, Alvericus pincerna, Gevehardus de Slage, Iacobus de Severthusen, Henricus Isenborde. Ministeriales vero Quidelingeburgensis ecclesie: Bernardus marscalcus, Bertoldus de Ditforde, Tidericus pincerna, Tydericus filius suus, Iohannes de Wederstide, Henricus de Aqua, Iohannes Knotel, Octo camerarius, Iohannes Albus, Henricus et Bernardus fratres de Ditforde, Olricus et Iohannes fratres de Morsleve, Henricus de Grotunge, Thidericus Marroch, Conradus et Gerardus fratres cognomento Struven et alii quamplures milites et servi. Acta sunt hec anno gratie M\u00b0CC\u00b0LVIIII\u00b0, indictione III. Dat. Halberstad., II Kalendas Octobris, pontificatus nostri anno quarto.Nulli \u2014 nostre confirmationis etc.Dat. Anagnie, VI Kalendas Iunii, anno sexto.\n"
        },
        {
            "type": "edition",
            "value": "Ici reprise de Karl Rodenberg, Epistolae s. XIII e regestis pontificum romanorum selectae, III, Berlin : Weidmann (MGH), 1894, n.\u00a0506, p.\u00a0467."
        },
        {
            "type": "edition_autre",
            "value": "?"
        },
        {
            "type": "regeste",
            "value": "?"
        },
        {
            "type": "bibliographie_generale",
            "value": "?"
        },
        {
            "type": "apparat_critique",
            "value": "?",
            "children": {
                "numero_note": "a"
            }
        },
        {
            "type": "apparat_critique",
            "value": "?",
            "children": {
                "numero_note": "b"
            }
        },
        {
            "type": "apparat_critique",
            "value": "?",
            "children": {
                "numero_note": "c"
            }
        },
        {
            "type": "apparat_critique",
            "value": "?",
            "children": {
                "numero_note": "d"
            }
        },
        {
            "type": "apparat_critique",
            "value": "?",
            "children": {
                "numero_note": "e"
            }
        },
        {
            "type": "apparat_critique",
            "value": "?",
            "children": {
                "numero_note": "f"
            }
        },
        {
            "type": "notes_historiques",
            "value": "?",
            "children": {
                "numero_note": "1"
            }
        },
        {
            "type": "notes_historiques",
            "value": "?",
            "children": {
                "numero_note": "2"
            }
        },
        {
            "type": "notes_historiques",
            "value": "?",
            "children": {
                "numero_note": "3"
            }
        }
    ]
}