{
    "id": 25338,
    "name": "aposcripta-2435",
    "type": "acte",
    "url": "http:\/\/telma-chartes.irht.cnrs.fr\/aposcripta\/notice\/25338",
    "project_slug": "aposcripta",
    "project_label": "APOSCRIPTA \u2013 Lettres des papes",
    "user": "lettrespontificalesadmin",
    "last_update": "2020-10-19 16:27:43",
    "licence": "Attribution - Pas d\u2019Utilisation Commerciale - Partage dans les M\u00eames Conditions 3.0 France (CC BY-NC-SA 3.0 FR) ",
    "licence_url": "https:\/\/creativecommons.org\/licenses\/by-nc-sa\/3.0\/fr\/",
    "elements": [
        {
            "type": "pape",
            "value": "Anastase IV (1153-1154)"
        },
        {
            "type": "destinataire",
            "value": "( )",
            "children": {
                "numero_note": "0"
            }
        },
        {
            "type": "date_lieu",
            "value": "n.c."
        },
        {
            "type": "date_libre",
            "value": "1154, 7 mai"
        },
        {
            "type": "date",
            "value": " 1154\/05\/07",
            "children": {
                "date_deb_annee": "1154",
                "date_deb_mois": "05",
                "date_deb_jour": "07"
            },
            "range": {
                "date_apres": 11540507,
                "date_avant": 11540507
            }
        },
        {
            "type": "analyse",
            "value": "X pape<br\/>LITTER\u00c6 ANASTASII PAP\u00c6 IV AD THEOBALDUM, PRIOREM SANCT\u00c6 MARI\u00c6 DE PRATO DONZIACI, QUIBUS PROHIBET NE QUIS INFRA TERMINOS PARROCHI\u00c6 SU\u00c6 C\u0152METERIUM VEL BAPTISTERIUM STATUAT, CONFIRMATQUE JUS QUOD HABET PRIORATUS IN CAPELLA SANCTI CARADOCHI. PRIVILEGIUM ANASTASII PAP\u00c6 IV. ad Theobaldum Priorem beat\u00e6 Mari\u00e6 de Prato Donziaci, quo prohibet ne quis infra terminos Parochi\u00e6 su\u00e6 Cimiterium, vel Baptisterium statuat: confirmatque jus quod habet Prioratus in Ecclesia sancti Caradochi."
        },
        {
            "type": "transcription",
            "value": "<?xml version=\"1.0\" encoding=\"UTF-8\"?>\n[Anastasius Episcopus servus servorum Dei, dilecto filio Theobaldo Priori sanct\u00e6 Mari\u00e6 de Prato, ejusque successoribus regulariter substituendis in perpetuum. Quotiens illud \u00e0 nobis petitur, quod rationi et honestati convenire dignoscitur, animo nos decet libenti concedere, et petentium desideriis congruum impertiri suffragium. Eapropter, dilecti in Domino filii vestris precibus annuentes Apostolic\u00e6 Sedis auctoritate penitus prohibemus, ut nulli umquam hominum liceat infra terminos Parochi\u00e6 vestr\u00e6 Cimiterium vel Baptisterium statuere. Quicquid pr\u00e6terea in Capella sancti Caradochi just\u00e8 et canonic\u00e8 hactenus habuistis vobis vestrisque successoribus nihilominus confirmamus, et commissum vobis Monasterium futuris temporibus conservandum decernimus. Nulli ergo hominum clerico vel la\u00efco liceat hanc nostr\u00e6 constitutionis paginam temerario ausu infringere, vel ipsi quomodolibet contra\u00efre. Si quis autem hoc attentare pr\u00e6sumpserit, secund\u00f2 terti\u00f3ve commonitus, nisi reatum suum congrua satisfactione correxerit, potestatis honorisque sui dignitate careat, et se reum existere in extremo examine de perpetrata iniquitate cognoscat, et \u00e0 sacratissimo Corpore ac Sanguine Dei et Domini nostri Jesu Christi alienus fiat, atque indignationem omnipotentis Dei, et beatorum Petri et Pauli Apostolorum ejus incurrat. Amen. Ego ANASTASIUS Catholic\u00e6 Ecclesi\u00e6 Episcopus. Datum Laterani per manum Rolandi sanct\u00e6 Ecclesi\u00e6 Roman\u00e6 Presbyteri Cardinalis et Cancellarii Nonis Maii, indictione II. Incarnationis Dominic\u00e6 anno M. C. LIV. Pontificatus ver\u00f2 Domni Anastasii Pap\u00e6 IV. anno primo.]\n"
        },
        {
            "type": "edition",
            "value": "Ici tir\u00e9e du projet <i>CBMA - Corpus Burgundiae Medii Aevi<\/i>, document 5612. Site du projet Corpus de la Bourgogne du Moyen \u00c2ge, [En ligne] <a href=\"http:\/\/www.cbma-project.eu\" target=\"_blank\">http:\/\/www.cbma-project.eu<\/a>  "
        },
        {
            "type": "sources_manuscrites",
            "value": "\u00e0 renseigner."
        },
        {
            "type": "remarques",
            "value": "\r\n\r\nIndications dans l'\u00e9dition des Chartes de Cluny quand Bernard et Bruel n'ont pas repris le texte : Anastasius, etc. Quotiens illud a, etc. (Bull. Clun., p.\u00a066, col.\u00a02.)."
        },
        {
            "type": "edition_autre",
            "value": "Ici reprise de Auguste Bernard, Alexandre Bruel, <i>Recueil des chartes de l'abbaye de Cluny<\/i>. V. <i>1091-1210<\/i>, Paris\u00a0: Imprimerie nationale, 1894 <a href=\"http:\/\/gallica.bnf.fr\/ark:\/12148\/bpt6k28911f?rk=64378;0\" target=\"_blank\">[en ligne]<\/a>, p. 526, n\u00b0 4175.",
            "children": {
                "numero_note": "0"
            }
        },
        {
            "type": "edition_autre",
            "value": "Pierre Simon, <i>Bullarium sacri Ordinis cluniacensis, complectens plurima privilegia per summos pontifices tum ipsi cluniacensi abbatiae, tum ei subditis monasteriis hactenus concessa<\/i>, Lyon : Jullieron, 1680, p. 66, col. 2-67, col. 1",
            "children": {
                "numero_note": "1"
            }
        },
        {
            "type": "genre",
            "value": "Bulle"
        },
        {
            "type": "genre",
            "value": "Lettre"
        }
    ]
}