{
    "id": 27543,
    "name": "aposcripta-4217",
    "type": "acte",
    "url": "http:\/\/telma-chartes.irht.cnrs.fr\/aposcripta\/notice\/27543",
    "project_slug": "aposcripta",
    "project_label": "APOSCRIPTA \u2013 Lettres des papes",
    "user": "c_lenne",
    "last_update": "2020-10-19 16:28:15",
    "licence": "Attribution - Pas d\u2019Utilisation Commerciale - Partage dans les M\u00eames Conditions 3.0 France (CC BY-NC-SA 3.0 FR) ",
    "licence_url": "https:\/\/creativecommons.org\/licenses\/by-nc-sa\/3.0\/fr\/",
    "elements": [
        {
            "type": "pape",
            "value": "Nicolas V (1447-1455)"
        },
        {
            "type": "destinataire",
            "value": "Le doyen et le chapitre de la cath\u00e9drale de Troyes"
        },
        {
            "type": "date_libre",
            "value": "MCDLII, nonis januarii anno sexto"
        },
        {
            "type": "date",
            "value": " 1452\/01\/05",
            "children": {
                "date_deb_jour": "05",
                "date_deb_mois": "01",
                "date_deb_annee": "1452"
            },
            "range": {
                "date_apres": 14520105,
                "date_avant": 14520105
            }
        },
        {
            "type": "date_lieu",
            "value": "Saint-Pierre de Rome"
        },
        {
            "type": "genre",
            "value": "Titre, g\u00e9n\u00e9ral (littere gratiose, cum filo serico)"
        },
        {
            "type": "analyse",
            "value": "Bulle d'indulgence concernant la construction de la cath\u00e9drale de Troyes."
        },
        {
            "type": "sources_manuscrites",
            "value": "\"Original en parchemin\", source non mentionn\u00e9e.",
            "children": {
                "type_source": ""
            }
        },
        {
            "type": "edition",
            "value": "Ici reprise de Henri d'Arbois de Jubainville, \"Documents relatifs aux travaux de construction faits \u00e0 la cath\u00e9drale de Troyes pendant les XIIIe, XIVe et XVe si\u00e8cle\", <i>Biblioth\u00e8que de l'Ecole des chartes<\/i>, 23, 1862, p. 214-247, aux pages 245-247 <a target=\"_blank\" href=\"https:\/\/www.persee.fr\/doc\/bec_0373-6237_1862_num_23_1_445819\">[en ligne]<\/a>."
        },
        {
            "type": "transcription",
            "value": "<?xml version=\"1.0\" encoding=\"UTF-8\"?>\nNicolaus, episcopus, servus servorum Dei, dilectis filiis decano et capitulo ecclesie Trecensis salutem et apostolicam benedictionem. Circa salutem fidelium continuo soliciti, ea libenter concedimus per que fideles ipsi a peccatis absolvantur, et bonorum operum, que fecerint, participes efficiantur, ac, sanctorum precibus et meritis adjuti, possint ad eternam gloriam pervenire. Dudum siquidem ut ecclesia Trecensis, que post Romanam et Antiochensem inter ceteras cathedrales ecclesias Galliarum sub nomine gloriosissimorum Petri et Pauli apostolorum perbeatum Potentianum, alterum ex septuaginta duobus discipulis domini nostri Jhesu Xpisti, de precepto et ordinatione apostolorum hujusmodi quadragesimo primo anno post ascensionem Domini miraculose erecta seu constructa, et exinde magnifice et sumptuose saltim usque illius navim continuata, et completa fuerat, congruis honoribus frequentaretur, ac etiam navis hujusmodi perficeretur, seu compleretur, in ea quoque divinus cultus augeretur, et ut fideles ipsi eolibentius causa devotionis ad ecclesiam confluerent eandem, et ad ejusdem navis perfectionem seu complementum manus promptius porrigerent adjutrices : omnibus vere penitentibus et confessis utriusque sexus, qui prefatam ecclesiam a vesperis diei sabbati, dominicain in resurrectionis octavis ejusdem domini nostri Jhesu Christi immediate precedentis, usque per totam diem dominicain ex tune immediate sequentem anni domini millesimi quadringentesimi quinquagesimi primi, et deinceps annis singulis usque ad septem annos ex tunc immediate sequentes, devote visitarent annuatim, et ad perfectionem seu complementum navis hujusmodi manus porrigerent adjutrices, omnium peccatorum suorum plenariam remissionem auctoritate apostolica per alias nostras litteras concessimus, ac vobis duodecim presbiteros ydoneos seculares vel regulares aut mixtum pro tempore deputandi, qui ex tunc omnium et singulorum Christi fidelium, qui ecclesiam hujusmodi causa consequendi remissionem antedictam confluentium, eorum confessionibus diligenter auditis, pro commissis quibusvis in singulis videlicet casibus in quibus minores penitentiarii nostri absolvere possunt, debitam absolutionem impenderent, et penitentiam salutarem injungerent, diocesanorum locorum et quorumcunque aliorum licentia super hoc minime requisita, plene consulere licite et libere possent et valerent, eadem auctoritate licentiam et facultatem concessimus prout in eisdem litteris plenius continetur. Cum autem, sicut exhibita nobis nuper pro parte vestra petitio continebat, propter multitudinem fidelium, qui pro hujusmodi consequenda indulgentia ad prefatam ecclesiam accedunt, duodecim predicti confessores non sufficiant : a parte vestra nobis fuit humiliter supplicatum, ut predictam dubietatem de medio tollere, vobisque augendi numerum confessorum licentiam concedere, aliasque saluti fidelium hujusmodi et oportunitatibus dicte ecclesie providere de benignitate apostolica dignaremur. Nos igitur, attendentes quod vos licet pro complemento dicte navis diligentiam adhibueritis, et fundamenta quinque pilariorum non sine magnis expensis fieri feceritis, et tamen navis ipsa infra dictum septennium perfici non poterit : ut ergo, fidelium predictorum mediante suffragio, compleatur, ac eorumdem fidelium saluti provideatur, litteras et remissionem hujusmodi ad triennium a fine dicti septennii prorogantes, ita quod, ad illam in aliquo annorum hujusmodi accedentes, et manus adjutrices porrigentes, ut prefertur, solum per eam cum devotione transeundo, remissionem hujusmodi consequantur, absque eo quod illam singulis annis predictis, nisi eis major devotio accrescat, visitare teneantur : declarantes, hujusmodi quoque supplicationibus inclinati vobis, ut juxta affluitatem populi numerum dictorum confessorum, qui simile habeant potestatem, prout vobis conveniens et oportunum videbitur, augendi et diminuendi, dummodo numerum viginti non excedant, vobisque decano et capitulo, ut sex ex vobis fideles ipsospro commissis, etiam si talia fuerint, propter que sedes apostolica foret merito consulenda, diebus et annis singulis supradictis debitam et salutarem penitentiam injungendi, necnon super illis ac incertis et male ablatis, si eorum, quibus restitutio fieri deberet, notitia non haberetur, absolvendi, ac perpetuo, ita quod ad illorum restitutionem non amplius teneantur, nec ad id per quempiam inviti possint coarctari, quitandi et liberandi, vota vero quecunque peregrinationis et abstinentie, preterquam Terre Sancte et liminum apostolorum de urbe, in alia pietatis opera, prout animarum saluti expedire videritis, commutandi, seu eos ab hujusmodi votis simpliciter absolvendi plenam et liberam dicta die per dictos decem annos a data predictarum litterarum ipsius remissionis duntaxat duraturam tenore presentium concedimus facultatem. Et insuper volumus, prout etiam in dictis litteris voluimus, quod pecunie et bona, que pretextu indulgentiarum hujusmodi erogata fuerint, pro tribus in premisso complemento, et alia quarta, quam ordinamus ad id reservari, partibus, in ecclesiarum Urbis reparationibus exponatur et fideliter convertatur ; quodque transumptis presentium litterarum per duos autenticos notarios subscriptis et vestris sigillis munitis, ubicunque exhibita fuerint vel ostensa, ea prorsus fides adhibeatur, ac illis stetur in omnibus et per omnia, prout ipsis presentibus originalibus litteris, si forent realiter exhibite vel ostense. Nulli ergo omnino hominum liceat hanc paginam nostre prorogationis, declarations, concessions, ordinationis, et voluntatis inflingere vel ei ausu temerario contraire. Si quis autem hoc attemptare presumpserit, indignationem omnipotentis Dei et beatorum Petri et Pauli apostolorum ejus se noverit incursurum. Datum Rome apud Sanctum Petrum, anno Incarnationis dominice millesimo quadringentesimo quinquagesimo secundo, nonis januarii, pontificatus nostri anno sexto.\n"
        }
    ]
}