{
    "id": 150032,
    "name": "aposcripta-9595",
    "type": "acte",
    "url": "http:\/\/telma-chartes.irht.cnrs.fr\/aposcripta\/notice\/150032",
    "project_slug": "aposcripta",
    "project_label": "APOSCRIPTA \u2013 Lettres des papes",
    "user": "lettrespontificalesadmin",
    "last_update": "2020-10-19 16:40:08",
    "licence": "Attribution - Pas d\u2019Utilisation Commerciale - Partage dans les M\u00eames Conditions 3.0 France (CC BY-NC-SA 3.0 FR) ",
    "licence_url": "https:\/\/creativecommons.org\/licenses\/by-nc-sa\/3.0\/fr\/",
    "elements": [
        {
            "type": "pape",
            "value": "Paul III (1534-1549)"
        },
        {
            "type": "destinataire",
            "value": "Le cardinal Pisan"
        },
        {
            "type": "date_libre",
            "value": "14 iunii 1539, a. 5\u00b0."
        },
        {
            "type": "date",
            "value": " 1539\/06\/14",
            "children": {
                "date_deb_annee": "1539",
                "date_deb_mois": "06",
                "date_deb_jour": "14"
            },
            "range": {
                "date_apres": 15390614,
                "date_avant": 15390614
            }
        },
        {
            "type": "date_lieu",
            "value": "Rome"
        },
        {
            "type": "genre",
            "value": "Bref commun"
        },
        {
            "type": "analyse",
            "value": "Maggiori facolt\u00e0 al cardinale Grimani perch\u00e8 purghi dalle eresie le Chiese di Aquileia, di Ceneda e di Concordia"
        },
        {
            "type": "sources_manuscrites",
            "value": "Archiv. secr. Vatic. Pauli III brev. min. a. MDXXXIX, II, 13, breve 629.",
            "children": {
                "type_source": "Original"
            }
        },
        {
            "type": "edition",
            "value": "Ici reprise de B. Fontana, \u00ab Documenti vaticani contro l'eresia luterana in Italia \u00bb <hi rend=\"italic\">Archivio della Reale Societ\u00e0 Romana di Storia Patria<\/hi>, 15, 1892, 15, n. 1, p. 76."
        },
        {
            "type": "transcription",
            "value": "<?xml version=\"1.0\" encoding=\"UTF-8\"?>\n(Cardinali Pisano).Dilecte fili noster, salutem et c. Cum nuper non sine animi nostri molestia acciperemus quamplura monasteria monialium diversorum ordinum in civitate et terris diocesis Paduane et Tarvisine existentia reformationis officium exposcere, propterea quod illorum abbatisse et moniales, laxatis pudicitie habenis, vitam a religione aliena ducentes, personas suspectas infra ipsorum monasteriorum septa admiserint ac diversis excessibus sese immergerint in divine maiestatis offensam, religionis obprobrium et animarum suarum pernitiem ac pessimum exemplum et scandalum plurimorum, nos cupientes et c.....[1]Rome apud s. Marcum, 14 iunii 1539, a. 5\u00b0. Blos.\n"
        },
        {
            "type": "notes_historiques",
            "value": "Segue la riforma \u00ab in capite et in membris \u00bb.",
            "children": {
                "numero_note": "1"
            }
        }
    ]
}