{
    "id": 20263,
    "name": "aposcripta-250",
    "type": "acte",
    "url": "http:\/\/telma-chartes.irht.cnrs.fr\/aposcripta\/notice\/20263",
    "project_slug": "aposcripta",
    "project_label": "APOSCRIPTA \u2013 Lettres des papes",
    "user": "lettrespontificalesadmin",
    "last_update": "2020-10-19 16:26:47",
    "licence": "Attribution - Pas d\u2019Utilisation Commerciale - Partage dans les M\u00eames Conditions 3.0 France (CC BY-NC-SA 3.0 FR) ",
    "licence_url": "https:\/\/creativecommons.org\/licenses\/by-nc-sa\/3.0\/fr\/",
    "elements": [
        {
            "type": "pape",
            "value": "Jean XXII (1316-1334)"
        },
        {
            "type": "date_lieu",
            "value": "Avignon"
        },
        {
            "type": "date_libre",
            "value": "XI kalendas martii"
        },
        {
            "type": "analyse",
            "value": "Le pape ordonne \u00e0 Jean de Badas, inquisiteur de Marseille, de s\u2019informer si l\u2019attentat commis par un notaire du dioc\u00e8se d\u2019Arles et sa femme contre la personne de Guillaume des Baux, seigneur de Berre, est de sa comp\u00e9tence. Si oui, il devra leur intenter un proc\u00e8s d\u2019Inquisition."
        },
        {
            "type": "transcription",
            "value": "<?xml version=\"1.0\" encoding=\"UTF-8\"?>\n Johanni de Badas1, ordinis fratrum minorum, inquisitori heretice pravitatis in partibus Massilien. auctoritate apostolica deputato. \u2014 Fidedigna relatione percepimus quod Gantalinus Gantalini, notarius, et Berengaria, eius uxor, Arelaten. diocesis, instigatione diabolica circumventi tanquam proprie salutis immemores contra dilectum filium nobilem virum Guillelmum de Baucio2, dominum de Berra3, prefate diocesis, quoddam nefandum facinoris crimen committere presumpserunt in atrocem Creatoris nostri offensam et scandalum plurimorum. Nos igitur cupientes quod delinquentium sic puniatur temeritas quod nec pena desit eisdem et ipsius metu a committendo similia alii arceantur, discretioni tue... mandamus quatinus super crimine huiusmodi, an videlicet eius punitio et correctio ad te, ratione tui officii, pertinere noscatur cum peritis te studeas quantocius informare, et, si ita esse compereris, contra eosdem Gantalinum et Berengariam ad inquisitionem, punitionem et correctionem super crimine prefato procedas iuxta canonicas sanctiones et privilegia eidem officio ab apostolica Sede concessa, quominus de ipsis per dictum nobilem, si alias ad eum pertineat, possit iustitia fieri ipsum non impedias quomodolibet nec molestes. Datum XI kalendas martii, anno quartodecimo.\n"
        },
        {
            "type": "edition",
            "value": "Jean-Marie Vidal, <i>Bullaire de l\u2019Inquisition fran\u00e7aise au XIV<sup>e<\/sup> si\u00e8cle et jusqu'\u00e0 la fin du Grand Schisme<\/i>, Paris : Letouzey et An\u00e9, 1913, n. 91, p. 145"
        },
        {
            "type": "sources_manuscrites",
            "value": "R. <i>Reg. Vat.<\/i>115, n. 2091, fol. 410.",
            "children": {
                "type_source": "Registre de la chancellerie apostolique"
            }
        },
        {
            "type": "sources_manuscrites",
            "value": "Eubel, n. 839 (anal.)."
        },
        {
            "type": "notes_historiques",
            "value": "A cette date, la charge d\u2019inquisiteur de Provence \u00e9tait excerc\u00e9e par Guillaume Astre (n. 49, note 3), et peut-\u00eatre aussi par Michel Lemoine (n. 15, note 2). Jean de Badas \u00e9tait exclusivement d\u00e9l\u00e9gu\u00e9 pour le dioc\u00e8se de Marseille. Le 8 juillet 1332, le pape lui ordonna de remettre aux mains de l\u2019inquisiteur de Pi\u00e9mont un vaudois fugitif, nomm\u00e9 Martin Pastre (n. 120). Plus tard Badas para\u00eet dans les documents avec le titre d\u2019inquisiteur de Provence. Ainsi, dans la lettre de recommandation que Beno\u00eet XII conc\u00e9da, en 1338, \u00e0 deux \u00e9missaires de l\u2019Inquisition charg\u00e9s de rechercher un juif rejuda\u00efsant (n. 171 <i>bis<\/i>).",
            "children": {
                "numero_note": "1"
            }
        },
        {
            "type": "notes_historiques",
            "value": "Guillaume II des Baux, fils de Bertrand II, seigneur de Berre, en 1309, mort sans post\u00e9rit\u00e9 en 1344. Son fr\u00e8re Bertrand III, duc d\u2019Andria, lui succ\u00e9da. De Mas-Latrie, col. 1560.",
            "children": {
                "numero_note": "2"
            }
        },
        {
            "type": "notes_historiques",
            "value": "Berre (Bouches-du-Rh\u00f4ne), chef-lieu de cant., arrond. d\u2019Aix.",
            "children": {
                "numero_note": "3"
            }
        },
        {
            "type": "date",
            "value": "1330\/02\/19",
            "children": {
                "date_deb_annee": "1330",
                "date_deb_mois": "02",
                "date_deb_jour": "19"
            },
            "range": {
                "date_apres": 13300219,
                "date_avant": 13300219
            }
        },
        {
            "type": "genre",
            "value": "Mandement (littere cum filo canapis)"
        },
        {
            "type": "destinataire",
            "value": "L'inquisiteur de la d\u00e9pravation h\u00e9r\u00e9tique dans la r\u00e9gion de Marseille Jean Badas"
        },
        {
            "type": "regeste",
            "value": "Eubel, n. 839."
        }
    ]
}