{
    "id": 144235,
    "name": "aposcripta-5572",
    "type": "acte",
    "url": "http:\/\/telma-chartes.irht.cnrs.fr\/aposcripta\/notice\/144235",
    "project_slug": "aposcripta",
    "project_label": "APOSCRIPTA \u2013 Lettres des papes",
    "user": "j_theryastruc",
    "last_update": "2020-10-19 16:38:57",
    "licence": "Attribution - Pas d\u2019Utilisation Commerciale - Partage dans les M\u00eames Conditions 3.0 France (CC BY-NC-SA 3.0 FR) ",
    "licence_url": "https:\/\/creativecommons.org\/licenses\/by-nc-sa\/3.0\/fr\/",
    "elements": [
        {
            "type": "pape",
            "value": "Innocent IV (1243-1254)"
        },
        {
            "type": "destinataire",
            "value": "Le prieur et la communaut\u00e9 du monast\u00e8re du Val-de-Passey (dioc\u00e8se de Tulle)"
        },
        {
            "type": "date_libre",
            "value": "VIII idus octobris, anno quarto"
        },
        {
            "type": "date",
            "value": "1246\/10\/08",
            "children": {
                "date_deb_annee": "1246",
                "date_deb_mois": "10",
                "date_deb_jour": "08"
            },
            "range": {
                "date_apres": 12461008,
                "date_avant": 12461008
            }
        },
        {
            "type": "date_lieu",
            "value": "Lyon"
        },
        {
            "type": "genre",
            "value": "Titre, g\u00e9n\u00e9ral (littere gratiose, cum filo serico)"
        },
        {
            "type": "analyse",
            "value": "Innocent IV accorde aux religieux du Val de Passey de ne pouvoir \u00eatre traduits en justice au del\u00e0 de deux journ\u00e9es de chemin hors le dioc\u00e8se de Toul. "
        },
        {
            "type": "edition",
            "value": "Ici reprise d'Augustin Calmet, <i>Histoire civile et eccl\u00e9siastique de Lorraine<\/i>, Nancy, 1728, t. II, c. 462 (num\u00e9ris\u00e9e par <a target=\"_blank\" href= \"http:\/\/www.cn-telma.fr\/chartae-galliae\/charte222978\/\"> Chartae Galliae, n. 222978<\/a>)."
        },
        {
            "type": "transcription",
            "value": "<?xml version=\"1.0\" encoding=\"UTF-8\"?>\nInnocentius episcopus, servus servorum Dei, dilectis filiis priori et conventui monasterii Vallis omnium Sanctorum ordinis sancti Benedicti Tullensis diocesis, salutem et apostolicam benedictionem. Cum, sicut ex parte vestra fuit propositum coram nobis, nonnulli, non tam justitiam suam prosequi quam vos persequi dampnabiliter intendentes, per litteras apostolic\u00e6 Sedis et legatorum ipsius ad loca nimis remota vos faciant malitiose citari, ut fatigati laboribus et expensis, vel liti cedere, aut dampnosas cum ipsis subire cogamini pactiones, nos, vestris supplicationibus inclinati, ut per easdem litteras ultra duas dietas extra vestram diocesim a quoquam trahi non possitis ad causam authoritate vobis pr\u00e6sentium indulgemus, nisi commissionis litter\u00e6 plenam de indulgentia hujusmodi fecerint mentionem. Nulli ergo hominum liceat hanc paginam nostr\u00e6 concessionis infringere vel ei ausu temerario contraire. Si quis autem hoc attemptare pr\u00e6sumpserit, indignationem omnipotentis Dei et beatorum Petri et Pauli apostolorum ejus se noverit incursurus. Datum Lugduni, VIII idus octobris, pontificatus nostri anno quarto.\n"
        }
    ]
}