{
    "id": 20295,
    "name": "aposcripta-282",
    "type": "acte",
    "url": "http:\/\/telma-chartes.irht.cnrs.fr\/aposcripta\/notice\/20295",
    "project_slug": "aposcripta",
    "project_label": "APOSCRIPTA \u2013 Lettres des papes",
    "user": "lettrespontificalesadmin",
    "last_update": "2020-10-19 16:26:47",
    "licence": "Attribution - Pas d\u2019Utilisation Commerciale - Partage dans les M\u00eames Conditions 3.0 France (CC BY-NC-SA 3.0 FR) ",
    "licence_url": "https:\/\/creativecommons.org\/licenses\/by-nc-sa\/3.0\/fr\/",
    "elements": [
        {
            "type": "pape",
            "value": "Jean XXII (1316-1334)"
        },
        {
            "type": "date_lieu",
            "value": "Avignon"
        },
        {
            "type": "date_libre",
            "value": "III idus novembris, anno septimo decimo"
        },
        {
            "type": "analyse",
            "value": "Le pape f\u00e9licite le roi Jacques II de Majorque du z\u00e8le qu\u2019il d\u00e9ploie contre les ennemis de la foi dans son royaume, et il l\u2019exhorte \u00e0 continuer d\u2019en faire preuve \u00e0 l\u2019avenir."
        },
        {
            "type": "transcription",
            "value": "<?xml version=\"1.0\" encoding=\"UTF-8\"?>\nJacobo1, regi Maioricarum. Quam laudabiliter zelo caritatis accensus ad tuendam veritatem catholice fidei eiusque prosequendum emulos, fili carissime, movearis, tam tue quam venerabilis fratris nostri Guidonis, episcopi Elnensis, nobis littere nuntiarunt ; quod utique Deo ad gloriam, adiungeresa tibi meritum, angelis et bone voluntatis hominibus cedit ad gaudium et ceteris catholicis principibus ad exemplum. Hec, fili dilectissime, si in ipsis perstiteris, redentb te Deo acceptabilem in presenti ; per hec illam in futuro coronam recipies quam Dominus diligentibus se repromisit. Et quia nichil est quod lumine clariore prefulgeat quam recta fides in principe, que, cum veritatem respiciat luminis, et tenebras respuit et nescit deffectui subiacere, excellentiam regiam rogamus attente ut donum istud Illi a quo descendit omne datum obtimum et omne donum perfectum attribuens, de tam excellenti munere non omittas gratias iugiter exhibere. Nos autem divinam potentiam cernui exhoramus ut semina que in te iecit nutriat, et usque ad producendum fructum obtatum quibuscumque sublatis perducat obstaculis teque in hoc ardore fidei, in hac devotione mentis, in hoc religionis studio sine deffectu in tempora longiora conservet. Datum III idus novembris, anno XVIIo.\n"
        },
        {
            "type": "edition",
            "value": "Jean-Marie Vidal, <i>Bullaire de l\u2019Inquisition fran\u00e7aise au XIV<sup>e<\/sup> si\u00e8cle et jusqu'\u00e0 la fin du Grand Schisme<\/i>, Paris : Letouzey et An\u00e9, 1913, n. 124 bis, p. 185"
        },
        {
            "type": "sources_manuscrites",
            "value": "R. <i>Reg. Vat.<\/i> 117, n. 772",
            "children": {
                "type_source": "Registre de la chancellerie apostolique"
            }
        },
        {
            "type": "notes_historiques",
            "value": "Voir n. 99, note 1.",
            "children": {
                "numero_note": "1"
            }
        },
        {
            "type": "date",
            "value": "1332\/11\/11",
            "children": {
                "date_deb_annee": "1332",
                "date_deb_mois": "11",
                "date_deb_jour": "11"
            },
            "range": {
                "date_apres": 13321111,
                "date_avant": 13321111
            }
        },
        {
            "type": "genre",
            "value": "Lettre, g\u00e9n\u00e9ral (apr\u00e8s 1198, littere cum filo canapis)"
        },
        {
            "type": "destinataire",
            "value": "Le roi de Majorque Jacques"
        },
        {
            "type": "apparat_critique",
            "value": "<i>sic<\/i>. ",
            "children": {
                "numero_note": "a"
            }
        },
        {
            "type": "apparat_critique",
            "value": "<i>sic<\/i>. ",
            "children": {
                "numero_note": "b"
            }
        },
        {
            "type": "edition_autre",
            "value": "Raynaldi, <i>Annal. Eccl.<\/i>, ad ann. 1332, n. XXVIII."
        },
        {
            "type": "bibliographie_generale",
            "value": "Vidal, <i>Proc\u00e8s... contre Adh\u00e9mar de Mosset<\/i>, dans <i>Revue d\u2019hist. de l\u2019\u00c9gl. de France<\/i>, 1910, 1, p. 685."
        }
    ]
}