{
    "id": 149693,
    "name": "aposcripta-9256",
    "type": "acte",
    "url": "http:\/\/telma-chartes.irht.cnrs.fr\/aposcripta\/notice\/149693",
    "project_slug": "aposcripta",
    "project_label": "APOSCRIPTA \u2013 Lettres des papes",
    "user": "lettrespontificalesadmin",
    "last_update": "2020-10-19 16:40:02",
    "licence": "Attribution - Pas d\u2019Utilisation Commerciale - Partage dans les M\u00eames Conditions 3.0 France (CC BY-NC-SA 3.0 FR) ",
    "licence_url": "https:\/\/creativecommons.org\/licenses\/by-nc-sa\/3.0\/fr\/",
    "elements": [
        {
            "type": "pape",
            "value": "Alexandre IV (1254-1261)"
        },
        {
            "type": "destinataire",
            "value": "I.<lb n=\"\"\/>Henrico Anglie et Edmundo Sicilie regibus illustribus"
        },
        {
            "type": "date_libre",
            "value": "II nonas octobris, anno II"
        },
        {
            "type": "date",
            "value": " 1256\/10\/06",
            "children": {
                "date_deb_annee": "1256",
                "date_deb_mois": "10",
                "date_deb_jour": "06"
            },
            "range": {
                "date_apres": 12561006,
                "date_avant": 12561006
            }
        },
        {
            "type": "date_lieu",
            "value": "Anagnie"
        },
        {
            "type": "sources_manuscrites",
            "value": "R. CIT\u00c9 DU VATICAN, Archivio Segreto Vaticano, <hi rend=\"italic\">Registra Vaticana<\/hi> ... Al.\u00a0IV Reg. Vol.\u00a0I, 207; Lib.\u00a0II, 465 et 466. Exemplaria Pertzii, quorum primum supplevimus ex Raynaldi Ann. eccl. a. 1256, \u00a7\u00a034, contulimus cum Regestis. Primam epistolam contulimus etiam cum authentico ap. Rymer, Foedera t.\u00a0I, pars I, p.\u00a0350 [A.].",
            "children": {
                "type_source": "Registre de la chancellerie apostolique"
            }
        },
        {
            "type": "genre",
            "value": "Mandement (littere cum filo canapis)"
        },
        {
            "type": "analyse",
            "value": "Alexander IV papa Henrico III Angliae et Edmundo Siciliae regibus terminum, infra quem rex Angliae venire vel mittere capitaneum cum militia competenti in regnum Siciliae ac certam pecuniae summam solvere teneatur, usque ad sex menses computandos a Kal. Decembris proximo venturi prorogat. \u2014 [Iohanni] archiepiscopo Messanensi prorogandi adhuc hunc terminum potestatem concedit [Rodenberg]."
        },
        {
            "type": "transcription",
            "value": "<?xml version=\"1.0\" encoding=\"UTF-8\"?>\nI.Henrico Anglie et Edmundo Sicilie regibus illustribus.Supplicantibus olim nobis humiliter venerabili fratre nostro . . archiepiscopo Tarantasiensi et dilectis filiis . . electo Saresberiensi ac . . abbate Westimonasterii Londoniensis, nuntiis vestris, ut cum iam instaret festum sancti Michaelis, terminus videlicet tibi, fili rex Anglie, prefixus a nobis ac per te etiam approbatus, infra quem venire vel mittere capitaneum cum militia competenti in regnum Sicilie ac certam pecunie summam nobis et ecclesie Romane pro expensis factis in ipso regno solvere tenebaris, prout in apostolico privilegio confecto super concessione predicti regni facta tibi, fili rex Sicilie, plenius continetur, prorogare vobis huiusmodi terminum de benignitate apostolica curaremus: nos igitur, ipsorum supplicationibus inclinati, eundem terminum primo usque ad octavas predicti festi ac deinde usque in diem Mercurii post octavas ipsas tunc primo venturum de fratrum nostrorum consilio duximus prorogandum, sicut plenius litere apostolice continent, quas eisdem nunciis duximus super hoc concedendas. Verum quia interim dicti nuntii petitiones vestras coram nobis et predictis fratribus proponere curaverunt, nos, huiusmodi petitionibus diligenter auditis et plenius intellectis habitaque diligenti deliberatione cum eisdem fratribus super illis, memoratum terminum ad ipsorum nuntiorum instantiam, quantum ad infrascriptas sententias dumtaxat et penam, a predicto die Mercurii usque ad sex menses computandos a Kalendis mensis Decembris proximo venturi, dummodo ex quo huiusmodi termini prorogatio per venerabilem fratrem nostrum . . archiepiscopum Messanensem, quem pro negotio dicti regni ad te mittimus, vel per eosdem nuntios ad notitiam tuam pervenerit, pecunia decime ecclesiasticorum proventuum tibi, fili rex Anglie, usque ad certum tempus ab apostolica sede concesse, tam collecta iam quam de cetero colligenda, nequaquam impendatur vel detineatur, sed mercatoribus pro exoneratione debitorum Romane ecclesie libere absque quolibet obstaculo persolvatur, et si aliqua ipsius quantitas per te vel tuo mandato forsitan est expensa, de illa infra mensem, postquam predicta prorogatio ad notitiam tuam pervenerit, ut premissum est, per te plenarie satisfiat, de predictorum fratrum consilio et assensu taliter prorogamus, videlicet quod interim tu, fili rex Anglie, excommunicationis regnumque tuum interdicti sententias, et tu etiam circa pecuniam, quam venerabilis frater noster . . Herefordensis episcopus, procurator et nuntius tuus, mutuo nomine tuo recepit et pro negotii prefati regni Sicilie prosecutione persolvit et quam etiam tu a tempore memorate concessionis exhibuisti ac te exhibere contigerit in futurum, infrascriptam penam in privilegio predicto contentam, scilicet quod tu et tui heredes nullam contra nos et ecclesiam seu quemquam alium super ipsa pecunia repetitionem habebitis nec aliquam actionem, sed illam ammittetis ex toto, \u2014 quibuslibet iuramentis a te super huiusmodi negotio prestitis nequaquam obstantibus \u2014 nullatenus incurratis. Nulli ergo \u2014 nostre prorogationis etc.Dat. Anagnie, II Nonas Octobris, anno II.\n"
        },
        {
            "type": "edition",
            "value": "Ici reprise de Karl Rodenberg, Epistolae s. XIII e regestis pontificum romanorum selectae, III, Berlin : Weidmann (MGH), 1894, n.\u00a0445a, p.\u00a0404."
        },
        {
            "type": "edition_autre",
            "value": "?"
        },
        {
            "type": "regeste",
            "value": "?"
        },
        {
            "type": "bibliographie_generale",
            "value": "?"
        },
        {
            "type": "apparat_critique",
            "value": "?",
            "children": {
                "numero_note": "a"
            }
        },
        {
            "type": "apparat_critique",
            "value": "?",
            "children": {
                "numero_note": "b"
            }
        },
        {
            "type": "apparat_critique",
            "value": "?",
            "children": {
                "numero_note": "c"
            }
        },
        {
            "type": "apparat_critique",
            "value": "?",
            "children": {
                "numero_note": "d"
            }
        },
        {
            "type": "apparat_critique",
            "value": "?",
            "children": {
                "numero_note": "e"
            }
        },
        {
            "type": "apparat_critique",
            "value": "?",
            "children": {
                "numero_note": "f"
            }
        },
        {
            "type": "notes_historiques",
            "value": "?",
            "children": {
                "numero_note": "1"
            }
        },
        {
            "type": "notes_historiques",
            "value": "?",
            "children": {
                "numero_note": "2"
            }
        },
        {
            "type": "notes_historiques",
            "value": "?",
            "children": {
                "numero_note": "3"
            }
        }
    ]
}