{
    "id": 149216,
    "name": "aposcripta-8779",
    "type": "acte",
    "url": "http:\/\/telma-chartes.irht.cnrs.fr\/aposcripta\/notice\/149216",
    "project_slug": "aposcripta",
    "project_label": "APOSCRIPTA \u2013 Lettres des papes",
    "user": "lettrespontificalesadmin",
    "last_update": "2020-10-19 16:39:55",
    "licence": "Attribution - Pas d\u2019Utilisation Commerciale - Partage dans les M\u00eames Conditions 3.0 France (CC BY-NC-SA 3.0 FR) ",
    "licence_url": "https:\/\/creativecommons.org\/licenses\/by-nc-sa\/3.0\/fr\/",
    "elements": [
        {
            "type": "pape",
            "value": "Innocent IV (1243-1254)"
        },
        {
            "type": "destinataire",
            "value": "Nobili viro Hartmanno, nato nobilis viri L. comitis de Froburc"
        },
        {
            "type": "date_libre",
            "value": "V kalendas februarii, anno octavo"
        },
        {
            "type": "date",
            "value": " 1251\/01\/28",
            "children": {
                "date_deb_annee": "1251",
                "date_deb_mois": "01",
                "date_deb_jour": "28"
            },
            "range": {
                "date_apres": 12510128,
                "date_avant": 12510128
            }
        },
        {
            "type": "date_lieu",
            "value": "Lugduni"
        },
        {
            "type": "sources_manuscrites",
            "value": "R. CIT\u00c9 DU VATICAN, Archivio Segreto Vaticano, <hi rend=\"italic\">Registra Vaticana<\/hi> ... Inn.\u00a0IV Reg. Vol.\u00a0II, 37; Lib.\u00a0VIII, 260. Pertzii exemplar contulimus cum illo, quod Berger edidit.",
            "children": {
                "type_source": "Registre de la chancellerie apostolique"
            }
        },
        {
            "type": "genre",
            "value": "Mandement (littere cum filo canapis)"
        },
        {
            "type": "analyse",
            "value": "Innocentius IV papa Hartmanno nato L[udowici III] comitis de Froburc facultatem concedit, ut cum Anna filia [Rudolfi] comitis de Rapreswiler, quae H[artmanno] iuniori comiti de Kiburc desponsata quondam fuerit, matrimonium contrahat [Rodenberg]."
        },
        {
            "type": "transcription",
            "value": "<?xml version=\"1.0\" encoding=\"UTF-8\"?>\nNobili viro Hartmanno, nato nobilis viri L. comitis de Froburc.Exhibita nobis ex parte tua petitio continebat, quod cum nobilis vir H. iunior comes de Kaburch tertia te linea consanguinitatis attingens Annam filiam nobilis viri . . comitis de Rapreswiler olim sibi matrimonialiter copulasset, nulla carnali copula subsecuta, postmodum pro eo, quod idem comes de Kiburch prius cum matertera ipsius A. sponsolia per verba de futuro contraxerat, fuit auctoritate sedis apostolice inter ipsos divortium celebratum. Et nos postmodum, intellecto quod tu eandem Annam cupiebas matrimoniali federe tibi iungi, quia id impediebat publice honestatis iustitia, ex eo quod dicto comiti de Kiburch consanguineo tuo fuerat desponsata, venerabili fratri nostro . . episcopo Albanensi, tunc in partibus illis apostolice sedis legato, litteras nostras direximus, inter cetera continentes, ut si videret ecclesie negotio expedire, contrahendi cum eadem Anna liberam tibi auctoritate nostra, si absque scandalo posset fieri, de assensu carissimi in Christo filii nostri W. regis Romanorum illustris concederet facultatem. Cum dilectus filius . . electus Spirensis super hiis auctoritate ipsius legati, prout ab eo receperat in mandatis, in negotio ipso procedens, ac per fide dignos intelligens, quod ex copula tua eiusdemque A. nullum oriretur scandalum et magna posset exinde utilitas ecclesie provenire, de consilio nichilominus et assensu dicti regis licentiam tibi concesserit, ut cum prefata Anna libere contraheres \u2014 impedimento huiusmodi non obstante \u2014: petivisti suppliciter id per sedem apostolicam roborari. Tuis itaque ac dilecti filii nobilis viri L. comitis de Froburch, patris tui, cuius devotionem Romana ecclesia in pluribus est experta, supplicationibus inclinati, quod per dictos episcopum et electum super hoc factum est ratum habentes et gratum, illud auctoritate apostolica confirmamus et presentis scripti patrocinio communimus. Nulli ergo etc. nostre confirmationis etc.Dat. Lugduni, V Kalendas Februarii, anno octavo.\n"
        },
        {
            "type": "edition",
            "value": "Ici reprise de Karl Rodenberg, Epistolae s. XIII e regestis pontificum romanorum selectae, III, Berlin : Weidmann (MGH), 1894, n.\u00a042, p.\u00a031."
        },
        {
            "type": "edition_autre",
            "value": "?"
        },
        {
            "type": "regeste",
            "value": "?"
        },
        {
            "type": "bibliographie_generale",
            "value": "?"
        },
        {
            "type": "apparat_critique",
            "value": "?",
            "children": {
                "numero_note": "a"
            }
        },
        {
            "type": "apparat_critique",
            "value": "?",
            "children": {
                "numero_note": "b"
            }
        },
        {
            "type": "apparat_critique",
            "value": "?",
            "children": {
                "numero_note": "c"
            }
        },
        {
            "type": "apparat_critique",
            "value": "?",
            "children": {
                "numero_note": "d"
            }
        },
        {
            "type": "apparat_critique",
            "value": "?",
            "children": {
                "numero_note": "e"
            }
        },
        {
            "type": "apparat_critique",
            "value": "?",
            "children": {
                "numero_note": "f"
            }
        },
        {
            "type": "notes_historiques",
            "value": "?",
            "children": {
                "numero_note": "1"
            }
        },
        {
            "type": "notes_historiques",
            "value": "?",
            "children": {
                "numero_note": "2"
            }
        },
        {
            "type": "notes_historiques",
            "value": "?",
            "children": {
                "numero_note": "3"
            }
        }
    ]
}