{
    "id": 148978,
    "name": "aposcripta-8544",
    "type": "acte",
    "url": "http:\/\/telma-chartes.irht.cnrs.fr\/aposcripta\/notice\/148978",
    "project_slug": "aposcripta",
    "project_label": "APOSCRIPTA \u2013 Lettres des papes",
    "user": "l_valliere",
    "last_update": "2020-10-19 16:39:52",
    "licence": "Attribution - Pas d\u2019Utilisation Commerciale - Partage dans les M\u00eames Conditions 3.0 France (CC BY-NC-SA 3.0 FR) ",
    "licence_url": "https:\/\/creativecommons.org\/licenses\/by-nc-sa\/3.0\/fr\/",
    "elements": [
        {
            "type": "pape",
            "value": "Gr\u00e9goire XI (1370-1378)"
        },
        {
            "type": "destinataire",
            "value": "Les archev\u00eaques de Cologne, Tr\u00e8ves et Mayence et les autres archev\u00eaques ainsi que leurs suffragants et les autres \u00e9v\u00eaques d'Allemagne, du Brabant et de Flandre"
        },
        {
            "type": "date_libre",
            "value": "III nonas decembris, anno septimo"
        },
        {
            "type": "date",
            "value": "1377\/12\/02",
            "children": {
                "date_deb_annee": "1377",
                "date_deb_mois": "12",
                "date_deb_jour": "02"
            },
            "range": {
                "date_apres": 13771202,
                "date_avant": 13771202
            }
        },
        {
            "type": "date_lieu",
            "value": "Rome, Saint-Pierre"
        },
        {
            "type": "genre",
            "value": "Mandement (littere cum filo canapis)"
        },
        {
            "type": "analyse",
            "value": "Bul van Gregorius XI gericht tot de aartsbisschoppen van Keulen, Trier, Mainz en andere Duitsche prelaten alsmede tot hunne suffraganen en alle bisschoppen van Duitschland, Brabant en Vlaanderen, waarbij hij de in armoede levende godvruchtige personen, die alleen om den wille hunner kleedij verontrust worden, onder zijne bescherming neemt. \u2014 De paus zegt vernomen te hebben, dat in die gewesten veel personen van beider kunne in armoede en godvruchtigheid leven, die nochtans ter oorzake van het dragen van zekere kleederen door enkele prelaten en inquisiteurs ten onrechte vervolgd worden tot groot schandaal van velen. De paus gebiedt den bisschoppen, dat zij zulks in hun gebied zouden beletten en den gebanvloekten of gestraften absolutie verleenen, terwijl hunne vervolgers door de geestelijke censuur moeten bedwongen worden, niettegenstaande alle dispensatien [Frdericq]."
        },
        {
            "type": "sources_manuscrites",
            "value": "R. CIT\u00c9 DU VATICAN, Archivio segreto Vaticano, <i>Registra Avenionensia<\/i> 201, fol. 355v, <i>gratis pro Deo<\/i>.",
            "children": {
                "type_source": "Registre de la chancellerie apostolique"
            }
        },
        {
            "type": "edition",
            "value": "Ici reprise de Paul Fredericq, <i>Corpus documentorum inquisitionis haereticae pravitatis Neerlandicae<\/i>, Gand, 5 vol., 1889-1906, I, n. 225, p. 237-238 (d'apr\u00e8s Mosheim) <a target=\"_blank\" href= \" https:\/\/archive.org\/details\/MN5018_01ucmf_0\/page\/n287\/mode\/2up\"> [en ligne]<\/a>."
        },
        {
            "type": "edition_autre",
            "value": "Johann Lorenz Mosheim, <i>De Beghardis et Beguinabus commentarius<\/i>, Leipzig, 1790, p. 401-402 <a target=\"_blank\" href= \" https:\/\/archive.org\/details\/iolavrentiamosh00moshgoog\/page\/n423\/mode\/2up\"> [en ligne]<\/a>."
        },
        {
            "type": "edition_autre",
            "value": "Extraits : Heinrich Volbert Sauerland, <i>Urkunden und Regesten zur Geschichte der Rheinlande...<\/i>, t. V, 1364-1378, Bonn, 1910, n. 1260."
        },
        {
            "type": "edition_autre",
            "value": "Camille Tihon, <i>Lettres de Gr\u00e9goire XI (1371-1378)<\/i>, Bruxelles-Rome, 4 t., 1958-1975, n. 3992 (d'apr\u00e8s R)."
        },
        {
            "type": "transcription",
            "value": "<?xml version=\"1.0\" encoding=\"UTF-8\"?>\nGregorius episcopus, servus servorum Dei, venerabilibus fratribus Coloniensi, Treverensi, Moguntinensi aliisque archiepiscopis et tam eorum suffraganeis quam aliis episcopis universis per Alamanniam, Brabantiam et Flandriam constitutis, ad quos praesentes literae pervenerint, salutem et apostolicam benedictionem. Ad audientiam nostram pervenit quod in vestris civitatibus et dioecesibus sint nonnulli pauperes utriusque sexus, qui humiliter et honeste in fidei puritate et honestis vestibus aut habitibus in paupertate et castitate vivunt et ecclesias devote frequentant et quod, licet hujusmodi pauperes nobis et Romanae ecclesiae ac eorum praelatis et curatis reverenter obediant, nullis erroribus se involvendo, sed, intimae caritatis amore, Deo et propter ipsum proximis serviendo, tamen nonnulli a vobis seu per vos ordinarii et etiam aliqui inquisitores haereticae pravitatis in illis partibus apostolica auctoritate deputati hujusmodi pauperes occasione vestium indebite et injuste perturbant, ipsorum vestes simplices et honestas decurtari, transformari et quandoque transmutari faciendo, necnon occasione hujusmodi vestium sacramenta ecclesiastica inhibendo, et alia gravamina inferendo, eisdem in detrimentum et damnum ipsorum pauperum et scandalim plurimorum. Quocirca fraternitati vestrae per apostolica scripta mandamus, quatenus quilibet vestrum in dioecesi sua pauperes ipsius occasione hujusmodi earum simplicium et honestarum vestium nullatenus molestet, nec ab aliis molestari, quantum in vobis fuerit, dum tamen fideles et catholici reperiantur, permittatis. Et si quos eorum, occasione praedicta, excommunicatos vel dictis sacramentis privatos vel alias indebite punitos reperietis auctoritate apostolica praedicta restituatis eosdem in forma ecclesiae consueta, contradictores per censuram ecclesiasticam, appellatione remota, compescendo. Non obstante si aliquibus communiter vel divisim a Sede apostolica indultum existat, quod interdici, suspendi vel excommunicari non possit per literas apostolicas non facientes plenam et expressam ac de verbo ad verbum de indulto hujusmodi mentionem. Datum Romae apud Sanctum Petrum, III nonas decembris, pontificatus nostri anno septimo.\n"
        }
    ]
}