{
    "id": 26356,
    "name": "aposcripta-3435",
    "type": "acte",
    "url": "http:\/\/telma-chartes.irht.cnrs.fr\/aposcripta\/notice\/26356",
    "project_slug": "aposcripta",
    "project_label": "APOSCRIPTA \u2013 Lettres des papes",
    "user": "lettrespontificalesadmin",
    "last_update": "2020-10-19 16:27:59",
    "licence": "Attribution - Pas d\u2019Utilisation Commerciale - Partage dans les M\u00eames Conditions 3.0 France (CC BY-NC-SA 3.0 FR) ",
    "licence_url": "https:\/\/creativecommons.org\/licenses\/by-nc-sa\/3.0\/fr\/",
    "elements": [
        {
            "type": "pape",
            "value": "Alexandre III (1159-1181)"
        },
        {
            "type": "date_lieu",
            "value": "Terracina"
        },
        {
            "type": "date_libre",
            "value": "1161 December 21"
        },
        {
            "type": "date",
            "value": " 1161\/12\/21",
            "children": {
                "date_deb_annee": "1161",
                "date_deb_mois": "12",
                "date_deb_jour": "21"
            },
            "range": {
                "date_apres": 11611221,
                "date_avant": 11611221
            }
        },
        {
            "type": "analyse",
            "value": "Alexander III bewilligt dem Priorate St.-Jean de Troyes freies Begr\u00e4bnissrecht."
        },
        {
            "type": "transcription",
            "value": "<?xml version=\"1.0\" encoding=\"UTF-8\"?>\n Alexander episcopus servus servorum dei dilectis filiis, magistro .Nicholao priori et | universis fratribus sancti Johannis Trecensis1, salutem et apostolicam benedictionem. Ultimam voluntatem defuncti debere servari, et ecclesie consuetudo obtinuit et canonum sanxit auctoritas. Eapropter, vestris iustis precibus inclinati, sepulturam eiusdem loci liberam esse concedimus. Statuentes, ut eorum devotioni et extreme voluntati, qui se illic deliberaverint sepelliri (!), nisi forte excommunicati sint vel interdicti, nullus obsistat, salva tamen canonica iustitia parrochialium ecclesiarum, de quibus mortuorum corpora assumuntur. Nulli ergo omnino hominum liceat, hanc paginam nostre confirmationis ausu temeritatis infringere vel ei aliquatenus contraire. Si quis autem hoc attemptare presumpserit, indignationem omnipotentis dei et beatorum Petri et Pauli apostolorum eius se noverit incursurum. \u2014 Dat. | Terracine, xii Kl. Jan.\n"
        },
        {
            "type": "edition",
            "value": "Julius von Pflugk-Harttung, <i>Acta pontificum Romanorum inedita<\/i>, T\u00fcbingen, 1880, I, n. 247, p. 230"
        },
        {
            "type": "sources_manuscrites",
            "value": "Or. im Archive des D\u00e9p. Aube zu Troyes."
        },
        {
            "type": "remarques",
            "value": "Perg. ital., br. 0,18, lang 0,18, umgeschlagen 0,02\u20130,023, Bullirung durch 2 L\u00f6cher, Schnur und Bulle verloren, Faltung der Breven."
        },
        {
            "type": "notes_historiques",
            "value": "<i>St.-Jean geh\u00f6rte zu Monti\u00e9ramey<\/i> (<i>D. Troyes<\/i>).",
            "children": {
                "numero_note": "1"
            }
        },
        {
            "type": "genre",
            "value": "Titre, g\u00e9n\u00e9ral (littere gratiose, cum filo serico)"
        }
    ]
}