{
    "id": 147907,
    "name": "aposcripta-7523",
    "type": "acte",
    "url": "http:\/\/telma-chartes.irht.cnrs.fr\/aposcripta\/notice\/147907",
    "project_slug": "aposcripta",
    "project_label": "APOSCRIPTA \u2013 Lettres des papes",
    "user": "l_valliere",
    "last_update": "2020-10-19 16:39:38",
    "licence": "Attribution - Pas d\u2019Utilisation Commerciale - Partage dans les M\u00eames Conditions 3.0 France (CC BY-NC-SA 3.0 FR) ",
    "licence_url": "https:\/\/creativecommons.org\/licenses\/by-nc-sa\/3.0\/fr\/",
    "elements": [
        {
            "type": "pape",
            "value": "Cl\u00e9ment IV (1265-1268)"
        },
        {
            "type": "destinataire",
            "value": "Le cardinal-\u00e9v\u00eaque d'Albano Raoul Grosparmi, l\u00e9gat du Si\u00e8ge apostolique"
        },
        {
            "type": "date_libre",
            "value": "VII idus maii, anno tertio"
        },
        {
            "type": "date",
            "value": "1267\/05\/09",
            "children": {
                "date_deb_annee": "1267",
                "date_deb_mois": "05",
                "date_deb_jour": "09"
            },
            "range": {
                "date_apres": 12670509,
                "date_avant": 12670509
            }
        },
        {
            "type": "date_lieu",
            "value": "Viterbe"
        },
        {
            "type": "genre",
            "value": "Lettre, g\u00e9n\u00e9ral (apr\u00e8s 1198, littere cum filo canapis)"
        },
        {
            "type": "analyse",
            "value": "Significat R[adulpho] episcopo Albanensi, apostolice Sedis legato, que salubria monita [Carolo] regi Sicilie dederit ; \u00ab inter que expressimus ea, ... ut ... officiales singulos officiis suis uti sineret, nec promiscuis actibus usum confunderet eorumdem, sigilli sui questum sub equo moderamine limitaret... \u00bb ... \u00ab Sane circa restitutiones, que nimis dilate sunt, faciendas, ... certas personas citra Farum destinabimus, et tu interim in Sicilia facias quod incumbit. \u00bb Addit L[udovicum] regem Francie cum tribus filiis suis, P[hilippo], J[ohanne] et P[etro], et Atrebatensi, Britannie, Flandrie, Augi comitibus, et multis aliis nobilibus, crucem assumpsisse ; [Carolum] regem Sicilie potestariam Florentie et quarumdam aliarum terrarum in Tuscia accepisse, et jam multum depressam esse potentiam Gibellinam. \u00ab Bethleemitanum quondam episcopum ad ecclesiam Cusentinam transtulimus. N[icholaum] Remensem canonicum in Tranensem, in Acherontinam fratrem Laurentium, Petrum Romani seu de Ferentino8 capellanum nostrum posuimus in Sorana, et ad Montisregalis ecclesiam Corinthiensem duximus transferendum... Super ecclesia Cassanensi tue satisfaciemus voluntati \u00bb [Jordan].\nClemens IV. an R[aoul Grosparmi], Kardinalbischof von Albano, apostolischer Legat: unterrichtet ihn vom Verlauf seiner Gespr\u00e4che mit K\u00f6nig K[arl I.] von Sizilien \u00fcber dessen problematische Herrschaftsf\u00fchrung ; K\u00f6nig L[udwig IX.] von Frankreich habe zusammen mit einigen Gro\u00dfen seines Reiches das Kreuz genommen ; K\u00f6nig K[arl I.] von Sizilien sei in Florenz und einigen anderen St\u00e4dten Tusziens Podest\u00e0 geworden ; teilt Einzelheiten \u00fcber die Neuordnung der Kirche [im K\u00f6nigreich Sizilien] mit [Thumser]."
        },
        {
            "type": "sources_manuscrites",
            "value": "R<sup>1<\/sup>. CIT\u00c9 DU VATICAN, Archivio segreto Vaticano, <i>Registra Vaticana<\/i> 30, fol. 56v (<i>VII id. maii anno secundo<\/i>).",
            "children": {
                "type_source": "Formulaire, collection de lettres m\u00e9di\u00e9vale"
            }
        },
        {
            "type": "sources_manuscrites",
            "value": "R<sup>2<\/sup>. CIT\u00c9 DU VATICAN, Archivio segreto Vaticano, <i>Registra Vaticana<\/i> 33, ep. 320, fol. 55v.",
            "children": {
                "type_source": "Formulaire, collection de lettres m\u00e9di\u00e9vale"
            }
        },
        {
            "type": "sources_manuscrites",
            "value": "R<sup>3<\/sup>. CIT\u00c9 DU VATICAN, Archivio segreto Vaticano, <i>Registra Vaticana<\/i> 34, fol. 84 (<i>VIII id. maii<\/i>).",
            "children": {
                "type_source": "Formulaire, collection de lettres m\u00e9di\u00e9vale"
            }
        },
        {
            "type": "edition",
            "value": "Ici reprise de Mathias Thumser, <i>Die Briefe Papst Clemens\u2019 IV. (1265\u20131268)<\/i>, Vorl\u00e4ufige Edition, MGH, 2015, n. 325."
        },
        {
            "type": "edition_autre",
            "value": "Edmond Mart\u00e8ne, Ursin Durand, <i>Thesaurus novus anecdotorum<\/i>, Paris, 1717, II, n. 462, col. 464 <a target=\"_blank\" href=\"https:\/\/archive.org\/stream\/ThesaurusNovusAnecdotorum2\/Thesaurus_novus_anecdotorum_2#page\/n267\/mode\/2up\"> [en ligne]<\/a>."
        },
        {
            "type": "regeste",
            "value": "Potthast, <i>Regesta pontificum Romanorum<\/i>, n. 20003 <a target=\"_blank\" href=\"https:\/\/archive.org\/stream\/RegestaPontificumRomanorum\/ph#page\/n1627\/mode\/2up\"> [en ligne]<\/a>."
        },
        {
            "type": "regeste",
            "value": "\u00c9douard Jordan, <i>Les registres de Cl\u00e9ment IV (1265-1268)<\/i>, Paris, 1893-1945, n. 1194, d\u2019apr\u00e8s R<sup>1<\/sup>, R<sup>2<\/sup>, R<sup>3<\/sup> et R<sup>4<\/sup>."
        },
        {
            "type": "bibliographie_generale",
            "value": "Mathias Thumser, \u00ab Zur \u00dcberlieferungsgeschichte der Briefe Clemens'IV. (1265-1268) \u00bb, <i>Deutsches Archiv f\u00fcr Erforschung des Mittelalters<\/i>, 51\/1, 1995, p. 115-168."
        },
        {
            "type": "transcription",
            "value": "<?xml version=\"1.0\" encoding=\"UTF-8\"?>\nR[adulfo] episcopo Albanensi, apostolice Sedis legato. Nuntium tuum tenuimus, ut more fructum, quam carissimus in Christo filius noster C[arolus] rex Sicilie illustris in nostra fecit curia, rescribere tibi certius valeremus. Sciat autem tua fraternitas, quod intellectis ab olim pluribus, que in status sui discrimen vergere videbantur, eundem monuimus diligenter, ut et nobis et sibi providens ea consultius emendaret, alioquin eversionis periculum non immerito poterat formidare. Inter que hec expressimus ea sibi verbo commendantes et scripto, ut videlicet ad restitutiones iniunctas sibi vel in posterum indicendas facilem et benivolum se preberet, iustitiam faceret in regno suo servari, officialibus certa salaria constitueret, ultra illa quicquam recipientes iuxta ipsorum merita seu demerita in aliorum puniret exemplum, stipendiariis debita solveret, ab eisdem regnicolas concuti non permitteret, domum suam disponeret, officiales singulos officiis suis uti sineret nec promiscuis actibus usum confunderet eorundem, sigilli sui questum sub equo moderamine limitaret, sapientum consiliis acquiesceret sue prudentie non innitens, expensis inutilibus parceret, temporibus competentibus super eis rationem audiret, adibilem et affabilem pro loco et tempore suis subditis et legatis ad eum venientibus se preberet, prelatis, quos ad suum vocabat consilium, certa vadia constitueret, libertatem ecclesiasticam tam ecclesiis quam earum hominibus conservaret, matrimonia suorum libera esse sineret, nisi forsan personarum suspicio aliud suaderet, a collectis indebitis et albergis omnium abstineret, probis demum militibus et fidelibus servientibus terras daret, qui servire tenerentur eidem eo fidelius et instantius, quo non eius dumtaxat, sed suum negotium prosequi tenerentur. Hec et alia ei diximus non sub tali epilogo, sed intelligibiliter et diffuse, ad que omnia bene respondens proficere sibi suisque poterit, si fecerit, quod spopondit. Sane circa restitutiones, que nimis dilate sunt, faciendas, non ut tuo derogemus honori, sed ut onera relevemus, certas personas ad terras citra Farum duximus destinandas. Et tu interim in Sicilia facias, quod incumbit. Scire rursum te volumus, quod in die Annuntiationis Dominice carissimus in Christo filius noster L[udovicus] rex illustris Francie cum tribus filiis suis P[hilippo], I[ohanne] et P[etro] crucem assumpsit et cum eo Atrabatensis, Britannie, Flandrie, Augi et quidam alii comites, barones et milites alii in magno numero, qui per Dei gratiam de die in diem auge-tur. Tempus autem passagii nondum scitur, sed subsidium militum ad Terre Sancte sustentationem interim destinatur. Predictus rex Sicilie potestariam Florentie et quarundam aliarum terrarum in Tuscia usque ad Kalendas Ianuarii et inde usque ad VI annos recepit. Et iam multum depressa est potentia Gibellina. Bethlemitanum quondam episcopum ad ecclesiam Cusentinam transtulimus, N[icolaus] Remensem canonicum in Tranensem, in Acherontinam fratrem Laurentium et P[etrum] Romani seu de Ferentino capellanum nostrum posuimus in Sorana, ad Montis Regalis ecclesiam Corinthiensem duximus transferendum. Nec de nostra disputes conscientia, quia sana fuit et integra in hac parte, sicut ex anima inclusa presentibus tibi fieri poerit manifestum. Super ecclesia Cassanensi tue satisfacimus voluntati. Et de quibusdam aliis tibi scribimus id, quod credimus expedire. Datum Viterbii, VII idus maii, anno III.\n"
        },
        {
            "type": "sources_manuscrites",
            "value": "R<sup>4<\/sup>. CIT\u00c9 DU VATICAN, Archivio segreto Vaticano, <i>Registra Vaticana<\/i> 35, ep. 320, fol. 62v (<i>VII id. maii<\/i>).",
            "children": {
                "type_source": "Formulaire, collection de lettres m\u00e9di\u00e9vale"
            }
        }
    ]
}