{
    "id": 25587,
    "name": "aposcripta-2684",
    "type": "acte",
    "url": "http:\/\/telma-chartes.irht.cnrs.fr\/aposcripta\/notice\/25587",
    "project_slug": "aposcripta",
    "project_label": "APOSCRIPTA \u2013 Lettres des papes",
    "user": "lettrespontificalesadmin",
    "last_update": "2020-10-19 16:27:46",
    "licence": "Attribution - Pas d\u2019Utilisation Commerciale - Partage dans les M\u00eames Conditions 3.0 France (CC BY-NC-SA 3.0 FR) ",
    "licence_url": "https:\/\/creativecommons.org\/licenses\/by-nc-sa\/3.0\/fr\/",
    "elements": [
        {
            "type": "pape",
            "value": "Alexandre IV (1254-1261)"
        },
        {
            "type": "date_lieu",
            "value": "Anagni"
        },
        {
            "type": "date_libre",
            "value": "X kalendas februarii, anno quinto"
        },
        {
            "type": "date",
            "value": " 1259\/01\/23",
            "children": {
                "date_deb_annee": "1259",
                "date_deb_mois": "01",
                "date_deb_jour": "23"
            },
            "range": {
                "date_apres": 12590123,
                "date_avant": 12590123
            }
        },
        {
            "type": "analyse",
            "value": "X pape<br\/>PRIVILEGIUM ALEXANDRI PAP\u00c6 IV, QUOD PR\u00c6LATI NON DEBEANT EXCEDERE NUMERUM EVECTIONUM QUUM PARROCHIALES ECCLESIAS MONASTERII CLUNIACENSIS VISITANT. PRIVILEGIUM ALEXANDRI PAP\u00c6 IV. quod Pr\u00e6lati non debeant excedere numerum evectionum in Lateranensi Concilio constitutum, cum Parochiales Ecclesias Monasterii Clun. et Prioratuum Ordinis visitant: neque quidquam eis, aut alicui de ipsorum familia, occasione alicujus officii, aut consuetudinis debet exhiberi, pr\u00e6ter procurationes in victualibus moderatas."
        },
        {
            "type": "transcription",
            "value": "<?xml version=\"1.0\" encoding=\"UTF-8\"?>\n[Alexander Episcopus servus servorum Dei, dilectis filiis Abbati et conventui Monasterii Cluniacensis salutem et Apostolicam benedictionem. Exigentibus vestr\u00e6 Devotionis meritis votis vestris libenter annuimus, et petitiones vestras quantum cum Deo possumus favorabiliter exaudimus. Hinc est quod vestris supplicationibus inclinati auctoritate vobis pr\u00e6sentium indulgemus ut, si Ecclesiarum Pr\u00e6lati numerum Evectionum et personarum in Lateranensi Concilio constitutum, cum vestras, et Monasteriorum, ac Prioratuum vestrorum Ecclesias visitarint, excedere fort\u00e8 pr\u00e6sumpserint, et ipsi pro Evectionibus, vel personis, in quibus excesserint eumdem numerum, vel aliquis de ipsorum familia, occasione alicujus officii, aut consuetudinis, seu quolibet alio modo, eorumque nomine pecuniam, vel aliquid aliud petierint, pr\u00e6ter Procurationes tantum in victualibus moderatas: liberum sit vobis, et Prioribus Monasteriorum, et Prioratuum pr\u00e6dictorum quod taliter petitur denegare. Et si fort\u00e8 propter hoc dicti Pr\u00e6lati, vel eorum aliquis in Ecclesias ipsas, vel Religiosos, aut Clericos ibidem morantes aliquam sententiam promulgaverint, ipsam decernimus non tenere. Nulli ergo, etc. Datum Anagni\u00e6 X. Kalendas Februarii, Pontificatus nostri anno V.]\n"
        },
        {
            "type": "edition",
            "value": "Ici tir\u00e9e du projet <i>CBMA - Corpus Burgundiae Medii Aevi<\/i>, document Ici reprise de Pierre Simon, <i>Bullarium sacri Ordinis cluniacensis, complectens plurima privilegia per summos pontifices tum ipsi cluniacensi abbatiae, tum ei subditis monasteriis hactenus concessa<\/i>, Lyon : Jullieron, 1680, p. 129, col. 1., num\u00e9ris\u00e9e par le projet Corpus de la Bourgogne du Moyen \u00c2ge, [En ligne] <a href=\"http:\/\/www.cbma-project.eu\" target=\"_blank\">http:\/\/www.cbma-project.eu<\/a>  "
        },
        {
            "type": "sources_manuscrites",
            "value": "\u00e0 renseigner."
        },
        {
            "type": "remarques",
            "value": "\r\n\r\nIndications dans l'\u00e9dition des Chartes de Cluny quand Bernard et Bruel n'ont pas repris le texte : Alexander, etc. Exigentibus vestr\u00e6 devotionis, etc. (Bull. Clun., p.\u00a0129, col.\u00a01.).(E.\u00a041, XXXVI et 83, LXXV.)"
        },
        {
            "type": "genre",
            "value": "Titre, g\u00e9n\u00e9ral (littere gratiose, cum filo serico)"
        },
        {
            "type": "regeste",
            "value": "Auguste Bernard, Alexandre Bruel, <i>Recueil des chartes de l'abbaye de Cluny<\/i>. VI. <i>1211-1300<\/i>, Paris : Imprimerie nationale, 1903 <a href=\"http:\/\/gallica.bnf.fr\/ark:\/12148\/bpt6k367019?rk=21459;2\" target=\"_blank\">[en ligne]<\/a>, p. 467, n. 5003."
        },
        {
            "type": "destinataire",
            "value": "L'abb\u00e9 et la communaut\u00e9 du monast\u00e8re de Cluny"
        }
    ]
}