{
    "id": 149339,
    "name": "aposcripta-8902",
    "type": "acte",
    "url": "http:\/\/telma-chartes.irht.cnrs.fr\/aposcripta\/notice\/149339",
    "project_slug": "aposcripta",
    "project_label": "APOSCRIPTA \u2013 Lettres des papes",
    "user": "lettrespontificalesadmin",
    "last_update": "2020-10-19 16:39:57",
    "licence": "Attribution - Pas d\u2019Utilisation Commerciale - Partage dans les M\u00eames Conditions 3.0 France (CC BY-NC-SA 3.0 FR) ",
    "licence_url": "https:\/\/creativecommons.org\/licenses\/by-nc-sa\/3.0\/fr\/",
    "elements": [
        {
            "type": "pape",
            "value": "Innocent IV (1243-1254)"
        },
        {
            "type": "destinataire",
            "value": "Nobili viro . . marchioni Estensi"
        },
        {
            "type": "date_libre",
            "value": "VII idus iulii, anno decimo"
        },
        {
            "type": "date",
            "value": " 1252\/07\/09",
            "children": {
                "date_deb_annee": "1252",
                "date_deb_mois": "07",
                "date_deb_jour": "09"
            },
            "range": {
                "date_apres": 12520709,
                "date_avant": 12520709
            }
        },
        {
            "type": "date_lieu",
            "value": "Perusii"
        },
        {
            "type": "sources_manuscrites",
            "value": "R. CIT\u00c9 DU VATICAN, Archivio Segreto Vaticano, <hi rend=\"italic\">Registra Vaticana<\/hi> ... Inn.\u00a0IV Reg. Vol.\u00a0II, 197; Lib.\u00a0X, 16. Pertzii exemplar contulimus cum Regestis.",
            "children": {
                "type_source": "Registre de la chancellerie apostolique"
            }
        },
        {
            "type": "genre",
            "value": "Mandement (littere cum filo canapis)"
        },
        {
            "type": "analyse",
            "value": "Innocentius IV papa [Azzoni VII] marchioni Estensi indulget, ut ipse et sui ea, quae de bonis quondam F[riderici II] et inimicorum ecclesiae, postquam iidem excommunicati sint, habuerint, licite retinere possint [Rodenberg]."
        },
        {
            "type": "transcription",
            "value": "<?xml version=\"1.0\" encoding=\"UTF-8\"?>\nNobili viro . . marchioni Estensi.Hiis, que tibi accomoda et salubria intuemur, libenter favoris benivolentiam impertimur. Cum igitur, sicut nobis exponere curavisti, tu et tibi adherentes de bonis inimicorum tuorum habueritis et habere, si instans guerra duraverit, plurima bona speretis, nos, tuis precibus inclinati, quod ea, que de bonis condam Fr. olim Romanorum imperatoris aut eius familie seu inimicorum ecclesie, postquam fuerunt excommunicationis innodati vinculo, habuistis, possitis licite retinere, ita quod ad restitutionem non teneamini aliquatenus predictorum, auctoritate vobis presentium indulgemus. Nulli ergo \u2014 nostre concessionis etc. Si quis autem etc.Dat. Perusii, VII Idus Iulii, anno decimo.\n"
        },
        {
            "type": "edition",
            "value": "Ici reprise de Karl Rodenberg, Epistolae s. XIII e regestis pontificum romanorum selectae, III, Berlin : Weidmann (MGH), 1894, n.\u00a0145, p.\u00a0126."
        },
        {
            "type": "edition_autre",
            "value": "?"
        },
        {
            "type": "regeste",
            "value": "?"
        },
        {
            "type": "bibliographie_generale",
            "value": "?"
        },
        {
            "type": "apparat_critique",
            "value": "?",
            "children": {
                "numero_note": "a"
            }
        },
        {
            "type": "apparat_critique",
            "value": "?",
            "children": {
                "numero_note": "b"
            }
        },
        {
            "type": "apparat_critique",
            "value": "?",
            "children": {
                "numero_note": "c"
            }
        },
        {
            "type": "apparat_critique",
            "value": "?",
            "children": {
                "numero_note": "d"
            }
        },
        {
            "type": "apparat_critique",
            "value": "?",
            "children": {
                "numero_note": "e"
            }
        },
        {
            "type": "apparat_critique",
            "value": "?",
            "children": {
                "numero_note": "f"
            }
        },
        {
            "type": "notes_historiques",
            "value": "?",
            "children": {
                "numero_note": "1"
            }
        },
        {
            "type": "notes_historiques",
            "value": "?",
            "children": {
                "numero_note": "2"
            }
        },
        {
            "type": "notes_historiques",
            "value": "?",
            "children": {
                "numero_note": "3"
            }
        }
    ]
}