{
    "id": 20930,
    "name": "aposcripta-917",
    "type": "acte",
    "url": "http:\/\/telma-chartes.irht.cnrs.fr\/aposcripta\/notice\/20930",
    "project_slug": "aposcripta",
    "project_label": "APOSCRIPTA \u2013 Lettres des papes",
    "user": "lettrespontificalesadmin",
    "last_update": "2020-10-19 16:26:54",
    "licence": "Attribution - Pas d\u2019Utilisation Commerciale - Partage dans les M\u00eames Conditions 3.0 France (CC BY-NC-SA 3.0 FR) ",
    "licence_url": "https:\/\/creativecommons.org\/licenses\/by-nc-sa\/3.0\/fr\/",
    "elements": [
        {
            "type": "pape",
            "value": "C\u00e9lestin III (1191-1198)"
        },
        {
            "type": "date_lieu",
            "value": "n.c."
        },
        {
            "type": "date_libre",
            "value": "1196 Mai 28"
        },
        {
            "type": "analyse",
            "value": "Coelestinus\u00a0III omnibus ecclesiam S. Germani de Pratis (Paris.) diebus quibusdam visitantibus concessam ab Alexandro\u00a0III indulgentiam viginti dierum confirmat.<a class=\"note\" href=\"#note-1\">1<\/a>"
        },
        {
            "type": "transcription",
            "value": "<?xml version=\"1.0\" encoding=\"UTF-8\"?>\nCelestinus episcopus servus servorum Dei universis Christi fidelibus per regnum Francorum constitutis salutem et apostolicam benedictionem. Certum est et multarum scripturarum testimonio comprobatum, qualiter beato Petro celorum regni clavigero dominus ac redemptora noster Ihesus Christus ligandi atque solvendi plenam tribuit potestatem illis precipue verbis, quibus locutus est dicens\u00a0: Tu es Petrus et super hanc Petram edificabo ecclesiam meam, et quodcumque ligaveris super terram, erit (ligatum e)t in celis, et quodcumque solveris super terram, erit solutum et in celis.2 Hanc eandem potestatem cunctis successoribus eius ab eodem redemptore domino nostro fuisse collatam a nullo, qui sacrarum habeat intelligentiam scripturarum, credimus ignorari. Ex eademque potestate nobis, qui in beati Petri cathedra licet indigni accessimus, a domno Ihesu Christo concessa, cum ecclesie sancti Germani Parisiensi, que proprie ad ius sacrosancte Romane ecclesie pertinet, felicis recordationis Alexander papa, predecessor noster, munus dedicationis impenderit et de communi fratrum episcoporum ac cardinalium consilio unum annum de iniuncta penitentia cunctis Dei fidelibus a die dedicationis usque ad octavas pentecostes illuc causa devotionis euntibus relaxaverit et hiis, qui in anniversario ipsius dedicationis die et tribus diebus sequentibus illuc accesserint, viginti dies iniuncte penitentie statuerit indulgendos, nos de beatorum Petri et Pauli meritis confidentes indulgentiam ipsam viginti dierum, sicut a memorato predecessore nostro statuta est in quolibet anni circulo permansura, ratam habemus et ipsam in perpetua firmitate manere statuimus. Universitatem itaque vestram monemus et exhortamur in Domino, quatinus ita corde contrito et humiliato ad eundem locum annis singulis accedatis, ut non alia quam sola devotionis causa illuc accedere videamini et ab omnipotente Domino vestrorum mereamini indulgentiam delictorum. Datum Laterani V Kal. Iunii, pontificatus nostri anno sexto.\n"
        },
        {
            "type": "edition",
            "value": "Samuel Loewenfeld, <i>Epistolae pontificum romanorum ineditae<\/i>, Leipzig : Veit et Comp., 1885, n. 418, p. 262"
        },
        {
            "type": "sources_manuscrites",
            "value": "E. FRANCE, Paris, Archives nationales de France, L.\u00a0235 n.\u00a016<sup>bis<\/sup>.",
            "children": {
                "type_source": "Exp\u00e9dition"
            }
        },
        {
            "type": "notes_historiques",
            "value": "Cf. supra ep.\u00a0240.",
            "children": {
                "numero_note": "1"
            }
        },
        {
            "type": "notes_historiques",
            "value": "Matth.\u00a016, 18 et 19.",
            "children": {
                "numero_note": "2"
            }
        },
        {
            "type": "apparat_critique",
            "value": "redeptor <i>autogr.<\/i>",
            "children": {
                "numero_note": "a"
            }
        },
        {
            "type": "date",
            "value": "1196\/05\/28",
            "children": {
                "date_deb_annee": "1196",
                "date_deb_mois": "05",
                "date_deb_jour": "28"
            },
            "range": {
                "date_apres": 11960528,
                "date_avant": 11960528
            }
        },
        {
            "type": "genre",
            "value": "Bulle"
        }
    ]
}