{
    "id": 20209,
    "name": "aposcripta-196",
    "type": "acte",
    "url": "http:\/\/telma-chartes.irht.cnrs.fr\/aposcripta\/notice\/20209",
    "project_slug": "aposcripta",
    "project_label": "APOSCRIPTA \u2013 Lettres des papes",
    "user": "lettrespontificalesadmin",
    "last_update": "2020-10-19 16:26:46",
    "licence": "Attribution - Pas d\u2019Utilisation Commerciale - Partage dans les M\u00eames Conditions 3.0 France (CC BY-NC-SA 3.0 FR) ",
    "licence_url": "https:\/\/creativecommons.org\/licenses\/by-nc-sa\/3.0\/fr\/",
    "elements": [
        {
            "type": "pape",
            "value": "Jean XXII (1316-1334)"
        },
        {
            "type": "date_lieu",
            "value": "Avignon"
        },
        {
            "type": "date_libre",
            "value": "9 juillet 1323"
        },
        {
            "type": "analyse",
            "value": "R\u00e9ponse du pape au roi de France, au sujet des crimes imput\u00e9s \u00e0 un seigneur fran\u00e7ais. Des instructions ont \u00e9t\u00e9 donn\u00e9es \u00e0 ce sujet \u00e0 l\u2019inquisiteur de Tours, Maurice de Saint-Paul."
        },
        {
            "type": "transcription",
            "value": "<?xml version=\"1.0\" encoding=\"UTF-8\"?>\nRegi1 Francie. \u2014 Regalis excellencie litteras horribilia quedam per nobilem illum2, de quo in ipsis mentio habebatur, sicut asseritur, in fidei catholice derogationem commissa recepimus, inter cetera continentes. Quarum tenore diligenter inspecto, super hiis que per eas regia providentia postulabat dilecto filio Mauricio, de ordine fratrum predicatorum, inquisitori heretice pravitatis in provincia Turonen. auctoritate apostolica deputato, prout considerata qualitate negotii Deo gratum existere, tue magnificentie nostreque decentie convenire vidimus, nostras patentes litteras destinamus. Nec super mora expeditionis huiusmodi miretur, sed nos potius excusatos habeat, quesumus, regia celsitudo. Nam litteras predictas scriptas in vulgari gallico minus plene legere scivimus nec legendas alii libenter committere volebamus ; quod tandem facere et eas transferri de gallico in latinum oportuit, ut eorum valeremus percipere plenius intellectum. Quare velit amodo nobis regia serenitas scribere litteraliter ut communicare secreta regia aliis nisi videremus expediens non sit opus, sed per nos litteris lectis regiis et faciliter intellectis possimus citius quod super illis expedire secundum Deum videbimus respondere. \u2014 Datum Avinioni, vii idus julii, anno VII\u00b0.\n"
        },
        {
            "type": "edition",
            "value": "Jean-Marie Vidal, <i>Bullaire de l\u2019Inquisition fran\u00e7aise au XIV<sup>e<\/sup> si\u00e8cle et jusqu'\u00e0 la fin du Grand Schisme<\/i>, Paris : Letouzey et An\u00e9, 1913, n. 43, p. 76"
        },
        {
            "type": "sources_manuscrites",
            "value": "<i>Reg. Vat.<\/i>, t. <span class=\"smal-caps\">cxi<\/span>, n. 879"
        },
        {
            "type": "sources_manuscrites",
            "value": "Vidal, <i>Le sire de Parthenay<\/i>, p. 423"
        },
        {
            "type": "sources_manuscrites",
            "value": "Coulon, <i>op. cit.<\/i>, n. 1755 (<i>in ext.<\/i>)"
        },
        {
            "type": "sources_manuscrites",
            "value": "Mollat, dans <i>Annales de Saint-Louis-des-Fran\u00e7ais<\/i>, janvier 1904, p. 90 (<i>in ext.<\/i>)."
        },
        {
            "type": "notes_historiques",
            "value": "M. Coulon imprime <i>Reginae<\/i>, ce qui est une erreur.",
            "children": {
                "numero_note": "1"
            }
        },
        {
            "type": "notes_historiques",
            "value": "Jean l\u2019Archev\u00eaque, sire de Parthenay. Voir n. 46, note 5.",
            "children": {
                "numero_note": "2"
            }
        },
        {
            "type": "date",
            "value": "1323\/07\/09",
            "children": {
                "date_deb_annee": "1323",
                "date_deb_mois": "07",
                "date_deb_jour": "09"
            },
            "range": {
                "date_apres": 13230709,
                "date_avant": 13230709
            }
        },
        {
            "type": "genre",
            "value": "Bulle"
        }
    ]
}