{
    "id": 149568,
    "name": "aposcripta-9131",
    "type": "acte",
    "url": "http:\/\/telma-chartes.irht.cnrs.fr\/aposcripta\/notice\/149568",
    "project_slug": "aposcripta",
    "project_label": "APOSCRIPTA \u2013 Lettres des papes",
    "user": "lettrespontificalesadmin",
    "last_update": "2020-10-19 16:40:00",
    "licence": "Attribution - Pas d\u2019Utilisation Commerciale - Partage dans les M\u00eames Conditions 3.0 France (CC BY-NC-SA 3.0 FR) ",
    "licence_url": "https:\/\/creativecommons.org\/licenses\/by-nc-sa\/3.0\/fr\/",
    "elements": [
        {
            "type": "pape",
            "value": "Innocent IV (1243-1254)"
        },
        {
            "type": "destinataire",
            "value": "Nobili viro Iohanni Mero, fideli nostro"
        },
        {
            "type": "date_libre",
            "value": "III nonas novembris, indictione XIII, MCCLIV, anno XII"
        },
        {
            "type": "date",
            "value": " 1254\/11\/03",
            "children": {
                "date_deb_annee": "1254",
                "date_deb_mois": "11",
                "date_deb_jour": "03"
            },
            "range": {
                "date_apres": 12541103,
                "date_avant": 12541103
            }
        },
        {
            "type": "date_lieu",
            "value": "Neapoli"
        },
        {
            "type": "sources_manuscrites",
            "value": "R. CIT\u00c9 DU VATICAN, Archivio Segreto Vaticano, <hi rend=\"italic\">Registra Vaticana<\/hi> ... Inn.\u00a0IV Reg. Vol.\u00a0III, 183; Lib.\u00a0XII, 284. Exemplar nos inde descripsimus.",
            "children": {
                "type_source": "Registre de la chancellerie apostolique"
            }
        },
        {
            "type": "genre",
            "value": "Mandement (littere cum filo canapis)"
        },
        {
            "type": "analyse",
            "value": "Innocentius IV papa Iohanni Moro, fideli suo, qui ad devotionem ecclesiae redierit, castra et bona a quondam Conrado IV concessa confirmat, statuens ut idem ea omnia, de quibus papa Iohannem de Rocca Imperiali notarium investivit, immediate ab ecclesia Romana teneat [Rodenberg]."
        },
        {
            "type": "transcription",
            "value": "<?xml version=\"1.0\" encoding=\"UTF-8\"?>\nNobili viro Iohanni Mero, fideli nostro.Matris ecclesie etc. ut in privilegio Henrici de Rivellis usque: inclinati, donationes et concessiones de Calatamauri, Thermarum, Colatabaturi, Gulisan., Biccari et Calatabian. castris factas tibi per condam Conradum natum condam Fr. olim Romanorum imperatoris gratas habendo, illas necnon et casale Carbonarie, quod te possidere proponis, tibi tuisque heredibus \u2014 non obstantibus quod dictus Conradus erat tunc temporis vinculo excommunicationis astrictus, quodque alias facultatem donandi vel concedendi taliter non habebat, et qualibet in te privationis etc. ut in eodem usque: devolutum, ut tua devotio erga nos et eandem ecclesiam magis crescat, castra et casale predicta tibi eisdemque heredibus in feudum de fratrum eorundem consilio et assensu de novo concedimus de gratia speciali, ita quod castra et casale predicta cum hominibus infeudatis et non infeudatis, pascuis, silvis, terris cultis et incultis, aquis aquarumque decursibus et cum hiis, que ad mixtum et merum imperium pertinent, de quibus dilectum filium notarium Iohannem de Rocca Imperiali familiarem tuum tuo nomine investivimus, tam tu quam dicti heredes immediate a Romana ecclesia, nullum alium preter ipsam recognoscentes exinde superiorem vel dominum, perpetuo teneatis. Volumus autem, ut quotienscumque prefata ecclesia pro defensione ipsius regni generalem exercitum congregaverit vel indixerit, tu dictique heredes teneamini pro predictis septem milites armis et equis decenter munitos ad serviendum per XL dies in vestris sumptibus etc. usque: providere, verbis competenter mutatis. Nulli etc. nostre confirmationis et concessionis etc.Dat. Neapoli per manum Guillelmi magistri scolarum Parmensium sancte Romane ecclesie vicecancellarii, III Nonas Novembris, indictione XIIIa, incarnationis Dominice anno M\u00b0CC\u00b0LIIII, pontificatus vero domini Innocentii pape IIII anno XII\u00b0.In eundem modum pro dilecto filio Iohanne de Rocca Imperiali pro terra Canteabi cum servitio unius militis et pro quadam domo cum pomerio sita in civitate Panormi, excepto quod non apponatur hoc verbum: cum hiis, que ad mixtum et merum imperium pertinent.\n"
        },
        {
            "type": "edition",
            "value": "Ici reprise de Karl Rodenberg, Epistolae s. XIII e regestis pontificum romanorum selectae, III, Berlin : Weidmann (MGH), 1894, n.\u00a0329, p.\u00a0301."
        },
        {
            "type": "edition_autre",
            "value": "?"
        },
        {
            "type": "regeste",
            "value": "?"
        },
        {
            "type": "bibliographie_generale",
            "value": "?"
        },
        {
            "type": "apparat_critique",
            "value": "?",
            "children": {
                "numero_note": "a"
            }
        },
        {
            "type": "apparat_critique",
            "value": "?",
            "children": {
                "numero_note": "b"
            }
        },
        {
            "type": "apparat_critique",
            "value": "?",
            "children": {
                "numero_note": "c"
            }
        },
        {
            "type": "apparat_critique",
            "value": "?",
            "children": {
                "numero_note": "d"
            }
        },
        {
            "type": "apparat_critique",
            "value": "?",
            "children": {
                "numero_note": "e"
            }
        },
        {
            "type": "apparat_critique",
            "value": "?",
            "children": {
                "numero_note": "f"
            }
        },
        {
            "type": "notes_historiques",
            "value": "?",
            "children": {
                "numero_note": "1"
            }
        },
        {
            "type": "notes_historiques",
            "value": "?",
            "children": {
                "numero_note": "2"
            }
        },
        {
            "type": "notes_historiques",
            "value": "?",
            "children": {
                "numero_note": "3"
            }
        }
    ]
}