{
    "id": 149669,
    "name": "aposcripta-9232",
    "type": "acte",
    "url": "http:\/\/telma-chartes.irht.cnrs.fr\/aposcripta\/notice\/149669",
    "project_slug": "aposcripta",
    "project_label": "APOSCRIPTA \u2013 Lettres des papes",
    "user": "lettrespontificalesadmin",
    "last_update": "2020-10-19 16:40:02",
    "licence": "Attribution - Pas d\u2019Utilisation Commerciale - Partage dans les M\u00eames Conditions 3.0 France (CC BY-NC-SA 3.0 FR) ",
    "licence_url": "https:\/\/creativecommons.org\/licenses\/by-nc-sa\/3.0\/fr\/",
    "elements": [
        {
            "type": "pape",
            "value": "Alexandre IV (1254-1261)"
        },
        {
            "type": "destinataire",
            "value": "Patriarchis, archiepiscopis et episcopis ac dilectis filiis abbatibus, prioribus, archidiaconis ac ceteris ecclesiarum prelatis et clericis, necnon nobilibus viris . . duci et consilio Venetorum, marchionibus, comitibus, baronibus, potestatibus, rectoribus et communitatibus ac universis Christi fidelibus per Lombardiam, Romaniolam, marchiam Tervisinam, patriarchatus Aquilegensem et Gradensem et provinciam Ianuensem constitutis"
        },
        {
            "type": "date_libre",
            "value": "XIII kalendas ianuarii, anno secundo"
        },
        {
            "type": "date",
            "value": " 1255\/12\/20",
            "children": {
                "date_deb_annee": "1255",
                "date_deb_mois": "12",
                "date_deb_jour": "20"
            },
            "range": {
                "date_apres": 12551220,
                "date_avant": 12551220
            }
        },
        {
            "type": "date_lieu",
            "value": "Lateran."
        },
        {
            "type": "sources_manuscrites",
            "value": "R. CIT\u00c9 DU VATICAN, Archivio Segreto Vaticano, <hi rend=\"italic\">Registra Vaticana<\/hi> ... Al.\u00a0IV Reg. Vol.\u00a0I, 125; Lib.\u00a0II, 7. Exemplar, quod Amadesius, Antist. Ravenn. t.\u00a0III, p.\u00a0191, n.\u00a051 edidit, contulimus cum Regestis.",
            "children": {
                "type_source": "Registre de la chancellerie apostolique"
            }
        },
        {
            "type": "genre",
            "value": "Mandement (littere cum filo canapis)"
        },
        {
            "type": "analyse",
            "value": "Alexander IV papa universis Christi fidelibus Lombardiae, Romaniolae, marchiae Tervisinae, Aquilegiensis et Gradensis patriarchatuum et provinciae Ianuensis significat se ad ipsos [Philippum] electum Ravennatem cum plenae legationis officio mittere, ut gerens inibi vices papales, pertinaciam Ezelini de Romano persequatur, contra eum fideles crucis charactere insigniendo [Rodenberg]."
        },
        {
            "type": "transcription",
            "value": "<?xml version=\"1.0\" encoding=\"UTF-8\"?>\nPatriarchis, archiepiscopis et episcopis ac dilectis filiis abbatibus, prioribus, archidiaconis ac ceteris ecclesiarum prelatis et clericis, necnon nobilibus viris . . duci et consilio Venetorum, marchionibus, comitibus, baronibus, potestatibus, rectoribus et communitatibus ac universis Christi fidelibus per Lombardiam, Romaniolam, marchiam Tervisinam, patriarchatus Aquilegensem et Gradensem et provinciam Ianuensem constitutis.In eminenti sedis apostolice specula sumus ad hoc disponente Domino constituti, ut domui Israel, universo videlicet populo christiano, qui fidei oculis Deum videt, speculatoris officium impendamus. Set quia in tam diffusa commissi gregis amplitudine non possumus singula prospicere per nos ipsos, ad instar illius, qui cum sit totus ubique, spiritus tamen facit suos angelos et ministros, ac celorum altitudine inclinata, ut hominem redimeret, factus homo, discipulos quos elegit in universum orbem transmisit veritatis evangelium predicare, cum hiis, quos prudentes et fideles cognovimus, onera nostra partimur, ut illos, quibus non valemus corporalem presentiam exhibere, imperfectum nature potestate supplente, per eos quasi per quosdam nostre considerationis oculos visitemus et eorum voce clamemus ad ipsos, ut abiecta errorum caligine ac sompno mortis excusso nobis et toti ecclesie vitalis odoris spiraculum representent. Sane dum diligenter advertimus nonnullos in vestris provinciis obvolutos vitiorum tenebris cum quadam securitate iacere in suis fecibus soporatos, vehementer nos urit zelus pereuntium animarum, et ne illorum sanguis ob culpam negligentie de nostris requirendus sit manibus, totis visceribus formidamus. Precipue autem excitat in nobis diligentiam officii pastoralis et corda debet omnium dissecare fidelium infamie scandalum et probrosum improperium, quo in eisdem provinciis, presertim in marchia Tervisina, confunditur fides catholica et religio christiana pervertitur, ubi perditionis filius et reprobus circa fidem, vir sanguinum et homo in homines inhumanus, Ezelinus de Romano, per oportunitatem temporis impacati super infelices populos regionis eiusdem potestate tyrampnice dominationis arrepta, sceleratis nobilium cedibus et cruentis plebium stragibus humane societatis fedus et legem libertatis evangelice sic contrivit, ut omnis in eis videatur confidentie spiritus interiisse, quos in residuum furoris sui pabulum eius crudelitas superstites dereliquit. Quamvis autem felicis recordationis I. papa predecessor noster ipsum de fratrum suorum consilio tamquam hereticum exigente iustitia publice condempnarit, fautores eius constitutionibus et penis subiciens contra hereticorum fautores et complices promulgatis, ipse tamen, tamquam membrum a corporis Christi vite precisum et stupore spiritualium sensuum arefactum, nec de iactura conteritur nec confunditur de pudore, set in profundo malorum nervo pertinacie sue rigens contra Deum semper erigitur et, pro pudor! in se ac malignitatis sue socios intrepide provocat iram eius. Igitur de salute vestra et provinciarum vestrarum, in hiis presertim que Dei sunt, reformatione salubri paterna sollicitudine cogitantes, dilectum filium . . Ravennatem electum, virum utique morum honestate conspicuum, dono scientie preditum ac nobis et fratribus nostris merito sue probitatis acceptum, de cuius virtute iam non argumenta, set experimenta multiplicia fidem faciunt certiorem, ad partes vestras commisso sibi plene legationis officio duximus destinandum, ut gerens inibi vices nostras foveat favorabiliter devotionem fidelium et prefati Ezelini aliorumque perfidorum pertinaciam spiritualiter et temporaliter persequatur, contra eundem E. crucis caractere insigniendo fideles et illius remissionis premio provocando, que datur euntibus in subsidium Terre Sancte, viros excitet mortis pestifero sompno defixos et vigilantes in bono corroboret et confirmet, evellat et dissipet, edificet et plantet, ac disponat et ordinet, prout secundum Deum et datam sibi ab eo prudentiam robori fidei orthodoxe, honori ecclesie, animarum saluti et tranquillitati terre vestre viderit expedire. Licet autem, quod uni ex minimis nostris fit, [nobis] fieri reputemus, illos tamen cupientes propensius honorari, qui per suos actus laudabiles nos honorant, universitatem vestram rogamus, monemus et hortamur attente, vobis per apostolica scripta mandantes, quatinus ipsum, immo potius nos in ipso, benigne recipientes et honorifice pertractantes, eidem tamquam apostolice sedis legato intendatis humiliter et favorabiliter assistatis, ipsius monita et precepta efficaciter adimplendo. Alioquin sententiam, quam propter hoc rite etc. usque: observari.Dat. Lateran., XIII Kalendas Ianuarii, anno secundo.\n"
        },
        {
            "type": "edition",
            "value": "Ici reprise de Karl Rodenberg, Epistolae s. XIII e regestis pontificum romanorum selectae, III, Berlin : Weidmann (MGH), 1894, n.\u00a0422, p.\u00a0378."
        },
        {
            "type": "edition_autre",
            "value": "?"
        },
        {
            "type": "regeste",
            "value": "?"
        },
        {
            "type": "bibliographie_generale",
            "value": "?"
        },
        {
            "type": "apparat_critique",
            "value": "?",
            "children": {
                "numero_note": "a"
            }
        },
        {
            "type": "apparat_critique",
            "value": "?",
            "children": {
                "numero_note": "b"
            }
        },
        {
            "type": "apparat_critique",
            "value": "?",
            "children": {
                "numero_note": "c"
            }
        },
        {
            "type": "apparat_critique",
            "value": "?",
            "children": {
                "numero_note": "d"
            }
        },
        {
            "type": "apparat_critique",
            "value": "?",
            "children": {
                "numero_note": "e"
            }
        },
        {
            "type": "apparat_critique",
            "value": "?",
            "children": {
                "numero_note": "f"
            }
        },
        {
            "type": "notes_historiques",
            "value": "?",
            "children": {
                "numero_note": "1"
            }
        },
        {
            "type": "notes_historiques",
            "value": "?",
            "children": {
                "numero_note": "2"
            }
        },
        {
            "type": "notes_historiques",
            "value": "?",
            "children": {
                "numero_note": "3"
            }
        }
    ]
}