{
    "id": 26446,
    "name": "aposcripta-3525",
    "type": "acte",
    "url": "http:\/\/telma-chartes.irht.cnrs.fr\/aposcripta\/notice\/26446",
    "project_slug": "aposcripta",
    "project_label": "APOSCRIPTA \u2013 Lettres des papes",
    "user": "lettrespontificalesadmin",
    "last_update": "2020-10-19 16:28:00",
    "licence": "Attribution - Pas d\u2019Utilisation Commerciale - Partage dans les M\u00eames Conditions 3.0 France (CC BY-NC-SA 3.0 FR) ",
    "licence_url": "https:\/\/creativecommons.org\/licenses\/by-nc-sa\/3.0\/fr\/",
    "elements": [
        {
            "type": "pape",
            "value": "Lucius III (1181-1185)"
        },
        {
            "type": "date_lieu",
            "value": "Lateran"
        },
        {
            "type": "date_libre",
            "value": "1181 December 31"
        },
        {
            "type": "date",
            "value": " 1181\/12\/31",
            "children": {
                "date_deb_annee": "1181",
                "date_deb_mois": "12",
                "date_deb_jour": "31"
            },
            "range": {
                "date_apres": 11811231,
                "date_avant": 11811231
            }
        },
        {
            "type": "analyse",
            "value": "Lucius III nimmt die Kollegiatkirche Ste.-Croix de Cambrai in apostolischen Schutz und best\u00e4tigt ihr ihre Besitzth\u00fcmer und Gewohnheiten."
        },
        {
            "type": "transcription",
            "value": "<?xml version=\"1.0\" encoding=\"UTF-8\"?>\nLucius episcopus servus servorum dei dilectis filiisa ... decano et canonicis sancte Crucis Cameracensis, tam presentibus quam futuris, canonice substituendis in ppm. \u2014 | Quotiens a nobis petitur, quod religioni et honestati convenire dinoscitur, animo nos decet libenti concedere, et petentium desideriis congruum suffragium impertiri. | Eapropter, dilecti in domino filii, vestris iustis postulationibus clementer annuimus, et prefatam ecclesiam, in qua divino mancipati estis obsequio, sub beati Petri et nostra protectione suscipimus et presentis scripti privilegio communimus. Statuentes, ut quascumque possessiones, quecumque bona eadem ecclesia in presentiarum iuste et canonice possidet, aut in futurum concessione pontificum, largitione regum vel principum, oblatione fidelium seu aliis iustis modis, prestante domino, poterit adipisci, firma vobis vestrisque successoribus et illibata permaneant. In quibus hec propriis duximus exprimenda vocabulis : locum ipsum, in quo prescripta ecclesia sita est, cum omnibus pertinentiis suis, altare de Streis cum appenditio suo Hamiel, altare de Marlxete cum decimis et dotibus eorundem, que sita sunt in episcopatu Attrebatensi, altare de Marceniis. In episcopatu vero Cameracensi altare de Malleincort cum decima et dote, altare de Angrel cum decima et dote, altare de Chokerielmont cum decima et dote. In .... quoqueb altaris de Tongre cum decima, altare de Bevena cum dote, altare de Eskendelbeca cum decima et dote, altare de Masmines cum decima et dote, altare de Bellengien cum decima et dote, altare de Lathehem cum decima et dote, villam de Morenchies cum districtu et ostagiis1 et totam ipsius ville terram, villam Busserias nuncupatam cum toto districtu et ostagiis et terris cultis et incultis et furno, duas partes decime in villari de Calcea cum terragiis et hospitibus ad ecclesiam sancte Crucis pertinentibus, duas partes decime de Lielgiis, que alio vocabulo Angleancors nuncupatur, in Bantegnies terram unius modii et dimidii et duos curtillos2, in Chieni terram sex modiorum, apud Grant pont terram duorum modiorum et dimidii, apud Noellam terram sex modiorum, apud Permi terram trium modiorum, in Scaldobrio terram trium modiorum, districtum etiam quod est infra ambitum ecclesie sancte Crucis, ostagia que habetis infra civitatem et extra civitatem. Antiquas etiam et rationabiles consuetudines ecclesie vestre, hactenus observatas, ratas habemus et perpetuo illibatas manere censemus. Decernimus ergo, ut nulli omnino hominum liceat, ecclesiam vestram temere perturbare aut eius possessiones auferre vel ablatas retinere, minuere seu quibuslibet vexationibus fatigare, sed omnia integra conserventur eorum, pro quorum gubernatione ac sustentatione concessa sunt, usibus omnimodis profutura, salva sedis apostolice auctoritate et diocesani episcopi canonica iustitia. Si qua igitur in futurum ecclesiastica secularisve persona hanc nostre constitutionis paginam sciens contra eam temere venire temptaverit, secundo tertiove commonita, nisi reatum suum digna satisfactione correxerit ........ potestatisc honorisque sui dignitate careat, reamque se divino iudicio existere de perpetrata iniquitate cognoscat, et a sacratissimo corpore ac sanguine dei et domini redemptoris nostri Jesu Christi aliena fiat, atque in extremo examine divine ulctioni subiaceat. Cunctis autem eidem loco sua iura servantibus sit pax domini nostri Jesu Christi, quatinus et hic fructum | bone actionis percipiant et apud districtum iudicem premia eterne pacis inveniant. Amen. Am. Amen.(R) Ego Lucius catholice ecclesie episcopus ss. (M)\u2020 Ego Theodinus Portuensis et sancte Rufine episcopus ss. (9)\u2014 \u2020 Ego Petrus tit. sancte Susanne presbiter cardinalis ss.\u2020 Ego Vivianus presbiter cardinalis tit. sancti Stephani in Celio monte ss.\u2020 Ego Cynthius presbiter cardinalis tit. sancte Cecilie ss. (1)\u2020 Ego Hugo presbiter cardinalis tit. sancti Clementis ss.\u2020 Ego Arduinus presbiter cardinalis tit. sancte Crucis in Jerusalem ss.\u2020 Ego Matheus presbiter cardinalis tit. sancti Marcelli ss. (1)\u2020 Ego Laborans presbiter cardinalis sancte Marie trans Tiberim tit. Calixti ss. (1)\u2014 \u2020 Ego Jac(inthus) diaconus cardinalis sancte Marie in Cosmidyn ss.\u2020 Ego Rainerius diaconus cardinalis sancti Georgii ad velum aureum ss.\u2020 Ego Gratianus sanctorum Cosme et Damiani diaconus cardinalis ss.\u2020 Ego Rainerius diaconus cardinalis sancti Adriani ss.\u2020 Ego Matheus sancte Marie nove diaconus cardinalis ss. (6)Dat. Laterani, per manum Alberti, sancte Romane ecclesie presbiteri cardinalis et cancellarii. ii Kl. Januarii. Indictione xiiii. Incarnationis dominice anno mclxxxi. Pontificatus vero domni Lucii pp iii anno i. \u2014\n"
        },
        {
            "type": "edition",
            "value": "Julius von Pflugk-Harttung, <i>Acta pontificum Romanorum inedita<\/i>, T\u00fcbingen, 1880, I, n. 337, p. 300"
        },
        {
            "type": "sources_manuscrites",
            "value": "Or. im Archive des D\u00e9p. Nord zu Lille (Fonds de Ste.-Croix de Cambrai)."
        },
        {
            "type": "remarques",
            "value": "Perg. ital., breit 0,495, lang 0,526, unten umgeschlagen, durch 2 L\u00f6cher geht die gelbe und rosa Seidenschnur, Bulle verloren, Faltung der Privilegien. Cameracensis in der ersten Zeile scheint mit dunklerer Dinte geschrieben zu sein als das Uebrige, wohl mit derselben, in der das Ringkreuz und das E der p\u00e4pstlichen Unterschrift ausgef\u00fchrt wurden, sie scheint auch im Querbalken vom A des Kanzlers Albert hervorzutreten. Der Context ist von Antiquas etiam mit abweichender Dinte und wohl breiterer Feder, wenn auch wahrscheinlich gleicher Hand geschrieben, das einzelne i ist hier bisweilen durch einen schr\u00e4gen Strich ausgezeichnet, wie es sonst mit denen des Doppel-i der Fall zu sein pflegt. Ein Theil der Zeugen scheint von ein und derselben Hand eingezeichnet zu sein. Die Datumzeile weist etwas hellere Dinte und wohl eine andere Hand auf als der Context."
        },
        {
            "type": "apparat_critique",
            "value": "a.\u2002<i>Zwischen<\/i> filiis <i>und<\/i> decano <i>L\u00fccke f\u00fcr den Namen<\/i>.",
            "children": {
                "numero_note": "a"
            }
        },
        {
            "type": "apparat_critique",
            "value": "b.\u2002In .... quoque <i>auf Rasur<\/i>.",
            "children": {
                "numero_note": "b"
            }
        },
        {
            "type": "apparat_critique",
            "value": "c.\u2002<i>Vor<\/i> potestatis <i>0,05 unbeschriebener Rasur<\/i>.",
            "children": {
                "numero_note": "c"
            }
        },
        {
            "type": "notes_historiques",
            "value": "<i>Hostagium hier wohl : Mansio cum certa agri portione sub censu annuo hospiti seu rustico ad excolendum concessa ; Gall.<\/i> \u201e<i>Hostise, Hostage<\/i>\u201c. <i>Sonst auch : Census annuus, qui ratione domicilii debetur. Vergl. ebenfalls : Ostagium : praestatio quam tenentes ac vasalli domino suo exsolvunt in belli sumtus.<\/i> \u201e<i>Hostage<\/i>\u201c : <i>certain droit, d\u00fb sur les grains amen\u00e9s \u00e0 la grange du seigneur ; ou p. e. Terrage, Champart. Du Cange, Gloss. III p. 707, IV p. 744, VII p. 203 ; Encycl. M\u00e9th. Jur. VI p. 300 ; Littr\u00e9, Dict. II p. 2053.<\/i>",
            "children": {
                "numero_note": "1"
            }
        },
        {
            "type": "notes_historiques",
            "value": "<i>Lamprecht in Schmollers Forsch. I 3 S. 43 bezeichnet den Curtilus als<\/i> \u201e<i>Weingut<\/i>\u201c, <i>das eingez\u00e4unt, aus Bifang bestehend, f\u00fcr sich allein inmitten des Wirthschaftslandes, der Mansenwirthschaft, liegt. Der durchschnittliche Umfang des Curtilius betrug c. 130 Quadrat-Pertiken. Vergl. oben S. 189 Anm. 6, und Nachtr\u00e4ge zu S. 182 Z. 14.<\/i>",
            "children": {
                "numero_note": "2"
            }
        },
        {
            "type": "genre",
            "value": "Bulle"
        }
    ]
}