{
    "id": 25313,
    "name": "aposcripta-2410",
    "type": "acte",
    "url": "http:\/\/telma-chartes.irht.cnrs.fr\/aposcripta\/notice\/25313",
    "project_slug": "aposcripta",
    "project_label": "APOSCRIPTA \u2013 Lettres des papes",
    "user": "lettrespontificalesadmin",
    "last_update": "2020-10-19 16:27:43",
    "licence": "Attribution - Pas d\u2019Utilisation Commerciale - Partage dans les M\u00eames Conditions 3.0 France (CC BY-NC-SA 3.0 FR) ",
    "licence_url": "https:\/\/creativecommons.org\/licenses\/by-nc-sa\/3.0\/fr\/",
    "elements": [
        {
            "type": "pape",
            "value": "Eug\u00e8ne III (1145-1153)"
        },
        {
            "type": "destinataire",
            "value": "( )",
            "children": {
                "numero_note": "0"
            }
        },
        {
            "type": "date_lieu",
            "value": "n.c."
        },
        {
            "type": "date_libre",
            "value": "1146, 9 septembre"
        },
        {
            "type": "date",
            "value": " 1146\/09\/09",
            "children": {
                "date_deb_annee": "1146",
                "date_deb_mois": "09",
                "date_deb_jour": "09"
            },
            "range": {
                "date_apres": 11460909,
                "date_avant": 11460909
            }
        },
        {
            "type": "analyse",
            "value": "X pape<br\/>EPISTOLA EUGENII PAP\u00c6 III, AD RAYMUNDUM, PETRAGORICENSEM EPISCOPUM, SUPER RESTITUTIONE ECCLESI\u00c6 DE ROCABOVISCURTE AB ILLO FACIENDA MONACHIS CLUNIACENSIBUS QUI EX EA A CLERICIS EXPULSI FUERANT. EPISTOLA EUGENII PAP\u00c6 III. ad Petragoricensem Episcopum, super restitutione Ecclesi\u00e6 de Rochaboviscurt per eum facienda fratribus Cluniacensis ab ea per clericos expulsis."
        },
        {
            "type": "transcription",
            "value": "<?xml version=\"1.0\" encoding=\"UTF-8\"?>\n[Eugenius Episcopus, servus servorum Dei, venerabili fratri Raymundo Petragoricensi Episcopo, salutem et Apostolicam benedictionem. Ad tuam credimus notitiam pervenisse, quoniam nos controversiam, qu\u00e6 inter dilectos filios nostros Cluniacenses Monachos, et clericos, de Rochaboviscurti, super Ecclesiam ipsius loci jamdiu agitata est, diligenter audivimus, et cum fratribus nostris super ea diu contulimus. Auditis siquidem utriusque partis rationibus, et diligenter inquisitis, quoniam ex utriusque partis confessione Monachos fuisse in possessione cognovimus; judicavimus ut si Monachi duobus aut tribus testibus idoneis in venerabilium fratrum nostrorum Lamberti Engolismensis, et Geraldi Lemovicensis, probaverint, quod ipsi eos de possessione ejusdem Ecclesi\u00e6 violenter expulerunt, ipsa possessio eis restitueretur. Nunc autem, sicut pr\u00e6fati fratres nostri litteris suis nobis significaverunt, Cluniacenses Monachi probationem ipsam juxta litterarum nostrarum tenorem in eorum pr\u00e6sentia compleverunt. Sed Monachi ipsi, sicut litteris nobis significaverunt, restitutionem possessionis ab illo, qui Abbas dicitur, et aliis Clericis, qui pr\u00e6sentes aderant, secundum judicium nostrum, minis et contumeliis repulsi, cum iterata querimonia ad nos remissi sunt. Quia igitur Cluniacensis Monasterii justiti\u00e6 minim\u00e8 deesse debemus, et eorum clericorum inobedientiam et contumaciam ulterius ferre non possumus: per Apostolica tibi scripta mandamus atque pr\u00e6cipimus, quatenus infra triginta dies, postquam pr\u00e6sentia scripta susceperis, Ecclesiam ipsam cum ornamentis et c\u00e6teris pertinentiis suis Monachis Cluniacensibus plenari\u00e8 restituas. Si ver\u00f2 clerici contradicere pr\u00e6sumpserint, eos excommunicatos public\u00e8 denunties, et tamdiu excommunicatos teneas, donec juxta mandatum nostrum restitutio compleatur. Facta autem restitutione, si clerici, qui ante Monachorum expulsionem in ipsa Ecclesia ordinati erant, de proprietate agere voluerint, in pr\u00e6sentia pr\u00e6fatorum Episcoporum juxta tenorem aliarum litterarum nostrarum causa audiatur, et fine canonico terminetur. Alios autem clericos, qui post Monachorum expulsionem in ipsa Ecclesia intrusi sunt, nequaquam ad causam de proprietate admitti volumus. Datum Viterbii V. Idus Septembris.]\n"
        },
        {
            "type": "edition",
            "value": "Ici tir\u00e9e du projet <i>CBMA - Corpus Burgundiae Medii Aevi<\/i>, document 5552. Site du projet Corpus de la Bourgogne du Moyen \u00c2ge, [En ligne] <a href=\"http:\/\/www.cbma-project.eu\" target=\"_blank\">http:\/\/www.cbma-project.eu<\/a>  "
        },
        {
            "type": "sources_manuscrites",
            "value": "\u00e0 renseigner."
        },
        {
            "type": "remarques",
            "value": "\r\n\r\nIndications dans l'\u00e9dition des Chartes de Cluny quand Bernard et Bruel n'ont pas repris le texte : Eugenius, etc. Ad tuam credimus, etc. (Bull. Clun., p.\u00a060, col.\u00a01, n\u00ba\u00a02; D. Bouq., t.\u00a0XV, p.\u00a0441.)."
        },
        {
            "type": "edition_autre",
            "value": "Ici reprise de Auguste Bernard, Alexandre Bruel, <i>Recueil des chartes de l'abbaye de Cluny<\/i>. V. <i>1091-1210<\/i>, Paris\u00a0: Imprimerie nationale, 1894 <a href=\"http:\/\/gallica.bnf.fr\/ark:\/12148\/bpt6k28911f?rk=64378;0\" target=\"_blank\">[en ligne]<\/a>, p. 461, n\u00b0 4115.",
            "children": {
                "numero_note": "0"
            }
        },
        {
            "type": "edition_autre",
            "value": "Pierre Simon, <i>Bullarium sacri Ordinis cluniacensis, complectens plurima privilegia per summos pontifices tum ipsi cluniacensi abbatiae, tum ei subditis monasteriis hactenus concessa<\/i>, Lyon : Jullieron, 1680, p. 60, col. 1-2",
            "children": {
                "numero_note": "1"
            }
        },
        {
            "type": "genre",
            "value": "Lettre"
        }
    ]
}