{
    "id": 26822,
    "name": "aposcripta-3706",
    "type": "acte",
    "url": "http:\/\/telma-chartes.irht.cnrs.fr\/aposcripta\/notice\/26822",
    "project_slug": "aposcripta",
    "project_label": "APOSCRIPTA \u2013 Lettres des papes",
    "user": "l_valliere",
    "last_update": "2020-10-19 16:28:05",
    "licence": "Attribution - Pas d\u2019Utilisation Commerciale - Partage dans les M\u00eames Conditions 3.0 France (CC BY-NC-SA 3.0 FR) ",
    "licence_url": "https:\/\/creativecommons.org\/licenses\/by-nc-sa\/3.0\/fr\/",
    "elements": [
        {
            "type": "pape",
            "value": "Martin V (1417-1431)"
        },
        {
            "type": "destinataire",
            "value": "Le r\u00e9gent de France, le duc de Bedford"
        },
        {
            "type": "date_libre",
            "value": "IX kalendas julii, anno undecimo"
        },
        {
            "type": "date",
            "value": " 1428\/06\/23",
            "children": {
                "date_deb_jour": "23",
                "date_deb_mois": "06",
                "date_deb_annee": "1428"
            },
            "range": {
                "date_apres": 14280623,
                "date_avant": 14280623
            }
        },
        {
            "type": "date_lieu",
            "value": "Rome"
        },
        {
            "type": "genre",
            "value": "Lettre, g\u00e9n\u00e9ral (apr\u00e8s 1198, littere cum filo canapis)"
        },
        {
            "type": "analyse",
            "value": "Lettre de Martin V au duc de Bedford, r\u00e9gent de France"
        },
        {
            "type": "sources_manuscrites",
            "value": "F. FRANCE, Paris, Biblioth\u00e8que nationale, ms. lat. 14457, fol. 252. Mention hors teneur : <i>Sic signatum : \u00ab Jo. de Vado \u00bb<\/i>.",
            "children": {
                "type_source": "Copie"
            }
        },
        {
            "type": "edition",
            "value": "No\u00ebl Valois, <i>Histoire de la Pragmatique Sanction de Bourges sous Charles VII<\/i>, Paris : A. Picard et fils, 1906, n. 32, p. 60-61 <a target=\"_blank\" href=\"https:\/\/archive.org\/stream\/histoiredelapra00valogoog#page\/n268\/mode\/2up\">[en ligne]<\/a>, d\u2019apr\u00e8s F."
        },
        {
            "type": "transcription",
            "value": "<?xml version=\"1.0\" encoding=\"UTF-8\"?>\nDilecto filio nobili viro Johanni duci Bethfordie, regenti regnum Francie. Martinus episcopus, servus servorum Dei, dilecto filio nobili viro Johanni duci Bethfordie, regenti regnum Francie, salutem et apostolicam benedictionem. Ex litteris tuis quas nobis et dilecto filio nostro Johanni, tituli S. Laurentii in Lucina presbitero cardinali1, ac nonnullis aliis in Romana Curia residentibus transmisisti, cognovimus nobilitatem tuam aliqualiter fuisse turbatam propterea quod de eadem Curia Parisius scriptum est bullam quamdam fuisse editam contra clericos trahentes alios clericos ad judicium seculare laicorum : quam asseris esse contra jus regni, cujus defendendi et conservandi tibi principaliter cura commissa est ; quod et nos et ipse cardinalis, quantum cum Deo fieri potest, libenter videmus conservari. Miramur tamen quod, si personis ecclesiasticis nobis omnino subjectis leges imponimus, dicere quisquam possit quod aliquid de jure regio substrahamus. Sed, ut explicemus tibi super materia dicte bulle omnem nostri consilii rationem, cum per Yspaniarum regna et nonnulla loca Germanie suscitarentur novitates contra ecclesiasticam libertatem ex presumptione laicorum de rebus ecclesiasticis judicare volentium, nonnulli honesti viri et clerici partium illarum cum instancia requisiverunt et prosecuti sunt hujusmodi bulle expedicionem, que certe non fuit postulata nec edita respectu obediencie regimini tuo commisse. Et quamquam nichil in ea contineatur nisi consonum juri scripto atque justicie, nichilominus certis ex causis pro presenti teneri facimus eam suspensam, nec volumus ut in usum prodeat aut ejus copia exhibeatur. Verum cum te catholicum principem et nobis ac Sedi apostolice devotum esse sciamus, tibi uni inclusam presentibus copiam dicte bulle transmittimus, ut, ea inspecta, si videris aliquid contineri quod probabiliter et racionabiliter dici possit esse contra jus regium, quantum ad eos pertinet qui sub regimine tuo consistunt, libenter providebimus taliter quod excellencia tua remanebit bene contenta. Idem etiam facere intendimus in capitulis aliis quamcito, cum ea qua requiritur commoditate poterimus ; cujus negocii prefatus cardinalis prompte, ut solet in omnibus rebus tuis, suscepit onus et curam. Datum Rome, apud Sanctos Apostolos, IXo kalendas julii, pontificatus nostri anno undecimo.\n"
        },
        {
            "type": "notes_historiques",
            "value": "Le cardinal Jean de Rochetaill\u00e9e.",
            "children": {
                "numero_note": "1"
            }
        }
    ]
}