{
    "id": 26124,
    "name": "aposcripta-3203",
    "type": "acte",
    "url": "http:\/\/telma-chartes.irht.cnrs.fr\/aposcripta\/notice\/26124",
    "project_slug": "aposcripta",
    "project_label": "APOSCRIPTA \u2013 Lettres des papes",
    "user": "lettrespontificalesadmin",
    "last_update": "2020-10-19 16:27:55",
    "licence": "Attribution - Pas d\u2019Utilisation Commerciale - Partage dans les M\u00eames Conditions 3.0 France (CC BY-NC-SA 3.0 FR) ",
    "licence_url": "https:\/\/creativecommons.org\/licenses\/by-nc-sa\/3.0\/fr\/",
    "elements": [
        {
            "type": "pape",
            "value": "L\u00e9on IX (1049-1054)"
        },
        {
            "type": "date_lieu",
            "value": "n.c."
        },
        {
            "type": "date_libre",
            "value": "II non. octobris, anno I, indictione III"
        },
        {
            "type": "date",
            "value": " 1049\/10\/06",
            "children": {
                "date_deb_annee": "1049",
                "date_deb_mois": "10",
                "date_deb_jour": "06"
            },
            "range": {
                "date_apres": 10491006,
                "date_avant": 10491006
            }
        },
        {
            "type": "analyse",
            "value": "Leo IX best\u00e4tigt dem Abte Adelhard von St.-Pierre-au-Mont (D. Ch\u00e2lons-sur-Marne) die Besitzth\u00fcmer seines Klosters."
        },
        {
            "type": "transcription",
            "value": "<?xml version=\"1.0\" encoding=\"UTF-8\"?>\n Leo episcopus servus servorum Christi fratri Odilardo, abbati monasterii, quod situm est in Catalaunensi | suburbio, omnibusque suis successoribus perpetuam salutem. Petentium desideriis ita nos convenit impertiri assensum, ut sequentibus | temporibus aecclesiastica utilitas nullis valeat submitti dispendiis. Nam tunc petitorum postulatio congruum videtur suscipere effectum, quando venerabilia loca oportune ordinata ad meliorem fuerint, sine dubio, statum apostolica auctoritate corroborata. Idcirco noverit omnium pr\u0229sentium et futurorum regum et episcoporum seu omnium apostolic\u0229 sedis fidelium unanimitas, Odilardum abbatem cum ceteris fratribus nostram implorasse benivolentiam, ut privilegium de iam dicto monasterio sancti Petri, apostolica auctoritate firmatum, nostro dignaremur roborare sigillo. Considerantes autem simulque cognoscentes iusta et congrua beneficia poscentium auctoritate beati Petri apostoli, cuius nos immeriti vicarii existimus, privilegio nostr\u0229 pagin\u0229 decreta roboramus pr\u0229decessorum nostrorum et venerabilium eiusdem patri\u0229 episcoporum, regum, omnium potentium et principum, obtestantes, ut pr\u0229fatus locus sancti Petri, nostris auctoritatibus roboratus, nunc et \u0229vis temporibus ratus permaneat nullusque episcoporum aut aliorum principum cupiditatis vel avariti\u0229 causa iunctionis su\u0229 aecclesi\u0229 seu beneficii iure eundem locum venerabilem repetat vel usurpet, non in villis, non in mancipiis, non in ornamento vel vestibus sive in quibuscumque rebus eiusdem \u0229cclesi\u0229 vel loci ; sed semper s\u0229pedictus locus honore regum seu Roman\u0229 sedis pontificum decoratus permaneat. Si quis autem temerario usu magna parvaque persona contra hoc nostrum apostolicum decretum aliquid agere pr\u0229sumpserit, sciat se anathematis vinculis esse innodatum et a regno dei alienum et cum impiis omnibus aeterno incendio dampnatum. | At vero, qui observator extiterit pr\u0229cepti huius, gratiam et misericordiam vitamque aeternam a misericordissimo domino deo nostro consequatur.(R) (M)\u2020 Dat. ii. Non. Octobris, per manus Petri, diaconi, bibliothecarii et cancellarii | sanct\u0229 apostolic\u0229 sedis. Anno domni Leonis PaPae i. Indictione iii. \u2014\n"
        },
        {
            "type": "edition",
            "value": "Julius von Pflugk-Harttung, <i>Acta pontificum Romanorum inedita<\/i>, T\u00fcbingen, 1880, I, n. 15, p. 12 <a target=\"_blank\" href=\"https:\/\/archive.org\/stream\/actapontificumr00churgoog#page\/n32\/mode\/2up\"> [en ligne]<\/a>."
        },
        {
            "type": "sources_manuscrites",
            "value": "E. FRANCE, Ch\u00e2lons-en-Champagne, Archive d\u00e9partementale de la Marne, H 506. Fac-simil\u00e9 publi\u00e9 par le projet \u00ab Chartes ant\u00e9rieures \u00e0 1121 conserv\u00e9es en France \u00bb<a target=\"_blank\" href=\" http:\/\/www.cn-telma.fr\/originaux\/charte31\/\"> [en ligne]<\/a>.",
            "children": {
                "type_source": "Original"
            }
        },
        {
            "type": "remarques",
            "value": "Perg. wohl nicht ital., breit 0,335\u20130,355, lang 0,51\u20130,53 (unregelm\u00e4ssig geschnitten), unten umgeschlagen, hier geht durch zwei unter einander angebrachte L\u00f6cher das nicht sehr starke Pergamentband (circa 0,007 breit), woran die Bulle h\u00e4ngt, Faltung der Privilegien. Mit Ausnahme des in Uncialen ausgef\u00fchrten Leo der Nominatio ist Alles in fr\u00e4nkischer, namentlich im g etwas verschn\u00f6rkelter, Urkundenminuskel geschrieben. Die von der Datirung 0,08 entfernte Rota ist unregelm\u00e4ssig gezeichnet, ihre Kreise sind ohne Zirkel gemacht (Aussenkreis misst im Durchmesser 0,054\u20130,058, Innenkreis 0,032\u20130,037), das Monogramm besteht aus feinen Linien, das Komma fehlt ; das Datum weist \u00e4usserlich alle Eigenth\u00fcmlichkeiten der Petruszeile auf, k\u00f6nnte aber doch von der nachbildenden Hand des Textschreibers herr\u00fchren, die Bulle ist noch d\u00fcnner wie ein Zweimarkst\u00fcck und ungleichm\u00e4ssig ausgepr\u00e4gt, das Pergamentband geht nicht in der Mitte, sondern mehr an der Seite hindurch, Avers : Sternvignette, darum LEONIS, Revers : Kreuzvignette, darum PAPAE."
        },
        {
            "type": "genre",
            "value": "Bulle"
        }
    ]
}