{
    "id": 149838,
    "name": "aposcripta-9401",
    "type": "acte",
    "url": "http:\/\/telma-chartes.irht.cnrs.fr\/aposcripta\/notice\/149838",
    "project_slug": "aposcripta",
    "project_label": "APOSCRIPTA \u2013 Lettres des papes",
    "user": "lettrespontificalesadmin",
    "last_update": "2020-10-19 16:40:05",
    "licence": "Attribution - Pas d\u2019Utilisation Commerciale - Partage dans les M\u00eames Conditions 3.0 France (CC BY-NC-SA 3.0 FR) ",
    "licence_url": "https:\/\/creativecommons.org\/licenses\/by-nc-sa\/3.0\/fr\/",
    "elements": [
        {
            "type": "pape",
            "value": "Urbain IV (1261-1264)"
        },
        {
            "type": "destinataire",
            "value": ". . potestati, consilio et communi Verulanis, fidelibus nostris"
        },
        {
            "type": "date_libre",
            "value": "II kalendas martii, anno tertio"
        },
        {
            "type": "date",
            "value": " 1264\/02\/29",
            "children": {
                "date_deb_annee": "1264",
                "date_deb_mois": "02",
                "date_deb_jour": "29"
            },
            "range": {
                "date_apres": 12640229,
                "date_avant": 12640229
            }
        },
        {
            "type": "date_lieu",
            "value": "Urbemveterem"
        },
        {
            "type": "sources_manuscrites",
            "value": "R. CIT\u00c9 DU VATICAN, Archivio Segreto Vaticano, <hi rend=\"italic\">Registra Vaticana<\/hi> ... Urb.\u00a0IV Reg. Vol.\u00a0III, 92; Lib.\u00a0III, cur.\u00a045. Exemplar eiusdem epistolae, quod Terracinensibus directum Contator, Hist. Terracin. p.\u00a072 ex authentico edidit, contulimus cum Regestis.",
            "children": {
                "type_source": "Registre de la chancellerie apostolique"
            }
        },
        {
            "type": "genre",
            "value": "Mandement (littere cum filo canapis)"
        },
        {
            "type": "analyse",
            "value": "Urbanus IV papa Verulanis fidelibus suis mandat, ut omnes de terra sua, qui stipendia Manfredi suscepturi in regnum Siciliae accedant, capiant et detineant, quousque papa de ipsis aliter dispositurus sit, et bona eorum confiscent [Rodenberg]."
        },
        {
            "type": "transcription",
            "value": "<?xml version=\"1.0\" encoding=\"UTF-8\"?>\n. . potestati, consilio et communi Verulanis, fidelibus nostrisRes incredibilis, res nova et insolita et ab antique Campane fidelitatis actibus aliena ad nostrum nuper pervenit auditum, que licet nequeat in credulitatem nostre mentis ascendere, animum tamen nostrum amaritudine nostrosque sensus gelido quodam stupore replevit. Intelleximus etenim, quod nonnulli milites et pedites de Campania, volentes ponere maculam in veteri, immo iam inveterata gloria Campanorum, in regnum Sicilie, stipendia Manfredi quondam principis Tarentini contra Romanam ecclesiam eorum matrem et dominam ipsiusve fideles et devotos ecclesie suscepturi, accedere presumpserunt, ex quo, si hoc verum esset, patria vestra gravi respergeretur infamia totaque illa regio, que stabili semper fidelitate prefulsit, videretur iam propter illorum nefarias presumptiones, ne dicamus proditorias infidelitates, contagiis obfuscari. Et ideo nos, nolentes tante temeritatis excessum in illis, si qui hoc attemptaverunt iam vel deinceps attemptaverint, relinquere impunitum, universitati vestre per apostolica scripta sub debito fidelitatis, quo nobis et ecclesie predicte tenemini, et pena mille marcarum argenti dictricte precipiendo mandamus, quatinus omnes illos de terra vestra, qui ad predictum regnum taliter accesserunt aut de cetero accesserint, cum occulti vel ignoti vobis esse non possint, personaliter capere ac sub arta detinere custodia, quousque de ipsis aliter disponamus, et domos ipsorum ex toto diruere, nec non bona eorundem omnia confiscare omni dilatione, difficultate ac excusatione cessante, sicut nostram et apostolice sedis caram habetis gratiam, sollicite procuretis, procedentes eodem modo contra barones et alios nobiles similis culpe reos, quantum ad domos et bona eorum, que in vestra terra vel districtu vestro consistunt, quorum etiam personas, si eos ad terram vestram venire contingat, nichilominus capiatis, scituri pro certo, quod si nostrum non impleveritis efficaciter in hac parte preceptum, merito vos, quorum fidelitatem in hoc experiri specialiter volumus, tante illorum nequitie conscios seu participes reputabimus et predictam penam solvi nobis plenarie faciemus. Et ecce venerabili fratri nostro . . episcopo Verulano litteris nostris iniungimus, ut ipse diligentiam vel negligentiam vestram super hoc nobis studeat fideliter intimare.Dat. apud Urbemveterem, II Kalendas Martii, anno tertio.In eundem modum episcopo Verulano. Res incredibilis etc. verbis competenter mutatis usque: quorum etiam personas nichilominus capiant, si eos ad terram ipsam venire contingat. Ideoque fraternitati tue per apostolica scripta in virtute obedientie districte precipiendo mandamus, quatinus diligentiam sive negligentiam, quam iidem rector, consilium et commune habuerint in hac parte, nobis studeas fideliter intimare, ac insuper Verulanos illos necnon barones et nobiles et alios tue civitatis et diocesis, qui propter hoc in predictum regnum ire attemptaverunt vel attemptaverint, cum vix aut numquam tibi esse possint incogniti, per eandem civitatem et diocesim excommunicatos nominatim ac publice nunties et nuntiari sollempniter facias et ab omnibus artius evitari, eorum nobis nomina sub tuo sigillo fideliter transmissurus.Dat. ut supra.\n"
        },
        {
            "type": "edition",
            "value": "Ici reprise de Karl Rodenberg, Epistolae s. XIII e regestis pontificum romanorum selectae, III, Berlin : Weidmann (MGH), 1894, n.\u00a0582, p.\u00a0572."
        },
        {
            "type": "edition_autre",
            "value": "?"
        },
        {
            "type": "regeste",
            "value": "?"
        },
        {
            "type": "bibliographie_generale",
            "value": "?"
        },
        {
            "type": "apparat_critique",
            "value": "?",
            "children": {
                "numero_note": "a"
            }
        },
        {
            "type": "apparat_critique",
            "value": "?",
            "children": {
                "numero_note": "b"
            }
        },
        {
            "type": "apparat_critique",
            "value": "?",
            "children": {
                "numero_note": "c"
            }
        },
        {
            "type": "apparat_critique",
            "value": "?",
            "children": {
                "numero_note": "d"
            }
        },
        {
            "type": "apparat_critique",
            "value": "?",
            "children": {
                "numero_note": "e"
            }
        },
        {
            "type": "apparat_critique",
            "value": "?",
            "children": {
                "numero_note": "f"
            }
        },
        {
            "type": "notes_historiques",
            "value": "?",
            "children": {
                "numero_note": "1"
            }
        },
        {
            "type": "notes_historiques",
            "value": "?",
            "children": {
                "numero_note": "2"
            }
        },
        {
            "type": "notes_historiques",
            "value": "?",
            "children": {
                "numero_note": "3"
            }
        }
    ]
}