{
    "id": 20465,
    "name": "aposcripta-452",
    "type": "acte",
    "url": "http:\/\/telma-chartes.irht.cnrs.fr\/aposcripta\/notice\/20465",
    "project_slug": "aposcripta",
    "project_label": "APOSCRIPTA \u2013 Lettres des papes",
    "user": "lettrespontificalesadmin",
    "last_update": "2020-10-19 16:26:49",
    "licence": "Attribution - Pas d\u2019Utilisation Commerciale - Partage dans les M\u00eames Conditions 3.0 France (CC BY-NC-SA 3.0 FR) ",
    "licence_url": "https:\/\/creativecommons.org\/licenses\/by-nc-sa\/3.0\/fr\/",
    "elements": [
        {
            "type": "pape",
            "value": "Gr\u00e9goire XI (1370-1378)"
        },
        {
            "type": "date_lieu",
            "value": "Villeneuve"
        },
        {
            "type": "date_libre",
            "value": "17 juin 1375"
        },
        {
            "type": "analyse",
            "value": "ACTION DE GR\u00c9GOIRE XI contre les Vaudois de la Provence, de la Savoie et du Dauphin\u00e9 (1375-1376)Nos 286-308. Voir l\u2019Introduction. p. lvii-lxv.<br\/>L\u2019\u00e9v\u00eaque d\u2019Avignon et l\u2019inquisiteur Fran\u00e7ois Borrel sont charg\u00e9s de veiller \u00e0 l\u2019ex\u00e9cution de la bulle qui pr\u00e9c\u00e8de et de fulminer les censures contre les r\u00e9fractaires."
        },
        {
            "type": "transcription",
            "value": "<?xml version=\"1.0\" encoding=\"UTF-8\"?>\nQuocirca ut mandata nostra contenta in dictis litteris debite executioni efficacius demandentur, vobis et alteri vestrum, si prefati archiepiscopi in executione premissorum se reddiderint, quod non credimus, infra predictorum trium mensium spatium contemptores seu malitiose negligentes, dictas excommunicationis et suspensionis sententias ubi et quando vobis videbitur solemniter publicari, ipsas etiam aggravando, prout suadebit iustitia et videritis expedire, et ipsorum archiepiscoporum suffraganeos ad exequendum premissa et quoscumque alios contradictores et rebelles seu male ablatorum et legatorum incertorum predictorum detentores ad ea vobis assignandum auctoritate nostra predicta per censuram ecclesiasticam appellatione postposita compescatis, invocato ad hoc si opus fuerit auxilio brachii secularis. Non obstantibus indulgentia per quam dicto ordini fratrum minorum a Sede apostolica dicitur esse concessum ut ipsius ordinis fratres non teneantur se intromittere de quibuscumque negotiis, que eisa per ipsius Sedis litteras committuntur nisi de commissione huiusmodi in eisdem litteris plena et expressa mentio habeatur, ac tam felicis recordationis Bonifacii pape VIII predecessoris nostri, in quibus cavetur ne aliqui auctoritate litterarum apostolicarum ultra certa loca et numerum ad iudicium evocentur, quam aliis constitutionibus apostolicis contrariis quibuscumque. Seu si alicui vel aliquibus predictorum vel aliis communiter vel divisim a Sede apostolica sit indultum quod interdici, suspendi, vel excommunicari, aut extra vel ultra loca ad iudicium evocari non possint per litteras apostolicas non facientes plenam et expressam, et exemptionis ac de verbo ad verbum de indulto huiusmodi mentionem, et quibuslibet privilegiis ac litteris apostolicis quibuscumque locis, personis vel ordinibus sub quacumque forma vel expressione verborum ab eadem Sede concessis de quibus quorumque totis tenoribus etiam de verbo ad verbum in nostris litteris mentio sit habenda, et per que presentis mandati nostri effectus valeat quomodolibet impediri. \u2014 Datum ut supra.\n"
        },
        {
            "type": "edition",
            "value": "Jean-Marie Vidal, <i>Bullaire de l\u2019Inquisition fran\u00e7aise au XIV<sup>e<\/sup> si\u00e8cle et jusqu'\u00e0 la fin du Grand Schisme<\/i>, Paris : Letouzey et An\u00e9, 1913, n. 297, p. 423"
        },
        {
            "type": "sources_manuscrites",
            "value": "<i>Reg. Vat.<\/i>, t. <span class=\"smal-caps\">cclxvii<\/span>, fol. 50"
        },
        {
            "type": "sources_manuscrites",
            "value": "Eubel, <i>Bull.<\/i>, t. <span class=\"smal-caps\">vi<\/span>, n. 1388 (<i>in ext.<\/i>)."
        },
        {
            "type": "notes_historiques",
            "value": "Voir n. 296, note 1.",
            "children": {
                "numero_note": "1"
            }
        },
        {
            "type": "notes_historiques",
            "value": "Voir n. 286, note 1.",
            "children": {
                "numero_note": "2"
            }
        },
        {
            "type": "apparat_critique",
            "value": "<i>Reg.<\/i> : <i>eius<\/i>.",
            "children": {
                "numero_note": "a"
            }
        },
        {
            "type": "date",
            "value": "1375\/06\/17",
            "children": {
                "date_deb_annee": "1375",
                "date_deb_mois": "06",
                "date_deb_jour": "17"
            },
            "range": {
                "date_apres": 13750617,
                "date_avant": 13750617
            }
        },
        {
            "type": "genre",
            "value": "Bulle"
        }
    ]
}