{
    "id": 23820,
    "name": "aposcripta-1023",
    "type": "acte",
    "url": "http:\/\/telma-chartes.irht.cnrs.fr\/aposcripta\/notice\/23820",
    "project_slug": "aposcripta",
    "project_label": "APOSCRIPTA \u2013 Lettres des papes",
    "user": "l_valliere",
    "last_update": "2020-10-19 16:27:19",
    "licence": "Attribution - Pas d\u2019Utilisation Commerciale - Partage dans les M\u00eames Conditions 3.0 France (CC BY-NC-SA 3.0 FR) ",
    "licence_url": "https:\/\/creativecommons.org\/licenses\/by-nc-sa\/3.0\/fr\/",
    "elements": [
        {
            "type": "pape",
            "value": "Gr\u00e9goire IX (1227-1241)"
        },
        {
            "type": "destinataire",
            "value": "La reine de France Blanche de Castille"
        },
        {
            "type": "date_libre",
            "value": "XII kalendas novembris, anno tertio decimo"
        },
        {
            "type": "date",
            "value": " 1239\/10\/21",
            "children": {
                "date_deb_jour": "21",
                "date_deb_mois": "10",
                "date_deb_annee": "1239"
            },
            "range": {
                "date_apres": 12391021,
                "date_avant": 12391021
            }
        },
        {
            "type": "date_lieu",
            "value": "Anagni"
        },
        {
            "type": "genre",
            "value": "Mandement (littere cum filo canapis)"
        },
        {
            "type": "analyse",
            "value": "Gregorius papa IX Blanchae reginae episcopum Penestrinum in Francia legatum commendat."
        },
        {
            "type": "transcription",
            "value": "<?xml version=\"1.0\" encoding=\"UTF-8\"?>\nGregorius episcopus, servus servorum Dei, carissime in Christo filie B[lanche] illustri regine Francie salutem et apostolicam benedictionem. Considerantes devotionis et puritatis constantiam quam inclite recordationis progenitores carissimi in Christo filii nostri Francie regis illustris, nati tui, circa Deum, fidem catholicam et Ecclesiam omni tempore habuisse noscuntur, ad ipsum venerabilem fratrem nostrum [Jacobum] Penestrinum episcopum, virum approbate bonitatis et sanctitatis experte, magnum Ecclesie Dei menbrum, officio sibi legationis commisso, pro defensione catholice fidei destinamus. Plena igitur ex sinceritate devotionis et fidei quam tu circa Deum et Ecclesiam omni tempore habuisti, assumpta fiducia, celsitudinem tuam rogamus et hortamur in domino Jhesu Christo quatinus, prudenter attendens quod tempus advenit in quo filio gloriose Virginis vicem retribuas pro hiis que tribuit ipse tibi, eundem natum tuum quod, detractionibus et mendaciis F[rederici] dicti imperatoris, qui Christum, vicarium suum, Ecclesiam et ministros ipsius suos capitales reputat inimicos, confutatis omnino, prefatum legatum, vel potius Christum in ipso, cujus legatione fungitur et pro cujus tantum fide laborat, prompta benignitate suscipiat, et ei honorem, sicut regiam magnitudinem decet, impendens, dictorum progenitorum excitatus exemplo, apostolice Sedi, immo Deo et toti populo christiano, efficax in hoc articulo studeat consilium et auxilium impertiri, juxta prudentiam tibi datam a Domino, diligenter inducere ac monere procures ; ita quod Jhesus Christus, qui pro redemptione tua proprium sanguinem fundere et in crucis patibulo mortis tormentum subire dignatus, tui sinceritatem animi hoc tempore circa se disposuit experiri, tibi, post temporalis palatii gloriam, eterne vite dignetur ob hoc indulgere coronam. Datum Anagnie, XII kalendas novembris, pontificatus nostri anno tertio decimo.\n"
        },
        {
            "type": "edition",
            "value": "Ici d'apr\u00e8s Alexandre Teulet, <i>Layettes du Tr\u00e9sor des chartes<\/i>, II, Paris : Henri Plon, 1866 <a target=\"_blank\" href=\"http:\/\/gallica.bnf.fr\/ark:\/12148\/bpt6k31580p\/f507.image\"> [en ligne]<\/a>, n. 2836, p. 419-420 <a target=\"_blank\" href=\"https:\/\/francearchives.fr\/fr\/facomponent\/75e1aeb76b3c69fd255805bac6a8b22a09bcf16b\">[num\u00e9ris\u00e9e sur le site des Archives de France]<\/a>, d'apr\u00e8s E."
        },
        {
            "type": "sources_manuscrites",
            "value": "E. FRANCE, Paris, Archives nationales, J 696\/11. Original scell\u00e9. Bulle de plomb sur cordelettes de chanvre ; voyez l'<i>Inventaire<\/i>, n. 6047.",
            "children": {
                "type_source": "Exp\u00e9dition"
            }
        },
        {
            "type": "remarques",
            "value": "Absente des registres"
        },
        {
            "type": "regeste",
            "value": "Potthast, <i>Regesta pontificum Romanorum<\/i>, n. 10799 <a target=\"_blank\" href=\"https:\/\/archive.org\/stream\/RegestaPontificumRomanorum\/ph#page\/n927\/mode\/2up\"> [en ligne]<\/a>."
        },
        {
            "type": "regeste",
            "value": "Bernard Barbiche, <i>Les actes pontificaux originaux des Archives Nationales de Paris<\/i>, Cit\u00e9 du Vatican, 1975-1982, I, n. 427, p. 165, d\u2019apr\u00e8s E."
        }
    ]
}