{
    "id": 26456,
    "name": "aposcripta-3535",
    "type": "acte",
    "url": "http:\/\/telma-chartes.irht.cnrs.fr\/aposcripta\/notice\/26456",
    "project_slug": "aposcripta",
    "project_label": "APOSCRIPTA \u2013 Lettres des papes",
    "user": "lettrespontificalesadmin",
    "last_update": "2020-10-19 16:28:00",
    "licence": "Attribution - Pas d\u2019Utilisation Commerciale - Partage dans les M\u00eames Conditions 3.0 France (CC BY-NC-SA 3.0 FR) ",
    "licence_url": "https:\/\/creativecommons.org\/licenses\/by-nc-sa\/3.0\/fr\/",
    "elements": [
        {
            "type": "pape",
            "value": "Lucius III (1181-1185)"
        },
        {
            "type": "date_lieu",
            "value": "Velletri"
        },
        {
            "type": "date_libre",
            "value": "1182\u20131183 Mai 26"
        },
        {
            "type": "date",
            "value": "apr\u00e8s 1182\/05\/26 - avant 1183\/05\/26",
            "children": {
                "date_deb_annee": "1182",
                "date_deb_mois": "05",
                "date_deb_jour": "26",
                "date_deb_type": "apr\u00e8s",
                "date_fin_annee": "1183",
                "date_fin_mois": "05",
                "date_fin_jour": "26",
                "date_fin_type": "avant"
            },
            "range": {
                "date_apres": 11820526,
                "date_avant": 11830526
            }
        },
        {
            "type": "analyse",
            "value": "Lucius III bewilligt dem Domkapitel von Troyes, dass es seinem Bischofe nur bei notorischer Schuld zustehen solle, jemand ohne canonische Vorladung und ohne Mitwissen des Kapitels mit Kirchenstrafen zu belegen."
        },
        {
            "type": "transcription",
            "value": "<?xml version=\"1.0\" encoding=\"UTF-8\"?>\n Lucius episcopus servus servorum dei dilectis filiis, Aicio decano et capi|tulo Trecensi, salutem et apostolicam benedictionem. Ad hoc gradus in ecclesia dispositio | superna constituit, ut non contra prelatos subditi contumaces existant, nec rursus prelati in opprimendos subditos frustra se valeant occupare. Inde est, quod precibus vestris inducti, presentium auctoritate decernimus, ut non liceat episcopo vestro, qui pro tempore fuerit1, notoria culpa excepta, aliquam personarum vel canonicorum sine citatione canonica et capituli conscientia excommunicationis, suspensionis vel interdicti vinculo innodare. Nulli ergo omnino hominum liceat, hanc paginam nostre constitutionis infringere vel ei ausu temerario contraire. Si quis autem hoc attentare presumpserit, indignationem omnipotentis dei et beatorum | Petri et Pauli apostolorum eius se noverit incursurum. \u2014 Dat. Velletri, vii Kl. Junii.\n"
        },
        {
            "type": "edition",
            "value": "Julius von Pflugk-Harttung, <i>Acta pontificum Romanorum inedita<\/i>, T\u00fcbingen, 1880, I, n. 347, p. 308"
        },
        {
            "type": "sources_manuscrites",
            "value": "Or. im Archive des D\u00e9p. Aube zu Troyes."
        },
        {
            "type": "remarques",
            "value": "Perg. ital., breit 0,125, lang 0,108, unten umgeschlagen. Bullirung durch 2 L\u00f6cher, ein St\u00fcck der rosa und gr\u00fcnlichen Seidenschnur erhalten, Bulle verloren. Faltung der Breven."
        },
        {
            "type": "notes_historiques",
            "value": "<i>Damals war Manasse Bischof von Troyes, 1181\u20131190.<\/i>",
            "children": {
                "numero_note": "1"
            }
        },
        {
            "type": "genre",
            "value": "Bulle"
        }
    ]
}