{
    "id": 25550,
    "name": "aposcripta-2647",
    "type": "acte",
    "url": "http:\/\/telma-chartes.irht.cnrs.fr\/aposcripta\/notice\/25550",
    "project_slug": "aposcripta",
    "project_label": "APOSCRIPTA \u2013 Lettres des papes",
    "user": "lettrespontificalesadmin",
    "last_update": "2020-10-19 16:27:46",
    "licence": "Attribution - Pas d\u2019Utilisation Commerciale - Partage dans les M\u00eames Conditions 3.0 France (CC BY-NC-SA 3.0 FR) ",
    "licence_url": "https:\/\/creativecommons.org\/licenses\/by-nc-sa\/3.0\/fr\/",
    "elements": [
        {
            "type": "pape",
            "value": "Innocent IV (1243-1254)"
        },
        {
            "type": "destinataire",
            "value": "Le roi de France Louis IX",
            "children": {
                "numero_note": "0"
            }
        },
        {
            "type": "date_lieu",
            "value": "P\u00e9rouse"
        },
        {
            "type": "date_libre",
            "value": "1252, 28 mars"
        },
        {
            "type": "date",
            "value": " 1252\/03\/28",
            "children": {
                "date_deb_annee": "1252",
                "date_deb_mois": "03",
                "date_deb_jour": "28"
            },
            "range": {
                "date_apres": 12520328,
                "date_avant": 12520328
            }
        },
        {
            "type": "analyse",
            "value": "Monasterio Cluniacensi restituatur castrum de Lordun, quod a ballivo Matisconensi detinetur [Berger]."
        },
        {
            "type": "transcription",
            "value": "<?xml version=\"1.0\" encoding=\"UTF-8\"?>\n.. Regi Francie illustri.  Si diligentius mediteris et attendas ut convenit qua in regno Francie libertate fuerint hactenus ecclesie et ecclesiastice persone gavise quidve etiam ipsi regno ex hoc et ejus regibus, ceteros precellentibus in tuitione ac conservatione jurium ecclesiarum, a retributore bonorum omnium Domino Jesu Christo gratie, benedictionis provenerit et salutis, ac quanto laudum preconio dictum regnum pre cunctis commendabilius habeatur ex eo quod in ipso juris viget equitas, libertas ecclesiastica defensatur et religiosarum precipue personarum, ad ea prona mente promptisque desideriis sedulo te donabis, ac totis affectibus et actibus habeberis studiosus, que cognoveris dicti regni ecclesiis et personis ecclesiasticis profutura, earumque comodum quasi proprium concupiscens, utilitatem et profectum ipsarum sollicito studio promovebis. Sane tuam excellentiam credimus non latere quod Cluniacense monasterium, quod inter alia monasteria regni tui nobile et predives habetur, florens in spiritualibus, bonorum temporalium ubertate refertum, cum villa Cluniacensi, castro de Lordun et aliis ipsius pertinentiis consistentibus infra cruces et metas positas circa ipsum, Ecclesie Romane juris et proprietatis existit, ac ea gaudet per privilegia Romanorum Pontificum libertate, ut nullus mortalium, imperatorum scilicet, regum, ducum, comitum, marchionum, archiepiscoporum et episcoporum, aut quecumque persona in idem monasterium vel ejus pertinentias potestatem aliquam possit vel audeat exercere, seu possessiones, terras, castra vel alia bona ejus infra cruces et metas existentia supradictas auferre, capere, invadere vel tenere ; quod si quisquam presumpserit, anathema sit, apostolice maledictionis transfossus aculeo, et excommunicationis vinculo innodatus, nec possit super hoc nisi per condignam satisfactionem benedictionis vel absolutionis gratiam promereri. Verum, cum, sicut monasterii ipsius abbate didicimus intimante, eo in Anglicanis partibus de nostra licentia pro sui monasterii negotiis existente, ballivus Matisconensis res ejusdem abbatis et conventus Cluniacensis, et specialiter castrum de Lordun prefatum eo quod idem abbas et conventus decimam tibi non solverant per triennium ceperit, et ipsa sine speciali mandato carissime in Christo filie nostre .. illustris regine Francie matris tue, se dicens nullatenus redditurum castrum ipsum, cum rebus ibidem inventis occupatum detineat in scandalum grande nimis et gravissimum eorumdem abbatis et monasterii detrimentum, prefatam reginam per nostras litteras rogandam duximus attentius quatinus, attendens quam sit tibi meritorium, ad salutem utile ac honorificum regno tuo, Deo placitum et acceptum, ac hominibus gratiosum ut Christi famulos sancte religioni in eodem regno vacantes et loca Deo dicata ullis injuriis ab aliquibus tue jurisdictioni subjectis non permittas seu detrimentis impeti vel molestiis aliquibus agitari, considerans etiam quod non parum detrahitur regie dignitati si castrum ipsum vel jura dicti monasterii custodiri et defensari per te solita detineantur tuo nomine violenter quodque id plurimum tue contrarium sit saluti, cum contra indulta Sedis apostolice fieri dinoscatur, ob reverentiam divinam, apostolice Sedis et nostram castrum et res predicta liberalitate benigna mandes et facias abbati restitui memorato, preces nostras eo benignitatis studio impleturus, quod gaudente Cluniacensi ecclesia se de plenitudine tue in hac parte gratie pacis et quietis donaria recepisse, tibi sit meritorium apud Deum, nosque provide tuam Excellentiam cumulatis laudibus et multiplicatis benedictionibus efferamus. Datum Perusii, V kalendas aprilis, anno nono.\n"
        },
        {
            "type": "edition",
            "value": "Ici reprise d'Elie Berger, Reg. d\u2019Innocent IV, n. 5597, d'apr\u00e8s R."
        },
        {
            "type": "sources_manuscrites",
            "value": "R. Registra Vaticana, 22, n. 161, fol. 136v.",
            "children": {
                "type_source": "Registre de la chancellerie apostolique"
            }
        },
        {
            "type": "remarques",
            "value": ""
        },
        {
            "type": "regeste",
            "value": "Auguste Bernard, Alexandre Bruel, <i>Recueil des chartes de l'abbaye de Cluny<\/i>. VI. <i>1211-1300<\/i>, Paris : Imprimerie nationale, 1903 <a href=\"http:\/\/gallica.bnf.fr\/ark:\/12148\/bpt6k367019?rk=21459;2\" target=\"_blank\">[en ligne]<\/a>, p. 435, n\u00b0 4946.",
            "children": {
                "numero_note": "0"
            }
        },
        {
            "type": "genre",
            "value": "Lettre, g\u00e9n\u00e9ral (apr\u00e8s 1198, littere cum filo canapis)"
        },
        {
            "type": "sources_manuscrites",
            "value": "S. FRANCE, Biblioth\u00e8que nationale de France, Collection Moreau 1201, fol. 168 (La Porte du Theil).",
            "children": {
                "type_source": "Copie moderne"
            }
        }
    ]
}