{
    "id": 146913,
    "name": "aposcripta-6542",
    "type": "acte",
    "url": "http:\/\/telma-chartes.irht.cnrs.fr\/aposcripta\/notice\/146913",
    "project_slug": "aposcripta",
    "project_label": "APOSCRIPTA \u2013 Lettres des papes",
    "user": "l_valliere",
    "last_update": "2020-10-19 16:39:24",
    "licence": "Attribution - Pas d\u2019Utilisation Commerciale - Partage dans les M\u00eames Conditions 3.0 France (CC BY-NC-SA 3.0 FR) ",
    "licence_url": "https:\/\/creativecommons.org\/licenses\/by-nc-sa\/3.0\/fr\/",
    "elements": [
        {
            "type": "pape",
            "value": "Cl\u00e9ment IV (1265-1268)"
        },
        {
            "type": "destinataire",
            "value": "L'abb\u00e9 du monast\u00e8re de Settimo, au dioc\u00e8se de Florence"
        },
        {
            "type": "date_libre",
            "value": "III nonas maii, anno primo"
        },
        {
            "type": "date",
            "value": "1265\/05\/05",
            "children": {
                "date_deb_annee": "1265",
                "date_deb_mois": "05",
                "date_deb_jour": "05"
            },
            "range": {
                "date_apres": 12650505,
                "date_avant": 12650505
            }
        },
        {
            "type": "date_lieu",
            "value": "P\u00e9rouse"
        },
        {
            "type": "genre",
            "value": "Titre, g\u00e9n\u00e9ral (littere gratiose, cum filo serico)"
        },
        {
            "type": "analyse",
            "value": "Abbati monasterii de Septimo, Florent. dioc., de superiore epistola [<a target=\"_blank\" href= \"http:\/\/telma-chartes.irht.cnrs.fr\/aposcripta\/notice\/146912\">APOSCRIPTA n. 6541<\/a>] significat eique mandat ut dictam sententiam et declarationem executioni debitae demandet."
        },
        {
            "type": "edition",
            "value": "Giovanni Lami, <i>Sanctae ecclesiae Florentinae monumenta<\/i>,  Florence, 1758, 4 vol., t. III, p. 1798."
        },
        {
            "type": "regeste",
            "value": "Potthast, <i>Regesta pontificum Romanorum<\/i>, n. 19128 <a target=\"_blank\" href=\" http:\/\/opacplus.bsb-muenchen.de\/title\/BV004241514\/ft\/bsb11316018?page=616\"> [en ligne]<\/a>."
        },
        {
            "type": "transcription",
            "value": "<?xml version=\"1.0\" encoding=\"UTF-8\"?>\nExhibita nobis dilecti...\n"
        }
    ]
}