{
    "id": 24146,
    "name": "aposcripta-1298",
    "type": "acte",
    "url": "http:\/\/telma-chartes.irht.cnrs.fr\/aposcripta\/notice\/24146",
    "project_slug": "aposcripta",
    "project_label": "APOSCRIPTA \u2013 Lettres des papes",
    "user": "lettrespontificalesadmin",
    "last_update": "2020-10-19 16:27:23",
    "licence": "Attribution - Pas d\u2019Utilisation Commerciale - Partage dans les M\u00eames Conditions 3.0 France (CC BY-NC-SA 3.0 FR) ",
    "licence_url": "https:\/\/creativecommons.org\/licenses\/by-nc-sa\/3.0\/fr\/",
    "elements": [
        {
            "type": "pape",
            "value": "Urbain III (1185-1187)"
        },
        {
            "type": "date_lieu",
            "value": "n.c."
        },
        {
            "type": "date_libre",
            "value": "4\u00a0mars 1187"
        },
        {
            "type": "date",
            "value": " 1187\/03\/04",
            "children": {
                "date_deb_annee": "1187",
                "date_deb_mois": "03",
                "date_deb_jour": "04"
            },
            "range": {
                "date_apres": 11870304,
                "date_avant": 11870304
            }
        },
        {
            "type": "analyse",
            "value": "Urbain\u00a0III renouvelle \u00e0 l\u2019\u00e9v\u00eaque, au pr\u00e9v\u00f4t et au chapitre les faveurs accord\u00e9es par ses pr\u00e9d\u00e9cesseurs, et les confirme dans leurs possessions."
        },
        {
            "type": "transcription",
            "value": "<?xml version=\"1.0\" encoding=\"UTF-8\"?>\nUrbanus episcopus, servus servorum Dei, venerabili fratri Johanni episcopo, et dilectis filiis Petro, preposito, et canonicis Magalonensibus, tam presentibus quam futuris, regularem vitam professis, in perpetuum.Quotiensa a nobis petitur quod religioni et honestati convenire dinoscitur, animo nos decet libenti concedere, et petentium desideriis congruum suffragium impertiri. Eapropter, venerabilis in Cristob frater episcope, et dilecti in Domino filii canonici, vestris justis postulationibus clementer annuimus, et Ecclesiam vestram, in qua divino mancipati estis obsequio, ad exemplar predecessorum nostrorum felicis memorie Alexandri, Urbani, Pascalis, Calixti et Adriani, Romanorum Pontificum, sub beati Petri et nostra protectione suscipimus, et presentis scripti privilegio communimus\u00a0: in primis siquidem statuentes, ut ordo canonicus, qui, secundum Deum et beati Augustini regulam, in eadem Ecclesia institutus esse dinoscitur, perpetuis ibidem temporibus inviolabiliter observetur.Statuimus etiam ut, secundum dispositionem pie memorie Petri comitis et Sedis Apostolice privilegia, Magalonensis Ecclesia, specialiter in beati Petri protectione consistens, ab omni semper secularis servitutis et potestatis vinculo et exactione libera permaneat et quieta. Omnes etiam ejusdem episcopatus ecclesie, tam in justitiisc clericorum, quam et in hospitiisd, ab omni laicali gravamine sint immunes\u00a0; nec in episcopatus vel communie honoribus quicumque prorsus, preter Romanum Pontificem, dominium sibi audeat vendicare.Preterea quascumque possessiones, quecumque bona eadem Ecclesia in presentiarume juste et canonice possidet, aut in futurum, concessione Pontificum, largitione regum vel principum, oblatione fidelium, seu aliis justis modis, prestante Domino, poterit adipisci, firma vobis vestrisque successoribus et illibata permaneant\u00a0; in quibus hec propriis duximus exprimenda vocabulis\u00a0: locum ipsum, in quo prefata Ecclesia sita est, cum insula et aliis pertinentiis suis, stagnum eidem insule adjacens, gradus et redditus ipsius, sepes et piscationes, ecclesiam Sancti Stephani de Villanova, cum omnibus pertinentiis et decimationibus suis, villam et ecclesiam de Exindrio, cum omnibus decimationibus et aliis pertinentiis suis, ecclesiam Sancte Eulalie et Sancte Leocadie, ecclesiam de Frontiniano, ecclesiam Sancte Marie de Aquis, ecclesiam Sancti Andree de Maurino, villam et ecclesiam Sanctis Johannis de Cocone, ecclesiam de Latis, ecclesiam Sancti Michaelis de Montilio, molendina de Amantione, ecclesiam Sancti Baudilii de Monte Scevo, cum ipso monte, ecclesiam de Fabricis, ecclesiam de Piniano, ecclesiam de Muroveteri, ecclesiam Sancti Georgii, ecclesiam de Veruna, ecclesiam de Salsanof, ecclesiam de Joviniaco, ecclesiam de Vedatio, ecclesiam de Prunetog, ecclesiam de Sentrairanicis, cum omnibus pertinentiis earum, ecclesiam Sancti Firmini de Montepessulanoh, cum capellis et aliis ecclesiis sibi annexis, cum decimationibus et aliis pertinentiis suis, capellam Sancte Marie de Montepessulano, ecclesiam Sancti Dionisii de Montepessulano, ecclesiam de Sauzeto cum capellis, ecclesiam de Substantione cum capellis, ecclesiam de Novegenz, ecclesiam de Montearbesone, ecclesiam de Soregio, villam et ecclesiam de Perols et de Salviniaco, villam et ecclesiam de Jocone cum decimationibus, ecclesiam de Clapers, ecclesiam de Albalanicis, villam et ecclesiam de Pratis, ecclesiam de Cassagnatioi, villam et ecclesiam de Laureto, villam et ecclesiam de Roveto, cum omnibus pertinentiis earum, ecclesiam de Egabriaco, ecclesiam Sancte Marie de Lundris, ecclesiam de Isselsaco, ecclesiam Sancti Andree de Boia, ecclesiam Sancti Johannis de Boia, ecclesiam de Gornerio, ecclesiam Sancti Vincentiani, ecclesiam Sancti Desiderii, ecclesiam de Lunello, ecclesiam Sancti Stephani de Novitia, ecclesiam de Lunello veteri, cum omnibus pertinentiis earum, ecclesiam de Cabreriis, ecclesiam Sancti Dionisii de Genesteto, ecclesiam de Molinis, ecclesiam Sancti Brixi, et villam cum dominio et omni jurisdictione sua, ecclesiam Sancti Romani de Melgorio, ecclesiam de Onoro, cum capellis et omnibus decimationibus suis, ecclesiam Sancti Marcelli, ecclesiam de Frejonicis, cum omnibus pertinentiis earum, insulam de Neut, insulam Esclionis, castrum de Villanova, cum omnibus pertinentiis suis, villam de Amantione, villam de Vico cum pertinentiis suis, castrum de Gijano, cum omnibus ad idem castrum pertinentibus, totum castrum de Veruna, cum pertinentiis suis, villas de Terralet, villas de Bejanicis, cum pertinentiis earum, villam de Agusanicis, cum toto terminio suo, villam de Agantico, cum justitiisj suis et ceteris pertinentiis, Montempessulanum cum toto terminio suo, feudum quod tenet W[illelmus]k de Montepessulano, videlicet Montempessulanum totum, et castrum de Latis, cum toto terminio suo. Libertates preterea et immunitates antiquas et rationabiles consuetudines, a predecessoribus nostris Ecclesie vestre concessas, et hactenus observatas, ratas habemus, easque futuris temporibus illibatas manere censemus.Porro Anianense monasterium Magalonensi Ecclesie obedientiam debitam exhibere sancimusl, sicut in diffinitione bone memorie predecessorum nostrorum Alexandri et Urbani secundi, Romanorum Pontificum, continetur.De parrochianis quoque vestris, qui se alibi sepeliri deliberaverint in testamentis eorum, canonica vobis portio reservetur.Obeunte vero alterutro vestrum, frater episcope, aut te, fili preposite, nullus ibi qualibet subreptionis astutiam seu violentia preponatur, nisi quem fratres communi consensu, vel fratrum pars consilii sanioris, secundum Dei timorem et beati Augustini regulam, providerit eligendum.De Melgoriensi etiam comitatu, quod a bone memorie Petro comite dispositum et predecessorum nostrorum privilegiis confirmatum est, si heredum successio desierit, cum consilio et assensu Sacrosancte Romane Ecclesie teneatur.Decernimus ergo ut nulli omnino hominum liceat prefatam Ecclesiam temere perturbare, vel ejus possessionesn auferre, vel ablatas retinere, minuere, seu quibuslibet vexationibus fatigare, sed omnia integra conserventur, eorum pro quorum gubernatione ac sustentatione concessa sunt usibus omnimodis profutura, salva Sedis Apostolice auctoritate.Ad indicium autem hujus a Sede Apostolica percepte tuitionis, et quod predicta Ecclesia sub patrocinio Ecclesie Romane consistat, unam auri unciam nobis nostrisque successoribus annis singulis persolvetis.Si qua igitur in futurum ecclesiastica secularisve persona, hanc nostre constitutionis paginam sciens, contra eam temere venire temptaverit, secundo tertioveo commonita, nisi reatum suum congrua satisfactione correxerit, potestatis honorisque sui dignitate careat, reamque se divino judicio existere de perpetrata iniquitate cognoscat, et a sacratissimo corpore ac sanguine Dei et Domini Redemptoris nostri Jhesu Cristip aliena fiat, atque in extremo examine districte ultioni subjaceat. Cunctis autem eidem Ecclesie sua jura servantibus sit pax Domini nostri Jhesu Cristiq, quatenus et hic fructum bone actionis percipiant, et apud districtum judicem premia eterne pacis inveniant. Amen. Amen. Amen.Datum Verone, per manum Alberti, Sancte Romane Ecclesie presbiteri cardinalis et cancellarii, iiii nonas martii, indictione v, Incarnationis Dominice anno mclxxxvii r, pontificatus vero domini Urbani pape III anno ii.\n"
        },
        {
            "type": "edition",
            "value": "Julien Rouquette, Augustin Villemagne, <i>Bullaire de l'\u00c9glise de Maguelone<\/i>, Paris, Montpellier : Picard, Valat, 1911-1914, I, n. 110-LXXX, p. 178-182"
        },
        {
            "type": "remarques",
            "value": "Nous jugeons inutile d\u2019identifier les noms de toutes ces \u00e9glises dont la plupart, d\u2019ailleurs, ne pr\u00e9sentent aucune difficult\u00e9, et dont quelques-uns se sont d\u00e9j\u00e0 trouv\u00e9s sous notre plume.\n\n  <i>Ecclesia Sancte Marie de Aquis.<\/i> \u2014 Notre-Dame d\u2019Aix, commune de Balaruc. Cette \u00e9glise d\u00e9pendait de l\u2019infirmier de Maguelone qui y poss\u00e9dait des bains pour les chanoines (Cf. <span class=\"small-caps\">J. Rouquette<\/span>, <i>La D\u00e9cimarie du Vestiaire<\/i>, dans <i>Revue hist. du dioc\u00e8se de Montpellier<\/i>, 1<sup>re<\/sup> ann\u00e9e, p.\u00a0216).\n\n  <i>Ecclesia de Sentrairanicis.<\/i> \u2014 Saint-Hilaire de Centrayrargues, ancien prieur\u00e9 situ\u00e9 sur la rive du Lez.\n\n  <i>Ecclesia de Albalanicis.<\/i> \u2014 Baillarguet, dont l\u2019\u00e9glise avait pour titulaire saint Barth\u00e9lemy\u00a0; aujourd\u2019hui commune de Montferrier. Il faut distinguer Baillarguet de Baillargues que <span class=\"small-caps\">Thomas<\/span> a confondues dans son <i>Dictionnaire topographique de l\u2019H\u00e9rault<\/i>.\n\n  <i>Ecclesia de Egabriaco<\/i> = <i>Gabriaco<\/i>. \u2014 \u00c9glise de Gabriac, aujourd\u2019hui commune du Mas-de-Londres\u00a0; elle avait pour titulaire saint \u00c9tienne.\n\n  <i>Ecclesia Sancti Vincentiani.<\/i> \u2014 Ancien prieur\u00e9 situ\u00e9 sur la rive droite de l\u2019H\u00e9rault, pr\u00e8s Agon\u00e8s\u00a0; c\u2019est le Saint-Messis actuel.\n\n  <i>Ecclesia Sancti Stephani de Novitia<\/i> ou <i>de Novitio.<\/i> \u2014 Cette \u00e9glise devrait \u00eatre identifi\u00e9e, d\u2019apr\u00e8s <span class=\"small-caps\">Thomas<\/span> (<i>Dictionnaire topographique de l\u2019H\u00e9rault<\/i>\u00a0: art. Noals), qui d\u2019ailleurs ne donne pas le titulaire de l\u2019\u00e9glise, avec Noals, commune de Saint-Jean de V\u00e9das. Nous donnons cette identification sous toute r\u00e9serve, n\u2019ayant jamais trouv\u00e9 cette \u00e9glise mentionn\u00e9e dans un document du <span class=\"small-caps\">xiii<\/span>  <sup>e<\/sup> ou <span class=\"small-caps\">xiv<\/span>  <sup>e<\/sup> si\u00e8cle qui nous permette d\u2019\u00e9mettre une opinion. Ne serait-ce pas plut\u00f4t du c\u00f4t\u00e9 de Lunel qu\u2019il faudrait la placer\u00a0? Si elle s\u2019\u00e9tait trouv\u00e9e du c\u00f4t\u00e9 du Terral, le Pape l\u2019aurait mentionn\u00e9e plus haut.\n\n  <i>Ecclesia Sancti Romani de Melgorio.<\/i> \u2014 L\u2019identification n\u2019est pas douteuse. Nous la mentionnons ici parce que c\u2019est un des derniers documents qui vont la d\u00e9signer par ce titulaire\u00a0; encore quelques ann\u00e9es, et le vocable Saint-Romain sera remplac\u00e9 par celui de Sainte-Marie.\n\n    <i>Ecclesia de Onoro<\/i> ou <i>de Ozorio.<\/i> \u2014 Sainte-Marie d\u2019Auroux, dans la commune de Saint-Aun\u00e8s\u00a0; aujourd\u2019hui domaine du Grand-Auroux.\n\n  <i>Ecclesia Sancti Marcelli.<\/i> \u2014 Saint-Marcel des Fraires, \u00e9glise disparue, dans la commune de Mauguio.\n\n  <i>Ecclesia de Frejonicis.<\/i> \u2014 Fr\u00e9jorgues\u00a0: avait comme patron saint Jean\u00a0; elle \u00e9tait situ\u00e9e \u00e0 proximit\u00e9 de Saint-Marcel, et, comme cette derni\u00e8re, dans la commune de Mauguio.\n\n  <i>Ecclesia de Isselsaco.<\/i> \u2014 Saint-\u00c9tienne d\u2019Yssensac, prieur\u00e9 disparu, dans la commune actuelle de Brissac.\n\n[Rouquette-Villemagne]"
        },
        {
            "type": "apparat_critique",
            "value": "Priv.\u00a0: <i>quociens<\/i>\u00a0; Germain\u00a0: <i>quotiens<\/i>.",
            "children": {
                "numero_note": "a"
            }
        },
        {
            "type": "apparat_critique",
            "value": "Priv.\u00a0: <i>Xto<\/i>\u00a0; Germain\u00a0: <i>Christo<\/i>.",
            "children": {
                "numero_note": "b"
            }
        },
        {
            "type": "apparat_critique",
            "value": "Priv.\u00a0: <i>justiciis<\/i>\u00a0; Germain\u00a0: <i>justitiis<\/i>.",
            "children": {
                "numero_note": "c"
            }
        },
        {
            "type": "apparat_critique",
            "value": "Priv.\u00a0: <i>hospiciis<\/i>\u00a0; Germain\u00a0: <i>hospitiis<\/i>.",
            "children": {
                "numero_note": "d"
            }
        },
        {
            "type": "apparat_critique",
            "value": "Priv. et Germain\u00a0: <i>inpresentiarum<\/i>.",
            "children": {
                "numero_note": "e"
            }
        },
        {
            "type": "apparat_critique",
            "value": "Priv. et Germain\u00a0: <i>Salsana<\/i>.",
            "children": {
                "numero_note": "f"
            }
        },
        {
            "type": "apparat_critique",
            "value": "Priv. et Germain\u00a0: <i>Pruneta<\/i>.",
            "children": {
                "numero_note": "g"
            }
        },
        {
            "type": "apparat_critique",
            "value": "Priv.\u00a0: <i>Monteplo<\/i>\u00a0; Germain\u00a0: <i>Montepessulo<\/i>. L\u2019abr\u00e9viation <i>Montispli<\/i> (avec trait sur la derni\u00e8re syllabe), <i>Montiplo, Monteplum<\/i> (avec trait sur les deux derni\u00e8res syllabes), est l\u2019abr\u00e9viation classique de <i>Montispessulani, Montipessulano, Montempessulanum<\/i>. Nous ignorons pour quel motif <span class=\"small-caps\">Germain<\/span> a, dans cette bulle, d\u00e9rog\u00e9 \u00e0 la coutume. Cette abr\u00e9viation se trouve encore cinq fois dans cette bulle\u00a0; toujours <span class=\"small-caps\">Germain<\/span> l\u2019a compl\u00e9t\u00e9e ainsi\u00a0: <i>Montepessulo<\/i> ou <i>Montempessulum<\/i>. Nous jugeons inutile de signaler chaque fois cette diff\u00e9rence de lecture.",
            "children": {
                "numero_note": "h"
            }
        },
        {
            "type": "apparat_critique",
            "value": "Priv.\u00a0: <i>Cassagnato<\/i> (surmont\u00e9 du signe abr\u00e9viatif sur la derni\u00e8re syllabe = <i>Cassagnatio<\/i>)\u00a0; Germain\u00a0: <i>Cassagnaco<\/i>.",
            "children": {
                "numero_note": "i"
            }
        },
        {
            "type": "apparat_critique",
            "value": "Priv.\u00a0: <i>justiciis<\/i>\u00a0; Germain\u00a0: <i>justitiis<\/i>.",
            "children": {
                "numero_note": "j"
            }
        },
        {
            "type": "apparat_critique",
            "value": "Priv.\u00a0: <i>W.<\/i>\u00a0; Germain\u00a0: <i>Willelmus<\/i>.",
            "children": {
                "numero_note": "k"
            }
        },
        {
            "type": "apparat_critique",
            "value": "Priv.\u00a0: <i>sanctimus<\/i>\u00a0; Germain\u00a0: <i>sancimus<\/i>.",
            "children": {
                "numero_note": "l"
            }
        },
        {
            "type": "apparat_critique",
            "value": "Priv.\u00a0: <i>astucia<\/i>\u00a0; Germain\u00a0: <i>astutia<\/i>.",
            "children": {
                "numero_note": "m"
            }
        },
        {
            "type": "apparat_critique",
            "value": "Priv.\u00a0: <i>pocessiones<\/i>\u00a0; Germain\u00a0: <i>possessiones<\/i>.",
            "children": {
                "numero_note": "n"
            }
        },
        {
            "type": "apparat_critique",
            "value": "Priv.\u00a0: <i>terciove<\/i>\u00a0; Germain\u00a0: <i>tertiove<\/i>.",
            "children": {
                "numero_note": "o"
            }
        },
        {
            "type": "apparat_critique",
            "value": "Priv.\u00a0: <i>Xti<\/i>\u00a0; Germain\u00a0: <i>Christi<\/i>.",
            "children": {
                "numero_note": "p"
            }
        },
        {
            "type": "apparat_critique",
            "value": "Priv.\u00a0: <i>Xti<\/i>\u00a0; Germain\u00a0: <i>Christi<\/i>.",
            "children": {
                "numero_note": "q"
            }
        },
        {
            "type": "apparat_critique",
            "value": "Priv.\u00a0: <i>MCLXXXVI<\/i>\u00a0; Germain\u00a0: <i>MCLXXXVI<\/i>[<i>I<\/i>]. Il n\u2019y a pas de doute que cette bulle est de 1187\u00a0; n\u2019\u00e9tait l\u2019ann\u00e9e du pontificat qui est indiqu\u00e9e, l\u2019indiction seule suffirait pour faire corriger le manuscrit.",
            "children": {
                "numero_note": "r"
            }
        },
        {
            "type": "bibliographie_generale",
            "value": "<i>Priv. de Maguelone<\/i>, fol.\u00a023\u00a0v\u00b0",
            "children": {
                "numero_note": "0"
            }
        },
        {
            "type": "bibliographie_generale",
            "value": "<span class=\"small-caps\">Germain<\/span>, <i>Maguelone sous ses \u00e9v\u00eaques<\/i>, p.\u00a0191",
            "children": {
                "numero_note": "1"
            }
        },
        {
            "type": "bibliographie_generale",
            "value": "<span class=\"small-caps\">F. Fabr\u00e8ge<\/span>, <i>Hist. de Maguelone<\/i>, t.\u00a0I, p.\u00a0290",
            "children": {
                "numero_note": "2"
            }
        },
        {
            "type": "bibliographie_generale",
            "value": "<span class=\"small-caps\">Jaff\u00e9<\/span> et <span class=\"small-caps\">Wattenbach<\/span>, n\u00b0\u00a015947.",
            "children": {
                "numero_note": "3"
            }
        },
        {
            "type": "genre",
            "value": "Bulle"
        }
    ]
}