{
    "id": 148264,
    "name": "aposcripta-7880",
    "type": "acte",
    "url": "http:\/\/telma-chartes.irht.cnrs.fr\/aposcripta\/notice\/148264",
    "project_slug": "aposcripta",
    "project_label": "APOSCRIPTA \u2013 Lettres des papes",
    "user": "j_theryastruc",
    "last_update": "2020-10-19 16:39:43",
    "licence": "Attribution - Pas d\u2019Utilisation Commerciale - Partage dans les M\u00eames Conditions 3.0 France (CC BY-NC-SA 3.0 FR) ",
    "licence_url": "https:\/\/creativecommons.org\/licenses\/by-nc-sa\/3.0\/fr\/",
    "elements": [
        {
            "type": "pape",
            "value": "Cl\u00e9ment VIII (1592-1605)"
        },
        {
            "type": "destinataire",
            "value": "L'archiduchesse d'Autriche Maria, veuve"
        },
        {
            "type": "date_libre",
            "value": "XX octobris MDCI, anno X"
        },
        {
            "type": "date",
            "value": "1601\/11\/18",
            "children": {
                "date_deb_jour": "18",
                "date_deb_mois": "11",
                "date_deb_annee": "1601"
            },
            "range": {
                "date_apres": 16011118,
                "date_avant": 16011118
            }
        },
        {
            "type": "date_lieu",
            "value": "Rome, Saints-Ap\u00f4tres"
        },
        {
            "type": "analyse",
            "value": "Certiorem eam reddit de receptis literis in quibus ad voluntatem filii sui Ferdinandi de controversia de divinae gratiae auxilio atque efficacia et humani arbitrii libertate scripserat, eamque ut ejusmodi decissiones Ecclesiae judicio subjiciat admonet."
        },
        {
            "type": "transcription",
            "value": "<?xml version=\"1.0\" encoding=\"UTF-8\"?>\nDilectae in Christo filiae nobili muliaria Mariae Austriae Archiducissae viduae. Dilecta in Christo filia etc. Vidimus literas nobilitatis tuae ad nos copiose scriptas, de ea controversia, quae est de divinae gratiae auxilio atque efficacia et humani arbitrii libertate. At licet eo de genere nihil necesse erat scribere, facile tamen nobis persuademus, et te et nobilem virum Ferdinandum Archiducem filium tuum, a quo ad hoc ad nos scribendi onus tibi impositum narras, cum is ad expeditionem proficisceretur, pio zelo permotos fuisse, omniaque bonam in partem accipimus. Sed ut ingenue et libere tecum agamus, filia, valde veremur, haec quorundam hominum impulsu commoneri, quos magis deceret quiescere et hujus sanctae Apostolicae sedis, in qua nostram humilitatem divina clementia praesidere voluit, judiciose humiliter subjicere. Fidei haec quaestio est, velle autem eos, ad quos id minime pertinet, apostolicam difinitionem quovis modo praevenire, et valde absurdum est, et plane supervacaneum. Nos autem quam nostri pastoralis officii ratio postulat sollicitudinem et diligentiam adhibere non cessamus, et quemadmodum supra firmam petram innixi solam Dei gloriam quaerimus et solam veritatem spectamus, ita etiam certo confidimus, quod ipse nunquam nos deseret, cui servimus in spiritu humilitatis et corde syncero. Tu vero filia ora pro nobis, ut coelesti ejus gratia perpetuo adjuvemur, et nos quam petis apostolicam benedictionem nostram paterno affectu nobilitati tuae impartimur. Datum Romae, apud Sanctos Apostolos, sub anulo Piscatoris, die XX octobris MDCI, pontificatus nostri anno X.\n"
        },
        {
            "type": "edition",
            "value": "Ici reprise de Beda Dud\u00edk, \u00ab Ausz\u00fcge aus p\u00e4pstlichen Regesten f\u00fcr \u00d6sterreichs Geschichte Gesammelt. Gesammelt in Rom im Jahre 1853 \u00bb, <i>Archiv f\u00fcr Kunde \u00f6sterreichischer Geschichts-Quellen<\/i>, 5, 1856, p. 185-238, n. 36, aux p. 233-234 <a target=\"_blank\" href=\"https:\/\/archive.org\/stream\/bub_gb_f9EBAAAAYAAJ#page\/n235\/mode\/2up\"> [en ligne]<\/a>, d'apr\u00e8s R."
        },
        {
            "type": "sources_manuscrites",
            "value": "R. CIT\u00c9 DU VATICAN, Archivio segreto Vaticano, <i>Liber Brev. Sig.<\/i> 2934, ep. 390.",
            "children": {
                "type_source": "Registre de la chancellerie apostolique"
            }
        },
        {
            "type": "genre",
            "value": "Bref secret ou de Curie"
        },
        {
            "type": "apparat_critique",
            "value": "<i>Sic Dudik<\/i>.",
            "children": {
                "numero_note": "a"
            }
        }
    ]
}