{
    "id": 20645,
    "name": "aposcripta-632",
    "type": "acte",
    "url": "http:\/\/telma-chartes.irht.cnrs.fr\/aposcripta\/notice\/20645",
    "project_slug": "aposcripta",
    "project_label": "APOSCRIPTA \u2013 Lettres des papes",
    "user": "lettrespontificalesadmin",
    "last_update": "2020-10-19 16:26:51",
    "licence": "Attribution - Pas d\u2019Utilisation Commerciale - Partage dans les M\u00eames Conditions 3.0 France (CC BY-NC-SA 3.0 FR) ",
    "licence_url": "https:\/\/creativecommons.org\/licenses\/by-nc-sa\/3.0\/fr\/",
    "elements": [
        {
            "type": "pape",
            "value": "Urbain II (1088-1099)"
        },
        {
            "type": "date_lieu",
            "value": "n.c."
        },
        {
            "type": "date_libre",
            "value": "1089 Iul-Sept"
        },
        {
            "type": "analyse",
            "value": "Urbanus\u00a0II clerum Elenensem armis militaribus uti et beneficia ecclesiastica sine episcopi concessione retinere vetat."
        },
        {
            "type": "transcription",
            "value": "<?xml version=\"1.0\" encoding=\"UTF-8\"?>\nClero Alano. Clericis igitur, qui in vobis sunt contra canonicam disciplinam arma militaria baiulantes et possessiones aut honores ecclesiasticos sine concessione antistitis1 retinentes, denunciamus in nomine Domini Iesu, quatinus ab huiusmodi flagiciis desinant et sui antistitis precepta custodiant.\n"
        },
        {
            "type": "edition",
            "value": "Samuel Loewenfeld, <i>Epistolae pontificum romanorum ineditae<\/i>, Leipzig : Veit et Comp., 1885, n. 133, p. -65"
        },
        {
            "type": "sources_manuscrites",
            "value": "Coll. Brit. Urb. ep.\u00a046, l.\u00a0l. fol.\u00a0151."
        },
        {
            "type": "notes_historiques",
            "value": "Artaldi.",
            "children": {
                "numero_note": "1"
            }
        },
        {
            "type": "date",
            "value": "apr\u00e8s 1089\/07 - avant 1089\/07",
            "children": {
                "date_deb_annee": "1089",
                "date_deb_mois": "07",
                "date_deb_type": "apres",
                "date_fin_annee": "1089",
                "date_fin_mois": "07",
                "date_fin_type": "avant"
            },
            "range": {
                "date_apres": 10890700,
                "date_avant": 10890799
            }
        },
        {
            "type": "genre",
            "value": "Bulle"
        }
    ]
}