{
    "id": 26281,
    "name": "aposcripta-3360",
    "type": "acte",
    "url": "http:\/\/telma-chartes.irht.cnrs.fr\/aposcripta\/notice\/26281",
    "project_slug": "aposcripta",
    "project_label": "APOSCRIPTA \u2013 Lettres des papes",
    "user": "lettrespontificalesadmin",
    "last_update": "2020-10-19 16:27:57",
    "licence": "Attribution - Pas d\u2019Utilisation Commerciale - Partage dans les M\u00eames Conditions 3.0 France (CC BY-NC-SA 3.0 FR) ",
    "licence_url": "https:\/\/creativecommons.org\/licenses\/by-nc-sa\/3.0\/fr\/",
    "elements": [
        {
            "type": "pape",
            "value": "Innocent II (1130-1143)"
        },
        {
            "type": "date_lieu",
            "value": "Pisa"
        },
        {
            "type": "date_libre",
            "value": "1135 November 3"
        },
        {
            "type": "date",
            "value": " 1135\/11\/03",
            "children": {
                "date_deb_annee": "1135",
                "date_deb_mois": "11",
                "date_deb_jour": "03"
            },
            "range": {
                "date_apres": 11351103,
                "date_avant": 11351103
            }
        },
        {
            "type": "analyse",
            "value": "Innocenz II best\u00e4tigt der Kollegiatkirche St.-Jumeaux (D. Langres) die Augustiner Regel, freie Wahl eines Propstes und richtige Nachfolge der Regul\u00e4rkanoniker."
        },
        {
            "type": "transcription",
            "value": "<?xml version=\"1.0\" encoding=\"UTF-8\"?>\nInnocentius episcopus servus servorum dei dilectis filiis canonicis ecclesie sanctorum Geminorum tam presentibus quam | futuris in ppm. \u2014 Desiderium, quod ad religionis propositum et animarum salutem pertinere monstratur, | auctore deo sine aliqua est dilatione complendum. Eapropter, dilectia in domino filii, postulationes vestras clementer admittimus et \u0229cclesiam sanctorum Geminorum, in qua divino vacatis officio, apostolice sedis privilegio communivimus, statuentes, ut ordo canonicus secundum beati Augustini regulam in eodem loco futuris temporibus inviolabiliter conservetur. Decedente preposito, qui in presentiarum est in eadem \u0229cclesia constitutus, nullus ei nisi regularem vitam professus alius subrogetur, ita tamen, ut obeunte eo nullus vobis aliqua violentia seu surreptionis astutia preponatur, nisi quem communi assensu fratres eiusdem \u0229cclesi\u0229 aut fratrum pars sanioris consilii secundum dei timorem et regularem ordinem previderint eligendum. Decedentibus quoque clericisa sive canonicis regularibus eiusdem loci, nemo substituatur, nisi canonicus regularis. Nulli ergo hominum fas sit, vestram \u0229cclesiam temere perturbare, aut super his aliquam vobis molestiam vel contradictionem inferre, sed potius huiusmodi vexationibus expediti in sanct\u0229 conversationis proposito libere permanere atque divinis vacare obsequiis valeatis. Si quis contra hanc nostram constitutionem temerario ausu venire temptaverit, secundo tertiove commonitus, si non reatum suum satisfactione congrua emendaverit, potestatis et honoris sui periculum patiatur, et a sacratissimo corpore et sanguine domini nostri Jesu Christi alienus fiat. Conservantes autem omnipotentis dei | et beatorum Petri et Pauli apostolorum eius gratiam consequantur. Am. Am. Am.(R) Ego Innocentius catholic\u0229 ecclesi\u0229 episcopus ss. (M)\u2020 Ego Guilielmus Prenestinus episcopus ss. (3)\u2014 \u2020 Ego Gerardus presbiter cardinalis tit. sanct\u0229 Crucis in Jerusalem ss.\u2020 Ego Manfredusb presbiter cardinalis tit. Vestin\u0229 ss.\u2020 Ego Lucas presbiter cardinalis tit. sanctorum Johannis et Pauli ss.\u2014 \u2020 Ego Guido cardinalis diaconus sancti Adriani ss.\u2020 Ego Grisogonus diaconus cardinalis sanct\u0229 Marie in porticu ss. Dat. Pisis, per manum Aimerici, sanct\u0229 Roman\u0229 ecclesi\u0229 diaconi cardinalis et cancellarii. iii Nonas Novemb. Indictione xiii. Incarnationis dominic\u0229 anno mcxxxvi. Pontificatus domni Innocentii pp | ii anno vi.\n"
        },
        {
            "type": "edition",
            "value": "Julius von Pflugk-Harttung, <i>Acta pontificum Romanorum inedita<\/i>, T\u00fcbingen, 1880, I, n. 172, p. 151"
        },
        {
            "type": "sources_manuscrites",
            "value": "Or. im Archive des D\u00e9p. Haute-Marne zu Chaumont."
        },
        {
            "type": "remarques",
            "value": "Perg. ital., br. 0,325, lang 0,42, unten umgeschlagen, jetzt theilweise abgeschnitten, durch 3 L\u00f6cher ging die Schnur, welche mit der Bulle verloren, Faltung der Privilegien. Verewigungszeichen Nr. 3. Ringkreuz, Umschrift und p\u00e4pstl. Unterschrift scheinen von gleicher Dinte und Hand herzur\u00fchren, ebenso k\u00f6nnten die Zeugen unter sich von ein und derselben Person ausgef\u00fchrt sein. <span class=\"small-caps\">ii<\/span> anno <span class=\"small-caps\">vi<\/span> der Datirung sind rechts untergeschrieben."
        },
        {
            "type": "apparat_critique",
            "value": "a.\u2002<i>Auf Rasur.<\/i>",
            "children": {
                "numero_note": "a"
            }
        },
        {
            "type": "apparat_critique",
            "value": "b.\u2002<i>Anfangs verschrieben.<\/i>",
            "children": {
                "numero_note": "b"
            }
        },
        {
            "type": "genre",
            "value": "Bulle"
        }
    ]
}