{
    "id": 149773,
    "name": "aposcripta-9336",
    "type": "acte",
    "url": "http:\/\/telma-chartes.irht.cnrs.fr\/aposcripta\/notice\/149773",
    "project_slug": "aposcripta",
    "project_label": "APOSCRIPTA \u2013 Lettres des papes",
    "user": "lettrespontificalesadmin",
    "last_update": "2020-10-19 16:40:04",
    "licence": "Attribution - Pas d\u2019Utilisation Commerciale - Partage dans les M\u00eames Conditions 3.0 France (CC BY-NC-SA 3.0 FR) ",
    "licence_url": "https:\/\/creativecommons.org\/licenses\/by-nc-sa\/3.0\/fr\/",
    "elements": [
        {
            "type": "pape",
            "value": "Urbain IV (1261-1264)"
        },
        {
            "type": "destinataire",
            "value": "Populo Guarcinati Alatrine diocesis"
        },
        {
            "type": "date_libre",
            "value": "III kalendas iulii, anno I"
        },
        {
            "type": "date",
            "value": " 1262\/06\/29",
            "children": {
                "date_deb_annee": "1262",
                "date_deb_mois": "06",
                "date_deb_jour": "29"
            },
            "range": {
                "date_apres": 12620629,
                "date_avant": 12620629
            }
        },
        {
            "type": "date_lieu",
            "value": "Viterbii"
        },
        {
            "type": "sources_manuscrites",
            "value": "R. CIT\u00c9 DU VATICAN, Archivio Segreto Vaticano, <hi rend=\"italic\">Registra Vaticana<\/hi> ... Urb.\u00a0IV Reg. Vol.\u00a0I, 26; Lib.\u00a0I, 109. Epistolam ex Regestis descripsit V. Cl. Meynke.",
            "children": {
                "type_source": "Registre de la chancellerie apostolique"
            }
        },
        {
            "type": "genre",
            "value": "Mandement (littere cum filo canapis)"
        },
        {
            "type": "analyse",
            "value": "Urbanus IV papa populo Guarcinati Alatrinae dioecesis nuntiat se duas partes castri eorum ab Alexandro IV Gratiano Belmontis civi Romano concessas revocare, cum idem nobilis totum castrum usurpaverit et eos, qui sibi non obedirent, coram senatoribus Urbis citari fecerit [Rodenberg]."
        },
        {
            "type": "transcription",
            "value": "<?xml version=\"1.0\" encoding=\"UTF-8\"?>\nPopulo Guarcinati Alatrine diocesisIn nostris semper haberi decet affectibus, ut iura Romane ecclesie illibata penitus conservemus, et si de ipsis quicquam aliquando contingat adimi, virtute promptissima procuremus illud in statum pristinum revocari, maxime cum simus absque intermissione vigiles, ut ecclesiis universis et singulis assistamus efficaciter in suis iuribus conservandis. Sane mirantes audivimus, sed non utique acceptamus, quod cum felicis recordationis Alexander papa predecessor noster vobis dederit sub certa forma per litteras apostolicas in mandatis, ut duas partes omnium proventuum et reddituum, quos ecclesia Romana in castro vestro dinoscitur obtinere, nobili viro Gratiano Belmontis civi Romano assignaretis, certo super hoc per alias suas litteras ut dicitur executore concesso, idem nobilis huiusmodi gratia ipsius predecessoris abutens, eius pretextu omnimodam iurisdictionem in castro ipso nititur exercere. Laicos quoque et, quod est gravius, clericos eiusdem castri multipliciter propter hoc aggravans et molestans, domos eorum frangere et quandoque bona ibidem inventa temere asportare presumit, illos eorum, qui sibi super iurisdictione ipsa, que ad eum non pertinet, obedire denegant, faciendo coram senatoribus Urbis malitiose citari. Quendam autem Iudeum sortilegum illuc ducere non est veritus in nostri contumelia redemptoris, qui se nequiter iactando cognoscere asserit universa occulta, que ab hominibus et mulieribus committuntur ibidem, in nostrum et apostolice sedis contemptum ac iniuriam et ipsius ecclesie Romane preiudicium et vestrum non modicum detrimentum. Quia vero sepedictum castrum ad nos et eandem ecclesiam pertinet pleno iure, nos, pati nolentes ut ipsi ecclesie huiusmodi seu quecumque iura vel redditus aliquatenus subtrahantur, cum omnia bona ipsius quoquomodo distracta intendamus ad ius et proprietatem eiusdem ecclesie revocare, universitati vestre sub pena centum marcarum argenti solvendarum nostre camere, si quod iniungimus non feceritis, per apostolica scripta districte precipiendo mandamus, quatinus eidem nobili nec supradictas duas partes premissorum proventuum et reddituum solvere nec ei super hiis et aliis intendere de cetero presumatis. Nos enim nichilominus prefatas ipsius predecessoris nostri litteras pro eodem nobili vobis aut cuicumque executori directas et quamlibet concessionem, per ipsas aut quascumque litteras alias de premissis et quibuscumque aliis iuribus in predicto castro ad nos et supradictam ecclesiam pertinentibus nobili factam eidem, auctoritate presentium revocamus et volumus vires aliquas non habere.Dat. Viterbii, III Kalendas Iulii, anno I\u00b0.\n"
        },
        {
            "type": "edition",
            "value": "Ici reprise de Karl Rodenberg, Epistolae s. XIII e regestis pontificum romanorum selectae, III, Berlin : Weidmann (MGH), 1894, n.\u00a0522, p.\u00a0490."
        },
        {
            "type": "edition_autre",
            "value": "?"
        },
        {
            "type": "regeste",
            "value": "?"
        },
        {
            "type": "bibliographie_generale",
            "value": "?"
        },
        {
            "type": "apparat_critique",
            "value": "?",
            "children": {
                "numero_note": "a"
            }
        },
        {
            "type": "apparat_critique",
            "value": "?",
            "children": {
                "numero_note": "b"
            }
        },
        {
            "type": "apparat_critique",
            "value": "?",
            "children": {
                "numero_note": "c"
            }
        },
        {
            "type": "apparat_critique",
            "value": "?",
            "children": {
                "numero_note": "d"
            }
        },
        {
            "type": "apparat_critique",
            "value": "?",
            "children": {
                "numero_note": "e"
            }
        },
        {
            "type": "apparat_critique",
            "value": "?",
            "children": {
                "numero_note": "f"
            }
        },
        {
            "type": "notes_historiques",
            "value": "?",
            "children": {
                "numero_note": "1"
            }
        },
        {
            "type": "notes_historiques",
            "value": "?",
            "children": {
                "numero_note": "2"
            }
        },
        {
            "type": "notes_historiques",
            "value": "?",
            "children": {
                "numero_note": "3"
            }
        }
    ]
}