{
    "id": 147736,
    "name": "aposcripta-7358",
    "type": "acte",
    "url": "http:\/\/telma-chartes.irht.cnrs.fr\/aposcripta\/notice\/147736",
    "project_slug": "aposcripta",
    "project_label": "APOSCRIPTA \u2013 Lettres des papes",
    "user": "j_theryastruc",
    "last_update": "2020-10-19 16:39:36",
    "licence": "Attribution - Pas d\u2019Utilisation Commerciale - Partage dans les M\u00eames Conditions 3.0 France (CC BY-NC-SA 3.0 FR) ",
    "licence_url": "https:\/\/creativecommons.org\/licenses\/by-nc-sa\/3.0\/fr\/",
    "elements": [
        {
            "type": "pape",
            "value": "Gr\u00e9goire IX (1227-1241)"
        },
        {
            "type": "destinataire",
            "value": "Le prieur des Pr\u00eacheurs de Strasbourg"
        },
        {
            "type": "date",
            "value": "1232\/12\/02",
            "children": {
                "date_deb_jour": "02",
                "date_deb_mois": "12",
                "date_deb_annee": "1232"
            },
            "range": {
                "date_apres": 12321202,
                "date_avant": 12321202
            }
        },
        {
            "type": "date_lieu",
            "value": "Latran"
        },
        {
            "type": "genre",
            "value": "Mandement (littere cum filo canapis)"
        },
        {
            "type": "sources_manuscrites",
            "value": "E. FRANCE, Strasbourg, Archives d\u00e9partementales, fonds Saint-Thomas, Dominicains, lad. 1 (original).",
            "children": {
                "type_source": "Exp\u00e9dition"
            }
        },
        {
            "type": "edition",
            "value": "Ici reprise de Wilhelm Wiegand, <i>Urkundenbuch der Stadt Strassburg<\/i>. I. <i>Urkunden und Stadtrechte bis zum Jahr 1266<\/i>, Strasbourg, 1879, n. 230, p. 179-181."
        },
        {
            "type": "transcription",
            "value": "<?xml version=\"1.0\" encoding=\"UTF-8\"?>\nGregorius episcopus, servus servorum Dei, dilectis filiis .. priori et conventui fratrum ordinis predicatorum Argentinensium, salutem et apostolicam benedictionem.Ille humani generis pervicax inimicus omnium malorum incentor, quem de suppremis ad ima superbia sua prostravit, non contentus, quod sue fraudis nequitia hominem produxit ad casum erumpnis et miseriis applicandum, callide eum nititur pestiferis retibus irretire, astute sibi parans insidias, ne resurgat locum, a quo ceciderat, obtenturus. novissime autem diebus istis fidem nisus perfidia depravare per ministros suos iniquitatis operarios venena sparsit mortifera seditiose considerans, quod familiaris hostis sit efficax ad nocendum, qui quasi dulcia premittentes cauda pungunt ut scorpio, in aureo tandem calice Babilonis virus pestilentie infusuri. licet enim heretici hactenus diutius latitantes sicut cancer serperent in oculto et velut vulpes latenter niterentur vineam domini Sabaoth demoliri, jam tamen peccatis exigentibus in aperto quasi equi parati ad prelium presumunt manifeste insurgere contra eam in quibusdam locis publice predicando, querentes in cibum simplices et in predam edoctos ac illaqueare nichilominus fideles quoslibet suis circumventionibus cupientes, facti magistri erroris, qui nunquam fuerunt discipuli veritatis. unde expedit, ut insurgatur viriliter contra eos, ut eorum omnino heresi confutata per totum vigeat fides Christi, nam corona sequetur premii temptationibus resistentes. cum igitur dudum resplenduerit in Alemannia fida fides ac per hoc formidemus ibi potius animalia venenosa, ne forte simplices ipsorum callidis seductionibus circumventi et astuti pravis circumventionibus periculose decepti in profundum deveniant peccatorum sicque violetur ibidem fidei firmamentum, nos, qui circa horam undecimam inter operarios immo verius supra operarios vinee domini sumus a patrefamilias evangelico deputati, moniti voce sponsi capere vulpes parvulas, que demoliri vineam domini moliuntur, et tacti dolore cordis intrinsecus, non valentes sustinere tantam contumeliam creatoris ac volentes tot animarum periculis obviare, universitatem vestram rogamus, monemus et hortamur attente per apostolica vobis scripta sub divini obtestatione judicii districte precipiendo mandantes, quatinus aliquos de fratribus vestris in lege domini eruditos, quos ad hoc idoneos esse noveritis, ad partes Alemannie transmittatis, qui clero et populo convocatis generalem predicationem faciant, ubi commodius viderint expedire, et adjunctis sibi discretis aliquibus ad hoc sollicitius exequendum diligenti perquirant sollicitudine de hereticis et etiam infamatis et, si quos culpabiles vel infamatos invenerint, nisi examinati velint absolute mandatis ecclesie obedire, procedant contra eos juxta statuta nostra contra hereticos noviter promulgata, in receptatores, defensores et fautores hereticorum secundum eadem statuta nichilominus processuri. Si vero aliqui, heretica labe penitus abjurata, ad ecclesiasticam redire voluerint unitatem, ipsis juxta formam ecclesie beneficium absolutionis impendant et injungant eis, quod talibus consuevit injungi, attentius provisuri, ne, qui videntur reverti sub palliata specie pietatis, impietatem committant et angulus sathane in lucis angelum se transformet. propter quod statuta, que super hoc duximus promulganda, inspicere poterunt et ab eorum insidiis secundum discretionem eis traditam a Domino precavere. Ad hec, ut super premissis omnibus officium sibi commissum liberius possint et efficacius exercere, omnibus, qui ad eorum predicationem accesserint in singulis stationibus, viginti dies, illis vero, qui ad impugnandum hereticos, fautores, receptatores et defensores eorum in munitionibus et castellis vel alias contra ecclesiam rebellantes ipsis ex animo auxilium, consilium prestiterint vel favorem, de omnipotentis dei misericordia et beatorum Petri et Pauli apostolorum ejus auctoritate confisi tres annos de injuncta sibi penitentia relaxamus. et si qui ex hiis in prosecutione hujus negotii forte decesserint, eis omnium peccatorum, de quibus corde contriti ac ore confessi sunt, plenam veniam indulgemus. ne vero aliquid fratribus ipsis desit ad predictum negotium prosequendum, in contradictores et rebelles ecclesiasticam proferendi censuram tenore presentium liberam eis concedimus facultatem. predicatores quoque questuarios, quorum interest caritativa tantum subsidia simpliciter petere ac indulgentiam si quam habent exponere, a predicationis officio, quod ad ipsos nullatenus pertinet, compescendi censura simili eisdem nichilominus licentiam indulgemus. Datum Anagnie, IIII nonas decembris, pontificatus nostri anno sexto.\n"
        },
        {
            "type": "remarques",
            "value": "Avec quelques variantes, la bulle <i>Ille humani generis<\/i> a aussi \u00e9t\u00e9 adress\u00e9e par le pape Gr\u00e9goire IX le 22 novembre 1231 au prieur Burkard et au fr\u00e8re Th\u00e9odore du couvent des Pr\u00eacheurs de Ratisbonne (\u00e9dit\u00e9e d'apr\u00e8s l'original par Ludwig F\u00f6rg, <i>Die Ketzerverfolgung in Deutschland unter Gregor IX. Ihre Herkunft, ihre Bedeutung und ihre rechtlichen Grundlagen<\/i>, Berlin, 1932, p. 94-96, pi\u00e8ce just. 2 =  <a target=\"_blank\" href=\"http:\/\/telma-chartes.irht.cnrs.fr\/aposcripta\/notice\/24001\">APOSCRIPTA n. 1163<\/a>), le 27 novembre 1231 au prieur et au sous-prieur de celui de Friesbach (\u00e9dit\u00e9e par Winkelmann, <i>Acta Imperii inedita<\/i>, n. 624 = <a target=\"_blank\" href=\"http:\/\/telma-chartes.irht.cnrs.fr\/aposcripta\/notice\/23901\">APOSCRIPTA n. 1084<\/a>), le 29 octobre 1232 \u00e0 l'archev\u00eaque de Mayence (\u00e9dit\u00e9e par Rodenberg, <i>Epistolae saeculi XIII<\/i>, I, n. 490), le 22 avril 1233 au prieur des Pr\u00eacheurs de la province de Provence (<a target=\"_blank\" href=\"http:\/\/telma-chartes.irht.cnrs.fr\/aposcripta\/notice-acte\/23926\">APOSCRIPTA n. 1106<\/a>). De plus, Innocent IV a renouvel\u00e9 les pouvoirs du provincial de Provence par une nouvelle bulle <i>Ille humani generis<\/i> du 20 juillet 1243 [variantes \u00e9dit\u00e9es par Dossat, <i>Les crises de l'Inquisition<\/i>, n. 3]."
        },
        {
            "type": "analyse",
            "value": "Gr\u00e9goire [IX], d\u00e9sirant combattre l'h\u00e9r\u00e9sie qui a fait des progr\u00e8s inqui\u00e9tants, donne mission au prieur des fr\u00e8res Pr\u00eacheurs de Strasbourg de d\u00e9signer des religieux comp\u00e9tents de son ordre pour r\u00e9aliser la pr\u00e9dication g\u00e9n\u00e9rale, rechercher les h\u00e9r\u00e9tiques et leurs partisans, organiser les poursuites, r\u00e9concilier avec prudence ceux qui veulent retourner \u00e0 l'Eglise, en appliquant les statuts par lui publi\u00e9s ; pour favoriser cette action, il conc\u00e8de des indulgences \u00e0 ceux qui assisteront \u00e0 la pr\u00e9dication ou qui apporteront leur appui \u00e0 la lutte contre l'h\u00e9r\u00e9sie."
        },
        {
            "type": "date_libre",
            "value": "IV nonas decembris, anno sexto"
        }
    ]
}