{
    "id": 150008,
    "name": "aposcripta-9571",
    "type": "acte",
    "url": "http:\/\/telma-chartes.irht.cnrs.fr\/aposcripta\/notice\/150008",
    "project_slug": "aposcripta",
    "project_label": "APOSCRIPTA \u2013 Lettres des papes",
    "user": "lettrespontificalesadmin",
    "last_update": "2020-10-19 16:40:07",
    "licence": "Attribution - Pas d\u2019Utilisation Commerciale - Partage dans les M\u00eames Conditions 3.0 France (CC BY-NC-SA 3.0 FR) ",
    "licence_url": "https:\/\/creativecommons.org\/licenses\/by-nc-sa\/3.0\/fr\/",
    "elements": [
        {
            "type": "pape",
            "value": "Cl\u00e9ment VII (1523-1534)"
        },
        {
            "type": "destinataire",
            "value": "Aux inquisiteurs"
        },
        {
            "type": "date_libre",
            "value": "23 junij 1534 anno .XJ."
        },
        {
            "type": "date",
            "value": " 1534\/06\/23",
            "children": {
                "date_deb_annee": "1534",
                "date_deb_mois": "06",
                "date_deb_jour": "23"
            },
            "range": {
                "date_apres": 15340623,
                "date_avant": 15340623
            }
        },
        {
            "type": "date_lieu",
            "value": "Rome"
        },
        {
            "type": "genre",
            "value": "Bref commun"
        },
        {
            "type": "analyse",
            "value": "Che gli inquisitori non giudichino dei frati minori in causa di eresia, ma li rimettano ai loro superiori"
        },
        {
            "type": "sources_manuscrites",
            "value": "Arch. secr. Vatic. Clem. VII brev. min. a. MDXXXIV, I, 47, breve 248.",
            "children": {
                "type_source": "Original"
            }
        },
        {
            "type": "edition",
            "value": "Ici reprise de B. Fontana, \u00ab Documenti vaticani contro l'eresia luterana in Italia \u00bb <hi rend=\"italic\">Archivio della Reale Societ\u00e0 Romana di Storia Patria<\/hi>, 15, 1892, 15, n. 1, p. 76."
        },
        {
            "type": "transcription",
            "value": "<?xml version=\"1.0\" encoding=\"UTF-8\"?>\nClemens pp. VIJ.Ad futuram rei memoriam. Accepimus quod alias felicis recordationis Leoni pape decimo predecessori nostro pro parte tunc existentis ministri et vicarij generalium ordinis fratrum minorum exposito, quod licet, juxta se memorie Clementis IIIJ et Sixti etiam IIIJ ac Innocentij VIIJ Romanorum pontificum predecessorum nostrorum ordinationes et decreta, inquisitores heretice pravitatis, quacunque etiam apostolica auctoritate et ubilibet deputati, contra fratres dicti ordinis super heresis et apostasie criminibus inquirere cognoscere seu quomodolibet procedere non possent, nihilominus nonnulli ex inquisitoribus predictis contra dictos fratres super dictis criminibus inquirere, testesque desuper recipere et processus formare, nitebantur, idem Leo predecessor ad supplicationem ministri et vicarij predictorum inquisitoribus predictis sub certis tunc expressis penis per suas litteras precepit et mandavit, ne de cetero contra dictos fratres super premissis inquirere vel procedere, seu desuper quomodolibet se intromittere auderent, prout in litteris predictis plenius dicitur continerj. Cum autem, sicut nuper ex multorum querelis accepimus, adhuc aliqui ex dictis inquisitoribus contra ordines decreta et litteras predictas adversus eosdem fratres super dictis criminibus inquirere in maximam ipsorum fratrum perturbationem et scandalum nitantur, nos quieti eorundem fratrum ac alias in premissis oportune providere volentes, universis et singulis inquisitoribus predictis, ubilibet constitutis et deputatis et quacunque auctoritate vel facultate fungentibus, auctoritate apostolica tenore presentium precipimus et mandamus, quatenus quotiescunque aliquis ex dictis fratribus de huiusmodi criminibus suspectis ipsis inquisitoribus nunciari contingerit vel deferrj, eos ad dicti ordinis superiores, ut per eos puniantur et castigentur, remittant ; non obstantibus apostolicis ac in provincialibus et sinodalibus concilijs editis generalibus vel specialibus constitutionibus et ordinationibus, privilegijs quoque indultis et litteris apostolicis dictis inquisitoribus tam per nos quam Romanos pontifices predecessores nostros cum quibuscunque clausulis et decretis etiam motu proprio et ex certa scientia quomodolibet concessis confirmatis et iteratis vicibus innovatis, quibus omnibus etiam si pro illorum sufficienti derogatione de illis eorumque totis tenoribus specialis specifica et expressa ac de verbo ad verbum, non autem per clausulas generales idem importantes mentio seu quevis alia expressio habenda aut exquisita forma servanda foret, tenores huiusmodi pro sufficienter expressis ac modos et formas ad id servandas pro individuo servatis habentes, illis alias in suo robore permansuris, hac vice duntaxat specialiter ac expresse derogamus, ceterisque contrarijs quibuscunque. Volumus etiam quod presentium transumptis manu notarij publici subscripti et sigillo personae in dignitate ecclesiastica constitutae munitis ea prorsus fides in judicio et extra adhibeatur, sicut originalibus adhiberetur, si exhiberentur vel ostenderentur.Datum et c. Romae 23 junij 1534 anno .XJ. Videtur posse concedi, ne scandalizetur religio.Hie. auditor.Blos.\n"
        }
    ]
}