{
    "id": 20833,
    "name": "aposcripta-820",
    "type": "acte",
    "url": "http:\/\/telma-chartes.irht.cnrs.fr\/aposcripta\/notice\/20833",
    "project_slug": "aposcripta",
    "project_label": "APOSCRIPTA \u2013 Lettres des papes",
    "user": "lettrespontificalesadmin",
    "last_update": "2020-10-19 16:26:53",
    "licence": "Attribution - Pas d\u2019Utilisation Commerciale - Partage dans les M\u00eames Conditions 3.0 France (CC BY-NC-SA 3.0 FR) ",
    "licence_url": "https:\/\/creativecommons.org\/licenses\/by-nc-sa\/3.0\/fr\/",
    "elements": [
        {
            "type": "pape",
            "value": "Alexandre III (1159-1181)"
        },
        {
            "type": "date_lieu",
            "value": "n.c."
        },
        {
            "type": "date_libre",
            "value": "1180 in"
        },
        {
            "type": "analyse",
            "value": "Alexander\u00a0III capitulum Meldense de superioribus ad Trecensem et Meldensem epistolis certius reddit. Prohibet, ne quem ante praebendam Hervei integratam in fratrum numerum recipiant."
        },
        {
            "type": "transcription",
            "value": "<?xml version=\"1.0\" encoding=\"UTF-8\"?>\nM(ichaeli) decano et capitulo Meldensi. Pro integratione prebende dilecti filii nostri Her(vei) concanonici vestri, nunc clerici venerabilis fratris nostri B(erneredi) Prenestini episcopi, iam pridem venerabili fratri nostro, S(imoni) episcopo vestro scripta direximus credentes, eum ad mandatum apostolicum celeriter impleturum, quod tacentibus nobis per se ipsum efficere tenebatur. Eius est enim predictus Her(veus) conversationis et scientie, sicut vos ipsi plenius nostis, quod maiori etiam beneficio dignus esset. Ceterum prefatus episcopus mandatum nostrum contempnens et ipsius necessitatem et probitatem dissimulans, ut preceptum nostrum commodius posset, quod non licet, eludere, alios ei preponere, quem solum precepimus in Meldensi ecclesia integrari, et in penam litteras nostras, quas ad commodum indulsimus, retorquere, vacantem prebendam dimidiam Constantii succentoris cuidam puero, filio nobilis viri G. de Cheureuse, qui alibi habere maiores redditus perhibetur, contra prohibitionem nostram dicitur, unde miramur et movemur plurimum, concessisse. Quia igitur verecundum nobis esta admodum et molestum, ut prefatus H(erveus), quem integrum beneficium habere volumus, tardius integretur, prefato episcopo districte precipimus, ut, non obstante concessione facta predicto puero, eidem H(erveo) prescriptam dimidiam conferat quantotius et assignet. Venerabili quoque fratri nostro episcopo Trecensi1 mandamus, ut si prefatus Meldensis requisitus mandatum apostolicum exequi recusaverit, ipsum nullius appellatione obstante auctoritate apostolica fretus non differat effectui mancipare. Quocirca universitati vestre per apostolica scripta mandamus atque precipimus, quatinus, quod idem Trecensis auctoritate nostra fecerit, firmiter observetis. Ad hec auctoritate apostolica inhibemus, ne, antequam prefati H(ervei) beneficium integretur, aliquarum litterarum obtentu, si que etc.b, quemquam recipiatis in fratrem vel integrari aliquem, quantum in vobis est, ullatenus permittatis. Tibi autem, fili decane, specialiter interdicimus, ne ante prescriptam integrationem quemquam de integra vel dimidia temptes per te vel alium quomodolibet investire. Alioquin si quid contra hanc prohibitionem nostram fuerit a quoquam presumptum, auctoritate apostolica decernimus non valere.\n"
        },
        {
            "type": "edition",
            "value": "Samuel Loewenfeld, <i>Epistolae pontificum romanorum ineditae<\/i>, Leipzig : Veit et Comp., 1885, n. 321, p. 189"
        },
        {
            "type": "sources_manuscrites",
            "value": "Reg. Alex. fragm. ep.\u00a019, in cod. Coll. Trinitat. Cantabrig. R.\u00a09. 17. s.\u00a0<span class=\"smal-caps\">xii.<\/span> fol.\u00a0114.",
            "children": {
                "type_source": "Collection canonique, collection de d\u00e9cr\u00e9tales"
            }
        },
        {
            "type": "notes_historiques",
            "value": "Matthaeo.",
            "children": {
                "numero_note": "1"
            }
        },
        {
            "type": "apparat_critique",
            "value": "<i>In cod. sic est<\/i>\u00a0: Quia igitur va sustinere in patientia non debemus, ut ab episcopis, qui tenentur alios ad observantiam decretorum nostrorum inducere, statuta sedis apostolice violentur, cat verecundum nobis est\u00a0; <i>vocem<\/i> va-cat <i>eadem manus superscripsit<\/i>.",
            "children": {
                "numero_note": "a"
            }
        },
        {
            "type": "apparat_critique",
            "value": "<i>Cf. supra ep.\u00a0319.<\/i>",
            "children": {
                "numero_note": "B"
            }
        },
        {
            "type": "date",
            "value": "apr\u00e8s 1180\/01 - avant 1180\/04",
            "children": {
                "date_deb_annee": "1180",
                "date_deb_mois": "01",
                "date_deb_type": "apres",
                "date_fin_annee": "1180",
                "date_fin_mois": "04",
                "date_fin_type": "avant"
            },
            "range": {
                "date_apres": 11800100,
                "date_avant": 11800499
            }
        },
        {
            "type": "genre",
            "value": "Bulle"
        },
        {
            "type": "destinataire",
            "value": "Le doyen de Meaux Michel et le chapitre"
        }
    ]
}