{
    "id": 26295,
    "name": "aposcripta-3374",
    "type": "acte",
    "url": "http:\/\/telma-chartes.irht.cnrs.fr\/aposcripta\/notice\/26295",
    "project_slug": "aposcripta",
    "project_label": "APOSCRIPTA \u2013 Lettres des papes",
    "user": "lettrespontificalesadmin",
    "last_update": "2020-10-19 16:27:58",
    "licence": "Attribution - Pas d\u2019Utilisation Commerciale - Partage dans les M\u00eames Conditions 3.0 France (CC BY-NC-SA 3.0 FR) ",
    "licence_url": "https:\/\/creativecommons.org\/licenses\/by-nc-sa\/3.0\/fr\/",
    "elements": [
        {
            "type": "pape",
            "value": "Innocent II (1130-1143)"
        },
        {
            "type": "date_lieu",
            "value": "Latran"
        },
        {
            "type": "date_libre",
            "value": "1142 Januar 4"
        },
        {
            "type": "date",
            "value": " 1142\/01\/04",
            "children": {
                "date_deb_annee": "1142",
                "date_deb_mois": "01",
                "date_deb_jour": "04"
            },
            "range": {
                "date_apres": 11420104,
                "date_avant": 11420104
            }
        },
        {
            "type": "analyse",
            "value": "Innocenz II nimmt das Kloster Trois-Fontaines (D. Ch\u00e2lons-sur-Marne) in apostolischen Schutz und best\u00e4tigt ihm seine Besitzth\u00fcmer<a class=\"note\" href=\"#note-1\">1<\/a>."
        },
        {
            "type": "transcription",
            "value": "<?xml version=\"1.0\" encoding=\"UTF-8\"?>\nInnocentius episcopus servus servorum dei dilectis filiis Galterio, abbati Trium fontium, eiusque fratribus tam presentibus quam futuris regulariter substituendis in ppm. \u2014 | Religiosis desideriis dignum est facilem prebere consensum, ut fidelis devotio celerem sortiatur effectum. Eapropter, dilecti in domino filii, vestris | iustis postulationibus clementer annuimus et beat\u0229 dei genitricis semperque virginis Mari\u0229 monasterium Triumfontium sub beati Petri et nostra protectione suscipimus et presentis scripti privilegio communimus. Statuentes, ut quascumque possessiones, quecumque bona ipsum monasterium in presentiarum iuste et canonice possidet, aut in futurum concessione pontificum, largitione regum vel principum, oblatione fidelium seu aliis iustis modis deo propitio poterit adipisci, firma vobis vestrisque successoribus et illibata permaneant. In quibus hec propriis duximus exprimenda vocabulis : grangiam2 qu\u0229 dicitur Tresfontes, grangiam Belli loci, grangiam qu\u0229 dicitur Huisseria cum appenditiis et decimis suis, pratum quod est apud Pontigonem, pratum quod est apud Contresson, et quicquid Isembardus, Rainardus, Oliverus et Achardus apud Boronam habuerunt, et quicquid Anscherus apud villam que Sequana dicitur habuit. Decernimus ergo, ut nulli omnino hominum liceat, prephatum monasterium temere perturbare, aut eius bona vel possessiones auferre, retinere, minuere seu quibuslibet molestiis fatigare, sed omnia integra conserventur eorum, pro quorum gubernatione et sustentatione concessa sunt, usibus omnimodisa profutura. Si quis igitur in futurum hanc nostr\u0229 constitutionis paginam sciens contra eam temere venire temptaverit, secundo tertiove commonitus, si non satisfactione congrua emendaverit, a sacratissimo corpore et sanguine dei et domini redemptoris (nostri) Jesu Christi alienus fiat, atque in extremo examine districte ultioni subiaceat. Cunctis autem eidem loco iusta servantibus sit pax domini nostri Jesu Christi, quatinus et hic fructum bone actionis percipiant et apud districtum iudicem pre|mia etern\u0229 pacis inveniant. \u2014 Amen. \u2014 Amen. \u2014 Amen. \u2014(R) Ego Innocentius catholic\u0229 \u0229cclesi\u0229 episcopus ss. (M)\u2020 Ego Conradus Sabinensis episcopus ss.\u2020 Ego Albericus Hostiensis episcopus ss.\u2020 Ego Stephanus Prenestinus episcopus ss. (11)\u2014 \u2020 Ego Martinus presbiter cardinalis tit. sancti Stephani in Celio monte ss. (1)\u2020 Ego Ivo presbiter cardinalis sancti Laurentii tit. Damasi ss. (4)\u2020 Ego GG (Gregorius) presbiter cardinalis tit. Calisti ss. (2)\u2020 Ego Goizo presbiter cardinalis tit. sancte Cecilie ss.\u2014 \u2020 Ego Gregorius diaconus cardinalis sanctorum Sergii et \u01c1 Bachi ss.\u2020 Ego Otto diaconus cardinalis sancti Georgii ad Velum aureum ss. (3)\u2020 Ego Vassallus diaconus cardinalis sancti Eustachii ss.\u2020 Ego Humbaldus diaconus cardinalis sancte Mari\u0229 in Via lata ss. (1)\u2020 Ego Guido sancte Romane aecclesie diaconus cardinalis ss. (6)Dat. Laterani, per manum Gerardi, sanct\u0229 Roman\u0229 \u0229cclesi\u0229 presbiteri cardinalis et bibliothecarii. ii Non. Jan. Indictione v. Anno dominic\u0229 incarnationis mcxli. Pontificatus vero domni Innocentii pp ii anno xii. \u2014\n"
        },
        {
            "type": "edition",
            "value": "Julius von Pflugk-Harttung, <i>Acta pontificum Romanorum inedita<\/i>, T\u00fcbingen, 1880, I, n. 186, p. 165"
        },
        {
            "type": "sources_manuscrites",
            "value": "Or. im Archive des D\u00e9p. Marne zu Ch\u00e2lons-sur-Marne."
        },
        {
            "type": "remarques",
            "value": "Perg. ital., breit 0,401\u20130,41, lang 0,575, unten umgeschlagen, durch 3 L\u00f6cher geht die dickf\u00e4dige rosa Seidenschnur, an der die Bulle h\u00e4ngt, Faltung der Privilegien. Monogramm Nr. 6, Rota mit schmalem Ringe, Umschrift und p\u00e4pstliche Unterschrift r\u00fchren vom Contextschreiber her, Verewigungszeichen Nr. 4, mit Knoten statt Ausbuchtungen in dem wagerechten Striche, Amen Nr. 7. Das doppellinige Initial-I ist mit starken Abschlussschn\u00f6rkeln versehen. Im Contexte ist bis habuit mit hellerer Dinte geschrieben, mit Decernimus beginnt eine dunklere ; Ringkreuz, Um- und p\u00e4pstliche Unterschrift k\u00f6nnten von jener herr\u00fchren. Die Datumzeile scheint von anderer Hand als der Context, Gerardi gleich mit geschrieben zu sein."
        },
        {
            "type": "apparat_critique",
            "value": "a.\u2002commodis.",
            "children": {
                "numero_note": "a"
            }
        },
        {
            "type": "notes_historiques",
            "value": "<i>Vergl. die Urk. vom 9 Mai 1147.<\/i>",
            "children": {
                "numero_note": "1"
            }
        },
        {
            "type": "notes_historiques",
            "value": "<i>Grangia : praedium, Vorwerk, Klosterhof : ein besonderes Landgut mit allem Zubeh\u00f6r ; Altfr.<\/i> \u201e<i>Grange<\/i>\u201c (<i>M\u00e9tairie, Ferme<\/i>). <i>Brinckmeier, Gloss. I S. 932 ; Diefenbach, Nov. Gloss. S. 197 ; Mon. SS. IV p. 34, IX, 909, XVII, 907 ; Du Cange, Gloss. VII p. 192. La Curne de Sainte-Palaye, Dict. VI p. 417 ; Bescherelle, Dict. Nat. II p. 64.<\/i>",
            "children": {
                "numero_note": "2"
            }
        },
        {
            "type": "genre",
            "value": "Privil\u00e8ge solennel"
        }
    ]
}