{
    "id": 149481,
    "name": "aposcripta-9044",
    "type": "acte",
    "url": "http:\/\/telma-chartes.irht.cnrs.fr\/aposcripta\/notice\/149481",
    "project_slug": "aposcripta",
    "project_label": "APOSCRIPTA \u2013 Lettres des papes",
    "user": "lettrespontificalesadmin",
    "last_update": "2020-10-19 16:39:59",
    "licence": "Attribution - Pas d\u2019Utilisation Commerciale - Partage dans les M\u00eames Conditions 3.0 France (CC BY-NC-SA 3.0 FR) ",
    "licence_url": "https:\/\/creativecommons.org\/licenses\/by-nc-sa\/3.0\/fr\/",
    "elements": [
        {
            "type": "pape",
            "value": "Innocent IV (1243-1254)"
        },
        {
            "type": "destinataire",
            "value": "Ad memoriam et observanciam perpetuam"
        },
        {
            "type": "date_libre",
            "value": "II kalendas martii, anno XI"
        },
        {
            "type": "date",
            "value": " 1254\/02\/28",
            "children": {
                "date_deb_annee": "1254",
                "date_deb_mois": "02",
                "date_deb_jour": "28"
            },
            "range": {
                "date_apres": 12540228,
                "date_avant": 12540228
            }
        },
        {
            "type": "date_lieu",
            "value": "Lateran."
        },
        {
            "type": "sources_manuscrites",
            "value": "R. CIT\u00c9 DU VATICAN, Archivio Segreto Vaticano, <hi rend=\"italic\">Registra Vaticana<\/hi> ... Inn.\u00a0IV Reg. Vol.\u00a0III, 61; Lib.\u00a0XI, 478. Exemplar, quod Matthaeus Paris., ed. Luard, Addit. t.\u00a0VI, p.\u00a0289, n.\u00a0143 praebuit, cum Regestis contulit V. Cl. Monacci.",
            "children": {
                "type_source": "Registre de la chancellerie apostolique"
            }
        },
        {
            "type": "genre",
            "value": "Mandement (littere cum filo canapis)"
        },
        {
            "type": "analyse",
            "value": "Innocentius IV papa statuit, ut archiepiscopis, episcopis et praelatis, visitantibus ecclesias, procurationes moderatae exhibeantur, ita ut summam quattuor marcarum argenti in nulla procuratione transcendant [Rodenberg]."
        },
        {
            "type": "transcription",
            "value": "<?xml version=\"1.0\" encoding=\"UTF-8\"?>\nAd memoriam et observanciam perpetuam.Contra gravamina, que in procurationibus ratione visitationis debitis inferebantur subditis a prelatis, providerunt salubriter canonica instituta circa evectionum et personarum multitudinem, epularum immoderantiam aliasque superfluitates, statuendo modestiam debitam observari, ut nec in exigendo nimium prelati excederent, nec in exhibendo superflue subditi gravarentur fieretque visitatio ad salutem animarumque letitiam et non ad afflictionem et tedium subiectorum. Verumptamen quia nonnulle adhuc de huiusmodi procurationibus querimonie audiuntur, nos, volentes pastorali sollicitudine providere taliter in hac parte, quod tollatur omnino gravandi occasio et cesset prorsus materia murmurandi, apostolica auctoritate statuimus, ut archiepiscopis, episcopis, archidiaconis aliisque prelatis personaliter visitantibus ab ecclesiis et locis visitatis exhibeantur procurationes in victualibus et aliis necessariis moderate, ita quod hec secundum communem rerum extimationem singulorum locorum vel sumptus, qui pro hiis fient, summam seu valentiam quatuor marcarum argenti in nulla procuratione transcendant, proviso tamen quod secundum maiorem vel minorem evectionum et personarum numerum pro maioritate vel minoritate prelatorum in concilio Lateranensi taxatum fiant usque ad summam ipsam vel infra huiusmodi procurationum expense. Set in locis, in quibus maior fertilitas vel copia rerum habetur, et ubi minores sunt redditus seu ecclesiastice facultates, minus secundum ampliorem necessariorum ubertatem et parvitatem proventuum in ipsis procurationibus expendatur. Si autem amplius in huiusmodi procurationibus fuerit expensum, prelati eas recipientes restituere in utilitatem ecclesiarum, a quibus ipsas receperint, et illi, qui eas exhibuerint, erogare de suo proprio pauperibus duplum eius, quod taliter ultra expensum extiterit, compellantur, alia nichilominus pena mulctandi, si visum fuerit expedire; ceteris nichilominus, que pro huiusmodi visitationibus et procurationibus generaliter statuta esse noscuntur, manentibus semper salvis. Nulli etc. nostre constitutionis etc.Dat. Lateran., II Kalendas Martii, anno XI\u00b0.\n"
        },
        {
            "type": "edition",
            "value": "Ici reprise de Karl Rodenberg, Epistolae s. XIII e regestis pontificum romanorum selectae, III, Berlin : Weidmann (MGH), 1894, n.\u00a0264, p.\u00a0231."
        },
        {
            "type": "edition_autre",
            "value": "?"
        },
        {
            "type": "regeste",
            "value": "?"
        },
        {
            "type": "bibliographie_generale",
            "value": "?"
        },
        {
            "type": "apparat_critique",
            "value": "?",
            "children": {
                "numero_note": "a"
            }
        },
        {
            "type": "apparat_critique",
            "value": "?",
            "children": {
                "numero_note": "b"
            }
        },
        {
            "type": "apparat_critique",
            "value": "?",
            "children": {
                "numero_note": "c"
            }
        },
        {
            "type": "apparat_critique",
            "value": "?",
            "children": {
                "numero_note": "d"
            }
        },
        {
            "type": "apparat_critique",
            "value": "?",
            "children": {
                "numero_note": "e"
            }
        },
        {
            "type": "apparat_critique",
            "value": "?",
            "children": {
                "numero_note": "f"
            }
        },
        {
            "type": "notes_historiques",
            "value": "?",
            "children": {
                "numero_note": "1"
            }
        },
        {
            "type": "notes_historiques",
            "value": "?",
            "children": {
                "numero_note": "2"
            }
        },
        {
            "type": "notes_historiques",
            "value": "?",
            "children": {
                "numero_note": "3"
            }
        }
    ]
}