{
    "id": 25764,
    "name": "aposcripta-2861",
    "type": "acte",
    "url": "http:\/\/telma-chartes.irht.cnrs.fr\/aposcripta\/notice\/25764",
    "project_slug": "aposcripta",
    "project_label": "APOSCRIPTA \u2013 Lettres des papes",
    "user": "lettrespontificalesadmin",
    "last_update": "2020-10-19 16:27:48",
    "licence": "Attribution - Pas d\u2019Utilisation Commerciale - Partage dans les M\u00eames Conditions 3.0 France (CC BY-NC-SA 3.0 FR) ",
    "licence_url": "https:\/\/creativecommons.org\/licenses\/by-nc-sa\/3.0\/fr\/",
    "elements": [
        {
            "type": "pape",
            "value": "Urbain IV (1261-1264)"
        },
        {
            "type": "destinataire",
            "value": "( )",
            "children": {
                "numero_note": "0"
            }
        },
        {
            "type": "date_lieu",
            "value": "Urbem veterem (Datum apud Urbem veterem)"
        },
        {
            "type": "date_libre",
            "value": "28 mai 1263"
        },
        {
            "type": "date",
            "value": " 1263\/05\/28",
            "children": {
                "date_deb_annee": "1263",
                "date_deb_mois": "05",
                "date_deb_jour": "28"
            },
            "range": {
                "date_apres": 12630528,
                "date_avant": 12630528
            }
        },
        {
            "type": "analyse",
            "value": "X pape<br\/>"
        },
        {
            "type": "transcription",
            "value": "<?xml version=\"1.0\" encoding=\"UTF-8\"?>\nUrbanus episcopus servus servorum Dei, dilectis filiis abbati et conventui ecclesie S. Laurentii de Abbatia, ordinis S. Augustini Autissiodorensis di\u00e6cesis, salutem et apostolicam benedictionem. Lata coram nobis devotionis vestre petitio continebat quod cum vos de antiqua, approbata et hactenus pacifice observata consuetudine, reditus et proventus unius anni prebendarum vacantium in ecclesia Nivernense, ratione prioratus vestri sancti Gildardi extra muros Nivernenses ordinis S. Augustini percipere deberetis, bone memorie Gervasius episcopus Nivernensis de assensu vestro et capituli sui ordinavit et statuit quod vos reditus et proventus hujusmodi dimittentes loco illorum, de proventibus ipsius ecclesie ad valorem fructuum duarum prebendarum integre perpetuo nomine ipsius prioratus in ecclesia obtinentes, eadem prout in litteris jure confectis et dictorum episcopi et capituli sigillis munitis plenius dicitur contineri. Nos igitur vestris supplicationibus inclinati quod per episcopum ipsum in hac parte provide factum est ratum habentes, id autoritate apostolica confirmamus et presentis scripti patrocinio communivimus. Nulli ergo hominum liceat hanc paginam nostre confirmationis infringere vel ei ausu temerario contra ire. Si quis autem hoc attentare presumpserit indignationem omnipotentis Dei et beatorum ejus apostolorum Petri et Pauli imposterum se noverit incursurum. Datum apud Urbem veterem, V\u00ba Kalendas junii, pontificatus nostri anno II.\n"
        },
        {
            "type": "edition",
            "value": "Ici tir\u00e9e du projet <i>CBMA - Corpus Burgundiae Medii Aevi<\/i>, document 7387. Site du projet Corpus de la Bourgogne du Moyen \u00c2ge, [En ligne] <a href=\"http:\/\/www.cbma-project.eu\" target=\"_blank\">http:\/\/www.cbma-project.eu<\/a>  "
        },
        {
            "type": "sources_manuscrites",
            "value": "\u00e0 renseigner. Texte pr\u00e9c\u00e9d\u00e9 de la rubrique: <i>Bulla Urbani pape IV pro S. Gildardo Nivernensi<\/i>"
        },
        {
            "type": "remarques",
            "value": "\r\n\r\n (fol.\u00a0799)"
        },
        {
            "type": "edition_autre",
            "value": "Ici reprise de Ren\u00e9 de Lespinasse, <i>Cartulaire de Saint-Cyr de Nevers<\/i>, Nevers, Paris\u00a0: J. Gr\u00e9mion, Champion, 1916 <a href=\"https:\/\/archive.org\/details\/cartulairedesain00cath\" target=\"_blank\">[en ligne]<\/a>, p. 204, sans num\u00e9ro.",
            "children": {
                "numero_note": "0"
            }
        },
        {
            "type": "genre",
            "value": "Bulle"
        },
        {
            "type": "genre",
            "value": "Lettre"
        }
    ]
}