{
    "id": 27574,
    "name": "aposcripta-4243",
    "type": "acte",
    "url": "http:\/\/telma-chartes.irht.cnrs.fr\/aposcripta\/notice\/27574",
    "project_slug": "aposcripta",
    "project_label": "APOSCRIPTA \u2013 Lettres des papes",
    "user": "c_lenne",
    "last_update": "2020-10-19 16:28:16",
    "licence": "Attribution - Pas d\u2019Utilisation Commerciale - Partage dans les M\u00eames Conditions 3.0 France (CC BY-NC-SA 3.0 FR) ",
    "licence_url": "https:\/\/creativecommons.org\/licenses\/by-nc-sa\/3.0\/fr\/",
    "elements": [
        {
            "type": "pape",
            "value": "Alexandre IV (1254-1261)"
        },
        {
            "type": "destinataire",
            "value": "Le roi de France, Louis IX"
        },
        {
            "type": "date_libre",
            "value": "II kalendas aprilis anno quinto"
        },
        {
            "type": "date",
            "value": " 1259\/03\/31",
            "children": {
                "date_deb_jour": "31",
                "date_deb_mois": "03",
                "date_deb_annee": "1259"
            },
            "range": {
                "date_apres": 12590331,
                "date_avant": 12590331
            }
        },
        {
            "type": "date_lieu",
            "value": "Anagnie"
        },
        {
            "type": "genre",
            "value": "Lettre, g\u00e9n\u00e9ral (apr\u00e8s 1198, littere cum filo canapis)"
        },
        {
            "type": "analyse",
            "value": "Le pape demande de nouveau au roi de France, Louis IX, de pr\u00eater main forte \u00e0 l'archev\u00eaque de Besan\u00e7on contre les seigneurs du comt\u00e9 de Bourgogne et la commune de Besan\u00e7on."
        },
        {
            "type": "sources_manuscrites",
            "value": "F. Cartulaire de Sainte-Madeleine de Besan\u00e7on.",
            "children": {
                "type_source": "Cartulaire"
            }
        },
        {
            "type": "edition",
            "value": "Ici reprise d'Auguste Castan, \u00ab Probabilit\u00e9s d'un voyage du roi saint Louis \u00e0 Besan\u00e7on en 1259, lettre \u00e0 L\u00e9opold Delisle \u00bb, <i>Biblioth\u00e8que de l'\u00c9cole des chartes<\/i>, 34, 1873, p. 387-396 <a target=\"_blank\" href=\"https:\/\/www.persee.fr\/doc\/bec_0373-6237_1873_num_34_1_446508\">[en ligne]<\/a>."
        },
        {
            "type": "transcription",
            "value": "<?xml version=\"1.0\" encoding=\"UTF-8\"?>\nAlexander episcopus, servus servorum Dei, carissimo in Christo filio regi Francorum illustri, salutem et apostolicam benedictionem. Pro venerabili fratre nostro archiepiscopo Bisuntino, contra quosdam tirannos sue civitatis et dyocesis ipsum et ecclesiam sibi commissam persequentes crudeliter eumque in immane exilium compellentes, venerabili fratri nostro episcopo Authisiodorensi nostras sub certa forma litteras dirigimus et mandamus in illis contra nobiles ipsos, prout eorum protervitas exegerit, luum auxilium invocari ; per alias nostras litteras pietatem regiam exorantes ut dictis archiepiscopo et ecclesie contra insolentias talium oportunum et debit\u016fm auxilium largiaris. Sed quoniam, invalescente de die in diem persecutione predictorum, vix superest, post Deum, eidem archiepiscopo et ecclesie nisi in tuo patrocinio spes salutis, magnitudinem tuam per iterata scripta rogamus attentius et hortamur quatinus, affectum quem soles ad oppressos habere ad archiepiscopum et ecclesiam supradictos expandens, ab ipsorum sorte violentorum virgam per oportunum auxilium, pro nostra et apostolice sedis reverentia, studeas amovere, f\u0153dere seu etiam jurejurando quocunque, si quo es, ne potestatem tuam in fines extendas Imperii, fortassis astrictus, nequaquam obstante, cum in prefatis archiepiscopo et ecclesia contra oppressores eorum, si adversus ipsos tue fortitudinis dexteram exercueris, non videantur ledi jura Imperii, sed servari, maxime cum id exigat necessitas pietatis. Datum Anagnie, II kalendas aprilis, pontificatus nostri anno quinto.\n"
        },
        {
            "type": "remarques",
            "value": "Absente des registres."
        }
    ]
}