{
    "id": 25732,
    "name": "aposcripta-2829",
    "type": "acte",
    "url": "http:\/\/telma-chartes.irht.cnrs.fr\/aposcripta\/notice\/25732",
    "project_slug": "aposcripta",
    "project_label": "APOSCRIPTA \u2013 Lettres des papes",
    "user": "lettrespontificalesadmin",
    "last_update": "2020-10-19 16:27:48",
    "licence": "Attribution - Pas d\u2019Utilisation Commerciale - Partage dans les M\u00eames Conditions 3.0 France (CC BY-NC-SA 3.0 FR) ",
    "licence_url": "https:\/\/creativecommons.org\/licenses\/by-nc-sa\/3.0\/fr\/",
    "elements": [
        {
            "type": "pape",
            "value": "Boniface VIII (1294-1303)"
        },
        {
            "type": "destinataire",
            "value": "( )",
            "children": {
                "numero_note": "0"
            }
        },
        {
            "type": "date_lieu",
            "value": "n.c."
        },
        {
            "type": "date_libre",
            "value": "1295, 11 ao\u00fbt"
        },
        {
            "type": "date",
            "value": " 1295\/08\/11",
            "children": {
                "date_deb_annee": "1295",
                "date_deb_mois": "08",
                "date_deb_jour": "11"
            },
            "range": {
                "date_apres": 12950811,
                "date_avant": 12950811
            }
        },
        {
            "type": "analyse",
            "value": "X pape<br\/>EPISTOLA BONIFACII PAP\u00c6 VIII, AD ABBATEM SANCTI GERMANI AUTISSIODORENSIS DIRECTA, UT MONACHOS DE CARITATE BERTRANDUM IN PRIOREM RECIPERE JUBEAT."
        },
        {
            "type": "transcription",
            "value": "<?xml version=\"1.0\" encoding=\"UTF-8\"?>\nBonifacius, episcopus, servus servorum Dei, dilectis filiis... Sancti Germani Autisyodorensis, et de Sancto Laurentio Autisyodorensis diocesis monasteriorum abbatibus, salutem et apostolicam benedictionem. Dudum, etc., provisionem hujusmodi per eundem abbatem, sicut premittitur, de prefato Bertrando factam, ratam manere volumus de gratia speciali. Per hoc autem abbati, etc. (usque ad:) et servari in quo erat priusquam esset de Bertrando predicto hujusmodi provisio subsecuta. Quocirca discretioni vestre per apostolica scripta mandamus quatinus vos vel alter vestrum, per vos vel per alium seu alios eundem B. priorem vel procuratorem suum, ejus nomine, in corporalem possessionem ejusdem prioratus de Caritate ac jurium et pertinentiarum ejus inducatis auctoritate nostra, et defendatis inductum, amoto exinde quolibet detentore, sibique vel dicto procuratori pro eo de ipsius prioratus fructibus, redditibus, proventibus, juribus et obventionibus universis faciatis integre responderi. Non obstante si aliquibus a prefata Sede indultum existat, quod interdici, suspendi vel excommunicari non possint per litteras dicte Sedis non facientes plenam et expressam de indulto hujusmodi mentionem, et qualibet alia prefate Sedis indulgentia generali vel speciali, cujuscumque tenoris existat, per quam effectus presentium impediri valeat vel differri; contradictores per censuram ecclesiasticam, appellatione postposita, compescendo, invocato ad hoc, si opus fuerit, auxilio brachii secularis. Datum Agnanie (sic), III idus augusti, pontificatus nostri anno primo.\n"
        },
        {
            "type": "edition",
            "value": "Ici tir\u00e9e du projet <i>CBMA - Corpus Burgundiae Medii Aevi<\/i>, document 6913. Site du projet Corpus de la Bourgogne du Moyen \u00c2ge, [En ligne] <a href=\"http:\/\/www.cbma-project.eu\" target=\"_blank\">http:\/\/www.cbma-project.eu<\/a>  "
        },
        {
            "type": "sources_manuscrites",
            "value": "\u00e0 renseigner."
        },
        {
            "type": "remarques",
            "value": "\r\n\r\n (Bibl. nat. lat. nouv. acq.\u00a02274, n\u00ba\u00a037.)"
        },
        {
            "type": "edition_autre",
            "value": "Ici reprise de Auguste Bernard, Alexandre Bruel, <i>Recueil des chartes de l'abbaye de Cluny<\/i>. VI. <i>1211-1300<\/i>, Paris\u00a0: Imprimerie nationale, 1903 <a href=\"http:\/\/gallica.bnf.fr\/ark:\/12148\/bpt6k367019?rk=21459;2\" target=\"_blank\">[en ligne]<\/a>, p. 834, n\u00b0 5428",
            "children": {
                "numero_note": "0"
            }
        },
        {
            "type": "genre",
            "value": "Bulle"
        },
        {
            "type": "genre",
            "value": "Lettre"
        }
    ]
}