{
    "id": 148910,
    "name": "aposcripta-8479",
    "type": "acte",
    "url": "http:\/\/telma-chartes.irht.cnrs.fr\/aposcripta\/notice\/148910",
    "project_slug": "aposcripta",
    "project_label": "APOSCRIPTA \u2013 Lettres des papes",
    "user": "l_valliere",
    "last_update": "2020-10-19 16:39:51",
    "licence": "Attribution - Pas d\u2019Utilisation Commerciale - Partage dans les M\u00eames Conditions 3.0 France (CC BY-NC-SA 3.0 FR) ",
    "licence_url": "https:\/\/creativecommons.org\/licenses\/by-nc-sa\/3.0\/fr\/",
    "elements": [
        {
            "type": "pape",
            "value": "Urbain IV (1261-1264)"
        },
        {
            "type": "destinataire",
            "value": "Le doyen de Li\u00e8ge"
        },
        {
            "type": "date_libre",
            "value": "V idus julii, anno primo"
        },
        {
            "type": "date",
            "value": "1262\/07\/11",
            "children": {
                "date_deb_annee": "1262",
                "date_deb_mois": "07",
                "date_deb_jour": "11"
            },
            "range": {
                "date_apres": 12620711,
                "date_avant": 12620711
            }
        },
        {
            "type": "date_lieu",
            "value": "Viterbe"
        },
        {
            "type": "genre",
            "value": "Mandement (littere cum filo canapis)"
        },
        {
            "type": "analyse",
            "value": "Bul van Urbanus IV gericht tot den Luikschen deken, waarbij hij hem beveelt de begijnen en kloosterzusters van het bisdom tegen hunne vervolgers te beschermen [Fredericq]."
        },
        {
            "type": "edition",
            "value": "Aubert Le Mire, <i>Opera diplomatica et historica<\/i>, 2<sup>e<\/sup> \u00e9d., Bruxelles : Typis Francisci Foppens, 1723, 4 vol., I, n. 119, p. 430 <a target=\"_blank\" href=\" https:\/\/archive.org\/details\/bub_gb_vNP8O6ukzekC\/page\/n451\/mode\/2up\"> [en ligne]<\/a>."
        },
        {
            "type": "edition_autre",
            "value": "Laerzio Cherubini, <i>Magnum bullarium romanum<\/i>, I, Luxembourg, 1742, IX, p. 53."
        },
        {
            "type": "regeste",
            "value": "Potthast, <i>Regesta pontificum Romanorum<\/i>, n. 18380 <a target=\"_blank\" href=\" https:\/\/archive.org\/details\/RegestaPontificumRomanorum\/page\/n1507\/mode\/2up\"> [en ligne]<\/a>."
        },
        {
            "type": "regeste",
            "value": "Paul Fredericq, <i>Corpus documentorum inquisitionis haereticae pravitatis Neerlandicae<\/i>, Gand, 5 vol., 1889-1906, I, n. 139, p. 132 <a target=\"_blank\" href= \" https:\/\/archive.org\/details\/MN5018_01ucmf_0\/page\/n181\/mode\/2up\"> [en ligne]<\/a>."
        },
        {
            "type": "transcription",
            "value": "<?xml version=\"1.0\" encoding=\"UTF-8\"?>\nUrbanus episcopus, servus servorum Dei, dilecto filio decano Leodiensi, salutem et apostolicam benedictionem. Pium esse dinoscitur ut glorantibus in malitia per nos taliter obsistatur quod repressis eorum insultibus vacantes divino cultui liberius possint in observantia mandatorum Domini delectari. Cum itaque dilecte filie beghine et recluse Leodiensis diocesis a nonnullis qui nomen Domini recipere in vanum non formidant, prout accepimus, diversis affligantur molestiis et pressuris, nos, earum providere quieti et malignorum malitiis obviare volentes, discretioni tue per apostolica scripta mandamus quatenus, prefatis beghinis adversus raptorum, predonum et invasorum audaciam efficaci presidio defensionis assistens, non permittas ipsas in personis et bonis suis ac litibus molestari, molestatores hujusmodi per censuram ecclesiasticam, appellatione postposita, compescendo, presentibus post triennium minime valituris. Datum Viterbii, V idus julii, pontificatus nostri anno primo.\n"
        },
        {
            "type": "remarques",
            "value": "Absente des registres."
        }
    ]
}