{
    "id": 24376,
    "name": "aposcripta-1527",
    "type": "acte",
    "url": "http:\/\/telma-chartes.irht.cnrs.fr\/aposcripta\/notice\/24376",
    "project_slug": "aposcripta",
    "project_label": "APOSCRIPTA \u2013 Lettres des papes",
    "user": "lettrespontificalesadmin",
    "last_update": "2020-10-19 16:27:29",
    "licence": "Attribution - Pas d\u2019Utilisation Commerciale - Partage dans les M\u00eames Conditions 3.0 France (CC BY-NC-SA 3.0 FR) ",
    "licence_url": "https:\/\/creativecommons.org\/licenses\/by-nc-sa\/3.0\/fr\/",
    "elements": [
        {
            "type": "pape",
            "value": "Gr\u00e9goire IX (1227-1241)"
        },
        {
            "type": "date_lieu",
            "value": "n.c."
        },
        {
            "type": "date_libre",
            "value": "6\u00a0juin 1236"
        },
        {
            "type": "date",
            "value": " 1236\/06\/06",
            "children": {
                "date_deb_annee": "1236",
                "date_deb_mois": "06",
                "date_deb_jour": "06"
            },
            "range": {
                "date_apres": 12360606,
                "date_avant": 12360606
            }
        },
        {
            "type": "analyse",
            "value": "Gr\u00e9goire\u00a0IX \u00e9crit \u00e0 l\u2019archev\u00eaque de Vienne et lui recommande les habitants de Montpellier, \u00e0 cause de la puret\u00e9 de leur foi catholique."
        },
        {
            "type": "transcription",
            "value": "<?xml version=\"1.0\" encoding=\"UTF-8\"?>\nGregorius episcopus, servus servorum Dei, venerabili fratri archiepiscopo Viennensi, Apostolice Sedis legato, salutem et apostolicam benedictionem.Cum dilecti filii consules et populus Montis Pesulani Ecclesie Romane semper exhibuerint se devotos, merito ipsos brachiis sincere dilectionis amplectimur, et in sua justitia confovemus.Sane fraternitatem tuam rogandam duximus et hortandam, per apostolica tibi scripta mandantes, quatinus favorabiliter eis assistens in quibus fuerit oportunum, ipsos ac eorum jura, quantum in te fuerit, manuteneas et defendas, et innocentiam eorum sic illesam studeas conservare, quod sua sit eis devotio fructuosa, et nos prudentiam tuam commendare merito valeamus.Datum Interamne, viii idus junii, pontificatus nostri anno decimo.\n"
        },
        {
            "type": "edition",
            "value": "Julien Rouquette, Augustin Villemagne, <i>Bullaire de l'\u00c9glise de Maguelone<\/i>, Paris, Montpellier : Picard, Valat, 1911-1914, II, n. 345-CCXLIV, p. 177-179"
        },
        {
            "type": "remarques",
            "value": "Jean de Bernin, archev\u00eaque de Vienne, succ\u00e8da, dans les fonctions de l\u00e9gat, \u00e0 l\u2019\u00e9v\u00eaque de Tournai, au commencement de 1234. Nous n\u2019insisterons pas sur les troubles qui \u00e9clat\u00e8rent dans la province pendant sa l\u00e9gation, et qui eurent pour cause la s\u00e9v\u00e9rit\u00e9 des inquisiteurs, qui furent chass\u00e9s de Toulouse. Disons seulement qu\u2019il convoqua le concile de B\u00e9ziers, et obligea Raimond\u00a0VII \u00e0 r\u00e9tablir les Fr\u00e8res Pr\u00eacheurs dans Toulouse (Cf. <span class=\"small-caps\">Vaissete<\/span>, <i>Hist. g\u00e9n. de Languedoc<\/i>, t.\u00a0VI, <i>passim<\/i> et surtout pp.\u00a0683, 694\u00a0; \u2014 et aussi <span class=\"small-caps\">Ulysse Chevalier<\/span>, <i>Jean de Bernin<\/i>, dans <i>Revue de l\u2019Hist. de l\u2019\u00c9glise de France<\/i>, 1<sup>re<\/sup> ann\u00e9e, n<sup>os<\/sup>\u00a01 et 2.\n\n[Rouquette-Villemagne]"
        },
        {
            "type": "bibliographie_generale",
            "value": "Archives municipales de Montpellier, arm.\u00a0E, cass.\u00a05, n\u00b0\u00a02231 de l\u2019Inventaire <span class=\"small-caps\">Louvet<\/span>, publi\u00e9 par <span class=\"small-caps\">M.J. Berthel\u00e9<\/span>\u00a0; original sur parchemin\u00a0; sceau de plomb attach\u00e9 par des cordons de chanvre.",
            "children": {
                "numero_note": "0"
            }
        },
        {
            "type": "genre",
            "value": "Bulle"
        }
    ]
}