{
    "id": 149549,
    "name": "aposcripta-9112",
    "type": "acte",
    "url": "http:\/\/telma-chartes.irht.cnrs.fr\/aposcripta\/notice\/149549",
    "project_slug": "aposcripta",
    "project_label": "APOSCRIPTA \u2013 Lettres des papes",
    "user": "lettrespontificalesadmin",
    "last_update": "2020-10-19 16:40:00",
    "licence": "Attribution - Pas d\u2019Utilisation Commerciale - Partage dans les M\u00eames Conditions 3.0 France (CC BY-NC-SA 3.0 FR) ",
    "licence_url": "https:\/\/creativecommons.org\/licenses\/by-nc-sa\/3.0\/fr\/",
    "elements": [
        {
            "type": "pape",
            "value": "Innocent IV (1243-1254)"
        },
        {
            "type": "destinataire",
            "value": "Communitati civitatis Monasteriensis"
        },
        {
            "type": "date_libre",
            "value": "VI idus septembris, anno XII"
        },
        {
            "type": "date",
            "value": " 1254\/09\/08",
            "children": {
                "date_deb_annee": "1254",
                "date_deb_mois": "09",
                "date_deb_jour": "08"
            },
            "range": {
                "date_apres": 12540908,
                "date_avant": 12540908
            }
        },
        {
            "type": "date_lieu",
            "value": "Anagnie"
        },
        {
            "type": "sources_manuscrites",
            "value": "R. CIT\u00c9 DU VATICAN, Archivio Segreto Vaticano, <hi rend=\"italic\">Registra Vaticana<\/hi> ... Inn.\u00a0IV Reg. Vol.\u00a0III, 176; Lib.\u00a0XII, 225. Pertzii exemplar contulimus cum Regestis et cum editione, quam Finke, l. c. praebuit.",
            "children": {
                "type_source": "Registre de la chancellerie apostolique"
            }
        },
        {
            "type": "genre",
            "value": "Mandement (littere cum filo canapis)"
        },
        {
            "type": "analyse",
            "value": "Innocentius IV papa communitati civitatis Monasteriensis ad preces ipsius et [Ottonis] episcopi indulget, ut cives extra districtum civitatis per litteras apostolicas in iudicium evocari non possint [Rodenberg]."
        },
        {
            "type": "transcription",
            "value": "<?xml version=\"1.0\" encoding=\"UTF-8\"?>\nCommunitati civitatis Monasteriensis.Exigentibus vestre devotionis meritis etc. usque: exaudimus. Cum igitur, sicut ex parte vestra fuit propositum coram nobis, propter discrimina guerrarum et incursus predonum et hostium vobis ad partes remotas a civitate vestra absque personarum et rerum periculo accedere non sit tutum, nos, vestris ac venerabilis fratris nostri . . episcopi Monasteriensis devotis supplicationibus inclinati, quieti vestre in hac parte salubriter providere volentes, auctoritate vobis presentium indulgemus, ut extra districtum civitatis Monasteriensis non possitis communiter vel divisim durante huiusmodi discrimine per litteras apostolice sedis vel legatorum ipsius impetratas seu etiam impetrandas a quoquam in iudicium evocari, nisi dicte littere impetrande plenam et expressam fecerint de hac indulgentia mentionem. Nulli etc. nostre concessionis etc.Dat. Anagnie, VI Idus Septembris, anno XII.. . prepositus ecclesie Monasteriensis datus est super hiis conservator; \u2014 non obstante si aliquibus a sede apostolica sit indultum, quod interdici etc. usque: mentionem.\n"
        },
        {
            "type": "edition",
            "value": "Ici reprise de Karl Rodenberg, Epistolae s. XIII e regestis pontificum romanorum selectae, III, Berlin : Weidmann (MGH), 1894, n.\u00a0312, p.\u00a0282."
        },
        {
            "type": "edition_autre",
            "value": "?"
        },
        {
            "type": "regeste",
            "value": "?"
        },
        {
            "type": "bibliographie_generale",
            "value": "?"
        },
        {
            "type": "apparat_critique",
            "value": "?",
            "children": {
                "numero_note": "a"
            }
        },
        {
            "type": "apparat_critique",
            "value": "?",
            "children": {
                "numero_note": "b"
            }
        },
        {
            "type": "apparat_critique",
            "value": "?",
            "children": {
                "numero_note": "c"
            }
        },
        {
            "type": "apparat_critique",
            "value": "?",
            "children": {
                "numero_note": "d"
            }
        },
        {
            "type": "apparat_critique",
            "value": "?",
            "children": {
                "numero_note": "e"
            }
        },
        {
            "type": "apparat_critique",
            "value": "?",
            "children": {
                "numero_note": "f"
            }
        },
        {
            "type": "notes_historiques",
            "value": "?",
            "children": {
                "numero_note": "1"
            }
        },
        {
            "type": "notes_historiques",
            "value": "?",
            "children": {
                "numero_note": "2"
            }
        },
        {
            "type": "notes_historiques",
            "value": "?",
            "children": {
                "numero_note": "3"
            }
        }
    ]
}