{
    "id": 144375,
    "name": "aposcripta-5631",
    "type": "acte",
    "url": "http:\/\/telma-chartes.irht.cnrs.fr\/aposcripta\/notice\/144375",
    "project_slug": "aposcripta",
    "project_label": "APOSCRIPTA \u2013 Lettres des papes",
    "user": "j_theryastruc",
    "last_update": "2020-10-19 16:38:59",
    "licence": "Attribution - Pas d\u2019Utilisation Commerciale - Partage dans les M\u00eames Conditions 3.0 France (CC BY-NC-SA 3.0 FR) ",
    "licence_url": "https:\/\/creativecommons.org\/licenses\/by-nc-sa\/3.0\/fr\/",
    "elements": [
        {
            "type": "pape",
            "value": "Innocent IV (1243-1254)"
        },
        {
            "type": "destinataire",
            "value": "Le roi de France Louis IX"
        },
        {
            "type": "date_libre",
            "value": "XIX kalendas februarii, anno secundo"
        },
        {
            "type": "date",
            "value": "1245\/01\/14",
            "children": {
                "date_deb_annee": "1245",
                "date_deb_mois": "01",
                "date_deb_jour": "14"
            },
            "range": {
                "date_apres": 12450114,
                "date_avant": 12450114
            }
        },
        {
            "type": "date_lieu",
            "value": "Lyon"
        },
        {
            "type": "sources_manuscrites",
            "value": "E. FRANCE, Archives nationales... ? fac-simil\u00e9 sur le site Theleme de l'Ecole nationale des chartes, <a target=\"_blank\" href=\" http:\/\/theleme.enc.sorbonne.fr\/dossiers\/vue45.php \"> dossier n. 45<\/a>. ",
            "children": {
                "type_source": "Exp\u00e9dition"
            }
        },
        {
            "type": "edition",
            "value": "Ici reprise de l'\u00e9dition donn\u00e9e par Olivier Guyotjeannin et Benjamin Bober sur le site Theleme de l'Ecole nationale des chartes, <a target=\"_blank\" href=\" http:\/\/theleme.enc.sorbonne.fr\/dossiers\/transcription45.php \"> dossier n. 45<\/a>."
        },
        {
            "type": "regeste",
            "value": "Bernard Barbiche, Les actes pontificaux originaux des Archives nationales de Paris, t. I, Vatican, 1975 (Index actorum Romanorum pontificum, 1), n. 514, p. 198."
        },
        {
            "type": "transcription",
            "value": "<?xml version=\"1.0\" encoding=\"UTF-8\"?>\nInnocentius episcopus, servus servorum Dei, karissimo in Christo filio .. regi Francie illustri, salutem et apostolicam benedictionem. Propter veritatem, mansuetudinem et justitiam divinitus inspiratas que te pre regibus terre fecerunt excelsum, plenam de te in Domino fiduciam obtinentes, magnificentiam tuam ad ea que ministerium regie sublimitatis respiciunt precibus et monitis eo libentius et confidentius invitamus quo te carius amplexantes in visceribus Jesu Christi gratiam apud Deum et laudem apud homines exinde propensius te cupimus promereri. Cum igitur, sicut accepimus, nobilis vir .. senescalcus Belliquadri, balivus tuus, dilectos filios Johannem de Sangenes, Lanfrancum Spinolum, Simonem de S[tant]ion et Johannem Dalmatii, cives Januenses, ad Latiniacenses nundinas cum suis mercimoniis accedentes eisdem mercimoniis spoliarit, celsitudinem regiam rogandam duximus attentius et hortandam quatinus predictis civibus mercimonia ipsa pro apostolice Sedis et nostra reverentia restitui facias universa, preces nostras in hac parte taliter impleturus quod iidem eas sibi sentiant profuisse et nos excellentiam tuam proinde valeamus non immerito comme[n]dare. Datum Lugduni, XVIIII kalendas februarii, pontificatus nostri anno secundo.\n"
        },
        {
            "type": "traduction",
            "value": "Innocent \u00e9v\u00eaque, serviteur des serviteurs de Dieu, \u00e0 [notre] tr\u00e8s cher fils en Christ, l\u2019illustre roi de France, salut et b\u00e9n\u00e9diction apostolique. \nPour la v\u00e9rit\u00e9, la mansu\u00e9tude et la justice qui, d\u2019inspiration divine, t\u2019ont \u00e9lev\u00e9 par-dessus les autres rois de la terre, nous te portons dans le Seigneur une pleine confiance ; aussi nos pri\u00e8res et nos avertissements engagent-ils ta magnificence d\u2019autant plus volontiers, avec d\u2019autant plus de confiance \u00e0 se tourner vers ce qui regarde le minist\u00e8re de la sublimit\u00e9 royale que, te ch\u00e9rissant davantage dans les entrailles de J\u00e9sus Christ, nous sommes plus enclin \u00e0 souhaiter te voir m\u00e9riter gr\u00e2ce aupr\u00e8s de Dieu et louange aupr\u00e8s des hommes.\nComme donc, ainsi que nous l\u2019avons appris, noble homme le s\u00e9n\u00e9chal de Beaucaire, ton d\u00e9l\u00e9gu\u00e9, a d\u00e9pouill\u00e9 de leurs marchandises nos chers fils Giovanni di San Ginesio, Lanfranco Spinola, Simone di Stancone et Giovanni di Dalmazzo, citoyens de G\u00eanes, alors qu\u2019ils se rendaient avec lesdites marchandises aux foires de Lagny, nous avons estim\u00e9 n\u00e9cessaire d\u2019inviter tout sp\u00e9cialement et d\u2019exhorter ton altesse royale \u00e0 faire restituer aux susdits citoyens leurs marchandises, toutes, pour la r\u00e9v\u00e9rence du Si\u00e8ge apostolique et de nous, r\u00e9pondant si bien en cette affaire \u00e0 nos pri\u00e8res qu\u2019ils sentent quelles leur ont \u00e9t\u00e9 utiles et que ton excellence puisse s\u2019en attirer nos justes \u00e9loges. \nDonn\u00e9 \u00e0 Lyon, le 19 des calendes de f\u00e9vrier, l\u2019an deuxi\u00e8me de notre pontificat."
        },
        {
            "type": "traduction_source",
            "value": "Traduction donn\u00e9e par Olivier Guyotjeannin et Benjamin Bober sur le site Theleme de l'Ecole nationale des chartes, <a target=\"_blank\" href=\" http:\/\/theleme.enc.sorbonne.fr\/dossiers\/transcription45.php \"> dossier n. 45<\/a>."
        },
        {
            "type": "remarques",
            "value": "Commentaire diplomatique d'Olivier Guyotjeannin et Benjamin Bober sur le site Theleme de l'Ecole nationale des chartes, <a target=\"_blank\" href=\" http:\/\/theleme.enc.sorbonne.fr\/dossiers\/diplomatique45-1.php \"> dossier n. 45<\/a>.\nAbsente des registres (aucune lettre \u00e0 cette date)."
        },
        {
            "type": "analyse",
            "value": "Le pape Innocent [IV] prie le roi de France [Louis IX] de faire restituer aux marchands g\u00e9nois Giovanni di San Ginesio, Lanfranco Spinola, Simone di Stancone et Giovanni di Dalmazzo les marchandises qui leur avaient \u00e9t\u00e9 confisqu\u00e9es par le s\u00e9n\u00e9chal de Beaucaire alors qu\u2019ils se rendaient aux foires de Lagny."
        },
        {
            "type": "genre",
            "value": "Mandement (littere cum filo canapis)"
        }
    ]
}