{
    "id": 149478,
    "name": "aposcripta-9041",
    "type": "acte",
    "url": "http:\/\/telma-chartes.irht.cnrs.fr\/aposcripta\/notice\/149478",
    "project_slug": "aposcripta",
    "project_label": "APOSCRIPTA \u2013 Lettres des papes",
    "user": "lettrespontificalesadmin",
    "last_update": "2020-10-19 16:39:59",
    "licence": "Attribution - Pas d\u2019Utilisation Commerciale - Partage dans les M\u00eames Conditions 3.0 France (CC BY-NC-SA 3.0 FR) ",
    "licence_url": "https:\/\/creativecommons.org\/licenses\/by-nc-sa\/3.0\/fr\/",
    "elements": [
        {
            "type": "pape",
            "value": "Innocent IV (1243-1254)"
        },
        {
            "type": "destinataire",
            "value": ". . episcopo Sambiensi"
        },
        {
            "type": "date_libre",
            "value": "VIII kalendas martii, anno XI"
        },
        {
            "type": "date",
            "value": " 1254\/02\/22",
            "children": {
                "date_deb_annee": "1254",
                "date_deb_mois": "02",
                "date_deb_jour": "22"
            },
            "range": {
                "date_apres": 12540222,
                "date_avant": 12540222
            }
        },
        {
            "type": "date_lieu",
            "value": "Lateran."
        },
        {
            "type": "sources_manuscrites",
            "value": "R. CIT\u00c9 DU VATICAN, Archivio Segreto Vaticano, <hi rend=\"italic\">Registra Vaticana<\/hi> ... Inn.\u00a0IV Reg. Vol.\u00a0III, 63; Lib.\u00a0XI, 491. Pertzii exemplar contulimus cum Regestis.",
            "children": {
                "type_source": "Registre de la chancellerie apostolique"
            }
        },
        {
            "type": "genre",
            "value": "Mandement (littere cum filo canapis)"
        },
        {
            "type": "analyse",
            "value": "Innocentius IV papa eidem ad preces W[illelmi] regis Romanorum facultatem concedit dispensandi cum quinque hominibus Alamanniae, qui in subsidium regis crucem assumpserint, ut eorum quilibet mulierem sibi in quarto consanguinitatis vel affinitatis gradu attinentem matrimonialiter sibi possit copulare [Rodenberg]."
        },
        {
            "type": "transcription",
            "value": "<?xml version=\"1.0\" encoding=\"UTF-8\"?>\n. . episcopo Sambiensi.Ad hoc Deus in apostolica sede constituit plenitudinem ecclesiastice potestatis, ut Romanus pontifex, qui claves in beato Petro potestatis et discretionis accepit, nunc rigorem exerceat, nunc mansuetudinem anteponat, prudenter attendens non solum personas sed causas etiam, cum quibus etiam et ex quibus dispensare disponit, quia non est reputandum personis deferri, cum pro loco et tempore non privati sed publici comodi gratia quicquam aliquibus sine iuris iniuria indulgetur. Hinc est, quod nos, promotionem generalis negocii, super quo iamdiu in regno Alamannie per Romanam ecclesiam dinoscitur laboratum, et profectum carissimi in Christo filii nostri W. regis Romanorum illustris totis desideriis affectantes, ipsius regis supplicationibus inclinati, dispensandi cum V personis regni eiusdem, qui in ipsius regis subsidium assumpserint signum crucis, pro quibus id a te petierit rex prefatus, quod eorum quilibet attinentem sibi mulierem in quarto gradu consanguinitatis vel affinitatis sibi valeat matrimonialiter copulare \u2014 impedimento huiusmodi non obstante \u2014, prout id rationabilis causa suaserit, fraternitati tue liberam concedimus auctoritate presentium facultatem.Dat. Lateran., VIII Kalendas Martii, anno XI\u00b0.\n"
        },
        {
            "type": "edition",
            "value": "Ici reprise de Karl Rodenberg, Epistolae s. XIII e regestis pontificum romanorum selectae, III, Berlin : Weidmann (MGH), 1894, n.\u00a0261, p.\u00a0229."
        },
        {
            "type": "edition_autre",
            "value": "?"
        },
        {
            "type": "regeste",
            "value": "?"
        },
        {
            "type": "bibliographie_generale",
            "value": "?"
        },
        {
            "type": "apparat_critique",
            "value": "?",
            "children": {
                "numero_note": "a"
            }
        },
        {
            "type": "apparat_critique",
            "value": "?",
            "children": {
                "numero_note": "b"
            }
        },
        {
            "type": "apparat_critique",
            "value": "?",
            "children": {
                "numero_note": "c"
            }
        },
        {
            "type": "apparat_critique",
            "value": "?",
            "children": {
                "numero_note": "d"
            }
        },
        {
            "type": "apparat_critique",
            "value": "?",
            "children": {
                "numero_note": "e"
            }
        },
        {
            "type": "apparat_critique",
            "value": "?",
            "children": {
                "numero_note": "f"
            }
        },
        {
            "type": "notes_historiques",
            "value": "?",
            "children": {
                "numero_note": "1"
            }
        },
        {
            "type": "notes_historiques",
            "value": "?",
            "children": {
                "numero_note": "2"
            }
        },
        {
            "type": "notes_historiques",
            "value": "?",
            "children": {
                "numero_note": "3"
            }
        }
    ]
}