{
    "id": 149078,
    "name": "aposcripta-8644",
    "type": "acte",
    "url": "http:\/\/telma-chartes.irht.cnrs.fr\/aposcripta\/notice\/149078",
    "project_slug": "aposcripta",
    "project_label": "APOSCRIPTA \u2013 Lettres des papes",
    "user": "l_valliere",
    "last_update": "2020-10-19 16:39:53",
    "licence": "Attribution - Pas d\u2019Utilisation Commerciale - Partage dans les M\u00eames Conditions 3.0 France (CC BY-NC-SA 3.0 FR) ",
    "licence_url": "https:\/\/creativecommons.org\/licenses\/by-nc-sa\/3.0\/fr\/",
    "elements": [
        {
            "type": "pape",
            "value": "Cl\u00e9ment IV (1265-1268)"
        },
        {
            "type": "destinataire",
            "value": "L'ancien \u00e9v\u00eaque de Ratisbonne Albert"
        },
        {
            "type": "date_libre",
            "value": "XIV kalendas julii, anno quarto"
        },
        {
            "type": "date",
            "value": "1268\/06\/18",
            "children": {
                "date_deb_annee": "1268",
                "date_deb_mois": "06",
                "date_deb_jour": "18"
            },
            "range": {
                "date_apres": 12680618,
                "date_avant": 12680618
            }
        },
        {
            "type": "date_lieu",
            "value": "Viterbe"
        },
        {
            "type": "genre",
            "value": "Titre, g\u00e9n\u00e9ral (littere gratiose, cum filo serico)"
        },
        {
            "type": "analyse",
            "value": "Papst Clemens IV. beauftragt den fr\u00fcheren Bischof Albert von Regensburg, die Ehe des Konrad von Hohenlohe (<i>Hoinloch<\/i>) mit Bertildis f\u00fcr g\u00fcltig zu erkl\u00e4ren, obwohl diese mit Konrads erster Gemahlin Kunigunde im 4. Grade blutsverwandt ist. <i>Datum Viterbii, XIV kal. Julii, anno quarto. Attenta sedis apostolice<\/i> [Wirtembergische Urkundenbuch]. "
        },
        {
            "type": "sources_manuscrites",
            "value": "R. CIT\u00c9 DU VATICAN, Archivio segreto Vaticano, <i>Registra Vaticana<\/i> 32, n. 39, fol. 229.",
            "children": {
                "type_source": "Registre de la chancellerie apostolique"
            }
        },
        {
            "type": "regeste",
            "value": "<i>W\u00fcrttembergische Viertlejahrshefte f\u00fcr Landesgeschichte<\/i>, N.F. (1896), Nr. 56, S. 415 <a target=\"_blank\" href=\"https:\/\/www.mgh-bibliothek.de\/etc\/zeitschriftenmagazin\/WVLG_NF_05_1896.pdf\"> [en ligne]<\/a>."
        },
        {
            "type": "regeste",
            "value": "Potthast, <i>Regesta pontificum Romanorum<\/i>, n. 20397 <a target=\"_blank\" href=\"https:\/\/archive.org\/stream\/RegestaPontificumRomanorum\/ph#page\/n1657\/mode\/2up\"> [en ligne]<\/a>."
        },
        {
            "type": "regeste",
            "value": "\u00c9douard Jordan, <i>Les registres de Cl\u00e9ment IV (1265-1268)<\/i>, Paris, 1893-1945, n. 641, d\u2019apr\u00e8s R."
        },
        {
            "type": "transcription",
            "value": "<?xml version=\"1.0\" encoding=\"UTF-8\"?>\nAlberto quondam Ratisponensi episcopo... Attenta Sedis apostolice... Datum Viterbii, XIV kalendas julii, anno quarto.\n"
        },
        {
            "type": "regeste",
            "value": "<i>Wirtembergische Urkundenbuch<\/i>, XII, Stuttgart, n. 5929 <a target=\"_blank\" href=\"http:\/\/www.wubonline.de\/?wub=2790\"> [en ligne]<\/a>."
        }
    ]
}