{
    "id": 148773,
    "name": "aposcripta-8343",
    "type": "acte",
    "url": "http:\/\/telma-chartes.irht.cnrs.fr\/aposcripta\/notice\/148773",
    "project_slug": "aposcripta",
    "project_label": "APOSCRIPTA \u2013 Lettres des papes",
    "user": "lettrespontificalesadmin",
    "last_update": "2020-10-19 16:39:49",
    "licence": "Attribution - Pas d\u2019Utilisation Commerciale - Partage dans les M\u00eames Conditions 3.0 France (CC BY-NC-SA 3.0 FR) ",
    "licence_url": "https:\/\/creativecommons.org\/licenses\/by-nc-sa\/3.0\/fr\/",
    "elements": [
        {
            "type": "pape",
            "value": "Alexandre III (1159-1181)"
        },
        {
            "type": "destinataire",
            "value": "Le prieur de la chartreuse de Portes, St\u00e9phane, et les autres fr\u00e8res de la communaut\u00e9"
        },
        {
            "type": "date_libre",
            "value": "VI kalendas maii, indictione IIII, Incarnationis dominice M\u00b0 C\u00b0 LXX\u00b0 I\u00b0, anno duodecimo"
        },
        {
            "type": "date",
            "value": " 1171\/04\/26",
            "children": {
                "date_deb_annee": "1171",
                "date_deb_mois": "04",
                "date_deb_jour": "26"
            },
            "range": {
                "date_apres": 11710426,
                "date_avant": 11710426
            }
        },
        {
            "type": "date_lieu",
            "value": "Tusculan"
        },
        {
            "type": "genre",
            "value": "Mandement (littere cum filo canapis)"
        },
        {
            "type": "analyse",
            "value": "Confirmation par le pape Alexandre III des possessions de la chartreuse de Portes, et des accords faits par les chartreux avec les chanoines de Saint-Ruf et les religieux de Saint-Sulpice."
        },
        {
            "type": "sources_manuscrites",
            "value": "Archives de l\u2019Ain. \u2014 Titres de Portes.",
            "children": {
                "type_source": "Original"
            }
        },
        {
            "type": "edition",
            "value": "Ici reprise de Marie-Claude Guigue, <i>Cartulaire lyonnais<\/i>, Lyon : Association typographique, I, 1885, I, n. 43, p. 64-65."
        },
        {
            "type": "transcription",
            "value": "<?xml version=\"1.0\" encoding=\"UTF-8\"?>\n Alexander, episcopus, servus servorum Dei, dilectis filio Stephano, priori Portarum, ejusque fratribus tam presentibus quam futuris regularem vitam professis in perpetuum.  Quoniam sine cultu vere religionis nec caritatis unitas potest subsistere nec Deo gratum exhiberi servitium, expedit apostolice auctoritati religiosas personas diligere et eorum loca pia protectione munire.  Eapropter, dilecti in domino filii, vestris justis postulationibus clementer annuimus et, ad exemplar patris et predecessoris nostri sancte recordationis Eugenii pape, locum vestrum in quo divino estis obsequio mancipati sub beati Petri et nostra protectione suscepimus et presentis scripti privilegio communimus. In primis si quidem statuentes ut ordo monasticus, qui secundum Deum et beati Benedicti regulam et institutionem Cartusiensium fratrum in eodem loco institutus esse dinoscitur, perpetuis ibidem temporibus inviolabiliter observetur. Preterea quascumque possessiones, quecumque bona in presentiarum intra terminos vestros juste et canonice possidetis aut in futurum rationabilibus modis, Deo propitio, poteritis adipisci firma vobis vestrisque successoribus illibata permaneant. Eosdem vero terminos propriis vocabulis duximus exprimendos : chiminum Romanum, Ordinatum, Morniam, Arenarium de Benuntia, montem Varelli, Filigiarium, Fontem Gurtatis, montem Espinacii, calmum de Ars, Calnantum. Paci quoque et tranquillitati vestre paterno affectu providere volentes, prohibemus ut sicut extra terminos juxta cartusiensem propositum vobis designatos, omnem licentiam acquirendi vel possidendi quamlibet immobilem possessionem vobis et posteris vestris penitus amputastis, ita nulli ecclesiastice secularive persone, nisi vobis licentia pateat, infra eosdem terminos immobile quicquam modo quolibet acquirere. Pactum vero vel conventionem que inter vos et canonicos Sancti Rufi per Falconem bone memorie, Lugdunensem archiepiscopum, Guillelmum, Bellicensem episcopum, et Ismionem, Ambronacensem abbatem, rationabiliter facta est et scripto eorum firmata, Sedis apostolice auctoritate firmamus. Concordiam que inter vos et fratres Sancti Sulpicii ab Hugone, quondam Autisiodorense episcopo, tunc Pontiniacensi abbate, pacis intuitu rationabiliter facta est, ratam manere sancimus. Nichilominus etiam ea que per commutationem vel comcambium a Bosone de Briort juste comparastis, necnon et ea que a Riccardo de Benuntia et a cognatis ejus Petro et Nantelmo partim emptione partim donatione acquisivistis, vobis presenti pagina roboramus. Preterea auctoritate apostolica prohibemus ne aliquis infra terminos vestros in prediis et pascuis que ad vestram heremum pertinent, contra voluntatem vestram agriculturam exercere, pastoratum vel predatum ire, injuriam seu violentiam cuiquam facere aut predam ducere aliqua ratione presumat. Ad hec adicientes, statuentes ne cuiquam ecclesiastice secularive persone liceat quemlibet fratrum vestrorum in cellis habitantium, qui sub priore sunt, gratia ratiocinii seu judicii vel cujuslibet negotii, obtentu privilegii vel dignitatis, extra vestros terminos evocare, sed sicut in arce solitudinis elegistis divine contemplationi vacare, ita juxta vestrum votum et propositum sitis a tumultibus populorum immunes, a priore vestro corrigendi, si correctione aliquando esueritis.  Decernimus ergo ut nulli omnino hominum liceat prefatum locum vestrum temere pertubare, aut ejus possessiones auferre, vel ablatas retinere, minuere, seu quibuslibet vexationibus fatigare, sed omnia integra conserventur eorum pro quorum gubernatione ac sustentatione concessa sunt usibus omnimodis profutura, salva...... Sedis apostolice auctoritate. Si qua igitur in futurum ecclesiastica secularisve persona hanc nostre constitutionis paginam sciens contra eam temere venire temptaverit, secundo tertiove commonita, nisi reatum suum digna satisfactione correxerit, potestatis honorisque sui dignitate careat, reamque se divino judicio existere de perpetrata iniquitate cognoscat, et a sacratissimo corpore ac sanguine Dei et domini redemptoris nostri Jhesu Christi aliena fiat, atque in extremo examine districte ultioni subjaceat ; cunctis autem eidem loco sua vestra servantibus sit pax domini nostri Jhesu Christi, quatinus et hic fructum bone actionis percipiant et apud districtum judicem premia eterne pacis inveniant. Amen. Amen. Amen.  (Locus rot\u00e6.) (Locus signi.) Ego Alexander, catholice Sedis episcopus, subscripsi. \u2020 Ego Johannes, presbiter cardinalis Sanctorum Johannis et Pauli tituli Lamachii, subscripsi. \u2020 Ego Ildebrandus, basilice XII apostolorum presbiter cardinalis, subscripsi. \u2020 Ego Johannes, presbiter cardinalis Sancte Anastasie, subscripsi. \u2020 Ego Albertus, presbiter cardinalis tituli Sancti Laurentii in Lucina, subscripsi. \u2020 Ego Guillelmus, tituli Sancti Petri ad vincula presbiter cardinalis, subscripsi. \u2020 Ego Hubaldus, Ostiensis episcopus, subscripsi. \u2020 Ego Bernardus, Port... et Sancte Rufine episcopus, subscripsi. \u2020 Ego Odo, Tuscul. episcopus, subscripsi. \u2020 Ego Jacmetus, diaconus cardinalis Sancte Marie in Cosmydon, subscripsi. \u2020 Ego Ardicio, diaconus cardinalis Sancti Theodori, subscripsi. \u2020 Ego Manfredus, diaconus cardinalis Sancti Georgii ad velum aureum, subscripsi. \u2020 Ego Hugo, diaconus cardinalis Sancti Eustachii juxta templum Agrippe, subscripsi. Datum Tusculan. per manum Gratiani, Sancte Romane ecclesie subdiaconi et notarii, VI kalendas maii, indictione IIII, Incarnationis dominice M\u00b0 C\u00b0 LXX\u00b0 I\u00b0, pontificatus vero domni Alexandri pape III anno duodecimo.\n"
        }
    ]
}