{
    "id": 148611,
    "name": "aposcripta-8212",
    "type": "acte",
    "url": "http:\/\/telma-chartes.irht.cnrs.fr\/aposcripta\/notice\/148611",
    "project_slug": "aposcripta",
    "project_label": "APOSCRIPTA \u2013 Lettres des papes",
    "user": "D_Giraud",
    "last_update": "2020-10-19 16:39:47",
    "licence": "Attribution - Pas d\u2019Utilisation Commerciale - Partage dans les M\u00eames Conditions 3.0 France (CC BY-NC-SA 3.0 FR) ",
    "licence_url": "https:\/\/creativecommons.org\/licenses\/by-nc-sa\/3.0\/fr\/",
    "elements": [
        {
            "type": "pape",
            "value": "Gr\u00e9goire IX (1227-1241)"
        },
        {
            "type": "destinataire",
            "value": "Le ma\u00eetre et les fr\u00e8res de la chevalerie de l'ordre de Saint Jacques"
        },
        {
            "type": "date",
            "value": "1230\/04\/30",
            "children": {
                "date_deb_annee": "1230",
                "date_deb_mois": "04",
                "date_deb_jour": "30"
            },
            "range": {
                "date_apres": 12300430,
                "date_avant": 12300430
            }
        },
        {
            "type": "date_lieu",
            "value": "Latran"
        },
        {
            "type": "genre",
            "value": "Privil\u00e8ge solennel"
        },
        {
            "type": "analyse",
            "value": "Gregorio IX conferma l\u2019istituzione della milizia di San Giacomo in Guascogna per la difesa della fede, nata per volont\u00e0 dell\u2019arcivescovo di Auch, e pone tutti i membri e i beni dell\u2019Ordine sotto la protezione apostolica [Sala]."
        },
        {
            "type": "sources_manuscrites",
            "value": "R. CIT\u00c9 DU VATICAN, Archivio segreto Vaticano, <i>Registra Vaticana<\/i>  15, V, n. 167, fol. 147v-148.",
            "children": {
                "type_source": "Registre de la chancellerie apostolique"
            }
        },
        {
            "type": "edition",
            "value": "Ici reprise d'Alessandro Sala, <i>Lo sviluppo dell'<\/i>inquisitio haereticae pravitatis<i> nelle lettere di Gregorio IX (1227-1241)<\/i>, th\u00e8se de doctorat, Universit\u00e0 degli studi di Milano, 2015-2016, 2 vol., II, n. 9, p. 17-19."
        },
        {
            "type": "edition_autre",
            "value": "<i>Gallia christiana<\/i>, I, p. 165-166 (datato 30 aprile 1231).\n"
        },
        {
            "type": "edition_autre",
            "value": "(Partielle) Lucien Auvray, <i>Les registres de Gr\u00e9goire IX<\/i>, Paris, 1890-1955, n. 753."
        },
        {
            "type": "regeste",
            "value": "Potthast, <i>Regesta pontificum Romanorum<\/i>, n.  8534 <a target=\"_blank\" href=\"https:\/\/archive.org\/stream\/RegestaPontificumRomanorum\/ph#page\/n745\/mode\/2up\"> [en ligne]<\/a>."
        },
        {
            "type": "transcription",
            "value": "<?xml version=\"1.0\" encoding=\"UTF-8\"?>\nMagistro militie ordinis Sancti Iacobi eiusque fratribus tam presentibus quam futuribus, ad defensionem fidei in Guascon[ia] constitutis regularem vita professis, in perpetuum.  Pia vota fidelium divinitus inspirata modis, quibus possumus iuvare nos iuvat, cupientes ut vigore continuo convalescant que divine sunt placita pietati, quia licet Omnipotens omnia secundum sue voluntatis consilium operetur, placet sibi tamen humane cooperationis affectus, cui nil posset adici vel adimi per effectum et tunc officiose officium iniuncte nobis servitutis exequimur, cum sequentes gratiam preeuntem beneplacitum eius obsequio prosequimur studiose. Sane gaudemus in Domino quod, eo misericorditer inspirante, abnegantes salubriter vosmet ipsos, salutaribus exhortationibus venerabilium fratrum nostrorum Amanei, Auxitani archiepiscopi, et suffraganeorum eius, moniti et inducti ad defensionem fidei et pacis custodiam, vos Christi constituistis athletas, pro illo vestras animas posituri, qui pro se positas in vitam custodit eternam. Cum enim in Auxitana provincia usque adeo multiplicata esset superborum iniquitas et superbia iniquorum quod, veritate obruta in plateis et iustitia profligata, pax omnino perisset, ita ut qui a malo recederent perverosorum prede paterent et qui seviret immanius magnificentior haberetur, vos fidei et pacis zelo succensi ad utriusque defensionem Dei armatura muniti, contra inimicos pacis et fidei statuistis laudabiliter dimicare, ordinem fratrum Militie Sancti Iacobi, a Sede apostolica approbatum, fere in omnibus servaturi. Eapropter, dilecti in Domino filii, vestris supplicationibus inclinati, personas vestras et loca in quibus estis divinis obsequiis mancipati, cum omnibus bonis et cetera usque presentis scripti privilegio communimus; in quibus hec propriis duximus vocabulis exprimenda loca ipsa cum omnibus pertinentiis suis : de Mancid et de Demul castra, cum omnibus iuribus et pertinentiis suis, exceptis homagiis militum et quibusdam aliis, prout in instrumento donationis vicecomitis Bearnensis et Gavarreti plenius contineri ; Iuliacum, Caliniacium Autainan, Samaran, Boussen et Essgarragad, cum omnibus iuribus et pertinentiis suis ; terram quam Bernardus de Marestan et R., frater suus, ac Willelmus Fabri, nepos eorumdem, habebant apud boscos iuxta Albinetum; domum et terras quas Willlelmus de Fonssaria et .. uxor eius habebant apud Rimbes iuxta \/c. 148r\/ Gavarretum ; Bonseoz cum omnibus pertinentiis suis. In diocesi Convenarum : castrum Sancti Marcelli, cum omnibus iuribus et pertinentiis suis; montem Rotundum, cum omnibus iuribus et pertinentiis suis ; Alanum, cum omnibus iuribus et pertinentiis suis ; montem Bernardum; montem Exquivi ; Laucotera ; Sanctum Ferriolum, cum omnibus iuribus et pertinentiis suis. In episcopatu Bigorritano : castrum de Momi, cum terris et pertinentiis suis ; Marcelan, cum omnibus iuribus et pertinentiis suis. In diocesi Lascurrensi : castrum de Garos, cum omnibus iuribus et pertinentiis suis, exceptis homagiis militum et quibusdam aliis, prout in instrumento donationis vicecomitis Bearnensis et Gavarreti plenius dicitur contineri; montem Calvum, cum omnibus iuribus et pertinentiis suis. In episcopatu Aquensi : hospitale Sancti Iacobi de Fores, cum pertinentiis suis; plateam infra muros iuxta domum episcopi ; domum et totam hereditatem Girardi de Candressa ; Prugo et totam hereditatem Arnaldi de Prugo, ubicumque sit ; castrum de Talamon, cum omnibus iuribus et pertinentiis suis; medietatem decime de Stivals ; castrum de Polenes, cum omnibus iuribus et pertinentiis suis; ecclesiam et terram de Laqui ; domum Willelmi Raimundi de Lasseres et quicquid habuit ad Pui et ad Pontons. In diocesi Baionensi : hospitale de Bonoloco, cum pertinentiis suis. In episcopatu Adurensi : castrum Sancti Savini, cum omnibus iuribus et pertinentiis suis. In diocesi Tholosana : hospitale de Ambon, cum omnibus pertinentiis suis ; castrum de Scornabin, cum omnibus iuribus et pertinentiis suis ; quartam partem castri et omnium iurum Sancti Iohannis de Pogia. Sane novalium vestrorum et cetera usque exigere vel extorquere presumat. Liceat quoque vobis clericos vel laicos et cetera usque contradictione aliqua retinere. Prohibemus insuper ut nulli fratrum vestrorum et cetera usque nisi arctioris religionis obtentu et cetera usque nullus audeat retinere. Cum autem generale interdictum et cetera usque dummodo causam non dederitis interdicto. Obeunte vero te, fili magister, vel tuorum quolibet successorum, nullus nisi miles ordini preponatur, quia vestre religionis habitum sit professus et ab omnibus vel a maiori et saniori parte fratrum ordinis eligatur. Electus autem Auxitano archiepiscopo presentetur ut, si fuerit repertus idoneus, prestito iuramento, quod ei et suffraganeis eius erit fidelis, obediens et devotus, sine difficultate qualibet institutionis et confirmationis munus recipiat ab eodem. Paci quoque et tranquillitati vestre et cetera usque audeat exercere. Decernimus ergo et cetera usque salva Sedis apostolice auctoritate ac diocesanorum episcoporum canonica iustitia. Si qua igitur in futurum et cetera usque districte subiaceat ultioni. Cunctis autem eiusdem et cetera usque eterne pacis inveniant. Amen. Datum Laterani per manum Martini, sancte romane Ecclesie vicecancellarii XII kalendas maii, indictione II, incarnationis dominice anno MoCCoXXXo, pontificatus vero domini Gregorii pape VIIII anno quarto.\n"
        },
        {
            "type": "remarques",
            "value": "Il documento riporta erroneamente l\u2019indizione II invece della III."
        },
        {
            "type": "date_libre",
            "value": "XII kalendas maii, indictione II, MCCXXX, anno quarto "
        },
        {
            "type": "apparat_critique",
            "value": "q <i>corretta su altra lettera<\/i>.",
            "children": {
                "numero_note": "a"
            }
        },
        {
            "type": "edition_autre",
            "value": "Santiago Dom\u00ednguez S\u00e1nchez, <i>Documentos de Gregorio IX referentes a Espa\u00f1a<\/i>, Le\u00f3n, Universidad de Le\u00f3n Secredariado Publicaciones, 2004, n. 145."
        }
    ]
}