{
    "id": 148716,
    "name": "aposcripta-8295",
    "type": "acte",
    "url": "http:\/\/telma-chartes.irht.cnrs.fr\/aposcripta\/notice\/148716",
    "project_slug": "aposcripta",
    "project_label": "APOSCRIPTA \u2013 Lettres des papes",
    "user": "l_valliere",
    "last_update": "2020-10-19 16:39:48",
    "licence": "Attribution - Pas d\u2019Utilisation Commerciale - Partage dans les M\u00eames Conditions 3.0 France (CC BY-NC-SA 3.0 FR) ",
    "licence_url": "https:\/\/creativecommons.org\/licenses\/by-nc-sa\/3.0\/fr\/",
    "elements": [
        {
            "type": "pape",
            "value": "Alexandre III (1159-1181)"
        },
        {
            "type": "destinataire",
            "value": "Le roi de France Louis VII"
        },
        {
            "type": "date_libre",
            "value": "III idus januarii"
        },
        {
            "type": "date",
            "value": "1163\/01\/11",
            "children": {
                "date_deb_annee": "1163",
                "date_deb_mois": "01",
                "date_deb_jour": "11"
            },
            "range": {
                "date_apres": 11630111,
                "date_avant": 11630111
            }
        },
        {
            "type": "date_lieu",
            "value": "Tours"
        },
        {
            "type": "genre",
            "value": "Lettre, g\u00e9n\u00e9ral (avant 1198)"
        },
        {
            "type": "analyse",
            "value": "Brief van paus Alexander III aan Lodewijk VII, koning van Frankrijk, over ketters uit Vlaanderen. \u2014 De paus zegt met genoegen den brief van den koning te hebben ontvangen, waarin deze laatste hem spreekt over personen, die in Vlaanderen van ketterij beticht zijn. Eenigen dezer hebben zich met brieven bij den paus begeven, bewerende vrij van alle ketterij te zijn. Dan heeft de paus ze v\u00f3\u00f3r de rechtbank van den aartsbisschop van Reims willen zenden, hetgeen zij weigerden te doen, verzoekende om door den paus zelven te worden gevonnist. Dat wil de paus niet doen, aleer hij den raad van den koning, van den aartsbisschop en van andere kerkprelaten daarover heeft ingewonnen. Vooral den koning wil de paus altijd in alles vereeren [Fredericq]. "
        },
        {
            "type": "edition",
            "value": "Ici reprise de Paul Fredericq, <i>Corpus documentorum inquisitionis haereticae pravitatis Neerlandicae<\/i>, Gand, 5 vol., 1889-1906, I, n. 38, p. 38-39 <a target=\"_blank\" href= \" https:\/\/archive.org\/details\/MN5018_01ucmf_0\/page\/n87\/mode\/2up\"> [en ligne]<\/a>, d'apr\u00e8s Mart\u00e8ne, Durand."
        },
        {
            "type": "edition_autre",
            "value": "Edmond Mart\u00e8ne, Ursin Durand, <i> Veterum scriptorum et monumentorum moralium, historicorum, dogmaticorum, moralium, amplissima collectio<\/i>, 8 vol., Paris, 1724, t. II, col. 684 <a target=\"_blank\" href= \" https:\/\/gallica.bnf.fr\/ark:\/12148\/bpt6k681906\/f450.image\"> [en ligne]<\/a>. "
        },
        {
            "type": "regeste",
            "value": "Jaff\u00e9-Loewenfeld, <i>Regesta pontificum Romanorum<\/i>, 2 vol., Leipzig, 1885-1888, II, n. 10809 <a target=\"_blank\" href=\" https:\/\/archive.org\/details\/regestapontificu02cath\/page\/164\/mode\/2up\"> [en ligne]<\/a>."
        },
        {
            "type": "transcription",
            "value": "<?xml version=\"1.0\" encoding=\"UTF-8\"?>\nAlexander episcopus, servus servorum Dei, carissimo in Christo filio Ludovico, illustri Francorum regi, salutem et apostolicam benedictionem. Litteras super negotio illorum qui in Flandriae partibus haeresis arguuntur a tua nobis celsitudine destinatas debita benignitate suscepimus, et earum tenore diligenter inspecto, id excellentiae tuae duximus intimandum, quod, cum quidam ex illis cura pluribus litteris nostro se conspectui praesentassent, asserentes se penitus totius haereticae pravitatis immunes, eos ad judicium venerabilis fratris nostri Henrici, Remensis archiepiscopi, cum nostris voluimus litteris destinare. Illis tamen ad eum ire nolentibus, duo ex ipsis absque litteris recesserunt et apud nos usque modo remanserunt nolentes aliqua ratione reverti, sed potius a nobis justo judicio judicari. Nos tamen, quibus in proposito semper et voluntate consistit consilium tuum in omnibus quae cum Deo ac justitia possumus exsequi, nulla ratione illos voluimus audire nec aliquatenus audiemus, donec super hoc tam tuum quam praedicti archiepiscopi atque aliorum religiosorum virorum consilium plenius habeamus. Voluntatis enim et propositi nostri est in omnibus prout diximus consilium tuae sublimitatis admittere, honori et exaltationi tuae studiosa sollicitudine vigilanter intendere teque sicut carissimum filium et praecipuum prius dominum Ecclesiae defensorem exaudire propensus et in omnibus honorare. Datum Turon., III idus januarii.\n"
        }
    ]
}