{
    "id": 20916,
    "name": "aposcripta-903",
    "type": "acte",
    "url": "http:\/\/telma-chartes.irht.cnrs.fr\/aposcripta\/notice\/20916",
    "project_slug": "aposcripta",
    "project_label": "APOSCRIPTA \u2013 Lettres des papes",
    "user": "lettrespontificalesadmin",
    "last_update": "2020-10-19 16:26:54",
    "licence": "Attribution - Pas d\u2019Utilisation Commerciale - Partage dans les M\u00eames Conditions 3.0 France (CC BY-NC-SA 3.0 FR) ",
    "licence_url": "https:\/\/creativecommons.org\/licenses\/by-nc-sa\/3.0\/fr\/",
    "elements": [
        {
            "type": "pape",
            "value": "C\u00e9lestin III (1191-1198)"
        },
        {
            "type": "date_lieu",
            "value": "n.c."
        },
        {
            "type": "date_libre",
            "value": "1193 Mai 8"
        },
        {
            "type": "analyse",
            "value": "Coelestinus\u00a0III archiepiscopo et capitulo Coloniensi mandat, cogant canonicos Leodienses ad solvendam pecuniam, a mercatoribus Duacensibus A. quondam eorum episcopo, tunc electo, creditam."
        },
        {
            "type": "transcription",
            "value": "<?xml version=\"1.0\" encoding=\"UTF-8\"?>\nCelestinus episcopus servus servorum Dei venerabili fratri archiepiscopo1 2 3 et dilectis filiis capitulo Coloniensi salutem et apostolicam benedictionem. Cum bonae memoriae A(lbertus) quondam episcopus, tunc electus, Leodiensis ad apostolicam sedem accessisset ............ et Iohanne Languesecus mercatoribus Duacensibusb ducentas quadraginta marcas boni argenti, tredecim sol(idis) quatuor denariis legalium sterlingorum computatis per marcam, mutuo pro negociis suis accepit, pro quibus venerabiles fratres nostri Iohannes Penestrinusc et Iohannes Tuscanensis episcopi, tituli sancti Clementis cardinalis, se fideiussores, sicut apparet ex instrumento publico, statuerunt. Unde quoniam praefati mercatores nondum ex integro creditam pecuniam receperunt, nos indignum penitus estimantes, ut idem fratres nostri vel mercatores ipsi ex eo iacturam sustineant, unde videntur potius gratiam meruisse, dilectis filiis nostris capitulo et canonicis Leodiensibus per apostolica scripta mandamus et sub officii beneficiique pena nec non excommunicationis in personas ipsorum et generalis interdicti per totam Leodiensem diocesim districte praecipimus, ut praefatum debitum infra viginti dies post susceptionem litterarum nostrarum de redditibus episcopalibus iam dictis mercatoribus vel alteri eorum iam dictam pecuniam et pro laboribus et expensis, pro singulis decem marcis unam, apud Duacum sine aliqua dilatione persolvant. Et si forte illi redditus sufficientes nequaquam extiterunt, collectas per totius episcopatus abbatias, prioratus, capellas et ceteras conventuales quam nonconventuales ecclesias faciant et debitum ipsum in praedicto loco, sicut idem Leodiensis fa(cere iuramento prae)stito tenebatur, persolvant. Mandamus itaque vobis et in obedientiae virtute praecipimus, quatinus praedictos capitulum et canonicos Leodienses ad faciendum quod scribimus poena praedicta districte sublato appellationis obstaculo cogere minime postponatis, nullis litteris obstantibus, si quae sunt vel fuerint a sede apostolica impetratae. Datum Laterani VIII Idus Maii, pontificatus nostri anno tertio.\n"
        },
        {
            "type": "edition",
            "value": "Samuel Loewenfeld, <i>Epistolae pontificum romanorum ineditae<\/i>, Leipzig : Veit et Comp., 1885, n. 404, p. 250"
        },
        {
            "type": "sources_manuscrites",
            "value": "Bibl. nat. Paris. Coll. Moreau 1231. fol.\u00a082. manu s.\u00a0<span class=\"smal-caps\">xviii<\/span>.<a class=\"app\" href=\"#app-a\">a<\/a>"
        },
        {
            "type": "notes_historiques",
            "value": "Petri.",
            "children": {
                "numero_note": "1"
            }
        },
        {
            "type": "apparat_critique",
            "value": "<i>\u201eEx membr. in Arch. Arcis S. Angeli.\u201c<\/i>",
            "children": {
                "numero_note": "a"
            }
        },
        {
            "type": "apparat_critique",
            "value": "<i>Locum hunc depravatum emendare ausus non sum.<\/i>",
            "children": {
                "numero_note": "B"
            }
        },
        {
            "type": "apparat_critique",
            "value": "<i>sic cod.<\/i>",
            "children": {
                "numero_note": "c"
            }
        },
        {
            "type": "date",
            "value": "1193\/05\/08",
            "children": {
                "date_deb_annee": "1193",
                "date_deb_mois": "05",
                "date_deb_jour": "08"
            },
            "range": {
                "date_apres": 11930508,
                "date_avant": 11930508
            }
        },
        {
            "type": "genre",
            "value": "Bulle"
        }
    ]
}