{
    "id": 149343,
    "name": "aposcripta-8906",
    "type": "acte",
    "url": "http:\/\/telma-chartes.irht.cnrs.fr\/aposcripta\/notice\/149343",
    "project_slug": "aposcripta",
    "project_label": "APOSCRIPTA \u2013 Lettres des papes",
    "user": "lettrespontificalesadmin",
    "last_update": "2020-10-19 16:39:57",
    "licence": "Attribution - Pas d\u2019Utilisation Commerciale - Partage dans les M\u00eames Conditions 3.0 France (CC BY-NC-SA 3.0 FR) ",
    "licence_url": "https:\/\/creativecommons.org\/licenses\/by-nc-sa\/3.0\/fr\/",
    "elements": [
        {
            "type": "pape",
            "value": "Innocent IV (1243-1254)"
        },
        {
            "type": "destinataire",
            "value": "Conrado scolastico Argentinensi"
        },
        {
            "type": "date_libre",
            "value": "IX kalendas augusti, anno X"
        },
        {
            "type": "date",
            "value": " 1252\/07\/24",
            "children": {
                "date_deb_annee": "1252",
                "date_deb_mois": "07",
                "date_deb_jour": "24"
            },
            "range": {
                "date_apres": 12520724,
                "date_avant": 12520724
            }
        },
        {
            "type": "date_lieu",
            "value": "Perusii"
        },
        {
            "type": "sources_manuscrites",
            "value": "R. CIT\u00c9 DU VATICAN, Archivio Segreto Vaticano, <hi rend=\"italic\">Registra Vaticana<\/hi> ... Inn.\u00a0IV Reg. Vol.\u00a0II, 206; Lib.\u00a0X, 109. Exemplar nos inde descripsimus.",
            "children": {
                "type_source": "Registre de la chancellerie apostolique"
            }
        },
        {
            "type": "genre",
            "value": "Mandement (littere cum filo canapis)"
        },
        {
            "type": "analyse",
            "value": "Innocentius IV papa Conrado scolastico Argentinensi indulget, ut per processum de praepositura Argentinensi inter Gebehardum de Friburc capellanum papae et Walterum de Gerolseke canonicum Argentinensem habitum et sententiam promulgatam et confirmationem apostolicam subsecutam iuri, si quod ipse in eadem praepositura obtineat, praeiudicium non generetur [Rodenberg]."
        },
        {
            "type": "transcription",
            "value": "<?xml version=\"1.0\" encoding=\"UTF-8\"?>\nConrado scolastico Argentinensi.Ex parte tua fuit propositum coram nobis, quod cum olim pro te ac quibusdam aliis clericis super conferenda cuilibet vestrum prepositura sive personatu vel alia ecclesiastica dignitate in partibus Alamanie sub diversis formis ad diversos executores direxerimus scripta nostra, tandem ecclesie Argentinensis prepositura vacante, singuli vestrum per deputatos sibi executores preposituram eandem sibi fecere conferri. Verum Gebehardus frater nobilium virorum comitum de Friburch, capellanus noster, preposituram ipsam taliter sibi collatam credens se fuisse canonice assecutum, ac asserens Waltherum de Goroliseke canonicum Argentinensem, cui prepositura ipsa collata extitit, se non permittere ipsius prepositure pacifica possessione gaudere, ipsum ad nostram obtinuit presentiam evocari. Sed quia idem W. ab impetitione ipsius G. fuit auctoritate nostra per dilectum filium Andream nepotem et capellanum nostrum exigente iustitia sententialiter absolutus, et ob hoc ipse pro preposito Argentinensi se gerens asserit eandem preposituram canonice se adeptum, tu occasione huiusmodi metuens iuri, quod in eadem prepositura te credis habere, cum de ipso discussum non fuerit, preiudicium generari, petiisti tibi super hoc a nobis paterno remedio precaveri. Licet igitur res inter alios acta alii regulariter non preiudicet, tuis tamen precibus inclinati, quod per processum inter predictos G. et W. habitum et sententiam promulgatam seu confirmationem apostolicam ut dicitur subsecutam, sive quod ius tuum super hoc hactenus prosequi distulisti, nullum tibi in iure, si quod in eadem prepositura obtines, preiudicium generetur, auctoritate tibi presentium indulgemus. Nulli ergo \u2014 nostre concessionis \u2014.Dat. Perusii, IX Kalendas Augusti, anno X\u00b0.\n"
        },
        {
            "type": "edition",
            "value": "Ici reprise de Karl Rodenberg, Epistolae s. XIII e regestis pontificum romanorum selectae, III, Berlin : Weidmann (MGH), 1894, n.\u00a0149, p.\u00a0129."
        },
        {
            "type": "edition_autre",
            "value": "?"
        },
        {
            "type": "regeste",
            "value": "?"
        },
        {
            "type": "bibliographie_generale",
            "value": "?"
        },
        {
            "type": "apparat_critique",
            "value": "?",
            "children": {
                "numero_note": "a"
            }
        },
        {
            "type": "apparat_critique",
            "value": "?",
            "children": {
                "numero_note": "b"
            }
        },
        {
            "type": "apparat_critique",
            "value": "?",
            "children": {
                "numero_note": "c"
            }
        },
        {
            "type": "apparat_critique",
            "value": "?",
            "children": {
                "numero_note": "d"
            }
        },
        {
            "type": "apparat_critique",
            "value": "?",
            "children": {
                "numero_note": "e"
            }
        },
        {
            "type": "apparat_critique",
            "value": "?",
            "children": {
                "numero_note": "f"
            }
        },
        {
            "type": "notes_historiques",
            "value": "?",
            "children": {
                "numero_note": "1"
            }
        },
        {
            "type": "notes_historiques",
            "value": "?",
            "children": {
                "numero_note": "2"
            }
        },
        {
            "type": "notes_historiques",
            "value": "?",
            "children": {
                "numero_note": "3"
            }
        }
    ]
}