{
    "id": 20678,
    "name": "aposcripta-665",
    "type": "acte",
    "url": "http:\/\/telma-chartes.irht.cnrs.fr\/aposcripta\/notice\/20678",
    "project_slug": "aposcripta",
    "project_label": "APOSCRIPTA \u2013 Lettres des papes",
    "user": "lettrespontificalesadmin",
    "last_update": "2020-10-19 16:26:52",
    "licence": "Attribution - Pas d\u2019Utilisation Commerciale - Partage dans les M\u00eames Conditions 3.0 France (CC BY-NC-SA 3.0 FR) ",
    "licence_url": "https:\/\/creativecommons.org\/licenses\/by-nc-sa\/3.0\/fr\/",
    "elements": [
        {
            "type": "pape",
            "value": "Honorius II (1124-1130)"
        },
        {
            "type": "date_lieu",
            "value": "n.c."
        },
        {
            "type": "date_libre",
            "value": "1127 Apr 6"
        },
        {
            "type": "analyse",
            "value": "Honorius\u00a0II Petro abbati Anianensi scribit, statuisse se, ut pro explendis damnis, cellae Gordanicensi illatis, ab abbate Casae-dei 50 solidi Melgorienses duobus terminis ei persolvantur."
        },
        {
            "type": "transcription",
            "value": "<?xml version=\"1.0\" encoding=\"UTF-8\"?>\nDatum Laterani VIII Idus Aprilis, incarnationis dominicae anno MCXXVII, pontificatus autem domni Honorii secundi papae anno III.\n"
        },
        {
            "type": "edition",
            "value": "Samuel Loewenfeld, <i>Epistolae pontificum romanorum ineditae<\/i>, Leipzig : Veit et Comp., 1885, n. 166, p. 83"
        },
        {
            "type": "sources_manuscrites",
            "value": "Bibl. nat. Paris. ms. lat.\u00a013816 s.\u00a0<span class=\"smal-caps\">xvii.<\/span> fol.\u00a076."
        },
        {
            "type": "notes_historiques",
            "value": "Stephanum.",
            "children": {
                "numero_note": "1"
            }
        },
        {
            "type": "notes_historiques",
            "value": "d. 29.\u00a0Sept.",
            "children": {
                "numero_note": "2"
            }
        },
        {
            "type": "date",
            "value": "1124\/04\/06",
            "children": {
                "date_deb_annee": "1124",
                "date_deb_mois": "04",
                "date_deb_jour": "06"
            },
            "range": {
                "date_apres": 11240406,
                "date_avant": 11240406
            }
        },
        {
            "type": "genre",
            "value": "Bulle"
        }
    ]
}