{
    "id": 148518,
    "name": "aposcripta-8126",
    "type": "acte",
    "url": "http:\/\/telma-chartes.irht.cnrs.fr\/aposcripta\/notice\/148518",
    "project_slug": "aposcripta",
    "project_label": "APOSCRIPTA \u2013 Lettres des papes",
    "user": "Y_Esther",
    "last_update": "2020-10-19 16:39:46",
    "licence": "Attribution - Pas d\u2019Utilisation Commerciale - Partage dans les M\u00eames Conditions 3.0 France (CC BY-NC-SA 3.0 FR) ",
    "licence_url": "https:\/\/creativecommons.org\/licenses\/by-nc-sa\/3.0\/fr\/",
    "elements": [
        {
            "type": "pape",
            "value": "Innocent XI (1676-1689)"
        },
        {
            "type": "destinataire",
            "value": "Fr\u00e8re Antoine-Martin Colbert, chevalier grand-croix de l'H\u00f4pital Saint-Jean de J\u00e9rusalem"
        },
        {
            "type": "date_libre",
            "value": "Die XXV octobris MDCLXXVII, anno secundo "
        },
        {
            "type": "date",
            "value": "1677\/10\/25",
            "children": {
                "date_deb_annee": "1677",
                "date_deb_mois": "10",
                "date_deb_jour": "25"
            },
            "range": {
                "date_apres": 16771025,
                "date_avant": 16771025
            }
        },
        {
            "type": "date_lieu",
            "value": "Rome, Sainte-Marie-Majeure"
        },
        {
            "type": "analyse",
            "value": "Bref conc\u00e9dant au chevalier grand-croix de l'H\u00f4pital Saint-Jean de J\u00e9rusalem Antoine-Martin Colbert la facult\u00e9 de tenir des b\u00e9n\u00e9fices en m\u00eame temps que des commanderies de de l'Ordre."
        },
        {
            "type": "sources_manuscrites",
            "value": "E. PARIS, Biblioth\u00e8que nationale de France, Collection Baluze, t. 385, n. 234 <a href=\" https:\/\/gallica.bnf.fr\/ark:\/12148\/btv1b10723114t\/f143.image\" target=\"_blank\">[en ligne]<\/a>.",
            "children": {
                "type_source": "Exp\u00e9dition"
            }
        },
        {
            "type": "transcription",
            "value": "<?xml version=\"1.0\" encoding=\"UTF-8\"?>\n\u00e0 faire\n"
        }
    ]
}