{
    "id": 147508,
    "name": "aposcripta-7135",
    "type": "acte",
    "url": "http:\/\/telma-chartes.irht.cnrs.fr\/aposcripta\/notice\/147508",
    "project_slug": "aposcripta",
    "project_label": "APOSCRIPTA \u2013 Lettres des papes",
    "user": "l_valliere",
    "last_update": "2020-10-19 16:39:32",
    "licence": "Attribution - Pas d\u2019Utilisation Commerciale - Partage dans les M\u00eames Conditions 3.0 France (CC BY-NC-SA 3.0 FR) ",
    "licence_url": "https:\/\/creativecommons.org\/licenses\/by-nc-sa\/3.0\/fr\/",
    "elements": [
        {
            "type": "pape",
            "value": "Cl\u00e9ment IV (1265-1268)"
        },
        {
            "type": "destinataire",
            "value": "L'\u00e9v\u00eaque de Freising Conrad"
        },
        {
            "type": "date_libre",
            "value": "V kalendas decembris, anno primo"
        },
        {
            "type": "date",
            "value": "1265\/11\/27",
            "children": {
                "date_deb_annee": "1265",
                "date_deb_mois": "11",
                "date_deb_jour": "27"
            },
            "range": {
                "date_apres": 12651127,
                "date_avant": 12651127
            }
        },
        {
            "type": "date_lieu",
            "value": "P\u00e9rouse"
        },
        {
            "type": "genre",
            "value": "Mandement (littere cum filo canapis)"
        },
        {
            "type": "analyse",
            "value": "[Conrado] episcopo Frisingensi mandat, concedat Ludwico comiti palatino Rheni duci Bawariae construenti monasterium de F\u00fcrstenvelde ord. Cisterc. ipsumque de propriis bonis convenienter dotanti, ut ad constructionem monasterii Carthusiensis ordinis pro suorum satisfactione peccaminum<a href=\"#note-1\"><sup>1<\/sup><\/a> minime teneatur."
        },
        {
            "type": "edition",
            "value": "<i>Quellen und Er\u00f6rterungen zur bayerischen und deutschen Geschichte...<\/i>, t. V. (Monumenta Wittelsbacensia. Abth. 1. von 1204\u20141292.), M\u00fcnich, 1857, p. 215."
        },
        {
            "type": "regeste",
            "value": "Potthast, <i>Regesta pontificum Romanorum<\/i>, n. 19472 <a target=\"_blank\" href=\" http:\/\/opacplus.bsb-muenchen.de\/title\/BV004241514\/ft\/bsb11316018?page=640\"> [en ligne]<\/a>."
        },
        {
            "type": "transcription",
            "value": "<?xml version=\"1.0\" encoding=\"UTF-8\"?>\nSua nobis dilectus...\n"
        },
        {
            "type": "notes_historiques",
            "value": "I. e. pro nece uxoris suae.",
            "children": {
                "numero_note": "1"
            }
        }
    ]
}