{
    "id": 146981,
    "name": "aposcripta-6609",
    "type": "acte",
    "url": "http:\/\/telma-chartes.irht.cnrs.fr\/aposcripta\/notice\/146981",
    "project_slug": "aposcripta",
    "project_label": "APOSCRIPTA \u2013 Lettres des papes",
    "user": "j_theryastruc",
    "last_update": "2020-10-19 16:39:25",
    "licence": "Attribution - Pas d\u2019Utilisation Commerciale - Partage dans les M\u00eames Conditions 3.0 France (CC BY-NC-SA 3.0 FR) ",
    "licence_url": "https:\/\/creativecommons.org\/licenses\/by-nc-sa\/3.0\/fr\/",
    "elements": [
        {
            "type": "pape",
            "value": "Alexandre IV (1254-1261)"
        },
        {
            "type": "destinataire",
            "value": "Les archev\u00eaques, etc"
        },
        {
            "type": "date_libre",
            "value": "XV kalendas octobris, anno primo"
        },
        {
            "type": "date",
            "value": "1255\/09\/17",
            "children": {
                "date_deb_annee": "1255",
                "date_deb_mois": "09",
                "date_deb_jour": "17"
            },
            "range": {
                "date_apres": 12550917,
                "date_avant": 12550917
            }
        },
        {
            "type": "date_lieu",
            "value": "Anagni"
        },
        {
            "type": "genre",
            "value": "Mandement (littere cum filo canapis)"
        },
        {
            "type": "analyse",
            "value": "Alexandre [IV]  interdit \u00e0 tout pr\u00e9lat d'exiger des templiers le quart des biens \u00e0 eux laiss\u00e9s par testament. "
        },
        {
            "type": "sources_manuscrites",
            "value": "?",
            "children": {
                "type_source": "n.c."
            }
        },
        {
            "type": "edition",
            "value": "Hans Prutz, <i>Malteser Urkunden und Regesten zur Geschichte der Tempelherren und der Johanniter<\/i>, p. 38-39 (qui attribue faussement la lettre \u00e0 Alexandre III et la date du 14 septembre 1160) <a target=\"_blank\" href= \"https:\/\/archive.org\/details\/malteserurkunde00prutgoog\/page\/n53\">[en ligne]<\/a>. "
        },
        {
            "type": "transcription",
            "value": "<?xml version=\"1.0\" encoding=\"UTF-8\"?>\nSi discrimina1 que dilecti filii fratres... ...animadvertere severius compellemur.Datum Anagnie, XV kalendas octobris, pontificatus nostri anno primo.\n"
        },
        {
            "type": "remarques",
            "value": "Absente des registres (7 lettres enregistr\u00e9es \u00e0 cette date). Ignor\u00e9e de Potthast (2 lettres r\u00e9pertori\u00e9es \u00e0 cette date, n. 16016 et 16017)."
        },
        {
            "type": "notes_historiques",
            "value": "Voir <a target=\"_blank\" href=\"http:\/\/telma-chartes.irht.cnrs.fr\/aposcripta\/notice-acte\/146950\">APOSCRIPTA n. 6579<\/a> et <a target=\"_blank\" href=\"http:\/\/telma-chartes.irht.cnrs.fr\/aposcripta\/notice-acte\/147023\">APOSCRIPTA n. 6651<\/a>."
        }
    ]
}