{
    "id": 20523,
    "name": "aposcripta-510",
    "type": "acte",
    "url": "http:\/\/telma-chartes.irht.cnrs.fr\/aposcripta\/notice\/20523",
    "project_slug": "aposcripta",
    "project_label": "APOSCRIPTA \u2013 Lettres des papes",
    "user": "lettrespontificalesadmin",
    "last_update": "2020-10-19 16:26:50",
    "licence": "Attribution - Pas d\u2019Utilisation Commerciale - Partage dans les M\u00eames Conditions 3.0 France (CC BY-NC-SA 3.0 FR) ",
    "licence_url": "https:\/\/creativecommons.org\/licenses\/by-nc-sa\/3.0\/fr\/",
    "elements": [
        {
            "type": "pape",
            "value": "G\u00e9lase I (492-496)"
        },
        {
            "type": "date_lieu",
            "value": "n.c."
        },
        {
            "type": "date_libre",
            "value": "494 ex-495 Aug"
        },
        {
            "type": "analyse",
            "value": "Gelasius\u00a0I Victori episcopo, deficientium voluntatem ab heredibus devote observandam esse, scribit.<a class=\"note\" href=\"#note-1\">1<\/a>"
        },
        {
            "type": "transcription",
            "value": "<?xml version=\"1.0\" encoding=\"UTF-8\"?>\nVictori episcopo. Deficientium voluntas ita debet ab electis heredibus enixa devotione servari, ut ex nulla parte rem commissama fidei sue quisque putet esse violendam. Non solum enim conscientiae sue probatur inimicus, verum etiam in vindictam legum, que huiusmodi machinantibusb testamentaria emolumenta subtrahunt, evidenter incurrit.\n"
        },
        {
            "type": "edition",
            "value": "Samuel Loewenfeld, <i>Epistolae pontificum romanorum ineditae<\/i>, Leipzig : Veit et Comp., 1885, n. 11, p. 7"
        },
        {
            "type": "sources_manuscrites",
            "value": "Coll. Brit. Gel. ep.\u00a020, l.\u00a0l. fol.\u00a013."
        },
        {
            "type": "notes_historiques",
            "value": "Cf. Jaff\u00e9 ed. sec.\u00a0656.",
            "children": {
                "numero_note": "1"
            }
        },
        {
            "type": "apparat_critique",
            "value": "comissam <i>c.<\/i>",
            "children": {
                "numero_note": "a"
            }
        },
        {
            "type": "apparat_critique",
            "value": "m\u0306tibus<i>c. Bishop v. ill. proponit<\/i> \u201ementibus\u00a0?\u201c\u00a0; <i>an<\/i> nitentibus <i>legendum est\u00a0?<\/i>",
            "children": {
                "numero_note": "B"
            }
        },
        {
            "type": "date",
            "value": "apr\u00e8s 0494\/09 - avant 0495\/08",
            "children": {
                "date_deb_annee": "0494",
                "date_deb_mois": "09",
                "date_deb_type": "apres",
                "date_fin_annee": "0495",
                "date_fin_mois": "08",
                "date_fin_type": "avant"
            },
            "range": {
                "date_apres": 4940900,
                "date_avant": 4950899
            }
        },
        {
            "type": "genre",
            "value": "Bulle"
        }
    ]
}