{
    "id": 25665,
    "name": "aposcripta-2762",
    "type": "acte",
    "url": "http:\/\/telma-chartes.irht.cnrs.fr\/aposcripta\/notice\/25665",
    "project_slug": "aposcripta",
    "project_label": "APOSCRIPTA \u2013 Lettres des papes",
    "user": "lettrespontificalesadmin",
    "last_update": "2020-10-19 16:27:47",
    "licence": "Attribution - Pas d\u2019Utilisation Commerciale - Partage dans les M\u00eames Conditions 3.0 France (CC BY-NC-SA 3.0 FR) ",
    "licence_url": "https:\/\/creativecommons.org\/licenses\/by-nc-sa\/3.0\/fr\/",
    "elements": [
        {
            "type": "pape",
            "value": "Nicolas III (1277-1280)"
        },
        {
            "type": "destinataire",
            "value": "( )",
            "children": {
                "numero_note": "0"
            }
        },
        {
            "type": "date_lieu",
            "value": "n.c."
        },
        {
            "type": "date_libre",
            "value": "1279, 23 janvier"
        },
        {
            "type": "date",
            "value": " 1279\/01\/23",
            "children": {
                "date_deb_annee": "1279",
                "date_deb_mois": "01",
                "date_deb_jour": "23"
            },
            "range": {
                "date_apres": 12790123,
                "date_avant": 12790123
            }
        },
        {
            "type": "analyse",
            "value": "X pape<br\/>PRIVILEGIUM NICOLAI PAP\u00c6 III, QUO CONCEDIT ABBATI CLUNIACENSI UT CONFERAT TONSURAM CLERICALEM MONACHIS ORDINIS. PRIVILEGIUM NICOLAI PAP\u00c6 III. per quod concedit Yvoni II. Abbati Clun. quod conferat Tonsuram Clericalem Monachis totius Ordinis Cluniacensis."
        },
        {
            "type": "transcription",
            "value": "<?xml version=\"1.0\" encoding=\"UTF-8\"?>\n[Nicolaus Episcopus servus servorum Dei, dilecto filio Yvoni Abbati Monasterii Clun. ad Romanam Ecclesiam nullo medio pertinentis, Matisconensis Di\u0153cesis, salutem et Apostolicam benedictionem. Religionis suadet honestas, et devotionis tu\u00e6 promeretur affectus, ut te caritatis brachiis complectentes, personam tuam congruo prosequamur honore, ac munere decoremus grati\u00e6 specialis. Hinc est quod nos tuis supplicationibus annuentes, conferendi primam Tonsuram Clericalem Monachis totius Ordinis Cluniacensis plenam tibi, qui in Sacerdotem ordinatus esse dignosceris, concedimus auctoritate pr\u00e6sentium facultatem, pr\u00e6sentibus post quinquennium minim\u00e8 valituris. Nulli ergo, etc. Datum Rom\u00e6, apud sanctum Petrum X. Kalendas Februarii, Pontificatus nostri anno II.]\n"
        },
        {
            "type": "edition",
            "value": "Ici tir\u00e9e du projet <i>CBMA - Corpus Burgundiae Medii Aevi<\/i>, document 6734. Site du projet Corpus de la Bourgogne du Moyen \u00c2ge, [En ligne] <a href=\"http:\/\/www.cbma-project.eu\" target=\"_blank\">http:\/\/www.cbma-project.eu<\/a>  "
        },
        {
            "type": "sources_manuscrites",
            "value": "\u00e0 renseigner."
        },
        {
            "type": "remarques",
            "value": "\r\n\r\nIndications dans l'\u00e9dition des Chartes de Cluny quand Bernard et Bruel n'ont pas repris le texte : Nicolaus, etc. Religionis suadet honestas, etc. (Bull. Clun., p.\u00a0142, col.\u00a01, n\u00ba\u00a03.)."
        },
        {
            "type": "edition_autre",
            "value": "Ici reprise de Auguste Bernard, Alexandre Bruel, <i>Recueil des chartes de l'abbaye de Cluny<\/i>. VI. <i>1211-1300<\/i>, Paris\u00a0: Imprimerie nationale, 1903 <a href=\"http:\/\/gallica.bnf.fr\/ark:\/12148\/bpt6k367019?rk=21459;2\" target=\"_blank\">[en ligne]<\/a>, p. 676, n\u00b0 5252.",
            "children": {
                "numero_note": "0"
            }
        },
        {
            "type": "edition_autre",
            "value": "Pierre Simon, <i>Bullarium sacri Ordinis cluniacensis, complectens plurima privilegia per summos pontifices tum ipsi cluniacensi abbatiae, tum ei subditis monasteriis hactenus concessa<\/i>, Lyon : Jullieron, 1680, p. 142, col. 1, n\u00b02",
            "children": {
                "numero_note": "1"
            }
        },
        {
            "type": "genre",
            "value": "Bulle"
        },
        {
            "type": "genre",
            "value": "Lettre"
        }
    ]
}