{
    "id": 143418,
    "name": "aposcripta-5065",
    "type": "acte",
    "url": "http:\/\/telma-chartes.irht.cnrs.fr\/aposcripta\/notice\/143418",
    "project_slug": "aposcripta",
    "project_label": "APOSCRIPTA \u2013 Lettres des papes",
    "user": "b_oury",
    "last_update": "2020-10-19 16:38:48",
    "licence": "Attribution - Pas d\u2019Utilisation Commerciale - Partage dans les M\u00eames Conditions 3.0 France (CC BY-NC-SA 3.0 FR) ",
    "licence_url": "https:\/\/creativecommons.org\/licenses\/by-nc-sa\/3.0\/fr\/",
    "elements": [
        {
            "type": "pape",
            "value": "Urbain III (1185-1187)"
        },
        {
            "type": "destinataire",
            "value": "Tous les pr\u00eatres et clercs du dioc\u00e8se de Bayeux"
        },
        {
            "type": "date_libre",
            "value": "secundo idus marcii"
        },
        {
            "type": "date",
            "value": "apres 1186\/03\/14 - avant 1187\/03\/14",
            "children": {
                "date_deb_jour": "14",
                "date_deb_mois": "03",
                "date_deb_annee": "1186",
                "date_deb_type": "apres",
                "date_fin_jour": "14",
                "date_fin_mois": "03",
                "date_fin_annee": "1187",
                "date_fin_type": "avant"
            },
            "range": {
                "date_apres": 11860314,
                "date_avant": 11870314
            }
        },
        {
            "type": "date_lieu",
            "value": "V\u00e9rone"
        },
        {
            "type": "genre",
            "value": "Bulle (ad perpetuam rei memoriam)"
        },
        {
            "type": "analyse",
            "value": "Le pape Urbain III \u00e9crit au clerg\u00e9 de Bayeux au sujet des droits de synode et de quelques autres droits \u00e9piscopaux<a class=\"note\" href=\"#note-1\">1<\/a>."
        },
        {
            "type": "sources_manuscrites",
            "value": "B. FRANCE, Caen, Archives d\u00e9partementales du Calvados, Biblioth\u00e8que du chapitre de Bayeux 0193,\u00a0<i>Cartulaire de la cath\u00e9drale Notre-Dame de Bayeux, Livre noir, Antiquus cartularius ecclesiae Baiocensis<\/i>, fol. 46. Copie du XIV<sup>e<\/sup>\u00a0si\u00e8cle.",
            "children": {
                "type_source": "Cartulaire"
            }
        },
        {
            "type": "edition",
            "value": "Ici reprise de l'abb\u00e9 Valentin Bourrienne Valentin, <i>Antiquus cartularius ecclesi\u00e6 Baiocensis (Livre noir)<\/i>, Rouen-Paris, Lestringant-Picard (Soci\u00e9t\u00e9 de l\u2019histoire de Normandie), 1902-1903, 2 vol., I, n. CLXXI, p. 212-213 <a target=\"_blank\" href=\" https:\/\/gallica.bnf.fr\/ark:\/12148\/bpt6k5739414q\/f343\"> [en ligne]<\/a>, num\u00e9ris\u00e9e par Pierre Bauduin (dir.), <i>SCRIPTA. Base des actes normands m\u00e9di\u00e9vaux<\/i>, Caen, CRAHAM-MRSH, 2010-2016, <a target=\"_blank\" href=\"https:\/\/www.unicaen.fr\/scripta\/acte\/962\"> [en ligne]<\/a>, Acte 962."
        },
        {
            "type": "edition_autre",
            "value": "Ramackers Johannes, <i>Papsturkunden in Frankreich, Neue Folge 2 Normandie<\/i>, G\u00f6ttingen, Vandenhoeck & Ruprecht (Abhandlungen der Gesellschaft der Wissenschaften zu G\u00f6ttingen. Philologisch-historische Klasse, 21), 1937, 2 vol., n. 282, p. 377-378."
        },
        {
            "type": "transcription",
            "value": "<?xml version=\"1.0\" encoding=\"UTF-8\"?>\nUrbanus, episcopus, servus servorum Dei, dilectis filiis universis presbiteris, et clericis in episcopatu Baiocensi constitutis, salutem et apostolicam benedictionem. Ad nostram noveritis audientiam pervenisse quod, cum dilectus filius noster Hugo, Sancti Angeli diaconus cardinalis, in partibus vestris legationis officio fungeretur, venerabilis frater noster, episcopus vester, sua ei conquestione monstravit quosdam vestrum sinodales ipsi redditus et alia qu\u00e6dam episcopalia jura subtrahere. Ob quam rem, pr\u00e6dictus cardinalis eos, qui hoc de c\u00e6tero pr\u00e6sumerent, nisi Roman\u00e6 vel Baiocensis ecclesi\u00e6 privilegio exinde essent muniti, ab officio sui (sic) exsecutione suspensos esse denuntiavit. Quam utique sententiam, sicut rationalibiter lata est, nos ratam et firmam habentes, universitati vestr\u00e6 per apostolica scripta mandamus, atque pr\u00e6cipimus quatinus, qu\u00e6 pr\u00e6scripta sunt, episcopo vestro nullatenus subtrahatis, et si quis vestrum injuste subtraxerit, nisi commonitus ab eodem episcopo resipuerit, eum non permittatis in ecclesiis vestris ordinis sui officium exercere, sed habeatis, omni occasione et excusatione cessante, suspensum. Datum Veron\u00e6, secundo idus marcii.\n"
        },
        {
            "type": "notes_historiques",
            "value": "La date de cet acte est le 14 mars 1186 ou 1187. Datation propos\u00e9e par V. Bourrienne et J. Ramackers.",
            "children": {
                "numero_note": "1"
            }
        }
    ]
}