{
    "id": 20440,
    "name": "aposcripta-427",
    "type": "acte",
    "url": "http:\/\/telma-chartes.irht.cnrs.fr\/aposcripta\/notice\/20440",
    "project_slug": "aposcripta",
    "project_label": "APOSCRIPTA \u2013 Lettres des papes",
    "user": "lettrespontificalesadmin",
    "last_update": "2020-10-19 16:26:49",
    "licence": "Attribution - Pas d\u2019Utilisation Commerciale - Partage dans les M\u00eames Conditions 3.0 France (CC BY-NC-SA 3.0 FR) ",
    "licence_url": "https:\/\/creativecommons.org\/licenses\/by-nc-sa\/3.0\/fr\/",
    "elements": [
        {
            "type": "pape",
            "value": "Gr\u00e9goire XI (1370-1378)"
        },
        {
            "type": "date_lieu",
            "value": "Pont-de-Sorgues"
        },
        {
            "type": "date_libre",
            "value": "1<sup>er<\/sup> juin 1372"
        },
        {
            "type": "analyse",
            "value": "Le pape conf\u00e8re \u00e0 la copie des bulles de Boniface VIII ins\u00e9r\u00e9e dans le pr\u00e9sent document l\u2019autorit\u00e9 de l\u2019original lui-m\u00eame."
        },
        {
            "type": "transcription",
            "value": "<?xml version=\"1.0\" encoding=\"UTF-8\"?>\nCeterum ut earumdem litterarum tenor predictus sic insertus omnimodam rei seu facti certitudinem faciat, apostolica auctoritate decernimus ut illud idem robur, eamque vim, eundem vigorem dictus tenor per omnia habeat que haberent originales littere supradicte et eadem prorus eidem tenori fides adhibeatur quandocumque et ubicumque in iudicio vel alibi ubi fuerit exhibitus vel ostensus et eidem stetur firmiter in omnibus, sicut eisdem originalibus litteris staretur si forent exhibite vel ostense. Per hoc autem nullum ius de novo alicui acquiri volumus, sed antiquum tantummodo conservari. Nulli ergo [etc.]. \u2014 Datum apud Pontem Sorgie, Avinionen. diocesis, kalendis iunii, anno secundo.\n"
        },
        {
            "type": "edition",
            "value": "Jean-Marie Vidal, <i>Bullaire de l\u2019Inquisition fran\u00e7aise au XIV<sup>e<\/sup> si\u00e8cle et jusqu'\u00e0 la fin du Grand Schisme<\/i>, Paris : Letouzey et An\u00e9, 1913, n. 271, p. 391"
        },
        {
            "type": "sources_manuscrites",
            "value": "<i>Reg. Aven.<\/i>, t. <span class=\"smal-caps\">clxxxv<\/span>, fol. 431 v\u00b0."
        },
        {
            "type": "date",
            "value": "1372\/06\/01",
            "children": {
                "date_deb_annee": "1372",
                "date_deb_mois": "06",
                "date_deb_jour": "01"
            },
            "range": {
                "date_apres": 13720601,
                "date_avant": 13720601
            }
        },
        {
            "type": "genre",
            "value": "Bulle"
        }
    ]
}