{
    "id": 25340,
    "name": "aposcripta-2437",
    "type": "acte",
    "url": "http:\/\/telma-chartes.irht.cnrs.fr\/aposcripta\/notice\/25340",
    "project_slug": "aposcripta",
    "project_label": "APOSCRIPTA \u2013 Lettres des papes",
    "user": "lettrespontificalesadmin",
    "last_update": "2020-10-19 16:27:43",
    "licence": "Attribution - Pas d\u2019Utilisation Commerciale - Partage dans les M\u00eames Conditions 3.0 France (CC BY-NC-SA 3.0 FR) ",
    "licence_url": "https:\/\/creativecommons.org\/licenses\/by-nc-sa\/3.0\/fr\/",
    "elements": [
        {
            "type": "pape",
            "value": "Adrien IV (1154-1159)"
        },
        {
            "type": "destinataire",
            "value": "( )",
            "children": {
                "numero_note": "0"
            }
        },
        {
            "type": "date_lieu",
            "value": "n.c."
        },
        {
            "type": "date_libre",
            "value": "1155, 21 mai"
        },
        {
            "type": "date",
            "value": " 1155\/05\/21",
            "children": {
                "date_deb_annee": "1155",
                "date_deb_mois": "05",
                "date_deb_jour": "21"
            },
            "range": {
                "date_apres": 11550521,
                "date_avant": 11550521
            }
        },
        {
            "type": "analyse",
            "value": "X pape<br\/>PRIVILEGIUM ADRIANI PAP\u00c6 IV, QUO PROHIBET NE ULLUS ORDO PR\u00c6TER CLUNIACENSEM, IN PARROCHIIS AD JUS CLUNIACENSE PERTINENTIBUS PONATUR NEVE C\u0152METERIUM CONSTRUATUR ABSQUE ASSENSU ABBATIS CLUNIACENSIS. PRIVILEGIUM ADRIANI PAP\u00c6 IV. ad Petrum Venerabilem, per quod prohibet ne ullus ordo seu religio pr\u00e6ter Cluniacensem in Parochiis ad jus Cluniacensem pertinentibus ponatur, n\u00e9ve Cimiterium construatur absque assensu Abbatis Cluniacensis."
        },
        {
            "type": "transcription",
            "value": "<?xml version=\"1.0\" encoding=\"UTF-8\"?>\n[Adrianus Episcopus, servus servorum Dei, dilecto filio Petro Abbati Cluniacensi, ejusque successoribus regulariter substituendis in perpetuum. Injuncti nobis \u00e0 Deo Apostolatus officium, et Ecclesiastic\u00e6 utilitatis consideratio nos hortatur et ammonet, illas Ecclesias, quas in sanct\u00e6 religionis observantia ferventiores esse videmus, et eas honestate ac religione pollere cognoscimus, ampliori charitate diligere, majoremque illis honorem jugiter et gratiam exhibere. Eapropter, dilecte in Domino fili Petre, Ecclesiam tuam vestigiis antecessorum nostrorum inh\u00e6rendo sincere ac tener\u00e8, utpote specialem ac per omnia devotam filiam Apostolic\u00e6 Sedis diligentes, dignum duximus tuis petitionibus assensum pr\u00e6bere. Concedimus ergo tibi tuisque successoribus in perpetuum, ut in Parochiis ad jus tuum pertinentibus nullus futuris temporibus ordo seu religio nisi Cluniacensis ponatur, ea videlicet ratione, ne bona vel jura benignitate Romanorum Pontificum Ecclesi\u00e6 tu\u00e6 collata, obtentu cujuslibet nov\u00e6 vel supervenientis religionis minuantur aut auferantur. Statuimus nihilominus ut infra terminos Parochiarum tuarum nullus Cimiterium absque assensu tuo construere pr\u00e6sumat. Nulli ergo omnin\u00f2 hominum fas sit nostri hujus decreti sententiam infringere, seu ausu temerario perturbare. Si qua san\u00e8 imposterum Ecclesiastica s\u00e6cularisve persona hanc nostr\u00e6 constitutionis paginam sciens, contra eam temer\u00e8 venire tentaverit, secund\u00f2 terti\u00f3ve commonita, nisi pr\u00e6sumptionem suam congrua satisfactione correxerit, potestatis honorisque sui dignitate careat, reamque se divino judicio existere de perpetrata iniquitate cognoscat, et \u00e0 sacratissimo Corpore ac Sanguine Dei ac Domini Redemptoris nostri Jesu Christi aliena fiat, atque in extremo examine district\u00e6 ultioni subjaceat. Cunctis autem eidem loco sua jura servantibus sit pax Domini nostri Jesu Christi, quatinus et hic fructum bon\u00e6 actionis percipiant, et apud districtum judicem pr\u00e6mia \u00e6tern\u00e6 pacis inveniant. Amen. Amen. Amen. Datum Sutrii per manum Rolandi sanct\u00e6 Roman\u00e6 Ecclesi\u00e6 Presbyteri, Cardinalis et Cancellarii XII. Kalendas Junii, indictione III. Incarnationis Dominic\u00e6 anno M. C. LV. Pontificatus ver\u00f2 Domni Adriani Pap\u00e6 IV. anno primo.]\n"
        },
        {
            "type": "edition",
            "value": "Ici tir\u00e9e du projet <i>CBMA - Corpus Burgundiae Medii Aevi<\/i>, document 5619. Site du projet Corpus de la Bourgogne du Moyen \u00c2ge, [En ligne] <a href=\"http:\/\/www.cbma-project.eu\" target=\"_blank\">http:\/\/www.cbma-project.eu<\/a>  "
        },
        {
            "type": "sources_manuscrites",
            "value": "\u00e0 renseigner."
        },
        {
            "type": "remarques",
            "value": "Indications dans l'\u00e9dition des Chartes de Cluny quand Bernard et Bruel n'ont pas repris le texte : Adrianus, etc. Injuncti nobis a, etc. (Bull. Clun., p.\u00a068, col.\u00a01, n\u00ba\u00a01.)."
        },
        {
            "type": "edition_autre",
            "value": "Ici reprise de Auguste Bernard, Alexandre Bruel, <i>Recueil des chartes de l'abbaye de Cluny<\/i>. V. <i>1091-1210<\/i>, Paris\u00a0: Imprimerie nationale, 1894 <a href=\"http:\/\/gallica.bnf.fr\/ark:\/12148\/bpt6k28911f?rk=64378;0\" target=\"_blank\">[en ligne]<\/a>, p. 532, n\u00b0 4182.",
            "children": {
                "numero_note": "0"
            }
        },
        {
            "type": "edition_autre",
            "value": "Pierre Simon, <i>Bullarium sacri Ordinis cluniacensis, complectens plurima privilegia per summos pontifices tum ipsi cluniacensi abbatiae, tum ei subditis monasteriis hactenus concessa<\/i>, Lyon : Jullieron, 1680, p. 68, col. 1-2",
            "children": {
                "numero_note": "1"
            }
        },
        {
            "type": "genre",
            "value": "Privil\u00e8ge mineur (avant 1198)"
        }
    ]
}