{
    "id": 144936,
    "name": "aposcripta-5748",
    "type": "acte",
    "url": "http:\/\/telma-chartes.irht.cnrs.fr\/aposcripta\/notice\/144936",
    "project_slug": "aposcripta",
    "project_label": "APOSCRIPTA \u2013 Lettres des papes",
    "user": "l_valliere",
    "last_update": "2020-10-19 16:39:04",
    "licence": "Attribution - Pas d\u2019Utilisation Commerciale - Partage dans les M\u00eames Conditions 3.0 France (CC BY-NC-SA 3.0 FR) ",
    "licence_url": "https:\/\/creativecommons.org\/licenses\/by-nc-sa\/3.0\/fr\/",
    "elements": [
        {
            "type": "pape",
            "value": "Nicolas IV (1288-1292)"
        },
        {
            "type": "destinataire",
            "value": "Les abb\u00e9s des monast\u00e8res San Rufino (OSB) et  de Santa Maria di Follonica, dioc\u00e8se de Mantoue"
        },
        {
            "type": "date_libre",
            "value": "VIII kalendas iulii, anno quarto"
        },
        {
            "type": "date",
            "value": "1291\/06\/24",
            "children": {
                "date_deb_annee": "1291",
                "date_deb_mois": "06",
                "date_deb_jour": "24"
            },
            "range": {
                "date_apres": 12910624,
                "date_avant": 12910624
            }
        },
        {
            "type": "date_lieu",
            "value": "Orvieto"
        },
        {
            "type": "genre",
            "value": "Lettre, g\u00e9n\u00e9ral (apr\u00e8s 1198, littere cum filo canapis)"
        },
        {
            "type": "analyse",
            "value": "Nicol\u00f2 IV agli abati di San Rufino presso Mantova e di Santa Maria di Follonica, in diocesi di Mantova : dispone che, dopo che Mainardo, duca di Carinzia e conte del Tirolo, avr\u00e0 restituito beni e diritti a Filippo, vescovo di Trento, possano assolverlo dalla scomunica."
        },
        {
            "type": "sources_manuscrites",
            "value": "R. CIT\u00c9 DU VATICAN, Archivio segreto Vaticano, <i>Registra Vaticana<\/i> 46, ep. CCCLXIIII, fol. 71v.",
            "children": {
                "type_source": "Registre de la chancellerie apostolique"
            }
        },
        {
            "type": "edition",
            "value": "Ici reprise d\u2019Emanuele Curzel, <i>Documenti papali per la storia trentina (fino al 1341)<\/i>, Bologne, 2004 (Annali dell\u2019Istituto storico italo-germanico. Fonti ; 1), n. 73, p. 151-153, d\u2019apr\u00e8s R."
        },
        {
            "type": "edition_autre",
            "value": "Ferdinando Ughelli, <i>Italia Sacra sive de Episcopis Italiae<\/i>, V, Venezia, 1720, col. 619-620 <a target=\"_blank\" href=\" https:\/\/books.google.fr\/books\/ucm?vid=UCM5325117760&printsec=frontcover&redir_esc=y#v=onepage&q&f=false\"> [en ligne]<\/a>."
        },
        {
            "type": "regeste",
            "value": "Ernest Langlois, <i>Les Registres de Nicolas IV (1288-1292)<\/i>, (Biblioth\u00e8que des \u00c9coles Fran\u00e7aises d\u2019Ath\u00e8nes et de Rome), Paris 1887-1893, n. 5670 <a target=\"_blank\" href=\" https:\/\/archive.org\/details\/lesregistresdeni02nico\/page\/764\"> [en ligne]<\/a>."
        },
        {
            "type": "regeste",
            "value": "August Potthast, <i>Regesta Pontificum Romanorum<\/i>, Berlin, 1874-1875, n. 23713 <a target=\"_blank\" href=\" https:\/\/archive.org\/stream\/RegestaPontificumRomanorum\/ph#page\/n1915\/mode\/2up\"> [en ligne]<\/a>."
        },
        {
            "type": "regeste",
            "value": "Hermann Wiesflecker, <i>Die Regesten der Grafen von G\u00f6rz und Tirol, Pfalzgrafen in K\u00e4rnten<\/i>, I (Publikationen des Institutes f\u00fcr \u00f6sterreichische Geschichtsforschung 4\/1, I), Innsbruck 1949, II, n. 720."
        },
        {
            "type": "transcription",
            "value": "<?xml version=\"1.0\" encoding=\"UTF-8\"?>\nDilectis filiis .. Sancti Rufini prope Mantuam, ordinis sancti Benedicti, et .. Sancte Marie de Felonica, Mantuane diocesis, monasteriorum abbatibus. Dudum propter occupationes et usurpationes multiplices quorundam bonorum et iurium episcopatus et ecclesie Tridentine per nobilem virum Meynardum, ducem Carinthie ac comitem Tyrolensem, contra Deum et iustitiam attemptatas, cum multo gravamine venerabilis fratris nostri Phylippi episcopi Tridentini et eiusdem ecclesie, quos etiam multimodis alias Maynardusa ipse molestiis, spoliationibus et excessibus gravibus perturbabat, diverse excomunicationum et privationum feudorum, advocatiarum, honorum, bonorum et iurium contra eundem Meynardum, liberos et posteritatem ipsius et plerosque etiam alios participes excessuum predictorum ac interdicti in ipsius ducis et nonnullas alias terras tam per sedem apostolicam quam per delegatos ipsius sunt, exigente iustitia, sententie promulgate. Verum quia, sicut accepimus, idem dux, saniori utens consilio, ad satisfaciendum de predictis excessibus se disponit, nos, qui libenter ad salutem animarum intendimus et statum quietum et prosperum eorundem episcopi et ecclesie affectamus, discretioni vestre per apostolica scripta mandamus quatinus, facta prius restitutione bonorum et iurium predictorum episcopo et ecclesie memoratis ac impensa satisfactione debita de dampnis et iniuriis illatis eisdem, vos, vel alterb vestrum, per vos vel per alium seuc alios, a dictis excomunicationum sententiis generaliter vel specialiter promulgatis prefatos duces et alios ad requisitionem ipsius episcopi iuxta formam ecclesie absolvatis, privationum vero et alias sententias per sedem predictam seu eius auctoritate in eosdem prolatas omnesque processus habitos contra eos occasione predicta relaxare ac revocare curetis. Volumus tamen et presentium auctoritate decernimus quod si dicti dux et alii, per se vel per alium aut alios, post absolutionem et relaxationem sententiarum ipsarum bona vel iura eorundem episcopi et ecclesie quomodolibet invadere, occupare vel usurpare seu usurpata presumpserint detinere et a vobis vel vestrum altero, per vos vel alium seu alios, publice moniti in locis de quibus expedire videritis, infra competentem terminum a vobis aut a vestrum altero prefigendum eisdem plene ac libere non restituerint bona et iura predicta episcopo et ecclesie supradictis, in similes excomunicationum et privationum sententias, quas ex nunc in eum casum ferimus contra eos, incidant ipso facto vosque seu alterd vestrum illos excommunicatos et privatos, ut prius, per vos vel per alium aut alios, publice denuntiare curetis in locis de quibus videritis expedire, contradictores et cetera. Datum apud Urbemveterem, VIII kalendas iuliie, anno quarto.\n"
        },
        {
            "type": "apparat_critique",
            "value": "Meynardus <i>corrig\u00e9 Ughelli<\/i>.",
            "children": {
                "numero_note": "a"
            }
        },
        {
            "type": "apparat_critique",
            "value": "al(ter) <i>R<\/i> ; alterius <i>Ughelli<\/i>.",
            "children": {
                "numero_note": "b"
            }
        },
        {
            "type": "apparat_critique",
            "value": "alium seu <i>apr\u00e8s correction<\/i>.",
            "children": {
                "numero_note": "c"
            }
        },
        {
            "type": "apparat_critique",
            "value": "al(ter) <i>R<\/i> ; alterius <i>Ughelli<\/i>.",
            "children": {
                "numero_note": "d"
            }
        },
        {
            "type": "apparat_critique",
            "value": "pontificatus <i>ajout\u00e9 Ughelli<\/i>.",
            "children": {
                "numero_note": "e"
            }
        }
    ]
}