{
    "id": 24810,
    "name": "aposcripta-1948",
    "type": "acte",
    "url": "http:\/\/telma-chartes.irht.cnrs.fr\/aposcripta\/notice\/24810",
    "project_slug": "aposcripta",
    "project_label": "APOSCRIPTA \u2013 Lettres des papes",
    "user": "l_valliere",
    "last_update": "2020-10-19 16:27:35",
    "licence": "Attribution - Pas d\u2019Utilisation Commerciale - Partage dans les M\u00eames Conditions 3.0 France (CC BY-NC-SA 3.0 FR) ",
    "licence_url": "https:\/\/creativecommons.org\/licenses\/by-nc-sa\/3.0\/fr\/",
    "elements": [
        {
            "type": "pape",
            "value": "Cl\u00e9ment IV (1265-1268)"
        },
        {
            "type": "destinataire",
            "value": "Le roi de France Louis IX"
        },
        {
            "type": "date_libre",
            "value": "III kalendas maii, anno primo"
        },
        {
            "type": "date",
            "value": " 1265\/04\/29",
            "children": {
                "date_deb_jour": "29",
                "date_deb_mois": "04",
                "date_deb_annee": "1265"
            },
            "range": {
                "date_apres": 12650429,
                "date_avant": 12650429
            }
        },
        {
            "type": "date_lieu",
            "value": "P\u00e9rouse"
        },
        {
            "type": "analyse",
            "value": "Clemens IV Ludovico, regi Franciae, indulget ut confessor ejus, audita illius confessione, a peccatis omnibus plenam illi absolutionem impendat, potestatemque habeat relaxandi poenitentias ei quondam impositas, et vota etiam, si qua omisit, transmarino excepto, in alia commutandi."
        },
        {
            "type": "sources_manuscrites",
            "value": "E. FRANCE, Paris, Archives nationales, J 693\/153. Original scell\u00e9 (bulle de Cl\u00e9ment IV, sur cordelettes de chanvre. Au dos, en haut : <i>REX FRANCIE<\/i>.)."
        },
        {
            "type": "sources_manuscrites",
            "value": "F. FRANCE, Paris, Archives nationales, J 940\/19. Copie authentique (vidimus)."
        },
        {
            "type": "edition",
            "value": "Partielle : \u00c9douard Jordan, <i>Les registres de Cl\u00e9ment IV (1265-1268)<\/i>, Paris, 1893-1945, n. 1578, d\u2019apr\u00e8s E et F."
        },
        {
            "type": "regeste",
            "value": "\u00c9lie Berger, <i>Layettes du Tr\u00e9sor des chartes<\/i>, IV, Paris : Henri Plon, 1902 <a target=\"_blank\" href=\"http:\/\/digi.ub.uni-heidelberg.de\/diglit\/teulet1902bd4\/0214\"> [en ligne]<\/a>, n. 5024, p. 128-129 <a target=\"_blank\"href=\"https:\/\/francearchives.fr\/fr\/facomponent\/d9bd0b0d9bbdf97afefca3e0fd992c36b8c6d4ce\">[num\u00e9ris\u00e9e sur le site des Archives de France]<\/a>, d'apr\u00e8s E."
        },
        {
            "type": "regeste",
            "value": "Bernard Barbiche, <i>Les actes pontificaux originaux des Archives Nationales de Paris<\/i>, Cit\u00e9 du Vatican, 1975-1982, II, n. 1273, p. 86, d'apr\u00e8s E."
        },
        {
            "type": "transcription",
            "value": "<?xml version=\"1.0\" encoding=\"UTF-8\"?>\nHabet in nobis... Datum Perusii, III kalendas maii, pontificatus nostri anno primo.\n"
        },
        {
            "type": "remarques",
            "value": "\u00e0 \u00e9diter - Inconnue de Potthast - Absente des registres"
        },
        {
            "type": "genre",
            "value": "Mandement (littere cum filo canapis)"
        }
    ]
}