{
    "id": 20391,
    "name": "aposcripta-378",
    "type": "acte",
    "url": "http:\/\/telma-chartes.irht.cnrs.fr\/aposcripta\/notice\/20391",
    "project_slug": "aposcripta",
    "project_label": "APOSCRIPTA \u2013 Lettres des papes",
    "user": "lettrespontificalesadmin",
    "last_update": "2020-10-19 16:26:48",
    "licence": "Attribution - Pas d\u2019Utilisation Commerciale - Partage dans les M\u00eames Conditions 3.0 France (CC BY-NC-SA 3.0 FR) ",
    "licence_url": "https:\/\/creativecommons.org\/licenses\/by-nc-sa\/3.0\/fr\/",
    "elements": [
        {
            "type": "pape",
            "value": "Eug\u00e8ne III (1145-1153)"
        },
        {
            "type": "date_lieu",
            "value": "Meaux"
        },
        {
            "type": "date_libre",
            "value": "III kalendas junii"
        },
        {
            "type": "analyse",
            "value": "Epistola Eugenii pape ad Theobaldem archiepiscopum Cantuariensem pro Bernardo Sancti David de dignitate ejusdem ecclesie metropolitane."
        },
        {
            "type": "transcription",
            "value": "<?xml version=\"1.0\" encoding=\"UTF-8\"?>\nEugenius, episcopus servus servorum Dei, venerabili fratri Theobaldo Cantuariensi archiepiscopo, salutem et apostolicam benedictionem. Venerabilis frater noster Bernardus, episcopus Sancti David, ad nostram praesentiam veniens, ecclesiam Sancti David olim metropolin fuisse asseruit viva voce et eandem dignitatem sibi a nobis restitui postulavit.  Cum autem circa petitionem istam invigilans diu in Curia nostra commoratus esset, tu frater archiepiscope, tandem eo presente ex adverso consurgens, in presentia nostra adversus eum querelam deposuisti quod debitam tanquam primo metropolitano obedientiam subtraxisset, tibique inobedient, et rebellis existeret, cum a Predecessore tuo tanquam a metropolitano primo consecratus esset et viva voce, et scripto Cantuariensi ecclesie professionem fecisset et in multis postea, tanquam alii suffraganei, tibi obedisset, et astitisset. Ille vero consecrationem negare non potuit, sed professionem se fecisse et obedientiam exhibuisse omnino negavit. Quod tu audiens, duos testes in medium produxisti testimonium perhibentes ; quod ipse illis videntibus, et audientibus post consecrationem suam, et viva voce, et scristo Cantuariensi ecclesie professionem fecisset. Nos igitur, auditis utriusque partis rationibus et diligentius inquisitis et testibus tuis studiose examinatis, communicato fratrum nostrorum consilio, juramenta eorum recipimus et ut ipse episcopus tibi tanquam primo metropolitano obedientiam et reverentiam exhibeat, iustitia dictante precipimus. Unde quoniam singulis ecclesiis et ecclesiasticis personis suam dignitatem et justitiam volumus conservare, beati Lucae festivitate proximi sequentis anni tibi et ipsi diem prefiximus ut tunc, presentibus partibus de dignitate ecclesie sancti David et libertate sua, rei veritatem cognoscamus et quod justum fuerit authore Domino exinde statuamus.  Datum Meldis, 3 kalendas julii\n"
        },
        {
            "type": "edition",
            "value": "Ici reprise de William Stubbs, <i>The Historical Collections of Walter of Coventry<\/i>, II, 1873, r\u00e9imp. Cambridge University Press, 2012) p. 156-157."
        },
        {
            "type": "sources_manuscrites",
            "value": "Ms de la chronique de Walter de Coventry.",
            "children": {
                "type_source": "Texte ins\u00e9r\u00e9 dans une source narrative m\u00e9di\u00e9vale"
            }
        },
        {
            "type": "date",
            "value": "1147\/06\/29",
            "children": {
                "date_deb_annee": "1147",
                "date_deb_mois": "06",
                "date_deb_jour": "29"
            },
            "range": {
                "date_apres": 11470629,
                "date_avant": 11470629
            }
        },
        {
            "type": "genre",
            "value": "Mandement (littere cum filo canapis)"
        },
        {
            "type": "edition_autre",
            "value": "William Prynne, <i>Exact chronological vindication and historical demonstration of our British, Roman, Saxon, Danish, Norman, English kings supreme ecclesiastical jurisdiction<\/i>, Londres : Thomas Ratcliff, 1665-1668, II, p. 236."
        },
        {
            "type": "regeste",
            "value": "JL ?"
        },
        {
            "type": "edition_autre",
            "value": "Jean Hardouin, <i>Acta Conciliorum et Epistolae decretales ac Constitutiones summorum Pontificum<\/i>, VI-2, Paris : Ex typographia regia, 1714, c. 1243."
        },
        {
            "type": "edition_autre",
            "value": "<i>PL<\/i> 180, c. 1250."
        }
    ]
}