{
    "id": 149352,
    "name": "aposcripta-8915",
    "type": "acte",
    "url": "http:\/\/telma-chartes.irht.cnrs.fr\/aposcripta\/notice\/149352",
    "project_slug": "aposcripta",
    "project_label": "APOSCRIPTA \u2013 Lettres des papes",
    "user": "lettrespontificalesadmin",
    "last_update": "2020-10-19 16:39:57",
    "licence": "Attribution - Pas d\u2019Utilisation Commerciale - Partage dans les M\u00eames Conditions 3.0 France (CC BY-NC-SA 3.0 FR) ",
    "licence_url": "https:\/\/creativecommons.org\/licenses\/by-nc-sa\/3.0\/fr\/",
    "elements": [
        {
            "type": "pape",
            "value": "Innocent IV (1243-1254)"
        },
        {
            "type": "destinataire",
            "value": ". . potestati, consilio et communi Florentinis"
        },
        {
            "type": "date_libre",
            "value": "VII kalendas septembris, anno X"
        },
        {
            "type": "date",
            "value": " 1252\/08\/26",
            "children": {
                "date_deb_annee": "1252",
                "date_deb_mois": "08",
                "date_deb_jour": "26"
            },
            "range": {
                "date_apres": 12520826,
                "date_avant": 12520826
            }
        },
        {
            "type": "date_lieu",
            "value": "Perusii"
        },
        {
            "type": "sources_manuscrites",
            "value": "R. CIT\u00c9 DU VATICAN, Archivio Segreto Vaticano, <hi rend=\"italic\">Registra Vaticana<\/hi> ... Inn.\u00a0IV Reg. Vol.\u00a0II, 305; Lib.\u00a0X, cur.\u00a08. Exemplar, quod L\u00fcnig, Cod. It. diplom. t.\u00a0I, p.\u00a02459 edidit, cum Regestis contulit V. Cl. Monacci.",
            "children": {
                "type_source": "Registre de la chancellerie apostolique"
            }
        },
        {
            "type": "genre",
            "value": "Mandement (littere cum filo canapis)"
        },
        {
            "type": "analyse",
            "value": "Innocentius IV papa potestati, consilio et communi Florentinis mandat, ut [Petrum] episcopum Albanensem et Guillelmum S. Eustachii diaconum cardinalem, quos pro pace in partibus Tusciae reformanda destinaverit, devote suscipiant et iussionibus eorum obediant [Rodenberg]."
        },
        {
            "type": "transcription",
            "value": "<?xml version=\"1.0\" encoding=\"UTF-8\"?>\n. . potestati, consilio et communi Florentinis.Inter omnia nostre sollicitudinis studia hoc novimus esse precipuum, ut inter discordes, quos idem Christiani nominis titulus et eiusdem fidei professio consortes efficit, pacis consilia cogitemus. Scimus enim, quod nisi in pace veneratione congrua non colitur pacis auctor, per dissensiones et scismata populorum fidei religio deficit, morum pervertitur disciplina et salus non proficit animarum. Ideoque nos, qui tam remotos quam proximos desideramus invicem esse pacificos, inter illos precipue reconciliationis spiritum suscitare debemus, in quorum commotionibus Romane ecclesie turbatur ex vicinitate tranquillitas et ex compassione caritatis eius viscera, quo maternius, eo amarius commoventur. Sane, postquam ad partes istas redivimus de partibus Gallicanis, circumspicientes provinciam Tuscie laceris in se ipsa partibus fluctuare ac in ipsa effrenem ferri debachari licentiam et mutuo populos eius furore collidi, infremuimus quidem spiritu vehementer super his, dolore pulsante cor nostrum, et ad excogitanda remedia, quibus mala ingruentia sopirentur, nos et fratres nostri apposuimus intentius mentes nostras. Et ut nobis communiter mediantibus exclusa tristium peste bellorum desiderabilis pacis iocunditas proveniret, ad presentiam nostram partes curavimus evocare discordes, ut per idoneas personas, sufficiens ad consumationem negotii mandatum procuratorium afferentes, coram nobis salubribus communis concordie tractatibus interessent, ecclesie pariture consiliis et mandatis, in unum fedus amoris eiusdem provincie populos, quos inimicus homo per scismata seditionesque disiunxerat, maternis affectibus coniungere gestientis. Verum secreto divine commotionis ut credimus permittente iudicio, quia forsitan nondum condigna vexatio auditui dederat intellectum nec ad purum feces exinaniverat peccatorum, clausis auribus vocem nostram audire vocati et verbum pacis contumaci spiritu respuentes, aliquos, qui salutaria oris nostri verba reciperent, ad sedem apostolicam mittere contempserunt. Cumque partes ipse dudum adversus se in partibus Montaie conflarent hostiliter vires suas et castris altrinsecus in conspicuo positis ad discrimen certaminis iram cominus colligerent animorum, audivit et horruit mater ecclesia, et satagens occurrere tot stragibus corporum tot animarum exitiis, que poterant evenire, et confidens quod ad pacis propositum incussa forte utrisque malorum utrinque imminentium formidine ipsius studia iuvarentur, institit, et illuc protinus dilectis filiis nostris R. Sancti Angeli et I. Sancti Nicolai in Carcere Tulliano diaconis cardinalibus celebribus quidem ecclesie Dei membris de latere nostro missis, pacem discordibus nunciavit. Set lege peccati obtemperare nescia rationi utramque partem, ne sanis consiliis, salubribus monitis et paternis intenderent iussionibus, obfirmante, spreti sunt hinc et inde tanti pacis angeli, qui non invenientes, super quos requiesceret pax ipsorum, nullum sui fructum laboris preter pie intentionis meritum retulerunt.Quot autem mala, [postquam] passa fuit has instantia nostra repulsas, fuerint subsecuta, que quidem nostre diligentie remedia exclusissent, si contempta non essent, effusus sanguis, quem de terra clamare in celum credimus contra eos, qui suis consiliis nostra et fratrum nostrorum circa pacem studia dissiparunt, compeditorum gemitus eterni tribunal iudicis in eos utique commovens, qui malignis bellorum suggestionibus dissolvi captivitatis sue vincula non permittunt, et ad ultimum regionis meror crebris depopulationibus deformate, labores inanes et sumptus steriles protestantur. Set inconsultus calor iracundie furiis provocatus et odiorum agitatus impulsibus etiam ab his qui patiuntur hec sentiri non sinit, quia dum vincendi vel ulciscendi cupiditas per improvisa trahit precipitia irritatos, non auditur pater salubriter revocans nec mater agnoscitur ostendens pereuntibus ubera pietatis. Set utroque calcato, quod bellicus furor suggerit, hoc prosequendi temeritas sanum censet. Porro, si alterutri decertantium successus Martis interdum arrideat, non debet is in securitatis iactantiam, donec finalis belli restat eventus, efferri et pacis mediatorem excludere ut irrevincibilis triumphator. Pendet enim adhuc volubilis fortuna certaminis nec cum suis dedit fidem muneribus, ut non debeant revocari et in eius retorqueri sinum, qui de his emulo invidebat. Ludit siquidem desuper in rebus humanis invisibilis speculator, dum eo permittente vel occulto disponente iudicio vincitur et vincit ab altero revictus uterque ac tandem preter spem qui vicerat superatur, pro eo quod iuxta sapientis eloquium: \u2018Non est fortium bellum, cum casus et tempus in omnibus inopinabilia operentur\u2019. Si vero alterutrum obmilitantium casus fortasse depresserit, ut adversario in aliquibus inferior videatur, is proculdubio interdum sibi deterius consulit, quando de casu insurgere satagit continuo in victorem et vires ad reparationem status proprii oportunas in reictionem stantis adversarii properus reluctator expendit, cum tempora fatigatum refovendi vigorem precedere oporteat tempora vindicandi et sepe contingat, quod qui propriam ignominiam nimis animose prosequitur, graviores ulciscendi causas incurrit.Sane propter premissas tam verborum nostrorum quam cardinalium predictorum repulsas forte fuerat a salubribus repellentium medicationibus desistendum; set improbi est circa filios et irrevincibilis paterne pietatis affectus, ab eorum redargutionibus, obsecrationibus et increpationibus importunis desistere nesciens, donec se in consilia referant meliora et morbi cesset pernities, que dormire in nobis vigilem sollicitudinem non permittit, sed ita nos urget assidue, quod si aliarum rerum necessaria occupatio et inevitabilis pateretur, non pigeret nos corporaliter in medias partes instantis exterminii, quod indubium concertantium periculum imminet, prosilire, ut adversos provincie huiusmodi parietes mutue in nobis, immo in Christo, reconciliationis federe iungeremus. Set fere idem vel tantumdem providimus faciendum, eas videlicet ad hoc mittendo lateris nostri partes, in quibus erga vos et salutis vestre causam fervor nostre intentionis patenter eluceat ac per operis sermonisque potentiam compensatione non minima presentie nostre in illis auctoritas sentiatur. Ecce igitur venerabilem fratrem Albanensem episcopum et dilectum filium Guillelmum Sancti Eustachii diaconum cardinalem nostros, magna utique ac insignia ecclesie Dei membra, licet eorum presentia carere ad presens sine molestia non possimus, tamen nostris vestra commoda preferentes, ad partes vestras in pacis pulchritudine reparandas de fratrum nostrorum consilio destinamus, totis eosdem affectibus et plenis desideriis ad commissum eis communis boni negotium consequendo. Quocirca universitatem vestram rogamus, monemus et hortamur attente, ac in remissionem vobis iniungimus peccatorum, quatinus parcentes vobis ipsis et patrie miserentes, vestros velitis providis consiliis temperare calores et super pacis negotio et statu provincie reformandis eorum velitis filialiter suscipere monita, exaudire consilia et mandatis ac iussionibus obedire, ita quod non videamini mortem potius quam salutem affectare communem, et vestra mater ecclesia vos tamquam benivolos filios ob hoc specialiter intime caritatis brachiis amplexetur. Alioquin celum et terram contra rebelles luminis in testimonium invocamus, quod si sponte pereundum eligitis, munde erunt a vestro sanguine manus nostre, et vos apud Deum et homines non solum malorum vestrorum, set et nostrarum super vos rei eritis lacrimarum. Nos quoque sententias, quas iidem episcopus et cardinalis tulerint in rebelles, ratas habebimus et faciemus usque ad satisfactionem condignam inviolabiliter observari, alias contra pertinacium duriciam confringendam nichilominus processuri.Dat. Perusii, VII Kalendas Septembris, anno X\u00b0.\n"
        },
        {
            "type": "edition",
            "value": "Ici reprise de Karl Rodenberg, Epistolae s. XIII e regestis pontificum romanorum selectae, III, Berlin : Weidmann (MGH), 1894, n.\u00a0158, p.\u00a0135."
        },
        {
            "type": "edition_autre",
            "value": "?"
        },
        {
            "type": "regeste",
            "value": "?"
        },
        {
            "type": "bibliographie_generale",
            "value": "?"
        },
        {
            "type": "apparat_critique",
            "value": "?",
            "children": {
                "numero_note": "a"
            }
        },
        {
            "type": "apparat_critique",
            "value": "?",
            "children": {
                "numero_note": "b"
            }
        },
        {
            "type": "apparat_critique",
            "value": "?",
            "children": {
                "numero_note": "c"
            }
        },
        {
            "type": "apparat_critique",
            "value": "?",
            "children": {
                "numero_note": "d"
            }
        },
        {
            "type": "apparat_critique",
            "value": "?",
            "children": {
                "numero_note": "e"
            }
        },
        {
            "type": "apparat_critique",
            "value": "?",
            "children": {
                "numero_note": "f"
            }
        },
        {
            "type": "notes_historiques",
            "value": "?",
            "children": {
                "numero_note": "1"
            }
        },
        {
            "type": "notes_historiques",
            "value": "?",
            "children": {
                "numero_note": "2"
            }
        },
        {
            "type": "notes_historiques",
            "value": "?",
            "children": {
                "numero_note": "3"
            }
        }
    ]
}