{
    "id": 23893,
    "name": "aposcripta-1077",
    "type": "acte",
    "url": "http:\/\/telma-chartes.irht.cnrs.fr\/aposcripta\/notice\/23893",
    "project_slug": "aposcripta",
    "project_label": "APOSCRIPTA \u2013 Lettres des papes",
    "user": "l_valliere",
    "last_update": "2020-10-19 16:27:20",
    "licence": "Attribution - Pas d\u2019Utilisation Commerciale - Partage dans les M\u00eames Conditions 3.0 France (CC BY-NC-SA 3.0 FR) ",
    "licence_url": "https:\/\/creativecommons.org\/licenses\/by-nc-sa\/3.0\/fr\/",
    "elements": [
        {
            "type": "pape",
            "value": "Innocent IV (1243-1254)"
        },
        {
            "type": "destinataire",
            "value": "L'archev\u00eaque de Narbonne"
        },
        {
            "type": "date_libre",
            "value": "V idus maii, anno nono"
        },
        {
            "type": "date",
            "value": " 1252\/05\/11",
            "children": {
                "date_deb_jour": "11",
                "date_deb_mois": "05",
                "date_deb_annee": "1252"
            },
            "range": {
                "date_apres": 12520511,
                "date_avant": 12520511
            }
        },
        {
            "type": "date_lieu",
            "value": "P\u00e9rouse"
        },
        {
            "type": "analyse",
            "value": "Litter\u00e6 quibus Innocentius papa IV archiepiscopo Narbonensi pr\u00e6cipit ut priori et fratribus Pr\u00e6dicatoribus, si pro negligentia vel defectu diocesanorum episcoporum ad ipsum metropolitanum recurrerint, oportunum consilium et auxilium impertiatur."
        },
        {
            "type": "sources_manuscrites",
            "value": "E. FRANCE, Paris, Archives nationales, J 431\/25. Original scell\u00e9 (bulle de plomb sur cordelettes de chanvre ; <i>Inventaire<\/i>, n. 6048. - Cette lettre reproduit presque textuellement le pr\u00e9ambule et l'expos\u00e9 de la n. 1076).",
            "children": {
                "type_source": "Exp\u00e9dition",
                "source_edition": ""
            }
        },
        {
            "type": "transcription",
            "value": "<?xml version=\"1.0\" encoding=\"UTF-8\"?>\nDatum Perusii, V idus maii, pontificatus nostri anno nono.\n"
        },
        {
            "type": "remarques",
            "value": "\u00e0 \u00e9diter - Inconnue de Potthast - Absente des registres"
        },
        {
            "type": "bibliographie_generale",
            "value": ""
        },
        {
            "type": "genre",
            "value": "Mandement (littere cum filo canapis)"
        },
        {
            "type": "regeste",
            "value": "Joseph de Laborde, <i>Layettes du Tr\u00e9sor des chartes<\/i>, III, Paris : Henri Plon, 1875 <a target=\"_blank\" href=\"http:\/\/digi.ub.uni-heidelberg.de\/diglit\/teulet1875bd3\/0243\"> [en ligne]<\/a>, n. 4001, p. 157 <a target=\"_blank\"href=\"https:\/\/francearchives.fr\/fr\/facomponent\/c0de47011d129ee676fc1c28dcc453a02a8150f8\">[num\u00e9ris\u00e9e sur le site des Archives de France]<\/a>, d'apr\u00e8s E."
        },
        {
            "type": "regeste",
            "value": "Bernard Barbiche, <i>Les actes pontificaux originaux des Archives Nationales de Paris<\/i>, Cit\u00e9 du Vatican, 1975-1982, I, n. 690, p. 263, d\u2019apr\u00e8s E."
        }
    ]
}