{
    "id": 144790,
    "name": "aposcripta-5716",
    "type": "acte",
    "url": "http:\/\/telma-chartes.irht.cnrs.fr\/aposcripta\/notice\/144790",
    "project_slug": "aposcripta",
    "project_label": "APOSCRIPTA \u2013 Lettres des papes",
    "user": "l_valliere",
    "last_update": "2020-10-19 16:39:03",
    "licence": "Attribution - Pas d\u2019Utilisation Commerciale - Partage dans les M\u00eames Conditions 3.0 France (CC BY-NC-SA 3.0 FR) ",
    "licence_url": "https:\/\/creativecommons.org\/licenses\/by-nc-sa\/3.0\/fr\/",
    "elements": [
        {
            "type": "pape",
            "value": "Nicolas IV (1288-1292)"
        },
        {
            "type": "destinataire",
            "value": "L'abb\u00e9 du monast\u00e8re Sainte-Justine, l'archipr\u00eatre et le vicaire de l'\u00e9v\u00eaque de Padoue"
        },
        {
            "type": "date_libre",
            "value": "kalendis februarii, anno primo"
        },
        {
            "type": "date",
            "value": "1289\/02\/01",
            "children": {
                "date_deb_annee": "1289",
                "date_deb_mois": "02",
                "date_deb_jour": "01"
            },
            "range": {
                "date_apres": 12890201,
                "date_avant": 12890201
            }
        },
        {
            "type": "date_lieu",
            "value": "Rome, Sainte-Marie-Majeure"
        },
        {
            "type": "genre",
            "value": "Lettre, g\u00e9n\u00e9ral (apr\u00e8s 1198, littere cum filo canapis)"
        },
        {
            "type": "analyse",
            "value": "Nicol\u00f2 IV ordina che Mainardo, duca di Carinzia e conte del Tirolo, e i suoi complici, che hanno incarcerato il vescovo di Trento e depredato i beni della sua Chiesa, siano pubblicamente citati a presentarsi alla sede apostolica entro due mesi."
        },
        {
            "type": "sources_manuscrites",
            "value": "R. CIT\u00c9 DU VATICAN, Archivio segreto Vaticano, <i>Registra Vaticana<\/i> 44, CCCLVIII, fol. 83r.",
            "children": {
                "type_source": "Registre de la chancellerie apostolique"
            }
        },
        {
            "type": "edition",
            "value": "Ici reprise d\u2019Emanuele Curzel, <i>Documenti papali per la storia trentina (fino al 1341)<\/i>, Bologne, 2004 (Annali dell\u2019Istituto storico italo-germanico. Fonti ; 1), n. 48, p. 119-121, d\u2019apr\u00e8s R."
        },
        {
            "type": "edition_autre",
            "value": "Ferdinand Kaltenbrunner, <i>Actenst\u00fccke zur Geschichte des Deutsches Reiches unter den K\u00f6nigen Rudolf I. und Albrecht I.<\/i> (Mittheilungen aus dem Vaticanischen Archive, 1), Wien 1889, n. 327, p. 345-349."
        },
        {
            "type": "regeste",
            "value": "Ernest Langlois, <i>Les Registres de Nicolas IV (1288-1292)<\/i>, (Biblioth\u00e8que des \u00c9coles Fran\u00e7aises d\u2019Ath\u00e8nes et de Rome), Paris 1887-1893, n. 552 <a target=\"_blank\" href=\" https:\/\/archive.org\/details\/lesregistresdeni01nico\/page\/106 \"> [en ligne]<\/a>."
        },
        {
            "type": "regeste",
            "value": "Hermann Wiesflecker, <i>Die Regesten der Grafen von G\u00f6rz und Tirol, Pfalzgrafen in K\u00e4rnten<\/i>, I (Publikationen des Institutes f\u00fcr \u00f6sterreichische Geschichtsforschung 4\/1, I), Innsbruck 1949, II, n. 620."
        },
        {
            "type": "transcription",
            "value": "<?xml version=\"1.0\" encoding=\"UTF-8\"?>\nDilectis filiis .. abbati monasterii Sancte Iustine et .. archipresbytero ecclesie ac .. vicario venerabilis fratris nostri .. episcopi Paduani. Detestande presumptionis excessus qui contra venerabilem fratrem nostrum Henricum, episcopum Tridentinum, non sine multo divini nominis et apostolice Sedis contemptu gravique dispendio ecclesiastice libertatis ausu nephario dicitur attemptatus, nuper nostrum perturbavit auditum et mentis intima pupugit, instanter nostrum excitansa animum ad exercendum in illorum patratores condigne gladium ultionis. Intelleximus siquidem, nobis eodem episcopo non sine querela maxima referente, quod nobilis vir Maynardus, dux Carinthie et comes Tyrolensis, non attendens quantum sit dignitati presulis deferendum ac Deum in dicto episcopo offendere non pavescens, prefatum episcopum iam bis tum per .. marescalcum suum, tum per satellites eius captum, ausu nephario carcerali custodie manciparit, eum inibi aliquandiu detinendo captivum et, ad gravamina et iniurias episcopi eiusdem aspirans suumque dirigens appetitum ad occupationem bonorum ipsius episcopi et ecclesie Tridentine, ipsi episcopo et eius servitoribus ac subditis diris iniuriis et dampnis gravibus in personis multipliciter irrogatis, ad civitatem Tridentinam, in qua idem episcopus omnimodam iurisdictionem spiritualem et temporalem obtinet, hostiliter accedens cum multitudine armatorum, dictam civitatem, castra quoque, fortellitia seu munitiones, burgos, villas, montan[eas]b, iurisdictiones, homines, valles, iura et redditus aliaque bona omnia ad eundem episcopum et episcopalem sedem Tridentinam ac ad quosdam vassallos eiusdem ecclesie et subditos, quorum quosdam dictus comes expulit de predicta civitate ac diocesi Tridentina, aliquos vero indebitis molestiis, non absque episcopi et ecclesie predictorum preiudicio gravi, opprimere non desistit, pertinentia contra iustitiam occupavit. Propter quod idem episcopus, quia dictus comes ac commune seu cives dicte civitatis qui eidem comiti in hoc contra prefatum episcopum dampnabiliter adherebant, ab huiusmodi iniuriis eiusdem episcopi et ipsius ecclesie Tridentine desistere sibique super hoc satisfacere pertinaciter contempserunt, predictas civitatem et diocesim rationabiliter auctoritate propria ecclesiastico supposuit interdicto, quamquam alias iamdicta civitas et diocesis propter hoc, ex tenore seu auctoritate provincialis concilii Aquilegensis, quod per venerabiles fratres nostros .. patriarcham Aquilegensem ac ipsum episcopum Tridentinum et alios suos suffraganeos dudum sollempniter factum et ex tunc irrefragabiliter observatum, civitates et loca provincie Aquilegensis propter similium excessuum patratores ecclesiastico interdicto subicit, ipso facto interdicto simili subiacerent. Verum Gotsalcus decanus, Adelprectusc quondam scriptor dicti comitis et Iacobus dictus Comes, canonici ecclesie Tridentine, ac Rudolphus dictus Magister de Misna clericus, qui se gerit pro canonico eiusdem ecclesie Tridentine, interdicti huiusmodi non ignari, in favorem dicti comitis, immo potius in proprie dampnationis cumulum, in dictis civitate et diocesi taliter interdictis divina officia publice prophanare temere presumpserunt, et alias tam idem decanus et canonici ac clericus quam quondam Bonifatius et quondam Fredericus ac Wuillelmus fratres de Castelbarcho, Henricus de Rotburg, magister curie comitis supradicti, et Geremias quondam Aprovini de Castelnovo, laici, fautores eiusdem ducis, civitatis et diocesis Tridentine ac Veronensis et Feltrensis diocesis, contra eundem episcopum, quem ut patrem benivolum tractare debebant potius, irreverenterd, nequitie calcaneume erigentes, dicto comiti ad occupationem seu huiusmodi iniustam detentionem civitatis, castrorum et aliorum omnium predictorum consilium, favorem et auxilium dampnabiliter impenderunt, eaque tam idem comes et filii predictorum Bonifatii et Frederici, qui interim decesserunt, eis succedentes in vitium, quam alii supradicti detinent occupata, in dictorum episcopi et ecclesie manifestam iniuriam et iacturam, propter quod episcopus ipse, sic bonis suis totaliter destitutus, cogitur extra prefatam ecclesiam in obprobrium pontificalis officii exulare. Quare idem episcopus nobis humiliter supplicavit ut, cum ipse propter predictorum ducis et fautorum ipsius potentiam non posset super hiis in illis partibus assequi iustitie complementum nec iudicialibus anfractibus subsistere taliter spoliatus, oportunum super hoc adhibere remedium contra predictorum iniuriatorum insolentiam paterna diligentia dignaremur. Nos igitur, qui sumus in iustitia debitores, nolentes tot ipsorum episcopi et ecclesie gravamina et iniurias equanimiter tolerare, sed volentes eisdem episcopo et ecclesie Tridentine suisque vassallis et subditis adversus huiusmodi eorundem iniuriatorum audaciam iuxta officii nostri debitum favorabiliter in suo iure adesse ipsisque super predictis apud sedem apostolicam iustitie plenitudine exhiberi, dilecto filio nostro Petro, tituli Sancti Marci presbytero cardinali, negotium huiusmodi commisimus de plano et sine strepitu et figura iudicii audiendum et fine debito terminandum. Quia vero, sicut ex retroactis apparere dicitur apertissimis argumentis, dicti dux et eius fautores citari personaliter apud eorum domicilia secure non possent, ne propter hoc predicti negotiif decisio prorogetur, discretioni vestre per apostolica scripta mandamus quatinus vos vel duo aut unus vestrum, per vos vel per alium seu alios, in uno vel pluribus locis, vicinis duci et fautoribus memoratis, quem vel que ad hoc duxeritis eligenda et de quibus facta per vos citatio verisimiliter possit ad eorum notitiam pervenire, clero et populo congregatis, publice et peremptorie citetis eosdem ut infra duos menses post citationem huiusmodi per se vel per procuratores ydoneos apostolico se conspectui representent, facturi et recepturi super premissis quod iustitia suadebit, diem vero citationis et formam et quicquid inde feceritis nobis per vestras litteras harum seriem continentes fideliter intimare curetis. Datum Rome, apud Sanctam Mariam Maiorem, kalendis februarii, pontificatus nostri anno primo.\n"
        },
        {
            "type": "apparat_critique",
            "value": "exitans <i>R<\/i>.",
            "children": {
                "numero_note": "a"
            }
        },
        {
            "type": "apparat_critique",
            "value": "montanos <i>Kaltenbrunner<\/i>.",
            "children": {
                "numero_note": "b"
            }
        },
        {
            "type": "apparat_critique",
            "value": "Adalprectus <i>Kaltenbrunner<\/i>.",
            "children": {
                "numero_note": "c"
            }
        },
        {
            "type": "apparat_critique",
            "value": "ir- <i>ajout\u00e9 dans l'interligne R<\/i>.",
            "children": {
                "numero_note": "d"
            }
        },
        {
            "type": "apparat_critique",
            "value": "calcaria <i>corrig\u00e9 Kaltenbrunner<\/i>.",
            "children": {
                "numero_note": "e"
            }
        },
        {
            "type": "apparat_critique",
            "value": "negotio <i>R<\/i>.",
            "children": {
                "numero_note": "f"
            }
        }
    ]
}