{
    "id": 26426,
    "name": "aposcripta-3505",
    "type": "acte",
    "url": "http:\/\/telma-chartes.irht.cnrs.fr\/aposcripta\/notice\/26426",
    "project_slug": "aposcripta",
    "project_label": "APOSCRIPTA \u2013 Lettres des papes",
    "user": "lettrespontificalesadmin",
    "last_update": "2020-10-19 16:28:00",
    "licence": "Attribution - Pas d\u2019Utilisation Commerciale - Partage dans les M\u00eames Conditions 3.0 France (CC BY-NC-SA 3.0 FR) ",
    "licence_url": "https:\/\/creativecommons.org\/licenses\/by-nc-sa\/3.0\/fr\/",
    "elements": [
        {
            "type": "pape",
            "value": "Alexandre III (1159-1181)"
        },
        {
            "type": "date_lieu",
            "value": "Tusculum"
        },
        {
            "type": "date_libre",
            "value": "1181 Januar 16 <a class=\"note\" href=\"#note-2\">2<\/a>"
        },
        {
            "type": "date",
            "value": " 1181\/01\/16",
            "children": {
                "date_deb_annee": "1181",
                "date_deb_mois": "01",
                "date_deb_jour": "16"
            },
            "range": {
                "date_apres": 11810116,
                "date_avant": 11810116
            }
        },
        {
            "type": "analyse",
            "value": "Alexander III best\u00e4tigt dem Kapitel von St.-G\u00e9ry de Cambrai die zwei Pr\u00e4benden, welche ihm fr\u00fcher vom Bischofe Nikolaus I von Cambrai f\u00fcr Baureparaturen \u00fcberwiesen sind<a class=\"note\" href=\"#note-1\">1<\/a>."
        },
        {
            "type": "transcription",
            "value": "<?xml version=\"1.0\" encoding=\"UTF-8\"?>\n Alexander episcopus servus servorum dei dilectis filiis .. preposito et | capitulo sancti Gaugerici Cameracensis salutem et apostolicam benedictionem. Justis | petentium desideriis dignum est nos facilem prebere consensum et vota, que a rationis tramite non discordant, effectu sunt prosequente complenda. Eapropter, dilecti in domino filii, vestris iustis postulationibus3 grato concurrentes assensu, duas prebendas in ecclesia vestra, sicut Nicholaus, quondam Cameracensis episcopus4, eas vobis ad claustrum et officinas ecclesie vestre reparandas rationabiliter concessisse dinoscitur, vobis et per vos ecclesie vestre ad eundem usum auctoritate apostolica confirmamus et presentis scripti patrocinio communimus. Statuentes, ut nulli omnino hominum liceat, hanc paginam nostre confirmationis infringere vel ei aliquatenus contraire. Si quis autem hoc attemptare presumpserit, indignationem omnipotentis dei et beatorum Petri et Pauli apostolorum eius se noverit in|cursurum. \u2014 Dat. Tusculani, xvii Kl. Februarii.\n"
        },
        {
            "type": "edition",
            "value": "Julius von Pflugk-Harttung, <i>Acta pontificum Romanorum inedita<\/i>, T\u00fcbingen, 1880, I, n. 317, p. 282"
        },
        {
            "type": "sources_manuscrites",
            "value": "Or. im Archive des D\u00e9p. Nord zu Lille (Fonds de St.-G\u00e9ry). \u2014 Abschrift ebendort, im Cart. de St.-G\u00e9ry I fol. 97."
        },
        {
            "type": "remarques",
            "value": "Perg. ital., breit 0,22, lang 0,23, unten umgeschlagen, durch 2 L\u00f6cher geht die rosa Seidenschnur, an der die Bulle h\u00e4ngt, Faltung die der Breven."
        },
        {
            "type": "notes_historiques",
            "value": "<i>Vergl. die Urk. vom 15 Juli 1173\u20131176.<\/i>",
            "children": {
                "numero_note": "1"
            }
        },
        {
            "type": "notes_historiques",
            "value": "<i>Wegen der Datirung vergl. die Urk. vom 23 Dec. 1180.<\/i>",
            "children": {
                "numero_note": "2"
            }
        },
        {
            "type": "notes_historiques",
            "value": "<i>Die<\/i> postulationes <i>werden von den beim Papst anwesenden Kanonikern ausgegangen, bezw. \u00fcberreicht sein<\/i>.",
            "children": {
                "numero_note": "3"
            }
        },
        {
            "type": "notes_historiques",
            "value": "<i>Nikolaus I, Bischof von Cambrai, c. 1137\u20131167.<\/i>",
            "children": {
                "numero_note": "4"
            }
        },
        {
            "type": "genre",
            "value": "Bulle"
        }
    ]
}