{
    "id": 20392,
    "name": "aposcripta-379",
    "type": "acte",
    "url": "http:\/\/telma-chartes.irht.cnrs.fr\/aposcripta\/notice\/20392",
    "project_slug": "aposcripta",
    "project_label": "APOSCRIPTA \u2013 Lettres des papes",
    "user": "lettrespontificalesadmin",
    "last_update": "2020-10-19 16:26:48",
    "licence": "Attribution - Pas d\u2019Utilisation Commerciale - Partage dans les M\u00eames Conditions 3.0 France (CC BY-NC-SA 3.0 FR) ",
    "licence_url": "https:\/\/creativecommons.org\/licenses\/by-nc-sa\/3.0\/fr\/",
    "elements": [
        {
            "type": "pape",
            "value": "Innocent VI (1352-1362)"
        },
        {
            "type": "date_lieu",
            "value": "Avignon"
        },
        {
            "type": "date_libre",
            "value": "15 avril 1353"
        },
        {
            "type": "analyse",
            "value": "Supplique tendant \u00e0 obtenir quelques modifications \u00e0 la pr\u00e9c\u00e9dente. Les \u00e9crits dudit franciscain roulent sur la question de la pauvret\u00e9 du Christ et des ap\u00f4tres, et sur l\u2019eucharistie. Le cardinal Pierre de Cros est seul charg\u00e9 de l\u2019enqu\u00eate, et le pape lui-m\u00eame se r\u00e9serve la sentence."
        },
        {
            "type": "transcription",
            "value": "<?xml version=\"1.0\" encoding=\"UTF-8\"?>\nAudiat et referat Autisiodoren. cardinalis. G. \u2014 Datum Avinioni, xvii kal. maii, anno primo.\n"
        },
        {
            "type": "edition",
            "value": "Jean-Marie Vidal, <i>Bullaire de l\u2019Inquisition fran\u00e7aise au XIV<sup>e<\/sup> si\u00e8cle et jusqu'\u00e0 la fin du Grand Schisme<\/i>, Paris : Letouzey et An\u00e9, 1913, n. 214 bis, p. 332"
        },
        {
            "type": "sources_manuscrites",
            "value": "<i>Supplic.<\/i>, t. <span class=\"smal-caps\">xxiii<\/span> (Innoc. VI, t. <span class=\"smal-caps\">i<\/span>), fol. 127 v\u00b0."
        },
        {
            "type": "date",
            "value": "1353\/04\/15",
            "children": {
                "date_deb_annee": "1353",
                "date_deb_mois": "04",
                "date_deb_jour": "15"
            },
            "range": {
                "date_apres": 13530415,
                "date_avant": 13530415
            }
        },
        {
            "type": "genre",
            "value": "Bulle"
        }
    ]
}