{
    "id": 149653,
    "name": "aposcripta-9216",
    "type": "acte",
    "url": "http:\/\/telma-chartes.irht.cnrs.fr\/aposcripta\/notice\/149653",
    "project_slug": "aposcripta",
    "project_label": "APOSCRIPTA \u2013 Lettres des papes",
    "user": "lettrespontificalesadmin",
    "last_update": "2020-10-19 16:40:02",
    "licence": "Attribution - Pas d\u2019Utilisation Commerciale - Partage dans les M\u00eames Conditions 3.0 France (CC BY-NC-SA 3.0 FR) ",
    "licence_url": "https:\/\/creativecommons.org\/licenses\/by-nc-sa\/3.0\/fr\/",
    "elements": [
        {
            "type": "pape",
            "value": "Alexandre IV (1254-1261)"
        },
        {
            "type": "destinataire",
            "value": "Ad futuram rei memoriam"
        },
        {
            "type": "date_libre",
            "value": "XV kalendas septembris, anno I"
        },
        {
            "type": "date",
            "value": " 1255\/08\/18",
            "children": {
                "date_deb_annee": "1255",
                "date_deb_mois": "08",
                "date_deb_jour": "18"
            },
            "range": {
                "date_apres": 12550818,
                "date_avant": 12550818
            }
        },
        {
            "type": "date_lieu",
            "value": "Anagnie"
        },
        {
            "type": "sources_manuscrites",
            "value": "R. CIT\u00c9 DU VATICAN, Archivio Segreto Vaticano, <hi rend=\"italic\">Registra Vaticana<\/hi> ... Al.\u00a0IV Reg. Vol.\u00a0I, 122; Lib.\u00a0I, cur.\u00a010. Pertzii exemplar contulimus cum authentico, quod edidit Finke, l. c.",
            "children": {
                "type_source": "Registre de la chancellerie apostolique"
            }
        },
        {
            "type": "genre",
            "value": "Mandement (littere cum filo canapis)"
        },
        {
            "type": "analyse",
            "value": "Alexander IV papa revocat omnia privilegia ab Innocentio IV papa et Alexandro ipso personis ecclesiasticis vel secularibus concessa, in quibus eisdem, ne interdici, suspendi vel excommunicari possint, indultum fuerit [Rodenberg]."
        },
        {
            "type": "transcription",
            "value": "<?xml version=\"1.0\" encoding=\"UTF-8\"?>\nAd futuram rei memoriam.Quia pro qualitate temporis hominum disponuntur agenda, ideo evenit, quod illius mutabilitate mutantur. Unde id ipsum, quod alias eo urgente provide actum est, nonnumquam postea eodem exigente contrarium non improvide revocatur. Hinc quidem est, quod nonnulla, que placuerunt aliquando, postmodum decursis temporibus suismet actoribus displicent, et interdum illud idem valde difficile cernitur, quod ante satis facile videbatur. Hoc autem facit ipsius temporis status instabilis, qui successibus variis circa temporalia et terrena iugiter immutatur; nam cum illius necessitatem et locorum etiam conditionem considerare conveniat, oportet secundum ea ingruentia semper negotia dirigi et disponi; propter quod felicis recordationis I. papa predecessor noster nimia duri temporis tunc eum importunitate cogente plura, quamquam forte invitus, fecisse dinoscitur, que ipsemet proponebat succedente oportunitate utiliter immutare. Quampluribus namque personis, tam ecclesiasticis quam secularibus, quod per delegatos vel conservatores aut executores a sede apostolica deputatos seu per [sub]delegatos ab ipsis, aliquibus vero, quod per legatos eiusdem sedis vel per ordinarios aut per delegatos eorum interdici vel suspendi seu excommunicari quodque ipsis ingressus ecclesie interdici et quod terre sue interdicto ecclesiastico supponi non valeant, quibusdam quidem ad certum tempus, quibusdam autem sine temporis determinatione, non tam liberalitate quam improba petentium instantia, considerata tunc temporis qualitate, concessit. Nos itaque, sollicite attendentes quod ex concessione vel indulto huiusmodi multa malignandi audatia sumi potest, cum hec indulgentia contra censuram et auctoritatem ecclesiasticam aperte communiat, laxet nocendi ausum, frenet modestiam, insolentiam armet et iudicialem debilitet potestatem, pensantes etiam quod contra indulto tali protectos iustitie debitum exhiberi plene non potest, cum nequeat in ipsos libere iurisdictio exerceri, quia omnino expedit super hiis congruum remedium adhibere, omnia indulta huiusmodi quibuscumque personis sive ecclesiasticis, prelatis et aliis, regularibus et non regularibus, sive secularibus, principibus videlicet et aliis minoribus, et quorumcumque locorum capitulis, collegiis, conventibus et communibus seu communitatibus ab eodem predecessore vel etiam a nobis concessa, nisi principes ipsi sint reges vel uxores aut filii seu fratres regum aut magnates sublimesque viri, qui antiquitus a predicta sede similem gratiam habuerunt, totaliter auctoritate apostolica revocamus, ita quod deinceps nullum robur nullumque vigorem obtineant nec premissi per ea iuvare se ulterius valeant vel tueri. Nulli etc. nostre revocationis etc.Dat. Anagnie, XV Kalendas Septembris, anno I\u00b0.\n"
        },
        {
            "type": "edition",
            "value": "Ici reprise de Karl Rodenberg, Epistolae s. XIII e regestis pontificum romanorum selectae, III, Berlin : Weidmann (MGH), 1894, n.\u00a0408, p.\u00a0367."
        },
        {
            "type": "edition_autre",
            "value": "?"
        },
        {
            "type": "regeste",
            "value": "?"
        },
        {
            "type": "bibliographie_generale",
            "value": "?"
        },
        {
            "type": "apparat_critique",
            "value": "?",
            "children": {
                "numero_note": "a"
            }
        },
        {
            "type": "apparat_critique",
            "value": "?",
            "children": {
                "numero_note": "b"
            }
        },
        {
            "type": "apparat_critique",
            "value": "?",
            "children": {
                "numero_note": "c"
            }
        },
        {
            "type": "apparat_critique",
            "value": "?",
            "children": {
                "numero_note": "d"
            }
        },
        {
            "type": "apparat_critique",
            "value": "?",
            "children": {
                "numero_note": "e"
            }
        },
        {
            "type": "apparat_critique",
            "value": "?",
            "children": {
                "numero_note": "f"
            }
        },
        {
            "type": "notes_historiques",
            "value": "?",
            "children": {
                "numero_note": "1"
            }
        },
        {
            "type": "notes_historiques",
            "value": "?",
            "children": {
                "numero_note": "2"
            }
        },
        {
            "type": "notes_historiques",
            "value": "?",
            "children": {
                "numero_note": "3"
            }
        }
    ]
}