{
    "id": 20624,
    "name": "aposcripta-611",
    "type": "acte",
    "url": "http:\/\/telma-chartes.irht.cnrs.fr\/aposcripta\/notice\/20624",
    "project_slug": "aposcripta",
    "project_label": "APOSCRIPTA \u2013 Lettres des papes",
    "user": "lettrespontificalesadmin",
    "last_update": "2020-10-19 16:26:51",
    "licence": "Attribution - Pas d\u2019Utilisation Commerciale - Partage dans les M\u00eames Conditions 3.0 France (CC BY-NC-SA 3.0 FR) ",
    "licence_url": "https:\/\/creativecommons.org\/licenses\/by-nc-sa\/3.0\/fr\/",
    "elements": [
        {
            "type": "pape",
            "value": "Alexandre II (1061-1073)"
        },
        {
            "type": "date_lieu",
            "value": "n.c."
        },
        {
            "type": "date_libre",
            "value": "1606-1067"
        },
        {
            "type": "analyse",
            "value": "Alexander\u00a0II Stephano episcopo Alvernensi scribit, poenitentiam in canonibus determinatam observandam, misericordiam vero pie poenitentibus non esse denegandam."
        },
        {
            "type": "transcription",
            "value": "<?xml version=\"1.0\" encoding=\"UTF-8\"?>\nStephano Alvernensi episcopo. Que in canonibus determinata est, penitentia est omnino observanda. Sed misericordie gratia, que nulla lege concluditur, nullo temporis spatio cohercetur, non est pie penitentibus deneganda. Pastoralis itaque discretionis est, uniuscuiusque contrictionem cordis et doloris affectum magis quam temporis spatium attendere, et pro meritis operum fructuque penitentiae misericordiae oleum adhibere.\n"
        },
        {
            "type": "edition",
            "value": "Ici reprise de Samuel Loewenfeld, <i>Epistolae pontificum romanorum ineditae<\/i>, Leipzig : Veit et Comp., 1885, n. 112, p. 56."
        },
        {
            "type": "sources_manuscrites",
            "value": "Coll. Brit. Alex. ep.\u00a075, l.\u00a0l. fol.\u00a049<sup>b<\/sup>.",
            "children": {
                "type_source": "Collection canonique, collection de d\u00e9cr\u00e9tales"
            }
        },
        {
            "type": "date",
            "value": "apr\u00e8s 1066 - avant 1067",
            "children": {
                "date_deb_annee": "1066",
                "date_deb_type": "apres",
                "date_fin_annee": "1067",
                "date_fin_type": "avant"
            },
            "range": {
                "date_apres": 10660000,
                "date_avant": 10679999
            }
        },
        {
            "type": "genre",
            "value": "Lettre, g\u00e9n\u00e9ral (avant 1198)"
        }
    ]
}