{
    "id": 149513,
    "name": "aposcripta-9076",
    "type": "acte",
    "url": "http:\/\/telma-chartes.irht.cnrs.fr\/aposcripta\/notice\/149513",
    "project_slug": "aposcripta",
    "project_label": "APOSCRIPTA \u2013 Lettres des papes",
    "user": "lettrespontificalesadmin",
    "last_update": "2020-10-19 16:39:59",
    "licence": "Attribution - Pas d\u2019Utilisation Commerciale - Partage dans les M\u00eames Conditions 3.0 France (CC BY-NC-SA 3.0 FR) ",
    "licence_url": "https:\/\/creativecommons.org\/licenses\/by-nc-sa\/3.0\/fr\/",
    "elements": [
        {
            "type": "pape",
            "value": "Innocent IV (1243-1254)"
        },
        {
            "type": "destinataire",
            "value": "Henrico Hildesemensi episcopo"
        },
        {
            "type": "date_libre",
            "value": "II idus maii, anno XI"
        },
        {
            "type": "date",
            "value": " 1254\/05\/14",
            "children": {
                "date_deb_annee": "1254",
                "date_deb_mois": "05",
                "date_deb_jour": "14"
            },
            "range": {
                "date_apres": 12540514,
                "date_avant": 12540514
            }
        },
        {
            "type": "date_lieu",
            "value": "Asisii"
        },
        {
            "type": "sources_manuscrites",
            "value": "R. CIT\u00c9 DU VATICAN, Archivio Segreto Vaticano, <hi rend=\"italic\">Registra Vaticana<\/hi> ... Inn.\u00a0IV Reg. Vol.\u00a0III, 89; Lib.\u00a0XI, 636. Pertzii exemplar contulimus cum illo, quod Meerman l. c. t.\u00a0V, p.\u00a0182 edidit.",
            "children": {
                "type_source": "Registre de la chancellerie apostolique"
            }
        },
        {
            "type": "genre",
            "value": "Mandement (littere cum filo canapis)"
        },
        {
            "type": "analyse",
            "value": "Innocentius IV papa Henrico episcopo Hildeshemensi ad preces Willelmi regis Romanorum facultatem concedit, ut redditus beneficiorum ecclesiasticorum, quae in diocesi sua usque ad triennium vacaverint, per annum percipiat, in solutionem debitorum, quae pro negotio imperii subierit, convertendos [Rodenberg]."
        },
        {
            "type": "transcription",
            "value": "<?xml version=\"1.0\" encoding=\"UTF-8\"?>\nHenrico Hildesemensi episcopo.Pro defensione iurium imperii et Hildesemensis ecclesie te oportuit prout asseris magna subire onera debitorum. Nos itaque, propter hoc et obtentu carissimi in Christo filii nostri W. regis Romanorum illustris pro te apostolicam gratiam implorantis volentes tibi gratiam facere specialem, percipiendi omnes redditus et proventus primi anni omnium beneficiorum ecclesiasticorum, que in Hildesemensi civitate ac diocesi usque ad triennium vacare contigerit, convertendos in solutionem huiusmodi debitorum, necnon contradictores per censuram ecclesiasticam appellatione postposita compescendi fraternitati tue liberam concedimus auctoritate presentium facultatem \u2014 non obstante si est aliquibus ab apostolica sede indultum, quod interdici etc. \u2014; proviso quod interim beneficia ipsa debitis obsequiis non fraudentur.Dat. Asisii, II Idus Maii, anno XI\u00b0.\n"
        },
        {
            "type": "edition",
            "value": "Ici reprise de Karl Rodenberg, Epistolae s. XIII e regestis pontificum romanorum selectae, III, Berlin : Weidmann (MGH), 1894, n.\u00a0285, p.\u00a0257."
        },
        {
            "type": "edition_autre",
            "value": "?"
        },
        {
            "type": "regeste",
            "value": "?"
        },
        {
            "type": "bibliographie_generale",
            "value": "?"
        },
        {
            "type": "apparat_critique",
            "value": "?",
            "children": {
                "numero_note": "a"
            }
        },
        {
            "type": "apparat_critique",
            "value": "?",
            "children": {
                "numero_note": "b"
            }
        },
        {
            "type": "apparat_critique",
            "value": "?",
            "children": {
                "numero_note": "c"
            }
        },
        {
            "type": "apparat_critique",
            "value": "?",
            "children": {
                "numero_note": "d"
            }
        },
        {
            "type": "apparat_critique",
            "value": "?",
            "children": {
                "numero_note": "e"
            }
        },
        {
            "type": "apparat_critique",
            "value": "?",
            "children": {
                "numero_note": "f"
            }
        },
        {
            "type": "notes_historiques",
            "value": "?",
            "children": {
                "numero_note": "1"
            }
        },
        {
            "type": "notes_historiques",
            "value": "?",
            "children": {
                "numero_note": "2"
            }
        },
        {
            "type": "notes_historiques",
            "value": "?",
            "children": {
                "numero_note": "3"
            }
        }
    ]
}