{
    "id": 148206,
    "name": "aposcripta-7822",
    "type": "acte",
    "url": "http:\/\/telma-chartes.irht.cnrs.fr\/aposcripta\/notice\/148206",
    "project_slug": "aposcripta",
    "project_label": "APOSCRIPTA \u2013 Lettres des papes",
    "user": "l_valliere",
    "last_update": "2020-10-19 16:39:42",
    "licence": "Attribution - Pas d\u2019Utilisation Commerciale - Partage dans les M\u00eames Conditions 3.0 France (CC BY-NC-SA 3.0 FR) ",
    "licence_url": "https:\/\/creativecommons.org\/licenses\/by-nc-sa\/3.0\/fr\/",
    "elements": [
        {
            "type": "pape",
            "value": "Cl\u00e9ment IV (1265-1268)"
        },
        {
            "type": "destinataire",
            "value": "Le roi de France Louis IX"
        },
        {
            "type": "date_libre",
            "value": "VII idus junii, anno quarto"
        },
        {
            "type": "date",
            "value": "1268\/06\/07",
            "children": {
                "date_deb_annee": "1268",
                "date_deb_mois": "06",
                "date_deb_jour": "07"
            },
            "range": {
                "date_apres": 12680607,
                "date_avant": 12680607
            }
        },
        {
            "type": "date_lieu",
            "value": "Viterbe"
        },
        {
            "type": "genre",
            "value": "Lettre, g\u00e9n\u00e9ral (apr\u00e8s 1198, littere cum filo canapis)"
        },
        {
            "type": "analyse",
            "value": "Scribit L[udovico] regi Francie de collatione archidiaconatus Senonensis, vacante per consecrationem P[etri] archiepiscopi Senonensis, eumque rogat ut meditet an in hoc negotio bene fecerit [Jordan].\nClemens IV. an K\u00f6nig L(udwig IX.) von Frankreich: tadelt ihn, weil er bei der Besetzung des Archidiakonats von Sens die p\u00e4pstlichen Rechte nicht ber\u00fccksichtigt habe [Thumser]."
        },
        {
            "type": "sources_manuscrites",
            "value": "R<sup>1<\/sup>. CIT\u00c9 DU VATICAN, Archivio segreto Vaticano, <i>Registra Vaticana<\/i> 30, fol. 82v.",
            "children": {
                "type_source": "Formulaire, collection de lettres m\u00e9di\u00e9vale"
            }
        },
        {
            "type": "sources_manuscrites",
            "value": "R<sup>2<\/sup>. CIT\u00c9 DU VATICAN, Archivio segreto Vaticano, <i>Registra Vaticana<\/i> 33, ep. 502, fol. 81.",
            "children": {
                "type_source": "Formulaire, collection de lettres m\u00e9di\u00e9vale"
            }
        },
        {
            "type": "sources_manuscrites",
            "value": "R<sup>3<\/sup>. CIT\u00c9 DU VATICAN, Archivio segreto Vaticano, <i>Registra Vaticana<\/i> 34, fol. 126v.",
            "children": {
                "type_source": "Formulaire, collection de lettres m\u00e9di\u00e9vale"
            }
        },
        {
            "type": "sources_manuscrites",
            "value": "R<sup>4<\/sup>. CIT\u00c9 DU VATICAN, Archivio segreto Vaticano, <i>Registra Vaticana<\/i> 35, ep. 509, fol. 92v.",
            "children": {
                "type_source": "Formulaire, collection de lettres m\u00e9di\u00e9vale"
            }
        },
        {
            "type": "edition",
            "value": "Ici reprise de Mathias Thumser, <i>Die Briefe Papst Clemens\u2019 IV. (1265-1268)<\/i>, Vorl\u00e4ufige Edition, MGH, 2015, n. 510."
        },
        {
            "type": "regeste",
            "value": "Potthast, <i>Regesta pontificum Romanorum<\/i>, n. 20387 <a target=\"_blank\" href=\"https:\/\/archive.org\/stream\/RegestaPontificumRomanorum\/ph#page\/n1655\/mode\/2up\"> [en ligne]<\/a>."
        },
        {
            "type": "bibliographie_generale",
            "value": "Mathias Thumser, \u00ab Zur \u00dcberlieferungsgeschichte der Briefe Clemens'IV. (1265-1268) \u00bb, <i>Deutsches Archiv f\u00fcr Erforschung des Mittelalters<\/i>, 51\/1, 1995, p. 115-168."
        },
        {
            "type": "transcription",
            "value": "<?xml version=\"1.0\" encoding=\"UTF-8\"?>\nCarissimo in Christo filio nostro L[udovico] regi Francie illustri. In archidiaconatus Senonensis negotio nobiscum curialius agere tua, fili carissime, circumspecta prudentia potuisset \u2013 nec peccabimus, si dixerimus : debuisset \u2013, cum pro iure salvando regio, si quod erat vel esse poterat, viam nobis placuisset eligere gratiosam, quam acceptam habere te decuisset, cum de illorum numero non credaris, qui suam fortitudinem legem iustitie esse volunt. Sane nullus manus nostras ligaverat, nemo linguam, quin nos statim venerabili fratre nostro P[etro] Senonensi archiepiscopo consecrato archidiaconatum conferre libere potuissemus eundem, quem etiam poteramus conferre infra tempus de consecrandis episcopis a canone diffinitum ex apostolice plenitudine potestatis, sed neutro istorum usi tue benivolentie morem gessimus nec humilitatis nostre fructum alium reportavimus, nisi quod efficaciter docti sumus, cum se facultas obtulerit in similibus, inoffensa semper iustitia cautius nos habere. Tu igitur, fili carissime, diligenti meditatione pensabis an bene feceris, an patri benivolo vicem dignam rependeris, quod defendi posse non credimus, nisi sacrorum canonum fundamenta totaliter a radicibus evellantur. Nos autem cum adversario quem nobis constituere voluisti, ius nostrum, prout expedire viderimus, prosequemur. Datum ut supra.\n"
        },
        {
            "type": "edition_autre",
            "value": "Edmond Mart\u00e8ne, Ursin Durand, <i>Thesaurus novus anecdotorum<\/i>, Paris, 1717, II, n. 659, col. 607 <a target=\"_blank\" href=\"https:\/\/archive.org\/stream\/ThesaurusNovusAnecdotorum2\/Thesaurus_novus_anecdotorum_2#page\/n339\/mode\/2up\"> [en ligne]<\/a>."
        },
        {
            "type": "regeste",
            "value": "\u00c9douard Jordan, <i>Les registres de Cl\u00e9ment IV (1265-1268)<\/i>, Paris, 1893-1945, n. 1379, d\u2019apr\u00e8s R<sup>1<\/sup>, R<sup>2<\/sup>, R<sup>3<\/sup> et R<sup>4<\/sup>."
        }
    ]
}