{
    "id": 27185,
    "name": "aposcripta-3991",
    "type": "acte",
    "url": "http:\/\/telma-chartes.irht.cnrs.fr\/aposcripta\/notice\/27185",
    "project_slug": "aposcripta",
    "project_label": "APOSCRIPTA \u2013 Lettres des papes",
    "user": "j_theryastruc",
    "last_update": "2020-10-19 16:28:10",
    "licence": "Attribution - Pas d\u2019Utilisation Commerciale - Partage dans les M\u00eames Conditions 3.0 France (CC BY-NC-SA 3.0 FR) ",
    "licence_url": "https:\/\/creativecommons.org\/licenses\/by-nc-sa\/3.0\/fr\/",
    "elements": [
        {
            "type": "pape",
            "value": "Alexandre IV (1254-1261)"
        },
        {
            "type": "destinataire",
            "value": "Le fr\u00e8re Mineur de Paris Guibert de Tournai"
        },
        {
            "type": "date_libre",
            "value": "kalendas octobris, anno primo"
        },
        {
            "type": "date",
            "value": " 1255\/10\/01",
            "children": {
                "date_deb_jour": "01",
                "date_deb_mois": "10",
                "date_deb_annee": "1255"
            },
            "range": {
                "date_apres": 12551001,
                "date_avant": 12551001
            }
        },
        {
            "type": "date_lieu",
            "value": "Anagni"
        },
        {
            "type": "genre",
            "value": "Mandement (littere cum filo canapis)"
        },
        {
            "type": "sources_manuscrites",
            "value": "F<sup>1<\/sup>. FRANCE, Troyes, Biblioth\u00e8que municipale, ms 803, fol. 182rb (Collection de sermons de Guibert de Tournai, lettre ins\u00e9r\u00e9e dans le prologue).",
            "children": {
                "type_source": "Autre copie m\u00e9di\u00e9vale",
                "source_edition": ""
            }
        },
        {
            "type": "sources_manuscrites",
            "value": "F<sup>2<\/sup>. FRANCE, Auxerre, Biblioth\u00e8que municipale, ms. 41, fol. 1rb-1va (Collection de sermons de Guibert de Tournai, lettre ins\u00e9r\u00e9e dans le prologue) <a target=\"_blank\" href=\"http:\/\/bvmm.irht.cnrs.fr\/iiif\/23343\/canvas\/canvas-2240168\/view\"> [en ligne]<\/a> (fac-simil\u00e9 - redessin\u00e9 - de la lettre en ligne sur<a target=\"_blank\" href=\"http:\/\/gallica.bnf.fr\/ark:\/12148\/bpt6k207045k\/f184.image\"> Gallica<\/a> et sur <a target=\"_blank\" href=\"http:\/\/numelyo.bm-lyon.fr\/f_view\/BML:BML_00GOO0100137001100064513\"> Numelyon<\/a>).",
            "children": {
                "type_source": "Autre copie m\u00e9di\u00e9vale"
            }
        },
        {
            "type": "sources_manuscrites",
            "value": "F<sup>3<\/sup>. FRANCE, Paris, Biblioth\u00e8que nationale de France, ms lat. 15942, fol. 2va<a target=\"_blank\" href=\"https:\/\/gallica.bnf.fr\/ark:\/12148\/btv1b10035395d\/f4.image\"> [en ligne]<\/a>  (Collection de sermons de Guibert de Tournai, lettre ins\u00e9r\u00e9e dans le prologue). ",
            "children": {
                "type_source": "Autre copie m\u00e9di\u00e9vale"
            }
        },
        {
            "type": "sources_manuscrites",
            "value": "F<sup>4<\/sup>. ALLEMAGNE, Leipzig, Stadtsbibliothek, ms. Rep. VI. 46.b (Collection de sermons de Guibert de Tournai, lettre ins\u00e9r\u00e9e dans le prologue).  ",
            "children": {
                "type_source": "Autre copie m\u00e9di\u00e9vale"
            }
        },
        {
            "type": "sources_manuscrites",
            "value": "F<sup>5<\/sup>. ALLEMAGNE, Munich, BSB, Clm. 15746 (Collection de sermons de Guibert de Tournai, lettre ins\u00e9r\u00e9e dans le prologue).   ",
            "children": {
                "type_source": "Autre copie m\u00e9di\u00e9vale"
            }
        },
        {
            "type": "sources_manuscrites",
            "value": " F<sup>6<\/sup>. ANGLETERRE, Schrewsbury, School Library, ms. 9 (Collection de sermons de Guibert de Tournai, lettre ins\u00e9r\u00e9e dans le prologue). ",
            "children": {
                "type_source": "Autre copie m\u00e9di\u00e9vale"
            }
        },
        {
            "type": "sources_manuscrites",
            "value": "F<sup>7<\/sup>. ANGLETERRE, Worcester, Cathedral Library, ms. Q.19 (Collection de sermons de Guibert de Tournai, lettre ins\u00e9r\u00e9e dans le prologue).",
            "children": {
                "type_source": "Autre copie m\u00e9di\u00e9vale"
            }
        },
        {
            "type": "sources_manuscrites",
            "value": "F<sup>8<\/sup>. BELGIQUE, Bruxelles, Biblioth\u00e8que royale de Belgique, ms. II.1125 (Collection de sermons de Guibert de Tournai, lettre ins\u00e9r\u00e9e dans le prologue).",
            "children": {
                "type_source": "Autre copie m\u00e9di\u00e9vale"
            }
        },
        {
            "type": "sources_manuscrites",
            "value": "F<sup>9<\/sup>. FRANCE, Paris, Biblioth\u00e8que nationale de France, ms lat. 15942 (Collection de sermons de Guibert de Tournai, lettre ins\u00e9r\u00e9e dans le prologue). ",
            "children": {
                "type_source": "Autre copie m\u00e9di\u00e9vale"
            }
        },
        {
            "type": "sources_manuscrites",
            "value": "F<sup>10<\/sup>. FRANCE, Troyes, Biblioth\u00e8que municipale, ms. 823 (Collection de sermons de Guibert de Tournai, lettre ins\u00e9r\u00e9e dans le prologue). ",
            "children": {
                "type_source": "Autre copie m\u00e9di\u00e9vale"
            }
        },
        {
            "type": "sources_manuscrites",
            "value": "F<sup>11<\/sup>. FRANCE, Troyes, Biblioth\u00e8que municipale, ms. 1778 (Collection de sermons de Guibert de Tournai, lettre ins\u00e9r\u00e9e dans le prologue).  ",
            "children": {
                "type_source": "Autre copie m\u00e9di\u00e9vale"
            }
        },
        {
            "type": "sources_manuscrites",
            "value": "F<sup>12<\/sup>. ITALIE, Pavie, Biblioteca universitaria, ms. Aldini 241 (Collection de sermons de Guibert de Tournai, lettre ins\u00e9r\u00e9e dans le prologue).  ",
            "children": {
                "type_source": "Autre copie m\u00e9di\u00e9vale"
            }
        },
        {
            "type": "edition",
            "value": "Ici reprise de Marjorie Burghart, <i>Remploi textuel, invention et art de la m\u00e9moire : les <\/i>Sermones ad status<i> du franciscain Guibert de Tournai (\u2020 1284)<\/i>, th\u00e8se de doctorat, Universit\u00e9 Lumi\u00e8re de Lyon, dir. Nicole B\u00e9riou, 2013, d'apr\u00e8s F<sup>1<\/sup>."
        },
        {
            "type": "edition_autre",
            "value": "Louis Bail d'Abbeville, <i>Sapientia foris praedicans ex omnibus scripturis seu bibliotheca concionatorum<\/i>, Paris : Edmond Couterot, 1666, p. 259<a target=\"_blank\" href=\"https:\/\/books.google.fr\/books?id=9wL_BxRaTKIC&pg=RA9-PA159&lpg=RA9-PA159&dq=%22sermones+obtentu+nostri%22&source=bl&ots=qMO6LZm-UQ&sig=u2sPy72kwKP6ItiUTEuSRI14edw&hl=fr&sa=X&ved=0ahUKEwj6wL7IjLXbAhXIWxQKHUxCDTIQ6AEIKDAA#v=onepage&q=%22sermones%20obtentu%22&f=false\"> [en ligne]<\/a>."
        },
        {
            "type": "edition_autre",
            "value": "Juan Francisco de San Antonio, <i>Bibliotheca universa franciscana<\/i> II, p. 19."
        },
        {
            "type": "transcription",
            "value": "<?xml version=\"1.0\" encoding=\"UTF-8\"?>\nAlexander episcopus, servus servorum Dei, dilecto fratri Guiberto ordinis fratrum minorum Parisius commoranti, salutem et apostolicam benedictionem. Accepimus satis gaudentesa quod quandam sermonum de novo non modicum utilem compilationem fecisti, cujus experientiam cupientes ad nostrum affectumb et edificationem fidelium animarum, volumus et devotionem tuam tenore presentium rogamus attente, quatinus compilationem eandem dilecto filio fratri Mansueto, cui super hoc scribimus, integram et bene correctam tradere nostro nomine et assignare mittendam nobis sue diligentie studio non postponas. Datus Annaniec VIIIo ydus augusti pontificatus nostri anno primo.\n"
        },
        {
            "type": "apparat_critique",
            "value": "Datus Annanie <i>sic F<sup>1<\/sup><\/i>.",
            "children": {
                "numero_note": "c"
            }
        },
        {
            "type": "edition_autre",
            "value": "Johannes Hyacinthus Sbaralea, <i>Supplementum et castigatio ad scriptores trium ordinum S. Francisci<\/i>, Rome : Ex Typographia S. Michaelis ad Ripam, apud Linum Contedini, 1806, II, p. 308."
        },
        {
            "type": "apparat_critique",
            "value": "gaudenter <i>F<sup>2<\/sup><\/i>.",
            "children": {
                "numero_note": "a"
            }
        },
        {
            "type": "apparat_critique",
            "value": "profectum <i>F<sup>2<\/sup><\/i>.",
            "children": {
                "numero_note": "b"
            }
        },
        {
            "type": "edition_autre",
            "value": "Quantin, <i>Dictionnaire raisonn\u00e9 de diplomatique chr\u00e9tienne<\/i>, Paris : Ateliers catholiques du Petit-Montrouge, 1846, c. 369-370 (avec une erreur), pr\u00e9c\u00e9d\u00e9e d'un fac-simil\u00e9, d'apr\u00e8s F<sup>2<\/sup>, en ligne sur<a target=\"_blank\" href=\"http:\/\/gallica.bnf.fr\/ark:\/12148\/bpt6k207045k\/f184.image\"> Gallica<\/a> et sur <a target=\"_blank\" href=\"http:\/\/numelyo.bm-lyon.fr\/f_view\/BML:BML_00GOO0100137001100064513\"> Numelyon<\/a>."
        },
        {
            "type": "edition_autre",
            "value": "Aleksander Horowski, \u00ab Il sermone su San Francesco <i>Surrexit Helyas, propheta quasi ignis<\/i> di Gilberto di Tournai \u00bb, dans <i>Collectanea Franciscana<\/i>, 78, 2008, p. 524, \u00e0 la note 2, d'apr\u00e8s F<sup>2<\/sup>."
        },
        {
            "type": "remarques",
            "value": "Voir <a target=\"_blank\" href=\"http:\/\/telma-chartes.irht.cnrs.fr\/aposcripta\/notice\/27186\"> APOSCRIPTA n. 2992<\/a>.\nIgnor\u00e9e de Potthast (qui r\u00e9pertorie 5 lettres \u00e9mises d'Anagni le 1<sup>er<\/sup> octobre 1255).\nAbsente des registres (4 lettres \u00e9mises d'Anagni le 1<sup>er<\/sup> octobre 1255)."
        },
        {
            "type": "edition_autre",
            "value": "Sean L. Field, \u00ab Annihilation and Perfection in Two Sermons by Gilbert of Tournai for the Translation of St. Francis \u00bb, dans <i>Franciscana<\/i>, 1, 1999, p. 243, note 16, d'apr\u00e8s F<sup>3<\/sup>."
        }
    ]
}