{
    "id": 25323,
    "name": "aposcripta-2420",
    "type": "acte",
    "url": "http:\/\/telma-chartes.irht.cnrs.fr\/aposcripta\/notice\/25323",
    "project_slug": "aposcripta",
    "project_label": "APOSCRIPTA \u2013 Lettres des papes",
    "user": "lettrespontificalesadmin",
    "last_update": "2020-10-19 16:27:43",
    "licence": "Attribution - Pas d\u2019Utilisation Commerciale - Partage dans les M\u00eames Conditions 3.0 France (CC BY-NC-SA 3.0 FR) ",
    "licence_url": "https:\/\/creativecommons.org\/licenses\/by-nc-sa\/3.0\/fr\/",
    "elements": [
        {
            "type": "pape",
            "value": "Eug\u00e8ne III (1145-1153)"
        },
        {
            "type": "destinataire",
            "value": "( )",
            "children": {
                "numero_note": "0"
            }
        },
        {
            "type": "date_lieu",
            "value": "n.c."
        },
        {
            "type": "date_libre",
            "value": "1147-1153"
        },
        {
            "type": "date",
            "value": "apr\u00e8s 1147 - avant 1153",
            "children": {
                "date_deb_annee": "1147",
                "date_deb_type": "apr\u00e8s",
                "date_fin_annee": "1153",
                "date_fin_type": "avant"
            },
            "range": {
                "date_apres": 11470000,
                "date_avant": 11539999
            }
        },
        {
            "type": "analyse",
            "value": "X pape<br\/>EPISTOLA EUGENII PAP\u00c6 III, AD HUGONEM, ARCHIEPISCOPUM VIENNENSEM, QUA EUM REPREHENDIT QUOD FRATRIBUS CISTERCIENSIBUS ET CLUNIACENSIBUS INJURIAS INFERAT."
        },
        {
            "type": "transcription",
            "value": "<?xml version=\"1.0\" encoding=\"UTF-8\"?>\nEugenius, etc. Quanto persona tua. \n"
        },
        {
            "type": "edition",
            "value": "Ici tir\u00e9e du projet <i>CBMA - Corpus Burgundiae Medii Aevi<\/i>, document 5570. Site du projet Corpus de la Bourgogne du Moyen \u00c2ge, [En ligne] <a href=\"http:\/\/www.cbma-project.eu\" target=\"_blank\">http:\/\/www.cbma-project.eu<\/a>  "
        },
        {
            "type": "sources_manuscrites",
            "value": "\u00e0 renseigner."
        },
        {
            "type": "remarques",
            "value": ""
        },
        {
            "type": "edition_autre",
            "value": "Ici reprise de Auguste Bernard, Alexandre Bruel, <i>Recueil des chartes de l'abbaye de Cluny<\/i>. V. <i>1091-1210<\/i>, Paris\u00a0: Imprimerie nationale, 1894 <a href=\"http:\/\/gallica.bnf.fr\/ark:\/12148\/bpt6k28911f?rk=64378;0\" target=\"_blank\">[en ligne]<\/a>, p. 483, n\u00b0 4133",
            "children": {
                "numero_note": "0"
            }
        },
        {
            "type": "regeste",
            "value": "Bibl. Clun., col.\u00a0902.",
            "children": {
                "numero_note": "0"
            }
        },
        {
            "type": "genre",
            "value": "Bulle"
        },
        {
            "type": "genre",
            "value": "Lettre"
        }
    ]
}