{
    "id": 24803,
    "name": "aposcripta-1941",
    "type": "acte",
    "url": "http:\/\/telma-chartes.irht.cnrs.fr\/aposcripta\/notice\/24803",
    "project_slug": "aposcripta",
    "project_label": "APOSCRIPTA \u2013 Lettres des papes",
    "user": "l_valliere",
    "last_update": "2020-10-19 16:27:35",
    "licence": "Attribution - Pas d\u2019Utilisation Commerciale - Partage dans les M\u00eames Conditions 3.0 France (CC BY-NC-SA 3.0 FR) ",
    "licence_url": "https:\/\/creativecommons.org\/licenses\/by-nc-sa\/3.0\/fr\/",
    "elements": [
        {
            "type": "pape",
            "value": "Cl\u00e9ment IV (1265-1268)"
        },
        {
            "type": "destinataire",
            "value": "L'archev\u00eaque de Tyr Gilles"
        },
        {
            "type": "date_libre",
            "value": "IV kalendas maii, anno primo"
        },
        {
            "type": "date",
            "value": " 1265\/04\/28",
            "children": {
                "date_deb_jour": "28",
                "date_deb_mois": "04",
                "date_deb_annee": "1265"
            },
            "range": {
                "date_apres": 12650428,
                "date_avant": 12650428
            }
        },
        {
            "type": "date_lieu",
            "value": "P\u00e9rouse"
        },
        {
            "type": "analyse",
            "value": "Clementis IV epistola ad \u00c6gidium, archiepiscopum Tyrensem. Volens papa omnes crucesignatos et crucesignandos in regno Franciae necnon in Cameracensi, Tullensi, Leodiensi, Metensi et Virdunensi civitatibus et dioecesibus constitutos singularis privilegii praerogativa gaudere, illis indulget ut per litteras apostolicae Sedis vel legatorum ejus, impetratas hactenus, quarum non sit auctoritate processum, et impetrandas in posterum, nisi dictae Sedis litterae impetrandae praesentium mentionem fecerint, extra dioeceses in quibus ipsi et eorum bona consistunt in causam trahi vel ad judicium evocari non possint."
        },
        {
            "type": "sources_manuscrites",
            "value": "E1. FRANCE, Paris, Archives nationales, J 449\/123. Original scell\u00e9 (bulle de Cl\u00e9ment IV, sur lacs de soie rouge et jaune. Au dos, en haut : <i>PRO TERRA SANCTA<\/i>).",
            "children": {
                "type_source": "Exp\u00e9dition"
            }
        },
        {
            "type": "sources_manuscrites",
            "value": "E2. FRANCE, Paris, Archives nationales, J 449\/13 <i>ter<\/i>. Original scell\u00e9 (bulle de Cl\u00e9ment IV, sur lacs de soie rouge et jaune. Au dos, en haut : <i>PRO TERRA SANCTA<\/i>).",
            "children": {
                "type_source": "Exp\u00e9dition"
            }
        },
        {
            "type": "regeste",
            "value": "\u00c9lie Berger, <i>Layettes du Tr\u00e9sor des chartes<\/i>, IV, Paris : Henri Plon, 1902 <a target=\"_blank\" href=\"http:\/\/digi.ub.uni-heidelberg.de\/diglit\/teulet1902bd4\/0212\"> [en ligne]<\/a>, n. 5013, p. 126-127 <a target=\"_blank\"href=\"https:\/\/francearchives.fr\/fr\/facomponent\/cd027904b14352c177bcf9234242b13711719dbd\">[num\u00e9ris\u00e9e sur le site des Archives de France]<\/a>, d'apr\u00e8s E1 et E2."
        },
        {
            "type": "regeste",
            "value": "\u00c9douard Jordan, <i>Les registres de Cl\u00e9ment IV (1265-1268)<\/i>, Paris, 1893-1945, n. 1570, d\u2019apr\u00e8s E1 et E2."
        },
        {
            "type": "regeste",
            "value": "Bernard Barbiche, <i>Les actes pontificaux originaux des Archives Nationales de Paris<\/i>, Cit\u00e9 du Vatican, 1975-1982, II, n. 1267, p. 83-84, d'apr\u00e8s E1 et E2."
        },
        {
            "type": "transcription",
            "value": "<?xml version=\"1.0\" encoding=\"UTF-8\"?>\nVolentes omnes crucesignatos... Datum Perusii, IIII kalendas maii, pontificatus nostri anno primo.\n"
        },
        {
            "type": "remarques",
            "value": "\u00e0 \u00e9diter - Inconnue de Potthast - Absente des registres"
        },
        {
            "type": "genre",
            "value": "Titre, g\u00e9n\u00e9ral (littere gratiose, cum filo serico)"
        }
    ]
}