{
    "id": 27834,
    "name": "aposcripta-4393",
    "type": "acte",
    "url": "http:\/\/telma-chartes.irht.cnrs.fr\/aposcripta\/notice\/27834",
    "project_slug": "aposcripta",
    "project_label": "APOSCRIPTA \u2013 Lettres des papes",
    "user": "l_valliere",
    "last_update": "2020-10-19 16:28:19",
    "licence": "Attribution - Pas d\u2019Utilisation Commerciale - Partage dans les M\u00eames Conditions 3.0 France (CC BY-NC-SA 3.0 FR) ",
    "licence_url": "https:\/\/creativecommons.org\/licenses\/by-nc-sa\/3.0\/fr\/",
    "elements": [
        {
            "type": "pape",
            "value": "Boniface VIII (1294-1303)"
        },
        {
            "type": "destinataire",
            "value": "L'abb\u00e9 et le couvent du monast\u00e8re de Saint-Gilles, ordre de Saint-Beno\u00eet, dioc\u00e8se de N\u00eemes"
        },
        {
            "type": "date_libre",
            "value": "XV kalendas aprilis, anno quarto"
        },
        {
            "type": "date",
            "value": " 1298\/03\/18",
            "children": {
                "date_deb_jour": "18",
                "date_deb_mois": "03",
                "date_deb_annee": "1298"
            },
            "range": {
                "date_apres": 12980318,
                "date_avant": 12980318
            }
        },
        {
            "type": "date_lieu",
            "value": "Rome, Saint-Pierre"
        },
        {
            "type": "genre",
            "value": "Titre, g\u00e9n\u00e9ral (littere gratiose, cum filo serico)"
        },
        {
            "type": "analyse",
            "value": "Bulle de Boniface VIII<a href=\"#note-1\"><sup>1<\/sup><\/a>, dat\u00e9e de Saint-Pierre de Rome, confirmant \u00e0 l'abb\u00e9 et au monast\u00e8re de Saint-Gilles les franchises et privil\u00e8ges accord\u00e9s par les papes, les rois les princes et les autres fid\u00e8les."
        },
        {
            "type": "sources_manuscrites",
            "value": "E. FRANCE, N\u00eemes, Archives d\u00e9partementales, H 785, n. 102 (auj. 107). Original sur parchemin en bon \u00e9tat<a target=\"_blank\" href=\"https:\/\/gallica.bnf.fr\/ark:\/12148\/bpt6k9201379\/f201.image\"> [inventaire en ligne]<\/a>.",
            "children": {
                "type_source": "Original"
            }
        },
        {
            "type": "edition",
            "value": "Ici reprise de l'abb\u00e9 Goiffon, <i>Bullaire de l\u2019abbaye de Saint-Gilles<\/i>, N\u00eemes\u00a0: P. Jouve, 1882, CLII, p. 197 <a target=\"_blank\" href=\" https:\/\/gallica.bnf.fr\/ark:\/12148\/bpt6k111623c\/f200.image\"> [en ligne]<\/a>."
        },
        {
            "type": "transcription",
            "value": "<?xml version=\"1.0\" encoding=\"UTF-8\"?>\nBonifacius episcopus, servus servorum Dei, dilectis filiis abbati et conventui monasterii de Sancto Egidio, ad Romanam Ecclesiam nullo medio pertinentis, ordinis Sancti Benedicti, Nemausensis diocesis, salutem et apostolicam benedictionem. Cum a nobis petitur quod justum est et honestum, tam vigor equitatis quam ordo exigit rationis ut id per sollicitudinem officii nostri ad debitum perducatur effectum. Eapropter, dilecti in Domino filii, vestris justis postulationibus grato concurrentes assensu, omnes libertates et immunitates a predecessoribus nostris Romanis pontificibus sive per privilegia seu alias indulgentias monasterio vestro seu vobis concessas necnon libertates et exemptiones secularium exactionum a regibus et principibus aliisque Christi fidelibus rationabiliter vobis indultas, sicut eas juste ac pacifice obtinetis, vobis et per vos eidem monasterio, auctorilate apostolica, confirmamus et presentis scripti patrocinio communimus. Nulli ergo omnino hominum liceat banc paginam nostre confirmationis infringere vel ei ausu temerario contraire. Si quis autem hoc attemptare presumpserit, indignationem omnipotentis Dei et beatorum Petri et Pauli apostolorum ejus se noverit incursurum. Datum Rome apud Sanctum Petrum, XV kalendas aprilis, pontificatus nostri anno quarto.\n"
        },
        {
            "type": "notes_historiques",
            "value": "Boniface VIII, \u00e9lu le 24 d\u00e9cembre 1294, mourut le 11 octobre 1303, apr\u00e8s un r\u00e8gne de huit ans, neuf mois et dix-huit jours. Ce pape canonisa saint Louis, en 1297. Le petit fils du saint roi, Philippe IV dit le <i>Bel<\/i>, r\u00e9pondit mal \u00e0 cet acte et eut de vifs d\u00e9m\u00eal\u00e9s avec Boniface VIII.",
            "children": {
                "numero_note": "1"
            }
        },
        {
            "type": "remarques",
            "value": "Inconnue de Potthast - Absente des registres"
        }
    ]
}