{
    "id": 26075,
    "name": "aposcripta-3172",
    "type": "acte",
    "url": "http:\/\/telma-chartes.irht.cnrs.fr\/aposcripta\/notice\/26075",
    "project_slug": "aposcripta",
    "project_label": "APOSCRIPTA \u2013 Lettres des papes",
    "user": "lettrespontificalesadmin",
    "last_update": "2020-10-19 16:27:53",
    "licence": "Attribution - Pas d\u2019Utilisation Commerciale - Partage dans les M\u00eames Conditions 3.0 France (CC BY-NC-SA 3.0 FR) ",
    "licence_url": "https:\/\/creativecommons.org\/licenses\/by-nc-sa\/3.0\/fr\/",
    "elements": [
        {
            "type": "pape",
            "value": "Adrien IV (1154-1159)"
        },
        {
            "type": "destinataire",
            "value": "Reigny ( abbaye de)",
            "children": {
                "numero_note": "0"
            }
        },
        {
            "type": "date_lieu",
            "value": "n.c."
        },
        {
            "type": "date_libre",
            "value": "1156"
        },
        {
            "type": "date",
            "value": "apres 1156 - avant 1156",
            "children": {
                "date_deb_annee": "1156",
                "date_deb_type": "apres",
                "date_fin_annee": "1156",
                "date_fin_type": "avant"
            },
            "range": {
                "date_apres": 11560000,
                "date_avant": 11569999
            }
        },
        {
            "type": "analyse",
            "value": "Le pape Adrien IV (1154-1159) demande \u00e0 Alain, \u00e9v\u00eaque d\u2019Auxerre, de mettre fin \u00e0 une querelle opposant les h\u00e9ritiers d\u2019Ascelin de Merry aux moines de Reigny. Si les la\u00efcs ne rendent pas satisfaction aux religieux, ils doivent \u00eatre excommuni\u00e9s et leurs terres frapp\u00e9es d\u2019interdit.<br\/>"
        },
        {
            "type": "transcription",
            "value": "<?xml version=\"1.0\" encoding=\"UTF-8\"?>\nAdrianus episcopus, servus servorum Dei, [Alano] Autissiodorensi episcopo salutem et apostolicam benedictionem. Venit ad audientiam nostram quod nobilis vir Ascelinus, bonae memoriae, dilectis fratribus nostris abbati et fratribus monasterii de Regniaco usuaria quaedam in nemoribus suis, partim pro anime sue salute concessit, partim etiam eisdem dicitur vendidisse. Super quibus usuariis Herbertus de Madriaco filius ejus et Autissiodorensis mater ipsius, simul cum Gaucherio fratre suo, parrochiani tui, predictos monachos non desinunt, sicut nobis dicitur, multipliciter infestare et s\u00e6pius ei[s] gravamina irrogare non cessant et eadem usuaria partim presumant auferre. Quocirca, fraternitati tuae, per apostolica scripta, mandamus quia, si verum est quod asseritur, praedictos parochianos tuos infra viginti dies post harum inscriptionem litterarum diligentius convenire, ut usuaria injuste detenta memoratis fratribus cum integritate restituant et eos de cetero super ipsis infestare, aut aliquatenus molestare nulla ratione pr\u00e6sumant, sed ipsos ea permittant quiete ac pacifice possidere. Alioquin [in] personas eorum excommunicationis, in terras vero ipsorum sententiam proferas interdicti. Datum Laterani, idibus decembris.\n"
        },
        {
            "type": "edition",
            "value": "Ici tir\u00e9e du projet <i>CBMA - Corpus Burgundiae Medii Aevi<\/i>, document 19284. Site du projet Corpus de la Bourgogne du Moyen \u00c2ge, [En ligne] <a href=\"http:\/\/www.cbma-project.eu\" target=\"_blank\">http:\/\/www.cbma-project.eu<\/a>  "
        },
        {
            "type": "sources_manuscrites",
            "value": "\u00e0 renseigner."
        },
        {
            "type": "remarques",
            "value": "Note : \"Ascelinus dominus feudi de Merri in metis parochiae de Saccy ab Hadriano II papa per Alanum episcoum Autisiodori cum abbate et fratribus monachis de Regni. 1156\".\r\n\r\nD\u2019apr\u00e8s B.A. Original perdu. \u2014 B. Auxerre, AD Yonne, H 1562-2, p. 42-43, acte 22. \u2014 a) M. Quantin, Cartulaire g\u00e9n\u00e9ral de l\u2019Yonne, t. I, p. 545, acte 380."
        },
        {
            "type": "edition_autre",
            "value": "Transcription revue par Marl\u00e8ne Helias-Baron.",
            "children": {
                "numero_note": "0"
            }
        },
        {
            "type": "genre",
            "value": "Bulle"
        }
    ]
}