{
    "id": 146391,
    "name": "aposcripta-6174",
    "type": "acte",
    "url": "http:\/\/telma-chartes.irht.cnrs.fr\/aposcripta\/notice\/146391",
    "project_slug": "aposcripta",
    "project_label": "APOSCRIPTA \u2013 Lettres des papes",
    "user": "l_valliere",
    "last_update": "2020-10-19 16:39:18",
    "licence": "Attribution - Pas d\u2019Utilisation Commerciale - Partage dans les M\u00eames Conditions 3.0 France (CC BY-NC-SA 3.0 FR) ",
    "licence_url": "https:\/\/creativecommons.org\/licenses\/by-nc-sa\/3.0\/fr\/",
    "elements": [
        {
            "type": "pape",
            "value": "Innocent III (1198-1216)"
        },
        {
            "type": "destinataire",
            "value": "L'archev\u00eaque de Narbonne Guilhem B\u00e9renger"
        },
        {
            "type": "date_libre",
            "value": "IV kalendas junii, anno septimo"
        },
        {
            "type": "date",
            "value": "1204\/05\/29",
            "children": {
                "date_deb_annee": "1204",
                "date_deb_mois": "05",
                "date_deb_jour": "29"
            },
            "range": {
                "date_apres": 12040529,
                "date_avant": 12040529
            }
        },
        {
            "type": "date_lieu",
            "value": "Latran"
        },
        {
            "type": "genre",
            "value": "Mandement (littere cum filo canapis)"
        },
        {
            "type": "analyse",
            "value": "Le pape pr\u00e9vient l'archev\u00eaque de Narbonne qu'il le destitue de l'abbaye de Montaragon et qu'il invite les chanoines \u00e0 se choisir un autre abb\u00e9 [Villemagne]. \nEl papa Innocenci III escriu a l\u2019arquebisbe de Narbona, Guillem Berenguer, en relaci\u00f3 amb l\u2019abadia de Montearag\u00f3n, i li manifesta que la seva prov\u00edncia \u00e9s plena d\u2019heretges. El papa tamb\u00e9 escriu a l\u2019arquebisbe de Tarragona [Torras, Berga, Cingolani]."
        },
        {
            "type": "sources_manuscrites",
            "value": "R. CIT\u00c9 DU VATICAN, Archivio segreto Vaticano, <i>Registra Vaticana<\/i> 5, ep. 78, fol. 153.",
            "children": {
                "type_source": "Registre de la chancellerie apostolique"
            }
        },
        {
            "type": "edition",
            "value": "Ici reprise de Sergi Grau Torras, Eduard Berga Salom\u00f3, Stefan\u00f3 M. Cingolani, <i>L\u2019Her\u00e8tica Pravitat a la Corona d\u2019Arag\u00f3 : documents sobre c\u00e0tars, valdesos i altres heretges (1155-1324)<\/i>, I, Barcelone : Fundaci\u00f3 Noguera, 2015, n. 32, p. 112-113."
        },
        {
            "type": "edition_autre",
            "value": "\u00c1ngel Manrique, <i>Cisterciensium seu Verius Ecclesiasticorum annalium a condito Cistercio<\/i>, Li\u00f3: sumpt. Haered. G. Boissat et Laurent Anisson, 4 vol., 1642-1659, vol. 3, any 1204, cap. 4, p. 426 <a target=\"_blank\" href=\" https:\/\/archive.org\/details\/bub_gb_EDNUSUfbvLQC\/page\/n545 \"> [en ligne]<\/a>."
        },
        {
            "type": "edition_autre",
            "value": "Louis-Georges de Br\u00e9quigny, <i>Diplomata, charte, epistolae et alia documenta ad res Franciscas spectantia<\/i>, Par\u00eds: apud J. L. Nyon, 2 vol., 1791, vol. 2, part. II, n. 78, p. 509."
        },
        {
            "type": "edition_autre",
            "value": "Jacques Paul Migne, <i>Patrologie Latine<\/i>, Par\u00eds, 1844-1855 (r\u00e9imp. Turnhout : Brepols, 1970), t. 215, n. 78, col. 360-361 <a target=\"_blank\" href=\"https:\/\/archive.org\/details\/patrologiaecurs133unkngoog\/page\/n179\"> [en ligne]<\/a>."
        },
        {
            "type": "edition_autre",
            "value": "Augustin Villemagne, <i>Bullaire du Bienheureux Pierre de Castelnau, martyr de la foi (16 f\u00e9vrier 1208)<\/i>, Montpellier : Imprimerie de la Manufacture de la Charit\u00e9, 1917, n. 23, p. 86-87 <a target=\"_blank\" href=\"https:\/\/gallica.bnf.fr\/ark:\/12148\/bpt6k97621308\/f134.image.r=Villemagne%20Bullaire%20du%20Bienheureux%20Pierre%20de%20Castelnau\"> [en ligne]<\/a>."
        },
        {
            "type": "edition_autre",
            "value": "Demetrio Mansilla, <i>La documentaci\u00f3n pontificia hasta Inocencio III (965-1216)<\/i>,  I, Rome : Instituto Espa\u00f1ol de Historia Eclesi\u00e1stica (Monumenta Hispaniae Vaticana. Secci\u00f3n Registros), 1955, n. 301, p. 333-334."
        },
        {
            "type": "edition_autre",
            "value": "Othmar Hageneder, Andrea Sommerlechner, Herwig Weigl, <i>Die Register Innocenz\u2019 III. 7. Pontifikatsjahr, 1204\/1205<\/i>, Rome, Vienne : Verlag der \u00d6sterreichischen Akademie, 1997, n. 78, p. 126-127."
        },
        {
            "type": "regeste",
            "value": "Potthast, <i>Regesta pontificum Romanorum<\/i>, n. 2226 <a target=\"_blank\" href=\"https:\/\/archive.org\/stream\/RegestaPontificumRomanorum\/ph#page\/n201\/mode\/2up\"> [en ligne]<\/a>."
        },
        {
            "type": "transcription",
            "value": "<?xml version=\"1.0\" encoding=\"UTF-8\"?>\nArchiepiscopo Narbonensi. Sicut is qui inventus est in pauca fidelis, constitui meruit supra multa, ita servus, qui talentum sibi creditum non tradit nummulariis ad usuras, sed in sudario religavit, eo est sententia divina privatus. Hoc autem pro te dicimus, qui, non attendens quando Dominus tuus venturus sit, et positurus tecum districtissimam rationem, talento tibi credito, ut in sudario sordeat, religato, tanquam canis mutus latrare non valens, non opponis te murum pro domo Domini ascendentibus ex adverso, sed occasione abbatie Montis Aragonum, super qua olim tecum Sedes apostolica dispensavit, debitum officii pastoralis subtrahis tam Ecclesie quam provincie Narbonensibus, et, dum preesse cupis utrique, quod dolentes dicimus, neutri prodes, utpote qui vix uni sufficis providere. Nos autem, iam pridem volentes incomodis que ex hoc sequuntur occurrere, ne commissus tibi grex Dominicus luporum pateret morsibus et heretica pravitas in provincia Narbonensi amplius pullularet, tibi dedimus in mandatis ut, relicta penitus abbatis, contentus esses ecclesia Narbonensi, cui sic tanto posses melius providere, quanto te de cetero minus sollicitudo traheret abbatie. Quia vero nondum es mandatum apostolicum executus, attendens sollicite, quod privilegium meretur amittere qui concessa sibi abutitur potestate, nos ipsi eadem te abbatia privamus; mandantes canonicis constitutis in ea, ut personam idoneam canonice sibi eligant in abbatem. Venerabili quoque fratri nostro .. archiepiscopo Tarraconensi, mandamus ut, nisi illi mandatum nostrum executi fuerint infra mensem, ipse illis personam idoneam preficiat que ipsis non tam prodesse noverit quam preesse. Datum Laterani, IV kalendas iunii, [anno septimo].  Scriptum est illis super hoc.  Scriptum est etiam super hoc Terraconensi archiepiscopo.\n"
        },
        {
            "type": "apparat_critique",
            "value": "Espai en blanc.",
            "children": {
                "numero_note": "a"
            }
        },
        {
            "type": "sources_manuscrites",
            "value": "F<sup>1<\/sup>. CIT\u00c9 DU VATICAN, Archivio segreto Vaticano, <i>Arm. <\/i> XXXI, n. 5, fol. 14.",
            "children": {
                "type_source": "Copie moderne"
            }
        },
        {
            "type": "sources_manuscrites",
            "value": "F<sup>2<\/sup>. CIT\u00c9 DU VATICAN, Archivio segreto Vaticano, <i>Vat. Lat.<\/i> 2715, fol. 159v.",
            "children": {
                "type_source": "Copie moderne"
            }
        },
        {
            "type": "destinataire",
            "value": "L'archev\u00eaque de Tarragone"
        }
    ]
}