{
    "id": 149995,
    "name": "aposcripta-9558",
    "type": "acte",
    "url": "http:\/\/telma-chartes.irht.cnrs.fr\/aposcripta\/notice\/149995",
    "project_slug": "aposcripta",
    "project_label": "APOSCRIPTA \u2013 Lettres des papes",
    "user": "lettrespontificalesadmin",
    "last_update": "2020-10-19 16:40:07",
    "licence": "Attribution - Pas d\u2019Utilisation Commerciale - Partage dans les M\u00eames Conditions 3.0 France (CC BY-NC-SA 3.0 FR) ",
    "licence_url": "https:\/\/creativecommons.org\/licenses\/by-nc-sa\/3.0\/fr\/",
    "elements": [
        {
            "type": "pape",
            "value": "Cl\u00e9ment VII (1523-1534)"
        },
        {
            "type": "destinataire",
            "value": "Onze cardinaux"
        },
        {
            "type": "date_libre",
            "value": "VJ. Septembris 1531 anno 8."
        },
        {
            "type": "date",
            "value": " 1531\/09\/06",
            "children": {
                "date_deb_annee": " 1531",
                "date_deb_mois": "09",
                "date_deb_jour": "06"
            },
            "range": {
                "date_apres": 15310906,
                "date_avant": 15310906
            }
        },
        {
            "type": "date_lieu",
            "value": "Rome"
        },
        {
            "type": "genre",
            "value": "Titre, g\u00e9n\u00e9ral (littere gratiose, cum filo serico)"
        },
        {
            "type": "analyse",
            "value": "Clemente VII chiama a Roma undici cardinali che sono in Italia per giovarsi del loro consiglio nel provvedere ai gravi pericoli minacciati dai Turchi e dall\u2019eresia"
        },
        {
            "type": "sources_manuscrites",
            "value": "Arch. secr. Vatic. Clem. VII brev. min. II, 33 breve 228.",
            "children": {
                "type_source": "Original"
            }
        },
        {
            "type": "edition",
            "value": "Ici reprise de B. Fontana, \u00ab Documenti vaticani contro l'eresia luterana in Italia \u00bb <hi rend=\"italic\">Archivio della Reale Societ\u00e0 Romana di Storia Patria<\/hi>, 15, 1892, 15, n. 1, p. 76."
        },
        {
            "type": "transcription",
            "value": "<?xml version=\"1.0\" encoding=\"UTF-8\"?>\nCardinali Mantuae.Dilecte fili noster. Cum indies gravior moles rerum cumulusque periculorum universae christianitati, ut omnibus notum est, impendeat, hinc terrore Turcarum, inde heresis obstinatione et pullulantia[1], alijsque metum et sollicitudinem quottidie augentibus, nos ne qua in parte nostro officio desimus, cum eorum providendorum cura principaliter ad huius Sancte Sedis authoritatem pertineat, et ab omnibus deferatur, hodie in consistorio nostro secreto de venerabilium fratrum nostrorum S. R. E. cardinalium tunc praesentium consilio decrevimus, omnes cardinales in Italia existentes ad nos esse revocandos, ut frequentiore senatu eorumque praesentia et consilio in tantis rebus uti possimus. Quamobrem circumspectionem tuam, cuius prudentie et auctoritatj merito innitimur, queque pro boni cardinalis officio nobis et huic Sancte Sedi, cuius ipsa honorabile membrum est, pro sua virili adesse debet, hortamur, eique in virtute s.te obedientie praecipimus ut omnino infra calendas novembris Rome esse non differat. Datum Rome .VJ. septembris 1531 anno 8. \u2020 Simile cardinali de Gaddis.\u2020 Simile cardinali de Auria.\u2020 Simile cardinali Cibo.\u2020 Simile cardinali Hiporegiensi. \u2020 Simile cardinali Grimano.\u2020 Simile cardinali Cesarino.\u2020 Simile cardinali Farnesio his dicatur Venerabilis frater noster. \u2020 Simile cardinali de Monte his dicatur Venerabilis frater noster.\u2020 Simile cardinali Senensi his dicatur Venerabilis frater noster. Simile cardinali Burgensi.Blos.\n"
        },
        {
            "type": "notes_historiques",
            "value": "Sic.",
            "children": {
                "numero_note": "1"
            }
        }
    ]
}