{
    "id": 24929,
    "name": "aposcripta-2062",
    "type": "acte",
    "url": "http:\/\/telma-chartes.irht.cnrs.fr\/aposcripta\/notice\/24929",
    "project_slug": "aposcripta",
    "project_label": "APOSCRIPTA \u2013 Lettres des papes",
    "user": "j_theryastruc",
    "last_update": "2020-10-19 16:27:37",
    "licence": "Attribution - Pas d\u2019Utilisation Commerciale - Partage dans les M\u00eames Conditions 3.0 France (CC BY-NC-SA 3.0 FR) ",
    "licence_url": "https:\/\/creativecommons.org\/licenses\/by-nc-sa\/3.0\/fr\/",
    "elements": [
        {
            "type": "transcription",
            "value": "<?xml version=\"1.0\" encoding=\"UTF-8\"?>\nClero, consulibus et populo Viterbiensibus.  Vergentis in senium seculi corruptelam non solum sapiunt elementa corrupta, sed et dignissima creaturarum, \u2018ad imaginem et similitudinem\u2019 condita Conditoris, prelata privilegio dignitatis volucribus \u2018celi et bestiis universe terre\u20191, testatur ; nec tantum Eo quasi deficiente jam deficit, sed et inficit et inficitur scabra rubigine vetustatis. Peccat enim ad extremum homo miserrimus ; et qui non potuit in sui et mundi creatione in paradiso persistere, circa sui et orbis dissolutionem degenerat et pretii sue redemptionis circa fines seculorum oblitus, dum vanis ac variis questionum2 se nexibus ingerit, seipsum laqueis sue fraudis innectit et incidit in foveam quam paravit3. Ecce etenim, \u2018inimico homine\u2019 messi Dominice superseminante semen iniquum, segetes in zizania pullulant vel potius polluuntur, triticum arescit et evanescit in paleas4, in flore tinea et vulpes in fructu demoliri vineam Domini moliuntur5. Nova siquidem sub Novo Testamento Achor progenies ex spoliis Jericho lingulam auream palliolumque furatur6 et Abiron, Dathan et Chore soboles detestanda novis thuribulis fermentatum thimiama novis volunt altaribus adolere7, dum \u2018nox nocti scientiam indicat\u20198, dum \u2018cecus prebet ceco ducatum\u20199, dum hereses pullulant et quem divine reddit hereditatis expertem, sue constituit hereticus heresis et dampnationis heredem. Hii sunt caupones qui aquam vino comiscent10 et virus draconis11 in aureo calice Babilonis propinant12, habentes, secundum Apostolum, \u2018speciem pietatis, virtutem autem ejus\u2019 penitus \u2018abnegantes\u201913. Licet autem contra vulpes hujusmodi parvulas, species quidem habentes diversas sed caudas adinvicem colligatas14, quia \u2018de vanitate\u2019 conveniunt \u2018in idipsum\u201915, diversa predecessorum nostrorum temporibus emanaverint instituta, nondum tamen usque adeo pestis potuit mortificari mortifera, quin \u2018sicut cancer\u2019 amplius \u2018serperet\u201916 in occulto et jam in aperto sue virus iniquitatis effundat, dum palliata specie religionis et multos decipit simplices et quosdam seducit astutos17, factus magister erroris qui non fuerat discipulus veritatis. Ne autem nos, qui, licet circa horam undecimam, inter operarios, immo verius super operarios vinee Domini Sabaoth sumus a Patrefamilias evangelico deputati18 et quibus ex officio pastorali sunt oves Christi commisse19, nec capere vulpes demolientes vineam Domini nec arcere lupos ab ovibus videamur et ob hoc merito vocari possimus \u2018canes muti non valentes latrare\u201920 ac perdamur cum malis agricolis21 et mercennario comparemur22, contra defensores, receptatores, fautores et credentes hereticorum aliquid severius duximus statuendum, ut qui per se ad viam rectitudinis revocari non possunt in suis saltem defensoribus, receptatoribus et fautoribus ac etiam credentibus confundantur et, cum se viderint ab omnibus evitari, reconciliari desiderent omnium unitati. De communi ergo fratrum nostrorum consilio, assensu quoque archiepiscoporum et episcoporum apud Sedem apostolicam existentium, districtius inhibemus ne quis hereticos receptare quomodolibet vel defendere aut ipsis favere vel credere quoquomodo presumat, presenti decreto firmiter statuentes ut, si quis aliquid horum facere forte presumpserit, nisi primo secundove commonitus a sua super hoc curaverit presumptione cessare, ipso jure sit factus infamis nec ad publica officia vel consilia civitatum nec ad eligendos aliquos ad hujusmodi nec ad testimonium admittatur ; sit etiam intestabilis nec ad hereditatis successionem accedat ; nullus preterea ipsi cogatur super quocunque negotio respondere. Quodsi forsan judex exstiterit, ejus sententia nullam obtineat firmitatem nec cause alique ad ejus audientiam perferantur ; si fuerit advocatus, ejus patrocinium nullatenus admittatur ; si tabellio, instrumenta confecta per ipsum nullius penitus sint momenti, sed cum auctore dampnato dampnentur. In similibus etiam idem precipimus observari. Si vero clericus fuerit, ab omni officio et beneficio deponatur ; ut in quo major est culpa, gravior exerceatur vindicta. Si quis autem tales, postquam ab Ecclesia fuerint denotati, contempserit evitare, anathematis se noverit sententiam incurrisse.In terris vero temporali nostre jurisditioni subjectis bona eorum statuimus publicari ; et in aliis idem fieri precipimus per potestates et principes seculares ; quos ad id exequendum, si forte negligentes existerent, per censuram ecclesiasticam, ammonitione premissa, compelli volumus et mandamus. Nec ad eos bona ipsorum ulterius revertantur, nisi eis \u2018ad cor redeuntibus\u201923 et abnegantibus hereticorum consortium aliquis voluerit misereri, ut temporalis saltem pena corripiat, quem spiritualis non corrigit disciplina. Cum enim secundum legitimas sanctiones, reis lese majestatis punitis capite, bona confiscentur ipsorum, eorum filiis vita solummodo ex misericordia conservata, quanto magis qui aberrantes in fide Deum Dei Filium Jesum Christum offendunt, a capite nostro, quod est Christus, ecclesiastica debent districtione precidi et bonis temporalibus spoliari, cum longe sit gravius eternam quam temporalem ledere majestatem ! Nec hujus severitatis censuram orthodoxorum etiam exheredatio filiorum, quasi cujusdam miserationis pretextu, debet ullatenus impedire, cum in multis casibus etiam secundum divinum judicium filii pro patribus temporaliter puniantur et juxta canonicas sanctiones quandoque \u2018feratur ultio non solum in auctores scelerum\u2019, sed et \u2018in progeniem dampnatorum\u201924. Decernimus ergo et cetera, nostre inhibitionis et constitutionis et cetera . Datum Laterani, VIII kalendas aprilis, pontificatus nostri anno secundo.\n"
        },
        {
            "type": "edition",
            "value": "Ici reprise de Patrick Gilli, Julien Th\u00e9ry, <i>Le gouvernement pontifical et l\u2019Italie des villes au temps de la th\u00e9ocratie, fin XII<sup>e<\/sup>-mi XIV<sup>e<\/sup> si\u00e8cle<\/i>, Montpellier : Presses universitaires de la M\u00e9diterran\u00e9e, 2010, p. 553-561 <a target=\"_blank\" href=\"http:\/\/www.academia.edu\/32534765\/_Exp\u00e9rience_italienne_et_norme_inquisitoriale_chapitre_11_dans_Patrick_Gilli_Julien_Th\u00e9ry_Le_gouvernement_pontifical_et_lItalie_des_villes_au_temps_de_la_th\u00e9ocratie_fin_XIIe-mi-XIVe_si\u00e8cle_Montpellier_Presses_universitaires_de_la_M\u00e9diterran\u00e9e_2010_p._547-592_texte_int\u00e9gral_\"> [en ligne]<\/a>, d'apr\u00e8s l'\u00e9dition de Hageneder <i>et alii<\/i>."
        },
        {
            "type": "remarques",
            "value": "La m\u00eame lettre fut adress\u00e9e au l\u00e9gat pontifical en Provence le 12 juillet 1200 : <a target=\"_blank\" href=\"http:\/\/telma-chartes.irht.cnrs.fr\/aposcripta\/notice\/24192\"> APOSCRIPTA n. 1344<\/a>. Voir aussi <a target=\"_blank\" href=\"http:\/\/telma-chartes.irht.cnrs.fr\/aposcripta\/notice-acte\/146388\"> APOSCRIPTA n. 6172<\/a> (envoi \u00e0 la reine Sancha d'Aragon en d\u00e9cembre 1203) [APO]. \n"
        },
        {
            "type": "date_libre",
            "value": "VIII kalendas aprilis, anno secundo"
        },
        {
            "type": "date",
            "value": " 1199\/03\/25",
            "children": {
                "date_deb_jour": "25",
                "date_deb_mois": "03",
                "date_deb_annee": "1199"
            },
            "range": {
                "date_apres": 11990325,
                "date_avant": 11990325
            }
        },
        {
            "type": "bibliographie_generale",
            "value": "Henri Maisonneuve, <i>\u00c9tudes sur les origines de l\u2019Inquisition<\/i>, 2e \u00e9d. revue et corr. Paris : Vrin (L\u2019\u00c9glise et l\u2019\u00c9tat au Moyen \u00c2ge, 7), 1960, notamment aux p. 156-157, 309-313, 320-328."
        },
        {
            "type": "bibliographie_generale",
            "value": "Othmar Hageneder, \u00ab Studien zur Decretale <i>Vergentis<\/i> (<i>X<\/i>, V, 7, 10). Ein Beitrag zur H\u00e4retikergesetzgebung Innocenz\u2019III \u00bb, <i>Zeitschrift der SavignyStiftung f\u00fcr Rechtsgeschichte. Kanonistische abteilung<\/i>, 49, 1963, p. 138-173 ; trad. it. \u00ab La decretale <i>Vergentis<\/i> (<i>X<\/i>, V, 7, 10) : un contributo sulla legislazione antiereticale di Innocenzo III \u00bb, dans Id., <i>Il sole e la luna : papato, impero e regni nelle teoria e nella prassi dei secoli XII e XIII<\/i>, Milan : Vita e pensiero (Cultura e storia, 20), 2000, p. 131-163."
        },
        {
            "type": "bibliographie_generale",
            "value": "Ullmann Walter, \u00ab The Significance of Innocent III\u2019s Decretal <i>Vergentis<\/i> \u00bb, dans <i>\u00c9tudes de droit canonique d\u00e9di\u00e9es \u00e0 Gabriel Le Bras<\/i>, t. I, Paris, 1965, p. 729-741 ; repris dans repris id., <i>The Papacy and Political Ideals in the Middle Ages<\/i>, Londres : Variorum reprints, 1976."
        },
        {
            "type": "bibliographie_generale",
            "value": "Mario Sbriccoli, Crimen Laesae Maiestatis. <i>Il problema del reato politico alle soglie della scienza penalistica moderna<\/i>, Milan : Giuffr\u00e8, 1974, en particulier aux p. 346-347. "
        },
        {
            "type": "bibliographie_generale",
            "value": "Ovidio Capitani, \u00ab Legislazione antiereticale e strumento di costruzione politica nelle decisioni normative di Innocenzo III \u00bb, <i>Bollettino della Societ\u00e0 di Studi Valdesi<\/i>, 140, 1976, p. 31-53. "
        },
        {
            "type": "bibliographie_generale",
            "value": "Kenneth Pennington, \u00ab <i>Pro peccatis patrum puniri<\/i> : a Moral and Legal Problem of the Inquisition \u00bb, <i>Church History<\/i>, 47\/2, 1978, p. 137-154. "
        },
        {
            "type": "bibliographie_generale",
            "value": "Andrea Padovani, \u00ab L\u2019inquisizione del podest\u00e0. Disposizioni antiereticali negli statuti cittadini dell\u2019Italia centrosettentrionale nel secolo XIII \u00bb, <i>Clio<\/i>, 21\/3, 1985, p. 345-393. "
        },
        {
            "type": "bibliographie_generale",
            "value": "Enzo Petrucci, \u00ab Innocenzo III e i comuni dello Stato della Chiesa. Il potere centrale \u00bb, dans <i>Societ\u00e0 e istituzioni dell\u2019Italia comunale : l\u2019esempio di Perugia (secoli XII-XV)<\/i>, P\u00e9rouse, 1988, t. I, p. 91-135."
        },
        {
            "type": "bibliographie_generale",
            "value": "Lothar Kolmer, \u00ab Christus als beleidigte Majest\u00e4t. Von der <i>Lex Quisquis<\/i> (397) bis zur Dekretale <i>Vergentis<\/i> (1199) \u00bb, dans <i>Papsttum, Kirche und Recht im Mittelalter. Festschrift Horst Fuhrmann<\/i>, T\u00fcbingen, 1991, p. 1-13. "
        },
        {
            "type": "bibliographie_generale",
            "value": "Jacques Chiffoleau, \u00ab Sur le crime de majest\u00e9 m\u00e9di\u00e9val \u00bb, dans <i>Gen\u00e8se de l\u2019\u00c9tat moderne en M\u00e9diterran\u00e9e<\/i>, Rome : \u00c9cole Fran\u00e7aise de Rome, 1993, en particulier aux p. 183-213."
        },
        {
            "type": "bibliographie_generale",
            "value": "Thomas Scharff, <i>H\u00e4retikerverfolgung und Schriftlichkeit. Die Wirkung der Ketzergesetze auf die oberitalienischen Kommunalstatuten im 13. Jahrhundert<\/i>, Francfort-sur-le-Main : Peter Lang, 1996. "
        },
        {
            "type": "bibliographie_generale",
            "value": "Marco Meschini, \u00ab L\u2019evoluzione della normativa antiereticale di Innocenzo III dalla <i>Vergentis in senium<\/i> (1199) al IV concilio lateranense (1215) \u00bb, <i>Bulletino dell\u2019Istituto storico italiano per il Medio Evo<\/i>, 106\/2 2003, p. 207-231. "
        },
        {
            "type": "bibliographie_generale",
            "value": "Laura Baietto, <i>Il papa e le citt\u00e0. Papato e comuni in Italia centrosettentrionale durante la prima met\u00e0 del secolo XIII<\/i>, Spol\u00e8te : Fondazione CISAM (Istituzioni e societ\u00e0, 9), 2007, notamment aux p. 38-63. "
        },
        {
            "type": "bibliographie_generale",
            "value": "Julien Th\u00e9ry, \u00ab Allo scoppio del conflitto tra Filippo il Bello di Francia e Bonifacio VIII : l\u2019affare Saisset (1301). Primi spunti per una rilettura \u00bb, dans <i>I poteri universali e la fondazione dello <\/i>Studium Urbis<i>. Il pontefice Bonifacio VIII dalla Unam sanctam allo schiaffo di Anagni<\/i>, \u00e9d. Giovanni Minnucci, Rome : Monduzzi (Archivio per la storia del diritto medioevale e moderno, 1), 2008, p. 21-68<a target=\"_blank\" href=\"http:\/\/www.academia.edu\/528878\/_Allo_scoppio_del_conflitto_tra_Filippo_il_Bello_di_Francia_e_Bonifacio_VIII_l_affare_Saisset_1301_._Primi_spunti_per_una_rilettura_dans_I_poteri_universali_e_la_fondazione_dello_Studium_Urbis._Il_pontefice_Bonifacio_VIII_dalla_Unam_sanctam_allo_schiaffo_di_Anagni_\"> [en ligne]<\/a>, aux p. 52-55."
        },
        {
            "type": "bibliographie_generale",
            "value": "Jacques Chiffoleau, \u00ab Note sur la bulle <i>Vergentis in senium<\/i>, la lutte contre les h\u00e9r\u00e9tiques et la construction des majest\u00e9s temporelles \u00bb, dans <i>Innocent III et le Midi. Cahiers de Fanjeaux<\/i>, 50, dir. Daniel Le Bl\u00e9vec, Michelle Fourni\u00e9, Julien Th\u00e9ry-Astruc, Toulouse : Privat, 2015, p. 89-144. "
        },
        {
            "type": "bibliographie_generale",
            "value": "Julien Th\u00e9ry, \u00ab The Pioneer of Royal Theocracy. Guillaume de Nogaret and the conflicts between Philip the Fair and the Papacy \u00bb, dans <i>The Capetian Century, 1214-1314<\/i>, ed. William Chester Jordan, Jenna Rebecca Phillips, Turnhout : Brepols, 2017, p. 219-259<a target=\"_blank\" href=\"http:\/\/www.academia.edu\/29217362\/_The_Pioneer_of_Royal_Theocracy._Guillaume_de_Nogaret_and_the_conflicts_between_Philip_the_Fair_and_the_Papacy_dans_The_Capetian_Century_1214-1314_ed._William_Chester_Jordan_Jenna_Rebecca_Phillips_Brepols_2017_p._219-259\"> [en ligne]<\/a>, aux p. 238-241."
        },
        {
            "type": "date_lieu",
            "value": "Latran"
        },
        {
            "type": "destinataire",
            "value": "Le clerg\u00e9, les consuls et le peuple de Viterbe"
        },
        {
            "type": "edition_autre",
            "value": "Baluze, <i>Innocentii III epistol\u00e6<\/i>, t. I, p. 335."
        },
        {
            "type": "edition_autre",
            "value": "Jacques Paul Migne, <i>Patrologia latina<\/i>, t. 214, <i>Innocentii III opera<\/i>, I, n. 1, col. 537-539, <a target=\"_blank\" href=\"https:\/\/archive.org\/details\/patrologiaecurs202unkngoog\/page\/n388\/mode\/2up\"> [en ligne]<\/a>."
        },
        {
            "type": "regeste",
            "value": "Potthast, <i>Regesta pontificum Romanorum<\/i>, n. 643<a target=\"_blank\" href= \"https:\/\/archive.org\/stream\/RegestaPontificumRomanorum\/ph#page\/n71\"> [en ligne]<\/a>."
        },
        {
            "type": "pape",
            "value": "Innocent III (1198-1216)"
        },
        {
            "type": "edition_autre",
            "value": "Baluze, <i>Miscellanea Novo Ordine Digesta<\/i>, 3, p. 387-388, avec l'adresse <i>Cenetensi Uxi. episcopo<\/i> et sans date."
        },
        {
            "type": "edition_autre",
            "value": "Raynaldi, <i>Annales ecclesiastici<\/i>, a. 1198, \u00a7 23, l. 45, n. 1 (partielle), dat\u00e9e du VIII des calendes d'avril de la premi\u00e8re ann\u00e9e <a target=\"_blank\" href= \" http:\/\/digital.onb.ac.at\/OnbViewer\/viewer.faces?doc=ABO_%2BZ167640107\"> [en ligne]<\/a>."
        },
        {
            "type": "genre",
            "value": "Titre, g\u00e9n\u00e9ral (littere gratiose, cum filo serico)"
        },
        {
            "type": "notes_historiques",
            "value": "Cf. Gn 1 (Creatio celi et terre), 26 : <i>Et ait : Faciamus hominem ad imaginem et similitudinem nostram et presit piscibus maris et volatilibus celi et bestiis universeque terre omnique reptili quod movetur in terra.<\/i>",
            "children": {
                "numero_note": "1"
            }
        },
        {
            "type": "notes_historiques",
            "value": "Cf. Tit 3 (<i>Officia in extraneos<\/i>), 9 : <i>Stultas autem questiones et genealogias et contentiones et pugnas legis devita ; sunt enim inutiles et vane.<\/i>",
            "children": {
                "numero_note": "2"
            }
        },
        {
            "type": "notes_historiques",
            "value": "Cf. Ps 7 (<i>Hominis calumniis oppressi ad Deum judicem appellatio<\/i>), 16 : <i>Lacum aperuit et effodit eum ; et incidit in foveam quam fecit<\/i> ; Ecc 10, 8 (<i>De pravo regimine<\/i>) : <i>Qui fodit foveam incidet in eam et qui dissipat sepem mordebit eum coluber.<\/i>",
            "children": {
                "numero_note": "3"
            }
        },
        {
            "type": "notes_historiques",
            "value": "Cf. Mt 13, 24-30 (<i>Parabola zizaniorum<\/i>).",
            "children": {
                "numero_note": "4"
            }
        },
        {
            "type": "notes_historiques",
            "value": "Cf. Cant 2, 15 : <i>Capite nobis vulpes parvulas que demoliuntur vineas ; nam vinea nostra floruit.<\/i>",
            "children": {
                "numero_note": "5"
            }
        },
        {
            "type": "notes_historiques",
            "value": "Cf. Jos 7, 1626 (<i>Achan invenitur reus et morti damnatur<\/i>).",
            "children": {
                "numero_note": "6"
            }
        },
        {
            "type": "notes_historiques",
            "value": "Cf. Num 16, 140 (<i>Rebellio Core, Dathan et Abiron<\/i>).",
            "children": {
                "numero_note": "7"
            }
        },
        {
            "type": "notes_historiques",
            "value": "Ps 18 (<i>Laus Dei creatoris et legislatoris<\/i>), 3 : <i>Dies diei eructat verbum, et nox nocti indicat scientiam.<\/i>",
            "children": {
                "numero_note": "8"
            }
        },
        {
            "type": "notes_historiques",
            "value": "Cf. Mt 15, 14 (<i>Quid coinquinat hominem<\/i>) : <i>Sinite illos : ceci sunt et duces cecorum ; cecus autem si ceco ducatum prestet, ambo in foveam cadunt.<\/i>",
            "children": {
                "numero_note": "9"
            }
        },
        {
            "type": "notes_historiques",
            "value": "Cf. Is 1, 18 (<i>Hortatio ad conversionem<\/i>) : <i>Argentum tuum versum est in scoriam ; vinum tuum mistum est aqua.<\/i>",
            "children": {
                "numero_note": "10"
            }
        },
        {
            "type": "notes_historiques",
            "value": "Cf. Deut 32, 33 (<i>Sed ne hostes insolescant Israel vindicabit<\/i>) : <i>Sel draconum vinum eorum et venenum aspidum insanabile.<\/i>",
            "children": {
                "numero_note": "11"
            }
        },
        {
            "type": "notes_historiques",
            "value": "Cf. 2 Tim 3 (<i>Falsi doctores fugiendi<\/i>), 5 : <i>Habentes speciem quidem pietatis, virtutem autem ejus abnegantes.<\/i>",
            "children": {
                "numero_note": "13"
            }
        },
        {
            "type": "notes_historiques",
            "value": "Cf. Jud 15 (<i>Bellum aggreditur contra Philistheos<\/i>), 4 : <i>Perrexitque et cepit trecentas vulpes caudasque earum junxit ad caudas et faces ligavit in medio.<\/i>",
            "children": {
                "numero_note": "14"
            }
        },
        {
            "type": "notes_historiques",
            "value": "Cf. Ps 61 (<i>In solo Deo sperandum<\/i>), 10 : <i>Verumtamen vani filii hominum, mendaces filii hominum in stateris, ut decipiant ipsi de vanitate in idipsum.<\/i>",
            "children": {
                "numero_note": "15"
            }
        },
        {
            "type": "notes_historiques",
            "value": "Cf. Jer 51, 7 (<i>Contra Babylonem<\/i>) : <i>Calix aureus Babylon in manu Domini, inebrians omnem terram ; de vino ejus biberunt gentes et ideo commote sunt.<\/i>",
            "children": {
                "numero_note": "12"
            }
        },
        {
            "type": "edition_autre",
            "value": "Emil Friedberg, <\/i>Corpus iuris canonici<\/i>, II, Leipzig, 1881, c. 782-783."
        },
        {
            "type": "edition_autre",
            "value": "Othmar Hageneder, Werner Maleczek, A. A. Strnad, K. Rudolf, <i>Die Register Innocenz\u2019III. 2. Pontifikatsjahr, 1199\/1200<\/i>, Vienne, 1979, n. 1, p. 35, d'apr\u00e8s R."
        },
        {
            "type": "sources_manuscrites",
            "value": "R. CIT\u00c9 DU VATICAN, Archivio segreto Vaticano, <i>Registra Vaticana<\/i> 4, fol. 147.",
            "children": {
                "type_source": "Registre de la chancellerie apostolique"
            }
        },
        {
            "type": "regeste",
            "value": "Paul Fredericq, <i>Corpus documentorum inquisitionis haereticae pravitatis Neerlandicae<\/i>, Gand, 5 vol., 1889-1906, I, n. 60, p. 60 <a target=\"_blank\" href= \" https:\/\/archive.org\/details\/MN5018_01ucmf_0\/page\/n109\/mode\/2up\"> [en ligne]<\/a>, d'apr\u00e8s Raynaldi (et avec la date du 24 mars 1199)."
        }
    ]
}