{
    "id": 20631,
    "name": "aposcripta-618",
    "type": "acte",
    "url": "http:\/\/telma-chartes.irht.cnrs.fr\/aposcripta\/notice\/20631",
    "project_slug": "aposcripta",
    "project_label": "APOSCRIPTA \u2013 Lettres des papes",
    "user": "lettrespontificalesadmin",
    "last_update": "2020-10-19 16:26:51",
    "licence": "Attribution - Pas d\u2019Utilisation Commerciale - Partage dans les M\u00eames Conditions 3.0 France (CC BY-NC-SA 3.0 FR) ",
    "licence_url": "https:\/\/creativecommons.org\/licenses\/by-nc-sa\/3.0\/fr\/",
    "elements": [
        {
            "type": "pape",
            "value": "Gr\u00e9goire VII (1073-1085)"
        },
        {
            "type": "date_lieu",
            "value": "n.c."
        },
        {
            "type": "analyse",
            "value": "Gregorius\u00a0VII Alberto abbati, devotione eius per litteras cognita, adiutorium suum promittit.<a class=\"note\" href=\"#note-1\">1<\/a>"
        },
        {
            "type": "transcription",
            "value": "<?xml version=\"1.0\" encoding=\"UTF-8\"?>\nGregorius papa, servus servorum Dei, Alberto abbati, salutem et apostolicam benedictionem. Devotionem vestram circa apostolatum nostrum litterae vestrae prodiderunt. Unde si vobis umquam quicquam nostri adiutorii fuerit necesse, sperate nos libenter impendere. Illud vero quod dixistis relinquimus in vestra voluntate. Valete.\n"
        },
        {
            "type": "edition",
            "value": "Ici reprise de Samuel Loewenfeld, <i>Epistolae pontificum romanorum ineditae<\/i>, Leipzig : Veit et Comp., 1885, n. 119, p. 58-59."
        },
        {
            "type": "sources_manuscrites",
            "value": "F. Bibl. nat. Paris. ms. lat.\u00a0275 ad calcem manu s.\u00a0XI.",
            "children": {
                "type_source": "Autre copie m\u00e9di\u00e9vale"
            }
        },
        {
            "type": "notes_historiques",
            "value": "Hae litterae, cum in codice manu s.\u00a0XI exarato inveniantur nec scribendi genus a Registri stilo alienum sit, Gregorio\u00a0VII attribuendae videntur.",
            "children": {
                "numero_note": "1"
            }
        },
        {
            "type": "genre",
            "value": "Lettre, g\u00e9n\u00e9ral (avant 1198)"
        },
        {
            "type": "destinataire",
            "value": "L'abb\u00e9 Albert"
        }
    ]
}