{
    "id": 149363,
    "name": "aposcripta-8926",
    "type": "acte",
    "url": "http:\/\/telma-chartes.irht.cnrs.fr\/aposcripta\/notice\/149363",
    "project_slug": "aposcripta",
    "project_label": "APOSCRIPTA \u2013 Lettres des papes",
    "user": "lettrespontificalesadmin",
    "last_update": "2020-10-19 16:39:57",
    "licence": "Attribution - Pas d\u2019Utilisation Commerciale - Partage dans les M\u00eames Conditions 3.0 France (CC BY-NC-SA 3.0 FR) ",
    "licence_url": "https:\/\/creativecommons.org\/licenses\/by-nc-sa\/3.0\/fr\/",
    "elements": [
        {
            "type": "pape",
            "value": "Innocent IV (1243-1254)"
        },
        {
            "type": "destinataire",
            "value": "Nobili viro Thome de Sabaudia comiti"
        },
        {
            "type": "date_libre",
            "value": "X kalendas novembris, anno X"
        },
        {
            "type": "date",
            "value": " 1252\/10\/23",
            "children": {
                "date_deb_annee": "1252",
                "date_deb_mois": "10",
                "date_deb_jour": "23"
            },
            "range": {
                "date_apres": 12521023,
                "date_avant": 12521023
            }
        },
        {
            "type": "date_lieu",
            "value": "Perusii"
        },
        {
            "type": "sources_manuscrites",
            "value": "R. CIT\u00c9 DU VATICAN, Archivio Segreto Vaticano, <hi rend=\"italic\">Registra Vaticana<\/hi> ... Inn.\u00a0IV Reg. Vol.\u00a0II, 215; Lib.\u00a0X, 203. Exemplar tabularii contulimus cum Regestis.",
            "children": {
                "type_source": "Registre de la chancellerie apostolique"
            }
        },
        {
            "type": "genre",
            "value": "Mandement (littere cum filo canapis)"
        },
        {
            "type": "analyse",
            "value": "Innocentius IV papa Thomae de Sabaudia comiti indulget, ut iuribus ipsius ex eo, quod quondam Fr[iderico II] imperatori adhaeserit, praeiudicium non generetur [Rodenberg]."
        },
        {
            "type": "transcription",
            "value": "<?xml version=\"1.0\" encoding=\"UTF-8\"?>\nNobili viro Thome de Sabaudia comiti.Ne pro eo, quod condam Fr. olim imperatori ac eius fautoribus contra ecclesiam adhesisse diceris, cum ab excommunicationis sententia, si quam propter hoc incurristi, te absolvi fecerimus, aliquod patiaris in tuis iuribus detrimentum: ut occasione huiusmodi nullum tibi, quoad iurisdictiones, honores et iura, que tibi contra quascumque personas vel loca, antequam dictam sententiam incurreres, competebant, preiudicium generetur, devotioni tue auctoritate presentium indulgemus. Nulli ergo \u2014 nostre concessionis \u2014.Dat. Perusii, X Kalendas Novembris, anno X\u00b0.\n"
        },
        {
            "type": "edition",
            "value": "Ici reprise de Karl Rodenberg, Epistolae s. XIII e regestis pontificum romanorum selectae, III, Berlin : Weidmann (MGH), 1894, n.\u00a0168, p.\u00a0142."
        },
        {
            "type": "edition_autre",
            "value": "?"
        },
        {
            "type": "regeste",
            "value": "?"
        },
        {
            "type": "bibliographie_generale",
            "value": "?"
        },
        {
            "type": "apparat_critique",
            "value": "?",
            "children": {
                "numero_note": "a"
            }
        },
        {
            "type": "apparat_critique",
            "value": "?",
            "children": {
                "numero_note": "b"
            }
        },
        {
            "type": "apparat_critique",
            "value": "?",
            "children": {
                "numero_note": "c"
            }
        },
        {
            "type": "apparat_critique",
            "value": "?",
            "children": {
                "numero_note": "d"
            }
        },
        {
            "type": "apparat_critique",
            "value": "?",
            "children": {
                "numero_note": "e"
            }
        },
        {
            "type": "apparat_critique",
            "value": "?",
            "children": {
                "numero_note": "f"
            }
        },
        {
            "type": "notes_historiques",
            "value": "?",
            "children": {
                "numero_note": "1"
            }
        },
        {
            "type": "notes_historiques",
            "value": "?",
            "children": {
                "numero_note": "2"
            }
        },
        {
            "type": "notes_historiques",
            "value": "?",
            "children": {
                "numero_note": "3"
            }
        }
    ]
}