{
    "id": 25893,
    "name": "aposcripta-2990",
    "type": "acte",
    "url": "http:\/\/telma-chartes.irht.cnrs.fr\/aposcripta\/notice\/25893",
    "project_slug": "aposcripta",
    "project_label": "APOSCRIPTA \u2013 Lettres des papes",
    "user": "lettrespontificalesadmin",
    "last_update": "2020-10-19 16:27:50",
    "licence": "Attribution - Pas d\u2019Utilisation Commerciale - Partage dans les M\u00eames Conditions 3.0 France (CC BY-NC-SA 3.0 FR) ",
    "licence_url": "https:\/\/creativecommons.org\/licenses\/by-nc-sa\/3.0\/fr\/",
    "elements": [
        {
            "type": "pape",
            "value": "Innocent IV (1243-1254)"
        },
        {
            "type": "destinataire",
            "value": "L'abb\u00e9 et la communaut\u00e9 du monast\u00e8re de Pontigny",
            "children": {
                "numero_note": "0"
            }
        },
        {
            "type": "date_lieu",
            "value": "Lyon"
        },
        {
            "type": "date_libre",
            "value": "Kalendis junii, anno septimo"
        },
        {
            "type": "date",
            "value": " 1250\/06\/01",
            "children": {
                "date_deb_annee": "1250",
                "date_deb_mois": "06",
                "date_deb_jour": "01"
            },
            "range": {
                "date_apres": 12500601,
                "date_avant": 12500601
            }
        },
        {
            "type": "analyse",
            "value": "D\u00e9fense de par le pape Innocent IV, \u00e1 tout \u00e9v\u00eaque et autres, d\u2019exiger comme un droit des moines de Pontigny l\u2019hospitalit\u00e9 que ceux-ci leur donnent."
        },
        {
            "type": "transcription",
            "value": "<?xml version=\"1.0\" encoding=\"UTF-8\"?>\nInnocentius episcopus, servus servorum Dei, dilectis filiis abbati et conventui monasterii Pontiniac., ordinis Cisterciensis, Autissiod, diocesis, salutem et apostolicam benedictionem. Intimantibus vobis accepimus quod, cum exhibeatis vos in hospitalitate omnibus liberales diocesano vestro, et aliis ecclesiarum pr\u00e6latis, et eorum familiis, cum ad monasterium vestrum declinant, caritative necessaria ministrantes, nonnulli pr\u00e6latorum ipsorum hujusmodi gratiam convertere molientes in debitum, et quod sic sponte ipsis impenditis, deberi sibi ex antiqua consuetudine afferentes, vos et pr\u00e6fatum monasterium propter hoc multipliciter aggravant et molestant. Nos, igitur, vestris supplicationibus inclinati, volentes vestr\u00e6 in hac parte quieti paterna sollicitudine providere; ne quisquam pr\u00e6latus, deinceps, id a vobis exigere vel extorquere pr\u00e6sumat, auctoritate pr\u00e6sentium inhibemus. Nulli, ergo, etc. Datum, Lugduni, calendis junii, pontificatus nostri anno septimo.\n"
        },
        {
            "type": "edition",
            "value": "Ici tir\u00e9e du projet <i>CBMA - Corpus Burgundiae Medii Aevi<\/i>, document 9210. Site du projet Corpus de la Bourgogne du Moyen \u00c2ge, [En ligne] <a href=\"http:\/\/www.cbma-project.eu\" target=\"_blank\">http:\/\/www.cbma-project.eu<\/a>  "
        },
        {
            "type": "sources_manuscrites",
            "value": "\u00e0 renseigner."
        },
        {
            "type": "remarques",
            "value": "\r\n\r\n D. Mart\u00e8ne, Thes. nov. Anecd., t.\u00a0III, col.\u00a01253."
        },
        {
            "type": "edition_autre",
            "value": "Ici reprise de Maximilien Quantin, <i>Recueil de pi\u00e8ces pour faire suite au Cartulaire g\u00e9n\u00e9ral de l'Yonne : XIIIe si\u00e8cle<\/i>, Auxerre : Soci\u00e9t\u00e9 des sciences historiques et naturelles de l'Yonne, 1873, p. , n\u00b0 533.",
            "children": {
                "numero_note": "0"
            }
        },
        {
            "type": "genre",
            "value": "Titre, g\u00e9n\u00e9ral (littere gratiose, cum filo serico)"
        }
    ]
}