{
    "id": 26125,
    "name": "aposcripta-3204",
    "type": "acte",
    "url": "http:\/\/telma-chartes.irht.cnrs.fr\/aposcripta\/notice\/26125",
    "project_slug": "aposcripta",
    "project_label": "APOSCRIPTA \u2013 Lettres des papes",
    "user": "lettrespontificalesadmin",
    "last_update": "2020-10-19 16:27:55",
    "licence": "Attribution - Pas d\u2019Utilisation Commerciale - Partage dans les M\u00eames Conditions 3.0 France (CC BY-NC-SA 3.0 FR) ",
    "licence_url": "https:\/\/creativecommons.org\/licenses\/by-nc-sa\/3.0\/fr\/",
    "elements": [
        {
            "type": "pape",
            "value": "L\u00e9on IX (1049-1054)"
        },
        {
            "type": "date_lieu",
            "value": "Metz"
        },
        {
            "type": "date_libre",
            "value": "V idus octobris, anno I, indictione II, anno MXLVIIII"
        },
        {
            "type": "date",
            "value": " 1049\/10\/11",
            "children": {
                "date_deb_annee": "1049",
                "date_deb_mois": "10",
                "date_deb_jour": "11"
            },
            "range": {
                "date_apres": 10491011,
                "date_avant": 10491011
            }
        },
        {
            "type": "analyse",
            "value": "* Leo IX best\u00e4tigt der Kathedrale von Metz die Rechte, welche ihr Bischof Adalbero nach dem Beispiele seiner Vorg\u00e4nger zugestanden hat."
        },
        {
            "type": "transcription",
            "value": "<?xml version=\"1.0\" encoding=\"UTF-8\"?>\n\u2020 Leo episcopus servus servorum dei Paulino primicerio congregationis sancti Stephani, primi martiris, et sancti Pauli Mettensis | ecclesi\u0229 et per eum cunctis successoribus eius atque universis fratribus, tam presentibus quam futuris, perpetuam in domino salutem. Cum pie desiderium voluntatis et laudand\u0229 devotionis intencio apostolicis sit semper presidiis adiuvanda, cura est sollicitudinis adhibenda, ut ea, que legaliter geruntur et equitatis forme conveniunt, nulla valeant refragatione perturbari, sed inrefragabili iure deo auctore debeant permanere. Quia vero cari nostri nepotis et in Christo dilecti fratris Adalberonis, vestri Mettensis episcopi, vigilantissima sollicitudo nostrum sollicitare decrevit apostolicum culmen, quatinus munimen apostolice auctoritatis accomodaremus privilegio vestr\u0229 \u0229cclesi\u0229, quod ipse pio intuitu provocatus predecessorum suorum exemplo firmavit, inclinati precibus eius et etiam a nobis ipsis permoti, pro eo, quod in fraternitate vestra eramus, dum Tullensi episcopatui preeramus, per hoc nostre apostolice auctoritatis privilegium confirmamus et corroboramus, quicquid in eodem privilegio contineri videtur. Ut scilicet fratres electi electionem primicerii faciant sive decani, cantoris, librarii atque custodis ecclesi\u0229 sancti Stephani ex illis, quemcunque elegerint, et ab ipso episcopo vel successoribus eius expetierint, ut circas1 et vigilias non faciant propter perpetuas \u0229cclesi\u0229 observantias nisi in obsidione civitatis, ut ab exigendis et accomodandis ad itinera episcopi caballis omnino liberi sint, ut in propriis mansionibus eorum nulla transeuncium aut superveniencium nec ipso adventu regio habeantur hospitia, nec ulla potestas pro aliquo facto in eas violenter intrare presumat, ut in quocumque banno kanonici vineas habeant sine licentia vindemient, quia omnes pariter a monasterio et, nisi per licenciam egredi non debent, ideoque bannos, ut alii, observare non possunt, ut neque famuli fratrum intra claustrum servientes neque prebendarii singulorum pro ullo facto bannum ad civitatem emendent, sed si forte aliquid tale commiserint, ipsimet domino episcopo de suis hominibus iusticiam faciant, ut, defunctis fratribus, episcopus res suas diripere non debeat, etiam si aliquod ministerium episcopi habuerint, sed omnia sua illis libere disponere liceat. Porro si divino iudicio aliquis fratrum subita, ut sepe fit, morte preventus, de suis ordinare non poterit, totum mobile eius communi fratrum consilio ad salutem anim\u0229 eius disponatur. Percussuram propri\u0229 monet\u0229 apud Sareburc habeant libere, sic tamen, ut pondere et puritate argenti a Mettensi non discrepet. In omnibus autem mansis sancti Pauli nemo lectos accipiat, nisi ministerialis fratrum. Postremo, quicquid hactenus possederint, vel deinceps, deo donante, adquirent, sive ad indominicatum suum teneant, sive alicui fratrum in beneficium dentur, nemo inde canonicum vel advocatum eius ad placitum stringat, sed cum quiete et sine perturbacione omnia sua possideant, quatinus liberius in ipso sacro loco deinceps deo militent, et pro peccatis omnium populorum miserationem dei implorent. Quarum omnium rerum, sicuti adnotate sunt in privilegio cari nostri supradicti vestri Mettensis episcopi, constitucionem ex eius, sicut prelibavimus, intercessione nostr\u0229 apostolice auctoritatis robore per hoc privilegium munimus et confirmamus. Statuentes apostolica censura sub divini iudicii obtestacione, ut nullus imperator, rex, dux, marchio, comes et preterea archiepiscopus et specialiter ipse Mettensis, quicumque pro tempore fuerit, seu etiam alia aliqua magna parvaque persona contra hanc nostram apostolicam auctoritatem fulcitam corroborationem venire pertemptet. Quod [si] quisquis ausus fuerit, nostri anathematis vinculo inno datus erit usque ad dignam satisfactionem. Qui vero custos et observator huius nostri privilegii extiterit, a deo benedictionis gratiam consequatur et \u0229tern\u0229 vit\u0229 particeps efficiatur. \u2014(R) (M.,.)Eberhardus Trevirorum archiepiscopus.Hugo Chrisopolitanorum archipresul2.Adelbero Metensis episcopus. Udo Leuchorum episcopus3.\u2014 Alinardus Lugdunensis aecclesi\u0229 primas.Humbertus cardinalis et episcopus Silve candid\u0229.Theodericus Verdunensis episcopus.Johannes sacriscrinius. Item Johannes archidiaconus.Data v Idus Octobris, per manum Udonis, sancte apostolic\u0229 sedis cancellarii et bibliothecarii et Tullensis primicerii. Anno domni Leonis viiii papae i. Indictione ii. Anno vero dominic\u0229 incarnationis millesimo xlviiii. In \u0229cclesia sancti Johannis evangeliste sanctique Arnulfi Mettensis episcopi.\n"
        },
        {
            "type": "edition",
            "value": "Julius von Pflugk-Harttung, <i>Acta pontificum Romanorum inedita<\/i>, T\u00fcbingen, 1880, I, n. 16, p. 13-14 <a target=\"_blank\" href=\"https:\/\/archive.org\/stream\/actapontificumr00churgoog#page\/n32\/mode\/2up\"> [en ligne]<\/a>."
        },
        {
            "type": "sources_manuscrites",
            "value": "E. FRANCE, Metz, Archives d\u00e9partementales de Moselle, G 439, n. 2. Fac-simil\u00e9 publi\u00e9 par le projet \u00ab Chartes ant\u00e9rieures \u00e0 1121 conserv\u00e9es en France \u00bb<a target=\"_blank\" href=\" http:\/\/www.cn-telma.fr\/originaux\/charte4824\/\"> [en ligne]<\/a>."
        },
        {
            "type": "remarques",
            "value": "Perg. nicht italien. breit 0,465, lang 0,624, unten nicht umgeschlagen, durch 4 L\u00f6cher in Rautenform geht kanzleim\u00e4ssig die lila Seidenschnur, deren Bulle verloren, Faltung der Privilegien. Die erste Zeile ist in verl\u00e4ngerter Schrift ausgef\u00fchrt, der Context in etwas verschn\u00f6rkelter fr\u00e4nkischer Minuskel. Aeusserlich erkennt man die Nachbildung an den Zeugenunterschriften mit dem ganz unkanzleim\u00e4ssigen testes in der Mitte, sie r\u00fchren alle von gleicher Hand her, offenbar der des Textes und der Datumzeile, die Umschrift der Rota ist unkanzleim\u00e4ssig, ebenso wie das aus 4 fast gleichen Haken bestehende Komma. Als innere Gr\u00fcnde sprechen f\u00fcr eine F\u00e4lschung : die halsbrechende Stilisirung und Formulirung, der \u00fcbertrieben weitreichende Inhalt, die Ortsangabe am Schlusse der Datumzeile, unpassende Zeugen und Anderes. Offenbar hat aber dem F\u00e4lscher ein echtes Diplom Leos vorgelegen und zwar k\u00f6nnte es das f\u00fcr St.-Airy de Verdun vom 10 Jan. 1051 gewesen sein, wovon sich ein gr\u00f6sseres St\u00fcck im MS. Moreau B. 25 (Bibl. Nat. zu Paris) gepaust findet."
        },
        {
            "type": "notes_historiques",
            "value": "<i>Circa, cerchia : vigiliae, excubiae, Gall<\/i> \u201e<i>la Ronde<\/i>\u201c, <i>a circumcundo, quia qui urbium custodiae invigilant, muros circumcunt. Du Cange, Gloss. II p. 357<\/i>.",
            "children": {
                "numero_note": "1"
            }
        },
        {
            "type": "notes_historiques",
            "value": "<i>Hugo I, de Salins, Erzbischof von Besan\u00e7on, 1031\u20131066.<\/i>",
            "children": {
                "numero_note": "2"
            }
        },
        {
            "type": "notes_historiques",
            "value": "<i>Odo, Bischof von Toul, 1051\u20131069.<\/i>",
            "children": {
                "numero_note": "3"
            }
        },
        {
            "type": "genre",
            "value": "Bulle"
        }
    ]
}