{
    "id": 20312,
    "name": "aposcripta-299",
    "type": "acte",
    "url": "http:\/\/telma-chartes.irht.cnrs.fr\/aposcripta\/notice\/20312",
    "project_slug": "aposcripta",
    "project_label": "APOSCRIPTA \u2013 Lettres des papes",
    "user": "lettrespontificalesadmin",
    "last_update": "2020-10-19 16:26:47",
    "licence": "Attribution - Pas d\u2019Utilisation Commerciale - Partage dans les M\u00eames Conditions 3.0 France (CC BY-NC-SA 3.0 FR) ",
    "licence_url": "https:\/\/creativecommons.org\/licenses\/by-nc-sa\/3.0\/fr\/",
    "elements": [
        {
            "type": "pape",
            "value": "Jean XXII (1316-1334)"
        },
        {
            "type": "date_lieu",
            "value": "Avignon"
        },
        {
            "type": "date_libre",
            "value": "18 novembre 1333"
        },
        {
            "type": "analyse",
            "value": "Le pape envoie \u00e0 Pierre Roger, archev\u00eaque de Rouen, l\u2019opuscule \u00e9crit par Thomas Walleis, pour d\u00e9fendre ses erreurs. Il devra le remettre au roi et \u00e0 la reine de France avec un m\u00e9moire \u00e9crit par le pape lui-m\u00eame en faveur de l\u2019opinion contraire \u00e0 la vision b\u00e9atifique imm\u00e9diate. L\u2019archev\u00eaque devra s\u2019efforcer de faire accepter cette opinion par Leurs Majest\u00e9s<a class=\"note\" href=\"#note-1\">1<\/a>."
        },
        {
            "type": "transcription",
            "value": "<?xml version=\"1.0\" encoding=\"UTF-8\"?>\nPetro archiepiscopo Rothomagen. \u2014 Fraternitatem tuam volumus... \u2014 Datum Avinioni, xiiii kalendas decembris, anno XVIII.\n"
        },
        {
            "type": "edition",
            "value": "Jean-Marie Vidal, <i>Bullaire de l\u2019Inquisition fran\u00e7aise au XIV<sup>e<\/sup> si\u00e8cle et jusqu'\u00e0 la fin du Grand Schisme<\/i>, Paris : Letouzey et An\u00e9, 1913, n. 137, p. 201"
        },
        {
            "type": "sources_manuscrites",
            "value": "<i>Reg. Vat.<\/i>, t. <span class=\"smal-caps\">cxvii<\/span>, n. 979"
        },
        {
            "type": "sources_manuscrites",
            "value": "Denifle, <i>Chartul.<\/i>, t. <span class=\"smal-caps\">ii<\/span>, p. 427, n. 979 (<i>in ext.<\/i>)."
        },
        {
            "type": "notes_historiques",
            "value": "Voir n. 129, notes.",
            "children": {
                "numero_note": "1"
            }
        },
        {
            "type": "date",
            "value": "1333\/11\/18",
            "children": {
                "date_deb_annee": "1333",
                "date_deb_mois": "11",
                "date_deb_jour": "18"
            },
            "range": {
                "date_apres": 13331118,
                "date_avant": 13331118
            }
        },
        {
            "type": "genre",
            "value": "Bulle"
        }
    ]
}