{
    "id": 24541,
    "name": "aposcripta-1692",
    "type": "acte",
    "url": "http:\/\/telma-chartes.irht.cnrs.fr\/aposcripta\/notice\/24541",
    "project_slug": "aposcripta",
    "project_label": "APOSCRIPTA \u2013 Lettres des papes",
    "user": "lettrespontificalesadmin",
    "last_update": "2020-10-19 16:27:31",
    "licence": "Attribution - Pas d\u2019Utilisation Commerciale - Partage dans les M\u00eames Conditions 3.0 France (CC BY-NC-SA 3.0 FR) ",
    "licence_url": "https:\/\/creativecommons.org\/licenses\/by-nc-sa\/3.0\/fr\/",
    "elements": [
        {
            "type": "pape",
            "value": "Cl\u00e9ment IV (1265-1268)"
        },
        {
            "type": "date_lieu",
            "value": "Viterbe"
        },
        {
            "type": "date_libre",
            "value": "IV idus decembris, anno tertio"
        },
        {
            "type": "date",
            "value": " 1267\/12\/10",
            "children": {
                "date_deb_annee": "1267",
                "date_deb_mois": "12",
                "date_deb_jour": "10"
            },
            "range": {
                "date_apres": 12671210,
                "date_avant": 12671210
            }
        },
        {
            "type": "analyse",
            "value": "Cl\u00e9ment\u00a0IV, \u00e0 l\u2019exemple d\u2019Innocent\u00a0IV, interdit \u00e0 l\u2019\u00e9v\u00eaque de Maguelone de compara\u00eetre devant les arbitres la\u00efques nomm\u00e9s par saint Louis pour terminer les diff\u00e9rends qui ont surgi entre lui et ses officiers."
        },
        {
            "type": "transcription",
            "value": "<?xml version=\"1.0\" encoding=\"UTF-8\"?>\nClemens episcopus, servus servorum Dei, venerabili fratri, episcopo Magalonensi, salutem et apostolicam benedictionem. Tua nobis fraternitas intimavit quod, licet carrissimus in Cristo filius noster, illustris rex Francie, causam que inter ipsum et senescallos suos ex una parte, ac te super possessione et dominio castrorum Montis Lauri et Rupis Aineriia, necnon et jurisdictione villarum Sancte Crucis et Sancti Martini de Lundris, ac rebus aliis ad comitatum Melgorii et Montisferrandi, quem a nobis et Romana Ecclesia sub annuo censu tenes ex altera vertitur, quibusdam laicis, pro sue voluntatis arbitrio, duxerit committendum, tu tamen nolens predicta in judicium deducere absque nostre beneplacito voluntatis, id prudenter ad nostram notitiamb pertulisti, petens nichilominus quid super hoc per te fieri debeat, per Sedem Apostolicam edoceri. Ut igitur in premissis iterum cognitionis nostre propositum tibi plenius innotescat, ad instar felicis recordationis Innocentii Pape, predecessoris nostri, scire te volumus nos nolle penitus ut, super rebus ad prefatum comitatum spectantibus, forum subire debeas judicis secularis\u00a0; id idem quod de rebus ipsis predicitur, de bonis eciam ac juribus comitatus ejusdem nos intelligere ac servari velle, ad tuam, tenore presentium, notitiam perferentes. Datum Viterbii, IIII idus decembris, pontificatus nostri anno tertioc.\n"
        },
        {
            "type": "edition",
            "value": "Ici reprise de Julien Rouquette, Augustin Villemagne, <i>Bullaire de l'\u00c9glise de Maguelone<\/i>, Paris, Montpellier : Picard, Valat, 1911-1914, II, n. 518-CCCLXX, p. 418-419."
        },
        {
            "type": "remarques",
            "value": ""
        },
        {
            "type": "apparat_critique",
            "value": "Cart.\u00a0: <i>Ainerie<\/i>.",
            "children": {
                "numero_note": "a"
            }
        },
        {
            "type": "apparat_critique",
            "value": "Cart.\u00a0: <i>noticiam<\/i>.",
            "children": {
                "numero_note": "b"
            }
        },
        {
            "type": "apparat_critique",
            "value": "Cart.\u00a0: <i>tercio<\/i>.",
            "children": {
                "numero_note": "c"
            }
        },
        {
            "type": "bibliographie_generale",
            "value": "<i>Cart. de Maguelone<\/i>, reg.\u00a0F, fol.\u00a0120\u00a0v\u00b0.",
            "children": {
                "numero_note": "0"
            }
        },
        {
            "type": "genre",
            "value": "Lettre, g\u00e9n\u00e9ral (apr\u00e8s 1198, littere cum filo canapis)"
        },
        {
            "type": "destinataire",
            "value": "L'\u00e9v\u00eaque de Maguelonne"
        }
    ]
}