{
    "id": 149776,
    "name": "aposcripta-9339",
    "type": "acte",
    "url": "http:\/\/telma-chartes.irht.cnrs.fr\/aposcripta\/notice\/149776",
    "project_slug": "aposcripta",
    "project_label": "APOSCRIPTA \u2013 Lettres des papes",
    "user": "lettrespontificalesadmin",
    "last_update": "2020-10-19 16:40:04",
    "licence": "Attribution - Pas d\u2019Utilisation Commerciale - Partage dans les M\u00eames Conditions 3.0 France (CC BY-NC-SA 3.0 FR) ",
    "licence_url": "https:\/\/creativecommons.org\/licenses\/by-nc-sa\/3.0\/fr\/",
    "elements": [
        {
            "type": "pape",
            "value": "Urbain IV (1261-1264)"
        },
        {
            "type": "destinataire",
            "value": "Magistro Alberto notario nostro"
        },
        {
            "type": "date_libre",
            "value": "VIII kalendas novembris, anno II"
        },
        {
            "type": "date",
            "value": " 1262\/10\/25",
            "children": {
                "date_deb_annee": "1262",
                "date_deb_mois": "10",
                "date_deb_jour": "25"
            },
            "range": {
                "date_apres": 12621025,
                "date_avant": 12621025
            }
        },
        {
            "type": "date_lieu",
            "value": "Urbemveterem"
        },
        {
            "type": "sources_manuscrites",
            "value": "R. CIT\u00c9 DU VATICAN, Archivio Segreto Vaticano, <hi rend=\"italic\">Registra Vaticana<\/hi> ... Urb.\u00a0IV Reg. Vol.\u00a0I, 49-50; Lib.\u00a0II, f.\u00a02, ep.\u00a08. Damus Pertzii exemplar.",
            "children": {
                "type_source": "Registre de la chancellerie apostolique"
            }
        },
        {
            "type": "genre",
            "value": "Mandement (littere cum filo canapis)"
        },
        {
            "type": "analyse",
            "value": "Urbanus IV papa magistro Alberto notario suo scribit se nuntios Ludowici [IX] regis Francorum super regno Siciliae missos non recepisse; mandat, ut de processu, si quem super eodem negotio cum Carolo comite Andegaviae et Provinciae habuerit, scribat; si nullum habuerit tractatum, tractet cum eo, neque vero quicquam firmet [Rodenberg]."
        },
        {
            "type": "transcription",
            "value": "<?xml version=\"1.0\" encoding=\"UTF-8\"?>\nMagistro Alberto notario nostroScripsisti nobis totum processum tuum habitum super negotio regni Sicilie cum carissimo in Christo filio nostro Ludovico illustri rege Francorum necnon et responsionem, quam dictus rex tibi duxit super eodem negotio faciendam, et in tuis litteris adiecisti, qualiter te, in itinere constitutum eundi ad dilectum filium nobilem virum Carolum Andegavie ac Provincie comitem pro habendo cum eo super negotio predicto tractatum, idem rex ad suam presentiam per regias litteras revocavit, tibique secrete dixit, quod cum ipse post responsionem, quam tibi super ipso negotio fecerat, quasdam a nobis per nobilem virum Iohannem de Valencenis dominum Cayphe litteras recepisset, nequaquam ei videbatur expediens, ut in negotio ipso cum aliquo alio deberes procedere, nisi primo a nobis, quos super quibusdam, que nostre littere continebant, per proprium nuntium volebat consulere, responsio proveniret; verumtamen noluit tibi, que in huiusmodi nostris continebantur litteris, revelare. Subiunxisti insuper, quod tu ex hiis, que idem rex tibi de novo dixerat, vehementer admirans, et quid sibi vellent verba talia, frequenti meditatione revolvens, coram eodem rege proponere curavisti, quod predicti retardatio negotii multum poterat esse dampnosa quodque durum tibi non immerito videbatur super ipso negotio, quod nos sic ex animo tue commiseramus industrie, nullo in contrarium a nobis recepto mandato, cum alio non tractare; propter quod dictus rex tibi respondit, quod placebat eidem, ut versus Provinciam dirigeres gressus tuos cum eodem comite super predicto negotio tractaturus, ita tamen quod nichil ad effectum perduceres, nisi primo tibi nostre super hoc voluntatis beneplacitum mandaremus. Nos igitur, receptis tuis litteris et perlectis, quia nondum ad nos quicquam de premissis ab eodem rege pervenerat, sperantes aliquos eiusdem regis propter hoc in brevi recipere nuntios, huiusmodi nuntiorum adventum, priusquam ad te nostrum in hac parte emanaret responsum, fore decreveramus aliquandiu expectandum. Sed quia nullos adhuc nuntios nullasque super hoc litteras a predicto rege recepimus, nos, nolentes quod animus tuus remaneret diutius in suspenso, latorem presentium ad te duximus remittendum, mandantes, quatinus de processu tuo, si quem super ipso negotio cum eodem comite postmodum habuisti, necnon et de ipsius qualitate processus et de eo etiam, quod inveneris in ipso et ab ipso comite, reddas nos tuis litteris certiores. Si vero nullum adhuc habuisti cum comite predicto tractatum, volumus, quod discrete, sapienter et caute tractes cum eo super negotio prelibato. Verumtamen ad firmandum quicquam cum ipso quomodolibet non procedas, cum, sicut nosti, nullam firmandi aliquid super ipso negotio a nobis habeas potestatem, set rescribas nobis omnia seriatim. Nos enim, si nuntios vel litteras aliquas a prefato rege super premissis recipere nos forte contigerit, providentie tue super hiis, que idem rex miserit, si respondendum tibi fore viderimus, curabimus respondere.Dat. apud Urbemveterem, VIII Kalendas Novembris, anno II\u00b0.\n"
        },
        {
            "type": "edition",
            "value": "Ici reprise de Karl Rodenberg, Epistolae s. XIII e regestis pontificum romanorum selectae, III, Berlin : Weidmann (MGH), 1894, n.\u00a0525, p.\u00a0494."
        },
        {
            "type": "edition_autre",
            "value": "?"
        },
        {
            "type": "regeste",
            "value": "?"
        },
        {
            "type": "bibliographie_generale",
            "value": "?"
        },
        {
            "type": "apparat_critique",
            "value": "?",
            "children": {
                "numero_note": "a"
            }
        },
        {
            "type": "apparat_critique",
            "value": "?",
            "children": {
                "numero_note": "b"
            }
        },
        {
            "type": "apparat_critique",
            "value": "?",
            "children": {
                "numero_note": "c"
            }
        },
        {
            "type": "apparat_critique",
            "value": "?",
            "children": {
                "numero_note": "d"
            }
        },
        {
            "type": "apparat_critique",
            "value": "?",
            "children": {
                "numero_note": "e"
            }
        },
        {
            "type": "apparat_critique",
            "value": "?",
            "children": {
                "numero_note": "f"
            }
        },
        {
            "type": "notes_historiques",
            "value": "?",
            "children": {
                "numero_note": "1"
            }
        },
        {
            "type": "notes_historiques",
            "value": "?",
            "children": {
                "numero_note": "2"
            }
        },
        {
            "type": "notes_historiques",
            "value": "?",
            "children": {
                "numero_note": "3"
            }
        }
    ]
}