{
    "id": 149805,
    "name": "aposcripta-9368",
    "type": "acte",
    "url": "http:\/\/telma-chartes.irht.cnrs.fr\/aposcripta\/notice\/149805",
    "project_slug": "aposcripta",
    "project_label": "APOSCRIPTA \u2013 Lettres des papes",
    "user": "lettrespontificalesadmin",
    "last_update": "2020-10-19 16:40:04",
    "licence": "Attribution - Pas d\u2019Utilisation Commerciale - Partage dans les M\u00eames Conditions 3.0 France (CC BY-NC-SA 3.0 FR) ",
    "licence_url": "https:\/\/creativecommons.org\/licenses\/by-nc-sa\/3.0\/fr\/",
    "elements": [
        {
            "type": "pape",
            "value": "Urbain IV (1261-1264)"
        },
        {
            "type": "destinataire",
            "value": "Fratri Iohanni de Cantia ordinis Minorum, nuntio nostro in Anglia"
        },
        {
            "type": "date_libre",
            "value": "VIII kalendas augusti, anno secundo"
        },
        {
            "type": "date",
            "value": " 1263\/07\/25",
            "children": {
                "date_deb_annee": "1263",
                "date_deb_mois": "07",
                "date_deb_jour": "25"
            },
            "range": {
                "date_apres": 12630725,
                "date_avant": 12630725
            }
        },
        {
            "type": "date_lieu",
            "value": "Urbemveterem"
        },
        {
            "type": "sources_manuscrites",
            "value": "R. CIT\u00c9 DU VATICAN, Archivio Segreto Vaticano, <hi rend=\"italic\">Registra Vaticana<\/hi> ... Urb.\u00a0IV Reg. Vol.\u00a0I, 107; Lib.\u00a0II, f.\u00a060, ep.\u00a0189\u00a0bis. Epistolam ex Regestis descripsit V. Cl. Monaci.",
            "children": {
                "type_source": "Registre de la chancellerie apostolique"
            }
        },
        {
            "type": "genre",
            "value": "Mandement (littere cum filo canapis)"
        },
        {
            "type": "analyse",
            "value": "Urbanus IV papa fratri Iohanni de Cantia ordinis Minorum, nuntio suo in Anglia, mandat, ut [Henricum III] regem Angliae inducat, ut censum annualem, ecclesiae Romanae debitum, in cuius solutione diutius cessaverit, nominatis mercatoribus Florentinis exhibere faceret [Rodenberg]."
        },
        {
            "type": "transcription",
            "value": "<?xml version=\"1.0\" encoding=\"UTF-8\"?>\nFratri Iohanni de Cantia ordinis Minorum, nuntio nostro in Anglia.Cum carissimus in Christo filius noster . . rex Anglorum illustris nobis et fratribus nostris sancte Romane ecclesie cardinalibus annuatim in certa summa pecunie census nomine teneatur et in illius solutione diutius cessasse noscatur, discretioni [tue] per apostolica scripta mandamus, quatinus regem ipsum ex parte nostra efficaciter moneas et inducas, ut pecuniam huiusmodi pro eo tempore, quo in illius solutione cessavit, dilectis filiis Rucho Cambii et Raynerio Abbatis civibus et mercatoribus Florentinis, sociis Iacobi de Scala concivis ipsorum, vel eorum alteri nostro et eorundem cardinalium nomine infra terminum competentem, quem ad hoc ei peremptorie prefigendum duxeris, sine difficultate faciat exhiberi. Alioquin capellam ipsius regis supponas ecclesiastico interdicto \u2014 non obstante si eidem regi a sede apostolica sit indultum, quod ipsius capella per litteras apostolicas nequeat interdici, nisi de indulto huiusmodi plenam et expressam ac de verbo ad verbum fecerint mentionem.Dat. apud Urbemveterem, VIII Kalendas Augusti, anno secundo.\n"
        },
        {
            "type": "edition",
            "value": "Ici reprise de Karl Rodenberg, Epistolae s. XIII e regestis pontificum romanorum selectae, III, Berlin : Weidmann (MGH), 1894, n.\u00a0551, p.\u00a0532."
        },
        {
            "type": "edition_autre",
            "value": "?"
        },
        {
            "type": "regeste",
            "value": "?"
        },
        {
            "type": "bibliographie_generale",
            "value": "?"
        },
        {
            "type": "apparat_critique",
            "value": "?",
            "children": {
                "numero_note": "a"
            }
        },
        {
            "type": "apparat_critique",
            "value": "?",
            "children": {
                "numero_note": "b"
            }
        },
        {
            "type": "apparat_critique",
            "value": "?",
            "children": {
                "numero_note": "c"
            }
        },
        {
            "type": "apparat_critique",
            "value": "?",
            "children": {
                "numero_note": "d"
            }
        },
        {
            "type": "apparat_critique",
            "value": "?",
            "children": {
                "numero_note": "e"
            }
        },
        {
            "type": "apparat_critique",
            "value": "?",
            "children": {
                "numero_note": "f"
            }
        },
        {
            "type": "notes_historiques",
            "value": "?",
            "children": {
                "numero_note": "1"
            }
        },
        {
            "type": "notes_historiques",
            "value": "?",
            "children": {
                "numero_note": "2"
            }
        },
        {
            "type": "notes_historiques",
            "value": "?",
            "children": {
                "numero_note": "3"
            }
        }
    ]
}