{
    "id": 148233,
    "name": "aposcripta-7849",
    "type": "acte",
    "url": "http:\/\/telma-chartes.irht.cnrs.fr\/aposcripta\/notice\/148233",
    "project_slug": "aposcripta",
    "project_label": "APOSCRIPTA \u2013 Lettres des papes",
    "user": "l_valliere",
    "last_update": "2020-10-19 16:39:43",
    "licence": "Attribution - Pas d\u2019Utilisation Commerciale - Partage dans les M\u00eames Conditions 3.0 France (CC BY-NC-SA 3.0 FR) ",
    "licence_url": "https:\/\/creativecommons.org\/licenses\/by-nc-sa\/3.0\/fr\/",
    "elements": [
        {
            "type": "pape",
            "value": "Cl\u00e9ment IV (1265-1268)"
        },
        {
            "type": "destinataire",
            "value": "Le potestat, le Conseil et la Commune de Rieti"
        },
        {
            "type": "date_libre",
            "value": "VII kalendas septembris, anno quarto"
        },
        {
            "type": "date_lieu",
            "value": "Viterbe"
        },
        {
            "type": "genre",
            "value": "Mandement (littere cum filo canapis)"
        },
        {
            "type": "analyse",
            "value": "Increpat eos, quod hostes Ecclesie, a Carolo rege fusos, per eorum fines transire permiserint. \u00ab ... Si veri filii fuissetis, accendisset vos amor paternus pariter et maternus, ut ad defensionem juris nostri... operam dedissetis. \u00bb Eis mandat ut omnes qui in eorum districtu reperientur, et alios qui supervenerint, detineant captivos [Jordan].\nClemens IV. an Podest\u00e0, Rat und Kommune von Rieti: tadelt sie, weil sie die Anh\u00e4nger Konradins (von Schwaben) nach dessen Niederlage unbeschadet durch ihr Gebiet ziehen gelassen h\u00e4tten; gebietet ihnen, alle weiteren gefangenzunehmen [Thumser]."
        },
        {
            "type": "sources_manuscrites",
            "value": "R<sup>1<\/sup>. CIT\u00c9 DU VATICAN, Archivio segreto Vaticano, <i>Registra Vaticana<\/i> 30, fol. 85.",
            "children": {
                "type_source": "Formulaire, collection de lettres m\u00e9di\u00e9vale"
            }
        },
        {
            "type": "sources_manuscrites",
            "value": "R<sup>2<\/sup>. CIT\u00c9 DU VATICAN, Archivio segreto Vaticano, <i>Registra Vaticana<\/i> 33, ep. 531, fol. 83v.",
            "children": {
                "type_source": "Formulaire, collection de lettres m\u00e9di\u00e9vale"
            }
        },
        {
            "type": "sources_manuscrites",
            "value": "R<sup>3<\/sup>. CIT\u00c9 DU VATICAN, Archivio segreto Vaticano, <i>Registra Vaticana<\/i> 34, fol. 131.",
            "children": {
                "type_source": "Formulaire, collection de lettres m\u00e9di\u00e9vale"
            }
        },
        {
            "type": "sources_manuscrites",
            "value": "R<sup>4<\/sup>. CIT\u00c9 DU VATICAN, Archivio segreto Vaticano, <i>Registra Vaticana<\/i> 35, ep. 535, fol. 95.",
            "children": {
                "type_source": "Formulaire, collection de lettres m\u00e9di\u00e9vale"
            }
        },
        {
            "type": "edition",
            "value": "Ici reprise de Mathias Thumser, <i>Die Briefe Papst Clemens\u2019 IV. (1265-1268)<\/i>, Vorl\u00e4ufige Edition, MGH, 2015, n. 538."
        },
        {
            "type": "regeste",
            "value": "Potthast, <i>Regesta pontificum Romanorum<\/i>, n. 20444 <a target=\"_blank\" href=\"https:\/\/archive.org\/stream\/RegestaPontificumRomanorum\/ph#page\/n1659\/mode\/2up\"> [en ligne]<\/a>."
        },
        {
            "type": "bibliographie_generale",
            "value": "Mathias Thumser, \u00ab Zur \u00dcberlieferungsgeschichte der Briefe Clemens'IV. (1265-1268) \u00bb, <i>Deutsches Archiv f\u00fcr Erforschung des Mittelalters<\/i>, 51\/1, 1995, p. 115-168."
        },
        {
            "type": "transcription",
            "value": "<?xml version=\"1.0\" encoding=\"UTF-8\"?>\nDilectis filiis potestati, consilio et communi Reatino. Egre ferimus, si veritas suffragatur relatibus, quod inimicos ecclesie capitales a filio nostro carissimo C[arolo] illustri rege Sicilie Domino favente confusos per fines vestros, ut dicitur, libere transire permittitis id vobis ad plene libertatis iudicium ascribentes, quod indevotionis vos arguit et reos probat fidei violate. Si enim Romane ecclesie dominium non abicitis nec negatis, sicut utique cum bona conscientia non potestis, unde vobis, quesumus, liberum esse potest tutum illis prebere transitum, quos in evidens exterminium matris vestre ac domine conglobatos cum Corradino et Henrico nobilibus genere, sed moribus degeneribus novistis publice processisse? Vere quidem dicere possumus, quod, si veri filii fuissetis, accendisset vos amor paternus pariter et maternus, ut ad defensionem iuris nostri, quod habemus in regno, nullo vos invitante opem et operam dedissetis, quod si vobis non placuerit facere, qua fronte fugientes hostes nostros recipere valeatis salva fide, quam nobis debetis, nulla possumus ratione videre. Quocirca universitati vestre districte precipiendo mandamus, quatenus omnes, qui in vestro reperientur districtu, et alios, qui supervenerint, detineatis captivos. Alioquin eos de vestris manibus requiremus, et, si dampnum propter hoc aliunde senseritis, nobis non poterit imputari. Datum Viterbii, VII kalendas septembris, anno IIII.\n"
        },
        {
            "type": "edition_autre",
            "value": "Edmond Mart\u00e8ne, Ursin Durand, <i>Thesaurus novus anecdotorum<\/i>, Paris, 1717, II, n. 692, col. 626 <a target=\"_blank\" href=\"https:\/\/archive.org\/stream\/ThesaurusNovusAnecdotorum2\/Thesaurus_novus_anecdotorum_2#page\/n347\/mode\/2up\"> [en ligne]<\/a>."
        },
        {
            "type": "regeste",
            "value": "\u00c9douard Jordan, <i>Les registres de Cl\u00e9ment IV (1265-1268)<\/i>, Paris, 1893-1945, n. 1407, d\u2019apr\u00e8s R<sup>1<\/sup>, R<sup>2<\/sup>, R<sup>3<\/sup> et R<sup>4<\/sup>."
        },
        {
            "type": "date",
            "value": "1268\/08\/26",
            "children": {
                "date_deb_annee": "1268",
                "date_deb_mois": "08",
                "date_deb_jour": "26"
            },
            "range": {
                "date_apres": 12680826,
                "date_avant": 12680826
            }
        }
    ]
}