{
    "id": 23906,
    "name": "aposcripta-1086",
    "type": "acte",
    "url": "http:\/\/telma-chartes.irht.cnrs.fr\/aposcripta\/notice\/23906",
    "project_slug": "aposcripta",
    "project_label": "APOSCRIPTA \u2013 Lettres des papes",
    "user": "l_valliere",
    "last_update": "2020-10-19 16:27:20",
    "licence": "Attribution - Pas d\u2019Utilisation Commerciale - Partage dans les M\u00eames Conditions 3.0 France (CC BY-NC-SA 3.0 FR) ",
    "licence_url": "https:\/\/creativecommons.org\/licenses\/by-nc-sa\/3.0\/fr\/",
    "elements": [
        {
            "type": "pape",
            "value": "Innocent IV (1243-1254)"
        },
        {
            "type": "destinataire",
            "value": "Le tr\u00e9sorier de Saint-Hilaire de Poitiers"
        },
        {
            "type": "date_libre",
            "value": "XII kalendas aprilis, anno decimo"
        },
        {
            "type": "date",
            "value": " 1253\/03\/21",
            "children": {
                "date_deb_jour": "21",
                "date_deb_mois": "03",
                "date_deb_annee": "1253"
            },
            "range": {
                "date_apres": 12530321,
                "date_avant": 12530321
            }
        },
        {
            "type": "date_lieu",
            "value": "P\u00e9rouse"
        },
        {
            "type": "analyse",
            "value": "Litterae quibus Innocentius papa IV thesaurario ecclesiae Sancti Hilarii Pictavensis mandat ut barones et milites crucesignati de terra comitis Tolosani et Pictavensis in proximo passagio cum eodem comite personaliter transfretare vel pecuniam, quam a suis hominibus receperint, eidem comiti expendendam in subsidium Terrae sanctae integre assignare cogantur."
        },
        {
            "type": "sources_manuscrites",
            "value": "F. FRANCE, Paris, Archives nationales, J 442\/4 (4). Copie authentique (ins\u00e9r\u00e9e dans un vidimus donn\u00e9 en juin 1253 par l'archev\u00eaque de Bourges).",
            "children": {
                "type_source": "Vidimus",
                "source_edition": ""
            }
        },
        {
            "type": "regeste",
            "value": "Joseph de Laborde, <i>Layettes du Tr\u00e9sor des chartes<\/i>, III, Paris : Henri Plon, 1875 <a target=\"_blank\" href=\"http:\/\/digi.ub.uni-heidelberg.de\/diglit\/teulet1875bd3\/0263\"> [en ligne]<\/a>, n. 4046, p. 177 <a target=\"_blank\"href=\"https:\/\/francearchives.fr\/fr\/facomponent\/564af48ac55e754db86b94f8d8aed541116d54af\">[num\u00e9ris\u00e9e sur le site des Archives de France]<\/a>, d'apr\u00e8s F."
        },
        {
            "type": "transcription",
            "value": "<?xml version=\"1.0\" encoding=\"UTF-8\"?>\nDatum Perusii, XII kalendas aprilis, pontificatus nostri anno decimo.\n"
        },
        {
            "type": "remarques",
            "value": "\u00e0 \u00e9diter - Inconnue de Potthast - Absente des registres"
        },
        {
            "type": "genre",
            "value": "Mandement (littere cum filo canapis)"
        }
    ]
}