{
    "id": 149296,
    "name": "aposcripta-8859",
    "type": "acte",
    "url": "http:\/\/telma-chartes.irht.cnrs.fr\/aposcripta\/notice\/149296",
    "project_slug": "aposcripta",
    "project_label": "APOSCRIPTA \u2013 Lettres des papes",
    "user": "lettrespontificalesadmin",
    "last_update": "2020-10-19 16:39:56",
    "licence": "Attribution - Pas d\u2019Utilisation Commerciale - Partage dans les M\u00eames Conditions 3.0 France (CC BY-NC-SA 3.0 FR) ",
    "licence_url": "https:\/\/creativecommons.org\/licenses\/by-nc-sa\/3.0\/fr\/",
    "elements": [
        {
            "type": "pape",
            "value": "Innocent IV (1243-1254)"
        },
        {
            "type": "destinataire",
            "value": "Petro Veronensi et Viviano Pergamensi fratribus ordinis Predicatorum"
        },
        {
            "type": "date_libre",
            "value": "VI idus iunii, anno VIII"
        },
        {
            "type": "date",
            "value": " 1251\/06\/08",
            "children": {
                "date_deb_annee": "1251",
                "date_deb_mois": "06",
                "date_deb_jour": "08"
            },
            "range": {
                "date_apres": 12510608,
                "date_avant": 12510608
            }
        },
        {
            "type": "date_lieu",
            "value": "Ianue"
        },
        {
            "type": "sources_manuscrites",
            "value": "R. CIT\u00c9 DU VATICAN, Archivio Segreto Vaticano, <hi rend=\"italic\">Registra Vaticana<\/hi> ... Inn.\u00a0IV Reg. Vol.\u00a0II, 93; Lib.\u00a0VIII, cur.\u00a076. Exemplar Raynaldi, Ann. eccl. a. 1251, \u00a7\u00a033-36, collatum cum illo, quod Berger edidit, contulimus cum Regestis.",
            "children": {
                "type_source": "Registre de la chancellerie apostolique"
            }
        },
        {
            "type": "genre",
            "value": "Mandement (littere cum filo canapis)"
        },
        {
            "type": "analyse",
            "value": "Innocentius IV papa Petro Veronensi et Viviano Pergamensi fratribus Praedicatorum mandat, ut cum per alias civitates Lombardiae alios deputaverit, ipsi Cremonam accedant et ad extirpandam ibi haereticam pravitatem laborent; si aliqua civitas vel nobiles huic negotio se opposuerint, ecclesiam reges et principes aliosque pro Terra Sancta vel alias cruce signatos contra eos invocaturam esse [Rodenberg]."
        },
        {
            "type": "transcription",
            "value": "<?xml version=\"1.0\" encoding=\"UTF-8\"?>\nPetro Veronensi et Viviano Pergamensi fratribus ordinis Predicatorum.Misericors et miserator Dominus, cogitans cogitationes pacis et non afflictionis, ecclesiam suam diutina vexatione concussam, rabie distractam tirampnica, duris afflictam tribulationibus et incursionibus fatigatam hostilibus, de excelso solio suo mira benignitate respexit, et misertus super ipsius contritione nimia, quam callidus ille seminator discordie inferebat, salutare sibi remedium ministravit, extinguens funeste dissentionis fomitem et pestiferi odii incentorem. A quondam siquidem Fr. Romanorum imperatore hoc totum ecclesie malum et tanti causa periculi pandebatur. Ipse namque, accensus odiorum ignis, fomes discordiarum estuans, pacis invidus, Christiane unitatis salutifere dissipator et totius malleus Italice regionis, turbato ubique tranquillo ecclesiam ipsam validis persecutionum fluctibus conquassabat, quinimmo totam regionem eandem et alia etiam mundi regna immisso dissentionum turbine commovebat; propter quod ille, cuius imperio celestia obediunt et terrena, tot et tanta volens sua clementi virtute submovere pericula, dixit, et huius procelle spiritus statim stetit; mandavit, et quievit ventus maxime tempestatis, et facta est in ecclesia ipsa tranquillitas communi desiderio diutius expectata, quoniam tribulantem procellam in auram convertit prosperam et pacem, quam eidem ecclesie mundus dare non poterat, ipse dedit, tollens illum omnino de medio, qui discors concordiis, concors vero discordiis universalis ollam odii ignivomis nequitie sue flatibus succendebat. Unde cum ipsi ecclesie de tante propitiationis beneficio dignanter providerit et inde grandem cum ea sit misericordiam operatus, debitum est et dignum per omnia, ut pro hac inextimabili gratia, sic pie desuper erogata, gratiarum ei actiones cum devotione reddamus et offeramus sacrificium plene laudis, ne tam magnificum eius donum in vacuum recepisse sibique ingrati de illo existere videamur, maxime quia generalis persecutionis actore precipuo iam sublato et quiete nunc ecclesie restituta, restat nimirum, ut in divinas laudes cuncta nostra studia conferamus. Et quoniam verbis et operibus honorificandus est Dominus, recognoscenda est immensa benignitas in utrisque, ut in utroque modo, dicto scilicet atque facto, sui nominis laudem et gloriam personemus.Quia vero tunc potissime acceptabile sibi exhibetur obsequium, cum ei pro catholice conservatione fidei, cuius est ipse stabile ac perpetuum fundamentum, pura intentione servitur, providimus specialiter in hoc ipsi studiosum et placidum, eo cooperante, impendere famulatum et precipue in ipsis Italicis partibus propter ipsarum vicinitatem vigilare instantius et validius satagere contra eiusdem fidei diros hostes, ut cultura salubris, per nos agris Dominicis impensa vicinis, utilis sit longinquis, et verbi divini semen, fusum in proximis, fructificet etiam in remotis, licet apostolica sedes tales hostes ubique indefessa sollicitudine persequatur, nec unquam ab huiusmodi exercitio cessaverit cura eius. Convenit namque, ut quia inquisitiones contra pestem hereticam roborare ac renovare per diversas seculi volumus regiones, id agere in Italia maiori oportunitate nunc habita nullatenus omittamus, cum quanto propior nostris adest aspectibus, tanto iustius, nisi attente saluti prospiceremus ipsius, possemus argui de neglectis. Olim enim, dum vivebat perfidus ille tirampnus, non potuit libere contra huiusmodi pestem precipue in ipsa Italia eo impediente procedi, cum non impugnaret set foveret potius pestem ipsam, de qua cum evidenter haberetur suspectus, exigentibus nichilominus aliis multis et enormibus suis excessibus fuit a nobis in Lugdunensi concilio condempnatus. Ideoque discretioni vestre per apostolica scripta districte precipiendo mandamus, in remissionem vobis peccaminum iniungentes, quatinus huiusmodi fidei negotium, quod principaliter residet cordi nostro, totis assumentes affectibus et ferventibus animis prosequentes, Cremonam personaliter accedatis, cum et per alias civitates et alia loca Lombardie discretos alios ad exequendum idem negotium duxerimus deputandos, et ad extirpandam de civitate ipsa et eius districtu hereticam pravitatem sollicite ac efficaciter prehabito diocesani consilio laborantes, si quos ibidem pravitate ipsa culpabiles inveneritis vel infectos seu etiam infamatos, nisi examinati velint absolute mandatis ecclesie obedire, contra ipsos et receptatores, defensores ac fautores eorum humano timore postposito iuxta sanctiones canonicas auctoritate apostolica procedatis, invocato ad hoc contra eos, si opus fuerit, auxilio brachii secularis; contradictores etc. Si vero aliqui heretica labe penitus abiurata redire voluerint ad ecclesiasticam unitatem, eis iuxta formam ecclesie diocesano ipso consulto absolutionis beneficium impendentes, iniungatis eisdem, quod iniungi talibus consuevit, proviso sollerter ne simulata conversione redeant fraudulenter et vos, immo potius se, fallentes sub agni specie gerant lupum. Verum quia tam salubre negotium super omnia promoveri cupimus, propter quod impedimenta quelibet ab ipso intendimus penitus cum Dei adiutorio removere, scire vos volumus et aliis aperte predicere, quod si forte, quod non credimus, aliqua civitas seu communitas sive aliqui magnates vel nobiles aut potentes huic negotio se opponere seu illud presumpserint aliquatenus impedire, ut non possit per deputatos ad hoc a nobis procedi libere in eodem, immo nisi foverint illud et iuverint studiose, nos proculdubio ad comprimendam tam superbam et perniciosam audatiam et omnimodo confundendam in illos gladium ecclesiastice potestatis acriter extendemus et reges et principes aliosque Christi fideles, sive pro Terre Sancte succursu sive alias pro Christi servitio crucis caractere insignitos, necnon et ceteros catholicos invocabimus contra eos, ut et celum et terra adversus detestabilem temeritatem ipsorum pariter moveantur, cum non minus expediat, immo magis, fidem in locis prope positis quam procul distantibus defensare. Quia enim futura volumus, in quantum possumus, precipue in Lombardia, quam speciali affectione diligimus, vitare discrimina, idcirco scribimus, quod ista palam exponere ac prenuntiare curetis, Cremonensem populum et alios de ipsorum districtu diligentius ammonentes, ut debitum habentes respectum ad negotium memoratum, nullum prorsus promotioni eius inferant nocumentum, sed potius vobis in exequendo illo favorem tribuant et auxilium oportunum, quia si forsan contrarium agere attemptaverint, nullatenus dimittemus, quin per reges ipsos et principes aliosque fideles dictum promoveamus negotium, sicut superius est expressum. Ut autem predicta possitis liberius et utilius exercere, vobis largiendi viginti vel quadraginta dierum indulgentiam, quotiens oportunum videritis, omnibus vere penitentibus et confessis, qui ad vestram predicationem propter hoc faciendam accesserint, plenam tenore presentium concedimus potestatem.Dat. Ianue, VI Idus Iunii, anno VIII\u00b0.\n"
        },
        {
            "type": "edition",
            "value": "Ici reprise de Karl Rodenberg, Epistolae s. XIII e regestis pontificum romanorum selectae, III, Berlin : Weidmann (MGH), 1894, n.\u00a0110, p.\u00a087."
        },
        {
            "type": "edition_autre",
            "value": "?"
        },
        {
            "type": "regeste",
            "value": "?"
        },
        {
            "type": "bibliographie_generale",
            "value": "?"
        },
        {
            "type": "apparat_critique",
            "value": "?",
            "children": {
                "numero_note": "a"
            }
        },
        {
            "type": "apparat_critique",
            "value": "?",
            "children": {
                "numero_note": "b"
            }
        },
        {
            "type": "apparat_critique",
            "value": "?",
            "children": {
                "numero_note": "c"
            }
        },
        {
            "type": "apparat_critique",
            "value": "?",
            "children": {
                "numero_note": "d"
            }
        },
        {
            "type": "apparat_critique",
            "value": "?",
            "children": {
                "numero_note": "e"
            }
        },
        {
            "type": "apparat_critique",
            "value": "?",
            "children": {
                "numero_note": "f"
            }
        },
        {
            "type": "notes_historiques",
            "value": "?",
            "children": {
                "numero_note": "1"
            }
        },
        {
            "type": "notes_historiques",
            "value": "?",
            "children": {
                "numero_note": "2"
            }
        },
        {
            "type": "notes_historiques",
            "value": "?",
            "children": {
                "numero_note": "3"
            }
        }
    ]
}