{
    "id": 147136,
    "name": "aposcripta-6763",
    "type": "acte",
    "url": "http:\/\/telma-chartes.irht.cnrs.fr\/aposcripta\/notice\/147136",
    "project_slug": "aposcripta",
    "project_label": "APOSCRIPTA \u2013 Lettres des papes",
    "user": "j_theryastruc",
    "last_update": "2020-10-19 16:39:27",
    "licence": "Attribution - Pas d\u2019Utilisation Commerciale - Partage dans les M\u00eames Conditions 3.0 France (CC BY-NC-SA 3.0 FR) ",
    "licence_url": "https:\/\/creativecommons.org\/licenses\/by-nc-sa\/3.0\/fr\/",
    "elements": [
        {
            "type": "pape",
            "value": "Cl\u00e9ment VIII (1592-1605)"
        },
        {
            "type": "destinataire",
            "value": "L'archiduc d'Autriche Ferdinand"
        },
        {
            "type": "date_libre",
            "value": "kalendas julii MDCII, anno XI"
        },
        {
            "type": "date",
            "value": "1602\/07\/01",
            "children": {
                "date_deb_jour": "01",
                "date_deb_mois": "07",
                "date_deb_annee": "1602"
            },
            "range": {
                "date_apres": 16020701,
                "date_avant": 16020701
            }
        },
        {
            "type": "date_lieu",
            "value": "Rome"
        },
        {
            "type": "analyse",
            "value": "Remittit ei ad se missum nuntium Lodovicum episcopum Bosnensem simulque se parata pecunia auxiliaturum esse Rudolfo contra Turcas declarat."
        },
        {
            "type": "transcription",
            "value": "<?xml version=\"1.0\" encoding=\"UTF-8\"?>\nDilecto filio nobili viro Ferdinando, archiduci Austriae.  Dilecte fili nobilis vir salutem et apostolicam benedictionem. Redit nostra cum benedictione ad nobilitatem tuam venerabilis frater Ludovicus, episcopus Bosnensis, quem superioribus diebus ad nos miseras, vir certe, ut nobis est visus, multa pietate, acri judicio et praestantibus ornamentis praeditus, et tuo gravi testimonio et commendatione plane dignus, qui in iis negotiis tractandis quae illi credideras et fidem et prudentiam et diligentiam adhibuit. Is nobilitati tuae referre poterit, quam libenter eum viderimus, quam benigne audierimus suo quidem merito, sed tua inprimis causa, sed de nostra etiam in te propensissima voluntate, idem poterit testari, et quam amanter de te et sentiamus et loquamur et quantopere omnia tua nobis cordi sint, quamquam hoc de genere neminem locupletiorem testem appellare licet quam te ipsum et quid nobilitatis tuae causa voluerimus, quidue praestiterimus ut tu optime omnium scias, et sanguis populorum nostrorum ad Canisiam effusus, et dilectissimi nepotis nostri mors non solum testificetur sed clamet, et nostra quidem erga te et res tuas propensio eadem est, quae semper fuit, sed nostrae et hujus sanctae Sedis temporales vires, tot superioris temporis impensis alendisque exercitibus attenuatae sunt, ut supra modum sint exhaustae, et tamen cum summa contentione urgeremur a charissimo in Christo filio nostro Rodulpho Romanorum Imperatore electo, patruele tuo, ejus causa quae cum tua etiam nobilitate communis est supra id, quod possemus convisi [sic], pecuniarium ei subsidium adhuc etiam decrevimus, hoc enim auxilii genus maxime quam copiarum ipsemet appetierat, et nihilominus quantum in nobis fuit etiam nobilitati tuae rationem habuimus curavimusque, ut ab ejus caesarea majestate, quoad fieri potest, habeatur. Nam vestrae inclytae Austriacae familiae causa, ut diximus, communis est, cui non pro viribus tantum sed supra vires consulere conati sumus, ut idem Ludovicus episcopus non obscure perspexit. Datum XV februarii MDCIII, anno XII.\n"
        },
        {
            "type": "edition",
            "value": "Ici reprise de Beda Dud\u00edk, \u00ab Ausz\u00fcge aus p\u00e4pstlichen Regesten f\u00fcr \u00d6sterreichs Geschichte Gesammelt. Gesammelt in Rom im Jahre 1853 \u00bb, <i>Archiv f\u00fcr Kunde \u00f6sterreichischer Geschichts-Quellen<\/i>, 5, 1856, p. 185-238, n. 39, \u00e0 la p. 236 <a target=\"_blank\" href=\"https:\/\/archive.org\/stream\/bub_gb_f9EBAAAAYAAJ#page\/n241\/mode\/2up\"> [en ligne]<\/a>, d'apr\u00e8s R."
        },
        {
            "type": "sources_manuscrites",
            "value": "R. CIT\u00c9 DU VATICAN, Archivio segreto Vaticano, <i>Liber Brev. Sig.<\/i> 2935, ep. 204.",
            "children": {
                "type_source": "Registre de la chancellerie apostolique"
            }
        },
        {
            "type": "genre",
            "value": "Bref secret ou de Curie"
        }
    ]
}