{
    "id": 145403,
    "name": "aposcripta-5918",
    "type": "acte",
    "url": "http:\/\/telma-chartes.irht.cnrs.fr\/aposcripta\/notice\/145403",
    "project_slug": "aposcripta",
    "project_label": "APOSCRIPTA \u2013 Lettres des papes",
    "user": "l_valliere",
    "last_update": "2020-10-19 16:39:08",
    "licence": "Attribution - Pas d\u2019Utilisation Commerciale - Partage dans les M\u00eames Conditions 3.0 France (CC BY-NC-SA 3.0 FR) ",
    "licence_url": "https:\/\/creativecommons.org\/licenses\/by-nc-sa\/3.0\/fr\/",
    "elements": [
        {
            "type": "pape",
            "value": "Jean XXII (1316-1334)"
        },
        {
            "type": "destinataire",
            "value": "Le chanoine de Freising Corrado da Aspach"
        },
        {
            "type": "date_libre",
            "value": "VI idus novembris, anno undecimo"
        },
        {
            "type": "date",
            "value": "1326\/11\/08",
            "children": {
                "date_deb_annee": "1326",
                "date_deb_mois": "11",
                "date_deb_jour": "08"
            },
            "range": {
                "date_apres": 13261108,
                "date_avant": 13261108
            }
        },
        {
            "type": "date_lieu",
            "value": "Avignon"
        },
        {
            "type": "genre",
            "value": "Titre, provisions de b\u00e9n\u00e9fice (littere gratiose, cum filo serico)"
        },
        {
            "type": "analyse",
            "value": "Giovanni XXII a Corrado da Aspach : gli conferisce un canonicato nella chiesa di Frisinga, con riserva di prebenda, nonostante sia canonico in attesa di prebenda nella chiesa Ardatensis (diocesi di Passau), sia parroco di Nausham (diocesi di Frisinga) e sia stato oggi provvisto del canonicato della chiesa di Eichst\u00e4tt ; il vescovo di Trento \u00e8 tra gli incaricati di far eseguire il mandato. "
        },
        {
            "type": "sources_manuscrites",
            "value": "R<sup>1<\/sup>. CIT\u00c9 DU VATICAN, Archivio segreto Vaticano, <i>Registra Avenionensia<\/i> 26, CCCIII, fol. 255 (cancell\u00e9e ; taxe : XI, XIII).",
            "children": {
                "type_source": "Registre de la chancellerie apostolique"
            }
        },
        {
            "type": "sources_manuscrites",
            "value": "R<sup>2<\/sup>. CIT\u00c9 DU VATICAN, Archivio segreto Vaticano, <i>Registra Vaticana<\/i> 82, fol. 127.",
            "children": {
                "type_source": "Registre de la chancellerie apostolique"
            }
        },
        {
            "type": "edition",
            "value": "Ici reprise d\u2019Emanuele Curzel, <i>Documenti papali per la storia trentina (fino al 1341)<\/i>, Bologne, 2004 (Annali dell\u2019Istituto storico italo-germanico. Fonti ; 1), n. 215, p. 327, d\u2019apr\u00e8s R<sup>1<\/sup> et R<sup>2<\/sup>."
        },
        {
            "type": "regeste",
            "value": "Sigmund Riezler, <i>Vatikanische Akten zur Deutschen Geschichte in der Zeit Kaiser Ludwigs des Bayern<\/i>, Innsbruck, 1891, n. 761 <a target=\"_blank\" href=\" https:\/\/archive.org\/details\/vatikanischeakt00vatigoog\/page\/n343\"> [en ligne]<\/a>."
        },
        {
            "type": "transcription",
            "value": "<?xml version=\"1.0\" encoding=\"UTF-8\"?>\nDilecto filio Conrado de Aspach, canonicoa Frisingensi, salutem. Suffragantia tibi merita probitatis super quibus apud nos laudabile tibi testimonium [...]. Canonicatum ecclesie Frisingensis cum plenitudine iuris canonici apostolica tibi auctoritate conferimus et de illo etiam providemus, prebendam vero si qua in dicta ecclesia vacat [...] aut quod canonicatum in ecclesia Ardatensis, Pataviensis diocesis, sub expectatione prebende nosceris obtinere etb parrochialem ecclesiam in Nausham, Frisingensis diocesis, assecutus fuisti, de qua ut asseris nullum commodum reportasti, pro eo quia ecclesia ipsa, ut asseris, fuit per alium occupata, cuius occupationis occasione non fecisti te, prout tenebaris si eam pacifice possedisses, ad sacros ordines promoveri, seu quod hodie de canonicatu ecclesie Eystetensis per alias nostras litteras tibi duximus providendum, ac prebendam si qua in eadem ecclesia tunc vacabat [...] volumus autem quod postquam vigore presentis gratie prebendam dictec ecclesie Frisingensis fueris pacifice assecutus, predictos canonicatum ecclesie Ardatensis ac parrochialem ecclesiam in Nausham quos, ex tunc vacare decernimus, prout ad hoc te liberaliter obtulisti, omnino dimittas [...]. Datum Avinione, VI idus novembris, anno undecimo.  In eodem modo venerabili fratri .. episcopo Tridentino et dilectis filiis Philippo archidiacono Wyntoniensis ac .. plebano Augustensis, ecclesiarum, salutem. Suffragantia dilecto filio Conrado et cetera usque omnino dimittat. Quocirca mandamus quatinus vos [...]. Datum ut supra.\n"
        },
        {
            "type": "apparat_critique",
            "value": "canonico <i>dans l'interligne R<sup>1<\/sup><\/i>.",
            "children": {
                "numero_note": "a"
            }
        },
        {
            "type": "apparat_critique",
            "value": "et <i>dans l'interligne R<sup>1<\/sup><\/i>.",
            "children": {
                "numero_note": "b"
            }
        },
        {
            "type": "apparat_critique",
            "value": "gratie <i>suit, supprim\u00e9, R<sup>1<\/sup><\/i>.",
            "children": {
                "numero_note": "c"
            }
        },
        {
            "type": "regeste",
            "value": "Guillaume Mollat, <i>Jean XXII (1316-1334). Lettres communes<\/i> (Biblioth\u00e8que des \u00c9coles Fran\u00e7aises d\u2019Ath\u00e8nes et de Rome), Paris, 1904-1947, n. 26980."
        }
    ]
}