{
    "id": 144371,
    "name": "aposcripta-5628",
    "type": "acte",
    "url": "http:\/\/telma-chartes.irht.cnrs.fr\/aposcripta\/notice\/144371",
    "project_slug": "aposcripta",
    "project_label": "APOSCRIPTA \u2013 Lettres des papes",
    "user": "l_valliere",
    "last_update": "2020-10-19 16:38:59",
    "licence": "Attribution - Pas d\u2019Utilisation Commerciale - Partage dans les M\u00eames Conditions 3.0 France (CC BY-NC-SA 3.0 FR) ",
    "licence_url": "https:\/\/creativecommons.org\/licenses\/by-nc-sa\/3.0\/fr\/",
    "elements": [
        {
            "type": "pape",
            "value": "Alexandre III (1159-1181)"
        },
        {
            "type": "destinataire",
            "value": "Le primicier Hugues et ses fr\u00e8res de l'\u00e9glise Saint-Etienne de Metz"
        },
        {
            "type": "date_libre",
            "value": "VIII kalendas iunii, indictione XII, MCLXXVIIII, anno XX"
        },
        {
            "type": "date",
            "value": "1179\/05\/25",
            "children": {
                "date_deb_annee": "1179",
                "date_deb_mois": "05",
                "date_deb_jour": "25"
            },
            "range": {
                "date_apres": 11790525,
                "date_avant": 11790525
            }
        },
        {
            "type": "date_lieu",
            "value": "Latran"
        },
        {
            "type": "analyse",
            "value": "<i>Alexander III. nimmt nach dem Vorgange Honorius' II das Domkapitel des hl. Stephan zu Metz in Schutz und best\u00e4tigt seine Besitzungen, Freiheiten und Rechte<\/i> (Alexandre III prend sous sa protection le chapitre cath\u00e9dral Saint-Etienne de Metz et confirme tous ses biens, droits et libert\u00e9s)."
        },
        {
            "type": "sources_manuscrites",
            "value": "E. FRANCE, Metz, Archives d\u00e9partementales de la Moselle, G 439, n. 10.",
            "children": {
                "type_source": "Original"
            }
        },
        {
            "type": "edition",
            "value": "Ici (partielle) d'apr\u00e8s l'acte n. 167 dans \u00ab Chartes originales conserv\u00e9es en France (1121-1220) \u00bb, Christelle Balouzat-Loubet, Jean-Baptiste Renault, \u00e9ds., Nancy : Centre de M\u00e9di\u00e9vistique Jean Schneider ; \u00e9ds \u00e9lectronique Orl\u00e9ans : Institut de Recherche et d'Histoire des Textes, 2013 (Telma) <a target=\"_blank\" href=\" http:\/\/www.cn-telma.fr\/originaux2\/charte267722\/\"> [en ligne]<\/a>. "
        },
        {
            "type": "edition_autre",
            "value": "Compl\u00e8te : Georg Wolfram, \"Ungedruckte Papsturkunden der Metzen Archive\", dans <i>Jahrbuch der Gesellschaft f\u00fcr Lothringische und Altertumskunde<\/i>, tome 15 (1903), p. 278-323, n. 14, p. 302-305 <a target=\"_blank\" href=\" https:\/\/archive.org\/details\/jahrbuchdergesel15gese\/page\/302\"> [en ligne]<\/a>."
        },
        {
            "type": "regeste",
            "value": "Jaff\u00e9-Loewenfeld, <i>Regesta pontificum Romanorum<\/i>, 2 vol., Leipzig, 1885-1888, II, n. 13425 <a target=\"_blank\" href=\" https:\/\/archive.org\/details\/regestapontificu02cath\/page\/346\"> [en ligne]<\/a>."
        },
        {
            "type": "regeste",
            "value": "Michel Parisse, <i>Bullaire de la Lorraine : jusqu'\u00e0 1198<\/i>.- Nancy : Soci\u00e9t\u00e9 d'Histoire et d'Arch\u00e9ologie de la Lorraine, 1969, (Annuaire de la Soci\u00e9t\u00e9 d'Histoire et d'Arch\u00e9ologie de la Lorraine, t-\u00e0-p n\u00b0 69), n. 294, p. 65."
        },
        {
            "type": "transcription",
            "value": "<?xml version=\"1.0\" encoding=\"UTF-8\"?>\n[\u00e0 compl\u00e9ter] Alexander episcopus servus servorum dei. Dilectis filiis Hugoni primicerio ecclesie Sancti Stephan! Metensis eiusque fratribus tam presentibus quam futuris canonice substituendis in perpetuum. Ideo licet immeriti etc.... Ego Alexander etc.... Dat. Laterani per manum Alberti sancte Romane Ecclesie presbiteri cardinalis et cancellarii, VIII kalendas iunii, indictione XII, Incarnationis dominice anno MCLXXVIIII, pontificatus vero domni Alexandri pape III, anno ejus XX.\n"
        },
        {
            "type": "remarques",
            "value": "\u00e0 \u00e9diter"
        }
    ]
}