{
    "id": 25392,
    "name": "aposcripta-2489",
    "type": "acte",
    "url": "http:\/\/telma-chartes.irht.cnrs.fr\/aposcripta\/notice\/25392",
    "project_slug": "aposcripta",
    "project_label": "APOSCRIPTA \u2013 Lettres des papes",
    "user": "lettrespontificalesadmin",
    "last_update": "2020-10-19 16:27:44",
    "licence": "Attribution - Pas d\u2019Utilisation Commerciale - Partage dans les M\u00eames Conditions 3.0 France (CC BY-NC-SA 3.0 FR) ",
    "licence_url": "https:\/\/creativecommons.org\/licenses\/by-nc-sa\/3.0\/fr\/",
    "elements": [
        {
            "type": "pape",
            "value": "Urbain III (1185-1187)"
        },
        {
            "type": "destinataire",
            "value": "( )",
            "children": {
                "numero_note": "0"
            }
        },
        {
            "type": "date_lieu",
            "value": "n.c."
        },
        {
            "type": "date_libre",
            "value": "1186-1187, 30 juillet"
        },
        {
            "type": "date",
            "value": "apr\u00e8s 1186\/07\/30 - avant 1187\/07\/30",
            "children": {
                "date_deb_annee": "1186",
                "date_deb_mois": "07",
                "date_deb_jour": "30",
                "date_deb_type": "apr\u00e8s",
                "date_fin_annee": "1187",
                "date_fin_mois": "07",
                "date_fin_jour": "30",
                "date_fin_type": "avant"
            },
            "range": {
                "date_apres": 11860730,
                "date_avant": 11870730
            }
        },
        {
            "type": "analyse",
            "value": "X pape<br\/>EPISTOLA URBANI PAP\u00c6 III, COMPOSTELLANO ARCHIEPISCOPO, [ALFONSO] EPISCOPO, ET B. ARCHIDIACONO AURIENSI, QUIBUS COMMITTIT COGNITIONEM ET CORRECTIONEM VIOLATIONIS JURIUM MONASTERII DE VILLA FRANCA A PRIORE MONTIS ZEBERRII FACT\u00c6."
        },
        {
            "type": "transcription",
            "value": "<?xml version=\"1.0\" encoding=\"UTF-8\"?>\nUrbanus, episcopus, servus servorum Dei, venerabilibus fratribus... Compostellano archiepiscopo, ..... episcopo, et dilecto filio B., archidiacono Auriensi, salutem et apostolicam benedictionem. Dilecti filii nostri..., prior et monachi de Villa Franca suam ad nos querimoniam transmiserunt, quod, cum inter ipsos et priorem de Monte Zeberrio, de quadam ecclesia quam idem prior justa terminos parrochie monachorum ipsorum, contra privilegia monasterii Cluniacensis, ad quod eadem ecclesia spectat, indulta, construxisse dicuntur, super ecclesia quoque de Perex, et aliis pluribus capitulis controversia verteretur, venerabilis frater noster..... Astoricensis episcopus, in verbo veritatis et in osculo pacis prefato priori de Villa Franca promisit, quod ipsam ecclesiam minime dedicaret, donec questio mota finem debitum ordine judiciario sortiretur. Verum idem episcopus, sue postmodum promissionis oblitus, eandem ecclesiam, non sine derogatione sue dignitatis et nominis, tam dicto priore de Villa Franca invito et ad sedem apostolicam appellante, nocturno tempore dedicavit et corpus cujusdam defuncti in ejus cimiterio sepelivit, ut ex hoc jus parrochiale sibi certius posset in posterum vindicare. Licet autem de hujus enormitate facti plurium personarum litteras receperimus, quibus fides est in majoribus adhibenda, quia tamen plene nobis de veritate non constat, cognitionem et correctionem hujus rei vestre discretioni committimus, per apostolica scripta mandantes, quatinus inquisita presentibus partibus veritate, si rem ita se habere constiterit, campanas que in ipsa ecclesia dicuntur de novo suspense, faciatis auctoritate nostra in terram deponi, et effodi corpus illius, qui apud ipsam ecclesiam fuit traditus sepulture, et in eadem ecclesia, usque ad decisionem cause, omnia divina prohibeatis officia celebrari, et eundem episcopum de transgressione sue promissionis et fidei, et pro eo quod appellationi non detulit, corrigatis, sicut eum de institutione canonica videritis corrigendum; Aimardus quoque, et alii, qui post excommunicationis sententiam a diocesano episcopo interpositam divina scienter celebrasse in eadem ecclesia prohibentur, ecclesiastica sentencia percellatis. Si qui autem vobis restiterint, quo minus mandatum nostrum libere adimplere possitis, in eos auctoritate nostra ecclesiasticam sententiam proferatis, quam faciatis usque ad dignam satisfactionem inviolabiliter observari, et hec omnia, contradictione et appellatione cessante, effectui mancipare curetis. Ceterum, si omnibus his exequendis nequiveritis interesse, duo vestrum ea nichilominus exequantur, litteris nequaquam obstantibus, istarum non habita mentione, a sede apostolica impetratis. Datum Veronne, III kalendas augusti.\n"
        },
        {
            "type": "edition",
            "value": "Ici tir\u00e9e du projet <i>CBMA - Corpus Burgundiae Medii Aevi<\/i>, document 5750. Site du projet Corpus de la Bourgogne du Moyen \u00c2ge, [En ligne] <a href=\"http:\/\/www.cbma-project.eu\" target=\"_blank\">http:\/\/www.cbma-project.eu<\/a>  "
        },
        {
            "type": "sources_manuscrites",
            "value": "\u00e0 renseigner."
        },
        {
            "type": "remarques",
            "value": "\r\n\r\n (Bibl. nat. cop.\u00a0283-161.)"
        },
        {
            "type": "edition_autre",
            "value": "Ici reprise de Auguste Bernard, Alexandre Bruel, <i>Recueil des chartes de l'abbaye de Cluny<\/i>. V. <i>1091-1210<\/i>, Paris\u00a0: Imprimerie nationale, 1894 <a href=\"http:\/\/gallica.bnf.fr\/ark:\/12148\/bpt6k28911f?rk=64378;0\" target=\"_blank\">[en ligne]<\/a>, p. 669-671, n\u00b0 4311",
            "children": {
                "numero_note": "0"
            }
        },
        {
            "type": "genre",
            "value": "Bulle"
        },
        {
            "type": "genre",
            "value": "Lettre"
        }
    ]
}