{
    "id": 23901,
    "name": "aposcripta-1084",
    "type": "acte",
    "url": "http:\/\/telma-chartes.irht.cnrs.fr\/aposcripta\/notice\/23901",
    "project_slug": "aposcripta",
    "project_label": "APOSCRIPTA \u2013 Lettres des papes",
    "user": "j_theryastruc",
    "last_update": "2020-10-19 16:27:20",
    "licence": "Attribution - Pas d\u2019Utilisation Commerciale - Partage dans les M\u00eames Conditions 3.0 France (CC BY-NC-SA 3.0 FR) ",
    "licence_url": "https:\/\/creativecommons.org\/licenses\/by-nc-sa\/3.0\/fr\/",
    "elements": [
        {
            "type": "pape",
            "value": "Gr\u00e9goire IX (1227-1241)"
        },
        {
            "type": "destinataire",
            "value": "Le prieur et le sous-prieur de Friesach"
        },
        {
            "type": "date",
            "value": " 1231\/11\/27",
            "children": {
                "date_deb_jour": "27",
                "date_deb_mois": "11",
                "date_deb_annee": "1231"
            },
            "range": {
                "date_apres": 12311127,
                "date_avant": 12311127
            }
        },
        {
            "type": "date_lieu",
            "value": "Rieti"
        },
        {
            "type": "analyse",
            "value": "Gregor X beauftragt den prior und den subprior der Dominikaner von Friesach seine j\u00fcngst gegen die ketzer erlassenen statuten, die er ihnen \u00fcbersendet, in angegebener weise zur ausf\u00fchrung zu bringen."
        },
        {
            "type": "edition",
            "value": "Eduard Winkelmann, <i>Acta Imperii inedita<\/i>, Innsbruck : Verlag der wagnerischen Universit\u00e4ts-Buchhandlung, I, 1880, n. 624, p. 499-501 <a target=\"_blank\" href= \" https:\/\/archive.org\/stream\/actaimperiiined00unkngoog#page\/n513\/\"> [en ligne]<\/a>, d'apr\u00e8s F et G."
        },
        {
            "type": "sources_manuscrites",
            "value": "F. Copie du XV<sup>e<\/sup> si\u00e8cle dans un volume du couvent des dominicains de Friesach, \u00ab jetzt zu Klagenfurt, durch h. S. Laschitzer \u00bb.",
            "children": {
                "type_source": "Autre copie m\u00e9di\u00e9vale"
            }
        },
        {
            "type": "sources_manuscrites",
            "value": "G. Copie du XV<sup>e<\/sup> si\u00e8cle dans un autre volume du couvent des dominicains de Friesach,  \u00ab jetzt zu Klagenfurt, durch h. S. Laschitzer \u00bb.",
            "children": {
                "type_source": "Autre copie m\u00e9di\u00e9vale"
            }
        },
        {
            "type": "transcription",
            "value": "<?xml version=\"1.0\" encoding=\"UTF-8\"?>\nGregorius episcopus, servus servorum dei, dilectis filiis priori et subpriori ordinis Predicatorum Frisacensium, salutem et apostolicam benedictionem.Ille humani generis pervicax inimicus omnium malorum incentor, quem de suppremis ad ima superbia sua prostravit, non contentus quod sue fraudis nequicia hominem produxit ad casum erumpnis et miseriis applicandum, callide eum nititur pestiferis retibus irretire, astute sibi paratisa insidias, ne resurgat, locum a quo ipse ceciderat obtenturus. Novissime autem diebus istis fidem nisus perfidia depravare, per ministros suos iniquitatis operarios venena sparsit mortifera sediciose, considerans quod familiaris hostis sit efficax ad nocendum, qui quasi dulcia premittentes cauda pungunt ut scorpionib aureo tandem calice Babilonisc virus pestilencie infusuri. Licet enim heretici hactenus diucius latitantes sicut cancer serperent in occulto et velut vulpes latenter niterentur vineam domini Sabaoth demoliri, iam tamen peccatis exigentibus in aperto quasi equiparati ad prelium presumunt manifeste insurgere contra eam in quibusdam locis publice pred[ic]ando, querentes in cibum simplices et in predam edoctos ac illaqueare nichilominus fideles quoslibet suis circumvencionibus cupientes, facti magistri erroris, quia nunquam fuerant discipuli veritatis. Unde expedit quod insurgatur viriliter contra eos, ut eorum omnino heresi confutata per totum vigeat f\u00ecdes Christi ; nam corona sequetur premiid temptacionibus resistentes.Cum igitur hactenus resplenduerit in Alamania fida fides ac per hoc formidemus ibi pocius animalia venenosa, ne forte simplices ipsorum callidis seductionibus circumventi et astuti pravis circumventionibus periculose decepti ad profundum malorum deveniant sicque ibidem violetur f\u00ecdei sacramentum, nos, quee circa horam undecimam inter operarios, immo verius supra operarios vinee Domini sumus a patre familias evangelico deputati, moniti voce sponsi capere vulpes parvulas que demoliri vineam Domini moliuntur, et tacti dolore cordis intrinsecus non valentes sustinere tantam contumeliam creatoris ac volentes tot animarum periculis obviare, discrecionem vestram rogamus, monemus et hortamur attente per apostolica vobis scripta sub divini obtestatione iudicii districte precipiendo mandantes quatinus, prelatis, clero et populo convocatis, generalem faciatis predicationem ubi commodius videritis expedire et, adiunctis vobis discretis aliquibus ad hec sollicicius exequenda, diligenti perquiratis sollicitudine de hereticis et eciam infamatis et si quos culpabiles vel infamatos inveneritis, nisi examinati velint absolute mandatis Ecclesie obedire, procedatis contra eos iuxta statuta nostra contra hereticos noviter promulgata, in receptatores, defensores et fautores hereticorum secundum eadem statuta nichilominus processuri. Si vero aliqua heretica labe penitus abiurata ad ecclesiasticam redire voluerint unitatem, ipsis iuxta formam Ecclesie absolucionis beneficium impendatis et iniungatis eisdem quod talibus consuevit iniungi, attencius provisuri ne qui videntur reverti sub palliata specie pietatis impietatem committant et angelus Sathane in lucis angelum se transformet ; propter quod statuta que super huiusmodi duximusf promulganda per fratrem Hugonem, predicatorem verbi Dei in Theutoniam, destinata inspicere poteritis et ab eorum insidiis secundum discrecionem vobis datam a Domino precavere. Ad hec, ut super premissis omnibus officium vobis commissum liberius et efficacius exercere possitis, omnibus qui ad predicacionem vestram accesserint in singulis stacionibus, viginti dies, illis vero qui ad impungnandumg hereticos, fautores, receptatores et defensores eorum in municionibus et castellis vel alias contra Ecclesiam rebellantes vobis ex animo auxilium, consilium prestiterint vel favorem, de omnipotentis Dei misericordia et beatorum Petri et Pauli apostolorum eius auctoritate confisi tres annos de iniuncta sibi penitentia relaxamus et, si qui ex hiis in prosecucione huiusmodi negocii forte decesserint, eis omnium peccatorum de quibus corde contriti et ore confessi sunt plenam veniam indulgemus. Ne vero aliquid vobis desit ad predictum negocium prosequendum, in contradictores et rebelles ecclesiasticam proferendi censuram tenore vobis presencium liberam concedimus facultatem. Predicatores quoque questuarios, quorum interest caritativa tantum subsidia suppliciter petere ac indulgenciam, si quam forsitan habent, exponere, a predicacionis officio, quod ad ipsos nullatenos pertinet, compescendi censura simili vobis nichilominus licenciam indulgemus. Quod si non ambo hiis exequendis potueritis interesse, alter vestrum ea nichilominus exequatur. Datum Reateh, V kalendas decembris, pontificatus nostri anno quinto.\n"
        },
        {
            "type": "apparat_critique",
            "value": "<i>sic pour<\/i> parans<i> F G<\/i>.",
            "children": {
                "numero_note": "a"
            }
        },
        {
            "type": "apparat_critique",
            "value": "<i>sic pour<\/i> scorpio, in <i>F G.<\/i>",
            "children": {
                "numero_note": "b"
            }
        },
        {
            "type": "apparat_critique",
            "value": "Babilonio <i>F<\/i>.",
            "children": {
                "numero_note": "c"
            }
        },
        {
            "type": "apparat_critique",
            "value": "<i>omis G<\/i>.",
            "children": {
                "numero_note": "d"
            }
        },
        {
            "type": "apparat_critique",
            "value": "<i>sic pour<\/i> qui <i>F G<\/i>.",
            "children": {
                "numero_note": "e"
            }
        },
        {
            "type": "apparat_critique",
            "value": "duxerimus <i>G<\/i>.",
            "children": {
                "numero_note": "f"
            }
        },
        {
            "type": "apparat_critique",
            "value": "<i>sic Winkelmann pour<\/i> impugnandum<i>?<\/i>.",
            "children": {
                "numero_note": "g"
            }
        },
        {
            "type": "apparat_critique",
            "value": "Reatum <i>G<\/i>.",
            "children": {
                "numero_note": "h"
            }
        },
        {
            "type": "remarques",
            "value": "Voir Yves Dossat, <i>Les crises de l'Inquisition toulousaine au XIII<sup>e<\/sup> si\u00e8cle (1233-1273)<\/i>, Bordeaux, Bi\u00e8re, 1959, n. 2, p. 327-329 (<a target=\"_blank\" href=\"http:\/\/telma-chartes.irht.cnrs.fr\/aposcripta\/notice-acte\/23926\">APOSCRIPTA n. 1106<\/a>)."
        },
        {
            "type": "genre",
            "value": "Mandement (littere cum filo canapis)"
        }
    ]
}