{
    "id": 149782,
    "name": "aposcripta-9345",
    "type": "acte",
    "url": "http:\/\/telma-chartes.irht.cnrs.fr\/aposcripta\/notice\/149782",
    "project_slug": "aposcripta",
    "project_label": "APOSCRIPTA \u2013 Lettres des papes",
    "user": "lettrespontificalesadmin",
    "last_update": "2020-10-19 16:40:04",
    "licence": "Attribution - Pas d\u2019Utilisation Commerciale - Partage dans les M\u00eames Conditions 3.0 France (CC BY-NC-SA 3.0 FR) ",
    "licence_url": "https:\/\/creativecommons.org\/licenses\/by-nc-sa\/3.0\/fr\/",
    "elements": [
        {
            "type": "pape",
            "value": "Urbain IV (1261-1264)"
        },
        {
            "type": "destinataire",
            "value": "potestati, . . priori, consilio et communi Spoletanis spiritum consilii sanioris"
        },
        {
            "type": "date_libre",
            "value": "X kalendas ianuarii, anno secundo"
        },
        {
            "type": "date",
            "value": " 1262\/12\/23",
            "children": {
                "date_deb_annee": "1262",
                "date_deb_mois": "12",
                "date_deb_jour": "23"
            },
            "range": {
                "date_apres": 12621223,
                "date_avant": 12621223
            }
        },
        {
            "type": "date_lieu",
            "value": "Urbemveterem"
        },
        {
            "type": "sources_manuscrites",
            "value": "R. CIT\u00c9 DU VATICAN, Archivio Segreto Vaticano, <hi rend=\"italic\">Registra Vaticana<\/hi> ... Urb.\u00a0IV Reg. Vol.\u00a0II [cameralia], f.\u00a052, ep.\u00a02. Epistolam ex Regestis descripsit V. Cl. Meynke.",
            "children": {
                "type_source": "Registre de la chancellerie apostolique"
            }
        },
        {
            "type": "genre",
            "value": "Mandement (littere cum filo canapis)"
        },
        {
            "type": "analyse",
            "value": "Urbanus IV papa Spoletanis excommunicatis mandat, ut omnem societatem cum Narniensibus indevotis initam dissolvant, per syndicum ad papam missum iurent se Narniensibus contra homines de S. Gemino auxilium exhibituros non esse, et omnia instrumenta et iura, quae de terra Arnulforum se habere asserant, coram papa proponant [Rodenberg]."
        },
        {
            "type": "transcription",
            "value": "<?xml version=\"1.0\" encoding=\"UTF-8\"?>\npotestati, . . priori, consilio et communi Spoletanis spiritum consilii sanioris.Cum, sicut existit notorium, cives Narnienses spiritu rebellionis assumpto se inobedienter ab ecclesie Romane devotione subduxerint et tamquam ingratitudinis filii mandatis apostolicis parere contempnant et ob id excommunicationis et interdicti sententiis sint ligati, volumus et presentium vobis auctoritate sub debito fidelitatis, qua ecclesie predicte tenemini, districte precipiendo mandamus, quatinus infra diem Veneris proximo futurum omnem societatem, colligationem et confederationem inter vos et cives eosdem initas penitus dissolvatis, interim ad presentiam nostram vestrum syndicum destinantes, ad hoc specialiter constitutum, qui prestet in animabus vestris corporaliter iuramentum, quod prefatis Narniensibus, dum propter hoc excommunicati extiterint, contra homines de Sancto Gemino nullum exhibeatis consilium, auxilium vel favorem. Preterea simili vobis auctoritate mandamus, quatinus infra dictum diem Veneris, quem vobis terminum peremptorium duximus assignandum, instrumenta, litteras, indulgentias, privilegia et quaslibet concessiones omniaque iura, que de Arnulphorum terra et eius hominibus vos habere proponitis, coram nobis exhibere ac proponere studeatis, ut circa id provideamus, sicut extiterit secundum Deum et iustitiam providendum.Dat. apud Urbemveterem, X Kalendas Ianuarii, anno secundo.\n"
        },
        {
            "type": "edition",
            "value": "Ici reprise de Karl Rodenberg, Epistolae s. XIII e regestis pontificum romanorum selectae, III, Berlin : Weidmann (MGH), 1894, n.\u00a0531, p.\u00a0501."
        },
        {
            "type": "edition_autre",
            "value": "?"
        },
        {
            "type": "regeste",
            "value": "?"
        },
        {
            "type": "bibliographie_generale",
            "value": "?"
        },
        {
            "type": "apparat_critique",
            "value": "?",
            "children": {
                "numero_note": "a"
            }
        },
        {
            "type": "apparat_critique",
            "value": "?",
            "children": {
                "numero_note": "b"
            }
        },
        {
            "type": "apparat_critique",
            "value": "?",
            "children": {
                "numero_note": "c"
            }
        },
        {
            "type": "apparat_critique",
            "value": "?",
            "children": {
                "numero_note": "d"
            }
        },
        {
            "type": "apparat_critique",
            "value": "?",
            "children": {
                "numero_note": "e"
            }
        },
        {
            "type": "apparat_critique",
            "value": "?",
            "children": {
                "numero_note": "f"
            }
        },
        {
            "type": "notes_historiques",
            "value": "?",
            "children": {
                "numero_note": "1"
            }
        },
        {
            "type": "notes_historiques",
            "value": "?",
            "children": {
                "numero_note": "2"
            }
        },
        {
            "type": "notes_historiques",
            "value": "?",
            "children": {
                "numero_note": "3"
            }
        }
    ]
}