{
    "id": 25538,
    "name": "aposcripta-2635",
    "type": "acte",
    "url": "http:\/\/telma-chartes.irht.cnrs.fr\/aposcripta\/notice\/25538",
    "project_slug": "aposcripta",
    "project_label": "APOSCRIPTA \u2013 Lettres des papes",
    "user": "lettrespontificalesadmin",
    "last_update": "2020-10-19 16:27:45",
    "licence": "Attribution - Pas d\u2019Utilisation Commerciale - Partage dans les M\u00eames Conditions 3.0 France (CC BY-NC-SA 3.0 FR) ",
    "licence_url": "https:\/\/creativecommons.org\/licenses\/by-nc-sa\/3.0\/fr\/",
    "elements": [
        {
            "type": "pape",
            "value": "Innocent IV (1243-1254)"
        },
        {
            "type": "destinataire",
            "value": "( )",
            "children": {
                "numero_note": "0"
            }
        },
        {
            "type": "date_lieu",
            "value": "Lyon"
        },
        {
            "type": "date_libre",
            "value": "1249, 17 d\u00e9cembre"
        },
        {
            "type": "date",
            "value": " 1249\/12\/17",
            "children": {
                "date_deb_annee": "1249",
                "date_deb_mois": "12",
                "date_deb_jour": "17"
            },
            "range": {
                "date_apres": 12491217,
                "date_avant": 12491217
            }
        },
        {
            "type": "analyse",
            "value": "X pape<br\/>EPISTOLA INNOCENTII PAP\u00c6 IV AD PRIOREM DE NORANTHONA, CUI COMMITTITUR, UT CITET PRIOREM ET CONVENTUM LEWENSES CORAM IPSO PRO SOLUTIONE DECIM\u00c6 OMNIUM FRUCTUUM DICTI PRIORATUS FACIENDA ABBATI CLUNIACENSI DE QUATUOR ANNIS. EPISTOLA INNOCENTII PAP\u00c6 IV. ad Priorem de Noranthona, cui committitur ut citet Priorem et Conventum Prioratus Zeuvensis coram ipso summo Pontifice pro liquidatione et solutione decim\u00e6 omnium fructuum dicti Prioratus facienda Abbati Clun. de quatuor annis."
        },
        {
            "type": "transcription",
            "value": "<?xml version=\"1.0\" encoding=\"UTF-8\"?>\n[Innocentius Episcopus servus servorum Dei, dilecto filio Priori de Norhantona Lincolniensis Di\u0153cesis salutem et Apostolicam benedictionem. Dilecto filio Abbati Cluniacensi, petente \u00e0 Priore et Conventu Prioratus Leuvensis Cluniacensis Ordinis eidem Monasterio immediat\u00e8 subjecti, coram dilecto filio nostro .... tituli sancti Laurentii in Lucina presbytero Cardinali partibus \u00e0 nobis auditore concesso, de quatuor annis pr\u00e6teritis decimam omnium Proventuum et Reddituum Prioratus ejusdem, sibi ab Apostolica Sede concessam, quia libello porrecto, lite legitim\u00e8 contestata confessionibus factis, et juramento calumni\u00e6 ac de veritate discenda per Procuratores partium pr\u00e6stito, ipsoque Procuratore dictorum Prioris et Conventus confesso in judicio dictum Prioratum eidem Monasterio immediat\u00e8 subjectum et Ordinis ejusdem existere, ipsosque Priorem et Conventum ad solutionem petit\u00e6 decim\u00e6 teneri: de valore portarum Proventuum liquere non potuit, discretioni tu\u00e6 per Apostolica scripta mandamus, quatinus dictos Priorem et Conventum ex parte nostra pro tempore citare procures, ut infra duos menses post citationem tuam, per Procuratorem idoneum cum pleno mandato jurandi in animabus eorum, de valore ipsorum Proventuum, coram ipso compareant justam dante domino sententiam recepturi. Quod autem inde feceris nobis infra eumdem terminum tuis litteris continentibus tenorem pr\u00e6sentium studeas intimare. Datum Lugduni. XVI. Kalendas Januarii. Pontificatus nostri anno VII.]\n"
        },
        {
            "type": "edition",
            "value": "Ici tir\u00e9e du projet <i>CBMA - Corpus Burgundiae Medii Aevi<\/i>, document 6400. Site du projet Corpus de la Bourgogne du Moyen \u00c2ge, [En ligne] <a href=\"http:\/\/www.cbma-project.eu\" target=\"_blank\">http:\/\/www.cbma-project.eu<\/a>  "
        },
        {
            "type": "sources_manuscrites",
            "value": "\u00e0 renseigner."
        },
        {
            "type": "remarques",
            "value": "\r\n\r\nIndications dans l'\u00e9dition des Chartes de Cluny quand Bernard et Bruel n'ont pas repris le texte : Innocentius, etc. Dilecto filio abbati, etc. (Bull. Clun., p.\u00a0121, col.\u00a02, n\u00ba\u00a01.)."
        },
        {
            "type": "edition_autre",
            "value": "Ici reprise de Auguste Bernard, Alexandre Bruel, <i>Recueil des chartes de l'abbaye de Cluny<\/i>. VI. <i>1211-1300<\/i>, Paris\u00a0: Imprimerie nationale, 1903 <a href=\"http:\/\/gallica.bnf.fr\/ark:\/12148\/bpt6k367019?rk=21459;2\" target=\"_blank\">[en ligne]<\/a>, p. 418, n\u00b0 4922.",
            "children": {
                "numero_note": "0"
            }
        },
        {
            "type": "edition_autre",
            "value": "Pierre Simon, <i>Bullarium sacri Ordinis cluniacensis, complectens plurima privilegia per summos pontifices tum ipsi cluniacensi abbatiae, tum ei subditis monasteriis hactenus concessa<\/i>, Lyon : Jullieron, 1680, p. 121, col. 2, n\u00b01",
            "children": {
                "numero_note": "1"
            }
        },
        {
            "type": "genre",
            "value": "Bulle"
        }
    ]
}