{
    "id": 24533,
    "name": "aposcripta-1684",
    "type": "acte",
    "url": "http:\/\/telma-chartes.irht.cnrs.fr\/aposcripta\/notice\/24533",
    "project_slug": "aposcripta",
    "project_label": "APOSCRIPTA \u2013 Lettres des papes",
    "user": "lettrespontificalesadmin",
    "last_update": "2020-10-19 16:27:31",
    "licence": "Attribution - Pas d\u2019Utilisation Commerciale - Partage dans les M\u00eames Conditions 3.0 France (CC BY-NC-SA 3.0 FR) ",
    "licence_url": "https:\/\/creativecommons.org\/licenses\/by-nc-sa\/3.0\/fr\/",
    "elements": [
        {
            "type": "pape",
            "value": "Cl\u00e9ment IV (1265-1268)"
        },
        {
            "type": "date_lieu",
            "value": "Viterbe"
        },
        {
            "type": "date_libre",
            "value": "III idus junii, anno tertio"
        },
        {
            "type": "date",
            "value": " 1267\/06\/11",
            "children": {
                "date_deb_annee": "1267",
                "date_deb_mois": "06",
                "date_deb_jour": "11"
            },
            "range": {
                "date_apres": 12670611,
                "date_avant": 12670611
            }
        },
        {
            "type": "analyse",
            "value": "Cl\u00e9ment\u00a0IV \u00e9crit au pr\u00e9v\u00f4t pour qu\u2019il oblige les chanoines \u00e0 prendre les ordres et \u00e0 r\u00e9sider dans leur prieur\u00e9."
        },
        {
            "type": "transcription",
            "value": "<?xml version=\"1.0\" encoding=\"UTF-8\"?>\nClemens episcopus, servus servorum Dei, dilecto filio preposito Ecclesie Magalonensis, ordinis Sancti Augustini, salutem et apostolicam benedictionem.Te accepimus proponente, quod nonnulli priores prioratuum Ecclesie tue Magalonensi immediate subjectorum, Magalonensis dyocesis, in presbiteros, prout honus prioratuum ipsorum exigit, se promoveri, ac in eisdem prioratibus residentiam personalem facere, indebite pretermittunt, in suarum periculum animarum et scandalum aliorum\u00a0; propter quod prioratus ipsi debitis obsequiis deffraudantur. Super quo per nostram provideri sollicitudinem suppliciter postulasti.Pati nolentes igitur quod in ipsis prioratibus dignum Deo servitiuma quomodolibet subtrahatur, discretioni tue per apostolica scripta mandamus, quatinus, si est ita, memoratos priores, quod ad sacerdotalem ordinem statutis temporibus se faciant promoveri, et in eisdem prioratibus resideant personaliter, ut tenentur, monitioneb premissa, per censuram ecclesiasticam, appellatione remota, compellas.Datum Viterbii, iii idus junii, pontificatus nostri anno tertioc.\n"
        },
        {
            "type": "edition",
            "value": "Julien Rouquette, Augustin Villemagne, <i>Bullaire de l'\u00c9glise de Maguelone<\/i>, Paris, Montpellier : Picard, Valat, 1911-1914, II, n. 510-CCCLXIV, p. 405-405"
        },
        {
            "type": "remarques",
            "value": "Que devient la th\u00e8se de <span class=\"small-caps\">Germain<\/span> sur la crainte inspir\u00e9e aux Papes par nos chanoines \u00ab\u00a0si scandaleusement \u00e9nergiques\u00a0\u00bb\u00a0? Comme ses deux pr\u00e9d\u00e9cesseurs, Cl\u00e9ment\u00a0IV continue l\u2019\u0153uvre de la r\u00e9forme\u00a0: promotion aux saints Ordres et r\u00e9sidence.\n\n[Rouquette-Villemagne]"
        },
        {
            "type": "apparat_critique",
            "value": "Priv.\u00a0: <i>servicium<\/i>.",
            "children": {
                "numero_note": "a"
            }
        },
        {
            "type": "apparat_critique",
            "value": "Priv.\u00a0: <i>monicione<\/i>.",
            "children": {
                "numero_note": "b"
            }
        },
        {
            "type": "apparat_critique",
            "value": "Priv.\u00a0: <i>tercio<\/i>.",
            "children": {
                "numero_note": "c"
            }
        },
        {
            "type": "bibliographie_generale",
            "value": "<i>Priv. de Maguelone<\/i>, fol.\u00a08\u00a0r\u00b0",
            "children": {
                "numero_note": "0"
            }
        },
        {
            "type": "bibliographie_generale",
            "value": "<span class=\"small-caps\">Germain<\/span>, <i>Maguelone sous ses \u00e9v\u00eaques<\/i>, p.\u00a0207.",
            "children": {
                "numero_note": "1"
            }
        },
        {
            "type": "genre",
            "value": "Mandement (littere cum filo canapis)"
        },
        {
            "type": "destinataire",
            "value": "Le pr\u00e9v\u00f4t de l'\u00e9glise de Maguelonne"
        }
    ]
}