{
    "id": 148275,
    "name": "aposcripta-7890",
    "type": "acte",
    "url": "http:\/\/telma-chartes.irht.cnrs.fr\/aposcripta\/notice\/148275",
    "project_slug": "aposcripta",
    "project_label": "APOSCRIPTA \u2013 Lettres des papes",
    "user": "j_theryastruc",
    "last_update": "2020-10-19 16:39:44",
    "licence": "Attribution - Pas d\u2019Utilisation Commerciale - Partage dans les M\u00eames Conditions 3.0 France (CC BY-NC-SA 3.0 FR) ",
    "licence_url": "https:\/\/creativecommons.org\/licenses\/by-nc-sa\/3.0\/fr\/",
    "elements": [
        {
            "type": "pape",
            "value": "Honorius III (1216-1227)"
        },
        {
            "type": "destinataire",
            "value": "L'\u00e9v\u00eaque de Troyes Robert"
        },
        {
            "type": "date_libre",
            "value": "IV kalendas decembris, anno decimo"
        },
        {
            "type": "date",
            "value": "1225\/11\/28",
            "children": {
                "date_deb_annee": "1225",
                "date_deb_mois": "11",
                "date_deb_jour": "28"
            },
            "range": {
                "date_apres": 12251128,
                "date_avant": 12251128
            }
        },
        {
            "type": "date_lieu",
            "value": "Rieti"
        },
        {
            "type": "genre",
            "value": "Mandement (littere cum filo canapis)"
        },
        {
            "type": "analyse",
            "value": "Contra abbates et monachos et canonicos regulares suae diocesis qui, occasione statuti generalis concilii de capitulis ipsorum abbatum et aliorum regularium celebrandis, et corrigendis excessibus eorumdem, iurisdictionem suam reputant imminutam, decernit quod per statutum ipsum nullum iuri suo praeiudicium generetur [Pressuti]. "
        },
        {
            "type": "regeste",
            "value": "Pressuti, <i>Regesta Honorii papae III<\/i>, n. 5735."
        },
        {
            "type": "transcription",
            "value": "<?xml version=\"1.0\" encoding=\"UTF-8\"?>\n.. episcopo Trecensi.  Tua nobis fraternitas... Datum Lugduni, IIII kalendas decembris, anno decimo.\n"
        },
        {
            "type": "edition",
            "value": "C\u00e9sar-Auguste Horoy, <i>Medii aevi bibliotheca patristica : Honorii III opera omnia<\/i>, 5 t., Paris, 1879-1883, IV, n. 59, c. 957<a target=\"_blank\" href=\"https:\/\/archive.org\/details\/mediiaevibiblio06bottgoog\/page\/n492\/mode\/2up\"> [en ligne]<\/a>, d'apr\u00e8s S."
        },
        {
            "type": "sources_manuscrites",
            "value": "R. CIT\u00c9 DU VATICAN, Archivio segreto Vaticano, <i>Registra Vaticana<\/i> 13, c. 120, fol. 98. ",
            "children": {
                "type_source": "Registre de la chancellerie apostolique"
            }
        },
        {
            "type": "bibliographie_generale",
            "value": "Ursmer Berli\u00e8re, \u00ab Honorius III et les monast\u00e8res b\u00e9n\u00e9dictins. 1216-1227 \u00bb, <i>Revue belge de philologie et d'histoire<\/i>, 2\/2-3, p. 237-265, 461-484. "
        },
        {
            "type": "bibliographie_generale",
            "value": "Johan Belaen, C\u00e9cile Caby, Alexis Charansonnet, \u00ab Pr\u00e9dication en chapitre g\u00e9n\u00e9ral et r\u00e9forme pontificale de la <i>vita religiosa<\/i> au XIII<sup>e<\/sup> si\u00e8cle : \u00e0 propos des sermons d'Eudes de Ch\u00e2teauroux et Jacques de Furnes aux chapitres g\u00e9n\u00e9raux des moines noirs \u00bb, <i>Revue Mabillon<\/i>, 30\/91, 2019, p. 37-89, \u00e0 la p. 40. "
        },
        {
            "type": "sources_manuscrites",
            "value": "S. FRANCE, Paris, BnF, Mss La Porte du Theil.",
            "children": {
                "type_source": "Copie moderne"
            }
        }
    ]
}