{
    "id": 23996,
    "name": "transscript-578",
    "type": "acte",
    "url": "http:\/\/telma-chartes.irht.cnrs.fr\/transscript\/notice\/23996",
    "project_slug": "transscript",
    "project_label": "TRANSSCRIPT",
    "user": "t_salemme",
    "last_update": "2020-10-19 16:27:21",
    "licence": "Attribution - Pas d\u2019Utilisation Commerciale - Partage dans les M\u00eames Conditions 3.0 France (CC BY-NC-SA 3.0 FR) ",
    "licence_url": "https:\/\/creativecommons.org\/licenses\/by-nc-sa\/3.0\/fr\/",
    "elements": {
        "0": {
            "type": "auteur",
            "value": "Jean (l\u2019Aveugle), roi de Boh\u00eame et de Pologne vicaire imp\u00e9rial et comte de Luxembourg"
        },
        "1": {
            "type": "beneficiaire",
            "value": "Baudoin de Luxembourg, archev\u00eaque de Tr\u00e8ves"
        },
        "2": {
            "type": "destinataire",
            "value": "-"
        },
        "3": {
            "type": "disposant",
            "value": "Jean (l\u2019Aveugle), roi de Boh\u00eame et de Pologne vicaire imp\u00e9rial et comte de Luxembourg"
        },
        "4": {
            "type": "date",
            "value": " 1314\/01\/30",
            "children": {
                "date_deb_jour": "30",
                "date_deb_mois": "01",
                "date_deb_annee": "1314"
            },
            "range": {
                "date_apres": 13140130,
                "date_avant": 13140130
            }
        },
        "5": {
            "type": "date_libre",
            "value": "-"
        },
        "6": {
            "type": "date_lieu",
            "value": "Tr\u00e8ves"
        },
        "7": {
            "type": "cote",
            "value": "ALLEMAGNE, Coblence, Landeshauptarchiv, Abt. 1A, n\u00b0 4464"
        },
        "9": {
            "type": "description",
            "value": "Original sur parchemin (mm. 270 x 195) jadis scell\u00e9 sur double queue de parchemin"
        },
        "10": {
            "type": "langue",
            "value": "latin"
        },
        "11": {
            "type": "authenticite",
            "value": "non suspect\u00e9"
        },
        "12": {
            "type": "genre",
            "value": "Lettre"
        },
        "13": {
            "type": "type_source",
            "value": "Original"
        },
        "14": {
            "type": "analyse",
            "value": "Jean (l\u2019Aveugle), roi de Boh\u00eame et de Pologne, vicaire imp\u00e9rial et comte de Luxembourg, reconna\u00eet avoir re\u00e7u de Baudoin de Luxembourg, archev\u00eaque de Tr\u00e8ves, son oncle, pleine satisfaction et partant lui donne quittance de ce que ce dernier devait \u00e0 son p\u00e8re Henri (7), empereur, ainsi qu\u2019\u00e0 lui et au comt\u00e9 de Luxembourg, suite au d\u00e9compte final fait dans le palais archi\u00e9piscopal de Tr\u00e8ves le 30 janvier pr\u00e9c\u00e9dent. Jean promet en outre \u00e0 Baudoin de lui rendre une lettre papale par laquelle l\u2019archev\u00eaque a \u00e9t\u00e9 autoris\u00e9 \u00e0 engager les biens de l\u2019\u00e9glise de Tr\u00e8ves jusqu\u2019\u00e0 la somme de 10.000 livres de petits tournois."
        },
        "15": {
            "type": "transcription",
            "value": "<?xml version=\"1.0\" encoding=\"UTF-8\"?>\n\/01\/ Nos Johannes, Dei gratia Boemie et Polonie rex, sacri imperii citra montes vicarius generalis ac Lucemburgensis comes, presentibus \/02\/ recognoscimus et profitemur nobis, nostro et comitatus nostri Lucemburgensis nomine, esse plenarie satisfactum per reverendum patrem \/03\/ dominum Baldewinum, Dei gratia sancte Treverensis ecclesie archiepiscopum, patruum nostrum karissimum, de omnibus debitis, obligationibus, pecuniarum \/04\/ summis in quibus ipse .. archiepiscopus et ecclesia sua Treverensis teneri potuerunt et tenebantur serenissimo principi genitori nostro \/05\/ karissimo domino Henrico, felicis memorie Romanorum imperatori, nobis vel prefato comitatui nostro Lucemburgensi, usque in diem confectionis \/06\/ presencium litterarum ex causis, racionibus et occasionibus quibuscumque, mediante conputatione finali, racionabili et legittima nobis \/07\/ facta et reddita per eundem anno Domini millesimo trecentesimo terciodecimo, die penultima mensis januarii, in civitate Treverensi, \/08\/ in pallacio suo, coram nobilibus et discretis viris H(enrico) comite de Wylnowe, Egidio domino de Rodemacher, magistro Chunrado \/09\/ cancellario, Roberto archidyacono in ecclesia Treverensi, Johanne de Brunshorn et Paulo de Eych, militibus, necnon P(etro) de Grief \/10\/ et Ludovico de Kansme, clericis, notariis dicti domini .. archiepiscopi, tam per litteras sigillatas quam per alia documenta apparentia evidenter ; \/11\/ unde dictam conputationem factam racionabiliter laudantes et approbantes, ipsum dominum .. archiepiscopum et ejus ecclesiam Treverensem super \/12\/ dictis debitis, obligationibus et pecuniarum summis quitum clamamus et liberum et absolvimus nostro et nostrorum nomine et comitatus nostri \/13\/ Lucemburgensis superius nominati, volentes et expresse consentientes omnes litteras et probationes quas habemus vel habere deberemus seu \/14\/ habere poterimus in posterum super debitis et obligacionibus antedictis exnunc in antea omnino remanere inefficaces et invalidas et nullius \/15\/ existere penitus firmitatis; quas quandocumque et ubicumque eas inveniri contigerit in posterum, sibi absolute restituere promittimus \/16\/ et restitui a quocumque eas occupanti vel tenenti volumus et iubemus. Preterea habere nos recognoscimus unam litteram domini \/17\/ pape eidem archiepiscopo concessam et indultam, continentem quod dictus .. archiepiscopus ecclesiam suam Treverensem et bona ejus usque ad \/18\/ decem milia librarum parvorum Turonensium valeat obligare, quam sanam et integram prefato domino .. archiepiscopo restituere promittimus \/19\/ et curabimus prout ejus libere placuerit voluntati. In quorum testimonium sigilla maiestatis nostre presentibus sunt appensa. Datum \/20\/ Treviris IIIo kalendas februarii, anno Domini millesimo trecentecimo terciodecimo, regnorum vero nostrorum anno tercio.\n"
        },
        "16": {
            "type": "remarques",
            "value": "-"
        },
        "17": {
            "type": "mention_hors_teneur",
            "value": "-"
        },
        "18": {
            "type": "note_dorsale",
            "value": "\u00ab Bald. \u00bb, XIV<sup>e<\/sup> s. ; \u00ab Quitatio omnium debitorum que dominus Treverensis debebat imperatori vel comiti Luxembourgensi \u00bb, XIV<sup>e<\/sup> s. ; \u00ab 13 \u00bb, XV<sup>e<\/sup> s. ; \u00ab a. 1313 \u00bb, XVIII<sup>e<\/sup> s. ; \u00ab N. 5 \u00bb, barr\u00e9, et \u00ab Rex Joannes Bohemie et Polone recognoscit sibi plenarie esse satisfactum ratione debitorum et obligationum in quibus archiepiscopus et ecclesia Treverenses sibi tenebantur \u00bb, XVIII<sup>e<\/sup> s. ; \u00ab 1314 jan. 30 \u00bb, XX<sup>e<\/sup> s."
        },
        "19": {
            "type": "edition",
            "value": "J.\u00a0N. HONTHEIM, <i>Historia Trevirensis diplomatica et pragmatica, inde a translata Treveri praefectura praetorio Galliarum, ad haec usque tempora, e genuinis scripturis eruta, atque ita digesta, ut non solum jus publicum particulare archiepiscopatus et electoratus Trevirensis in suis fontibus plenissime exhibeat, sed et historiam civilem et ecclesiasticam Germaniae, ejusque singularia jura publica ac privata illustret<\/i>, t. II, W\u00fcrzburg 1750, n\u00b0 611 p. 88 (\u00e0 la date 30 janvier 1313)"
        },
        "20": {
            "type": "regeste",
            "value": "J.-F. B\u00d6HEMER, <i>Regesta Imperii inde ab anno 1314 usque ad annum 1347. Die Urkunden Kaiser Ludwigs des Baiern, K\u00f6nig Friedrichs des Sch\u00f6nen und K\u00f6nig Johanns von B\u00f6hmen. Nebst einer Auswahl der Briefe und Bullen der P\u00e4bste und anderer Urkunden in Ausz\u00fcgen, Addimentum tertium<\/i>, Francfort-sur-le-Main 1865, n\u00b0 23, p. 183"
        },
        "21": {
            "type": "regeste",
            "value": "F.-X. W\u00dcRTH-PAQUET, <i>Table chronologique des chartes et dipl\u00f4mes relatifs au r\u00e8gne de Jean, roi de Boh\u00eame et comte de Luxembourg<\/i>, in Publications de la Section historique, XVIII (1863), n\u00b0 120, p. 32"
        },
        "22": {
            "type": "regeste",
            "value": "J. M\u00d6TSCH, <i>Die Balduineen. Aufbau, Entstehung und Inhalt der Urkundensammlung des Erzibischofs Balduin von Trier<\/i>, Coblence 1980, n\u00b0 415 "
        },
        "23": {
            "type": "mention",
            "value": "A. DOMINICUS, <i>Baldewin von L\u00fctzelburg, Erzbischof und Kurf\u00fcst, ein Zeitbild aus der ersten H\u00e4lfe des 14. Jahrhunderts<\/i>, Coblence 1862, p. 137"
        },
        "24": {
            "type": "mention",
            "value": "p. RICHTER, <i>Die kurtrierische Kanzlei im sp\u00e4teren Mittelalter<\/i>, Leipzig 1911, p. 6"
        },
        "25": {
            "type": "sources_manuscrites",
            "value": "ALLEMAGNE, Coblence, Landeshauptarchiv, Abt. 1C, n\u00b0 1, 281 (copie du XIV<sup>e<\/sup> s. in Balduineum I)",
            "children": {
                "type_source": "Cartulaire"
            }
        },
        "26": {
            "type": "sources_manuscrites",
            "value": "ALLEMAGNE, Coblence, Landeshauptarchiv, Abt. 1C, n\u00b0 2, 258 (copie du XIV<sup>e<\/sup> s. in Balduineum II)",
            "children": {
                "type_source": "Cartulaire"
            }
        },
        "27": {
            "type": "sources_manuscrites",
            "value": "ALLEMAGNE, Coblence, Landeshauptarchiv, Abt. 1C, n\u00b0 3, 317 (copie du XIV<sup>e<\/sup> s. in Balduineum III)",
            "children": {
                "type_source": "Cartulaire"
            }
        },
        "28": {
            "type": "sources_manuscrites",
            "value": "ALLEMAGNE, Coblence, Landeshauptarchiv, Abt. 1C, n\u00b0 3a, 1450 (copie du XIV<sup>e<\/sup> s. in Balduineum IV)",
            "children": {
                "type_source": "Cartulaire"
            }
        },
        "29": {
            "type": "responsable",
            "value": "Timothy Salemme"
        },
        "30": {
            "type": "acte_scelle",
            "value": "non"
        },
        "31": {
            "type": "sceau",
            "value": "Sceau pendant sur double queue de parchemin, perdu"
        }
    }
}