{
    "id": 144317,
    "name": "transscript-997",
    "type": "acte",
    "url": "http:\/\/telma-chartes.irht.cnrs.fr\/transscript\/notice\/144317",
    "project_slug": "transscript",
    "project_label": "TRANSSCRIPT",
    "user": "t_salemme",
    "last_update": "2020-10-19 16:38:58",
    "licence": "Attribution - Pas d\u2019Utilisation Commerciale - Partage dans les M\u00eames Conditions 3.0 France (CC BY-NC-SA 3.0 FR) ",
    "licence_url": "https:\/\/creativecommons.org\/licenses\/by-nc-sa\/3.0\/fr\/",
    "elements": [
        {
            "type": "auteur",
            "value": "-"
        },
        {
            "type": "beneficiaire",
            "value": "Jean (l\u2019Aveugle), roi de Boh\u00eame et de Pologne, comte de Luxembourg"
        },
        {
            "type": "beneficiaire",
            "value": "(\u00c9douard 1), comte de Bar"
        },
        {
            "type": "destinataire",
            "value": "-"
        },
        {
            "type": "disposant",
            "value": "Jean (l\u2019Aveugle), roi de Boh\u00eame et de Pologne, comte de Luxembourg"
        },
        {
            "type": "disposant",
            "value": "(\u00c9douard 1), comte de Bar"
        },
        {
            "type": "date",
            "value": "1329\/08\/13",
            "children": {
                "date_deb_annee": "1329",
                "date_deb_mois": "08",
                "date_deb_jour": "13"
            },
            "range": {
                "date_apres": 13290813,
                "date_avant": 13290813
            }
        },
        {
            "type": "date_libre",
            "value": "-"
        },
        {
            "type": "date_lieu",
            "value": "Marville"
        },
        {
            "type": "cote",
            "value": "FRANCE, Paris, Biblioth\u00e8que nationale de France, Provinces Fran\u00e7aises, Collection de Lorraine, vol. 211ter, n\u00b0 79"
        },
        {
            "type": "description",
            "value": "Original sur parchemin scell\u00e9 de quatre sceaux sur double queue de parchemin"
        },
        {
            "type": "langue",
            "value": "fran\u00e7ais"
        },
        {
            "type": "authenticite",
            "value": "non suspect\u00e9"
        },
        {
            "type": "genre",
            "value": "Notice"
        },
        {
            "type": "type_source",
            "value": "Original"
        },
        {
            "type": "analyse",
            "value": "Notification, en pr\u00e9sence du comte de Hainaut et de Jean de Ch\u00e2tillon, (comte de Blois), repr\u00e9sentant du roi de France, de l\u2019accord entre Jean (l\u2019Aveugle), roi de Boh\u00eame et de Pologne, comte de Luxembourg, pr\u00e9voyant que tous les diff\u00e9rends entre les deux parties seront termin\u00e9s par quatre chevaliers ou par deux chevaliers souverains. Pour plus grande confirmation de cette paix, il est \u00e9tabli que le mariage entre le fils du comte de Bar et la fille du comte de Luxembourg  aura lieu en la mani\u00e8re que le roi de France Charles (4) avait ordonn\u00e9 par lettres scell\u00e9es, et que les noces seront c\u00e9l\u00e9br\u00e9es \u00e0 Luxembourg ou ailleurs dans le comt\u00e9 de Luxembourg, l\u00e0 o\u00f9 il plaira audit Jean (l\u2019Aveugle), le 14 novembre suivant."
        },
        {
            "type": "transcription",
            "value": "<?xml version=\"1.0\" encoding=\"UTF-8\"?>\n\/01\/ C\u2019est l\u2019acort fait entre le roy de Boeme, d\u2019une part, et le conte de Bar, d\u2019autre, par devant le conte de Hainnau et \/02\/ mons(igneur) Jehan de Chastillon depar le roy de France, de tous descors eus entre eus et lor gens de tout le temps \/03\/ pacei jusques au jour de h\u2019uy. Acordei est que tous debas et descors que les dis signors ou lor gens eussent se \/04\/ sont termineiz et acordeiz par les quatre chevalier ou par les deus chevaliers soverains pardessus se les quatre dessudis ne \/05\/ s\u2019acordoient par la vertu et selonc la tenour des aliances faites entre les dis roy de Boeme et conte de Bar ; \/06\/ lesqueiles aliances toutes demeurent ades en lor vertu. Et en cas que les dous soverains dessusdis \/07\/ ne seroient en acort, il raporteroient leur descort a mons(igneur) de Hainnau, liqueilz lor fera sur ce \/08\/ droit et les acordera selonc ce que bon li semblerat, le plus brievement qu\u2019il pourrat, bonement. Et est a savoir que \/09\/ des maintenent les dis roy de Boeme et conte de Bar sont entre eulz et lor gens aussi en bonne \/10\/ paix de toutes chozes de tout le temps pacei. Et pour plus grant confirmation de paix et d\u2019amour \/11\/ est acordei que le mariage dou fil le conte de Bar et de la fille le roy de Boeme dessusdis se proferai en la \/12\/ meniere que le roy Challe de France, que Deux absoille, l\u2019ordena par ses lettres de son seel seellees, et en seront \/13\/ faites les espousalles et les noces a Lucemb(ourch) ou ailleurs en la contei de Lucemb(ourch), la ou il plaira au roy \/14\/ de Boeme dessusdit, le mardi apres la feste Saint Martin d\u2019iver proch(ain) venent. Et en tesmoig de ce, \/15\/ nous roy de Boeme, conte de Hainnau, conte de Bar et Jehan de Chastillon dessusdis avons mis nos signes \/16\/ en ceste presente cedule. Ce fut fait a Marville le trezeime jour d\u2019aoust, l\u2019an de grace mil trois cens vint \/17\/ et nuef.\n"
        },
        {
            "type": "remarques",
            "value": "Volume incommunicable. Edition effectu\u00e9e sur base de microfilm"
        },
        {
            "type": "mention_hors_teneur",
            "value": "-"
        },
        {
            "type": "note_dorsale",
            "value": "Illisibles (acte coll\u00e9 au support) "
        },
        {
            "type": "edition",
            "value": "-"
        },
        {
            "type": "regeste",
            "value": "F.-X. W\u00dcRTH-PAQUET, \u00ab Table chronologique des chartes et dipl\u00f4mes relatifs \u00e0 l\u2019histoire de l\u2019ancien pays et duch\u00e9 de Luxembourg. R\u00e8gne de Jean, roi de Boh\u00eame et comte de Luxembourg (1310-1346) \u00bb, <i> Publications de la Section historique<\/i>, XIX (1864), n\u00b0 805"
        },
        {
            "type": "regeste",
            "value": "\u00ab Chartes Luxembourgeoises \u00e0 la Biblioth\u00e8que nationale de Paris par Ad. Reiners, auditeur \u00e0 l\u2019\u00e9cole des chartes et \u00e9l\u00e8ve aux hautes \u00e9tudes \u00e0 Paris \u00bb, <i>Das Luxemburger Land<\/i>, 4 novembre 1883,  p. 617"
        },
        {
            "type": "mention",
            "value": "-"
        },
        {
            "type": "sources_manuscrites",
            "value": "LUXEMBOURG, Luxembourg, Archives Nationales de Luxembourg, A-X-44, f\u00b0 218 (cartulaire de 1546)",
            "children": {
                "source_type": "non",
                "type_source": "Cartulaire"
            }
        },
        {
            "type": "responsable",
            "value": "Timothy Salemme"
        },
        {
            "type": "image_interne",
            "value": "http:\/\/telma-chartes.irht.cnrs.fr\/telma_img\/transscript\/transscript-BnF_Coll._Lorr._n\u00b0_79_recto.png"
        },
        {
            "type": "acte_scelle",
            "value": "oui"
        },
        {
            "type": "sceau",
            "value": "Sceau secret de Jean (l\u2019Aveugle)"
        },
        {
            "type": "sceau",
            "value": "Sceau du comte de Bar (\u00c9douard 1)"
        },
        {
            "type": "sceau",
            "value": "Sceau du comte de Hainaut (Guillaume 1)"
        },
        {
            "type": "sceau",
            "value": "Sceau du (comte de Blois) Jean de Ch\u00e2tillon "
        }
    ]
}