{
    "id": 440,
    "name": "transscript-252",
    "type": "acte",
    "url": "http:\/\/telma-chartes.irht.cnrs.fr\/transscript\/notice\/440",
    "project_slug": "transscript",
    "project_label": "TRANSSCRIPT",
    "user": "t_salemme",
    "last_update": "2020-10-19 16:24:57",
    "licence": "Attribution - Pas d\u2019Utilisation Commerciale - Partage dans les M\u00eames Conditions 3.0 France (CC BY-NC-SA 3.0 FR) ",
    "licence_url": "https:\/\/creativecommons.org\/licenses\/by-nc-sa\/3.0\/fr\/",
    "elements": {
        "0": {
            "type": "analyse",
            "value": "Ferry (3), duc de Lorraine, fait savoir qu'il a \u00e9tabli avec son oncle Henri (5), comte de Luxembourg, de la Roche et marquis d'Arlon, une alliance perp\u00e9tuelle contre tous, \u00e0 l'exception de l'empereur du Saint Empire, du roi de Navarre et de l'\u00e9v\u00eaque de Metz, toutes les alliances pr\u00e9c\u00e9dentes entre ledit Henri (5) et Thibaut (2), comte de Bar, \u00e9tant sauvegard\u00e9es."
        },
        "1": {
            "type": "auteur",
            "value": "Ferry (3), duc de Lorraine et marquis"
        },
        "2": {
            "type": "beneficiaire",
            "value": "Henri (5), comte de Luxembourg et de La Roche et marquis d'Arlon"
        },
        "3": {
            "type": "disposant",
            "value": "Ferry (3), duc de Lorraine et marquis"
        },
        "4": {
            "type": "authenticite",
            "value": "non suspect\u00e9"
        },
        "5": {
            "type": "remarques",
            "value": "-"
        },
        "6": {
            "type": "cote",
            "value": "FRANCE, Paris, Biblioth\u00e8que nationale de France, Provinces Fran\u00e7aises, Collection de Lorraine, vol. 211, n\u00b0 22"
        },
        "7": {
            "type": "responsable",
            "value": "Timothy Salemme"
        },
        "8": {
            "type": "date",
            "value": " 1262\/11\/26",
            "children": {
                "date_deb_annee": "1262",
                "date_deb_mois": "11",
                "date_deb_jour": "26"
            },
            "range": {
                "date_apres": 12621126,
                "date_avant": 12621126
            }
        },
        "9": {
            "type": "description",
            "value": "Original sur parchemin jadis scell\u00e9 sur double queue de parchemin"
        },
        "11": {
            "type": "edition",
            "value": "N. DE WAILLY, <i>Notice sur les actes en langue vulgaire du XIII<sup>e<\/sup> si\u00e8cle contenus dans la Collection de Lorraine, \u00e0 la Biblioth\u00e8que nationale<\/i>, Paris 1878, n\u00b0 82, p. 68-69"
        },
        "12": {
            "type": "edition",
            "value": "C. WAMPACH, <i>Urkunden- und Quellenbuch zur Geschichte der altluxemburgischen Territorien bis zur burgundischen Zeit<\/i>, t. III, Luxembourg 1939, n\u00b0 405, p. 436-437"
        },
        "13": {
            "type": "edition",
            "value": "Acte n\u00b0 222727 dans \u00ab Chartae Galliae \u00bb. Edition \u00e9lectronique : Institut de Recherche et d'Histoire des Textes, 2014, en ligne : <a target=\"_blank\" href=\"http:\/\/www.cn-telma.fr\/chartae-galliae\/charte222727\/\">http:\/\/www.cn-telma.fr\/chartae-galliae\/charte222727\/<\/a> (d'apr\u00e8s l'\u00e9dition DE WAILLY)"
        },
        "14": {
            "type": "regeste",
            "value": "J. DE PANGE, <i>Catalogue des actes de Ferri III, duc de Lorraine (1251-1303)<\/i>, Paris, 1930, n\u00b0 206, p. 42"
        },
        "15": {
            "type": "mention",
            "value": "M. GROSDIDIER DE MATONS, <i>Le comt\u00e9 de Bar des origines au trait\u00e9 de Bruges (vers 950-1301)<\/i>, Paris 1922, p. 346"
        },
        "16": {
            "type": "genre",
            "value": "Lettre"
        },
        "17": {
            "type": "langue",
            "value": "fran\u00e7ais"
        },
        "18": {
            "type": "sources_manuscrites",
            "value": "FRANCE, Nancy, Archives d\u00e9partementales de Meurthe-et-Moselle, B 407. Recueil de titres relatifs aux comtes de Luxembourg et de Chiny, f\u00b0 77 (copie dans cartulaire de la fin du XVI<sup>e<\/sup> s.)"
        },
        "19": {
            "type": "note_dorsale",
            "value": "\u00ab Luxembourg I, n\u00b0 21 \u00bb, XVIII<sup>e<\/sup> s."
        },
        "20": {
            "type": "transcription",
            "value": "<?xml version=\"1.0\" encoding=\"UTF-8\"?>\n\/01\/ Je Ferris, dux de Lorrainne et marchis, fas savoir a tous ciaus qui ses \/02\/ lettres verrunt et orrunt que ie me sui alies toute ma vie par ma foi fienciee et \/03\/ par mon sairement a mon chier umcle Henri, conte de Lucemb(ourch) et de la Roche \/04\/ et marchis d\u2019Erlonz, en teil maniere que ie li doie aidier en bonne foi de \/05\/ moi et de mes hommes encontre tous hommes, fors que encontre l\u2019empereur \/06\/ d\u2019Alemaigne et le roi de Navarre et l\u2019evesque de Mez; et ses aliences \/07\/ ai je faites envers mon umcle devantdit, sauves les convenences et les \/08\/ aliences qui sunt entre mon umcle souvent nommei en son serorge Thie-\/09\/-baut conte de Bar. En tesmoignage de ses choses, i\u2019ai fait ses lettres \/10\/ seeleir de mon seel. Ce fut fait l\u2019an Nostre Signour mil et \/11\/ dous cens et sixante et dous, le dimanche devant la feste Saint \/12\/ Andrieu.\n"
        },
        "21": {
            "type": "type_source",
            "value": "Original"
        },
        "22": {
            "type": "acte_scelle",
            "value": "non"
        },
        "23": {
            "type": "id_telma",
            "value": "630458"
        },
        "24": {
            "type": "sceau",
            "value": "Sceau pendant perdu. Annonce du sceau de Ferry (3), duc de Lorraine et marquis"
        },
        "27": {
            "type": "destinataire",
            "value": "-"
        },
        "28": {
            "type": "date_libre",
            "value": "-"
        },
        "29": {
            "type": "date_lieu",
            "value": "-"
        },
        "30": {
            "type": "mention_hors_teneur",
            "value": "-"
        }
    }
}