{
    "id": 26616,
    "name": "transscript-682",
    "type": "acte",
    "url": "http:\/\/telma-chartes.irht.cnrs.fr\/transscript\/notice\/26616",
    "project_slug": "transscript",
    "project_label": "TRANSSCRIPT",
    "user": "l_gili",
    "last_update": "2020-10-19 16:28:03",
    "licence": "Attribution - Pas d\u2019Utilisation Commerciale - Partage dans les M\u00eames Conditions 3.0 France (CC BY-NC-SA 3.0 FR) ",
    "licence_url": "https:\/\/creativecommons.org\/licenses\/by-nc-sa\/3.0\/fr\/",
    "elements": {
        "0": {
            "type": "auteur",
            "value": "Burnique, seigneur de Riste, chevalier"
        },
        "1": {
            "type": "beneficiaire",
            "value": "Ferry (4), duc de Lorraine et marquis"
        },
        "2": {
            "type": "destinataire",
            "value": "-"
        },
        "3": {
            "type": "disposant",
            "value": "Burnique, seigneur de Riste, chevalier"
        },
        "4": {
            "type": "date",
            "value": " 1324\/10\/25",
            "children": {
                "date_deb_jour": "25",
                "date_deb_mois": "10",
                "date_deb_annee": "1324"
            },
            "range": {
                "date_apres": 13241025,
                "date_avant": 13241025
            }
        },
        "5": {
            "type": "date_lieu",
            "value": "-"
        },
        "6": {
            "type": "cote",
            "value": "FRANCE, Nancy, Archives d\u00e9partementales de Meurthe et Moselle, B 793 n\u00b0 29"
        },
        "8": {
            "type": "description",
            "value": "Original sur parchemin, scell\u00e9 de deux sceaux sur double queue de parchemin (dont un perdu)"
        },
        "9": {
            "type": "langue",
            "value": "fran\u00e7ais"
        },
        "10": {
            "type": "authenticite",
            "value": "non suspect\u00e9"
        },
        "11": {
            "type": "genre",
            "value": "Lettre"
        },
        "12": {
            "type": "type_source",
            "value": "Original"
        },
        "13": {
            "type": "analyse",
            "value": "Burnique, seigneur de Riste fait savoir \u00e0 tous qu\u2019il autorise le duc Ferry (4) de saisir apr\u00e8s sa mort et de vendre les fiefs qu\u2019il tient de lui, - les h\u00e9ritiers de Burnique pouvant toutefois les retirer dans un d\u00e9lai d\u2019un an et un jour apr\u00e8s la vente, - comme garantie de 2.400 livres d\u2019argent, 1116 quartes de froment, 2.039 quartes de seigle et 9458 quartes et demie d\u2019avoine, mesure de Vaudrevange, qu\u2019il doit au duc \u00e0 la date du pr\u00e9sent acte, pour l\u2019admodiation que lui a faite celui-ci de toute la terre d\u2019Allemagne \u00e0 titre viager, moyennant certaines redevances qu\u2019il n\u2019a pu payer \u00e0 l\u2019acquittement desquelles il ne pourra \u00eatre contraint."
        },
        "14": {
            "type": "transcription",
            "value": "<?xml version=\"1.0\" encoding=\"UTF-8\"?>\n\/01\/ Je Burnikes, sires de Ristez, chevaliers fais savoir a touz que comme haulz et nobles princes mes tr\u00e9s chiers et am\u00e9z sires Ferris dus de Loherenne et \/02\/ marchis m\u2019eust laixiei et amoizenei sa terre d\u2019Allemeingne a ma vie et a la sienne entieremant par ensi comme si tost comme li uns de nous dous defalroit \/03\/ que li dis amoizenemans seroit nulz pour lou queil amoizenemant je devoie randre chascun an tant comme je tanroie la dite terre d\u2019Allemeing\/04\/ne audit monsignour lou duc certeines sommes de deniers de blez et de vins laqueile terre d\u2019Allemeingne je ai tenui par plusours ann\u00e9es trespess\u00e9es \/05\/ dont j\u2019ai paiei partie des dites sommes et partie en demore a paier au dit monsignour lou duc li queile partie que je doie au dit mon signour lou duc est \/06\/ estim\u00e9e par certein compe fait entre nous bien et leaulment de tout lou temps pessei jusques au jour que cez presantes lettres furent faites, c\u2019est \/07\/ assavoir en la somme de vint et quaitre cens livres de petis tournois en deniers ; et en la somme de onze cens et seize quartes de fromant, et de soile \/08\/ en la somme de dous mille et trente et nuef quartes, et d\u2019avoine en la somme de nuef mille quarte cens et sinquante et eut quartes et demie a la mesure de \/09\/ Waudrewanges lou queil compe je ai aggreei et aceptei et lez doie et en suix tenuz au dit monsignour lou duc a paier a lui ou a ses hoirs dus \/10\/ de Loherenne se de lui defailloit a Leneiville apr\u00e9s mon dec\u00e9z ne jusques adonc ne moi pourroit li dis messires li dus presseir dou paier et n\u2019en panroit \/11\/ point ausi de paiemant li dis messires li dus a mon vivant ilz ne sui hoir se paier lez voloie se il ne lor plaisoit jusques apr\u00e9z mon dec\u00e9z et pour \/12\/ plux grant seurtei a avoir au dit monsignour lou duc d\u2019estre pai\u00e9z apr\u00e9s mon dec\u00e9z des deniers et des bleis desus dis l\u2019en ai je obligiei et oblige des maintenant \/13\/ tout ceu que je teing dou dit monsignour lou duc en demoinnes, en fi\u00e9z et en arriers fi\u00e9z pour vendre et pour despandre en la meniere que s\u2019ensuit, c\u2019est \/14\/ assavoir que si tost comme de moi defalroit il porroit vendre et despendre mon heritaige desus dit pour les sommes desus dites par ensi que lou vendaige fait \/15\/ ensi comme desus est dit mi hoir porroient revenir et revanroient dedens l\u2019an et lou jour apr\u00e9z ceu qu\u2019il seroit vendus au dit heritaige s\u2019il lou rachaitoient \/16\/ des sommes desus dites, et s\u2019il ne ne lou rachetoient ensi comme desus est dit li achaitour que lou dit heritaige averoient achaitei en joiroient pasiblement sans \/17\/ debait de mez hoirz; et wel que li dis messires li dus et sui hoir en faicent joir lez achaitours encontre mez hoirs comme sires soverains de cui li dit \/18\/ fiei muevent en la meniere desus dite. En tesmoingnaige de veritei et pour ceu que ceu soit ferme choze et esstauble je ai mis mon sael en cez presantes lettres et \/19\/ ai suppliiei et requis a honorable persone et discreite l\u2019officiaulz de la dite court de Toul qu\u2019il en tesmoingnaige de veritei faicet mettre lou sael de la dite court de \/20\/ Toul awec lou mien en cez presantes lettres ; et nous officiaulz de la dite court de Toul a la requeste et a la supplication dou dit monsignour Burnike et par \/21\/ la relation de signour Jehan de Nancey preste dit lou marlier, feauble jurei de la dite court de Toul lou queil nous croions en cest fait et en plux \/22\/ grant avons fait mettre lou saeil de la dite court de Toul en cez presantes lettres awec lou sael desus dit en tesmoingnaige de veritei que furent faites l\u2019an de graice \/23\/ Nostre Signour mil trois cens et vint et quaitre lou juedi devant la feste de Touzsains.\n"
        },
        "15": {
            "type": "mention_hors_teneur",
            "value": "\u00ab S(uscrit) Jehan. judex \u00ab Marlier \u00bb de Nancey \u00bb, XIV<sup>e<\/sup> s."
        },
        "16": {
            "type": "note_dorsale",
            "value": "\u00ab Lettres monsignour lou duc de monsignour \/ Burnike d\u2019un amoisenement de lai \/ terre monsignour le duc en Allemengne \u00bb, \u00ab R(egistrata) \u00bb, XIV<sup>e<\/sup> s. ; \u00ab Recongnoissan(ce) \/ de Burniques de Riste chevalier des \/ deniers et grains par luy deuz a monseigneur le \/ duc Ferry a cause de l\u2019admodiation de sa terre \/ d\u2019Allemagne \u00bb, \u00ab M.CCC.XXIIII \u00bb, XVI<sup>e<\/sup> s. ; \u00ab N\u00b0 29 \/ Luneville \u00bb, \u00ab du jeudy \/ avant la Toussainct \u00bb, XVII<sup>e<\/sup> s. "
        },
        "17": {
            "type": "edition",
            "value": "-"
        },
        "18": {
            "type": "regeste",
            "value": "J. BRIDOT, <i>Catalogue des actes de Ferry IV, Duc de Lorraine (1312-1329)<\/i>, FRANCE, Nancy, biblioth\u00e8que municipale de Nancy (copie dactylographi\u00e9e du dipl\u00f4me d\u2019\u00e9tudes sup\u00e9rieures soutenu devant la Facult\u00e9 des Lettres de Nancy) 1949 n\u00b0 348"
        },
        "19": {
            "type": "mention",
            "value": "H. LEVALLOIS, <i>Table chronologique provisoire des actes des ducs Thi\u00e9baut II et Ferry IV conserv\u00e9s dans le Tr\u00e9sor des chartes de Lorraine ou publi\u00e9s et analys\u00e9s<\/i>, FRANCE, Nancy, Biblioth\u00e8que municipale, ms. 1185 (4 et 5)"
        },
        "20": {
            "type": "sources_manuscrites",
            "value": "FRANCE, Nancy, Archives d\u00e9partementales de Meurthe et Moselle, B 375 f\u00b0 146v (XVI<sup>e<\/sup> s.)",
            "children": {
                "type_source": "Cartulaire"
            }
        },
        "21": {
            "type": "responsable",
            "value": "Laura Gili-Th\u00e9baudeau"
        },
        "22": {
            "type": "acte_scelle",
            "value": "oui"
        },
        "23": {
            "type": "sceau",
            "value": "Deux sceaux sur double queue dont le premier en cire brune, en bon \u00e9tat, et le deuxi\u00e8me disparu",
            "children": {
                "sigilla": ""
            }
        },
        "24": {
            "type": "image_interne",
            "value": "http:\/\/telma-chartes.irht.cnrs.fr\/telma_img\/transscript\/transscript-FRAD054_B793_29r.JPG"
        },
        "25": {
            "type": "image_interne",
            "value": "http:\/\/telma-chartes.irht.cnrs.fr\/telma_img\/transscript\/transscript-FRAD054_B793_29v.JPG"
        },
        "26": {
            "type": "image_interne",
            "value": "http:\/\/telma-chartes.irht.cnrs.fr\/telma_img\/transscript\/transscript-FRAD054_B793_29s1.JPG"
        }
    }
}