{
    "id": 19977,
    "name": "transscript-432",
    "type": "acte",
    "url": "http:\/\/telma-chartes.irht.cnrs.fr\/transscript\/notice\/19977",
    "project_slug": "transscript",
    "project_label": "TRANSSCRIPT",
    "user": "l_gili",
    "last_update": "2020-10-19 16:26:43",
    "licence": "Attribution - Pas d\u2019Utilisation Commerciale - Partage dans les M\u00eames Conditions 3.0 France (CC BY-NC-SA 3.0 FR) ",
    "licence_url": "https:\/\/creativecommons.org\/licenses\/by-nc-sa\/3.0\/fr\/",
    "elements": {
        "0": {
            "type": "auteur",
            "value": "Othon, \u00e9v\u00eaque de Toul"
        },
        "1": {
            "type": "beneficiaire",
            "value": "Thi\u00e9baut (2), duc et marquis de Lorraine"
        },
        "2": {
            "type": "disposant",
            "value": "Thi\u00e9baut (2), duc et marquis de Lorraine"
        },
        "3": {
            "type": "disposant",
            "value": "Renaud de Bourgogne, comte de Montb\u00e9liard"
        },
        "4": {
            "type": "disposant",
            "value": "Jean de Salm"
        },
        "5": {
            "type": "disposant",
            "value": "Jean de Bayon"
        },
        "6": {
            "type": "disposant",
            "value": "Jean de Pulligny"
        },
        "7": {
            "type": "disposant",
            "value": "Pierre de Remonville"
        },
        "8": {
            "type": "disposant",
            "value": "Wichard d'Amance"
        },
        "9": {
            "type": "disposant",
            "value": "Hugard de Germiny "
        },
        "10": {
            "type": "date",
            "value": " 1306\/08\/26",
            "children": {
                "date_deb_jour": "26",
                "date_deb_mois": "08",
                "date_deb_annee": "1306"
            },
            "range": {
                "date_apres": 13060826,
                "date_avant": 13060826
            }
        },
        "11": {
            "type": "date_lieu",
            "value": "Colombey"
        },
        "12": {
            "type": "cote",
            "value": "France, Nancy, Archives d\u00e9partementales de Meurthe-et-Moselle, 1 F 76"
        },
        "14": {
            "type": "langue",
            "value": "latin"
        },
        "15": {
            "type": "authenticite",
            "value": "non suspect\u00e9"
        },
        "16": {
            "type": "genre",
            "value": "Lettre"
        },
        "17": {
            "type": "type_source",
            "value": "Original"
        },
        "18": {
            "type": "analyse",
            "value": "Othon, \u00e9v\u00eaque de Toul, fait savoir que Renaud de Bourgogne, comte de Montb\u00e9liard, Jean de Salm, Jean de Bayon, Jean de Pulligny, Pierre de Remonville, Wichard d'Amance, Hugard de Germiny et plusieurs autres vassaux du duch\u00e9 de Lorraine, en pr\u00e9sence du duc Thi\u00e9baut (2), ont arr\u00eat\u00e9 la coutume suivante : d\u00e9sormais quand le fils a\u00een\u00e9 du duc de Lorraine d\u00e9c\u00e9dera avant son p\u00e8re en laissant des h\u00e9ritiers l\u00e9gitimes, fils ou filles, ceux-ci devront succ\u00e9der au duch\u00e9 avant tous autres."
        },
        "19": {
            "type": "transcription",
            "value": "<?xml version=\"1.0\" encoding=\"UTF-8\"?>\n\/01\/ In nomine Domini amen. Nos Otto, Dei gratia Tullensis episcopus, ad universorum notitiam deducimus per presentes quod spectabiles et nobiles \/02\/ viri Reinaldi de Burgundi, comes Montispligardi, Johannes dominus de Salmis, Johannes dominus de Bajone, Johannes dominus de Pulincigo \/03\/ Petrus dominus de Remunvilla, Wichardus de Amantia, Hugardus de Germicurt et alii quamplures nobiles \/04\/ et vassalli ducatus Lotharingie et in presentia illustris domini Theobaldi, ducis Lothoringie, et nostra ac aliorum fide \/05\/ dingnorum constituti per fidem qua dicto duci tenebantur asserebant et publice pretestati sunt jus esse et \/06\/ consuetudinem in ducatu Lothoringie jugiter a tempore cujus non exstat memoria hatbenus observatam ut quo-\/07\/-tiens filium primogenitum ducis Lothoringie qui pro tempore fuerit mori contigitur ante patrem relictis liberis le-\/08\/-gittimis masculis vel feminis uno vel pluribus ille vel illi in ducatu Lothoringie per omnibus aliis ipsius \/09\/ ducis heredibus debeant succedere loco patris. Et hanc consuetudinem quotienscumque in antea se casus ob-\/10\/-tulit in dicto ducatu promiserunt dicti nobiles quamtum in eis est manutenere et inviolabiliter observare. \/11\/ In cujus rei testimonium nostrum et predictorum nobilium sigilla presentibus sunt appensa. Nos igitur nobiles antedicti \/12\/ confitemur publice prescripta omnia et singula esse vera et in eorum testimonium sigilla nostra presentibus sunt \/13\/ appensa. Actum Columbarii feria sexta proxima prius festum beati Bartholomei apostoli anno Domini millesimo CCC\u00b0 \/14\/ six.\n"
        },
        "20": {
            "type": "note_dorsale",
            "value": "\u00ab\u00a01306. Un drois dit des grans \/ barons de Loherenne coment \/ li hoir de la duchi\u00e9 doient \/ heriter\u00a0\u00bb, XIV<sup>e<\/sup> s. ; \u00ab\u00a0 N\u00a0\u00bb, difficile de d\u00e9terminer la datation de cette note dorsale. "
        },
        "21": {
            "type": "edition",
            "value": "J. VIGNIER, <i>La V\u00e9ritable origine des tr\u00e8s illustres maisons d'Alsace, de Lorraine, d'Austriche, de Bade et de quantit\u00e9 d'autres avec les tables g\u00e9n\u00e9alogiques... des dites maisons... depuis l'an... 600 jusques \u00e0 pr\u00e9sent, le tout v\u00e9rifi\u00e9 par titres, chartres, monuments et histoires authentiques<\/i>, Paris, 1649. p. 149-150"
        },
        "22": {
            "type": "edition",
            "value": "FRANCE, Nancy, Biblioth\u00e8que municipale de Nancy, Ms 763 (anc. 177, tome X) Du Fourny, p. 170-171"
        },
        "23": {
            "type": "edition",
            "value": "J. DUMONT, <i>Corps universel diplomatique du droit des gens\u00a0; contenant un recueil des trait\u00e9s, d\u2019alliances, de paix, de tr\u00eaves [\u2026]<\/i>, Amsterdam ..., 1726. Tome I, 1<sup>er<\/sup> partie, n\u00b0 597 (avec date du 27 ao\u00fbt 1306). En ligne sur GALLICA\u00a0: t. I <a target=\"_blank\" href=\"http:\/\/gallica.bnf.fr\/ark:\/12148\/bpt6k1264885d\/f1.image\">http:\/\/gallica.bnf.fr\/ark:\/12148\/bpt6k1264885d\/f1.image<\/a>: ; t. II : <a target=\"_blank\" href=\"http:\/\/gallica.bnf.fr\/ark:\/12148\/bpt6k12648840\/f12.image\">http:\/\/gallica.bnf.fr\/ark:\/12148\/bpt6k12648840\/f12.image<\/a>"
        },
        "24": {
            "type": "edition",
            "value": "F. NO\u00cbL, Jean-Baptiste, <i>M\u00e9moires pour servir \u00e0 l\u2019histoire de Lorraine<\/i>, 6 parties en 5 vol., Nancy, 1838-1845. Livre 6, p. 93-94 (d\u2019apr\u00e8s b.)"
        },
        "25": {
            "type": "regeste",
            "value": "A.-M. MARIONNET, <i>Catalogues des actes Thi\u00e9baut II, duc de Lorraine (1303-1312)<\/i>. Dipl\u00f4me d\u2019\u00c9tudes Sup\u00e9rieures. \u2013 Nancy, 1947, n\u00b0 105"
        },
        "26": {
            "type": "regeste",
            "value": "H. LEVALLOIS, <i>Catalogue de l'histoire de France. Table g\u00e9n\u00e9rale alphab\u00e9tique des ouvrages anonymes<\/i>, Paris\u00a0: Biblioth\u00e8que nationale [1907\u00a0?]-1932. En ligne sur GALLICA\u00a0: <a target=\"_blank\" href=\"http:\/\/gallica.bnf.fr\/ark:\/12148\/bpt6k8535443\">http:\/\/gallica.bnf.fr\/ark:\/12148\/bpt6k8535443<\/a>"
        },
        "27": {
            "type": "responsable",
            "value": "Laura Gili-Th\u00e9baudeau"
        },
        "28": {
            "type": "acte_scelle",
            "value": "non"
        },
        "29": {
            "type": "sceau",
            "value": "Huit sceaux sur double queue perdus"
        },
        "30": {
            "type": "image_interne",
            "value": "http:\/\/telma-chartes.irht.cnrs.fr\/telma_img\/transscript\/transscript-FRAD054_1F76r.JPG"
        },
        "31": {
            "type": "image_interne",
            "value": "http:\/\/telma-chartes.irht.cnrs.fr\/telma_img\/transscript\/transscript-FRAD054_1F76v.JPG"
        },
        "32": {
            "type": "description",
            "value": "Original sur parchemin (120 x 275 mm), jadis scell\u00e9 de huit sceaux sur double queue"
        }
    }
}