{
    "id": 23682,
    "name": "transscript-507",
    "type": "acte",
    "url": "http:\/\/telma-chartes.irht.cnrs.fr\/transscript\/notice\/23682",
    "project_slug": "transscript",
    "project_label": "TRANSSCRIPT",
    "user": "t_salemme",
    "last_update": "2020-10-19 16:27:16",
    "licence": "Attribution - Pas d\u2019Utilisation Commerciale - Partage dans les M\u00eames Conditions 3.0 France (CC BY-NC-SA 3.0 FR) ",
    "licence_url": "https:\/\/creativecommons.org\/licenses\/by-nc-sa\/3.0\/fr\/",
    "elements": {
        "0": {
            "type": "auteur",
            "value": "Ermesinde, comtesse de Luxembourg"
        },
        "1": {
            "type": "auteur",
            "value": "Henri (5), comte de Luxembourg"
        },
        "2": {
            "type": "beneficiaire",
            "value": "Ermesinde, comtesse de Luxembourg"
        },
        "3": {
            "type": "beneficiaire",
            "value": "Henri (5), comte de Luxembourg"
        },
        "4": {
            "type": "destinataire",
            "value": "-"
        },
        "5": {
            "type": "disposant",
            "value": "Robert (de Thourotte), \u00e9v\u00eaque de Li\u00e8ge"
        },
        "6": {
            "type": "date",
            "value": " 1243\/02\/06",
            "children": {
                "date_deb_jour": "06",
                "date_deb_mois": "02",
                "date_deb_annee": "1243"
            },
            "range": {
                "date_apres": 12430206,
                "date_avant": 12430206
            }
        },
        "7": {
            "type": "date_libre",
            "value": "-"
        },
        "8": {
            "type": "date_lieu",
            "value": "-"
        },
        "9": {
            "type": "cote",
            "value": "BELGIQUE, Li\u00e8ge, Archives de l'\u00c9tat, Fonds cath\u00e9drale Saint-Lambert de Li\u00e8ge, n\u00b0 174"
        },
        "11": {
            "type": "description",
            "value": "Original sur parchemin (mm. 130\/127 x 112\/115\u00a0;\u00a0repli mm. 17) jadis scell\u00e9 de deux sceaux pendants sur double queue de parchemin"
        },
        "12": {
            "type": "langue",
            "value": "latin"
        },
        "13": {
            "type": "authenticite",
            "value": "non suspect\u00e9"
        },
        "14": {
            "type": "genre",
            "value": "Charte"
        },
        "15": {
            "type": "type_source",
            "value": "Original"
        },
        "16": {
            "type": "analyse",
            "value": "Ermesinde, comtesse de Luxembourg et son fils Henri (5) font savoir qu\u2019ils ont re\u00e7u de Robert (de Thourotte), \u00e9v\u00eaque de Li\u00e8ge, six cents marcs de Li\u00e8ge, pour lesquels ils sont devenus ses vassaux, comme ils l'\u00e9taient d\u00e9j\u00e0 de l'\u00e9v\u00eaque Jean (2) d'Eppes, pr\u00e9d\u00e9cesseur dudit Robert."
        },
        "17": {
            "type": "transcription",
            "value": "<?xml version=\"1.0\" encoding=\"UTF-8\"?>\n\/01\/ Nos Ermensendis, comitissa de Luceleborc, et Henricus, filius ejus, \/02\/ notum facimus universis presentibus et futuris quod nos a reverendo patre \/03\/ ac domino nostro Roberto, Dei gratia Leodiensi episcopo, in bona et numerata pecunia \/04\/ et cum omni integritate recepimus sexcentas marchas Leodienses, quibus median- \/05\/-tibus a reverendo quondam patre Johanne bone memorie et postmodum a dicto \/06\/ Roberto successore ejus, episcopis Leodiensibus, de terra nostra, prout in aliis litteris conti- \/07\/-netur, in feodum et homagium accepimus\u00a0; volentes quod, si que littere \/08\/ testimoniales super dicta pecunie quantitate sigillo dicti Johannis episcopi seu capituli Leodiensis \/09\/ alteriusve cujuslibet persone processu temporis inuente fuerint, nullius optine- \/10\/-ant roboris firmitatem. Actum anno Domini .Mo. .CCo. quadragesimo \/11\/ secundo, mense februario, feria sexta post purificationem beate Virginis.\n"
        },
        "18": {
            "type": "remarques",
            "value": "-"
        },
        "19": {
            "type": "mention_hors_teneur",
            "value": "-"
        },
        "20": {
            "type": "note_dorsale",
            "value": "\u00ab [\u2026] ne [\u2026] Luccemburgensis\u00a0\u00bb, XIII<sup>e<\/sup> s. (\u00a0?)\u00a0; \u00ab\u00a0Cassa 13 2<sup>di<\/sup> armarii. Quitantia comitis et comitisse Luxemburgensium de sexcentis marcis ipsis solutis ab episcopo Leodense. 1242. Liber supernumerario n\u00b0 73\u00a0\u00bb, XVIII<sup>e<\/sup> s.\u00a0; \u00ab\u00a0Vide aliam in liber I\u00b0 n\u00b0 245, de anno 1343\u00a0\u00bb, XVIII<sup>e<\/sup> s.\u00a0; \u00ab\u00a0140\u00a0\u00bb, XVIII<sup>e<\/sup> s.\n"
        },
        "21": {
            "type": "edition",
            "value": "S.\u00a0p. ERNST, <i>Histoire du Limbourg suivie de celle des comt\u00e9s de Daelhem et de Fauquemont, des annales de l'abbaye de Rolduc<\/i>, t. VI, Li\u00e8ge 1847, n\u00b0 164, p. 227-228 "
        },
        "22": {
            "type": "edition",
            "value": "S. BORMANS, E. SCHOOLMEESTERS, <i>Cartulaire de l\u2019\u00e9glise Saint-Lambert de Li\u00e9ge<\/i>, t. I, Bruxelles 1893, n\u00b0 CCCLIV, p. 438-439"
        },
        "23": {
            "type": "edition",
            "value": "C. WAMPACH, <i>Urkunden-und Quellenbuch zur Geschichte der altluxemburgischen Territorien bis zur burgundischen Zeit<\/i>, t. II, Luxemburg 1938, n\u00b0 414, p. 454-455"
        },
        "24": {
            "type": "edition",
            "value": "<a target=\"_blank\"\u00a0 href=\"http:\/\/www.diplomata-belgica.be\/charter_details_fr.php?dibe_id=21996#rinav\"> Diplomata Belgica<\/a>"
        },
        "25": {
            "type": "regeste",
            "value": "J.-G. SCHOONBROODT, <i>Inventaire analytique et chronologique des chartes du chapitre de Saint-Lambert \u00e0 Li\u00e9ge<\/i>, Li\u00e8ge 1863, n\u00b0 153, p. 43"
        },
        "26": {
            "type": "regeste",
            "value": "A. WAUTERS, <i>Table chronologique des chartes et dipl\u00f4mes imprim\u00e9s concernant l\u2019histoire de la Belgique<\/i>, t. IV, <i>1226-1250<\/i>, Bruxelles 1874, p. 387"
        },
        "27": {
            "type": "regeste",
            "value": "E. SCHOOLMEESTERS, <i>Les r\u00e9gestes de Robert de Thourotte, prince-\u00e9v\u00eaque de Li\u00e9ge<\/i>, in Bulletin de la Soci\u00e9t\u00e9 d\u2019art et d\u2019histoire, XV (1907), p. 33-34"
        },
        "28": {
            "type": "mention",
            "value": "-"
        },
        "29": {
            "type": "sources_manuscrites",
            "value": "BELGIQUE, Li\u00e8ge, Archives de l'\u00c9tat, Fonds cath\u00e9drale Saint-Lambert de Li\u00e8ge, cartulaire 50, f\u00b0 69r (XVII<sup>e<\/sup> s.)",
            "children": {
                "type_source": "Registre"
            }
        },
        "30": {
            "type": "responsable",
            "value": "Timothy Salemme"
        },
        "31": {
            "type": "image_interne",
            "value": "http:\/\/telma-chartes.irht.cnrs.fr\/telma_img\/transscript\/transscript-DSC07437.JPG"
        },
        "32": {
            "type": "acte_scelle",
            "value": "non"
        },
        "33": {
            "type": "sceau",
            "value": "Sceau pendant de la comtesse Ermesinde de Luxembourg, perdu",
            "children": {
                "sigilla": ""
            }
        },
        "34": {
            "type": "sceau",
            "value": "Sceau pendant du comte Henri (5) de Luxembourg, perdu"
        },
        "35": {
            "type": "image_interne",
            "value": "http:\/\/telma-chartes.irht.cnrs.fr\/telma_img\/transscript\/transscript-DSC07439.JPG"
        }
    }
}