{
    "id": 312,
    "name": "transscript-184",
    "type": "acte",
    "url": "http:\/\/telma-chartes.irht.cnrs.fr\/transscript\/notice\/312",
    "project_slug": "transscript",
    "project_label": "TRANSSCRIPT",
    "user": "l_gili",
    "last_update": "2020-10-19 16:24:55",
    "licence": "Attribution - Pas d\u2019Utilisation Commerciale - Partage dans les M\u00eames Conditions 3.0 France (CC BY-NC-SA 3.0 FR) ",
    "licence_url": "https:\/\/creativecommons.org\/licenses\/by-nc-sa\/3.0\/fr\/",
    "elements": {
        "0": {
            "type": "analyse",
            "value": "Henrion de Neufch\u00e2teau, bailli de Lorraine, partage au nom du duc et pour son profit, la tuilerie de Brichambeau dont le duc poss\u00e9dait une partie, avec le prieur\u00e9 de Vandoeuvre qui tenait le reste, de telle mani\u00e8re qu\u2019ils seront d\u00e9sormais de moiti\u00e9 en moiti\u00e9 partout et ne pourront vendre ladite tuilerie que par commun accord."
        },
        "1": {
            "type": "auteur",
            "value": "Henrion de Neufch\u00e2teau, bailli de Lorraine"
        },
        "2": {
            "type": "beneficiaire",
            "value": "Thi\u00e9baut (2), duc de Lorraine et marquis"
        },
        "3": {
            "type": "beneficiaire",
            "value": "Prieur\u00e9 de Vandoeuvre"
        },
        "4": {
            "type": "disposant",
            "value": "Henrion de Neufch\u00e2teau, bailli de Lorraine"
        },
        "5": {
            "type": "authenticite",
            "value": "non suspect\u00e9"
        },
        "6": {
            "type": "cote",
            "value": "FRANCE, Nancy, Archives d\u00e9partementales de Meurthe-et-Moselle, G 388"
        },
        "7": {
            "type": "responsable",
            "value": "Laura Gili-Th\u00e9baudeau"
        },
        "8": {
            "type": "date",
            "value": " 1311\/01\/11",
            "children": {
                "date_deb_annee": "1311",
                "date_deb_mois": "01",
                "date_deb_jour": "11"
            },
            "range": {
                "date_apres": 13110111,
                "date_avant": 13110111
            }
        },
        "10": {
            "type": "regeste",
            "value": "A.-M. MARIONNET, <i>Catalogue des actes de Thi\u00e9baut II, duc de Lorraine (1303-1312) <\/i>, dipl\u00f4me d'\u00e9tudes sup\u00e9rieures de l'Universit\u00e9 Nancy II, Nancy, [1947], n\u00b0 189"
        },
        "11": {
            "type": "genre",
            "value": "Lettre"
        },
        "12": {
            "type": "langue",
            "value": "fran\u00e7ais"
        },
        "13": {
            "type": "note_dorsale",
            "value": "\u00c0 l\u2019envers par rapport au sens de l\u2019\u00e9criture de l\u2019acte\u00a0: \u00ab\u00a0Pe(r) le prieur[\u00e9] \/ de Venidivrez. \/ La tuleriz\u00a0\u00bb, XIV<sup>e<\/sup>-XV<sup>e<\/sup> s. Perpendiculairement \u00e0 cette \u00e9criture, d\u2019une main plus tardive\u00a0: \u00ab\u00a0Tuilerie de Brichambaule \/ 1310, 7 janvier\u00a0\u00bb, XVII<sup>e<\/sup>  s."
        },
        "14": {
            "type": "transcription",
            "value": "<?xml version=\"1.0\" encoding=\"UTF-8\"?>\n\/01\/ Saichent tuit que Hanrions dou Nuefchastel, ballis de Lorengne, ait recogneu que \/02\/ comme mez sires li dus eust aucune partie en la teulerie de Brichambaul et li priorez de \/03\/ Vanduevre i eust tout le remenant, assavoir est que li dis ballis si comme il dit de la volun-\/04\/-tei de l\u2019otroi monsignor le duc et de son comandement pour l\u2019avansement et le profit mon-\/05\/-signor le duc ait faite compaingnie bone et loial pour monsignor de la dite teulerie de \/06\/ Brichambal a priour de Venduevre en teil meniere que mez sires li dus li dis priours \/07\/ et lour successour soit compaingnon communement ensamble de totes mises et retenues de la dite \/08\/ teulerie de Brichambaul de totes ixues, profis et revenues que en ladite teulerie pouront \/09\/ estre et venir et de totes costanges en quelque meniere que ceu soit il seront de moiti\u00e9 \/10\/ en moiti\u00e9 partout sans fraude et sans barart a touz jours maiz et doit on vendre ladite \/11\/ teulerie a touz jours maiz par commun acort emsamble a celui qui plus i vonroit donner en \/12\/ bone meniere ne li une dez parties, ne puet estre vendue en nule meniere que li autre par-\/13\/-tie que moins seroit vendue ou que vendue ne seroit nait la moiti\u00e9 entieremant en la partie \/14\/ que plus seroit vendue en tout l\u2019emoliment et le profit que venir an pouroit et seroient \/15\/ bonement de touz profis et de totes costances pour raison de ladite teulerie compaignon en-\/16\/-samble de moiti\u00e9 en moiti\u00e9 en tesmongnaige de la queil chose sont ces letres saeleez dou sael mon-\/17\/-signor le duc de sa court de Nancey sauf son droit et l\u2019autrui a la priere et a la requeste \/18\/ dou dit ballis et de ceu ne puet an demander monsignor le duc fort que tesmong-\/19\/-naige ceu fut fait le lundi apr\u00e9s l\u2019apparition nostre Signor, le milliaire courant par \/20\/ mil troiz cens et deix ans, on moiz de jamvrier.\n"
        },
        "15": {
            "type": "type_source",
            "value": "Original"
        },
        "16": {
            "type": "acte_scelle",
            "value": "non"
        },
        "17": {
            "type": "id_telma",
            "value": "630359"
        },
        "18": {
            "type": "sceau",
            "value": "Un sceau sur double queue de parchemin perdu"
        },
        "19": {
            "type": "image_interne",
            "value": "http:\/\/telma-chartes.irht.cnrs.fr\/telma_img\/transscript\/FRAD054_G388r.JPG"
        },
        "20": {
            "type": "image_interne",
            "value": "http:\/\/telma-chartes.irht.cnrs.fr\/telma_img\/transscript\/FRAD054_G388v.JPG"
        },
        "21": {
            "type": "remarques",
            "value": "Thi\u00e9baut (2) est sigillant de l\u2019acte. "
        },
        "22": {
            "type": "description",
            "value": "Original sur parchemin, jadis scell\u00e9 sur double queue"
        }
    }
}