{
    "id": 146963,
    "name": "transscript-1104",
    "type": "acte",
    "url": "http:\/\/telma-chartes.irht.cnrs.fr\/transscript\/notice\/146963",
    "project_slug": "transscript",
    "project_label": "TRANSSCRIPT",
    "user": "d_remy",
    "last_update": "2020-10-19 16:39:25",
    "licence": "Attribution - Pas d\u2019Utilisation Commerciale - Partage dans les M\u00eames Conditions 3.0 France (CC BY-NC-SA 3.0 FR) ",
    "licence_url": "https:\/\/creativecommons.org\/licenses\/by-nc-sa\/3.0\/fr\/",
    "elements": [
        {
            "type": "auteur",
            "value": "Bouchard, \u00e9v\u00eaque de Metz "
        },
        {
            "type": "auteur",
            "value": "Ferry (3), duc de Lorraine"
        },
        {
            "type": "beneficiaire",
            "value": "Bouchard, \u00e9v\u00eaque de Metz "
        },
        {
            "type": "beneficiaire",
            "value": "Ferry (3), duc de Lorraine"
        },
        {
            "type": "disposant",
            "value": "Bouchard, \u00e9v\u00eaque de Metz "
        },
        {
            "type": "disposant",
            "value": "Ferry (3), duc de Lorraine"
        },
        {
            "type": "date",
            "value": "1290\/08\/24",
            "children": {
                "date_deb_annee": "1290",
                "date_deb_mois": "08",
                "date_deb_jour": "24"
            },
            "range": {
                "date_apres": 12900824,
                "date_avant": 12900824
            }
        },
        {
            "type": "cote",
            "value": "FRANCE, Saint-Julien-l\u00e8s-Metz, Archives d\u00e9partementales de la Moselle, G446-2"
        },
        {
            "type": "description",
            "value": "Parchemin en bon \u00e9tat"
        },
        {
            "type": "langue",
            "value": "Fran\u00e7ais"
        },
        {
            "type": "authenticite",
            "value": "non suspect\u00e9"
        },
        {
            "type": "genre",
            "value": "Charte"
        },
        {
            "type": "type_source",
            "value": "Original"
        },
        {
            "type": "analyse",
            "value": "Bouchard, \u00e9v\u00eaque de Metz, et ses alli\u00e9s, le seigneur de Salm et ses fils, le seigneur de Forbach, Thibaut de Neufch\u00e2teau d'une part, le duc Ferry et Conrad de R\u00e9chicourt d'autre part d\u00e9clarent s'en rapporter, pour le r\u00e8glement du conflit qui les opposent, \u00e0 Ferry, pr\u00e9v\u00f4t de Strasbourg, grand archidiacre de Metz, et \u00e0 Jacques de Bayon. Les d\u00e9saccords entre ces derniers seront soumis \u00e0 l'arbitrage de Jean de Dampierre, seigneur de Saint Dizier."
        },
        {
            "type": "transcription",
            "value": "<?xml version=\"1.0\" encoding=\"UTF-8\"?>\n\/01\/ Nous Bouchars par la graice de Deu evekes de Mez et Ferris \/02\/ dus de Lorreigne et marchis faisons savoir a tous que de tous les \/03\/ descoirs et les bestens qui estoient entre nous eveke desus dit et lou \/04\/ seignor de Salmes et ses anfans et lou seignor de Fourpach et \/05\/ lou seignor Thiebaut dou Nuefchastel et tous noz aidans d'une \/06\/ part et nous Ferri duc de Lorreigne et marchis et Conrault de \/07\/ Rechiecourt et tous noz aidans d'autre part et de tout ceu que nous poiens \/08\/ demander li uns l'autre jusques a jour dui, nous eveskes et dus desus \/09\/ dit en avons fait acoirt en tel meniere que nous nous an sommes mis dou \/10\/ tout de haut et de bais pour nous et pour noz aidans sus honorable home \/11\/ Ferri domprevost de Strabourch et grant arcediacre de Mez et mon seignor \/12\/ Jaike seignour de Baon, en tel meniere que teil paix et teil rapoirt com \/13\/ il an raporteront jusques a la feste Nostre Dame en septembre prochiennement \/14\/ venant par droit ou par amour ou par voluntei par lour lettres pandans \/15\/ soit de tout ou de partie, nous le devons tenir\u00a0; et de tout ceu dont il se \/16\/ descorderoient, nous nous an sommes mis sor mon seignour Jehan de Dampierre \/17\/ seignour de Seint Dezier, en tel meniere que teil paix et teil rapoirt com li dis sires \/18\/ Jehans an raporterai jusques a la feste Tous Seins prochiennement venant par \/19\/ droit ou par amour ou par voluntei par ses lettres pandans, nous le devons \/20\/ tenir lealment. Et se il n'avoit fait son rapoirt jusques a la feste Tous \/21\/ Seins desus dite, il doit as octaves de la feste seint Andreu qui or vient en-\/22\/-trer en Commercei, ne n'an doit partir par son sarrement se par noz greis \/23\/ n'estoit que il n'i resoit chacune nuit tant que il ait fait son rapoirt par \/24\/ ses lettres pandans. Et teil paix et teils rapoirt com il feroit par ses lettres \/25\/ pandans, nous le devons tenir leament. Et toutes ces choses ensi com elles sont \/26\/ ci desus devisees avons nous promis et creantei par noz fois et par noz \/27\/ sarrement corporelment doneis a tenir et a faire tenir sans aler encontre \/28\/ par nous ne par autrui en tout ne en partie. Et se nous nez teniens et fai-\/29\/-siens tenir cil en cui il demourroit seroit encheuz et poinne de deix mile \/30\/ livres de meceins et seroit tenuz de paier les dites deix mile livres a celui \/31\/ qui tenroit lou rapoirt et seroit perjurs\u00a0; et auroit toirt en la querelle cil qui \/32\/ lou rapoirt ne tenroit. Et pour ceu que ce soit ferme choses et estable nous avons \/33\/ saelei ces lettres de noz seelz en tesmoingnaige de veritei\u00a0; et a noz proieres et a \/34\/ noz requestes mes sires Jehans de Dampierre sires de Seint Dezier eit mis \/35\/ son seel a ces presentes lettres avec les nostres en tesmoingnaige de veritei \/36\/ et je Jehans de Dampierre desus dis ai mis mon seel a ces presentes lettres \/37\/ en tesmoingnaige de veritei a la proiere et a la requeste des desus dis eveke \/38\/ et duc avec lour seelz. Ceu fut fait l'an de graice Nostre Seignour \/39\/ mil dous cens quatre vins et deix ans lou jour de feste seint Bar-\/40\/-tremeu l'apostre.\n"
        },
        {
            "type": "note_dorsale",
            "value": "\u00ab\u00a0 de l'an 1270 \/ un compromis fait par \/ Bouchard evesque de Metz \/ le duc de Lorraine et \/ davant seignours pour \/ reglere plusiours differans \/ qu'ils avoient entre eux\u00a0\u00bb\r\n\u00ab\u00a01280 \/ le jour de la St barthelemy \/ apostres\u00a0\u00bb XVIII\u00e8me (?)\r\n\u00ab\u00a0 c'est la mise de mon signour \/ l'eveske et dou duc\u00a0\u00bb XIV\u00e8me (?)"
        },
        {
            "type": "regeste",
            "value": " J. DE PANGE, <i>Catalogue des actes de Ferri III, duc de Lorraine (1251-1303) <\/i>, Paris, 1930, 285 p. n\u00b0945 + <i>Table des noms de personnes et des noms de lieux contenus dans le catalogue<\/i> (p. I-XXIX)"
        },
        {
            "type": "sources_manuscrites",
            "value": "A- Original, FRANCE, Saint-Julien-l\u00e8s-Metz, Archives d\u00e9partementales de la Moselle, G446\r\nB- Copie, FRANCE, Bar-le-Duc, Archives d\u00e9partementales de le Meuse, B256 f\u00b0241 v\u00b0"
        },
        {
            "type": "responsable",
            "value": "Isabelle Guyot Bachy, Denis Remy"
        },
        {
            "type": "image_interne",
            "value": "http:\/\/telma-chartes.irht.cnrs.fr\/telma_img\/transscript\/transscript-FRAD057_G446_2(1).JPG"
        },
        {
            "type": "image_interne",
            "value": "http:\/\/telma-chartes.irht.cnrs.fr\/telma_img\/transscript\/transscript-FRAD057_G446_2_dos.JPG"
        },
        {
            "type": "acte_scelle",
            "value": "oui"
        },
        {
            "type": "sceau",
            "value": "Perdus."
        }
    ]
}