{
    "id": 321,
    "name": "transscript-190",
    "type": "acte",
    "url": "http:\/\/telma-chartes.irht.cnrs.fr\/transscript\/notice\/321",
    "project_slug": "transscript",
    "project_label": "TRANSSCRIPT",
    "user": "l_gili",
    "last_update": "2020-10-19 16:24:55",
    "licence": "Attribution - Pas d\u2019Utilisation Commerciale - Partage dans les M\u00eames Conditions 3.0 France (CC BY-NC-SA 3.0 FR) ",
    "licence_url": "https:\/\/creativecommons.org\/licenses\/by-nc-sa\/3.0\/fr\/",
    "elements": {
        "0": {
            "type": "analyse",
            "value": "Thi\u00e9baut (2) d\u00e9clare qu\u2019en sa pr\u00e9sence Jean de Germiny, chevalier, et l\u2019abb\u00e9 de Clairlieu ont fait accord aux conditions suivantes : Jean donne au couvent de Clairlieu les grosses d\u00eemes, le ban de Houdemont et le 1\/4 des fours de Germiny ; le couvent laisse en viager \u00e0 Jean ce m\u00eame quart et tout le reste des fours de Germiny qu\u2019il poss\u00e9dait d\u00e9j\u00e0, avec le moulin situ\u00e9 sous Germiny, moyennant paiement de 20 sous de toulois \u00e0 la Saint Remy."
        },
        "1": {
            "type": "auteur",
            "value": "Thi\u00e9baut (2), duc de Lorraine et marquis"
        },
        "2": {
            "type": "beneficiaire",
            "value": "Abbaye de Clairlieu "
        },
        "3": {
            "type": "beneficiaire",
            "value": "Jean de Germiny, chevalier"
        },
        "4": {
            "type": "disposant",
            "value": "Jean de Germiny, chevalier"
        },
        "5": {
            "type": "disposant",
            "value": "Abb\u00e9 de Clairlieu "
        },
        "6": {
            "type": "authenticite",
            "value": "non suspect\u00e9"
        },
        "7": {
            "type": "cote",
            "value": "FRANCE, Nancy, Archives d\u00e9partementales de Meurthe-et-Moselle, H 511"
        },
        "8": {
            "type": "responsable",
            "value": "Laura Gili-Th\u00e9baudeau"
        },
        "9": {
            "type": "date",
            "value": " 1304\/03\/19",
            "children": {
                "date_deb_annee": "1304",
                "date_deb_mois": "03",
                "date_deb_jour": "19"
            },
            "range": {
                "date_apres": 13040319,
                "date_avant": 13040319
            }
        },
        "11": {
            "type": "regeste",
            "value": "A.-M. MARIONNET, <i>Catalogue des actes de Thi\u00e9baut II, duc de Lorraine (1303-1312)<\/i>, dipl\u00f4me d'\u00e9tudes sup\u00e9rieures de l'Universit\u00e9 Nancy II, Nancy, [1947], n\u00b0 63"
        },
        "12": {
            "type": "genre",
            "value": "Lettre"
        },
        "13": {
            "type": "langue",
            "value": "fran\u00e7ais"
        },
        "14": {
            "type": "transcription",
            "value": "<?xml version=\"1.0\" encoding=\"UTF-8\"?>\n\/01\/ Nous Thiebaus, dus et marchis de Lorregne, faisons savoir a tous que pour ce estaubli en nostre presence mes-\/02\/-sires Jehans de Germenei chevalier, d\u2019une part, et li abb\u00e9s de Cleirleu pour lui et pour lo covent, d\u2019autre part, ont recog-\/03\/-neu par davant nos qu\u2019il ont fait convenances et acort ensemble ensi com ci apr\u00e9s est devisei : messer Jehans recognoit pour lui \/04\/ et pour sez hoirs qu\u2019il ait donnei et donne a l\u2019abbei et au covent de Clerleu en perpetuitei toute sa pertie entierement \/05\/ qu\u2019il at puet et dut avoir es gros disines de la ville et dou ban de Houdemont sans riens a retenir et les an met meintenant en possession \/06\/ et lour ait encor donnei pour Deu et en amone en perpetuitei lo quart des fours que sunt et seront a Germenei, sauf ceu que li sires Jehans \/07\/ recognoit que li dis abb\u00e9s pour lui et pour lo covent li ont laxi\u00e9 celui quart et les trois pars qu\u2019il avoient ja ens fours de Germe-\/08\/-ney qui sunt et doient estre bannal, et lo molin qu\u2019il avoient desous la ville de Germenei a la vie monsignour Jehan et ma dame So-\/09\/-phie, sa feme, tant solement parmei ceu qu\u2019il an doient randir toute lour vie et paier a Cleirleu chascun an vint solz de Tou-\/10\/-lois de huit cens lou jour de la Seint Remei en tel meniere que, s\u2019il deifailloient de paiement plus que de eut jours apr\u00e9s la Seint \/11\/ Remei, lidit vint solz seroient doubl\u00e9 et, s\u2019il deifailloient dou cens et dou double, lidit abb\u00e9s et covens iroient a lour heritege \/12\/ et la suiroient et meteroient en lor demoinne as us et as costumes dou pais et apr\u00e9s le decet de monsignour Jehan et de madame \/13\/ Sofie, sa feme, doient revenir li four et li molins a l\u2019abbei et au covent de Cleirleu sans riens a reclamer des hoirs monsignour \/14\/ Jehan ne de sa feme et ont encor promis messer Jehans et sa feme pour eaz et pour lour hoirs qu\u2019il ne pueent ne ne doient \/15\/ faire empanchement en l\u2019estanc qui est desour lo molin delors lo rui qui vient a la ruee dou molin par quoi cele eawe de celui \/16\/ estanc ne vegne tous jours en l\u2019aidance dou molin. Et recognoit lidis abb\u00e9s de Cleirleu pour lui et pour le covent que quant li molins \/17\/ et li fours lour seroient revenu apres les dec\u00e8s de monsignour Jehan et de dame Sofie, sa feme, et il avenoit qu\u2019il les vocissent \/18\/ metre fuers de lour meins par laix ou par vandaige il otroient que li hoir monsignour Jehan l\u2019eussent pour tant com il an \/19\/ pourroient a[vo]ir a d\u2019autres gens. Et pour ce que ce ces choses soient fermes et estaubles sunt ces lettres saielees dou seel de nostre \/20\/ court de Nancei sauf nostre droit et l\u2019autrui a la requeste de monsignour Jehan, de dame Sofie, sa feme, et de l\u2019abbei davant \/21\/ dit. Et de ceu ne nos puet an demandeir fors que tesmoignaige. Ceu fut fait lo jeudi davant feste nostre Dame, en mars lo \/22\/ miliaire courrant par mil trois cens et troiz ans.\n"
        },
        "15": {
            "type": "type_source",
            "value": "Original"
        },
        "16": {
            "type": "acte_scelle",
            "value": "non"
        },
        "17": {
            "type": "id_telma",
            "value": "630365"
        },
        "18": {
            "type": "sceau",
            "value": "Un sceau sur double queue de parchemin perdu"
        },
        "19": {
            "type": "image_interne",
            "value": "http:\/\/telma-chartes.irht.cnrs.fr\/telma_img\/transscript\/FRAD054_H511r.JPG"
        },
        "20": {
            "type": "image_interne",
            "value": "http:\/\/telma-chartes.irht.cnrs.fr\/telma_img\/transscript\/FRAD054_H511v.JPG"
        },
        "21": {
            "type": "disposant",
            "value": "Sophie, femme de Jean de Germiny, chevalier"
        },
        "22": {
            "type": "description",
            "value": "Original sur parchemin (185 x 164 mm), jadis scell\u00e9 sur double queue"
        },
        "23": {
            "type": "note_dorsale",
            "value": "\u00ab Lettre pour les dimes de Houdeemont (<i>sic<\/i>) \/ et fours de Herminey (<i>sic<\/i>) \u00bb, \u00ab Li abb\u00e9s de Cleirlieu ii s(...) \u00bb, \u00ab Gemeney \u00bb, XIV<sup>e<\/sup> s. ; \u00ab Germeney \u00bb, XV<sup>e<\/sup> s. ; \u00ab Hordelmont et Germiny \u00bb, XVI<sup>e<\/sup> s."
        }
    }
}