{
    "id": 24999,
    "name": "transscript-622",
    "type": "acte",
    "url": "http:\/\/telma-chartes.irht.cnrs.fr\/transscript\/notice\/24999",
    "project_slug": "transscript",
    "project_label": "TRANSSCRIPT",
    "user": "t_salemme",
    "last_update": "2020-10-19 16:27:38",
    "licence": "Attribution - Pas d\u2019Utilisation Commerciale - Partage dans les M\u00eames Conditions 3.0 France (CC BY-NC-SA 3.0 FR) ",
    "licence_url": "https:\/\/creativecommons.org\/licenses\/by-nc-sa\/3.0\/fr\/",
    "elements": {
        "0": {
            "type": "auteur",
            "value": "Jean (l'Aveugle), roi de Boh\u00eame et de Pologne et comte de Luxembourg"
        },
        "1": {
            "type": "beneficiaire",
            "value": "Guillaume (1), comte de Hainaut et de Hollande"
        },
        "2": {
            "type": "destinataire",
            "value": "-"
        },
        "3": {
            "type": "disposant",
            "value": "Jean (l'Aveugle), roi de Boh\u00eame et de Pologne et comte de Luxembourg"
        },
        "4": {
            "type": "date",
            "value": " 1335\/03\/01",
            "children": {
                "date_deb_jour": "01",
                "date_deb_mois": "03",
                "date_deb_annee": "1335"
            },
            "range": {
                "date_apres": 13350301,
                "date_avant": 13350301
            }
        },
        "5": {
            "type": "date_libre",
            "value": "-"
        },
        "6": {
            "type": "date_lieu",
            "value": "Valenciennes"
        },
        "7": {
            "type": "cote",
            "value": "BELGIQUE, Mons, Archives de l\u2019\u00c9tat, Chartes des comtes de Hainaut, n\u00b0 703"
        },
        "9": {
            "type": "description",
            "value": "Original sur parchemin (mm. 275 x 80, dont queue mm. 13) scell\u00e9 sur simple queue de parchemin (attache parisienne)"
        },
        "10": {
            "type": "langue",
            "value": "fran\u00e7ais"
        },
        "11": {
            "type": "authenticite",
            "value": "non suspect\u00e9"
        },
        "12": {
            "type": "genre",
            "value": "Lettre"
        },
        "13": {
            "type": "type_source",
            "value": "Original"
        },
        "14": {
            "type": "analyse",
            "value": "Jean (l\u2019Aveugle), roi de Boh\u00eame, de Pologne et comte de Luxembourg, fait savoir qu\u2019il s\u2019engage \u00e0 payer \u00e0 Guillaume (1er), comte de Hainaut et de Hollande, la somme de mille florins de Florence que ce dernier lui avait avanc\u00e9e au tournoi de Cond\u00e9 (-sur-Escaut)."
        },
        "15": {
            "type": "transcription",
            "value": "<?xml version=\"1.0\" encoding=\"UTF-8\"?>\n\/01\/ Jehans, par le grace de Dieu rois de Behangne, de Poulaine et contes de Lussembourc, faisons savoir a tous ke nous devons a no tres chier et tres amet \/02\/ oncle et cousin le conte de Haynnaut et de Hollande, lesquels il nous a prestes et delivres en deniers ses a no grant besoing et a no priiere, cest jour \/03\/ des Cendres ore que nous aviemes estet au tournoy a Condet, mille florins de Florence d\u2019or et de pois souffissans ; lequele somme de florins \/04\/ nous li promettons et avons encouvent a rendre et a paiier dedens le jour de Penthecouste prochainement venant. Et a chou avons nous obligiet \/05\/ et obligons tous nos biens et les biens de nos hoirs et de nos successeurs, meubles et non meubles, presens et a venir, pour paiier et rendre les mil florins \/06\/ devant dis dedens le jour devant nommet en boine foit loyalment. Par le tiesmoing de ces lettres sayellees de no seel, donnees a Valenchiennes, le jour des Cendres, \/07\/ l\u2019an .M. .CCC. trente et quatre.\n"
        },
        "16": {
            "type": "remarques",
            "value": "-"
        },
        "17": {
            "type": "mention_hors_teneur",
            "value": "-"
        },
        "18": {
            "type": "note_dorsale",
            "value": "\u00ab .IIII. \u00bb, XIV<sup>e<\/sup> s. ; \u00ab Lettres de .M. florences ke li roys de Behaing ne doit monseigneur \u00bb, XIV<sup>e<\/sup> s. ; \u00ab 287 \u00bb, \u00ab Z 47 \u00bb, XVII<sup>e<\/sup>-XVIII<sup>e<\/sup> s. ; \u00ab obligation \u00bb, XVIII<sup>e<\/sup> s. ; \u00ab 1334 \u00bb, XVIII<sup>e<\/sup> s. "
        },
        "19": {
            "type": "edition",
            "value": "F. VAN MIERIS, <i>Groot Charterboek der Graven van Holland, van Zeeland en heeren van Vriesland<\/i>, t. 2, Leyden, 1754, p. 339"
        },
        "20": {
            "type": "edition",
            "value": "J. DE SAINT-GENOIS, <i>Monuments anciens essentiellement utiles \u00e0 la France, aux Provinces de Hainaut, Flandre, Brabant, Namur, Artois, Li\u00e8ge, Hollande, Z\u00e9lande, Frise, Cologne et autres Pays limitrophes de l\u2019Empire<\/i>, t. 1, Paris 1782, p. 406"
        },
        "21": {
            "type": "regeste",
            "value": "F.-X. W\u00dcRTH-PAQUET, <i>Table chronologique des chartes et dipl\u00f4mes relatifs au r\u00e8gne de Jean, roi de Boh\u00eame et comte de Luxembourg<\/i>, in Publications de la Section historique, XX (1865), n\u00b0 1055"
        },
        "22": {
            "type": "regeste",
            "value": "A. WAUTERS, <i>Table chronologique des chartes et dipl\u00f4mes concernant l'histoire de la Belgique<\/i>, IX, <i>(1321-1329)<\/i>, Bruxelles 1896, p. 535"
        },
        "23": {
            "type": "regeste",
            "value": "G. WYMANS, <i>Inventaire analytique du chartrier de la Tr\u00e9sorerie des comtes de Hainaut (Archives g\u00e9n\u00e9rales du Royaume et archives de l\u2019Etat dans les provinces. Archives de l\u2019Etat \u00e0 Mons, inv. 72)<\/i>, Bruxelles 1985, p. 154"
        },
        "24": {
            "type": "mention",
            "value": "-"
        },
        "25": {
            "type": "sources_manuscrites",
            "value": "-",
            "children": {
                "type_source": "",
                "source_edition": ""
            }
        },
        "26": {
            "type": "responsable",
            "value": "Timothy Salemme"
        },
        "27": {
            "type": "acte_scelle",
            "value": "oui"
        },
        "28": {
            "type": "sceau",
            "value": "Sceau secret armorial de Jean l\u2019Aveugle, \u00e0 l\u2019\u00e9cu \u00e9cartel\u00e9 aux 1 et 4 de Boh\u00eame et aux 2 et 3 de Luxembourg, pos\u00e9 sur une aigle. L\u00e9gende : [+ SECRETVM IOH\u2019IS REGIS] BOEMIE ET [COMITIS LVCCEL]BVRGEN\u2019"
        },
        "29": {
            "type": "image_interne",
            "value": "http:\/\/telma-chartes.irht.cnrs.fr\/telma_img\/transscript\/transscript-703-3.jpg"
        },
        "30": {
            "type": "image_interne",
            "value": "http:\/\/telma-chartes.irht.cnrs.fr\/telma_img\/transscript\/transscript-703-2.jpg"
        },
        "31": {
            "type": "regeste",
            "value": "J. VANN\u00c9RUS, <i>Les chartes luxembourgeoises conserv\u00e9es dans la Tr\u00e9sorerie des comtes de Hainaut aux Archives de l\u2019\u00c9tat \u00e0 Mons<\/i>, Annales de l\u2019Institut arch\u00e9ologique du Luxembourg, XXXVII (1902), n\u00b0 70, p. 183"
        }
    }
}