{
    "id": 140,
    "name": "transscript-74",
    "type": "acte",
    "url": "http:\/\/telma-chartes.irht.cnrs.fr\/transscript\/notice\/140",
    "project_slug": "transscript",
    "project_label": "TRANSSCRIPT",
    "user": "t_salemme",
    "last_update": "2020-10-19 16:24:53",
    "licence": "Attribution - Pas d\u2019Utilisation Commerciale - Partage dans les M\u00eames Conditions 3.0 France (CC BY-NC-SA 3.0 FR) ",
    "licence_url": "https:\/\/creativecommons.org\/licenses\/by-nc-sa\/3.0\/fr\/",
    "elements": {
        "0": {
            "type": "analyse",
            "value": "Evrard de la Mark, seigneur de Neufch\u00e2teau en Ardenne, d\u00e9clare que, suivant les accords conclus entre lui et son cousin le duc de Luxembourg, il ne pourra recevoir et retenir aucun des gens dudit duc <i>\u00e0 bourgois ne a commandise<\/i>, en vue de nuire au duc, mais qu\u2019il a le droit de les prendre sous sa protection pour les d\u00e9fendre contre d\u2019autres seigneurs, s\u2019il en est requis par eux."
        },
        "1": {
            "type": "auteur",
            "value": "Evrard de La Mark, seigneur de Neufch\u00e2teau en Ardenne"
        },
        "2": {
            "type": "beneficiaire",
            "value": "Wenceslas (1) de Boh\u00eame, duc de Luxembourg"
        },
        "3": {
            "type": "disposant",
            "value": "Evrard de La Mark, seigneur de Neufch\u00e2teau en Ardenne"
        },
        "4": {
            "type": "authenticite",
            "value": "non suspect\u00e9"
        },
        "5": {
            "type": "cote",
            "value": "BELGIQUE, Bruxelles, Archives G\u00e9n\u00e9rales du Royaume, Fonds Chartes et Cartulaires de Luxembourg, n\u00b0 973 "
        },
        "6": {
            "type": "responsable",
            "value": "Timothy Salemme"
        },
        "7": {
            "type": "date",
            "value": " 1355\/06\/01",
            "children": {
                "date_deb_annee": "1355",
                "date_deb_mois": "06",
                "date_deb_jour": "01"
            },
            "range": {
                "date_apres": 13550601,
                "date_avant": 13550601
            }
        },
        "8": {
            "type": "description",
            "value": "Original sur parchemin (mm. 171 \u00d7 81\u00a0; repli mm. 15), jadis scell\u00e9 sur double queue de parchemin"
        },
        "10": {
            "type": "edition",
            "value": "-"
        },
        "11": {
            "type": "regeste",
            "value": "A. VERKOOREN, <i>Inventaire des chartes et cartulaires du Luxembourg (comt\u00e9, puis duch\u00e9)<\/i>, t. III, Bruxelles 1915, n\u00b0 973"
        },
        "12": {
            "type": "genre",
            "value": "Lettre"
        },
        "13": {
            "type": "langue",
            "value": "fran\u00e7ais"
        },
        "14": {
            "type": "sources_manuscrites",
            "value": "BELGIQUE, Bruxelles, Archives G\u00e9n\u00e9rales du Royaume, Fonds Chartes et Cartulaires de Luxembourg, n\u00b0 1063 (vidimus sur parchemin d\u00e9livr\u00e9 le 29 avril 1364 par Matthias d\u2019Echternach, abb\u00e9 de Notre-Dame \u00e0 Luxembourg)",
            "children": {
                "type_source": "Vidimus"
            }
        },
        "15": {
            "type": "note_dorsale",
            "value": "\u00ab XXII \u00bb, XIV<sup>e<\/sup> s. ; \u00ab IIII \u00bb, XIV<sup>e<\/sup> s. ; \u00ab II. 4. 22 \u00bb, XVIII<sup>e<\/sup>-XIX<sup>e<\/sup> s. ; \u00ab Copi\u00e9 par m. Van Werveke de Luxembourg le 14 7<sup>mbre<\/sup> 1886 \u00bb, fin XIX<sup>e<\/sup> s."
        },
        "16": {
            "type": "transcription",
            "value": "<?xml version=\"1.0\" encoding=\"UTF-8\"?>\n\/01\/ Nous Evrars de la Marke, sires de Nuef Castiel en Ardenne, faisons savoir \/02\/ a tous que nous avons acordeit a nostre chier sire et cousin monsigneur le duc de Lu-\/03\/-xembourch que nous ne poons ne devons nuls de ses gens retenir ne recevoir \/04\/ a bourgois ne a commandise contre luy ne contre les siens, mais bien les poons \/05\/ penre a gardeir contre autres signeurs s\u2019il le requierent. Par le tiesmoing de \/06\/ ces presentes lettres saelees de nostre propre sael. Faites et donnees l\u2019an .M. .CCC. .L. et \/07\/ chiunc, le premier jour dou mois de jung.\n"
        },
        "17": {
            "type": "type_source",
            "value": "Original"
        },
        "18": {
            "type": "acte_scelle",
            "value": "non"
        },
        "19": {
            "type": "id_telma",
            "value": "630242"
        },
        "20": {
            "type": "sceau",
            "value": "Sceau pendant perdu. Annonce du sceau d'Evrard de La Mark"
        },
        "21": {
            "type": "destinataire",
            "value": "-"
        },
        "22": {
            "type": "date_libre",
            "value": "-"
        },
        "23": {
            "type": "date_lieu",
            "value": "-"
        },
        "24": {
            "type": "remarques",
            "value": "-"
        },
        "25": {
            "type": "mention_hors_teneur",
            "value": "-"
        },
        "26": {
            "type": "mention",
            "value": "-"
        },
        "27": {
            "type": "image_interne",
            "value": "http:\/\/telma-chartes.irht.cnrs.fr\/telma_img\/transscript\/transscript-510_0023_000_00973_000_r.jpg"
        },
        "28": {
            "type": "image_interne",
            "value": "http:\/\/telma-chartes.irht.cnrs.fr\/telma_img\/transscript\/transscript-510_0023_000_00973_000_v.jpg"
        }
    }
}