{
    "id": 203,
    "name": "transscript-128",
    "type": "acte",
    "url": "http:\/\/telma-chartes.irht.cnrs.fr\/transscript\/notice\/203",
    "project_slug": "transscript",
    "project_label": "TRANSSCRIPT",
    "user": "l_gili",
    "last_update": "2020-10-19 16:24:54",
    "licence": "Attribution - Pas d\u2019Utilisation Commerciale - Partage dans les M\u00eames Conditions 3.0 France (CC BY-NC-SA 3.0 FR) ",
    "licence_url": "https:\/\/creativecommons.org\/licenses\/by-nc-sa\/3.0\/fr\/",
    "elements": {
        "0": {
            "type": "analyse",
            "value": "Ferry (3), duc de Lorraine et marquis, d\u00e9clare s\u2019en rapporter \u00e0 Henri (5), comte de Luxembourg, touchant la paix d\u2019entre lui et l\u2019\u00e9v\u00eaque de Metz, de m\u00eame que celui-ci s\u2019en rapportera \u00e0 Henri, seigneur de Bl\u00e2mont."
        },
        "1": {
            "type": "auteur",
            "value": "Ferry (3), duc de Lorraine et marquis"
        },
        "2": {
            "type": "beneficiaire",
            "value": "Henry (5), comte de Luxembourg et marquis d\u2019Arlon"
        },
        "3": {
            "type": "disposant",
            "value": "Ferry (3), duc de Lorraine et marquis"
        },
        "4": {
            "type": "authenticite",
            "value": "non suspect\u00e9"
        },
        "5": {
            "type": "cote",
            "value": "FRANCE, Paris, Biblioth\u00e8que nationale de France, Provinces fran\u00e7aises, Collection de Lorraine, vol.\u00a0211bis n\u00b0 50",
            "children": {
                "commentaire": "Le volume 211 bis de la Collection de Lorraine est incommunicable en 2017 (LGT).\n\n"
            }
        },
        "6": {
            "type": "responsable",
            "value": "Laura Gili-Th\u00e9baudeau"
        },
        "7": {
            "type": "date",
            "value": " 1277\/03\/07",
            "children": {
                "date_deb_annee": "1277",
                "date_deb_mois": "03",
                "date_deb_jour": "07"
            },
            "range": {
                "date_apres": 12770307,
                "date_avant": 12770307
            }
        },
        "9": {
            "type": "regeste",
            "value": "J. DE PANGE, <i>Catalogue des actes de Ferri III, duc de Lorraine (1251-1303)<\/i>, Paris 1930, n\u00b0 534, p. 105"
        },
        "10": {
            "type": "mention",
            "value": "H. LEPAGE, \u00ab\u00a0Opinion de Dom Calmet sur l'emprisonnement de Ferry III et catalogue des actes du r\u00e8gne de ce prince\u00a0\u00bb, in <i>M\u00e9moires de la Soci\u00e9t\u00e9 d'arch\u00e9ologie lorraine et du Mus\u00e9e historique lorrain<\/i>, 3<sup>e<\/sup> s\u00e9rie, 4, 1876, n\u00b0 259"
        },
        "11": {
            "type": "genre",
            "value": "Lettre"
        },
        "12": {
            "type": "langue",
            "value": "fran\u00e7ais"
        },
        "13": {
            "type": "sources_manuscrites",
            "value": "FRANCE, Nancy, Archives d\u00e9partementales de Meurthe-et-Moselle, B 407, f\u00b0 73r (fin XVI<sup>e<\/sup> s.)"
        },
        "14": {
            "type": "transcription",
            "value": "<?xml version=\"1.0\" encoding=\"UTF-8\"?>\n\/01\/Je Ferris, dus de Lorreigne et marchis, fais savoir a tous que je doi croire mon \/02\/ chier oncle Henri, conte de Lucembourch, marchis d'Erlons, de la paix de moi et de l\u2019e-\/03\/-veske de Mez, de lui et de ses aides, et de moi et de mes aides, en tel meniere que mes \/04\/ oncles devant dis doit dire par droit ou par amour, ou a sa voluntei de haut et \/05\/ de bas, per ensi que li eveskes devant dis doit panre droit de mon cousin Henri, \/06\/ seignour de Blammont, et lui faire droit. Et s\u2019il n\u2019an voloit panre droit et lui faire \/07\/ droit, mes oncles devant dis ne pourroit noiant raporter ne dire de la paix devant \/08\/ dite de moi, ne de l\u2019eveske de Mez, ne de ses aides. En tesmoingnaige de ceste chose \/09\/ sont ces lettres saelees de mon seel, que furent faites l\u2019an de graice mil dous cens \/10\/ sexante et sauze, lou diemange de mi karame.\n"
        },
        "15": {
            "type": "type_source",
            "value": "Original"
        },
        "16": {
            "type": "acte_scelle",
            "value": "oui",
            "children": {
                "commentaire": "Photo non disponible. "
            }
        },
        "17": {
            "type": "id_telma",
            "value": "630298"
        },
        "19": {
            "type": "image_interne",
            "value": "http:\/\/telma-chartes.irht.cnrs.fr\/telma_img\/transscript\/transscript-BNF_Coll.Lorr_211bis_n.50.JPG"
        },
        "20": {
            "type": "image_interne",
            "value": "http:\/\/telma-chartes.irht.cnrs.fr\/telma_img\/transscript\/transscript-BNF_Coll.Lorr_211bis_n.50v.JPG"
        },
        "21": {
            "type": "sceau",
            "value": "Sceau pendant (photo non disponible)",
            "children": {
                "commentaire": "Photo non disponible. En 2017, le volume 211bis de la Collection de Lorraine n\u2019\u00e9tait pas communicable. "
            }
        },
        "22": {
            "type": "note_dorsale",
            "value": "\u00ab Ferry, duc de Lorraine \/ s\u2019oblige de tenir la \/ d\u00e9cision que feroit \/ Henry duc de Luxembourg \/ de la difficult\u00e9 d\u2019entre \/ lui et [l\u2019\u00e9v\u00eaque diman]che  \/ 1276 \/ de la mi car\u00eame \u00bb, XVII<sup>e<\/sup> s. ; entre \u00ab s\u2019oblige \u00bb et \u00ab de tenir \u00bb : \u00ab XV \u00bb, XV<sup>e<\/sup> s. ; \u00ab P. 15, N\u00b0 41 \u00bb, XVII<sup>e<\/sup> s. ; \u00ab N\u00b0 48 Luxembourg I \u00bb, XVII<sup>e<\/sup> s. "
        },
        "23": {
            "type": "edition",
            "value": "N. de WAILLY, <i>Notice sur les actes en langue vulgaire du XIII<sup>e<\/sup> si\u00e8cle contenus dans la Collection de Lorraine, \u00e0 la Biblioth\u00e8que nationale<\/i>, Paris 1878, n\u00b0 176, p. 126"
        },
        "24": {
            "type": "edition",
            "value": "C. WAMPACH, <i>Urkunden- und Quellenbuch zur Geschichte der altluxemburgischen Territorien bis zur burgundischen Zeit<\/i>, t. IV, Luxembourg 1940, n\u00b0 396, p. 496-497"
        },
        "25": {
            "type": "mention",
            "value": "F.-X. W\u00dcRTH-PAQUET \u00ab Table chronologique des chartes et dipl\u00f4mes relatifs \u00e0 l'histoire de l'ancien pays et duch\u00e9 de Luxembourg. R\u00e8gne de Henri II (1246-1281)\u00bb, <i>Publications de la Section historique<\/i>, XV (1860), n\u00b0 545, p. 151"
        },
        "26": {
            "type": "description",
            "value": "Original sur parchemin, scell\u00e9 sur lacs de soie"
        }
    }
}