{
    "id": 175,
    "name": "transscript-106",
    "type": "acte",
    "url": "http:\/\/telma-chartes.irht.cnrs.fr\/transscript\/notice\/175",
    "project_slug": "transscript",
    "project_label": "TRANSSCRIPT",
    "user": "l_gili",
    "last_update": "2020-10-19 16:24:53",
    "licence": "Attribution - Pas d\u2019Utilisation Commerciale - Partage dans les M\u00eames Conditions 3.0 France (CC BY-NC-SA 3.0 FR) ",
    "licence_url": "https:\/\/creativecommons.org\/licenses\/by-nc-sa\/3.0\/fr\/",
    "elements": {
        "0": {
            "type": "analyse",
            "value": "Ferry (3) vidime une lettre \u00e9crite \u00e0 Corbeil en 1286 le lundi apr\u00e8s la Trinit\u00e9, par Jean de Villers, ma\u00eetre de la premi\u00e8re maison de l\u2019H\u00f4pital Saint-Jean de J\u00e9rusalem, qui d\u00e9clare que Guillaume Pigion, jadis prieur de France, donne aux Juifs de Lorraine, moyennant un marc d\u2019argent et 12 toulois \u00e0 chaque Saint-R\u00e9mi, un terrain sur le ban de Laxou."
        },
        "1": {
            "type": "auteur",
            "value": "Jean de Villers, ma\u00eetre de la premi\u00e8re maison de l'H\u00f4pital Saint-Jean de J\u00e9rusalem"
        },
        "2": {
            "type": "beneficiaire",
            "value": "Juifs de Lorraine"
        },
        "3": {
            "type": "disposant",
            "value": "Guillaume Pigion, jadis prieur de France"
        },
        "4": {
            "type": "authenticite",
            "value": "non suspect\u00e9"
        },
        "5": {
            "type": "cote",
            "value": "FRANCE, Nancy, Archives d\u00e9partementales de Meurthe-et-Moselle, H 3083"
        },
        "6": {
            "type": "responsable",
            "value": "Laura Gili-Th\u00e9baudeau"
        },
        "7": {
            "type": "date",
            "value": "apres 1286\/06\/10 - avant 1286\/07\/04",
            "children": {
                "date_deb_annee": "1286",
                "date_deb_mois": "06",
                "date_deb_jour": "10",
                "date_deb_type": "apres",
                "date_fin_type": "avant",
                "date_fin_annee": "1286",
                "date_fin_mois": "07",
                "date_fin_jour": "04"
            },
            "range": {
                "date_apres": 12860610,
                "date_avant": 12860704
            }
        },
        "9": {
            "type": "regeste",
            "value": "J. DE PANGE, <i>Catalogue des actes de Ferri III, duc de Lorraine (1251-1303) <\/i>, Paris, 1930, 285 p. + <i>Table des noms de personnes et des noms de lieux contenus dans le catalogue<\/i> (p. I-XXIX), n\u00b0 805, p. 157"
        },
        "10": {
            "type": "mention",
            "value": "H. LEPAGE, <i>Opinion de Dom Calmet sur l\u2019emprisonnement de Ferry III et catalogue des actes du r\u00e8gne de ce prince<\/i>, in \u00ab M\u00e9moires de la Soci\u00e9t\u00e9 d'arch\u00e9ologie lorraine et du Mus\u00e9e historique lorrain \u00bb, 3<sup>e<\/sup> s\u00e9rie, 4, 1876, n\u00b0 372"
        },
        "11": {
            "type": "langue",
            "value": "fran\u00e7ais"
        },
        "12": {
            "type": "sources_manuscrites",
            "value": "FRANCE, Nancy, <i>Archives d\u00e9partementales de Meurthe-et-Moselle<\/i>, H 3083",
            "children": {
                "type_source": "Vidimus",
                "commentaire": "C'est un autre vidimus ? Sinon, \u00e0 supprimer"
            }
        },
        "13": {
            "type": "sources_manuscrites",
            "value": "FRANCE, Nancy, <i>Archives d\u00e9partementales de Meurthe-et-Moselle<\/i>, H 3043 f. 12r n\u00b0 16",
            "children": {
                "type_source": "Copie"
            }
        },
        "14": {
            "type": "sources_manuscrites",
            "value": "FRANCE, Nancy, <i>Archives d\u00e9partementales de Meurthe-et-Moselle<\/i>, H 3044 f. 8v",
            "children": {
                "type_source": "Copie"
            }
        },
        "15": {
            "type": "transcription",
            "value": "<?xml version=\"1.0\" encoding=\"UTF-8\"?>\n\/01\/ Je Ferris, dus de Lorregne et marchis, faiz savoir a touz que je ai veu unes teiz lettres sainnes et entieres saielees dou seel fre-\/02\/-re Jehan de Vilers, mastre et garde de l\u2019ospitaul de Saint Jehan de Jerusalem, des quelz lettrez li tenours est teiz : Freres Jehans de Vilers, par la \/03\/ graice de Deu de la sainte maison de l\u2019ospitaul de Saint Jehan de Jerusalem, humles mastres et garde des povrez de Crist, a touz ceaz qui varront \/04\/ cestes presentes lettres, salut en nostre Signour. Nous faisons savoir a touz que freres Guillaumes Pijons, jadis priours de France, donna on \/05\/ finaige de nostre vile de Larsouz delez Nancei, en la dyocese de Toul, terre as Juis de Lorregne pour faire un cimetiere de lor loi parmi ce que li \/06\/ dit Juis nos an doient pa\u00efer un marc d\u2019argent et douze touloiz de cens chascun an lou jour de la feste saint Remei. Et se li dis cens n\u2019estoit \/07\/ pa\u00efez au jour nomei, nous les panriens VIII jors apr\u00e9s sans encoison. Et cestui cens desuz dit doient li dit Juis pa\u00efer au governeour de nostre \/08\/ maison dou Viez Aitre delez Nancei ou a son certain commandement. Et se hons demoroit en la terre que nos lor avons donnee, il seroit en nostre \/09\/ justice et nostre hons tant com il seroit demorans, et nos serviroit chascun an de douz livrez de poivre a la saint Remei, et cil qui apr\u00e9s lui van-\/10\/-dront, ne plus ne lor poons demander s\u2019il ne lou mesfont. Et se li Juis issoient de la duchi\u00e9 de Lorregne, il revanroient sans encoison a la tenour \/11\/ dou cimetiere davant dit jusquez a seit ans par lou cens paant des annees trespassees, de quoi il ne l\u2019averoient pa\u00ef\u00e9 par euz ne par autrui. Et \/12\/ volons et orrions et confermons par lou consel de nos freres que li cimetieres que lidit Juis ont fait en la dite terre et les maisons et les a-\/13\/-croissemens, ensi comme les bonnes sunt devisees soit tenu a touz jours sans rapeller ensi com il an sunt tenant aujourd\u2019ui. Et se li dit Juis vuelent \/14\/ acroitre lour cimetiere, nos orrions que il lou puissent acroitre sauve nostre raison. Et de toutes cez chosez desus dites nos lor an devons prester \/15\/ garantie encontre toutes gens selonc raison. En tesmoni de laquel chose nous saielemes cez lettres de nostre seel de France, escrites a Corbuel, \/16\/ en nostre maison, en l\u2019an de nostre Signour mil douz cens quatre vins et six, lou lundi apr\u00e9s la Trinitei. Et pour ce que ce soit ferme chose et es-\/17\/-tauble, sunt cez lettres saielees dou seel de ma court de Nancei, dez quelz lettres on ne me puet demander fors que tesmoingnaige, donnees \/18\/ l\u2019an de notre Signour mil douz cens quatre vins et six, lou jeudi apr\u00e9s feste saint Piere et saint Pol, ou mois de julet.\n"
        },
        "16": {
            "type": "type_source",
            "value": "Vidimus"
        },
        "17": {
            "type": "acte_scelle",
            "value": "non"
        },
        "18": {
            "type": "id_telma",
            "value": "630275"
        },
        "19": {
            "type": "date_lieu",
            "value": "Corbeil"
        },
        "20": {
            "type": "image_interne",
            "value": "http:\/\/telma-chartes.irht.cnrs.fr\/telma_img\/transscript\/transscript-FRAD054_H3083r.jpg"
        },
        "21": {
            "type": "sceau",
            "value": "sceau sur double queue, perdu"
        },
        "22": {
            "type": "description",
            "value": "Vidimus sur parchemin (145 x 260 mm), jadis scell\u00e9 sur double queue"
        }
    }
}