{
    "id": 526,
    "name": "transscript-310",
    "type": "acte",
    "url": "http:\/\/telma-chartes.irht.cnrs.fr\/transscript\/notice\/526",
    "project_slug": "transscript",
    "project_label": "TRANSSCRIPT",
    "user": "jd_mougeot",
    "last_update": "2020-10-19 16:24:57",
    "licence": "Attribution - Pas d\u2019Utilisation Commerciale - Partage dans les M\u00eames Conditions 3.0 France (CC BY-NC-SA 3.0 FR) ",
    "licence_url": "https:\/\/creativecommons.org\/licenses\/by-nc-sa\/3.0\/fr\/",
    "elements": {
        "0": {
            "type": "auteur",
            "value": "Henri (5), comte de Luxembourg et de la Roche, marquis d'Arlon"
        },
        "1": {
            "type": "cote",
            "value": "FRANCE, Nancy, Archives d\u00e9partementales de Meurthe-et-Moselle, 3F 464"
        },
        "2": {
            "type": "responsable",
            "value": "Timothy SALEMME"
        },
        "3": {
            "type": "date",
            "value": " 1269\/03\/08",
            "children": {
                "date_deb_annee": "1269",
                "date_deb_mois": "03",
                "date_deb_jour": "08"
            },
            "range": {
                "date_apres": 12690308,
                "date_avant": 12690308
            }
        },
        "4": {
            "type": "edition",
            "value": "C. WAMPACH, <i>Urkunden- und Quellenbuch zur Geschichte der altluxemburgischen Territorien bis zur burgundischen Zeit<\/i>, t. IV, Luxembourg 1940, n\u00b0 106, p. 155-159 (d\u2019apr\u00e8s la copie dans FRANCE, Bar-le-Duc, Archives d\u00e9partementales de la Meuse, B 256, f\u00b0 316r-317r (cartulaire du XIV<sup>e<\/sup> s.)"
        },
        "5": {
            "type": "acte_scelle",
            "value": "non"
        },
        "6": {
            "type": "id_telma",
            "value": "630544"
        },
        "7": {
            "type": "langue",
            "value": "fran\u00e7ais"
        },
        "8": {
            "type": "transcription",
            "value": "<?xml version=\"1.0\" encoding=\"UTF-8\"?>\n\/01\/ Je, Henris, cuens de Luc(elburc), de la Roche et marchis d'Arlons, faiz savoir a tous que Hanris, mes ainsnez filz, par son sarrement corporelment donne \/02\/ et par sa fois fiancie, ou Walerans ses freires, se la contez de Lucelb(urc) li eschaioit, s'est esliez a mon chier neveu Ferric, duc de Loher(ainne) et marchiz, a aidier \/03\/ a petite force et a grant, en bone foi, et nommeement contre Thiebaut, conte de Bar, et contre touz ses hoirs contes de Bar, et encontre toz homes qui puent vivre \/04\/ et morir, fors le roi d'Alemaingne, l'arceveske de Trievres, le roi de Navarre, l'eveske de Liege, le duc de Lemb(ur)c, le conte de Flandres, le conte de Hanaut, le conte \/05\/ de Julei. Et n'est mie \u00e0 antendre qu'il facent nul sarrement contre les homes liges de la conte de Lucelb(ur)c tant com il vorroient venir \u00e0 jour et \u00e0 droit. Et est \/06\/ ancor a savoir par sa foi fiancie et par son sarrement corporelment donne, a Hanris promis que si tost com li ainsnez hoirs, filz le duc devant nommei qui sera dus de Loher(ainne), vanra en l'age \/07\/ de .XV. ans, qu'il s'aliera et jurera \u00e0 lui dedenz les .XL. jours qu'il en sera requis, et autreteil fera Walerans, se li contez li escheoit, d'aidier l'ainsne hoir le devant dit \/08\/ duc en autreteil point com desuz est dit et en donra ces lettres pandanz. Et est a savoir que quarante de mes chevaliers, c'est a savoir li sires de Durbui, Ferri sires dou \/09\/ Nuefchastel en Ardainne, li sires de Creu, li sires d'Aixe, li sires de Mezenborch, li sires de Borcheit, li sires Joffrois de Mezenborch, li sires Arnolz de Gumenei, li sires \/10\/ Arnolz ses filz, li sires de Beaurepaire, li sires Werniers de Correi, li sires de La Roche, li sires de Rodemacre, li sires de Villers, li sires Arnolz de Honkeranges, li \/11\/ sires de Hufalise, li sires de Brandeberch, li sires de Pitanges, li sires Rembauz de Linsieres, li sires de Mirabel, li sires de Soluevre, li sires de Brede, li sires de Sept- \/12\/-fontainnes, li sires Richard de Daune, li sires d\u2019Enzedanges, li sires de Sterpenes, li sires de Rulant, li sires Connes d\u2019Arlons, li sires Thieris de Soluevre, li sires Jehans de Lin- \/13\/-sieres, li sires Gobles de Rosei, li sires de Mares, li sires de Faconpiere, li sires Thieris de Budelanges, li sires Aubers de Tyonville, li sires de Wez, li sires de Beaufort, li \/14\/ sires Jakes dou Nuefchastel, li sires Poinces Troixins et li sires Symons d'Arlons, ont jurei qu'il tanront \u00e0 ce Hanrit, mon ainsne fil, ou Waleran, se li contez li \/15\/ escheoit, qu'il facent lou sarrement et saelent ces lettres et qu'il tiegnent les convenances teiles com mes niez li dus devant nommeiz les a a Hanri mon fil tote sa vie. Et \/16\/ por ce que ces convenances soient plus fermement parfaites et tenues, ai je obligie mil livrees de terre en ma terre de la court de Ramus et de la court de Catheheim \/17\/ et en la plainne terre de Tyonville, la ou mes niez li dus devant nommez ou ses ainsnez hoirs filz qui a ces convenances seroit tenuz la vorroit panre, et la pan- \/18\/-roit et tanroit quitte et d\u00e9livre, il et ses hoirs dus de Loher(ainne), sanz reclain de Hanrit et de mi et de mes hoirs a toz jors come son heritaige. Et tantost com \/19\/ Hanris, mes ainznez filz, ou Walerans, se li contez li escheoit, auroit fait le sarrement et l'aliance et sa lettre donnee \u00e0 l'ainzne hoir, fil mon neveu le duc \/20\/ devant nommei, qui seroit tenuz \u00e0 ceste convenance, li sarremenz des .XL. chevaliers devant nommeiz seroit nulz et les mil livrees de terre demorreint quittes et delivrees \/21\/ a mi et a mes hoirs, ne ne porroit li aiznez filz mon neveu le duc qui a ses convenances seroit tenuz rien reclamer en l\u2019eritage. Ancor est a savoir que se Han- \/22\/-ris mes filz aloit encontre ceste alliance, ou Walerans se li contez li escheoit, si com d\u2019aidier mon neveu le duc ou son ainznel hoir a cui il seroit esliez si com \/23\/ devant dit est, mes niez et ses ainznez hoirs filz porroient panir et faire panir par ealz et par autrui pour tout moi et mon ainznel fil qui a ces convenances \/24\/ seroit tenuz en meuble et en non meuble sanz meffaire par mon gres jusc\u2019a la valour de dix mile livres de Metz. Ancor est a savoir que Hanris mes filz ou mes \/25\/ ainznez hoirs, se de lui defailloit, se obligera par ses lettres pandans iusc\u2019a la valour de dix mile livre de Metz, autreteil pouet com li dus devant diz s\u2019est \/26\/ obligiez a Hanris mon fil et a Waleran, se li contez li escheoit, et auteil doit il faire a l\u2019ainnel fil le duc quant il sera en eage si com desuz est dit. Ancor \/27\/ est a savoir que de cest jor en avant Hanris mes filz, ne Walerans, se li contez li escheoit, ne se puet en nule maniere alier a celz de la ville de Mez \/28\/ ne a l\u2019esveske de Mez, ne je aussi, contre le duc devant dit ne son ainznel fil, sor la painne desour dite. Ancore est a savoir k\u2019autres telz convenances com \/29\/ je ai a mon neveu le duc, que je ne puiz panre le conte de Bar ne per lui ne per autrui contre le duc mon neveu, si com il est contenu en mes lettres que mes niez \/30\/ a de moi a Hanris mes filz et Walerans, se li contez li escheoit, a mon neveu le duc, et l\u2019auera aussi a son ainznel hoir sor la painne desour ditte. \/31\/ En tesmoingnaige de laquel choze et por ce que ceu soit ferme chose et estable, j'ai fait saeler ces lettres de mon sael, et a ma priere et a ma \/32\/ requeste, et a la requeste Hanrit et Waleran mes filz, Willames cuens de Julei les a ausi saelees de son seel en tesmoingnaige de ces choses. \/33\/ Ce fut fait l'an nostre Seignour mil douz cens sexante wit, le vanredi apres mi quaresme ou mois de mars.\n"
        },
        "9": {
            "type": "beneficiaire",
            "value": "Ferry (3), duc de Lorraine et marquis"
        },
        "10": {
            "type": "destinataire",
            "value": "-"
        },
        "11": {
            "type": "disposant",
            "value": "Henri (6), fils a\u00een\u00e9 de Henri (5), comte de Luxembourg "
        },
        "12": {
            "type": "disposant",
            "value": "Wal\u00e9ran (1), fils de Henri (5), comte de Luxembourg"
        },
        "13": {
            "type": "date_libre",
            "value": "-"
        },
        "14": {
            "type": "date_lieu",
            "value": "-"
        },
        "17": {
            "type": "description",
            "value": "Original sur parchemin, restaur\u00e9, jadis scell\u00e9 de deux sceaux pendant sur double queue de parchemin"
        },
        "18": {
            "type": "authenticite",
            "value": "non suspect\u00e9"
        },
        "19": {
            "type": "genre",
            "value": "Lettre"
        },
        "20": {
            "type": "type_source",
            "value": "Original"
        },
        "21": {
            "type": "remarques",
            "value": "-"
        },
        "22": {
            "type": "mention_hors_teneur",
            "value": "-"
        },
        "23": {
            "type": "note_dorsale",
            "value": "Regeste du XVII<sup>e<\/sup> s."
        },
        "24": {
            "type": "sources_manuscrites",
            "value": "FRANCE, Bar-le-Duc, Archives d\u00e9partementales de la Meuse, B 256, f\u00b0 316r-317v (cartulaire du XIV<sup>e<\/sup> s.)",
            "children": {
                "type_source": "Cartulaire"
            }
        },
        "25": {
            "type": "sources_manuscrites",
            "value": "FRANCE, Paris, Biblioth\u00e8que Nationale de France, f. fr. 11823, f\u00b0 109r (copie post\u00e9rieure dans cartulaire)",
            "children": {
                "type_source": "Cartulaire"
            }
        },
        "26": {
            "type": "regeste",
            "value": "J. DE PANGE, <i>Catalogue des actes de Ferri III, duc de Lorraine (1251-1303)<\/i>, Paris, 1930, n\u00b0 356, p. 71 (d\u2019apr\u00e8s la copie dans FRANCE, Bar-le-Duc, Archives d\u00e9partementales de la Meuse, B 256, f\u00b0 316r-317r (cartulaire du XIV<sup>e<\/sup> s.)"
        },
        "27": {
            "type": "mention",
            "value": "-"
        },
        "28": {
            "type": "analyse",
            "value": "Henri (5), comte de Luxembourg et marquis d\u2019Arlon, fait savoir que son fils ain\u00e9 Henri (6), ou Wal\u00e9ran son fr\u00e8re, dans le cas o\u00f9 ce dernier h\u00e9ritera le comt\u00e9 de Luxembourg, ont \u00e9tabli avec son neveu Ferry (3), duc de Lorraine et marquis, une alliance contre Thi\u00e9baut (2) comte de Bar et plus g\u00e9n\u00e9ralement contre tous ceux qui pourraient les menacer, \u00e0 l\u2019exception du roi d\u2019Allemagne, de l\u2019archev\u00eaque de Tr\u00e8ves, du roi de Navarre, de l\u2019\u00e9v\u00eaque de Li\u00e8ge, du duc de Limbourg, des comtes de Flandre et de Hainaut et de Juliers. Henri l'ain\u00e9 et son fr\u00e8re Wal\u00e9ran, ce dernier le cas \u00e9ch\u00e9ant, ont aussi promis de continuer ladite alliance avec le fils de Ferry (3) qui h\u00e9ritera le duch\u00e9, d\u00e8s que ce dernier aura atteint l\u2019\u00e2ge de 15 ans. Quarante chevalier d\u2019Henri (5) s\u2019engagent \u00e0 faire respecter l\u2019accord."
        },
        "29": {
            "type": "sceau",
            "value": "Sceau pendant perdu. Annonce du sceau du comte Henri (5) de Luxembourg"
        },
        "30": {
            "type": "sceau",
            "value": "Sceau pendant perdu. Annonce du sceau de Guillaume (4), comte de Juliers"
        },
        "31": {
            "type": "image_interne",
            "value": "http:\/\/telma-chartes.irht.cnrs.fr\/telma_img\/transscript\/transscript-AD_MM_3_F_464_r.JPG"
        },
        "32": {
            "type": "image_interne",
            "value": "http:\/\/telma-chartes.irht.cnrs.fr\/telma_img\/transscript\/transscript-AD_MM_3_F_464_v.JPG"
        }
    }
}