{
    "id": 19689,
    "name": "transscript-321",
    "type": "acte",
    "url": "http:\/\/telma-chartes.irht.cnrs.fr\/transscript\/notice\/19689",
    "project_slug": "transscript",
    "project_label": "TRANSSCRIPT",
    "user": "D_Kirt",
    "last_update": "2020-10-19 16:26:41",
    "licence": "Attribution - Pas d\u2019Utilisation Commerciale - Partage dans les M\u00eames Conditions 3.0 France (CC BY-NC-SA 3.0 FR) ",
    "licence_url": "https:\/\/creativecommons.org\/licenses\/by-nc-sa\/3.0\/fr\/",
    "elements": {
        "0": {
            "type": "auteur",
            "value": "Jean (l'Aveugle), roi de Boh\u00eame et comte de Luxembourg"
        },
        "1": {
            "type": "beneficiaire",
            "value": "Chevalier Hubin Bareit de Li\u00e8ge"
        },
        "2": {
            "type": "date",
            "value": " 1337\/10\/10",
            "children": {
                "date_deb_jour": "10",
                "date_deb_mois": "10",
                "date_deb_annee": "1337"
            },
            "range": {
                "date_apres": 13371010,
                "date_avant": 13371010
            }
        },
        "3": {
            "type": "cote",
            "value": "BELGIQUE, Bruxelles, Archives G\u00e9n\u00e9rales du Royaume, Fonds Chartes et Cartulaires de Luxembourg, n\u00b0 725"
        },
        "5": {
            "type": "description",
            "value": "Original sur parchemin (mm. 254 x 132), jadis scell\u00e9 sur double queue  de parchemin"
        },
        "6": {
            "type": "langue",
            "value": "fran\u00e7ais"
        },
        "7": {
            "type": "authenticite",
            "value": "non suspect\u00e9"
        },
        "8": {
            "type": "genre",
            "value": "Charte"
        },
        "9": {
            "type": "type_source",
            "value": "Original"
        },
        "10": {
            "type": "analyse",
            "value": "Jean (l'Aveugle), roi de Boh\u00eame et comte de Luxembourg, fait savoir qu'il a donn\u00e9 en fief 25 livr\u00e9es de terre par an, le vieux gros tournois compt\u00e9 pour 16 denier, \u00e0 prendre sur  la d\u00eeme de Tohogne(-lez-Durbuy), d\u00e9pendant du ch\u00e2teau de Durbuy, au chevalier Hubin Bareit de Li\u00e8ge en r\u00e9compense des services rendus et \u00e0 rendre \u00e0 l\u2019avenir. Jean gardera le droit de rachat pour 300 livres; dans ce cas, Hubin ach\u00e8tera de la terre pour cette somme et le reprendra en fief de la part de Jean."
        },
        "11": {
            "type": "transcription",
            "value": "<?xml version=\"1.0\" encoding=\"UTF-8\"?>\n\/01\/ Nous Jehans, par la grasce de Dieu roys de Boeme et contes de Lucembourch, faisons savoir a tous ceaus qui ces presentes \/02\/ lettres veront et oront que nous, par les boins services acceptable que nous ameiz feal chevalier mess(ires) Hubins Bareit de Liege, \/03\/ chevalier, nous at fait et entendons encor avoir de lui, nous li avons doneit et otroiiet, donons et otroions vintecink livreez de \/04\/ terre, un viel gro tournoi pour seize deniers contant, a painre et a leveir chascun an a noustre deyme de Thohoingne deleiz \/05\/ Durbuy. Les queles dittes vintecink livreez de terre ilh doit tenir de nous et de nous hoirs contes de Lucembourch, et les \/06\/ at releveez de nous en fiel et en homaige qu'il doit tenir, ilh et si hoirs, a tousjours hyretablement si com dit est dou cha- \/07\/-steal de Durbuy, de laquelle nous li aviens doneez nous lettres overtes, lesqueles li dis mess(ires) Hubins tesmoing en bone \/08\/ foit qu'il les at entreperdue; lesqueles seroient de nulle valeur se ilh astoient jamais trovee ne veue par le vertuit de \/09\/ ces presentes lettres. Et poions les dittes vintecink livreez de terre rachateir, ou nous hoirs, a dit monsignour Hubin \/10\/ ou a son remanant de trois cens libres, un viel gro pour seize deniers contant. De la quelle somme ilh doit rachateir autre \/11\/ hyretaige ausi suffisant a plus pres dou dit lieu a son milhour avis, lesqueles ilh ou si hoirs doient tenir de nous en fiel \/12\/ et en homaige, ou de nous hoirs contes de Lucembourch, en la maniere dessus dicte. Par le tesmoing[nage] de ces presentes lettres overtes \/13\/ saieleez dou saieal de noustre maiesteit. Faites et doneez a Marche, l'an de grasce nostre Signour mil .Co..Co..Co. et trente-sept, le \/14\/ dizeme jour dou moy de octombre.\n"
        },
        "12": {
            "type": "note_dorsale",
            "value": "\u00ab\u00a0Mons(ignour) Hubin Bareit escevin de Liege\u00a0\u00bb, XIV<sup>e<\/sup> s.\u00a0; \u00ab\u00a0Rendu et quittie ams. quil appert par la quit(tance)\u00a0\u00bb, XIV<sup>e<\/sup> s.\u00a0; \u00ab\u00a0XXXII\u00a0\u00bb, XV<sup>e<\/sup> s.\u00a0;\u00a0\u00ab\u00a0XVI. 32\u00a0\u00bb, XIX<sup>e<\/sup> s. "
        },
        "13": {
            "type": "edition",
            "value": "A. ESTGEN, M. PAULY, H. PETTIAU et J. SCHROEDER, <i>Urkunden- und Quellenbuch zur Geschichte der altluxemburgischen Territorien, begr\u00fcndet von Camille Wampach<\/i>, t. XI\/2, <i>Die Urkunden Graf Johanns des Blinden (1310-1346). Die Urkunden aus den Archives G\u00e9n\u00e9rales du Royaume, Br\u00fcssel<\/i>, Luxembourg 2009, n\u00b0 B123"
        },
        "14": {
            "type": "regeste",
            "value": "F.-X. W\u00dcRTH-PAQUET \u00ab Table chronologique des chartes et dipl\u00f4mes relatifs \u00e0 l'histoire de l'ancien pays et duch\u00e9 de Luxembourg. R\u00e8gne de Jean, roi de Boh\u00eame et comte de Luxembourg 1310-1346 \u00bb, <i>Publications de la Section historique<\/i>, XX (1865), n\u00b0 1181 "
        },
        "15": {
            "type": "regeste",
            "value": "A. VERKOOREN, <i>Inventaire des chartes et cartulaires du Luxembourg (comt\u00e9 puis duch\u00e9)<\/i>, t. II, Bruxelles 1915, n\u00b0 725"
        },
        "16": {
            "type": "responsable",
            "value": "David KIRT - Timothy SALEMME"
        },
        "17": {
            "type": "acte_scelle",
            "value": "non"
        },
        "18": {
            "type": "sceau",
            "value": "Sceau pendant perdu. Annonce du sceau de majest\u00e9 de Jean (l'Aveugle)"
        },
        "19": {
            "type": "image_interne",
            "value": "http:\/\/telma-chartes.irht.cnrs.fr\/telma_img\/transscript\/transscript-510_0023_000_00725_000_r.jpg"
        },
        "20": {
            "type": "destinataire",
            "value": "-"
        },
        "21": {
            "type": "disposant",
            "value": "Jean (l'Aveugle), roi de Boh\u00eame et comte de Luxembourg"
        },
        "22": {
            "type": "date_libre",
            "value": "-"
        },
        "23": {
            "type": "date_lieu",
            "value": "Marche(-en-Famenne)"
        },
        "24": {
            "type": "mention_hors_teneur",
            "value": "-"
        },
        "25": {
            "type": "remarques",
            "value": "-"
        },
        "26": {
            "type": "image_interne",
            "value": "http:\/\/telma-chartes.irht.cnrs.fr\/telma_img\/transscript\/transscript-510_0023_000_00725_000_v.jpg"
        },
        "27": {
            "type": "sources_manuscrites",
            "value": "BELGIQUE, Bruxelles, Archives G\u00e9n\u00e9rales du Royaume, Fonds Chartes et Cartulaires de Luxembourg, cartulaire IX, f\u00b0 219r (copie dans cartulaire du XVII<sup>e<\/sup> s. (1625))",
            "children": {
                "type_source": "Cartulaire"
            }
        }
    }
}