{
    "id": 144451,
    "name": "transscript-1015",
    "type": "acte",
    "url": "http:\/\/telma-chartes.irht.cnrs.fr\/transscript\/notice\/144451",
    "project_slug": "transscript",
    "project_label": "TRANSSCRIPT",
    "user": "t_salemme",
    "last_update": "2020-10-19 16:39:00",
    "licence": "Attribution - Pas d\u2019Utilisation Commerciale - Partage dans les M\u00eames Conditions 3.0 France (CC BY-NC-SA 3.0 FR) ",
    "licence_url": "https:\/\/creativecommons.org\/licenses\/by-nc-sa\/3.0\/fr\/",
    "elements": [
        {
            "type": "auteur",
            "value": "Henri (5), comte de Luxembourg et de la Roche, marquis d\u2019Arlon"
        },
        {
            "type": "beneficiaire",
            "value": "Les h\u00e9ritiers de Meysemburg"
        },
        {
            "type": "destinataire",
            "value": "-"
        },
        {
            "type": "disposant",
            "value": "\u00c9lisabeth, femme de Henri comte de Saarwerden"
        },
        {
            "type": "disposant",
            "value": "Henri comte de Saarwerden"
        },
        {
            "type": "date",
            "value": "1262\/06\/00",
            "children": {
                "date_deb_annee": "1262",
                "date_deb_mois": "06",
                "date_deb_jour": "00"
            },
            "range": {
                "date_apres": 12620600,
                "date_avant": 12620699
            }
        },
        {
            "type": "date_libre",
            "value": "-"
        },
        {
            "type": "date_lieu",
            "value": "-"
        },
        {
            "type": "cote",
            "value": "FRANCE, Saint-Julien-l\u00e8s-Metz, Archives d\u00e9partementales de la Moselle, 7F 2"
        },
        {
            "type": "description",
            "value": "Original sur parchemin (mm. 183\/184 x 95\/91 ; repli mm. 9\/8) scell\u00e9 sur double queue de parchemin"
        },
        {
            "type": "langue",
            "value": "latin"
        },
        {
            "type": "authenticite",
            "value": "non suspect\u00e9"
        },
        {
            "type": "genre",
            "value": "Charte"
        },
        {
            "type": "type_source",
            "value": "Original"
        },
        {
            "type": "analyse",
            "value": "Henri (5), comte de Luxembourg et de la Roche et marquis d\u2019Arlon, fait savoir qu\u2019\u00c9lisabeth, femme de Henri, comte de Saarwerden, agissant hors de sa mainbournie et du consentement du mari, renonce avec ce dernier et pour la somme de 300 marcs d\u2019argent \u00e0 sa part d\u2019h\u00e9ritage qui lui provient de ses parents. "
        },
        {
            "type": "transcription",
            "value": "<?xml version=\"1.0\" encoding=\"UTF-8\"?>\n\/01\/ Nos H(enricus), comes Luceburgensis, Rupensis et marchio Arlunensis, universis ad quos presens scriptum pervenerit \/02\/ notum esse volumus quod Elyzabeth, uxor nobilis viri H(enrici) comitis de Sarwerden, filia quondam \/03\/ nobilis domini Walteri de Meinsenburch, de consensu et laude domini mariti eius se ex tutela et \/04\/ manburnia eiusdem exemit, ipsis ambobus in nostra presencia constitutis, videlicet quod predicta \/05\/ E(lyzabeth) et maritus eius H(enricus) unanimiter omnem partem hereditatis ac allodii ipsam E(lyzabeth) post obitum \/06\/ patris et matris contingentem pro trecentis marcis argenti vendentes, perpetuo acquitaverunt \/07\/ et renunciarunt ; de qua summa pecunie eis in integrum esse satisfactum coram nobis recongnoverunt \/08\/ et totaliter persolutum. Quam ob rem effestucantes renunciaverunt omni actioni et querele que ipsis \/09\/ et eorum heredibus contra heredes de Meisenb(urch) conpetere posset in futuro. Et ne super premissis \/10\/ aliqua controversia seu calumpnia suboriri valeat in futuro, ad petitionem parcium presentibus \/11\/ sigillum nostrum appendi mandavimus in testimonium veritatis. Datum et actum anno Domini .Mo. \/12\/ .CCo. .LXo. secundo, mense junio.\n"
        },
        {
            "type": "remarques",
            "value": "-"
        },
        {
            "type": "mention_hors_teneur",
            "value": "-"
        },
        {
            "type": "note_dorsale",
            "value": "\u00ab dit ist ein hilenlichs brieff van dem grebwen van Sarwerden \u00bb, XV<sup>e<\/sup> s. ; \u00ab a(nn)o 1262 \u00bb, XV<sup>e<\/sup> s. ; \u00ab G \u00bb, XVIII<sup>e<\/sup> s. ; \u00ab 140 \u00bb, XVIII<sup>e<\/sup> s. ; \u00ab 98 \u00bb, XVIII<sup>e<\/sup> s. ; \u00ab 98 \u00bb, XVIII<sup>e<\/sup> s. ; \u00ab 75 69 \u00bb, XX<sup>e<\/sup> s. ; \u00ab E. Clerf 12. (1145\/1263) 1262 Juni \u00bb, XX<sup>e<\/sup> s. "
        },
        {
            "type": "edition",
            "value": "F.-X. W\u00dcRTH-PAQUET et N. VAN WERVEKE, \u00ab Archives de Clervaux \u00bb, <i>Publications de la Section historique<\/i>, XXXVI (1883), n\u00b0 12, p. 3"
        },
        {
            "type": "edition",
            "value": "C. WAMPACH, <i>Urkunden- und Quellenbuch zur Geschichte der altluxemburgischen Territorien bis zur burgundischen Zeit<\/i>, t. III, Luxembourg 1939, n\u00b0 389, p. 422-423"
        },
        {
            "type": "regeste",
            "value": "-"
        },
        {
            "type": "mention",
            "value": "-"
        },
        {
            "type": "sources_manuscrites",
            "value": "-"
        },
        {
            "type": "responsable",
            "value": "Timothy Salemme"
        },
        {
            "type": "image_interne",
            "value": "http:\/\/telma-chartes.irht.cnrs.fr\/telma_img\/transscript\/transscript-ADMetz_7F_2_1262:06:00_r.JPG"
        },
        {
            "type": "acte_scelle",
            "value": "oui"
        },
        {
            "type": "sceau",
            "value": "Sceau \u00e9questre du comte Henri (5) de Luxembourg, en cire verte, \u00e0 l\u2019\u00e9p\u00e9e, heaume cylindrique, bouclier et housse du cheval armori\u00e9s (burel\u00e9 au lion couronn\u00e9 \u00e0 la queue simple) ; l\u00e9gende en capitales : [+ S\u2019] HENRICI COM[I]TIS LVCELBVRGEN] RVPEN Z MARCH ARLON. Contre-sceau \u00e0 l\u2019\u00e9cu burel\u00e9 au lion (contourn\u00e9) couronn\u00e9 \u00e0 la queue simple ; l\u00e9gende en capitales : + SIGILLVM SECRETI"
        },
        {
            "type": "image_interne",
            "value": "http:\/\/telma-chartes.irht.cnrs.fr\/telma_img\/transscript\/transscript-ADMetz_7F_2_1262:06:00_v.JPG"
        }
    ]
}