{
    "id": 246,
    "name": "transscript-150",
    "type": "acte",
    "url": "http:\/\/telma-chartes.irht.cnrs.fr\/transscript\/notice\/246",
    "project_slug": "transscript",
    "project_label": "TRANSSCRIPT",
    "user": "l_gili",
    "last_update": "2020-10-19 16:24:55",
    "licence": "Attribution - Pas d\u2019Utilisation Commerciale - Partage dans les M\u00eames Conditions 3.0 France (CC BY-NC-SA 3.0 FR) ",
    "licence_url": "https:\/\/creativecommons.org\/licenses\/by-nc-sa\/3.0\/fr\/",
    "elements": {
        "0": {
            "type": "analyse",
            "value": "Thi\u00e9baut (2) et Gaucher de Ch\u00e2tillon, comte de Porcien, conn\u00e9table de France, repr\u00e9sentant Louis, fils a\u00een\u00e9 du roi de France, roi de Navarre, comte palatin de Champagne et de Brie, font accord au sujet de Ch\u00e2tenois, Montfort, Frouard et Neufch\u00e2teau : Thi\u00e9baut (2) remet ces ch\u00e2tellenies en la main de Gaucher qui y placera des officiers royaux ; les deux parties s\u2019engagent \u00e0 ne se causer aucun dommage jusqu\u2019\u00e0 la Pentec\u00f4te ; aux prochaines octaves de P\u00e2ques, Thi\u00e9baut (2) ira \u00e0 Paris rendre hommage pour ces fiefs \u00e0 Louis, roi de Navarre, sous la conduite de Gaucher de Ch\u00e2tillon."
        },
        "1": {
            "type": "auteur",
            "value": "Thi\u00e9baut (2), duc de Lorraine et marquis"
        },
        "2": {
            "type": "auteur",
            "value": "Gaucher de Ch\u00e2tillon, comte de Porcien, conn\u00e9table de France "
        },
        "3": {
            "type": "beneficiaire",
            "value": "Thi\u00e9baut (2), duc de Lorraine et marquis"
        },
        "4": {
            "type": "beneficiaire",
            "value": "Gaucher de Ch\u00e2tillon, comte de Porcien, conn\u00e9table de France "
        },
        "5": {
            "type": "disposant",
            "value": "Thi\u00e9baut (2), duc de Lorraine et marquis"
        },
        "6": {
            "type": "disposant",
            "value": "Gaucher de Ch\u00e2tillon, comte de Porcien, conn\u00e9table de France "
        },
        "7": {
            "type": "authenticite",
            "value": "non suspect\u00e9"
        },
        "8": {
            "type": "cote",
            "value": "FRANCE, Nancy, Archives d\u00e9partementales de Meurthe-et-Moselle, B 833 n\u00b0 13"
        },
        "9": {
            "type": "responsable",
            "value": "Laura Gili-Th\u00e9baudeau"
        },
        "10": {
            "type": "date",
            "value": " 1312\/01\/13",
            "children": {
                "date_deb_annee": "1312",
                "date_deb_mois": "01",
                "date_deb_jour": "13"
            },
            "range": {
                "date_apres": 13120113,
                "date_avant": 13120113
            }
        },
        "12": {
            "type": "regeste",
            "value": "A.-M. MARIONNET, <i>Catalogue des actes de Thi\u00e9baut II, duc de Lorraine (1303-1312) <\/i>, dipl\u00f4me d'\u00e9tudes sup\u00e9rieures de l'Universit\u00e9 Nancy II, Nancy, [1947], n\u00b0 208"
        },
        "13": {
            "type": "genre",
            "value": "Charte"
        },
        "14": {
            "type": "langue",
            "value": "fran\u00e7ais"
        },
        "15": {
            "type": "mention_hors_teneur",
            "value": "\u00ab 1311 \u00bb et un mot ray\u00e9 de la m\u00eame main, XIV<sup>e<\/sup> s. \u00ab Chastenoy, Montfort, Froiart, Neufchasteau \u00bb, XVII<sup>e<\/sup> s.\n"
        },
        "16": {
            "type": "note_dorsale",
            "value": " \u00ab Lettre d\u2019un acoirt dou duc Thiebalt et \/ dou conestable \u00bb, XIV<sup>e<\/sup> s. ; le mot \u00ab Lettre \u00bb a \u00e9t\u00e9 ajout\u00e9 dans un deuxi\u00e8me temps, peut-\u00eatre au XVI<sup>e<\/sup> s. - XVII<sup>e<\/sup> s. ; \u00ab de ceu que ledit dus \/ devoit tenir dou roy \/ de Navairre\u00bb, XIV<sup>e<\/sup> s. ; \u00ab le Neuf Chasteau, Chastenois \/ Frouart et Montfort en \/ fiefs \u00bb, \u00ab 1371, en janvier \u00bb ; \u00ab n\u00b0 13 Neuf \/ Chasteau \u00bb, XVII<sup>e<\/sup> s."
        },
        "17": {
            "type": "transcription",
            "value": "<?xml version=\"1.0\" encoding=\"UTF-8\"?>\n\/01\/ C\u2019est li acors faiz entre nous Thiebaut, duc et marchis de Loirenne, pour nous d\u2019une part et nous Gauchier de Chasteillon, conte de Pourciens, et conne-\/02\/-stable de France pour tres excellent prince nostre tres chier seignour Loys ainnei filz dou roy de France par la grace de Dieu roy de Navarre, de Cham-\/03\/-peigne et de Brie, conte palatin par lui et en son nom d\u2019autre part. Seur les descors meuz entre monseignour de Navarre dessus nomm\u00e9 d\u2019une part et nous \/04\/ le devant dit duc d\u2019autre part, pour cause de l\u2019omaige des chasteaus et chastelleries de Chastenay, de Monfort et de Frouart ensemble le Nuefcha-\/05\/-stel. Et est faiz cilz acors s\u2019il plaist a monseignour de Navarre en la maniere qui s\u2019ensuist : premiers nous Thiebaus, dus desus diz, d\u00e9s mainte-\/06\/-nant mettons en la main dou dit conestable pour monseignour de Navarre desus dit les chasteaus et chastelleries de Chastenoy, de Monfort et de \/07\/ Froart. Et li connestables i met et mettra chastellains et gens pour le roy. Et ira nie bailliz a Chastenay, a Monfort et a Frouart pour comman-\/08\/-der de par nous que tuit obeissent a cels qui mis i seront par le dit connestable pour la roy. Et nous connestables pourprenons pour monseignour de \/09\/ Navarre que mauls ne domaiges ne venra au duc, a sa terre ne a sa gent par monseignour de Navarre ne par sa gent juques a la Panthecoste qui \/10\/ prochienement vient. Et aussins nous Thiebaus, dus devant diz, promettons que nous ne mefferons riens par nous ne par autre de nostre terre \/11\/ ne de nostre gent en la terre le roy desus dit, ne a ses gens. Et irons en l\u2019omaige monseignour de Navarre a Paris aus octaves de Paskes prochie-\/12\/-nemant venens. Et nous connestables entendons que li roys de Navarre messire le recevra en son homaige de ce qui muet de lui sauf li \/13\/ droit de l\u2019une partie et de l\u2019autre. Et tenra li diz messire de Navarre toutes les conveneces que messires li roys de France et madame la reyne \/14\/ Jehanne qui Diey absoille orent au duc en la maniere qu\u2019il est seell\u00e9 et escrit d\u2019une part et d\u2019autre. Et nous li diz connestables avons \/15\/ pourpris et pourprenons pour le roys itous a conduire le duc, sa route et sa compeignie sauf alant par devers noz seignours les roys de \/16\/ France et de Navarre et retournant arriers en son pais soit que li roys le re\u00e7oive en son homaige ou nom. Et promettons on nom qui \/17\/ desus est dit au duc que quant messires de Navarre l\u2019aura repris en son homaige que il ressaisira le duc des diz chasteaus, dou fi\u00e9 et dou Nuef-\/18\/-chastel. Et pour aucunes actions que li roys messires entant a avoir sus le Nuefchastel li dus en venra en la court le roys de Navarre monseignours \/19\/ es leus ou il doit venir par la condition dou fi\u00e9 et des lettres faites derrienemant entre les seignours et la penra et attendra droit. En tesmoing \/20\/ des choses desus dites nous li desus nomm\u00e9 Thiebaus, dus et marchis de Loirenne, et Gauchiers de Chasteillon cuens de Pourciens et \/21\/ connestables de France avons mis noz seauls en ces presentes lettres donees l\u2019an de grace mil trois cens et onze, le jour des vinx jours de Noel.\n"
        },
        "18": {
            "type": "type_source",
            "value": "Original"
        },
        "19": {
            "type": "acte_scelle",
            "value": "oui"
        },
        "20": {
            "type": "id_telma",
            "value": "630321"
        },
        "21": {
            "type": "sceau",
            "value": "Deux sceaux sur double queue"
        },
        "22": {
            "type": "image_interne",
            "value": "http:\/\/telma-chartes.irht.cnrs.fr\/telma_img\/transscript\/transscript-FRAD054_B833_13v.JPG"
        },
        "23": {
            "type": "image_interne",
            "value": "http:\/\/telma-chartes.irht.cnrs.fr\/telma_img\/transscript\/transscript-FRAD054_B833_13s1.JPG"
        },
        "24": {
            "type": "image_interne",
            "value": "http:\/\/telma-chartes.irht.cnrs.fr\/telma_img\/transscript\/transscript-FRAD054_B833_13s2.JPG"
        },
        "25": {
            "type": "image_interne",
            "value": "http:\/\/telma-chartes.irht.cnrs.fr\/telma_img\/transscript\/transscript-FRAD054_B833_13cs2.JPG"
        },
        "26": {
            "type": "sources_manuscrites",
            "value": "FRANCE, Nancy, Archives d\u00e9partementales de Meurthe-et-Moselle, B 408 f\u00b0 230v-231r (XVI<sup>e<\/sup> si\u00e8cle)",
            "children": {
                "type_source": "Cartulaire"
            }
        },
        "27": {
            "type": "sceau",
            "value": "",
            "children": {
                "sigilla": "http:\/\/www.sigilla.org\/fr\/sgdb\/acte\/26925"
            }
        },
        "28": {
            "type": "disposant",
            "value": "Louis (10), fils a\u00een\u00e9 du roi de France, roi de Navarre, comte palatin de Champagne et de Brie"
        },
        "29": {
            "type": "beneficiaire",
            "value": "Louis (10), fils a\u00een\u00e9 du roi de France, roi de Navarre, comte palatin de Champagne et de Brie"
        },
        "30": {
            "type": "image_interne",
            "value": "http:\/\/telma-chartes.irht.cnrs.fr\/telma_img\/transscript\/transscript-FRAD054_B833_13r.JPG"
        },
        "31": {
            "type": "description",
            "value": "Original sur parchemin (218 x 310 mm), scell\u00e9 de deux sceaux sur double queue de parchemin"
        }
    }
}