{
    "id": 26796,
    "name": "transscript-734",
    "type": "acte",
    "url": "http:\/\/telma-chartes.irht.cnrs.fr\/transscript\/notice\/26796",
    "project_slug": "transscript",
    "project_label": "TRANSSCRIPT",
    "user": "t_salemme",
    "last_update": "2020-10-19 16:28:05",
    "licence": "Attribution - Pas d\u2019Utilisation Commerciale - Partage dans les M\u00eames Conditions 3.0 France (CC BY-NC-SA 3.0 FR) ",
    "licence_url": "https:\/\/creativecommons.org\/licenses\/by-nc-sa\/3.0\/fr\/",
    "elements": {
        "0": {
            "type": "auteur",
            "value": "Henri (5), comte de Luxembourg et de la Roche, marquis d\u2019Arlon"
        },
        "1": {
            "type": "beneficiaire",
            "value": "Abbaye de Marienthal"
        },
        "2": {
            "type": "destinataire",
            "value": "-"
        },
        "3": {
            "type": "disposant",
            "value": "Jean, fils du chevalier Brunon d\u2019Arlon"
        },
        "4": {
            "type": "date",
            "value": " 1262\/11\/27",
            "children": {
                "date_deb_jour": "27",
                "date_deb_mois": "11",
                "date_deb_annee": "1262"
            },
            "range": {
                "date_apres": 12621127,
                "date_avant": 12621127
            }
        },
        "5": {
            "type": "date_libre",
            "value": "-"
        },
        "6": {
            "type": "date_lieu",
            "value": "-"
        },
        "7": {
            "type": "cote",
            "value": "LUXEMBOURG, Luxembourg, Archives Nationales de Luxembourg, Fonds Weimar, Chartes en provenance du prieur\u00e9 de Marienthal, A-LXI-24"
        },
        "9": {
            "type": "description",
            "value": "Original sur parchemin (mm. 245 x 125, avec repli) scell\u00e9 sur double queue de parchemin"
        },
        "10": {
            "type": "langue",
            "value": "latin"
        },
        "11": {
            "type": "authenticite",
            "value": "non suspect\u00e9"
        },
        "12": {
            "type": "genre",
            "value": "Charte"
        },
        "13": {
            "type": "type_source",
            "value": "Original"
        },
        "14": {
            "type": "analyse",
            "value": "Henri (5), comte de Luxembourg, de la Roche et marquis d\u2019Arlon, fait savoir que Jean, fils du jadis Brunon, chevalier d\u2019Arlon, a donn\u00e9 au monast\u00e8re de Marienthal, avec le consentement de sa femme Ida et de ses fils, sa partie de la d\u00eeme Thieaumont qui lui comp\u00e8te \u00e0 titre h\u00e9reditaire, en y reservant toutefois l\u2019usufruit en faveur de sa m\u00e8re Helwide ; \u00e0 titre de compensation, il s\u2019engage \u00e0 correspondre audit \u00e9tablissement 4 maldres de seigle \u00e0 la mesure d\u2019Arlon, \u00e0 prendre chaque ann\u00e9e jusqu\u2019au d\u00e9c\u00e8s de ladite Helwide sur ses biens \u00e0 Bitbourg. Ledit comte Henri (5) ratifie la donation par l\u2019apposition de son sceau."
        },
        "15": {
            "type": "transcription",
            "value": "<?xml version=\"1.0\" encoding=\"UTF-8\"?>\n\/01\/ Nos Henricus, comes Lucelimburgensis et Rupensis et marchio Arlunensis, universis presentes litteras inspecturis ac legi audituris. Notum esse volumus \/02\/ quod Johannes filius bone memorie domini Brunonis quondam militis Arlunensis, in nostra presentia constitutus, partem decime site apud Didenberch cum censibus ac \/03\/ omnibus juribus sicut pater eius possedit, ad ipsum per successionem hereditariam pertinentem, quam ipsius Johannis mater domina Helwidis adhuc habet et possidet, \/04\/ monasterio sanctimonialium Vallis Sancte Marie ordinis Sancti Augustini, Treverensis diocesis, confert liberaliter atque donat pro suorum remedio peccatorum, consentientibus Ida, \/05\/ ipsius uxore, et liberis ceterisque quorum consensus est necessarius, salvo tantum predicte matri sue usufructu quoad vixerit et sibi integraliter reservato ; \/06\/ post cuius matris quidem decessionem, .. priorissa et conventus monasterii supradicti antedicte decime particularis cum usufructu possessione gaudebunt et \/07\/ perceptione in perpetuum. Preterea supradictus Johannes temporibus quibus matri sue usufructus cedit prelibatus, ex mera liberalitate promittit se daturum et \/08\/ collaturum annis singulis in festo Omnium Sanctorum .. priorisse et conventui memoratis quatuor maldra siliginis Arlunensis mensure apud Beddeburch persolven- \/09\/-da ; pro quibus dandis et conferendis, obligat dictus Johannes ipsis .. priorisse et conventui bona sua omnia sita apud Beddeburch titulo ypothece ; que \/10\/ quidem quatuor maldra, usufructu predicto ad predictas .. priorissam et conventum perveniente, penitus extinguentur. In cuius rei veritatem et memori- \/11\/-am perpetuam presentes litteras inde confectas sigilli nostri munimine ad petitionem ipsius Johannis, uxoris ac liberorum eorundem duximus roborandas. Actum \/12\/ et datum anno Domini .Mo. .CCo. .LXo. secundo, .V. kalendas decembris.\n"
        },
        "16": {
            "type": "remarques",
            "value": "-"
        },
        "17": {
            "type": "mention_hors_teneur",
            "value": "-"
        },
        "18": {
            "type": "note_dorsale",
            "value": "\u00ab Didenberch .I. \u00bb, XVI<sup>e<\/sup> s. ; \u00ab Didenberch. De decima cum censibus apud Didenberch et .IIII. maldris siliginis apud Beddeburch \u00bb, XVI<sup>e<\/sup> s., suivi par \u00ab pro hypoteca \u00bb, XVIII<sup>e<\/sup> s. ; \u00ab I \u00bb, XVI<sup>e<\/sup> s. ; \u00ab 1262 5 Xbris \u00bb, XVIII<sup>e<\/sup> s. ; \u00ab Thiaumont. Donation d'une parte de disme et autres cens par Jean chevalier d'Arlon et Ida son \u00e9pouse soub hypoteque de quatre maldres de seigle annuels a prendre sur [les] biens proche Bettenbourg. Ratifie par Henry comte de Luxemburg, .V. kal. Xbris, 1262 \u00bb, XVIII<sup>e<\/sup> s. ; \u00ab Marienthal. N\u00b0 95, \u00e0 ann\u00e9antir \u00bb, fin XVIII<sup>e<\/sup>-d\u00e9but XIX<sup>e<\/sup> s."
        },
        "19": {
            "type": "edition",
            "value": "J. BERTHOLET, <i>Histoire eccl\u00e9siastique et civile du duch\u00e9 de Luxembourg et comt\u00e9 de Chiny<\/i>, t. V, <i>preuves<\/i>, Luxembourg 1743, p. 37 (\u00e0 la date 1252)"
        },
        "20": {
            "type": "edition",
            "value": "N. VAN WERVEKE, <i>Cartulaire du prieur\u00e9 de Marienthal<\/i>, t. 1, <i>1231-1317<\/i>, in Publications de la Section Historique, XXXVIII, Luxembourg, 1885, n\u00b0 84, p. 68"
        },
        "21": {
            "type": "edition",
            "value": "C. WAMPACH, <i>Urkunden- und Quellenbuch zur Geschichte der altluxemburgischen Territorien bis zur burgundischen Zeit<\/i>, t. III, Luxembourg, 1939, n\u00b0 406, p. 437-439"
        },
        "22": {
            "type": "regeste",
            "value": "F.-X. W\u00dcRTH-PAQUET, <i>Table chronologique des chartes et dipl\u00f4mes relatifs \u00e0 l'histoire de l'ancien pays et duch\u00e9 de Luxembourg. R\u00e8gne de Henri II (1246-1281)<\/i>, in Publications de la Section historique, XV (1860), n\u00b0 231, p. 92"
        },
        "23": {
            "type": "regeste",
            "value": "A. WAUTERS, <i>Table chronologique des chartes et dipl\u00f4mes imprim\u00e9s concernant l'histoire de la Belgique<\/i>, V, <i>1251-1276 (suppl\u00e9ment)<\/i>, Bruxelles 1877, n\u00b0 45 (\u00e0 la date 1252)"
        },
        "24": {
            "type": "mention",
            "value": "-"
        },
        "25": {
            "type": "sources_manuscrites",
            "value": "LUXEMBOURG, Luxembourg, Archives Nationales de Luxembourg, A-XXXIX-6\/2, f\u00b0 42 (copie collationn\u00e9e et certifi\u00e9e dans le cartulaire de Marienthal, XVI<sup>e<\/sup> s. (1511))",
            "children": {
                "type_source": "Cartulaire"
            }
        },
        "26": {
            "type": "responsable",
            "value": "Timothy Salemme"
        },
        "27": {
            "type": "acte_scelle",
            "value": "oui"
        },
        "28": {
            "type": "sceau",
            "value": "Sceau \u00e9questre du comte Henri (5) de Luxembourg, en cire ; empreinte endommag\u00e9e"
        },
        "29": {
            "type": "image_interne",
            "value": "http:\/\/telma-chartes.irht.cnrs.fr\/telma_img\/transscript\/transscript-A-LXI-24_(1262,_27_novembre)_recto.jpg"
        },
        "30": {
            "type": "image_interne",
            "value": "http:\/\/telma-chartes.irht.cnrs.fr\/telma_img\/transscript\/transscript-A-LXI-24_(1262,_27_novembre)_verso.jpg"
        }
    }
}