{
    "id": 26842,
    "name": "transscript-744",
    "type": "acte",
    "url": "http:\/\/telma-chartes.irht.cnrs.fr\/transscript\/notice\/26842",
    "project_slug": "transscript",
    "project_label": "TRANSSCRIPT",
    "user": "d_remy",
    "last_update": "2020-10-19 16:28:06",
    "licence": "Attribution - Pas d\u2019Utilisation Commerciale - Partage dans les M\u00eames Conditions 3.0 France (CC BY-NC-SA 3.0 FR) ",
    "licence_url": "https:\/\/creativecommons.org\/licenses\/by-nc-sa\/3.0\/fr\/",
    "elements": {
        "0": {
            "type": "auteur",
            "value": "Henri Dauphin, \u00e9v\u00eaque de Metz"
        },
        "1": {
            "type": "beneficiaire",
            "value": "Ferry (4), duc de Lorraine et marquis"
        },
        "2": {
            "type": "disposant",
            "value": "Henri Dauphin, \u00e9v\u00eaque de Metz"
        },
        "3": {
            "type": "date",
            "value": " 1319\/09\/28",
            "children": {
                "date_deb_jour": "28",
                "date_deb_mois": "09",
                "date_deb_annee": "1319"
            },
            "range": {
                "date_apres": 13190928,
                "date_avant": 13190928
            }
        },
        "4": {
            "type": "cote",
            "value": "FRANCE, Nancy, Archives d\u00e9partementales de Meurthe-et-Moselle, 3 F 465, n\u00b0 51"
        },
        "7": {
            "type": "description",
            "value": "Original sur parchemin, jadis scell\u00e9 de quatre sceaux sur double queue"
        },
        "8": {
            "type": "langue",
            "value": "fran\u00e7ais"
        },
        "9": {
            "type": "authenticite",
            "value": "non suspect\u00e9"
        },
        "10": {
            "type": "genre",
            "value": "Lettre"
        },
        "11": {
            "type": "type_source",
            "value": "Original"
        },
        "12": {
            "type": "analyse",
            "value": "Henri Dauphin, \u00e9v\u00eaque de Metz, fait savoir qu\u2019il promet d\u2019indemniser sur ses biens propres ou sur ceux de son temporel, le duc Ferry (4) de tous les dommages qu\u2019il pourrait subir \u00e0 cause du cautionnement qu\u2019il a donn\u00e9 pour lui \u00e0 Henri de F\u00e9n\u00e9trange, sur recommandation de Jean de Sarrebruck, seigneur de Commercy. Le duc devra \u00eatre indemnis\u00e9 dans un d\u00e9lai de sept mois apr\u00e8s sa requ\u00eate et il sera cru sur simple serment. Hugues de Ch\u00e2lons et Aymar [Adh\u00e9mar] de Poitiers le jeune, fr\u00e8re et beau-fr\u00e8re d\u2019Henri Dauphin, se constituent arri\u00e8re-pleiges. Si Henri Dauphin n\u2019indemnisait pas le duc dans le d\u00e9lai imparti, Guy de Grolaye, Andr\u00e9 de Grenoble, Artaud de Beaumont, vicaires et gouverneurs du dioc\u00e8se de Metz en l\u2019absence de l\u2019\u00e9v\u00eaque, se tiendront pour otages \u00e0 Metz jusqu\u2019\u00e0 r\u00e9alisation de l\u2019indemnisation."
        },
        "13": {
            "type": "transcription",
            "value": "<?xml version=\"1.0\" encoding=\"UTF-8\"?>\n\/01\/ Nous Hanris Dalfins, par la graice de Deu eleut et confirmeis de Mes, faisons savoir et cognissant a tous, que comme haus et nobles princes \/02\/ nostre chiers et ameis coizins Ferris, dus de Lorainne et marchis, se soit mins et estaublis pour nous pur vrais plages, vrais rendeires et \/03\/ pour principalz depreres envers Hanry de Fenestranges signour de Falquemont dou dict et dou rapport de noble homme nostre chier et fyauble couzin \/04\/ Jehan conte de Sarbruches et signour de Commarcey, si comme de ceu qu\u2019il dira et raportera que nous serons tenus enver le dict Hanry de Fenestrangez \/05\/ pour les demaiges qu\u2019il et sui aidans ont fait pour nostre eveschi\u00e9 de Mes et pour la guerre de la dite eveschi\u00e9 et pour les commises que li di signour \/06\/ Hanris ait fais et li dis dus de Lorainne ait recognu et promis par ses lettres de faire grey au dit [...] de tout ceu qui sera rapourtei par le \/07\/ dict conte de Sarbruches et par sa lettre seelee de son grant seel pendant et de tous cous et demaiges que [le dict] Hanris averoit a porchessier la satis-\/08\/-faction dou dict raport, tout einci et en la meniere qu\u2019il est contenu en dites lettres et de ceu ait obligier li dis dus au dict Hanry tous ses bienz \/09\/ presens et avenir pour panre, vendre et despendre por lou dict Hanry et por ses aidans, sens faire recrance ne coustume de pais, jusques a tant que li dis \/10\/ Hanris se tanroit apaies entierement de tout ceu que raportei li seroit par le dict conte de Sarbruches einci comme dessus est dict, tout einci comme ces \/11\/ chozes sont plainnement contenues en lettres que li dis Hanris en at dou dict duc, assavoir est que nous par nous et par nos gens qui ont pooir de ceu \/12\/ faire, avons promis et prometons, en bonne foy et lealment, que nous garderons le dict duc nostre coizin de tous les demaiges et de toutes les coustengez \/13\/ qu\u2019il avera et encourra en quelque meniere que ce soit pour raison de l\u2019obligacion, plegerie et renderie dessus dite. Desqueis cous et demaiges se acunz \/14\/ en y avoit li dis dus seroit creus par son simple sarment sens autre preuve. Et pour plus grant surtei a avoir au dict duc nous l\u2019en avons obligier et \/15\/ obligons tous nos biens meubles et heritaiges presens et avenir, soit de nostre propre heritaige soit de l\u2019eveschi\u00e9, les quelz biens meubles et heritages \/16\/ li dis dus poroit panre et faire panre par cui qui li plairoit et vendre et despendre a sa voluntei sens faire droit ne coustume de pais jusques \/17\/ a tant qu\u2019il averoit plainne satisfaction et entiere de tous les cous, demaiges et missions qu\u2019il averoit eus et receus en quelque meniere que ce fust \/18\/ pour raison de l\u2019obligacion, plegerie et renderie dessus dite, des queis cous et demaiges, li dis dus seroit creus par son simple sarment sens autre \/19\/ preuve si comme dessus est dict. Encor avons nous promis et prometons au dict duc que dedans VII mois apres sa requeste faite par sa lettre ou \/20\/ par son certein mesaige nous en estaublirons pour toutes les chozes dessus dites en ariers plages enver le dict duc, haus et nobles hommes nos \/21\/ ameis freires et serourges monsignour Hugne de Chalon signour d\u2019Erlay et monsignour Hainmar de Poitier li jone, chascun pour le tout et les en \/22\/ serons obligier enver le dict duc par lour lettres, et se nous ne le faisiens, nous volons et commandons d\u00e8s mantenant que le mois passei tantost nostre \/23\/ bien amei et fiauble messire Guys de Groleyt sires de Neerey chevaliers et Andreus dis Supz de Grenobles, nostre consillieres, et Artaus de Biairmont \/24\/ escuiers, les quelz nous avons tramis en nostre eveschi\u00e9 de Mes pour vicaires et pour governeurs en leu de nous promessent a tenir toutes \/25\/ les chozes dessus dites et s\u2019en obligoient en lour persones comme ariers plages et aviec ceu qu\u2019il ne puissent partir de la citei de Mes par lour sarment \/26\/ jusques a tant que li dis dus avera bonnes lettres seelees des dis monsignour Hugue et monsignour Hainmar et de lour seelz contenans l\u2019obligacion de l\u2019arier \/27\/ plegerie dessus dite. Et aviec ceu qu\u2019il ne puissent partir de la dite ville et citei de Mes quant il en seront requis dou dict duc et de son certein \/28\/ commandement jusques a tant que li dis dus se tanrai apaies de toutes les coustanges et missions qu\u2019il averoit et encourroit pour l\u2019obligacion \/29\/ dessus dite. Et nous Guys de Groleye, Andreus dis Supz et Artaus de Bieaumont, de l\u2019especiaul commandement nostre dict signour l\u2019eleut et con-\/30\/-firmei de Mes dessus dict, avons promis et prometons par nos foys donnees corporelment en leu de sarment que se li dis dus avoit cous ne \/31\/ demaiges en l\u2019obligacion dessus dite faite enver lou dict Hanry si comme dessus est escrit, nous comme ariers plages l\u2019en garderiens de tous \/32\/ demaiges et l\u2019en creriens par son simple sarment sens autre preuve, et pour plus grant surtei avoir nous en obligons chascuns de nouz \/33\/ pour le tout tous nos biens meubles et heritaiges pour panre, vendre et despendre en la meniere dessus dite. Encor avons promis par nos dites \/34\/ foys que se li dis dus dedans VII mois apres sa requeste faite par sa lettre ou par son certein mesaige si comme dessus est dict n\u2019avoit les lettres de monsigour Hugue \/35\/ de Chalons et de monsignour Hainmar de Poitiers de l\u2019arrier plegerie dessus dite, que nous ne parteriens de la [citei] de Mes se par lou grey dou dict duc n\u2019estoit \/36\/ tant qu\u2019il averoit les dites lettres seelees, sainnes et entieres teilles qu\u2019il panroit agrey. Et prometons encor par nos dites foys donnees corporelment \/37\/ en leu de sarment comme drois ariers plages pour le dict monsignour l\u2019eleut que a la requeste dou dict duc ou de son certein commandement, nous \/38\/ irons tenir ostaiges a Mes en nos propres persones, ne n\u2019en partiriens, se par lou grey dou dict duc n\u2019estoit, tant qu\u2019il se tanroit apaies de \/39\/ tous les demaiges et coustanges qu\u2019il averoit et encouroit pour raison de l\u2019obligacion dessus dite, dont il seroit creus par son simple sarment \/40\/ sens autre preuve. En tesmongnaige de verit\u00e9 et pour ce que toutes les chozes dessus dites soient fermes et estaubles, nous Hanris Dalfins, eleus et confirmeis de \/41\/ Mes, et nous Guys de Groleye chevaliers, Andreus dis Supz de Grenoble et Artaus de Biaumont dessus dis, avons mis nos seelz pendans et fait mestre chascun \/42\/ le sien en ces presentes lettres, qui furent faites l\u2019an de graice Nostre Signour mil trois cens et deix neuf le venredi devant feste Sain Mychiel, on \/43\/ mois de septembre\n"
        },
        "14": {
            "type": "note_dorsale",
            "value": "\u00ab Narration \/ R(egistrata) \u00bb, \u00ab Lettres dez covenences dez mainbours \/ de Mes et de l\u2019evesque pour cause \/ d\u2019une plegerie \u00bb, XIV<sup>e<\/sup> s. ; dans le sens inverse : \"n\u00b0 51\" ; \u00ab Henry Daulphin, evesque de \/ Mes, promeit d\u2019indemniser Ferry, duc de \/ Lorraine, de toutes pertes et dommages qu\u2019il \/ pourroit encourir a cause d\u2019une ressension \/ qu\u2019il a faicte pour luy envers le seigneur de \/ Fenestranges. \/ M.CCC.XIX \u00bb, XVI<sup>e<\/sup> s. ; \u00ab le 28 septembre \u00bb ; \"d 12\", XVIII<sup>e<\/sup> s.  "
        },
        "15": {
            "type": "edition",
            "value": "J. VIGNIER, <i>La V\u00e9ritable origine des tr\u00e8s illustres maisons d\u2019Alsace, de Lorraine, d\u2019Autriche, de Bade et de quantit\u00e9 d\u2019autres [Texte imprim\u00e9], avec les tables g\u00e9n\u00e9alogiques... des dites maisons... depuis l\u2019an... 600 jusques \u00e0 pr\u00e9sent, le tout v\u00e9rifi\u00e9 par titres, chartres, monuments et histoires authentiques<\/i>, Paris, 1649, p. 156"
        },
        "16": {
            "type": "edition",
            "value": "DUMONT, Jean, <i>Corps universel diplomatique du droit des gens ; contenant un recueil des trait\u00e9s, d\u2019alliances, de paix, de tr\u00eaves [\u2026]<\/i>. \u2013 Amsterdam : chez p. Brunnel, R. et G. Wetstein, les Jansson-Waesberge, l \u2018Honor\u00e9 et Chatelain. \u2013 La Haye : chez p. Husson et Charles Levier, 1726. Tome I, 1er partie, n\u00b0 597 (avec date du 27 ao\u00fbt 1306), t. I, 2<sup>e<\/sup> partie, n\u00b0 828, p. 48. En ligne sur GALLICA : t. I : <a target=\"_blank\" href=\" http:\/\/gallica.bnf.fr\/ark:\/12148\/bpt6k1264885d\/f1.image\">http:\/\/gallica.bnf.fr\/ark:\/12148\/bpt6k1264885d\/f1.image<\/a>"
        },
        "17": {
            "type": "sources_manuscrites",
            "value": "FRANCE, Nancy, Archives d\u00e9partementales de Meurthe-et-Moselle, B 424, f\u00b0 956v (XVI<sup>e<\/sup> s.)",
            "children": {
                "type_source": "Cartulaire"
            }
        },
        "18": {
            "type": "responsable",
            "value": "Denis Remy ; Mathias Bouyer"
        },
        "19": {
            "type": "image_interne",
            "value": "http:\/\/telma-chartes.irht.cnrs.fr\/telma_img\/transscript\/transscript-FRAD054_3F465_51.JPG"
        },
        "20": {
            "type": "image_interne",
            "value": "http:\/\/telma-chartes.irht.cnrs.fr\/telma_img\/transscript\/transscript-FRAD054_3F465_51v_detail.JPG"
        },
        "21": {
            "type": "regeste",
            "value": "H. LEVALLOIS, <i>Table chronologique provisoire des actes des ducs Thi\u00e9baut II et Ferry IV conserv\u00e9s dans le Tr\u00e9sor des chartes de Lorraine ou publi\u00e9s et analys\u00e9s<\/i>, Nancy, Biblioth\u00e8que municipale, ms. 1185 (4 et 5)"
        },
        "22": {
            "type": "regeste",
            "value": "J. BRIDOT, <i>Catalogue des actes de Ferry IV, Duc de Lorraine (1312-1329)<\/i>, Nancy, Biblioth\u00e8que municipale de Nancy (copie dactylographi\u00e9e du dipl\u00f4me d\u2019\u00e9tudes sup\u00e9rieures soutenu devant la Facult\u00e9 des Lettres de Nancy), 1949, n\u00b0 236"
        },
        "23": {
            "type": "mention",
            "value": "H. C. DU FOURNY, FRANCE, Nancy, Biblioth\u00e8que municipale, ms. 763 (anc. 177), t. X, 1\u00e8re partie, p. 184"
        },
        "26": {
            "type": "mention",
            "value": "L. BENOIT, \"Les sires de F\u00e9n\u00e9trange au commencement du XIV<sup>e<\/sup> si\u00e8cle et la pierre tombale de Henry-le-Vieux mort en 1335\", <i>M\u00e9moires de la Soci\u00e9t\u00e9 d'arch\u00e9ologie lorraine<\/i>, S\u00e9rie 2, volume 4 (1862), p. 162"
        },
        "27": {
            "type": "mention",
            "value": "H. V. SAUERLAND, \"Geschichte des Metzer Bistums w\u00e4hrend des vierzehnten Jahrunderts\", <i>Jahrbuch der Gesellschaft f\u00fcr Lothringische Geschichte<\/i>, volume 6 (1894), p. 152"
        },
        "28": {
            "type": "acte_scelle",
            "value": "oui"
        },
        "29": {
            "type": "sceau",
            "value": "Quatre sceaux sur double queue perdus"
        }
    }
}