{
    "id": 19983,
    "name": "transscript-433",
    "type": "acte",
    "url": "http:\/\/telma-chartes.irht.cnrs.fr\/transscript\/notice\/19983",
    "project_slug": "transscript",
    "project_label": "TRANSSCRIPT",
    "user": "l_gili",
    "last_update": "2020-10-19 16:26:43",
    "licence": "Attribution - Pas d\u2019Utilisation Commerciale - Partage dans les M\u00eames Conditions 3.0 France (CC BY-NC-SA 3.0 FR) ",
    "licence_url": "https:\/\/creativecommons.org\/licenses\/by-nc-sa\/3.0\/fr\/",
    "elements": {
        "0": {
            "type": "auteur",
            "value": "Raoul, duc de Lorraine et marquis"
        },
        "1": {
            "type": "beneficiaire",
            "value": "Donaite, \u00e9chevin de Marsal"
        },
        "2": {
            "type": "disposant",
            "value": "Raoul, duc de Lorraine et marquis"
        },
        "3": {
            "type": "date",
            "value": " 1340\/01\/14",
            "children": {
                "date_deb_jour": "14",
                "date_deb_mois": "01",
                "date_deb_annee": "1340"
            },
            "range": {
                "date_apres": 13400114,
                "date_avant": 13400114
            }
        },
        "4": {
            "type": "cote",
            "value": "FRANCE, Nancy, Archives d\u00e9partementales de Meurthe-et-Moselle, B\u00a0658 n\u00b0 10"
        },
        "6": {
            "type": "langue",
            "value": "fran\u00e7ais"
        },
        "7": {
            "type": "authenticite",
            "value": "non suspect\u00e9"
        },
        "8": {
            "type": "genre",
            "value": "Lettre"
        },
        "9": {
            "type": "type_source",
            "value": "Original"
        },
        "10": {
            "type": "analyse",
            "value": "Raoul consent \u00e0 ce que Donaite, \u00e9chevin de Marsal, rach\u00e8te pour cent quarante livres de messins, des hoirs de feu Hennelo Contreffoirt, \u00e9chevin de Marsal, pour le tenir \u00e0 titre de gag\u00e8re, tout ce que le duc poss\u00e8de \u00e0 Tarquimpol, o\u00f9 ledit Donaite aura d\u00e9sormais tous les droits et l\u2019autorit\u00e9 dont jouissait le duc\u00a0; il lui assigne en outre sur ladite ville trente livres de messins pour lesquelles ledit Donaite est devenu son homme lige apr\u00e8s l\u2019\u00e9v\u00eaque de Metz et les seigneurs de Salm, et qu\u2019il devra placer en acqu\u00eat sous le duc sit\u00f4t que celui-ci ou ses hoirs auront rachet\u00e9 ladite gag\u00e8re et lesdites trente livres pour cent soixante-dix livres de messins, sauf pour ledit Donaite le droit de prendre la moiti\u00e9 de la p\u00eache, la premi\u00e8re fois que l\u2019\u00e9tang de Tarquimpol sera p\u00each\u00e9 apr\u00e8s ledit rachat, et les r\u00e9coltes des terres qu\u2019il aura ensemenc\u00e9es."
        },
        "11": {
            "type": "transcription",
            "value": "<?xml version=\"1.0\" encoding=\"UTF-8\"?>\n\/01\/ Nous Raous, dus de Loherrenne et merchis, faisons savoir et cognissant a tous que nous par boin consoil et par bonne deliberation et pour lou bien \/02\/ et lou profit de nous et de nostre duchiet avons consentit et ottroiet et par cez presentes lettres consentons et ottroions de nostre plenne volunteit et de nostre plein \/03\/ gr\u00e9s que Donaite, eschevins de Marsal, ait rachaiteit ou rachaitoisset de lai main lez hoirs Hennelo Contressoirt, escheving de Marsal qui fuit, toute \/04\/ lai waigiere que il tenoient de nous et ont tenuit de nous ancessours ; c\u2019est assavoir tout quanque nous avons en lai ville de Teckempaul on ban, on fina-\/05\/-ge et on destroit de lai dite ville soit en hommes, en femmes, en censes, en rentes de blef, de deniers, de chapons et de gelines, en teilles, em prises, em amen-\/06\/-des, en champs, em preis, em boix, en estans, en eawes, en terres, en justice haulte et baisse, en touz signoraiges et en toutes autres droitures que nos \/07\/ avons et avoir poions en lai dite ville de Teckempaul om ban, on finaige et on destroit de lai dicte ville sens niant ou aiques ai retenir. Et lou raichait dessus \/08\/ dit ait fait ou puet faire li dit Donaite parmei lai somme de sept vins livres de messens ou de monoie coursauble pour messire qu\u2019il en ait paiet ou doit paier auz \/09\/ hoirs Hennelo Contressoirt dessus dit ; et pour lou dite somme d\u2019argent li dit Donaite, et sui hoirs apr\u00e9s lui, lui doient avoir et tenir paisiblement de nous et de nos \/10\/ hoirs apr\u00e9s nous en nom de waigiere tout entierement quanque nous avons et poions avoir en touz us en lai dicte ville de Teckempaul om ban, on finai-\/11\/ge et on destroit de lai dicte ville et en toutes lez choses dessus dites si cum dessus est escript et deviseit. Et est encoir assavoir que nous pour nous \/12\/ et pour nous hoirs avons donneit et assigneit et par cez presentes lettres donons et assignons a dit Donaite et ai sez hoirs trente livres de messens sus \/13\/ lai dite ville de Teckempaul et sus tout quanque nous avons om ban, on finaige et on destroit de lai dite ville pour lez queilles trente livres li dit Donai-\/14\/-te est devenus nostre hons de plein homaige apr\u00e9s l\u2019oumaige qu\u2019il nous ait dit qu\u2019il ait fait ai l\u2019eveschiet de Mes et auz signours de Salmes. Et de toute \/15\/ lai waigiere dessus dite avons nous fait et faisons par cez presentes lettres saisit et tenant lou dit Donaite pour lui et pour sez hoirs chaiteilz prenant chaiteilz \/16\/ levant. Et mandons et commandons a touz nous hommes et subgis de lai dite ville de Teckempaul qu\u2019il soient respondans, obeissans et asseiz faisans a dit Do-\/17\/-naite et ai sez hoirs apr\u00e9s lui ensi comme il seroient a nous et ai nous hoirs apr\u00e9s nous, car li dis Donaite et sui hoirs apr\u00e9s lui ont et averont tout \/18\/ lou droit et lou commandement que nous aviens en lai ville de Teckempaul om ban, on finaige et on destroit de lai dicte ville jusques ai ceu que nous ou \/19\/ nous hoirs apr\u00e9s nous lai raichaiterons parmei la somme de ouct vins et deix livres de messens que nous ou nous hoirs apr\u00e9s nous en deverons paier \/20\/ tout ensamble a une foyz a dit Donaite ou ai sez hoirs apr\u00e9s lui tant pour l\u2019argent de lai dite waigiere quant pour l\u2019omaige dessus dit qu\u2019il nous \/21\/ ait fait ; et quant nous ou nous hoirs apr\u00e9s nous ferons lou dit raichait nous ne pourrons ne ne doverons riens raibaitre ne demandeir \/22\/ a dit Donaite ne ai sez hoirs apr\u00e9s lui de nuns chaiteilz ne d\u2019aultres choses qu\u2019il averoient pris ne leveit en queil meniere que si fuit en lai \/23\/ dicte waigiere tant comme il et sui hoirs apr\u00e9s lui l\u2019averoient tenuit et que nous ou nous hoirs apr\u00e9s nous l\u2019averons raichaiteit car lez dis \/24\/ chaiteilz lour avons nous donneit et donnons par cez presentes lettres tout franchement en amendement et en acroixement dou fi\u00e9s que il tient de \/25\/ nous ; et est encoir assavoir que toutes lez foys que nous ou nous hoirs raichaiteriens lai waigiere dessus dicte li dis Donaite ou sui hoirs \/26\/ deveroient mettre en acquest lez dites trente livres de messens et lou dit aquest repenre de nous ou de nous hoirs et s\u2019il ne trovoient lou \/27\/ dit aquest il pourroient repenre de nous tant de lour franc heritaige que peust valoir lez dictes trente livres ; et est encoir assavoir que quant \/28\/ nous ou nous hoirs raichaiteriens lez choses dessus dites li dis Donaite ou sui hoirs averoient la moiti\u00e9 de toute lai paxerie que seroit \/29\/ en nous estang de Teckempaul lai premiere foy qu\u2019il seroient paixi\u00e9s apr\u00e9s lou dit raichait fait ; et averoient encoir tout lez blef qu\u2019il \/30\/ averoient someit et fruitiffiet sus lez terres appendant en lai dite waigiere ; et quant il averoient pris la moiti\u00e9 de lai paixerie et leveit \/31\/ lez dis blef lez dictes terres et li estans nous seroient delivreiz ; et toutes lez choses dessus dites avons nous promis et prometons pour nous \/32\/ et pour nous hoirs em bone foy et loiaulment de tenir et d\u2019accomplir sens aleir a l\u2019encontre. En tesmoingnaige de veriteit et pour ceu que \/33\/ ce soit ferme chose et estauble avons nous mis nostre grant saiel en cez presentes lettres que furent faites quant il ot a milliaire mil trois cent \/34\/ trente et neuf ans lou samedi apr\u00e9s lez octaves de l\u2019apparition Nostre Signour.\n"
        },
        "12": {
            "type": "note_dorsale",
            "value": "\u00ab\u00a0Ce sont les lettres des dou vaire ... \/ ... paiere de lai veigne \/ de Tachenpal \u00bb, XIV<sup>e<\/sup> s. ; \u00ab\u00a0N\u00b0 10 Dieuse\u00a0\u00bb\u00a0XV<sup>e<\/sup>-XVI<sup>e<\/sup> s. ; \u00ab Gagiere \/ du village de Techempful et de \/ ses apparte(nances) \/ a Donate, eschevin de Marsal, pour \/ 140 livres messains. rechang\u00e9e depuis de 30 livres \/ au moyen de quoy est devenu homme a monseigneur \/ le duc Ferry et a charge de remploier les 30 livres \/ apr\u00e9s le rachapt faict. \/ 1339\u00a0\/\u00a0Ledit rachapt a \u00e9st\u00e9 faict depuis par Jan Wise de \/ Gerbeviller, bailly d\u2019Allemagne, et Guerlach de \/ Beaurains par permission et consentement de monseigneur \/ le duc Jan et de monseigneur la duc Charles son filz.\u00a0\/ 1392  \u00bb, XVI<sup>e<\/sup> s. \n"
        },
        "13": {
            "type": "regeste",
            "value": "H. LEVALLOIS, <i>Catalogue des actes de Raoul, duc de Lorraine, 1329 \u00e0 1346<\/i>, Nancy,\u00a0Biblioth\u00e8que municipale de Nancy, 1902 (dact.), n\u00b0 190"
        },
        "14": {
            "type": "mention",
            "value": "H. LEPAGE, <i>Les communes de la Meurthe. Journal historique des villes, bourges, villages, hameaux et censes de ce d\u00e9partement<\/i>, 2 vol, Nancy, 1853. 799 pages, y compris les tables des mati\u00e8res\u00a0: Table des noms de lieux, 723- 767\u00a0; Table des noms de familles, 769-786\u00a0; Table des mati\u00e8res, 787-799. p. \u00a0542"
        },
        "15": {
            "type": "sources_manuscrites",
            "value": "FRANCE, Nancy, Archives d\u00e9partementales de Meurthe-et-Moselle, B\u00a0384 f\u00b0\u00a0347r (XVI<sup>e<\/sup>\u00a0s.)",
            "children": {
                "type_source": "Cartulaire"
            }
        },
        "16": {
            "type": "sources_manuscrites",
            "value": "FRANCE, Paris, Biblioth\u00e8que nationale de France, Collection Moreau 404 f\u00b0\u00a064 (copie du XVIII<sup>e<\/sup>\u00a0si\u00e8cle)",
            "children": {
                "type_source": "Copie"
            }
        },
        "17": {
            "type": "responsable",
            "value": "Laura Gili-Th\u00e9baudeau",
            "children": {
                "sigilla": ""
            }
        },
        "18": {
            "type": "image_interne",
            "value": "http:\/\/telma-chartes.irht.cnrs.fr\/telma_img\/transscript\/transscript-FRAD054_B658_10r.JPG"
        },
        "19": {
            "type": "image_interne",
            "value": "http:\/\/telma-chartes.irht.cnrs.fr\/telma_img\/transscript\/transscript-FRAD054_B658_10s.JPG"
        },
        "20": {
            "type": "image_interne",
            "value": "http:\/\/telma-chartes.irht.cnrs.fr\/telma_img\/transscript\/transscript-FRAD054_B658_10v1.JPG"
        },
        "21": {
            "type": "image_interne",
            "value": "http:\/\/telma-chartes.irht.cnrs.fr\/telma_img\/transscript\/transscript-FRAD054_B658_10v2.JPG"
        },
        "22": {
            "type": "sceau",
            "value": "Sceau en cire brune sur double queue de parchemin",
            "children": {
                "sigilla": "http:\/\/www.sigilla.org\/fr\/sgdb\/acte\/29192"
            }
        },
        "23": {
            "type": "acte_scelle",
            "value": "oui"
        },
        "24": {
            "type": "description",
            "value": "Original sur parchemin, scell\u00e9 sur double queue"
        }
    }
}