{
    "id": 23674,
    "name": "transscript-499",
    "type": "acte",
    "url": "http:\/\/telma-chartes.irht.cnrs.fr\/transscript\/notice\/23674",
    "project_slug": "transscript",
    "project_label": "TRANSSCRIPT",
    "user": "t_salemme",
    "last_update": "2020-10-19 16:27:16",
    "licence": "Attribution - Pas d\u2019Utilisation Commerciale - Partage dans les M\u00eames Conditions 3.0 France (CC BY-NC-SA 3.0 FR) ",
    "licence_url": "https:\/\/creativecommons.org\/licenses\/by-nc-sa\/3.0\/fr\/",
    "elements": {
        "0": {
            "type": "auteur",
            "value": "Henri (5), comte de Luxembourg et de Namur"
        },
        "1": {
            "type": "beneficiaire",
            "value": "Doyen de l\u2019\u00e9glise de Saint-Jean l\u2019\u00c9vang\u00e9liste de Li\u00e8ge"
        },
        "2": {
            "type": "beneficiaire",
            "value": "Chapitre de l\u2019\u00e9glise de Saint-Jean l\u2019\u00c9vang\u00e9liste de Li\u00e8ge"
        },
        "3": {
            "type": "destinataire",
            "value": "-"
        },
        "4": {
            "type": "disposant",
            "value": "Collard de Filoul, chevalier"
        },
        "5": {
            "type": "date",
            "value": " 1260\/02\/29",
            "children": {
                "date_deb_jour": "29",
                "date_deb_mois": "02",
                "date_deb_annee": "1260"
            },
            "range": {
                "date_apres": 12600229,
                "date_avant": 12600229
            }
        },
        "6": {
            "type": "date_libre",
            "value": "-"
        },
        "7": {
            "type": "date_lieu",
            "value": "-"
        },
        "8": {
            "type": "cote",
            "value": "BELGIQUE, Li\u00e8ge, AE, Fonds Saint-Jean l\u2019\u00c9vangeliste, n\u00b0 47"
        },
        "10": {
            "type": "description",
            "value": "Original sur parchemin (200\/195 mm. x 112\/115 mm.\u00a0; repli\u00a0: 20 mm.) jadis scell\u00e9 d\u2019un sceau pendant sur double queue de parchemin"
        },
        "11": {
            "type": "langue",
            "value": "fran\u00e7ais"
        },
        "12": {
            "type": "authenticite",
            "value": "non suspect\u00e9"
        },
        "13": {
            "type": "genre",
            "value": "Charte"
        },
        "14": {
            "type": "type_source",
            "value": "Original"
        },
        "15": {
            "type": "analyse",
            "value": "Henri (5), comte de Luxembourg et de Namur fait savoir qu\u2019en sa pr\u00e9sence Colard de Filoul, chevalier, a transport\u00e9 au doyen et au chapitre de l\u2019\u00e9glise de Saint-Jean l\u2019\u00c9vang\u00e9liste de Li\u00e8ge le moulin d\u2019Engreux et ses d\u00e9pendances."
        },
        "16": {
            "type": "transcription",
            "value": "<?xml version=\"1.0\" encoding=\"UTF-8\"?>\n Nous Henris, cuens de Namur et de Lucembour, a tous ciaul qui verrunt ces presens  lettres salut et cognoissence de veritei. Nous vous faisons savoir que Colars de  Filoul, chevaliers, devant nous et en nostre presence reconnut qu\u2019il avoit reporteit sous  en la main le doien et le chapitele de l\u2019eglise nostre signours Saint Jehan de Liege  le moulin de d\u2019Amegroi et toutes ces appendises aves l\u2019eglise devant dite\u00a0; et se re- -connut cil Colars ausi qu\u2019il les avoit a guarendir cel moulin et toutes  ces appendises contre touz hommes juques droit. Et en tesmoignage de ce, avons  nous a la requeste de selui Colart donnes ces presentes lettres saalees de  nostre sael a l\u2019eglise devant dite. Ce fut donnei l\u2019an de l\u2019incarnation  nostre Seignour mil deus cens et cinquante nouf, le dimanche  que on chante Reminiscere.\n"
        },
        "17": {
            "type": "remarques",
            "value": "-"
        },
        "18": {
            "type": "mention_hors_teneur",
            "value": "-"
        },
        "19": {
            "type": "note_dorsale",
            "value": "\u00ab\u00a0De molendino de d\u2019Amgroy iuxta Sameres \u00bb, d\u00e9but XIVe s., suivi par \u00ab\u00a0in gallico\u00a0\u00bb, XIVe s.\u00a0; \u00ab\u00a0.M\u00b0. .CC\u00b0..L.\u00a0\u00bb, XIVe s.\u00a0; \u00ab\u00a0Samrey\u00a0\u00bb, XVe s.\u00a0; \u00ab\u00a01259\u00a0\u00bb, XVIIIe s."
        },
        "20": {
            "type": "edition",
            "value": "-"
        },
        "21": {
            "type": "regeste",
            "value": "L. LAHAYE, Inventaire analytique des chartes de la coll\u00e9giale de Saint-Jean l\u2019\u00c9vang\u00e9liste, t. 1, Bruxelles 1921, n\u00b0 155"
        },
        "22": {
            "type": "mention",
            "value": "-"
        },
        "23": {
            "type": "sources_manuscrites",
            "value": "BELGIQUE, Li\u00e8ge, AE, Fonds Saint-Jean-l\u2019\u00c9vang\u00e9liste, Novus Liber Stipalis, f\u00b0 257v"
        },
        "24": {
            "type": "responsable",
            "value": "Timothy Salemme"
        },
        "25": {
            "type": "image_interne",
            "value": "http:\/\/telma-chartes.irht.cnrs.fr\/telma_img\/transscript\/transscript-DSC00747.JPG"
        },
        "26": {
            "type": "acte_scelle",
            "value": "oui"
        },
        "27": {
            "type": "sceau",
            "value": "Sceau du comte Henri (5) de Luxembourg et de Namur, perdu",
            "children": {
                "sigilla": ""
            }
        },
        "28": {
            "type": "image_interne",
            "value": "http:\/\/telma-chartes.irht.cnrs.fr\/telma_img\/transscript\/transscript-DSC00750.JPG"
        }
    }
}