{
    "id": 71,
    "name": "transscript-36",
    "type": "acte",
    "url": "http:\/\/telma-chartes.irht.cnrs.fr\/transscript\/notice\/71",
    "project_slug": "transscript",
    "project_label": "TRANSSCRIPT",
    "user": "t_salemme",
    "last_update": "2020-10-19 16:24:53",
    "licence": "Attribution - Pas d\u2019Utilisation Commerciale - Partage dans les M\u00eames Conditions 3.0 France (CC BY-NC-SA 3.0 FR) ",
    "licence_url": "https:\/\/creativecommons.org\/licenses\/by-nc-sa\/3.0\/fr\/",
    "elements": {
        "0": {
            "type": "analyse",
            "value": "Jean (l\u2019Aveugle), roi de Boh\u00eame et de Pologne et comte de Luxembourg, fait savoir qu\u2019il a donn\u00e9 quittance de la somme de 1.500 livres parisis, que son cousin Jean de Hainaut, seigneur de Beaumont, a re\u00e7ue de son cousin le duc de Lothier, Brabant et Limbourg."
        },
        "1": {
            "type": "auteur",
            "value": "Jean (l\u2019Aveugle), roi de Boh\u00eame et de Pologne, comte de Luxembourg"
        },
        "2": {
            "type": "beneficiaire",
            "value": "Jean (3), duc de Lothier, de Brabant et de Limbourg"
        },
        "3": {
            "type": "disposant",
            "value": "Jean (l\u2019Aveugle), roi de Boh\u00eame et de Pologne, comte de Luxembourg"
        },
        "4": {
            "type": "authenticite",
            "value": "non suspect\u00e9"
        },
        "5": {
            "type": "cote",
            "value": "LUXEMBOURG, Luxembourg, Archives nationales de Luxembourg, A-X-03, n\u00b0 55"
        },
        "6": {
            "type": "responsable",
            "value": "Timothy Salemme"
        },
        "7": {
            "type": "date",
            "value": " 1334\/08\/31",
            "children": {
                "date_deb_annee": "1334",
                "date_deb_mois": "08",
                "date_deb_jour": "31"
            },
            "range": {
                "date_apres": 13340831,
                "date_avant": 13340831
            }
        },
        "8": {
            "type": "description",
            "value": "Original sur parchemin (mm. 295\u00d7 90, dont queue mm. 10), scell\u00e9 sur simple queue de parchemin"
        },
        "10": {
            "type": "edition",
            "value": "A. ESTGEN, M. PAULY et J. SCHROEDER, <i>Urkunden- und Quellenbuch zur Geschichte der altluxemburgischen Territorien, begr\u00fcndet von Camille Wampach<\/i>, t. XI\/1, <i>Die Urkunden Graf Johanns des Blinden (1310-1346). Die Urkunden aus Luxemburger Archivbest\u00e4nden<\/i>, Luxembourg 1997, n\u00b0 L46"
        },
        "11": {
            "type": "regeste",
            "value": "TH. JACOBI, <i>Codex epistolaris Johannis regis Bohemiae. Briefe des L\u00f6nigs Johann von B\u00f6hmen, seiner Verwandten und anderer Zeitgenossen, nebst Ausz\u00fcgen aus Urkunden desselben K\u00f6nigs, al seiner Erg\u00e4nzung zu Fr. B\u00f6hmer\u2019s regesten<\/i>, Berlin 1941, n\u00b0 145"
        },
        "12": {
            "type": "genre",
            "value": "Lettre"
        },
        "13": {
            "type": "langue",
            "value": "fran\u00e7ais"
        },
        "14": {
            "type": "note_dorsale",
            "value": "\u00ab Quitance dou roy de Boeme de .XV<sup>c<\/sup>. libres parisis a payer a mons(igneur) Jehan de Haynn(aut) a la Toussains \u00bb, XIV<sup>e<\/sup> s."
        },
        "15": {
            "type": "transcription",
            "value": "<?xml version=\"1.0\" encoding=\"UTF-8\"?>\n\/01\/ Nous Jehans, par la grace de Dieu roys de Boeme et de Polaine et conte de Luccembourch, faisons savoir as tous \/02\/ que de la somme d\u2019argent de cinquante mil libres parisis que nostre chier et ame cousin le duic de Lothier, de Brabant et de \/03\/ Lymbourch est tenus a nos pour certaine cause, selonc le teneur des lettrez sur ce faites, il a paie pour nos et en nom \/04\/ de nos a nostre chier et ame cousin monsigneur Jehan de Haynnaut, signeur de Byamont, pour le terme des Toussains prochenement \/05\/ venant mil cink cens libres parisis; dezquels nos no tenons pour bien asoult et apaie doudit nostre cousin le .. duic \/06\/ et de tout li aquitons et tous ceaulz qui averont et porroient avoir cause pour li. Par le tesmongnage de ceste lettre seelee de \/07\/ nostre seel, qui furent faites et donnees a Amyens le darrain jour d\u2019oust, l\u2019an .M. .CCC. trente et quatre.\n"
        },
        "16": {
            "type": "type_source",
            "value": "Original"
        },
        "17": {
            "type": "acte_scelle",
            "value": "oui"
        },
        "18": {
            "type": "id_telma",
            "value": "629552"
        },
        "19": {
            "type": "sceau",
            "value": "Sceau secret armorial, \u00e0 l'\u00e9cu \u00e9cartel\u00e9 aux 1 et 4 de Boh\u00eame et aux 2 et 3 de Luxembourg, pos\u00e9 sur une aigle. L\u00e9gende: + S[E]CRETVM IOH'IS REGIS BOEMIE ET COMITIS LVCCELBVRGEN'"
        },
        "24": {
            "type": "destinataire",
            "value": "-"
        },
        "25": {
            "type": "date_libre",
            "value": "-"
        },
        "26": {
            "type": "date_lieu",
            "value": "Amiens"
        },
        "27": {
            "type": "remarques",
            "value": "-"
        },
        "28": {
            "type": "mention_hors_teneur",
            "value": "-"
        },
        "29": {
            "type": "mention",
            "value": "-"
        },
        "30": {
            "type": "image_interne",
            "value": "http:\/\/telma-chartes.irht.cnrs.fr\/telma_img\/transscript\/transscript-A-X-3-55_0000000000.jpg"
        },
        "31": {
            "type": "image_interne",
            "value": "http:\/\/telma-chartes.irht.cnrs.fr\/telma_img\/transscript\/transscript-A-X-3-55_0000000010.jpg"
        }
    }
}