{
    "id": 450,
    "name": "transscript-257",
    "type": "acte",
    "url": "http:\/\/telma-chartes.irht.cnrs.fr\/transscript\/notice\/450",
    "project_slug": "transscript",
    "project_label": "TRANSSCRIPT",
    "user": "t_salemme",
    "last_update": "2020-10-19 16:24:57",
    "licence": "Attribution - Pas d\u2019Utilisation Commerciale - Partage dans les M\u00eames Conditions 3.0 France (CC BY-NC-SA 3.0 FR) ",
    "licence_url": "https:\/\/creativecommons.org\/licenses\/by-nc-sa\/3.0\/fr\/",
    "elements": {
        "0": {
            "type": "analyse",
            "value": "Ferry (3), duc de Lorraine, fait savoir qu'il a jur\u00e9 une alliance avec son oncle Henri (5), comte de Luxembourg, contre quelconque personne \u00e0 l'exception du roi d'Allemagne, du roi de Navarre, du fils du roi Conrad, de l'\u00e9v\u00eaque de Toul, des comtes de Juliers et de Deux-Ponts et des membres de son lignage ; il jure aussi d'aider ledit Henri (5) contre Thibaut (2), comte de Bar, sous peine de 10.000 livres de Metz."
        },
        "1": {
            "type": "auteur",
            "value": "Ferry (3), duc de Lorraine et marquis"
        },
        "2": {
            "type": "beneficiaire",
            "value": "Henri (5), comte de Luxembourg"
        },
        "3": {
            "type": "disposant",
            "value": "Ferry (3), duc de Lorraine et marquis"
        },
        "4": {
            "type": "authenticite",
            "value": "non suspect\u00e9"
        },
        "5": {
            "type": "remarques",
            "value": "-"
        },
        "6": {
            "type": "cote",
            "value": "FRANCE, Paris, Biblioth\u00e8que nationale de France, Provinces Fran\u00e7aises, Collection de Lorraine, vol. 211, n\u00b0 25"
        },
        "7": {
            "type": "responsable",
            "value": "Timothy Salemme"
        },
        "8": {
            "type": "date",
            "value": " 1265\/07\/26",
            "children": {
                "date_deb_annee": "1265",
                "date_deb_mois": "07",
                "date_deb_jour": "26"
            },
            "range": {
                "date_apres": 12650726,
                "date_avant": 12650726
            }
        },
        "9": {
            "type": "description",
            "value": "Original sur parchemin scell\u00e9 sur double queue de parchemin"
        },
        "11": {
            "type": "edition",
            "value": "N. DE WAILLY, <i>Notice sur les actes en langue vulgaire du XIII<sup>e<\/sup> si\u00e8cle contenus dans la Collection de Lorraine, \u00e0 la Biblioth\u00e8que nationale<\/i>, Paris 1878, n\u00b0 105, p. 81"
        },
        "12": {
            "type": "edition",
            "value": "C. WAMPACH, <i>Urkunden- und Quellenbuch zur Geschichte der altluxemburgischen Territorien bis zur burgundischen Zeit<\/i>, t. III, Luxembourg 1939, n\u00b0 514, p. 576-578"
        },
        "13": {
            "type": "edition",
            "value": "Acte n\u00b0 223049 dans \u00ab Chartae Galliae \u00bb. Edition \u00e9lectronique : Institut de Recherche et d'Histoire des Textes, 2014. En ligne : <a target=\"_blank\" href=\"http:\/\/www.cn-telma.fr\/chartae-galliae\/charte223049\/\">http:\/\/www.cn-telma.fr\/chartae-galliae\/charte223049\/<\/a> (d'apr\u00e8s l'\u00e9dition DE WAILLY)"
        },
        "14": {
            "type": "regeste",
            "value": "J. DE PANGE, <i>Catalogue des actes de Ferri III, duc de Lorraine (1251-1303)<\/i>, Paris 1930, n\u00b0 268, p. 54"
        },
        "15": {
            "type": "genre",
            "value": "Lettre"
        },
        "16": {
            "type": "langue",
            "value": "fran\u00e7ais"
        },
        "17": {
            "type": "sources_manuscrites",
            "value": "FRANCE, Nancy, Archives d\u00e9partementales de Meurthe-et-Moselle, B 407. Recueil de titres relatifs aux comtes de Luxembourg et de Chiny, f\u00b0 76v (copie dans cartulaire de la fin du XVI<sup>e<\/sup> s.)",
            "children": {
                "type_source": "Cartulaire"
            }
        },
        "18": {
            "type": "note_dorsale",
            "value": "\u00ab Luxembourg I, n\u00b0 21 \u00bb, XVIII<sup>e<\/sup> s."
        },
        "19": {
            "type": "transcription",
            "value": "<?xml version=\"1.0\" encoding=\"UTF-8\"?>\n\/01\/ Je Ferris, dus de Loh(rraine) et marchis, fas savoir a tous que je sui aloies et jures \/02\/ \u00e0 Henri, conte de Lusenborc, mon chier oncle, a tous jors mais envers tous cels \/03\/ qui puent vivre et morir, fors le roi d\u2019Alemaigne et le roi de Navarre \/04\/ et le fil le roi Conrat et l\u2019evesque de Toul et le conte de Juler et le conte de Deus \/05\/ Pons et mon linage ; et li doit aidier en contre le conte Th(iebaut) de Bar nomeement \/06\/ et en contre tous autres, fors cels qui sunt nomeit ci devant. Et s\u2019il avenoit que je alais-\/07\/-se en contre ceste aliance ne en contre mon sairement, dont Dex me gart, mes oncles \/08\/ devant dis porroit aler au mien et a mes wages partout, et penre dou mien \/09\/ desqu'a .X. mile livres de Meceins par mon greit, ne ne li porroie ne devroie deffen-\/10\/-dre. Et por ce que ce soit chose certaine, ai ie ces letres saelees de mon \/11\/ sael ; qui furent faites l\u2019an de grace mil et .CC. et .LXV., le diemenge apres \/12\/ la Magdelime.\n"
        },
        "20": {
            "type": "type_source",
            "value": "Original"
        },
        "21": {
            "type": "acte_scelle",
            "value": "oui"
        },
        "22": {
            "type": "id_telma",
            "value": "630463"
        },
        "23": {
            "type": "sceau",
            "value": "Sceau \u00e9questre (photo non disponible)"
        },
        "26": {
            "type": "date_libre",
            "value": "-"
        },
        "27": {
            "type": "date_lieu",
            "value": "-"
        },
        "28": {
            "type": "destinataire",
            "value": "-"
        },
        "29": {
            "type": "mention_hors_teneur",
            "value": "-"
        },
        "30": {
            "type": "mention",
            "value": "-"
        }
    }
}