{
    "id": 19755,
    "name": "transscript-367",
    "type": "acte",
    "url": "http:\/\/telma-chartes.irht.cnrs.fr\/transscript\/notice\/19755",
    "project_slug": "transscript",
    "project_label": "TRANSSCRIPT",
    "user": "h_pettiau",
    "last_update": "2020-10-19 16:26:41",
    "licence": "Attribution - Pas d\u2019Utilisation Commerciale - Partage dans les M\u00eames Conditions 3.0 France (CC BY-NC-SA 3.0 FR) ",
    "licence_url": "https:\/\/creativecommons.org\/licenses\/by-nc-sa\/3.0\/fr\/",
    "elements": {
        "0": {
            "type": "auteur",
            "value": "Henri (5), comte de Luxembourg"
        },
        "1": {
            "type": "beneficiaire",
            "value": "Wal\u00e9ran (2) seigneur de Fauquemont et de Montjoie"
        },
        "2": {
            "type": "destinataire",
            "value": "Guillaume (4), comte de Juliers"
        },
        "3": {
            "type": "disposant",
            "value": "Henri (5), comte de Luxembourg"
        },
        "4": {
            "type": "date",
            "value": " 1269\/05\/22",
            "children": {
                "date_deb_jour": "22",
                "date_deb_mois": "05",
                "date_deb_annee": "1269"
            },
            "range": {
                "date_apres": 12690522,
                "date_avant": 12690522
            }
        },
        "5": {
            "type": "cote",
            "value": "France, Lille, Archives d\u00e9partementales du Nord, Chambre des Comptes, B. 1441, No 1581"
        },
        "8": {
            "type": "description",
            "value": "Original sur parchemin, dimensions 290\/295 mm x 155\/148 mm, replis : 18 mm ; deux sceaux de cire brune endommag\u00e9s sur doubles queues sur parchemin."
        },
        "9": {
            "type": "langue",
            "value": "latin"
        },
        "10": {
            "type": "authenticite",
            "value": "non suspect\u00e9"
        },
        "11": {
            "type": "genre",
            "value": "Charte"
        },
        "12": {
            "type": "type_source",
            "value": "Original"
        },
        "13": {
            "type": "analyse",
            "value": "Henri (5), comte de Luxembourg fait savoir au comte Guillaume (4) de Juliers la teneur de l\u2019accord conclu avec son (petit)neveu Wal\u00e9ran (2) de Fauquemont et de Montjoie, au sujet de la vente de Marville et d\u2019Arrancy, par lequel il met en gage le ch\u00e2teau d\u2019Arlon et des d\u00e9pendances tenus en fief du duc de Limbourg comme garantie de sa parole. En cas de forfaiture, le comte de Juliers est pri\u00e9 de ne pas soutenir le comte de Luxembourg mais de se porter au secours de la partie adverse. Il demande en outre au comte de Juliers d\u2019apposer son sceau \u00e0 l\u2019acte, ce que ce dernier fait."
        },
        "14": {
            "type": "transcription",
            "value": "<?xml version=\"1.0\" encoding=\"UTF-8\"?>\n Viro nobili .. Willelmo .. comiti Juliacensi, .. Henricus comes Luceborgensis, salutem in Domino. Cum ego conventiones initas  inter me meo et heredum meorum ex una parte, et dilectum nepotem meum Waleramum, dominum de  Faucoumont et de Mongoie suo et heredum suorum nomine ex altera, super contractu Martisville et de Arencheio  ac eorundem castrorum appendiciarum sub pena amissionis castri de Erlons ac earum appendiciarum eiusdem castri  que de feudo .. ducis Lemborgensis sunt, pro me et heredibus meis futuris comitibus Luceburgensibus vallaverim et  iam in manus predicti domini ducis de Lemborc reportaverim ad hereditandum de eodem castro ac eisdem pertinen  tiis, que de eodem sunt feodo, Waleramum dominum de Faucoumont et de Mongoie, aut eius heredes, si contra dictas  conventiones ego aut heredes mei in aliquo veniremus, prout in litteris super hoc confectis plenius continetur, dilectionem  vestram requiro et attente, quatinus, si contingat, quod absit, me aut heredes meos predictos in penam predictam incidere  et ob hoc controversiam seu guerram moveri prefato Waleramo aut eius heredibus futuris dominis de Faucoumont et de  Mongoie, vos et vestri heredes non michi aut meis heredibus assistere, sed nobis obesse velitis ad tuicionem et defen  sionem castri eiusdem ac pertinenciarum predictarum. Dignum est enim ut quod provida deliberatione et amicorum consilio  gestum est, super hiis inconcussum omnimodo habeatur. Quod vobis ac universis sub sigillo meo significans conscribo,  postulans ut in signum vestri consensus el testimonium premissorurn sigillum vestrum presentibus appendatis. Nos vero comes  Juliacensis antedictus ad requisitionem dicti comitis Luceborgensis et in signum nostri consensus et testimonium antedictorum  eisdem litteris sigillum nostrum una cum sigillo dicti comitis Luceborgensis presentibus profitemur esse appensum. Datum anno  Domini Mo. CCo. Lmo. X. nono, feria quarta post Trinitatem.\n"
        },
        "15": {
            "type": "note_dorsale",
            "value": "1269 ...  Juliacen(sis)"
        },
        "16": {
            "type": "edition",
            "value": "C. WAMPACH, Urkunden \u2013 und Quellenbuch zur Geschichte der altluxemburgischen Territorien, IV, Luxembourg 1940, n<sup>o<\/sup> 131, p. 193-195"
        },
        "17": {
            "type": "regeste",
            "value": "D.J. GODEFROY Inventaire des archives de la Chambre des comptes \u00e0 Lille, I, n<sup>o<\/sup> 1581, p. 619"
        },
        "18": {
            "type": "regeste",
            "value": "J. de SAINT-GENOIS, Monuments anciens, essentiellement utiles \u00e0 la France, aux provinces de Hainaut, Flandre, Brabant, Namur [\u2026] et autres pays limitrophes de l'Empire, Bruxelles 1804-1806, I,2, p. 621"
        },
        "19": {
            "type": "regeste",
            "value": "A. VERKOOREN, Inventaire des chartes et des cartulaires du Luxembourg, I, Bruxelles 1914, n<sup>o<\/sup> 209, p. 163"
        },
        "20": {
            "type": "responsable",
            "value": "H\u00e9rold Pettiau"
        },
        "21": {
            "type": "image_interne",
            "value": "http:\/\/telma-chartes.irht.cnrs.fr\/telma_img\/transscript\/transscript-DSC06760.JPG",
            "children": {
                "commentaire": "Recto"
            }
        },
        "22": {
            "type": "acte_scelle",
            "value": "oui"
        },
        "23": {
            "type": "sceau",
            "value": "Sceau rond \u00e9questre de cire brune avec contre-sceau endommag\u00e9 pendant sur double queue de parchemin; diam\u00e8tre: 83 mm"
        },
        "24": {
            "type": "sceau",
            "value": "Fragment de sceau rond \u00e9questre de cire brune avec contre-sceau"
        },
        "25": {
            "type": "image_interne",
            "value": "http:\/\/telma-chartes.irht.cnrs.fr\/telma_img\/transscript\/transscript-DSC06763.JPG",
            "children": {
                "commentaire": "sceau 1"
            }
        },
        "26": {
            "type": "image_interne",
            "value": "http:\/\/telma-chartes.irht.cnrs.fr\/telma_img\/transscript\/transscript-DSC06765.JPG",
            "children": {
                "commentaire": "sceau 2 (fragment)"
            }
        },
        "27": {
            "type": "sceau",
            "value": "",
            "children": {
                "sigilla": "http:\/\/www.sigilla.org\/fr\/sgdb\/acte\/28160"
            }
        }
    }
}