{
    "id": 145273,
    "name": "transscript-1076",
    "type": "acte",
    "url": "http:\/\/telma-chartes.irht.cnrs.fr\/transscript\/notice\/145273",
    "project_slug": "transscript",
    "project_label": "TRANSSCRIPT",
    "user": "m_bouyer",
    "last_update": "2020-10-19 16:39:07",
    "licence": "Attribution - Pas d\u2019Utilisation Commerciale - Partage dans les M\u00eames Conditions 3.0 France (CC BY-NC-SA 3.0 FR) ",
    "licence_url": "https:\/\/creativecommons.org\/licenses\/by-nc-sa\/3.0\/fr\/",
    "elements": [
        {
            "type": "auteur",
            "value": "Raoul, duc de Lorraine et marquis"
        },
        {
            "type": "auteur",
            "value": "ville de Neufch\u00e2teau"
        },
        {
            "type": "beneficiaire",
            "value": "Raoul, duc de Lorraine et marquis"
        },
        {
            "type": "beneficiaire",
            "value": "ville de Neufch\u00e2teau"
        },
        {
            "type": "disposant",
            "value": "Raoul, duc de Lorraine et marquis"
        },
        {
            "type": "disposant",
            "value": "ville de Neufch\u00e2teau"
        },
        {
            "type": "date",
            "value": "1345\/03\/01",
            "children": {
                "date_deb_annee": "1345",
                "date_deb_mois": "03",
                "date_deb_jour": "01"
            },
            "range": {
                "date_apres": 13450301,
                "date_avant": 13450301
            }
        },
        {
            "type": "cote",
            "value": "FRANCE, Nancy, Archives d\u00e9partementales de Meurthe-et-Moselle, B 833, n\u00b0 30\/01"
        },
        {
            "type": "description",
            "value": "Copie sur parchemin, scell\u00e9e de trois sceaux sur double queue de parchemin (dont un perdu) (1345\/05\/11)"
        },
        {
            "type": "langue",
            "value": "fran\u00e7ais"
        },
        {
            "type": "authenticite",
            "value": "non suspect\u00e9"
        },
        {
            "type": "genre",
            "value": "Lettre"
        },
        {
            "type": "type_source",
            "value": "Copie"
        },
        {
            "type": "analyse",
            "value": "Raoul, duc de Lorraine et la commune de Neufch\u00e2teau font savoir qu'ils passent accord et s'en remettent  \u00e0 quatre sages - Joffroy de Nancy et Nicolas de Port pour le duc, Gautier d'Andelot et Simonin le Petit pour Neufch\u00e2teau - pour r\u00e9gler les conditions de r\u00e8glement du conflit qui les opposent. Les d\u00e9saccords entre les quatre sages seront port\u00e9s devant les jours de Troyes, ou au besoin devant les assises des bailliages de Vitry et de Chaumont, ou devant le parlement de Paris."
        },
        {
            "type": "transcription",
            "value": "<?xml version=\"1.0\" encoding=\"UTF-8\"?>\n\/01\/ A tous ceus qui ces presentes lettres verront et orront, Symonins Colars garde dou seel de la prevost\u00e9 d'Andelou salut. Saichent tuit que par devant monsignour Jehan Bourse Trou\u00e9e d'Andelou preste et Jof- \/02\/ -froi Martel d'ice leu tabellion jur\u00e9 a nostre signour le roy en la dite prevost\u00e9 et on ressort d'icelle a ce faire estaublis, vinrent en leur propres persones especialment pour ceste chouse Jaquemins Virios et Humbelos \/03\/ li Pourcelos bourgois dou Nuefchastel, procureur dou maiour, des jur\u00e9s et des habitans de la commune dou Nuefchastel si comme la procurations dez dis procureurs apparut aus dis jur\u00e9s seellee dou seel de \/04\/ la commune dou Nuefchastel. Et recognurent et confesserent de leur bones volent\u00e9s senz force par devant les dis jur\u00e9s que il ont fait, oictroi\u00e9 et acourdei pour et on non dez dis maiour, jur\u00e9s et \/05\/ habitans de la commune dou dit Nuefchastel les chouses ci apres dites et devisees en la meniere qui s'ensuit : Nous Raouls dus de Lorrainne et marchis et nous li maires, jurei, li habitant et toute \/06\/ la communaut\u00e9s dou Nuefchastel faisons savoir et cognoissant a tous que comme nous dus dessus dis maintenissiens et maintenons que li dit habitant nos subgit sunt tenu a nous en pluseurs cho- \/07\/ -ses et pour pluseurs causes si comme d'abus, de chartre, de fourfaitures et autrement. Et nous li maires, li jurei, li habitant et la communaut\u00e9s dessus dite dississiens et disons le contraire que nostre tr\u00e8s chiers \/08\/ et redout\u00e9s sires dessus dis fust et est tenus a nous en pluseurs manieres et par pluseurs causes, assavoir est que nous dus dessus dis a la supplication d'aucuns nos feaux chevaliers qui nous ont \/09\/ rapourtei la bonne volentei dez dis habitans qui humblement nous prient a descendre a voie amiauble par commun acort, nous dus dessus dis et nous li maires, li jurei, li habitant et la communauteis \/10\/ dessus dite pour echuir les despens et dampmaiges qui des questions et descors pourroient estre entre nous sur ce et qui pourroient sortir et advenir sauve et reservee a nous les parties dessus dites toutes \/11\/ nos droitures et franchises avons voulu, outroi\u00e9 et acourdei, voulons, ottroions et acourdons que pour tous les descors, debas et questions qui pourroient estre entre nous pour tout le temps passei \/12\/ jusques au jour de la confection de ces presentes, quatre persones sunt prises et esleues pour chascune partie deux, c'est assavoir pour nous dus dessus dis monsignour Joffroi de Nancei, signour de Gombervaul chevalier le \/13\/ roy et chastellain de Vaucouleur avecques luy monsignour Nicole de Port signeur en loys, et pour nous les habitans dessus nomm\u00e9s monsignour Gautier d'Andelou chevalier et Symonin le Petit dou Nuefchastel. Et en cas ou \/14\/ nous les parties dessus dites ne pourriens avoir les nomm\u00e9s de part nous ou aucun d'eux nous pourriens en leu des persones dessus nommees que nous ne pouriens avoir mettre autres persones souffisans en autretel \/15\/ nombre com il le convanroit. Li quel quatre esleu, ou cil qui en leu de ceux c'om ne pourroit avoir seroient subroguei, doivent jurer aus saintes euvangiles presentes atouchi\u00e9s par aux qu'il recevront les demandes de l'u- \/16\/ -ne et de l'autre partie, et les deffenses et responses des dites demandes faites par chascune partie aus demandes qui faites li seront, et en oultre plus selon ceu que bon leur semblera. Et que les dites demandes \/17\/ responses et desfenses receues dez dites parties senz delay entierement et parfaitement pourteront aus saiges ou que bon leur semblera en Champaigne, c'est assavoir a ses prochains jours a Troyes c'il se tiennent, et c'il sunt \/18\/ contremand\u00e9s aus premieres assises dez bailli\u00e9s de Vittry et de Chaumont. Et c'il ne le povoient la trouver il l'iroient querir au parlement a Paris et le consoil et les responses des dis saiges par tesmoingnaiges souffisans de inst- \/19\/ -rumens publiques ou par lettres dez dis saiges receveront, tanront et garderont clous et secreit et raporteront a la journee qui assignee leur sera par les parties dessus escriptes. Et que par leurs dis sairemens toutes les chouses des- \/20\/ -sus dites et chascune d'icelles il feront et acompliront bien et leaument aus mieux qu'il saveront senz maul engin et senz entreport des parties. Et tout ceu qui sera trovei par le consoil dez dis saiges rapourtei par les dessus \/21\/ nommeis quatre esleui, nous les parties dessus dites pour nous et nos hoirs et successeurs avons promis et promettons a tenir et a garder entierement senz contredit et senz aucune chouse dire ou proposer encontre par quelque ma- \/22\/ -niere que ceu soit, senz avoir poissance d'anffraindre, d'amanrir ou d'amanrir ceu qui sera en dit consoil trovei en tout ou en partie. Nous dus dessus dis en bone foy, en bonne leaultey et comme princes et sur l'obliga- \/23\/ -tion de tous nos biens, et nous li habitant et communaut\u00e9s dessus dite par l[a foy] et par le sairement d'un chascun de nous fait et donnei par Jaquemin Viriot et Humbelot Pourcelet dou dit Nuefchastel nos procureurs ay- \/24\/ -ans a ceu et sur ceu poissance et procuration de nous par especial, et ainssi sur l'obligation de tous nos biens meubles et heritaiges presens et advenir. Et encors nous dus dessus dis promettons que contre \/25\/ les dis habitans nous ne ferons ne ferons faire nulles novellet\u00e9s le terme de cest present amiauble compromis durant. Et doivent li dit quatre esleu avoir enquis jusques aus vins jours de No\u00ebl qui \/26\/ seront l'an de grace mil troiz cenz quarente et cinq et rapourter a la chandelour apres ensuiant et en la ville dou dit Nuefchastel par leurs sairemens, le quel jour nous les parties dessus dites acceptons \/27\/ pour oiir et tenir ceu qui sera on dit consoil trovei. En tesmoingnaige de veritei nous dus dessus dis avons mis nostre seel en ces presentes lettres, et nous li habitant dessus dit pour ceu que ce soit fer- \/28\/ -me chouse et estauble avons nous suppli\u00e9 et requis estre seellees ces presentes lettres dou seel dou tabellion d'Andelou avec le seel de tr\u00e8s hault prince et puissant nostre tr\u00e8s chier et redoutei signour monsignour le duc \/29\/ dessus dit, donn\u00e9 le premier jour de mars l\u2019an de grace mil troiz cens quarente et quatre. Et toutes les chouses dessus dictes et chascune d\u2019icelles li dit procureur pour toute la communautey dou Nuefchas- \/30\/ -tel par leur fois donnees corporelment es mains dez dis jur\u00e9s ont promis et promettre a tenir, garder et acomplir senz jamais venir encoutre par aux ne par autres qui d\u2019aux aient cause en la meniere que dessus \/31\/ est dit, sur l'obligation de tous les biens des habitans de la commune dou Nuefchastel, meubles et heritaiges presens et advenir, les quelx ou qu'il soient et puissent estre trovei il ont pour ce submis a la ju- \/32\/ -ridition et contrainte dou roy de France nostre signour et de sa gent et que executions s'an face ainssi comme pour chouse recognue et adjugi\u00e9. Et avec ce ont voulu et acourdei li dit procureur par devant les \/33\/ dis jur\u00e9s que tr\u00e8s haus princes et nobles messires Raouls dus de Lorrainne et marchis mettent son seel en ces presentes lettres. En tesmoing de ce, je Symonins Colars dessus dis ai seellees ces presentes lettres dou seel \/34\/ de la dite prevost\u00e9 d'Andelou et de mon propre seel en contre seel a la relation dez dis jur\u00e9s avec leurs sign\u00e9s sauf le droit nostre signour le roy et l'autrui. Ces lettres sont doublees a la requeste dez dis procureurs don \/35\/ il averont une lettre et messire li dus de Lorrainne et marchis une autre toutes paroilles. Ce fu fait le jour de la feste Saint Gengoul l'an de grace mil troiz cenz quarente et cinq on moiz de may.\n"
        },
        {
            "type": "note_dorsale",
            "value": "\u00ab1344\", XVI<sup>e<\/sup>-XVIII<sup>e<\/sup> s. ; \"uns acors fais entre \/ messire le duc et ceaulz dou \/ Nuefchastel\", XV<sup>e<\/sup>-XVI<sup>e<\/sup> s. ; \"1345\u00bb, XVI<sup>e<\/sup>-XVII<sup>e<\/sup> s. ; \u00abNeufchastel \/ un accord fait entre Monsieur le duc \/ et ceux dou Neufchastel \/ 1344\u00bb, XVII<sup>e<\/sup>-XVIII<sup>e<\/sup> s."
        },
        {
            "type": "regeste",
            "value": "H. LEPAGE, <i>Inventaire des titres enlev\u00e9s de la Mothe. Recueil de documents sur l\u2019histoire de Lorraine, tome III<\/i>, NANCY, 1857, p. 215"
        },
        {
            "type": "regeste",
            "value": "H. LEVALLOIS, <i>Catalogue des actes de Raoul, duc de Lorraine, 1329 \u00e0 1346<\/i>, Nancy, Biblioth\u00e8que municipale de Nancy, 1902 (dact.), n\u00b0 480"
        },
        {
            "type": "responsable",
            "value": "Denis Remy ; Mathias Bouyer"
        },
        {
            "type": "image_interne",
            "value": "http:\/\/telma-chartes.irht.cnrs.fr\/telma_img\/transscript\/transscript-FRAD054_B833_30_01.JPG"
        },
        {
            "type": "acte_scelle",
            "value": "oui"
        },
        {
            "type": "image_interne",
            "value": "http:\/\/telma-chartes.irht.cnrs.fr\/telma_img\/transscript\/transscript-FRAD054_B833_30_01_v.JPG"
        },
        {
            "type": "image_interne",
            "value": "http:\/\/telma-chartes.irht.cnrs.fr\/telma_img\/transscript\/transscript-FRAD054_B833_30_01s1.JPG"
        },
        {
            "type": "image_interne",
            "value": "http:\/\/telma-chartes.irht.cnrs.fr\/telma_img\/transscript\/transscript-FRAD054_B833_30_01s2.JPG"
        }
    ]
}