{
    "id": 144059,
    "name": "transscript-940",
    "type": "acte",
    "url": "http:\/\/telma-chartes.irht.cnrs.fr\/transscript\/notice\/144059",
    "project_slug": "transscript",
    "project_label": "TRANSSCRIPT",
    "user": "m_bouyer",
    "last_update": "2020-10-19 16:38:55",
    "licence": "Attribution - Pas d\u2019Utilisation Commerciale - Partage dans les M\u00eames Conditions 3.0 France (CC BY-NC-SA 3.0 FR) ",
    "licence_url": "https:\/\/creativecommons.org\/licenses\/by-nc-sa\/3.0\/fr\/",
    "elements": [
        {
            "type": "auteur",
            "value": "Thi\u00e9baut (2), duc de Lorraine et marquis"
        },
        {
            "type": "disposant",
            "value": "Thi\u00e9baut (2), duc de Lorraine et marquis"
        },
        {
            "type": "date",
            "value": "1312\/05\/02",
            "children": {
                "date_deb_annee": "1312",
                "date_deb_mois": "05",
                "date_deb_jour": "02"
            },
            "range": {
                "date_apres": 13120502,
                "date_avant": 13120502
            }
        },
        {
            "type": "cote",
            "value": "FRANCE, Nancy, Archives D\u00e9partementales de Meurthe-et-Moselle, B 414, f\u00b0 258 r\u00b0-v\u00b0"
        },
        {
            "type": "description",
            "value": "Copie sur cartulaire (XVI<sup>e<\/sup> s.)"
        },
        {
            "type": "langue",
            "value": "fran\u00e7ais"
        },
        {
            "type": "authenticite",
            "value": "non suspect\u00e9"
        },
        {
            "type": "genre",
            "value": "n.c."
        },
        {
            "type": "type_source",
            "value": "Cartulaire"
        },
        {
            "type": "analyse",
            "value": "Codicille du duc Thi\u00e9baut (2). Le duc d\u00e9sire que tous les sujets du duch\u00e9 puissent payer leurs tailles et rentes en monnaie coursable dans le duch\u00e9 et que les jugements des chevaliers soient tenus et gard\u00e9s comme on le fit jusqu'\u00e0 son p\u00e8re. Ses ex\u00e9cuteurs testamentaires choisiront un \" vaillant homme \" qui ira outre-mer pour l'\u00e2me de son p\u00e8re et de lui."
        },
        {
            "type": "transcription",
            "value": "<?xml version=\"1.0\" encoding=\"UTF-8\"?>\n\/01\/ Nos Thiebaus, par la grace de Deu dus  \/01\/ et marchis de Loherenne, en nostre bon sens et an nostre bone \/02\/ memoire et an la presence de bones gens, c\u2019est a savoir maistre \/03\/ Ferry de Lenendre, Maheu mon fils et maistre Othe de Bouxieres, \/04\/ Phellepin de Rozieres, Pieresson de la Chambre et plusors autres, \/05\/ ordenemmes et establissemmes que totes les mavaises costumes \/06\/ qui estoient eslevees an mon tans fuissent rapelees et mises \/07\/ a niant, especiaument que fuit cil de ma duchi\u00e9 lor tailles et \/08\/ lor rentes paaissent desorenavant an monoie corsable de nostre \/09\/ duchi\u00e9. Apres que li jugemant des chevaliers soit tenus et gard\u00e9s \/10\/ si comme il fu jusques a tant mon pere. Et que li uns ou li \/11\/ dui ne puissent mectre lor jugemant an la boche dou duc qui \/12\/ serai apres, je wel que uns vaillans hons soit pris par la \/13\/ volant\u00e9 de mes exsecutors qui aille outre mer pour l\u2019arme de \/14\/ mi et de mon pere le duc Ferry. Et li donront mi exsecutors \/15\/ quatre cens libvres de petis tornois apres que tuit li arirage \/16\/ d\u2019autrui que j\u2019ay enclos en mon parc de Nancey et Damuise \/17\/ soient rendu an nos autres arirages de la duchi\u00e9. Et nos \/18\/ Thiebaus dus dessus nommeis volons et establissons tant \/19\/ com nos poons que ceste presente letres ne puisse quessir ne blecier \/20\/ nostre testamant ne an tout ne an partie en quelque meniere \/21\/ se soit. Et prions et requerons nostre hoir an foy et en \/22\/ amist\u00e9 qu\u2019il tangnet fermemant ceste presente letres ausi bien \/23\/ comme nostre testamant et auvec nostre testamant. Ce fu \/24\/ faict l\u2019an de grace mil trois cens et douze ans, le vigile de saincte Croix on mois de may. Seellees d\u2019un grand seau de cire \/25\/ verde sur double queue.\n"
        },
        {
            "type": "regeste",
            "value": "A.-M. MARIONNET, <i>Catalogue des actes de Thi\u00e9baut II, duc de Lorraine (1303-1312) <\/i>, (dipl\u00f4me d\u2019\u00e9tudes sup\u00e9rieures de la Facult\u00e9 de lettres de Nancy), Nancy [1947], n\u00b0 211"
        },
        {
            "type": "responsable",
            "value": "Rapha\u00ebl Frantzen ; Mathias Bouyer"
        },
        {
            "type": "image_interne",
            "value": "http:\/\/telma-chartes.irht.cnrs.fr\/telma_img\/transscript\/transscript-AD_MM_B_414_f._258r.JPG"
        },
        {
            "type": "acte_scelle",
            "value": "non"
        },
        {
            "type": "image_interne",
            "value": "http:\/\/telma-chartes.irht.cnrs.fr\/telma_img\/transscript\/transscript-AD_MM_B_414_f._258v.JPG"
        },
        {
            "type": "edition",
            "value": "J. VIGNIER, <i>La V\u00e9ritable origine des tr\u00e8s illustres maisons d\u2019Alsace, de Lorraine, d'Autriche, de Bade et de quantit\u00e9 d'autres [Texte imprim\u00e9], avec les tables g\u00e9n\u00e9alogiques... des dites maisons... depuis l'an... 600 jusques \u00e0 pr\u00e9sent, le tout v\u00e9rifi\u00e9 par tiltres, chartres, monuments et histoires authentiques<\/i>, Paris, 1649. p. 152"
        },
        {
            "type": "edition",
            "value": "DUMONT, Jean, <i>Corps universel diplomatique du droit des gens ; contenant un recueil des trait\u00e9s, d\u2019alliances, de paix, de tr\u00eaves [\u2026]<\/i>. \u2013 Amsterdam : chez P. Brunnel, R. et G. Wetstein, les Jansson-Waesberge, l \u2018Honor\u00e9 et Chatelain. \u2013 La Haye : chez P. Husson et Charles Levier, 1726. Tome I, 1e partie, n\u00b0 597 (avec date du 27 ao\u00fbt 1306). En ligne sur Gallica : t. I : http:\/\/gallica.bnf.fr\/ark:\/12148\/bpt6k1264885d\/f1.image ; t. II : http:\/\/gallica.bnf.fr\/ark:\/12148\/bpt6k12648840\/f12.image"
        },
        {
            "type": "regeste",
            "value": "H. LEVALLOIS, <i> Table chronologique provisoire des actes des ducs Thi\u00e9baut II et Ferry IV conserv\u00e9s dans le Tr\u00e9sor des chartes de Lorraine ou publi\u00e9s et analys\u00e9s<\/i>, Nancy, Biblioth\u00e8que municipale, ms. 1185 (4 et 5)"
        },
        {
            "type": "mention",
            "value": "A. CALMET, <i>Histoire eccl\u00e9siastique et civile de Lorraine qui comprend ce qui s\u2019est pass\u00e9 de plus memorable dans l\u2019Archev\u00each\u00e9 de Tr\u00e9ves, & dans les Ev\u00eachez de Metz, Toul et Verdun, depuis l\u2019entr\u00e9e de Jules C\u00e9sar dans la Gaulle, jusqu\u2019\u00e0 la mort de Charles V, duc de Lorraine, arriv\u00e9 en 1690. Avec les pi\u00e8ces justificatives \u00e0 la fin. Le tout enrichi de cartes Geographiques, de Plan de Villes & d\u2019Eglises, de Sceaux, de Monnoyes, de Medailles, de Monumens, &c.<\/i>, 1<sup>e<\/sup> ed., Preuves du t. II, col. DLXV"
        }
    ]
}