{
    "id": 100,
    "name": "transscript-52",
    "type": "acte",
    "url": "http:\/\/telma-chartes.irht.cnrs.fr\/transscript\/notice\/100",
    "project_slug": "transscript",
    "project_label": "TRANSSCRIPT",
    "user": "t_salemme",
    "last_update": "2020-10-19 16:24:53",
    "licence": "Attribution - Pas d\u2019Utilisation Commerciale - Partage dans les M\u00eames Conditions 3.0 France (CC BY-NC-SA 3.0 FR) ",
    "licence_url": "https:\/\/creativecommons.org\/licenses\/by-nc-sa\/3.0\/fr\/",
    "elements": {
        "0": {
            "type": "analyse",
            "value": "Conrad de Schleiden, chevalier, notifie qu\u2019il se porte garant au nom de Jean (l\u2019Aveugle), roi de Boh\u00eame et de Pologne et comte de Luxembourg, pour une somme de 100 livres de petits tournois dont ce dernier est d\u00e9biteur envers le chevalier Jean de Bubenheim."
        },
        "1": {
            "type": "auteur",
            "value": "Conrad de Schleiden, chevalier"
        },
        "2": {
            "type": "beneficiaire",
            "value": "Jean de Bubenheim, chevalier"
        },
        "3": {
            "type": "disposant",
            "value": "Conrad de Schleiden, chevalier"
        },
        "4": {
            "type": "authenticite",
            "value": "non suspect\u00e9"
        },
        "5": {
            "type": "remarques",
            "value": "Original faisant partie d'un paquet de 7 quittances (filiasse)"
        },
        "6": {
            "type": "cote",
            "value": "LUXEMBOURG, Luxembourg, Archives nationales de Luxembourg, A-X-02, n\u00b0 37\/2"
        },
        "7": {
            "type": "responsable",
            "value": "Timothy Salemme"
        },
        "8": {
            "type": "date",
            "value": " 1322\/05\/17",
            "children": {
                "date_deb_annee": "1322",
                "date_deb_mois": "05",
                "date_deb_jour": "17"
            },
            "range": {
                "date_apres": 13220517,
                "date_avant": 13220517
            }
        },
        "9": {
            "type": "description",
            "value": "Original sur parchemin (mm. 170 \u00d7 73\u00a0; repli mm. 20), jadis scell\u00e9 sur double queue de parchemin"
        },
        "11": {
            "type": "edition",
            "value": "A. ESTGEN, M. PAULY et J. SCHROEDER, <i>Urkunden- und Quellenbuch zur Geschichte der altluxemburgischen Territorien, begr\u00fcndet von Camille Wampach<\/i>, t. XI\/1, <i>Die Urkunden Graf Johanns des Blinden (1310-1346). Die Urkunden aus Luxemburger Archivbest\u00e4nden<\/i>, Luxembourg 1997, n\u00b0 L15"
        },
        "12": {
            "type": "regeste",
            "value": "F.-X. W\u00dcRTH-PAQUET, \u00ab\u00a0Table chronologique des chartes et dipl\u00f4mes relatifs \u00e0 l\u2019histoire de l\u2019ancien pays et duch\u00e9 de Luxembourg. R\u00e8gne de Jean, roi de Boh\u00eame et comte de Luxembourg (1310-1346), <i>Publications de la Section historique<\/i>, XVIII (1863), n\u00b0 427"
        },
        "13": {
            "type": "genre",
            "value": "Lettre"
        },
        "14": {
            "type": "langue",
            "value": "latin"
        },
        "15": {
            "type": "sources_manuscrites",
            "value": "-"
        },
        "16": {
            "type": "note_dorsale",
            "value": "\u00ab LXXV \u00bb, XV<sup>e<\/sup> s."
        },
        "17": {
            "type": "transcription",
            "value": "<?xml version=\"1.0\" encoding=\"UTF-8\"?>\n\/01\/ Ego Con(radus) de Sleyda, miles, recognosco publice per presentes quod pro serenissimo principe domino meo \/02\/ karissimo domino Johanne Bohemie et Polonie rege et comite Luccemburgense, qui strennuo militi domino Johanni \/03\/ de Bubenheim centum libras parvorum nigrorum Thuronensium in festo beati Johannis venture proxime solvere promissit, \/04\/ apud ipsum dominum Johannem pro ipso domino meo fideiussorem immo principalem debitorem dictarum centum \/05\/ librarum me constituo et facio, promittens bona fide, sine omni dolo, quod, si predicto domino Johanni per dictum \/06\/ dominum meum regem predicte centum libre in prenominato termino sancti Johannis non solverentur, quod eidem vel suis \/07\/ heredibus ex tunc ad octo dies talia dabo pignora per que predictam pecuniam sufficienter conquirere \/08\/ potuerit ubi debent, dans sibi presentem literam meo sigillo sigillatam in testimonium super eo. Datum \/09\/ Luccemburgi, anno Domini .Mo. .CCCmo. vigesimo secundo, secunda feria ante ascensionem Domini.\n"
        },
        "18": {
            "type": "type_source",
            "value": "Original"
        },
        "19": {
            "type": "acte_scelle",
            "value": "non"
        },
        "20": {
            "type": "id_telma",
            "value": "630216"
        },
        "21": {
            "type": "sceau",
            "value": "Sceau pendant perdu. Annonce du sceau de Conrad de Schleiden"
        },
        "24": {
            "type": "destinataire",
            "value": "-"
        },
        "25": {
            "type": "date_libre",
            "value": "-"
        },
        "26": {
            "type": "date_lieu",
            "value": "Luxembourg"
        },
        "27": {
            "type": "mention_hors_teneur",
            "value": "-"
        },
        "28": {
            "type": "mention",
            "value": "-"
        }
    }
}