{
    "id": 144194,
    "name": "transscript-959",
    "type": "acte",
    "url": "http:\/\/telma-chartes.irht.cnrs.fr\/transscript\/notice\/144194",
    "project_slug": "transscript",
    "project_label": "TRANSSCRIPT",
    "user": "m_bouyer",
    "last_update": "2020-10-19 16:38:56",
    "licence": "Attribution - Pas d\u2019Utilisation Commerciale - Partage dans les M\u00eames Conditions 3.0 France (CC BY-NC-SA 3.0 FR) ",
    "licence_url": "https:\/\/creativecommons.org\/licenses\/by-nc-sa\/3.0\/fr\/",
    "elements": [
        {
            "type": "auteur",
            "value": "Kallas de Lun\u00e9ville, \u00e9cuyer"
        },
        {
            "type": "beneficiaire",
            "value": "Bertrand de Deneuvre, \u00e9cuyer"
        },
        {
            "type": "disposant",
            "value": "Kallas de Lun\u00e9ville, \u00e9cuyer"
        },
        {
            "type": "date",
            "value": "1313\/06\/02",
            "children": {
                "date_deb_annee": "1313",
                "date_deb_mois": "06",
                "date_deb_jour": "02"
            },
            "range": {
                "date_apres": 13130602,
                "date_avant": 13130602
            }
        },
        {
            "type": "cote",
            "value": "FRANCE, Nancy, Archives d\u00e9partementales de Meurthe-et-Moselle, B 793, n\u00b0 17"
        },
        {
            "type": "description",
            "value": "Original sur parchemin, scell\u00e9 sur double queue de parchemin"
        },
        {
            "type": "langue",
            "value": "fran\u00e7ais"
        },
        {
            "type": "authenticite",
            "value": "non suspect\u00e9"
        },
        {
            "type": "genre",
            "value": "Lettre"
        },
        {
            "type": "type_source",
            "value": "Original"
        },
        {
            "type": "analyse",
            "value": "Kallas de Lun\u00e9ville fait savoir que Bertrand de Deneuvre lui engage tout ce qu\u2019il poss\u00e8de \u00e0 Azerailles, sauf ce qu\u2019il a au moulin et les bois et la garde des maisons religieuses, en raison de 63 livres petits tournois pour un coursier que Kallas lui a vendu ; ce dernier pris Ferry (4) d'apposer son sceau."
        },
        {
            "type": "transcription",
            "value": "<?xml version=\"1.0\" encoding=\"UTF-8\"?>\n\/01\/ Je Kallas de Luneville escuiers, fils mon signour Arnoul chevalier qui fuit, faix savoir a tous que comme Bertrans de Denuevre \/02\/ escuiers fils mon signour Huart chevalier qui fuit, soit tenus a moi en la somme de soixante et trois livres de tournois petis \/03\/ por un corsier que je li ai vandu et delivrei por lai queil somme de tournois li dis Bertrans m\u2019ait mis en waige tout \/04\/ ceu que il avoit, pooit et devoit avoir on ban d\u2019Axeraille que escheus li estoit de par son oncle lou signour Jaique dit \/05\/ Dorei, chevalier qui fuit, c\u2019est a savoir en hommes, en femmes, en rantes, en censes, en tailles, en chappons, en gelinnes \/06\/ et en toutes autres prises fuer mis ceu que il ait on molin d\u2019Axeraille et as appartenances, les boix appartenans \/07\/ a dit ban, et fuer mise lai warde des maisons de religion, c\u2019est a savoir Weyvre, Maxervelle, Ollezeis et Lune- \/08\/ -seis appartenans a dit ban que muevent de mon signour lou duc que il retient por lui et que sunt exceptei \/09\/ de la dite wagiere. A savoir est que toutes foys que li dis Bertrans ou sui hoir porroient ou vorroient rache- \/10\/ -teir la dite wagiere, je doi panre lai somme d\u2019argant dessus dite ou cils qui les lettres averait que je ai de lui \/11\/ por lai dite wagiere que por ceu sunt faites, et li doi rendre la dite wagiere ou cils qui les dites lettres averoit ou cils \/12\/ qui la dite wagiere tanroit aussi delivr\u00e9 franche et despachiee de tous signours comme la jornee que la dite wagiere \/13\/ me fuit faite. Et se il avenoit par acunne aventure que je ou cils qui la dite wagiere tanroit fuixiens rebelles \/14\/ ou feissiens acun delai en panre les dites soixante et trois livres de tournois dessus dites, et lis dis Bertrans ou \/15\/ sui hoir y eussent cous et damaiges, je ou cils qui lai dite wagiere tanroit sereiens tenu de rendre et de \/16\/ paier les dis cous et damaiges que il ou sui hoir averoient eu por lai raison de ceu que je ou cils qui lai dite \/17\/ wagiere tanroit avereiens renfuser la somme d\u2019argant dessus nomee des quels cous et damaiges il ou sui \/18\/ hoir seroient creu par lor simple sairement sens autre preuve faire. Et quant a ceux je Kallas dessus dis en obli- \/19\/ -ge ou non de moi ou de celui qui la dite wagiere porroit tenir tous mes biens muebles et non muebles pre- \/20\/ -sens et avenir ou que il soient ne queil que il soient. Et pour ceu que ce soit ferme choze et estaible, je Kallas \/21\/ escuiers dessus dis ai je supploier et requis a tres haut homme et noble mon tres chier et bien amei signour Ferri, \/22\/ duc de Lorrengne et marchis, de cui les chozes dessus dites muevent que il volle mettre son saiel en ces pre- \/23\/ -sentes lettres. Et je Ferris, dus de Lorrengne et marchis dessus dis, de cui les chozes dessus dites muevent, \/24\/ a la priere et a la requeste de Kallet escuier dessus dit, ai mis mon saiel en ces presentes lettres en tesmoig- \/25\/ -naige de veritei, que furent faites et donees l\u2019an de graice mil trois cens et treze ans lou samedi vegile \/26\/ de la Penthecoste ou mois de junet.\n"
        },
        {
            "type": "note_dorsale",
            "value": "\u00ab Lettres de Kallas de Luneville contenant le \/ rachapt de ce que Bertrand de Deneuvre \/ escuier luy a engagi\u00e9 pour soixante et trois \/ livres de tournois petiz sur ce qu\u2019il avoit \/ on ban d\u2019Axeraille soubz les adutons \/ contenues esdites lesdites En dacte de \/ l\u2019an mil III<sup>C<\/sup> et XIII ans le samedi vigile \/ de la Penthecouste on mois de \/ junet \/ Azeraille \u00bb, XVI<sup>e<\/sup>-XVII<sup>e<\/sup> s. ; \u00ab 221 \u00bb, XVII<sup>e<\/sup>-XVIII<sup>e<\/sup>  s. ; \u00ab N\u00b017 \/ Luneville \u00bb, XVIII<sup>e<\/sup> s."
        },
        {
            "type": "regeste",
            "value": "J. BRIDOT, <i>Catalogue des actes de Ferry IV, Duc de Lorraine (1312-1329)<\/i>, Nancy, Biblioth\u00e8que municipale de Nancy (copie dactylographi\u00e9e du dipl\u00f4me d\u2019\u00e9tudes sup\u00e9rieures soutenu devant la Facult\u00e9 des Lettres de Nancy), 1949, n\u00b0 67"
        },
        {
            "type": "mention",
            "value": "C. BERNHARDT, <i>Deneuvre et Baccarat, d\u2019apr\u00e8s des documents in\u00e9dits<\/i>, Nancy, 1895, p. 66 (indiqu\u00e9 1315 par erreur)"
        },
        {
            "type": "responsable",
            "value": "Mathias Bouyer"
        },
        {
            "type": "image_interne",
            "value": "http:\/\/telma-chartes.irht.cnrs.fr\/telma_img\/transscript\/transscript-FRAD054_B793_17r.JPG"
        },
        {
            "type": "acte_scelle",
            "value": "oui"
        },
        {
            "type": "image_interne",
            "value": "http:\/\/telma-chartes.irht.cnrs.fr\/telma_img\/transscript\/transscript-FRAD054_B793_17v.JPG"
        },
        {
            "type": "image_interne",
            "value": "http:\/\/telma-chartes.irht.cnrs.fr\/telma_img\/transscript\/transscript-FRAD054_B793_17s1.JPG"
        }
    ]
}