{
    "id": 145186,
    "name": "transscript-1069",
    "type": "acte",
    "url": "http:\/\/telma-chartes.irht.cnrs.fr\/transscript\/notice\/145186",
    "project_slug": "transscript",
    "project_label": "TRANSSCRIPT",
    "user": "m_bouyer",
    "last_update": "2020-10-19 16:39:06",
    "licence": "Attribution - Pas d\u2019Utilisation Commerciale - Partage dans les M\u00eames Conditions 3.0 France (CC BY-NC-SA 3.0 FR) ",
    "licence_url": "https:\/\/creativecommons.org\/licenses\/by-nc-sa\/3.0\/fr\/",
    "elements": [
        {
            "type": "auteur",
            "value": "Ferry (4), duc de Lorraine et marquis"
        },
        {
            "type": "beneficiaire",
            "value": "maison des hospitaliers"
        },
        {
            "type": "disposant",
            "value": "Ferry (4), duc de Lorraine et marquis"
        },
        {
            "type": "date",
            "value": "1316\/07\/09",
            "children": {
                "date_deb_annee": "1316",
                "date_deb_mois": "07",
                "date_deb_jour": "09"
            },
            "range": {
                "date_apres": 13160709,
                "date_avant": 13160709
            }
        },
        {
            "type": "cote",
            "value": "FRANCE, Nancy, Archives d\u00e9partementales de Meurthe-et-Moselle, H 3043, f\u00b025r-v"
        },
        {
            "type": "description",
            "value": "Copie dans registre (XVII<sup>e<\/sup> s.)"
        },
        {
            "type": "langue",
            "value": "fran\u00e7ais"
        },
        {
            "type": "authenticite",
            "value": "non suspect\u00e9"
        },
        {
            "type": "genre",
            "value": "Lettre"
        },
        {
            "type": "type_source",
            "value": "Registre"
        },
        {
            "type": "analyse",
            "value": "Ferry (4) fait savoir qu'il quitte \u00e0 la maison de l\u2019H\u00f4pital de St Jean de J\u00e9rusalem, les 1200 r\u00e9saux d\u2019avoine et les 300 r\u00e9saux de froment qu\u2019elle lui devait \u00e0 la suite d\u2019un accord fait entre ledit duc et fr\u00e8re Bertrand, jadis commandeur des maisons appartenant autrefois au Temple, \u00e0 condition de percevoir, sa vie durant, les d\u00eemes d\u2019Einville et d\u2019Harmonville."
        },
        {
            "type": "transcription",
            "value": "<?xml version=\"1.0\" encoding=\"UTF-8\"?>\n\/01\/ Nous Ferry duc de Loraine et marchis faisons scavoir a toit ceulx que les presentes \/02\/ lettres verront et oiront que come la saincte maison de l\u2019hospital de Saint Jean \/03\/ de Jherusalem fut tenue a nous pour certaine cause en douze cents \/04\/ resaulx d\u2019avoine et en trois cent resaulx froment et [...] par certaine \/05\/ convenance faicte entre nous et frere Bertrant jadis commandour des \/06\/ maisons jadis du Temple en pays de Loraine nous avons quitt\u00e9 ladite \/07\/ some de froment et d\u2019avoine a ladite saincte maison et audit hospital \/08\/ parmi ce que nous doiens avoir en nostre vie tant seulement les fruitz \/09\/ et les profoits de ce que ladite saincte maison a et doibt avoir es gros \/10\/ disme d\u2019Einville et d\u2019 Armenville. Et nous avons sur ce veieu lettres \/11\/ suffisantes des [...] dudit hospital qu\u2019il soffroit aux choses \/12\/ et aux convenances sur ce nommees nous voulons, confirmons et octroyons \/13\/ que apres nostre deces lesdits fruicts et lesdits dimes reviene franchement, \/14\/ quittement et en paix en ladite saincte maison et audit hospital sem  \/01\/ debat ny de l\u2019un hom ny d\u2019aultre pour raison de nous et de ce \/02\/ avons nous et noz hoirs que apres nostre deces ledit dismes reveront \/03\/ a ladicte saincte maison franchement, quittement et en paix \/04\/ et audit hospital. En tesmoignage de laquelle chose avons faict \/05\/ mettre nostre seel pendent en les presentes lettres, que furent faicte \/06\/ l\u2019an de grace Nostre Seigneur mil trois cent et seze le venrdy \/07\/ apres les octaves de Sainct Piere et Sainct Paul apostre.\n"
        },
        {
            "type": "regeste",
            "value": "FRANCE, Nancy, Archives d\u00e9partementales de Meurthe-et-Moselle, H 3045, f\u00b0 100"
        },
        {
            "type": "regeste",
            "value": "J. BRIDOT, <i>Catalogue des actes de Ferry IV, Duc de Lorraine (1312-1329)<\/i>, Nancy, Biblioth\u00e8que municipale de Nancy (copie dactylographi\u00e9e du dipl\u00f4me d\u2019\u00e9tudes sup\u00e9rieures soutenu devant la Facult\u00e9 des Lettres de Nancy), 1949, n\u00b0 169"
        },
        {
            "type": "sources_manuscrites",
            "value": "FRANCE, Nancy, Archives d\u00e9partementales de Meurthe-et-Moselle, H 3044, f\u00b0 10 (XVII<sup>e<\/sup> s.)",
            "children": {
                "source_type": "non",
                "type_source": "Registre"
            }
        },
        {
            "type": "responsable",
            "value": "Mathias Bouyer"
        },
        {
            "type": "image_interne",
            "value": "http:\/\/telma-chartes.irht.cnrs.fr\/telma_img\/transscript\/transscript-FRAD054_H3043_f.25r.JPG"
        },
        {
            "type": "acte_scelle",
            "value": "non"
        },
        {
            "type": "image_interne",
            "value": "http:\/\/telma-chartes.irht.cnrs.fr\/telma_img\/transscript\/transscript-FRAD054_H3043_f.25v.JPG"
        }
    ]
}