{
    "id": 144470,
    "name": "transscript-1032",
    "type": "acte",
    "url": "http:\/\/telma-chartes.irht.cnrs.fr\/transscript\/notice\/144470",
    "project_slug": "transscript",
    "project_label": "TRANSSCRIPT",
    "user": "m_bouyer",
    "last_update": "2020-10-19 16:39:00",
    "licence": "Attribution - Pas d\u2019Utilisation Commerciale - Partage dans les M\u00eames Conditions 3.0 France (CC BY-NC-SA 3.0 FR) ",
    "licence_url": "https:\/\/creativecommons.org\/licenses\/by-nc-sa\/3.0\/fr\/",
    "elements": [
        {
            "type": "auteur",
            "value": "Gaucher de Ch\u00e2tillon, comte de Porcien, conn\u00e9table de France "
        },
        {
            "type": "beneficiaire",
            "value": "Gaucher de Ch\u00e2tillon, comte de Porcien, conn\u00e9table de France "
        },
        {
            "type": "disposant",
            "value": "Gaucher de Ch\u00e2tillon, comte de Porcien, conn\u00e9table de France "
        },
        {
            "type": "date",
            "value": "1313\/10\/21",
            "children": {
                "date_deb_annee": "1313",
                "date_deb_mois": "10",
                "date_deb_jour": "21"
            },
            "range": {
                "date_apres": 13131021,
                "date_avant": 13131021
            }
        },
        {
            "type": "cote",
            "value": "FRANCE, Nancy, Archives d\u00e9partementales de Meurthe-et-Moselle, B 408, f\u00b0 225r-226v"
        },
        {
            "type": "description",
            "value": "Copie dans cartulaire  (XVI<sup>e<\/sup> s.)"
        },
        {
            "type": "langue",
            "value": "fran\u00e7ais"
        },
        {
            "type": "authenticite",
            "value": "non suspect\u00e9"
        },
        {
            "type": "genre",
            "value": "Lettre"
        },
        {
            "type": "type_source",
            "value": "Cartulaire"
        },
        {
            "type": "analyse",
            "value": "Gauchier de Ch\u00e2tillon et Isabelle de Rumigny d\u2019une part, et Ferry (4) d\u2019autre part font savoir que comme ils avaient nomm\u00e9 des arbitres pour trancher le d\u00e9saccord qu\u2019ils avaient \u00e0 propos de la possession de la terre de Florennes, et ces arbitres ayant d\u00e9cid\u00e9 le 11 octobre 1313 que ladite terre serait tenue par Gauchier du vivant d\u2019Isabelle, puis que ladite reviendrait au duc de Lorraine, et que le duc devrait verser \u00e0 Gauchier 5000 livres petits tournois noirs, Gauchier, Isabelle et Ferry confirment cet accord et demandent \u00e0 Louis, roi de Navarre, d'en \u00eatre le garant."
        },
        {
            "type": "transcription",
            "value": "<?xml version=\"1.0\" encoding=\"UTF-8\"?>\n\/01\/ Nous Gauchiers de Chastillon, cuens de Porciens \/02\/ et connestable de France, Ysabiaus de Rumigny, duchesse de Lorrainne et \/03\/ contesses de Porciens sa compaigne, et nous Ferris, dux de Lorrainne et \/04\/ marchis, faisons scavoir a tous que comme descors fust meus entre nous \/05\/ parties dessus dictes sur ce que nous Gauchiers et Ysabiaus demandiens le \/06\/ chastel, la terre de Flourines et toutes les appandances, et disiens que a \/07\/ ladite duchesse appartenoit comme ses heritaiges, nous Ferris disiens ladicte \/08\/ terre a nous appartenir par plusieurs causes. En la fin pour bien du \/09\/ pa\u00efs avons esleu et fais deux procureurs, nous Gauchiers et Ysabiaus \/10\/ nostre chier et am\u00e9 honnorable homme et sage monseigneur Godeffroy \/11\/ de Willerzis, chanoine de l\u2019eglise Sainct Pierre de Namur, et nous \/12\/ Ferris nostre am\u00e9 et feable noble homme Brunekin de Riste escuier, \/13\/ et donnasmes a nos devant dis procureurs pooir et auctorit\u00e9 de nous \/14\/ parties dessus dictes accorder des choses dessus dictes, et leur en baillames \/15\/ suffisans procurations seellees de noz sealz, et promectiens es procuracions \/16\/ de tenir leur acord, liquel procureurs par le pooir a eulx donn\u00e9 \/17\/ nous ont accord\u00e9 et seel\u00e9 de leurs sealz l\u2019acort contenant la fourme \/18\/ qui s\u2019ensuit. Nous Burnekins de Riste escuiers et Godeffrois de Willerzie \/19\/ chanoines de Sainct Pierre de Namur faisons savoir a tous que je \/20\/ Burnekins pris procureur de par tres hault homme et puissant \/21\/ Ferry duc de Lorrainne et marchis et je Godeffroy dessus dis \/22\/ procureur de par tres hault homme et noble monsieur Gauchiers de \/01\/ Chastillon conte de Porciens et connestable de France d\u2019acorder entre \/02\/ yaus de la terre de Flourines, nous nous sommes acord\u00e9 pour bien \/03\/ de pa\u00efs entre nos seigneurs du Chastel et de toute la terre de Flourines \/04\/ en la maniere que cy apres est escripte et devisee. C\u2019est assavoir que \/05\/ nobles homs et puissans messires Guichiers de Chastillon dessus \/06\/ nommez doit tenir et avoir toute la terre de Flourines, assavoir est \/07\/ le chastel, la seignourie et toutes les appartenances on poinct et en \/08\/ l\u2019estat queil est aujourd\u2019huy obligi\u00e9s envers toutes gens en l\u2019eveschi\u00e9 \/09\/ dou Lyege dont lettres apperent on loyal prueves, sans karrat \/10\/ et sans mauvaize foy, et doit ladite terre tenir toute la vie tres \/11\/ haulte dame et noble madame Ysabel jadis duchesse de Lorraine \/12\/ et dame de Rumeigny sa femme. Et elle aussis doit tenir la dicte \/13\/ terre paisiblement toute sa vie par ensis que apres le decet ladicte \/14\/ dame la terre de Flourines doit revenir au duc de Lorrainne ou a \/15\/ ses hoirs, quict\u00e9, paisible et delivr\u00e9 et tous devers, sauf ce que des \/16\/ rach\u00e9s des pentions donnees en fief par le duc Thiebault et le \/17\/ duc Ferry son fill qui ores est ne doit li connastables riens \/18\/ paier ne delivrer fors la pention se il ne li plaist. Et pour la recompen- \/19\/ -sation de ce que ladicte terre de Flourines est obligi\u00e9 et endebt\u00e9e envers \/20\/ plusieurs, et li dis connestables et madame Yzabiaus jadis duchesse \/21\/ de Lorraine sa femme ont couvent ladicte terre et doivent delivrer \/22\/ et acquicter de tous Deu va par ensis que la terre revieigne au duc \/23\/ ou a ses hoirs quict\u00e9 et delivr\u00e9 apres le decet la dessus dicte dame sa \/24\/ mere ensis comme devis\u00e9 est. Et parmy ce li dux doit et a \/25\/ couvent rendre et a paier au connestable dessus dict cint milles \/26\/ livres de petis noirs tournois, c\u2019est assavoir mille livres au \/27\/ jour de la sainct Jehan prochienement venant de ladicte monnoie \/28\/ et cint cens livres au jours de la Chandelour apres ensuiant \/29\/ et de la en avant chascun an au jour de la Chandelour cint \/30\/ cens livres de ladicte monnoie jusques a ce que la somme des cint \/31\/ milles livres dessus disctes sera pay\u00e9 et acomplie entierement. Et \/32\/ doit estre li chastiaus de Flourines et toute la terre delivree au \/33\/ connestable et a madame Ysabel sa femme et doit li dux donner \/34\/ lettres ouvertes au connestables qui voisent a l\u2019esvesque et au \/35\/ maimbour et au chapitre de Lyege que c\u2019est ses gr\u00e9s et sa \/36\/ volent\u00e9s et ses acors qu\u2019eil delivrent au connestable et a \/37\/ madame Ysabel sa femme le chastel et toute la terre de \/38\/ Flourines ensis comme dessus est dict. Et doit encor envoier lettres \/39\/ au pais et a la terre de Flourines a tous hommes de fief, a tous subg\u00e9s que il obeissent au connestable et a madame sa femme \/40\/ tant comme madame vivra comme a leur seigneur et a leur dame. \/41\/ Et doit li connestable donner lettres au duc tels que elles li  \/01\/ sufficent de ladicte terre delivrer et acquiter et de revenir en sa main toute \/02\/ paisible sans charges de nulles debtes apres le decet madame Ysabel sa \/03\/ mere. Et le dux doit donner au connestable lectres de bien tenir et a emplir \/04\/ fermement toutes les convenances et les paiemens dessus dis et faire seur- \/05\/ -si que il suffice a luy et a son conseil. Et li dux doit avoir tous les chastieux \/06\/ escheuz en ladicte terre des les octaves de la Sainct Remy nouvelement pass\u00e9 \/07\/ en arriers, et des octaves de la Sainct Remy dessus dictes en avant doivent tout \/08\/ chatel et esploit et li seigneurie estre au connestable et tout ce que il \/09\/ pourra requerre et ravoir que li chapitre du Lyege et messires Ernouls \/10\/ Dyquatre et ses gens marchans de Lyege, le si\u00e8ge vaqu\u00e9 ont prins et lev\u00e9 \/11\/ en la terre de Flourines. Et doit li connestable oyr et recevoir le \/12\/ compte de tous ceulx qui demandent en la terre pour raison et les \/13\/ obligances du duc et doivent le doi seigneur li uns vers l\u2019autre bien faire \/14\/ seur par coy toutes les convenances cy devisees soient tenues entre eulx \/15\/ fermement et loyalment sans aller encontre. Et pour ce que ce soit \/16\/ ferme chose et estable nous procureurs dessus dicts avons mis nos sealz \/17\/ a ces presentes lettres en tesmoingnaige des choses dessus dictes. Qui furent faictes \/18\/ l\u2019an de grace mil trois cens et treze le jeudy apres la Sainct Denis \/19\/ ou mois d\u2019octembre. Lequel acort desseur escript en la fourme et en la \/20\/ maniere dessus dicte, nous Gauchiers, Ysabiaus et Ferris chascun pour \/21\/ tant que il nous touche ou puet touchier, volons, greons et nous y \/22\/ consentons, et pour ce que ou dict accord est contenu que nous devons \/23\/ faire seur li uns a l\u2019autre de tenir ledict accord nous promectons et \/24\/ avons en couvent par le foy de nos corps sur ce corporelement mises \/25\/ a painne de mille livres de tournois petis a tenir warder et fermement \/26\/ a emplir toutes les choses contenues oudit acort et chascune d\u2019elles \/27\/ sans jamais venir encontre par nous ne par autry. Et se il avenoit \/28\/ que aucuns de nous venissions encontre les convenances dessus dictes \/29\/ ou aucunes d\u2019elles, nous encherriens en la painne des mille livres \/30\/ dessus dictes toutes fois et quantes fois nous veirriens a l\u2019encontre, laquelle \/31\/ nous promectons a payer aussis bien comme le principal et la painne \/32\/ commise de quelque partie que ce fust ne demouroit mie pour ce que \/33\/ li acort dessus dis ne fust valable et tenus a paier ladicte painne moiti\u00e9 \/34\/ a monseigneur de Navarre no chier seigneur et moicti\u00e9 a celi des parties qui \/35\/ l\u2019accord tenroit. Et a ce obligons nous et a loyons par nos sairemens si \/36\/ comme dit est nous, nos corps, nos hoirs, nos successeurs ou ceulx qui \/37\/ de nous auront cause, tous nos biens, heritaiges et meubles et les biens \/38\/ de noz hoirs et especialement tout ce que nous tenons ou tenrons \/39\/ de nostre tres chier seigneur monseigneur de Navarre dessus nomm\u00e9 a prendre, \/40\/ saizir, lever, esploitier, vendre et despendre pour nous contraindre \/41\/ a tenir toutes les choses contenues ondict accort et chascune d\u2019elles et \/42\/ a paier la painne dessus dicte se nous y eucheyens par quelconques justices \/43\/ que il plaira a nous parties dessus dictes ou au porteur de ces lettres. \/44\/ Et pour rendre et restorer tous cous, despens, frais, damages ou \/45\/ interrestz que li partie tenant l\u2019accord dessus dict aroit ou encourroit \/01\/ par le deffault de l\u2019autre partie en quelconque maniere que ce fust, \/02\/ des quelz la partie tenant l\u2019accort ou li porteurs de ces lettres seroient \/03\/ creus par leur simple sairement sans autre prueve faire, et \/04\/ renonchons quant as choses dessus dictes a toutes exceptions, barr\u00e9s, \/05\/ canillations, voyes, remedes ou aydes, tant de droict comme de \/06\/ faict que nous pourrions proposer en venant contre ledict acort \/07\/ et espacialment au droit qui dict general renonciation niant valoir, \/08\/ et closement a toutes autres choses qui nous pourroient aidier et \/09\/ valoir a venir contre ledict accort. Et a plus grand seurt\u00e9 de \/10\/ tenir ledict accort, nous prions et requerrons a tres hault et \/11\/ tres puissant prince nostre tres chier et redoubt\u00e9 seigneur le \/12\/ roy de Navarre, conte de Champaigne et de Brie palatin, qu\u2019el \/13\/ voeille confermer toutes les choses dessus dictes, loer, greer et ap- \/14\/ -prouver par bon seel. En tesmoingnaige des choses dessus dictes, \/15\/ nous Gauchiers, Ysabiaus, Ferris desseur nomm\u00e9 avons mis noz \/16\/ seals a ces presentes lettres. Qui furent faictes et donn\u00e9es le dimenche \/17\/ apres la feste Sainct Luc l\u2019evangeliste l\u2019an de grace mil \/18\/ trois cens et treize on mois d\u2019octembre. Seell\u00e9es de trois seaux \/19\/ de cire verde sur doubles queues de parchemin pendans.\n"
        },
        {
            "type": "mention_hors_teneur",
            "value": "\u00ab Confirmation d\u2019un accord d\u2019entre \/ Gauchier de Chastillon comte de Portian conne- \/ -stable de France, madame ysabeau duchesse de \/ Lorraine son espouse, et Ferry duc de Lorraine \/ touchant le chasteau terre et seigneurie de \/ Florines \u00bb"
        },
        {
            "type": "regeste",
            "value": "J. BRIDOT, <i>Catalogue des actes de Ferry IV, Duc de Lorraine (1312-1329)<\/i>, Nancy, Biblioth\u00e8que municipale de Nancy (copie dactylographi\u00e9e du dipl\u00f4me d\u2019\u00e9tudes sup\u00e9rieures soutenu devant la Facult\u00e9 des Lettres de Nancy), 1949, n\u00b0 82"
        },
        {
            "type": "responsable",
            "value": "Mathias Bouyer"
        },
        {
            "type": "image_interne",
            "value": "http:\/\/telma-chartes.irht.cnrs.fr\/telma_img\/transscript\/transscript-FRAD054_B408_f.225r2.JPG"
        },
        {
            "type": "acte_scelle",
            "value": "non"
        },
        {
            "type": "auteur",
            "value": "Isabelle de Rumigny, comtesse de Porcien"
        },
        {
            "type": "beneficiaire",
            "value": "Isabelle de Rumigny, comtesse de Porcien"
        },
        {
            "type": "disposant",
            "value": "Isabelle de Rumigny, comtesse de Porcien"
        },
        {
            "type": "auteur",
            "value": "Ferry (4), duc de Lorraine et marquis"
        },
        {
            "type": "beneficiaire",
            "value": "Ferry (4), duc de Lorraine et marquis"
        },
        {
            "type": "disposant",
            "value": "Ferry (4), duc de Lorraine et marquis"
        },
        {
            "type": "image_interne",
            "value": "http:\/\/telma-chartes.irht.cnrs.fr\/telma_img\/transscript\/transscript-FRAD054_B408_f.225v.JPG"
        },
        {
            "type": "image_interne",
            "value": "http:\/\/telma-chartes.irht.cnrs.fr\/telma_img\/transscript\/transscript-FRAD054_B408_f.226r.JPG"
        },
        {
            "type": "image_interne",
            "value": "http:\/\/telma-chartes.irht.cnrs.fr\/telma_img\/transscript\/transscript-FRAD054_B408_f.226v1.JPG"
        }
    ]
}