{
    "id": 145523,
    "name": "transscript-1081",
    "type": "acte",
    "url": "http:\/\/telma-chartes.irht.cnrs.fr\/transscript\/notice\/145523",
    "project_slug": "transscript",
    "project_label": "TRANSSCRIPT",
    "user": "m_bouyer",
    "last_update": "2020-10-19 16:39:09",
    "licence": "Attribution - Pas d\u2019Utilisation Commerciale - Partage dans les M\u00eames Conditions 3.0 France (CC BY-NC-SA 3.0 FR) ",
    "licence_url": "https:\/\/creativecommons.org\/licenses\/by-nc-sa\/3.0\/fr\/",
    "elements": [
        {
            "type": "auteur",
            "value": "cour de Nancy"
        },
        {
            "type": "beneficiaire",
            "value": "Chapitre coll\u00e9gial Saint-Georges de Nancy"
        },
        {
            "type": "disposant",
            "value": "Thovenin dit le Lotr\u00e9"
        },
        {
            "type": "disposant",
            "value": "Hawix, \u00e9pouse de Thovenin dit le Lotr\u00e9"
        },
        {
            "type": "date",
            "value": "1343\/02\/02",
            "children": {
                "date_deb_annee": "1343",
                "date_deb_mois": "02",
                "date_deb_jour": "02"
            },
            "range": {
                "date_apres": 13430202,
                "date_avant": 13430202
            }
        },
        {
            "type": "cote",
            "value": "FRANCE, Nancy, Biblioth\u00e8que municipale, ms. 605, p. 50"
        },
        {
            "type": "description",
            "value": "Copie dans cartulaire (XIV<sup>e<\/sup> s.)"
        },
        {
            "type": "langue",
            "value": "fran\u00e7ais"
        },
        {
            "type": "authenticite",
            "value": "non suspect\u00e9"
        },
        {
            "type": "genre",
            "value": "Lettre"
        },
        {
            "type": "type_source",
            "value": "Cartulaire"
        },
        {
            "type": "analyse",
            "value": "Thovenin dit le Lotr\u00e9 et Hawix sa femme reconnaissent, par acte scell\u00e9 de la cour ducale de Nancy, avoir vendu pour 44 sous fors au chapitre Saint-Georges 4 sols fors de cens annuel. La vente est garantie sur deux de leurs biens situ\u00e9s \u00e0 Nancy (une maison au Bourget et un meix au ban de Saint-Dizier) "
        },
        {
            "type": "transcription",
            "value": "<?xml version=\"1.0\" encoding=\"UTF-8\"?>\n\/01\/ Saichent tuit que Thovenins diz li Lotreis demorans on Bourget de Nancey et Hawix \/02\/ sa femme ont recogneu et confessei de lor plainne voluntei qu'il ont vendui pour aulz \/03\/ et pour lor hoirs a tous jours maix en heritaige ad prevost et ad chennoines dou chapi- \/04\/ -tre Sainct George de Nancey quatre solz de fors de cens a paiier chascun an a tous jours \/05\/ maix ad diz achetours ou a lor commandement, la moiti\u00e9 lou jour de la Nativitei Sainct Jehan Bap- \/06\/ -tiste et l'autre moiti\u00e9 le jour de feste Sainct Estenne loudemain de Noel, ou ceu qui en deffaul- \/07\/ -roit de paiement en aulcun des termines seroit londemain doubles. Et pour meillour seurteir \/08\/ a avoir dou cens et dou double, li dit vendour en ont obligi\u00e9 et aboutei lor maison qu'il \/09\/ ont seant on Bourget de Nancey, apres la maison Thovenin dit Bourree avec les usuaires \/10\/ de la dite maison devant et darriers, ensi com il se comportent, li quelle maisons devoit jai devant \/11\/ cest dit vendaige deix solz de fors aultre part. Et se la dite maisons ne lou pooit faire, le dit \/12\/ vendour en aboutent lour meix qu'il ont seant on ban de Sainct Desier, entre Jehan dit lai \/13\/ Craffe d'une part et Marguerite femme Warin lou Fenire qui fuit d'aultre part, li quelz meirs \/14\/ est frans sens riens devoir. Et est fais cilz vendaiges pour la somme de quarante et quatre \/15\/ solz de fors, dous solz de fors ad vin et les costenges des lettres dont li dit vendour se tiennent \/16\/ pour bien pay\u00e9. Si ont promis li dit vendour par lors foys donnees corporelment en leu de serment \/17\/ et sus l'obligement de tous lors biens mobles et heritaiges presens et advenir, partout qu'il porteront, \/18\/ a tous jours maix ad diz achetours bone warentie et loiaul dou vendaige dessus dit envers touz \/19\/ et contre tous jusques a droit. En tesmoingnaige de la quel chose sunt ces lettres seellees dou seel monsignour \/20\/ le duc de sa court de Nancey, sauf son droit et l'aultrui, a la requeste des diz vendours. \/21\/ Ceu fuit fait l'an de grace Nostre Signour mil trois cens quarante et dous lou jour de lai \/22\/ Purification Nostre Dame on moix de fevrier.\n"
        },
        {
            "type": "responsable",
            "value": "Denis Remy ; Mathias Bouyer"
        },
        {
            "type": "image_interne",
            "value": "http:\/\/telma-chartes.irht.cnrs.fr\/telma_img\/transscript\/transscript-B543956101MS00359_0055.jpg"
        },
        {
            "type": "acte_scelle",
            "value": "non"
        }
    ]
}