{
    "id": 27240,
    "name": "transscript-779",
    "type": "acte",
    "url": "http:\/\/telma-chartes.irht.cnrs.fr\/transscript\/notice\/27240",
    "project_slug": "transscript",
    "project_label": "TRANSSCRIPT",
    "user": "l_gili",
    "last_update": "2020-10-19 16:28:11",
    "licence": "Attribution - Pas d\u2019Utilisation Commerciale - Partage dans les M\u00eames Conditions 3.0 France (CC BY-NC-SA 3.0 FR) ",
    "licence_url": "https:\/\/creativecommons.org\/licenses\/by-nc-sa\/3.0\/fr\/",
    "elements": {
        "0": {
            "type": "auteur",
            "value": "Aubertin de Rotonville "
        },
        "1": {
            "type": "beneficiaire",
            "value": "Raoul, duc de Lorraine et marquis"
        },
        "2": {
            "type": "destinataire",
            "value": "-"
        },
        "3": {
            "type": "disposant",
            "value": "Aubertin de Rotonville "
        },
        "4": {
            "type": "date",
            "value": " 1344\/07\/12",
            "children": {
                "date_deb_jour": "12",
                "date_deb_mois": "07",
                "date_deb_annee": "1344"
            },
            "range": {
                "date_apres": 13440712,
                "date_avant": 13440712
            }
        },
        "5": {
            "type": "date_lieu",
            "value": "-"
        },
        "6": {
            "type": "cote",
            "value": "FRANCE, Nancy, Archives d\u00e9partementales de Meurthe et Moselle, B 566 n\u00b0 57"
        },
        "8": {
            "type": "description",
            "value": "Original sur parchemin, scell\u00e9 de deux sceaux sur double queue de parchemin (dont un perdu)"
        },
        "9": {
            "type": "langue",
            "value": "fran\u00e7ais"
        },
        "10": {
            "type": "authenticite",
            "value": "non suspect\u00e9"
        },
        "11": {
            "type": "genre",
            "value": "Lettre"
        },
        "12": {
            "type": "type_source",
            "value": "Original"
        },
        "13": {
            "type": "analyse",
            "value": "Aubertin de Rotonville confirme l\u2019hommage lige d\u00fb \u00e0 Raoul en contrepartie de la maison forte de Rotonville. Jean de Mengen scell\u00e9 avec Aubertin."
        },
        "14": {
            "type": "transcription",
            "value": "<?xml version=\"1.0\" encoding=\"UTF-8\"?>\n\/01\/ Je Aulbertins de Rotonville, escuiers, fais savoir que je tengne et doie tenir ligement devant \/02\/ tous homes a tousjours maix je et mi hoir apr\u00e9s moi, de tr\u00e9s hault prince, noble et poissant \/03\/ mon tr\u00e9s chier et redout\u00e9 signour Raoul, duc de Loherainne et marchis, et de sez hoirs dus de Loherainne apr\u00e9s lui ma fort mai-\/04\/-son de Rotonville. Et en ceste meniere la doient repanre et tenir mi hoir apr\u00e9s moi dou dit monsignour \/05\/ le duc et de sez hoirs apr\u00e9s lui. En tesmoingnaige de veritei je ai mis mon sael en ces presentes lettres ; et \/06\/ ai proiei et requis a noble home et saige monsignour Jehan de Mengnes chevalier qu\u2019il messet son sael en ces \/07\/ presentes lettres en tesmoingnaige de veritei awec le mien sael ; et je Jehan de Mengnes chevaliers dessus dis \/08\/ a la proiere et a la requeste dou dit Aubertin ai mis mon sael awec le sien en ces presentes lettres en tes-\/09\/-moingnaige de veritei. Que furent faites l\u2019an de grace Nostre Signour mil trois cenz quarante ans et quatre ans, le \/10\/ lundi devant la division des apostres, on mois de julet.\n"
        },
        "15": {
            "type": "mention_hors_teneur",
            "value": "-"
        },
        "16": {
            "type": "note_dorsale",
            "value": "\u00ab Homaige Aubertin \/ de Rotanville de sa \/ fort maison qu\u2019il \/ tient de monsignour \/ Rudendorff \u00bb, XIV<sup>e<\/sup> s. ; \u00ab M. CCC. XLIII \u00bb, XVI<sup>e<\/sup> s., \u00ab du lundy \/ avant la division des \/ apostres, ; n\u00b057, Castres Scharrenb \u00bb et, d\u2019une autre main : \u00ab Bitsch \u00bb, XVII<sup>e<\/sup> s."
        },
        "17": {
            "type": "edition",
            "value": "-"
        },
        "18": {
            "type": "regeste",
            "value": "H. LEVALLOIS, <i>Catalogue des actes de Raoul, duc de Lorraine<\/i>, 1329 \u00e0 1346, Nancy, Biblioth\u00e8que municipale de Nancy, 1902 (dact.), n\u00b0 391"
        },
        "19": {
            "type": "mention",
            "value": "-"
        },
        "20": {
            "type": "sources_manuscrites",
            "value": "FRANCE, Nancy, Archives d\u00e9partementales de Meurthe-et-Moselle, B 384 f\u00b0 384r (XVI<sup>e<\/sup> s.)",
            "children": {
                "type_source": "Cartulaire"
            }
        },
        "21": {
            "type": "responsable",
            "value": "Laura Gili-Th\u00e9baudeau"
        },
        "22": {
            "type": "acte_scelle",
            "value": "oui"
        },
        "23": {
            "type": "sceau",
            "value": "Deux sceaux sur double queue, un perdu ; reste le sceau de Jean Mengen, abim\u00e9",
            "children": {
                "sigilla": ""
            }
        },
        "24": {
            "type": "image_interne",
            "value": "http:\/\/telma-chartes.irht.cnrs.fr\/telma_img\/transscript\/transscript-FRAD054_B566_57r.JPG"
        },
        "25": {
            "type": "image_interne",
            "value": "http:\/\/telma-chartes.irht.cnrs.fr\/telma_img\/transscript\/transscript-FRAD054_B566_57v.JPG"
        },
        "26": {
            "type": "image_interne",
            "value": "http:\/\/telma-chartes.irht.cnrs.fr\/telma_img\/transscript\/transscript-FRAD054_B566_57s.JPG"
        }
    }
}