{
    "id": 27201,
    "name": "transscript-759",
    "type": "acte",
    "url": "http:\/\/telma-chartes.irht.cnrs.fr\/transscript\/notice\/27201",
    "project_slug": "transscript",
    "project_label": "TRANSSCRIPT",
    "user": "t_salemme",
    "last_update": "2020-10-19 16:28:11",
    "licence": "Attribution - Pas d\u2019Utilisation Commerciale - Partage dans les M\u00eames Conditions 3.0 France (CC BY-NC-SA 3.0 FR) ",
    "licence_url": "https:\/\/creativecommons.org\/licenses\/by-nc-sa\/3.0\/fr\/",
    "elements": {
        "0": {
            "type": "auteur",
            "value": "Jean (l\u2019Aveugle), roi de Boh\u00eame et comte de Luxembourg"
        },
        "1": {
            "type": "beneficiaire",
            "value": "Huet d\u2019Auteil"
        },
        "2": {
            "type": "destinataire",
            "value": "-"
        },
        "3": {
            "type": "disposant",
            "value": "Jean (l\u2019Aveugle), roi de Boh\u00eame et comte de Luxembourg"
        },
        "4": {
            "type": "date",
            "value": " 1342\/04\/17",
            "children": {
                "date_deb_jour": "17",
                "date_deb_mois": "04",
                "date_deb_annee": "1342"
            },
            "range": {
                "date_apres": 13420417,
                "date_avant": 13420417
            }
        },
        "5": {
            "type": "date_libre",
            "value": "-"
        },
        "6": {
            "type": "date_lieu",
            "value": "Vincennes"
        },
        "7": {
            "type": "cote",
            "value": "LUXEMBOURG, Luxembourg, Archives nationales de Luxembourg, A-LII-05, n\u00b0 273"
        },
        "9": {
            "type": "description",
            "value": "Original sur parchemin (mm. 220 x 135) jadis scell\u00e9 sur double queue de parchemin"
        },
        "10": {
            "type": "langue",
            "value": "fran\u00e7ais"
        },
        "11": {
            "type": "authenticite",
            "value": "non suspect\u00e9"
        },
        "12": {
            "type": "genre",
            "value": "Lettre"
        },
        "13": {
            "type": "type_source",
            "value": "Original"
        },
        "14": {
            "type": "analyse",
            "value": "Jean (l\u2019Aveugle), roi de Boh\u00eame et comte de Luxembourg, fait savoir qu\u2019il a affranchit les biens de Horn appartenant \u00e0 Huet d\u2019Autel, hormis les d\u00eemes,  qui le reprend de lui en fief de garde du ch\u00e2teau et de la ville de Damvillers."
        },
        "15": {
            "type": "transcription",
            "value": "<?xml version=\"1.0\" encoding=\"UTF-8\"?>\n\/01\/ Jehans, par la grace de Dieu roy de Boeme et conte de Luccemb(ourch), a tous ceulz qui \/02\/ ces presentes lettres verront et orront salut. Saichent tuit que nous, considerans les \/03\/ bons et aggreaubles services que nostre ameit et feal vallet Huet d\u2019Auteil nous \/04\/ ait faiz et encores de jour en jour nous pour nous et pour nos hoirs en recon- \/05\/-pensation de ce et de grace especial et de certaine science avons franchiet et franchisons \/06\/ par ces lettres au dit Huet et a ses hoirs au tous jours maix sa maison de \/07\/ Horne avecques tout le gangnaige, terres, preis, vingnes, bois, riveres et tous autres \/08\/ biens appartenanz a la dite maison, excepte dismes ; parmi ce que il pour li et \/09\/ pour ses hoirs en est devenu nostre homme a tous jours maix, et nous doit, li et \/10\/ ses hoirs, aidier a gardeir nostre chastel et ville de Danvilers par trois mois \/11\/ continuelment toute fois que nous ou nous hoirs en arerons mestier pour \/12\/ nostre dicte ville et chastel deffendre ou que les gens de nostre dicte ville ou chastel \/13\/ areront guerre a queilcumque persone que ce soit. Et que ce soit ferme et \/14\/ estauble chose a tous jours maix, nous avons fait saieleir ces lettres de nostre \/15\/ grant saiel. Donnees \u00e0 Vincesten lez Paris, .XVII. jours d\u2019avril, l\u2019an de grace mil \/16\/ .CCC. et quarante .II.\n"
        },
        "16": {
            "type": "remarques",
            "value": "-"
        },
        "17": {
            "type": "mention_hors_teneur",
            "value": "-"
        },
        "18": {
            "type": "note_dorsale",
            "value": "\u00ab Cest lettre de la franchie de Horne \u00bb, XIV<sup>e<\/sup> s. ; \u00ab A .XXIII. \u00bb, XV<sup>e<\/sup> s."
        },
        "19": {
            "type": "edition",
            "value": "A. ESTGEN, M. PAULY et J. SCHROEDER, <i>Urkunden- und Quellenbuch zur Geschichte der altluxemburgischen Territorien, begr\u00fcndet von Camille Wampach<\/i>, t. XI\/1, <i>Die Urkunden Graf Johanns des Blinden (1310-1346). Die Urkunden aus Luxemburger Archivbest\u00e4nden<\/i>, Luxembourg 1997, n\u00b0 L72 (\u00e0 la date 17 avril 1340)"
        },
        "20": {
            "type": "regeste",
            "value": "F.-X. W\u00dcRTH-PAQUET, \u00ab Chartes de la famille de Reinach \u00bb, <i>Publications de la Section historique<\/i>, XXXIII (1879), n\u00b0 273"
        },
        "21": {
            "type": "mention",
            "value": "-"
        },
        "22": {
            "type": "sources_manuscrites",
            "value": "LUXEMBOURG, Luxembourg, Archives Nationales de Luxembourg, Fonds Culenborg, A-LXIII-273 (regeste dactylographi\u00e9 conserv\u00e9 avec l'original, XX<sup>e<\/sup> s.)",
            "children": {
                "type_source": "n.c."
            }
        },
        "23": {
            "type": "responsable",
            "value": "Timothy Salemme"
        },
        "24": {
            "type": "acte_scelle",
            "value": "non"
        },
        "25": {
            "type": "sceau",
            "value": "-",
            "children": {
                "sigilla": ""
            }
        },
        "28": {
            "type": "image_interne",
            "value": "http:\/\/telma-chartes.irht.cnrs.fr\/telma_img\/transscript\/transscript-A-LII-0273_0000000000.jpg"
        },
        "29": {
            "type": "image_interne",
            "value": "http:\/\/telma-chartes.irht.cnrs.fr\/telma_img\/transscript\/transscript-A-LII-0273_0000000010.jpg"
        }
    }
}