{
    "id": 239,
    "name": "transscript-146",
    "type": "acte",
    "url": "http:\/\/telma-chartes.irht.cnrs.fr\/transscript\/notice\/239",
    "project_slug": "transscript",
    "project_label": "TRANSSCRIPT",
    "user": "t_salemme",
    "last_update": "2020-10-19 16:24:54",
    "licence": "Attribution - Pas d\u2019Utilisation Commerciale - Partage dans les M\u00eames Conditions 3.0 France (CC BY-NC-SA 3.0 FR) ",
    "licence_url": "https:\/\/creativecommons.org\/licenses\/by-nc-sa\/3.0\/fr\/",
    "elements": {
        "0": {
            "type": "analyse",
            "value": "Arnoud, comte de Looz, seigneur de Rummen et Quabeek, fait savoir qu\u2019il a donn\u00e9 quittance \u00e0 Wenceslas de Boh\u00eame, duc de Luxembourg et Brabant, de la somme de 16.000 vieux petits florins d\u2019or que ce dernier a lui pay\u00e9 pour l\u2019achat du comt\u00e9 de Chiny."
        },
        "1": {
            "type": "auteur",
            "value": "Arnold, comte de Looz, seigneur de Rummen et Quabeek"
        },
        "2": {
            "type": "beneficiaire",
            "value": "Wenceslas (1) de Boh\u00eame, duc de Luxembourg et de Brabant"
        },
        "3": {
            "type": "disposant",
            "value": "Arnold, comte de Looz, seigneur de Rummen et Quabeek"
        },
        "4": {
            "type": "cote",
            "value": "BELGIQUE, Bruxelles, Archives G\u00e9n\u00e9rales du Royaume, Fonds Chartes et Cartulaires de Luxembourg, n\u00b0 1068 "
        },
        "5": {
            "type": "responsable",
            "value": "Timothy Salemme"
        },
        "6": {
            "type": "date",
            "value": " 1364\/08\/16",
            "children": {
                "date_deb_annee": "1364",
                "date_deb_mois": "08",
                "date_deb_jour": "16"
            },
            "range": {
                "date_apres": 13640816,
                "date_avant": 13640816
            }
        },
        "7": {
            "type": "description",
            "value": "Original sur parchemin (mm. 335\/338 \u00d7 117\/100, dont queue mm. 16), scell\u00e9 sur simple queue de parchemin"
        },
        "9": {
            "type": "edition",
            "value": "M. J. WOLTERS, <i>Codex diplomaticus Lossensis ou Recueil et analyse de chartes servant de preuves \u00e0 l'histoire de l'ancien comt\u00e9 de Looz<\/i>, Gand 1849, p. 377"
        },
        "10": {
            "type": "regeste",
            "value": "A. VERKOOREN, <i>Inventaire des chartes et cartulaires du Luxembourg (comt\u00e9, puis duch\u00e9)<\/i>, t. III, Bruxelles 1915, n\u00b0 1068"
        },
        "11": {
            "type": "genre",
            "value": "Lettre"
        },
        "12": {
            "type": "langue",
            "value": "fran\u00e7ais"
        },
        "13": {
            "type": "sources_manuscrites",
            "value": "BELGIQUE, Bruxelles, Archives G\u00e9n\u00e9rales du Royaume, Fonds Chartes et Cartulaires de Luxembourg, cartulaire VIII, f\u00b0 34v (copie dans cartulaire du XVII<sup>e<\/sup> s. (1625))",
            "children": {
                "type_source": "Cartulaire"
            }
        },
        "14": {
            "type": "note_dorsale",
            "value": "\u00ab XVIII \u00bb, XIV<sup>e<\/sup> s. ; \u00ab XXVII \u00bb, XIV<sup>e<\/sup> s. ; \u00ab Quittance co(mitis) Lossen(sis) de .XVI<sup>m<\/sup>. florinis et aliis custibus, expensis et dampnis \u00bb, XV<sup>e<\/sup> s. ; \u00ab I. 18 \u00bb et \u00ab 213 \u00bb, XVIII<sup>e<\/sup> s. ; \u00ab 1364 \u00bb, XVIII<sup>e<\/sup> s. ; \u00ab 1364 \u00bb, XVIII<sup>e<\/sup> s., suivi par \u00ab cop. \u00bb, rajout\u00e9 par une autre main du XVIII<sup>e<\/sup> s. ; \u00ab 1364 \u00bb, XVIII<sup>e<\/sup> s., suivi par \u00ab 16 aoust \u00bb rajout\u00e9 par une autre main du XVIII<sup>e<\/sup> s."
        },
        "15": {
            "type": "transcription",
            "value": "<?xml version=\"1.0\" encoding=\"UTF-8\"?>\n\/01\/ Nous Arnolt, conte de Los, sires de Rumynes et de Quaecbeke, faisons savoir a tous et cognissons que nos tres chiers sires monssignour Wenceslaus de \/02\/ Boeme, dux de Lucembourch et de Brabant nous at bien deubement et plainement paiet la somme de saze mil vies petis florins bons d\u2019oir et de pois, qu\u2019il nous \/03\/ devoit pour le cause dou conteit de Chiny que vendut li avons, at assi nous at nosdis sires li dux bien acquitteit de tous frais, coustenges et autres \/04\/ damaiges de maingailles dont acquitteir nous devoit. Si quittons pour nous, nos hoirs et successeurs nostre dit signour le duc, ses hoirs et successeurs \/05\/ et tous autres as queis quittance en doit ou puet aucunnement pertenir des dis seze mil florins, des frais, coustenges et autres damaiges dessudis, et \/06\/ assi de tout ce que nous, nos hoirs ou successeurs porriens en temps advenir demandeir ou requerre a nostre dit signour le duc, a ses hoirs ou successeurs \/07\/ pour cause doudit conteit de Chiny, dont nous de nostre dit signour, comme dit est, nous tenons en tous estaus pour bien souls et paies. Tesmoingnes \/08\/ ces lettres saielees de nostre saiel. Donnees .XVI. jours en awoust, l\u2019an mil trois cent sixante quatre.\n"
        },
        "16": {
            "type": "type_source",
            "value": "Original"
        },
        "17": {
            "type": "acte_scelle",
            "value": "oui"
        },
        "18": {
            "type": "id_telma",
            "value": "630317"
        },
        "19": {
            "type": "sceau",
            "value": "Petit sceau armorial d'Arnould de Rummen, \u00e0 l'\u00e9cu \u00e9cartel\u00e9 aux 1 et 4 de Looz (burel\u00e9) et de Chiny (sem\u00e9 de croisettes, \u00e0 deux bars adoss\u00e9s) et aux 2 et 3 de Heinsberg (lion couronn\u00e9, la queue fourchue); dans un polylobe. L\u00e9gende : [+ S. A]RNOL[DI COMIT' [LOSSENS' AC DNI DE RVME ET [DE QECB'] "
        },
        "20": {
            "type": "destinataire",
            "value": "-"
        },
        "21": {
            "type": "date_libre",
            "value": "-"
        },
        "22": {
            "type": "date_lieu",
            "value": "-"
        },
        "24": {
            "type": "remarques",
            "value": "-"
        },
        "25": {
            "type": "mention_hors_teneur",
            "value": "-"
        },
        "26": {
            "type": "mention",
            "value": ""
        },
        "27": {
            "type": "image_interne",
            "value": "http:\/\/telma-chartes.irht.cnrs.fr\/telma_img\/transscript\/transscript-510_0023_000_01068_000_r.jpg"
        },
        "28": {
            "type": "image_interne",
            "value": "http:\/\/telma-chartes.irht.cnrs.fr\/telma_img\/transscript\/transscript-510_0023_000_01068_000_v.jpg"
        }
    }
}