{
    "id": 20006,
    "name": "transscript-444",
    "type": "acte",
    "url": "http:\/\/telma-chartes.irht.cnrs.fr\/transscript\/notice\/20006",
    "project_slug": "transscript",
    "project_label": "TRANSSCRIPT",
    "user": "ch_loubet",
    "last_update": "2020-10-19 16:26:43",
    "licence": "Attribution - Pas d\u2019Utilisation Commerciale - Partage dans les M\u00eames Conditions 3.0 France (CC BY-NC-SA 3.0 FR) ",
    "licence_url": "https:\/\/creativecommons.org\/licenses\/by-nc-sa\/3.0\/fr\/",
    "elements": {
        "0": {
            "type": "auteur",
            "value": "Ferry (3), duc de Lorraine et marquis"
        },
        "1": {
            "type": "beneficiaire",
            "value": "Chapitre de Toul"
        },
        "2": {
            "type": "beneficiaire",
            "value": "Wautier, fils de Li\u00e9baut, seigneur de Bauffremont"
        },
        "3": {
            "type": "beneficiaire",
            "value": "Mahaut de Pulligny, femme de Huart, seigneur de Gimonville"
        },
        "4": {
            "type": "beneficiaire",
            "value": "Li\u00e9baut, seigneur de Bauffremont"
        },
        "5": {
            "type": "beneficiaire",
            "value": "Huart, seigneur de Gimonville, fils de Li\u00e9baut de Bauffremont"
        },
        "6": {
            "type": "disposant",
            "value": "Chapitre de Toul"
        },
        "7": {
            "type": "disposant",
            "value": "Li\u00e9baut, seigneur de Bauffremont"
        },
        "8": {
            "type": "disposant",
            "value": "Huart, seigneur de Gimonville, fils de Li\u00e9baut de Bauffremont"
        },
        "9": {
            "type": "disposant",
            "value": "Wautier, fils de Li\u00e9baut, seigneur de Bauffremont"
        },
        "10": {
            "type": "disposant",
            "value": "Mahaut de Pulligny, femme de Huart, seigneur de Gimonville"
        },
        "11": {
            "type": "date",
            "value": "1298\/04\/00",
            "children": {
                "date_deb_mois": "04",
                "date_deb_annee": "1298",
                "date_deb_type": "",
                "date_deb_jour": "00"
            },
            "range": {
                "date_apres": 12980400,
                "date_avant": 12980499
            }
        },
        "12": {
            "type": "cote",
            "value": "FRANCE, Nancy, Archives d\u00e9partementales de Meurthe-et-Moselle, 2 F 5 f\u00b0 46r - 47r"
        },
        "14": {
            "type": "langue",
            "value": "fran\u00e7ais"
        },
        "15": {
            "type": "authenticite",
            "value": "non suspect\u00e9"
        },
        "16": {
            "type": "genre",
            "value": "Lettre"
        },
        "17": {
            "type": "type_source",
            "value": "Cartulaire"
        },
        "18": {
            "type": "transcription",
            "value": "<?xml version=\"1.0\" encoding=\"UTF-8\"?>\n \/01\/ Je Ferris, dus de Lorrenne et marchis, fais savoir a tous ceaulz qui ces presentes let-\/02\/-tres verront et orront que pour ceu especiaulment estaubli par devant nous Lie-\/03\/-baus, sires de Boffroimont, Huars ses filz, sires de Gimonville, et Mahauz de Pulligney, \/04\/ femme ledit Huart, mei homme et mei fiauble et Wautiers ameis filz au dit Liebaut \/05\/ signour de Boffroimont ont recogneu et confessei que cum il eussent descort et bestens aus \/06\/ honorables hommes lou doien et lou chapistre de Toul si com de ceu qu\u2019il disoient que il po-\/07\/-oient retenir les hommes dou dit chapistre en lor terres et especialment lidis Huars et  \/01\/ lidite Mahaulz en la ville de Gimonville devant dite paix, fins et concorde en est faite \/02\/ entre aulz pour lor hoirs et pour lour sucessours, d\u2019une part, et lesdis doien et chapistre \/03\/ pour aulz et pour lor dite eglise, d\u2019autre, pour tous jours, mais en la meniere qui s\u2019en-\/04\/-suit. C\u2019est asavoir que il ens ville de Gimonville, de Ruppes et ens apartinences des dis leus \/05\/ especiaulment ne en toutes lor autres terres que il lor hoir lor successour ont, averont \/06\/ pour tous jours, mais comment que il aient soit par aulz en partaige, en parson, en heritaige, \/07\/ en compaignie ou par acquest ou par autre meniere quel qu\u2019elle soit ensamble et chacuns \/08\/ par lui ne retenront ne ne porront retenir il ne autres pour aulz jamais nulz des hommes \/09\/ ne des femmes loudit chapistre dou ban de Vicherei ne de lor autre terre dou dit chapistre \/10\/ quelque part qu\u2019elle soit ou puisse estre et si ont deffait, acquittei et anullei tous entre \/11\/ cours qui estoient et pooient estre entre aulz ou devoient ce aucun en i avoient de hom-\/12\/-mes dou ban de Vicherei et de la terre loudit chapistre ou qu\u2019il eussent hommes c\u2019est a\/13\/savoir a villes de Ruppes et de Gimonville et de apartenences desus nommees et de toutes \/14\/ lor autres terres ou qu\u2019elles soient pour tous jours, mais par tel meniere que il lor hoir \/15\/ ou lour successour ont ou averont par quelque meniere que il l\u2019aient nulz des hommes \/16\/ dou dit chapistre ensi com desus est dit et se il avenoit que aucuns de hommes dou dit \/17\/ chapistre se translataist fors dou signouraige dou dit chapistre et feist demorance ou \/18\/ bourgesie desous autre signour que desous lesdis Liebaut Wautier et Huart et Ma-\/19\/-haus ou desous lour hoirs ou lor successours et demoraist en qui an et jour ou plus \/20\/ soit qu\u2019il en qui eussent entrecours ou non se ne porroient lidit Liebaus Wautiers et \/21\/ Huars et Maihaus lor hoir ne lor successour retenir lesdis hommes puisqu\u2019il seroient \/22\/ parti et venu de la terre dou dit chapistre qu\u2019il ne perdissent meuble et heritaige qui se- \/23\/ -roient trouvei en la terre dou dit chapistre et demorroient aus dis doien et chapistre \/24\/ a tous jours. Ne li dit doiens et chapistre ne pouvient retenir en lor terre par semblant \/25\/ meniere les hommes au dis Liebaut Wautier et Huart et Mahaulz. Et est asavoir que \/26\/ li homme de la terre lou dit chapistre et especiaulment li hommes des villes de Tranconville, \/27\/ de Araffe et de tout lou ban de Vicherei, doient avoir pour tousjoursmais lor paistu- \/28\/ -raige pour toutes menieres de bestes en ban de Gimonville paisiblement sens contredit \/29\/ par mei lo damaige rendant que les bestes feroient aus usaiges dou pais. Et li homme \/30\/ de Gimonville doient avoir lor pasturaige en la terre dou dit chapistre par semblant \/31\/ meniere. Et pour ces choses desus dites lidit Liebaut Wautier et Huars et Mahaulz ont eu \/32\/ et receu dou dit chapistre trois cens et quarante livres de bons petis tournois en bonne menoie \/33\/ numbree, ensi com il l\u2019ont recogneu par devant moy. Et ont promis au dit chapistre par lor \/34\/ sairemens corporelment donneis que il ladite paix et acordance tout ensi com elle est desus or-\/35\/-denee et devisee garderont et tenront fermement sens venir encontre en tout ne en partie \/36\/ et ont promis par lor dit sairement ensamble et chacun par lui pour aulz pour lor hoirs et \/37\/ pour lor successours que il en porteront au dit chapistre bonne warentie et paisible envers \/38\/ tous qui a droit vorroient venir toutes celles fois qu\u2019il en seroient mis en question. Et  \/01\/ a ce faire tenir et wardeir en ont il obligei aulz lor biens lor terres lor hoirs et lour succes-\/02\/-sours. Et je comme sires soverains de cui ladite ville de Gimonville muet a la proiere des dis \/03\/ Liebaut Wautier et Huart et Mahaus ai confermei, agrai\u00e9, conferme, agree et ratefie toutes \/04\/ les choses desus dites en tant com il affieit a mon signoraige et aus choses qui tiennent de \/05\/ moy. En tesmoignaige de veritei je ai fait mettre mon sael en ces presentes lettres par la reque-\/06\/-ste des dis Liebaut Wautier et Huart que furent faites l\u2019an de grace nostre Signour mil dous \/07\/ cens quatre vins et dix et ouit ans, on mois d\u2019avril.\n"
        },
        "19": {
            "type": "regeste",
            "value": "J. DE PANGE, <i>Catalogue des actes de Ferri III, duc de Lorraine (1251-1303)<\/i>, Paris, 1930, n\u00b0 1316, p. 256"
        },
        "20": {
            "type": "responsable",
            "value": "Christelle Balouzat-Loubet"
        },
        "21": {
            "type": "image_interne",
            "value": "http:\/\/telma-chartes.irht.cnrs.fr\/telma_img\/transscript\/transscript-AD_MM_2_F_5_f._47r.JPG"
        },
        "22": {
            "type": "image_interne",
            "value": "http:\/\/telma-chartes.irht.cnrs.fr\/telma_img\/transscript\/transscript-AD_MM_2_F_5_f._46r.JPG"
        },
        "23": {
            "type": "image_interne",
            "value": "http:\/\/telma-chartes.irht.cnrs.fr\/telma_img\/transscript\/transscript-AD_MM_2_F_5_f._46v.JPG"
        },
        "24": {
            "type": "acte_scelle",
            "value": "non",
            "children": {
                "sigilla": ""
            }
        },
        "25": {
            "type": "analyse",
            "value": "Ferry (3), duc de Lorraine, confirme un accord pass\u00e9 entre Li\u00e9baut de Bauffremont, son fils Huart de Gimonville, la femme de ce dernier, Mahaut de Pulligny, et son autre fils Wautier d'une part et le chapitre de Toul d'autre part."
        },
        "26": {
            "type": "regeste",
            "value": "FRANCE, Nancy, Archives d\u00e9partementales de Meurthe-et-Moselle, G 1384 f\u00b0 179 n\u00b0 84"
        },
        "27": {
            "type": "description",
            "value": "Copie sur cartulaire"
        }
    }
}