{
    "id": 26094,
    "name": "transscript-650",
    "type": "acte",
    "url": "http:\/\/telma-chartes.irht.cnrs.fr\/transscript\/notice\/26094",
    "project_slug": "transscript",
    "project_label": "TRANSSCRIPT",
    "user": "t_salemme",
    "last_update": "2020-10-19 16:27:54",
    "licence": "Attribution - Pas d\u2019Utilisation Commerciale - Partage dans les M\u00eames Conditions 3.0 France (CC BY-NC-SA 3.0 FR) ",
    "licence_url": "https:\/\/creativecommons.org\/licenses\/by-nc-sa\/3.0\/fr\/",
    "elements": {
        "0": {
            "type": "auteur",
            "value": "Jean (l'Aveugle), roi de Boh\u00eame et de Pologne et comte de Luxembourg"
        },
        "1": {
            "type": "beneficiaire",
            "value": "Monast\u00e8re cistercien de Himmerod"
        },
        "2": {
            "type": "destinataire",
            "value": "-"
        },
        "3": {
            "type": "disposant",
            "value": "Jean (l'Aveugle), roi de Boh\u00eame et de Pologne et comte de Luxembourg"
        },
        "4": {
            "type": "date",
            "value": "apres 1332\/08\/01 - avant 1334\/05\/21",
            "children": {
                "date_deb_jour": "01",
                "date_deb_mois": "08",
                "date_deb_annee": "1332",
                "date_deb_type": "apres",
                "date_fin_jour": "21",
                "date_fin_mois": "05",
                "date_fin_annee": "1334",
                "date_fin_type": "avant"
            },
            "range": {
                "date_apres": 13320801,
                "date_avant": 13340521
            }
        },
        "5": {
            "type": "date_libre",
            "value": "-"
        },
        "6": {
            "type": "date_lieu",
            "value": "-"
        },
        "7": {
            "type": "cote",
            "value": "ALLEMAGNE, Coblence, Landeshauptarchiv, Abt. 96, n\u00b0 753"
        },
        "10": {
            "type": "description",
            "value": "Vidimus sur parchemin (mm. 284 x 154) scell\u00e9 d'un sceau pendant sur double queue de parchemin"
        },
        "11": {
            "type": "langue",
            "value": "latin"
        },
        "12": {
            "type": "authenticite",
            "value": "non suspect\u00e9"
        },
        "13": {
            "type": "genre",
            "value": "Lettre"
        },
        "14": {
            "type": "type_source",
            "value": "Vidimus"
        },
        "15": {
            "type": "analyse",
            "value": "Vidimus d\u00e9livr\u00e9 par l'officier de la curie de Tr\u00e8ves de la lettre par laquelle Jean (l'Aveugle), roi de Boh\u00eame et de Pologne et comte de Luxembourg, notifie en date du 1er ao\u00fbt 1332 avoir confirm\u00e9 au monast\u00e8re cistercien de Himmerod tous les droits, les donations, les libert\u00e9s et les gr\u00e2ces pr\u00e9c\u00e9demment accord\u00e9s audit \u00e9tablissement par les empereurs, les rois des Romains et les comtes de Luxembourg. Dans la m\u00eame lettre, Jean confirme en outre toutes les donations faites en faveur de l'abbaye dans la juridiction et dans le territoire du comt\u00e9 de Luxembourg et \u00e0 Hochscheid et Grosslitgen, ainsi que la vente de la for\u00eat dite de Camervoirst pr\u00e8s de Schwarzenborn et du fleuve Salm faite en faveur dudit \u00e9tablissement par Guillaume (5) de Mandescheid pour 400 livres de Tr\u00e8ves."
        },
        "16": {
            "type": "transcription",
            "value": "<?xml version=\"1.0\" encoding=\"UTF-8\"?>\n\/01\/ Nos officialis curie Treverensis notum facimus universis presentes litteras inspecturis quod anno Domini millesimo .CCC\u00b0. tricesimo quarto, in crastino fes- \/02\/-ti Sancte Tinitatis, vidimus litteras infrascriptas, omni suspicione carentes, vero sigillo domini Johannis regis Boemie ut prima facie apparebat si- \/03\/-gillatas, in hec verba. Johannes, Dei gratia Boemie et Polonie rex ac Luccillimb\u016frgensis comes, omnibus Christi fidelibus in perpetuum. Dum imperatorum et Ro- \/04\/-manorum regum et illustrium inclite recordationis progenitorum nostrorum pia gesta mente revolvimus ac interne consideracionis oculis perspicimus diligenter, \/05\/ ut eorum iustis exemplis nostra captemus vestigia, in voto gerimus atque desiderio pleniori, sperantes ex hoc quod ecclesias et ecclesiasticas personas divino cultui \/06\/ deputatas pleniori pre ceteris gratia confovemus concessa nobis a superno Rege regente et gubernante omnia salus et gratia debeat ampliari. Noscat \/07\/ igitur presens etas et futuri temporis successura posteritas quod nos, exempla eorundem progenitorum nostrorum quantum Is annuerit qui dat omnibus affluenter sequi in \/08\/ via largitatis clementie et rectitudinis, venerandum monasterium in Himmerode, ordinis Cisterciensis, Treverensis diocesis, ab imperatoribus et Romanorum regibus et nostris \/09\/ antecessoribus et progenitoribus pluribus dotatum libertatibus et honorum titulis insignitum amplexantes quemadmodum iidem nostri antecessores ac progenitores \/10\/ ulius gratie et beneficentie specialis, ipsum cum personis et rebus omnibus eidem monasterio pertinentibus in nostram protectionem recipimus specialem; omnia jura dona- \/11\/-ciones, libertates et gracias quas a divis imperatoribus et Romanorum regibus ac spectabilibus viris comitibus Luccillimb\u016frgensibus progenitoribus \/12\/ nostris usque ad hec tempora dictum monasterium dinoscitur habuisse et nichilominus donationes et largiciones in nostro districtu, territorio et comitatu \/13\/ Luccillimburgensi ubilibet, necnon in Honscheit ac Lytiche et in bannis seu confiniis ibidem ipsi monasterio factas, empcionem insuper silve \/14\/ que vulgaliter dicitur Cammervoirst prope villam Swarzimb\u016frne et ripam que Salmona nuncupatur site cum suis appendiciis et \/15\/ actinentiis universis factam per .. abbatem et conventum predicti monasterii in Himmerode a nobili viro quondam Wilhelmo de Manders- \/16\/-cheit pro quadringentis libris Treverensium denariorum prout rite et provide concessa et facta noscuntur approbantes, innovantes et presentibus \/17\/ litteris confirmantes. Mandamus igitur omnibus et singulis regio hoc edicto ne quis regni nostri et comitatis Luccillimb\u016frgensis \/18\/ fidelium cuiuscumque preminencie, condicionis aut status existat, memoratum monasterium vel personas Deo famulantes ibidem presumat aliqua- \/19\/-liter molestare aut jura ipsius infringere seu libertates concessas quomodolibet violare, alioquin secus faciens indignacionem nostram gravem \/20\/ se noverit incursurum. In cuius rei testimonium presentes litteras exinde conscribi et regni nostri sigillo jussimus communiri. Datum anno \/21\/ incarnationis dominice millesimo .CCCmo. tricesimo secundo, prima die augusti. In quarum litterarum visionis testimonium nos officialis an- \/22\/-tedictus sigillum nostre Treverensis supradicte presentibus litteris apposuimus in testimonium veritatis. Datum anno Domini et in cras- \/23\/-tino supradictis.\n"
        },
        "17": {
            "type": "remarques",
            "value": "-"
        },
        "18": {
            "type": "mention_hors_teneur",
            "value": "-"
        },
        "19": {
            "type": "note_dorsale",
            "value": "\" Copia confirmationis regis Bohemie [omnium iurium] Hoynseyt ac Lithe \", XIVe s. ; \" Kamerforst silva \", XVe s. ; \" Johannes Bohemie ac Polonie rex, comes Lutzembugensis \", XVIIIe s. ; \" 33 \", XVIIIe s. \" 132 \", XVIIIe s. ; \" J. num. 6tus \", XIXe s. ; \" 30 \", XXe s."
        },
        "20": {
            "type": "edition",
            "value": "W. FELTEN, <i>Die Bulle Ne pretereat und die Reconciliations-Verhandlungen Ludwigs des Bayers mit dem Papste Johann XXII: ein Beitrag zur Geschichte des 14. Jahrhunderts; mit einem Anhange von Urkunden aus Trier, Koblenz und dem Vaticanischen Archive<\/i>, t. 2, Tr\u00e8ves, 1887, n\u00b0 15, p. 253"
        },
        "21": {
            "type": "regeste",
            "value": "J.-F. B\u00d6HEMER, <i>Regesta Imperii inde ab anno 1314 usque ad annum 1347. Die Urkunden Kaiser Ludwigs des Baiern, K\u00f6nig Friedrichs des Sch\u00f6nen und K\u00f6nig Johanns von B\u00f6hmen. Nebst einer Auswahl der Briefe und Bullen der P\u00e4bste und anderer Urkunden in Ausz\u00fcgen, Addimentum secundum<\/i>, Francfort-sur-le-Main, 1846, n\u00b0 404, p. 299"
        },
        "22": {
            "type": "regeste",
            "value": "W. FELTEN, <i>Die Bulle Ne pretereat und die Reconciliations-Verhandlungen Ludwigs des Bayers mit dem Papste Johann XXII: ein Beitrag zur Geschichte des 14. Jahrhunderts; mit einem Anhange von Urkunden aus Trier, Koblenz und dem Vaticanischen Archive<\/i>, t. 2, Tr\u00e8ves, 1887, n\u00b0 10, p. 270"
        },
        "23": {
            "type": "sources_manuscrites",
            "value": "ALLEMAGNE, Coblence, Landeshauptarchiv, Abt. 96, n\u00b0 2265 (cartulaire de 1525), n\u00b0 8, f\u00b0 17v",
            "children": {
                "type_source": "Registre",
                "source_edition": ""
            }
        },
        "24": {
            "type": "responsable",
            "value": "Timothy Salemme"
        },
        "25": {
            "type": "acte_scelle",
            "value": "oui"
        },
        "26": {
            "type": "sceau",
            "value": "Photo du sceau pas disponible ",
            "children": {
                "sigilla": ""
            }
        }
    }
}