{
    "id": 26566,
    "name": "transscript-666",
    "type": "acte",
    "url": "http:\/\/telma-chartes.irht.cnrs.fr\/transscript\/notice\/26566",
    "project_slug": "transscript",
    "project_label": "TRANSSCRIPT",
    "user": "D_Kirt",
    "last_update": "2020-10-19 16:28:02",
    "licence": "Attribution - Pas d\u2019Utilisation Commerciale - Partage dans les M\u00eames Conditions 3.0 France (CC BY-NC-SA 3.0 FR) ",
    "licence_url": "https:\/\/creativecommons.org\/licenses\/by-nc-sa\/3.0\/fr\/",
    "elements": {
        "0": {
            "type": "auteur",
            "value": "Jean, roi de Boh\u00eame et comte de Luxembourg"
        },
        "1": {
            "type": "beneficiaire",
            "value": "-"
        },
        "2": {
            "type": "destinataire",
            "value": "Baudouin, archev\u00eaque de Tr\u00e8ves"
        },
        "3": {
            "type": "disposant",
            "value": "Jean, roi de Boh\u00eame et comte de Luxembourg"
        },
        "4": {
            "type": "date",
            "value": " 1344\/11\/20",
            "children": {
                "date_deb_jour": "20",
                "date_deb_mois": "11",
                "date_deb_annee": "1344"
            },
            "range": {
                "date_apres": 13441120,
                "date_avant": 13441120
            }
        },
        "5": {
            "type": "date_lieu",
            "value": "-"
        },
        "6": {
            "type": "cote",
            "value": "ALLEMAGNE, Coblence, Landeshauptarchiv, Abt. 211, n\u00b0 1976"
        },
        "9": {
            "type": "description",
            "value": "Original sur parchemin, 314 x 219 mm, scell\u00e9 sur double queue de parchemin (sceau fortement endommag\u00e9)"
        },
        "10": {
            "type": "langue",
            "value": "allemand"
        },
        "11": {
            "type": "authenticite",
            "value": "non suspect\u00e9"
        },
        "12": {
            "type": "genre",
            "value": "Lettre"
        },
        "13": {
            "type": "type_source",
            "value": "Original"
        },
        "14": {
            "type": "analyse",
            "value": "Jean, roi de Boh\u00eame et comte de Luxembourg fait savoir qu'il r\u00e9cup\u00e8re le gage sur la seigneurie d\u2019Usme et le ch\u00e2teau de Freudenburg de la part de son oncle l\u2019archev\u00eaque Baudouin de Tr\u00e8ves, tout en reconnaissant sa souverainet\u00e9 f\u00e9odale. Par ailleurs, il confirme qu\u2019avec l\u2019accord des deux parties concern\u00e9es, une inspection du marquisat d\u2019Usme dans le ban duquel se trouve le ch\u00e2teau de Freudenburg, a \u00e9t\u00e9 entreprise par leurs amis et les \u00e9chevins d\u2019Usme."
        },
        "15": {
            "type": "transcription",
            "value": "<?xml version=\"1.0\" encoding=\"UTF-8\"?>\n\/01\/ Wir Johan, von gots gnaden k\u016fning z\u016f Beheim und greve z\u016f L\u016ftzillimburg, d\u016fn k\u016fnt allen luden und erkennen offenlichen an diesem brieve, daz von des erwerdigen in gode vaders \/02\/ hern Baldewins, ertzebischofs z\u016f Tri\u0364re, unsers lieben vedern, und unserm eindrechtigen bevolnisse gebode und villen und n\u016fcz unser beider fr\u016fnden, di\u0364 wir dar bij geschicket hatten, di\u0364 mar- \/03\/ ke des hoves von \u016esme da enbinnen Fro\u1e8fdemberg unser vesten geb\u016fwet ist, begangen und bewiset und underscheiden ist alumb und umb von den .. scheffen von Usme und den ansto\u00dferen und \/04\/ an merkeren, die an die vorgenante marke des hoves sto\u00dfen in aller der wise und mit und an den marksteinen, damide sie von alder undermerket und underscheiden ist und als her na geschri\u0364ben steit. \/05\/ Von erst wart angehaben z\u016f begane die egante marke von Usme bi Froydemberg und angewiset ein markstein, genant der Heitbirboum, da der von Wijt marke her z\u016f stoszet und wart vort glich gegangen \/06\/ biz an Witderdarre, von dannen an Darrerbirboum, von dannen an Wolvesbirboum, von dannen an Morichingen genant, an der alden wisen und von dannen biz die S\u1e8fterse und wart alda gewiset, daz \/07\/ Usmer marke sich gezoge di\u0364 Ste\u1e8fmbach \u1e8fn biz an di\u0364 stad, da si\u0364 in die Luke geit und von dannen di\u0364 selben Luke, abe an dem ende den bach da Fro\u1e8fdemberg lijt, biz an die Krenker und vort biz uf die \/08\/ wisen genant Lieschgarte und ist z\u016f wiszen, daz der hof von Usme und Fro\u1e8fdemberg vorbaz die Luke, abe noch uber die Luke keine marke noch gerichte enhant wan ez unsern vorgenanten vedern und sinem \/09\/ sti\u0364ft an gehort. Vortme wart gegangen widerumb von dem ersten marksteine genant Heitbirboum, biz an e\u1e8fnen markstein genant vor Atzemb\u016fsch ,von dannen biz aber an einen genant uf Atzem- \/10\/ b\u016fsch, biz Queleborn von dannen an einen genant in St\u1e8fren, von dannen biz an di\u0364 Witterbach, da der von Wijt marke scheidet, von dannen wart gegangen biz an di\u0364 Br\u016fningesbach, da des .. aptes \/11\/ von sente Maximinen g\u016ft an get, da der herre von Moncleir ein voit ist und der von Tauen marke her z\u016f sto\u00dfet und dannen biz \u016ff denen### Hainb\u016fch an der bach in den langes und von dannen den \/12\/ berch genant di\u0364 Guntersle\u1e8fde uf und den berg oben langes biz an einen markstein genant uf Heydeberg und vort von dannen durch di\u0364 b\u016fsche biz hin uf Tirleter vels und von dannen glich nider \/13\/ biz an di\u0364 Sare und von der Sare glich wider uf biz aber an einen markstein genant Plo\u1e8fn an Sericher dale und vort von dannen biz an Schetherm\u016fre von dannen biz an Hellingeshar, \/14\/ von dannen z\u016f der e\u1e8fchen uf Diffenhart, von dannen z\u016f Langehart, von dannen an Kardelskamp, von dannen biz an Morshart, von dannen z\u016f der gro\u00dfen e\u1e8fchen, von dannen biz an die \/15\/ Clingenvels, von dannen biz an die Altervels, da sich der von Usme der von Perdembach der von Sente Erasmen, der von Miriche der von N\u016fmagen und der von Winchern marke schei- \/16\/ den. Vort wart gewiset und begangen von der Altervels biz in die K\u016frten und vort biz an Wolvesacker und wider her umb biz an Krenker und also wider uf di\u0364 vorgenante wisen ge- \/17\/ nant Lieschgarte binnen der vorgenanten marke han wir hoegeri\u0364chte und uber di\u0364 vorgenante marke und termin han wir von des hoves von Vsme noch von Fro\u1e8fdemberg wegen kein ge- \/18\/ richte, wan ez bu\u00dfen den marksteine und termin alumb und umb unsern vorgenanten vedern von Triere und sinen stieft angehoret. Doch mach ein iglich sines erbes ge- \/19\/ legen binnen und enbu\u00dfen der vorgenanten marke Usme und wa\u00dfer und weide genie\u00dfen und gebr\u016fchen z\u016f aller bescheidenheit und als ez von alder herkomen ist. Mit \/20\/ beheltnisse auch unserm vorgenanten vetern und sime stiefte der Sm\u1e8fdeh\u016fve uff und an Castel gelegen binnen der marke von Usme, wie sie die von alder her bracht \/21\/ han. Mit beheltnisse auch unserm vorgenanten vetern und sime sti\u0364fte und uns und unsern erben aller bri\u0364ve, die wir undeinander gegeben han, als verre sie wider diese st\u016fcke ni\u0364t ensin. Ouch \/22\/ hait unser vorgenanter veder uns wider z\u016f kaufe gegeben und wider in geantwortet den hoff z\u016f Usme und vesten z\u016f Froymdemberg und daz dar z\u016f gehoret, di\u0364 wir \u1e8fm verkauft hatten \/23\/ beheltnisse \u1e8fm und sime stifte, ir manschaft und rechtes von den vorgenanten hove und vesten und daz dar z\u016f gehoret als vore. Ouch ensollen wir noch unser erben, noch nako- \/24\/ men, noch n\u1e8fman von unser wegen unsern vorgenanten vetern noch sinem stift n\u1e8fmer angesprechen noch geoxien (!) umb keinerle\u1e8f schaden oder sumnisse die an den vorgenanten hove vesten \/25\/ und gude gescheen weren biz uf diesen dag. Alle diese vorgeschriben st\u016fcke und ir iglichs, der uns wol begn\u016fget hait und begn\u016fget han, wir gelobt und globen an diesem \/26\/ bri\u0364ve vor uns und unser erben und nakomen stede und veste z\u016f haldene uzgescheiden allerle\u1e8f argelist und geverde an allen diesen stucken und an ir iglichem. Bij diesem be- \/27\/ scheide und uzdrage sin gewest von unsers vorgenanten vedern wegen Johann von Zolver, d\u016fmproist Boemund von Sarbrucke und Godfrid von Brandemburg, corbischove z\u016f Trire, Pauls \/28\/ von E\u1e8fch und Wilhelm von Orle\u1e8f, rittere Tilman von Rodemacher und Colin von Witlich und von unsern wegen Welter von Me\u1e8fsenburg unser dr\u016fsetze, Arnold von Arle, Gerlach von Br\u016fnshorn, \/29\/ Gotfried von Wiltz, Gobel unser proist z\u016f L\u016ftzellimburg und meyer Johann von Remich, di\u0364 volle machten hatten von unser beider wegen. Des z\u016f ork\u016fnd und ewiger stedikeit han wir unser ingesigel \/30\/ an disem brief t\u016fn henken. Der gegeben ist do man zalte nach Cristus geb\u016frt dr\u016ftzenhundert vier und vierzig jair uf den zwenzigesten dag des mandes november genant in \/31\/ latine. Amen.\n"
        },
        "16": {
            "type": "note_dorsale",
            "value": "R. \u2013 1344. \u2013 Distincio Vreudenberc marke 44 20 novembris (Hand des 15. Jh.). \u2013 Pro regis Bohemiae litterae \u00fcber ausgang und wei\u00dfthumb des hoffs Usme. Anno 1344. Nr. 11 (18. Jh.)."
        },
        "17": {
            "type": "edition",
            "value": "K. LAMBRECHT, Deutsches Wirtschaftsleben 3, 1885, p. 191, nr. 163 (selon une copie des Balduineen sect. IV, nr. 1474, pour cette raison avec un orthographe divergent)"
        },
        "18": {
            "type": "regeste",
            "value": "J. F. B\u00d6HEMER, <i>Regesta Imperii inde ab anno MCCCXIII usque ad annum MCCCXLVII. Die Urkunden Kaiser Ludwigs des Baiern, K\u00f6nig Friedericj des Sch\u00f6nen und K\u00f6nig Johanns von B\u00f6hmen nebst einer Auswahl der Briefe und Bullen des P\u00e4pste und anderer Urkunden welche f\u00fcr die Geschichte Deutschlands von 1314 bis 1347 vorz\u00fcglich wichtig sind, t. I, Additamentum primum,<\/i> Francfort-sur-le-Main 1841, n\u00b0 468 p. 304."
        },
        "19": {
            "type": "regeste",
            "value": "A. KREGLINGER, Analyse des dipl\u00f4mes, composant les archives des dipl\u00f4mes de Luxembourg qui se trouvent \u00e0 Coblence, in: Compte rendu des s\u00e9ances de la Commission royale d'histoire 3, Luxembourg 1840, p. 251s."
        },
        "20": {
            "type": "regeste",
            "value": "F.-X. W\u00dcRTH-PAQUET: <i>Table chronologique des chartes et dipl\u00f4mes relatifs \u00e0 l'histoire de l'ancien pays et duch\u00e9 de Luxembourg - R\u00e8gne de Jean, roi de Boh\u00eame et comte de Luxembourg 1310-1346<\/i>, in: PSH 21,2 (1865), p. 44 n\u00b0 1714."
        },
        "21": {
            "type": "regeste",
            "value": "J. EMLER (\u00e9d.), Regesta diplomatica necnon epistolaria Bohemiae et Moraviae, vol. 4: Annorum 1333-1346, Prague 1892, p. 594, Nr. 1467"
        },
        "22": {
            "type": "regeste",
            "value": "J. M\u00d6TSCH, (\u00e9d.), <i>Die Balduineen. Aufbau, Entstehung und Inhalt der Urkundensammlung des Erzbischofs Balduin von Trier, (=Ver\u00f6ffentlichungen der Landesarchivverwaltung Rheinland-Pfalz. Gro\u00dfe Reihe, vol. 33),<\/i> Coblence 1980, p. 335, n\u00b0 1775."
        },
        "23": {
            "type": "mention",
            "value": "A. DOMINICUS, <i>Baldewin von L\u00fctzelburg, Erzbischof und Kurf\u00fcrst, ein Zeitbild aus der ersten H\u00e4lfte des 14. Jahrhunderts,<\/i> Coblence 1862, p. 443, note 2"
        },
        "24": {
            "type": "mention",
            "value": "J. VANNERUS, <i>Freudenburg, Freudenstein, Freudenkoppe, in: M\u00e9langes Henri Pirenne,<\/i> Bruxelles 1926, p. 619s."
        },
        "26": {
            "type": "responsable",
            "value": "David Kirt"
        },
        "27": {
            "type": "acte_scelle",
            "value": "oui"
        },
        "28": {
            "type": "sceau",
            "value": "Sceau pendant fortement endommag\u00e9, sur double queue de parchemin.\nPhoto du sceau pas disponible"
        },
        "31": {
            "type": "date_libre",
            "value": "-"
        }
    }
}