{
    "id": 19953,
    "name": "transscript-413",
    "type": "acte",
    "url": "http:\/\/telma-chartes.irht.cnrs.fr\/transscript\/notice\/19953",
    "project_slug": "transscript",
    "project_label": "TRANSSCRIPT",
    "user": "t_salemme",
    "last_update": "2020-10-19 16:26:42",
    "licence": "Attribution - Pas d\u2019Utilisation Commerciale - Partage dans les M\u00eames Conditions 3.0 France (CC BY-NC-SA 3.0 FR) ",
    "licence_url": "https:\/\/creativecommons.org\/licenses\/by-nc-sa\/3.0\/fr\/",
    "elements": {
        "0": {
            "type": "auteur",
            "value": "Henri (5), comte de Luxembourg et de la Roche, marquis d'Arlon"
        },
        "1": {
            "type": "auteur",
            "value": "Marguerite (de Bar), comtesse de Luxembourg"
        },
        "2": {
            "type": "beneficiaire",
            "value": "Clairefontaine, abbaye"
        },
        "3": {
            "type": "destinataire",
            "value": "-"
        },
        "4": {
            "type": "disposant",
            "value": "Henri (5), comte de Luxembourg et de la Roche, marquis d'Arlon"
        },
        "5": {
            "type": "disposant",
            "value": "Marguerite (de Bar), comtesse de Luxembourg"
        },
        "6": {
            "type": "date",
            "value": " 1257\/08\/23",
            "children": {
                "date_deb_jour": "23",
                "date_deb_mois": "08",
                "date_deb_annee": "1257"
            },
            "range": {
                "date_apres": 12570823,
                "date_avant": 12570823
            }
        },
        "7": {
            "type": "date_libre",
            "value": "-"
        },
        "8": {
            "type": "date_lieu",
            "value": "Arlon"
        },
        "9": {
            "type": "cote",
            "value": "BELGIQUE, Arlon, Archives de l\u2019\u00c9tat, Fonds Clairefontaine, 145 (Cartulaire de Clairefontaine), f\u00b0 40r"
        },
        "11": {
            "type": "description",
            "value": "Copie dans cartulaire, XVI<sup>e<\/sup> s. (papier)"
        },
        "12": {
            "type": "langue",
            "value": "latin"
        },
        "13": {
            "type": "authenticite",
            "value": "non suspect\u00e9"
        },
        "14": {
            "type": "genre",
            "value": "Charte"
        },
        "15": {
            "type": "type_source",
            "value": "Cartulaire"
        },
        "16": {
            "type": "analyse",
            "value": "Henri (5), comte de Luxembourg, de la Roche et marquis d\u2019Arlon, et Marguerite, comtesse de Luxembourg et marquise d\u2019Arlon, font savoir qu'en raison de 5 pr\u00e9bendes de la valeur de 10 livres de Luxembourg qu\u2019ils doivent conf\u00e9rer au monast\u00e8re cistercien de Clairefontaine, pr\u00e8s d\u2019Arlon, ils assignent \u00e0 ladite abbaye 36 muids de froment pr\u00e8s de leur ville de Grevenmacher\u00a0; pour la terre de Sandweiler, une rente annuelle de 20 livres de Luxembourg, dont 13 \u00e0 payer sur les rentes et le tonlieu du march\u00e9 d\u2019Arlon, et les autre 7 sous forme d\u2019une rente annuelle de 34 muids de seigle provenant de la d\u00eeme de Hollerich."
        },
        "17": {
            "type": "transcription",
            "value": "<?xml version=\"1.0\" encoding=\"UTF-8\"?>\n\/01\/ Henricus comens Luccenburgensis, Rupensis et marchio \/02\/ Arlonensis, ac Margareta, uxor ejus, universis presens scriptum inspecturis in perpetuum no- \/03\/-titia veritatis. Qum studiose agendum est ut quod ore promittitur opere compleatur, \/04\/ universitati vestre tenore presentium volumus esse notum quod nos, pro quinque prebendis ad va- \/05\/-lorem decem librarum Lucceburgensium estimatis, quas monialibus claustri de Clarofonte iuxta \/06\/ Erlons, Cysterciensis ordinis, ex promisso nostre spontanee voluntatis assignare tenemur, \/07\/ assignavimus einsdem apud Mackeren villam nostram triginta sex maldras \/08\/ frumenti ad valorem quatuor solidorum Luccemburgensium maldra qualibet estimata. \/09\/ Propterea, pro terra de Sancto Villari assignavimus nos monialibus supradictis viginti \/10\/ libras Luccemburgensis monete, ita videlicet quod ex illis viginti libris sepedicte moniales \/11\/ vel earum nuntius in theloneo et redditibus halle de Erlons provenientibus, de \/12\/ pecunia sive denariis promptioribus, tresdecim libras Luccemburgensis monete pacifice \/13\/ percipient annuatim\u00a0; et pro septem libris residuis in decima nostra de Hilderkenges \/14\/ einsdem monialibus triginta quatuor maldre siliginis annuatim persolventur. \/15\/ Tali tamen pacto supradictis apposito, quod, quandocumque se facultate offerente contigerit \/16\/ assignare nos alibi sepedictis monialibus claustri de Clarofonte certos reditus \/17\/ annuos decem librarum Luccemburgensium ex una parte, ac viginti librarum \/18\/ monete sepedicte ex altera, sibi ipsis monialibus memoratis competentes tem- \/19\/-poribusque post futuris possidendos, .XXXVI. maldre frumenti de Mackeren, tres- \/20\/-decim libre super theloneum et redditus halle de Erlons, necnon et septem libre \/21\/ Luccemburgensium supra decimam nostra de Hilderkenges, a nobis ut dictum est, prelibatis \/22\/ monialibus assignare, ex tunc ac deinceps ad nos et heredes nostros libere revertentur. \/23\/ Et ut ista, que a nobis provide gesta sunt, vim inviolabilis obtineant in posterum \/24\/ firmitatis, presentes litteras nostrorum appensione sigillorum fecimus roborari. Actum \/25\/ et datum Erluni, anno Domini millesimo ducentesimo .VII., mense augusto, \/26\/ in crastino octavarum assumptionis beate Marie virginis.\n"
        },
        "18": {
            "type": "remarques",
            "value": "-"
        },
        "19": {
            "type": "mention_hors_teneur",
            "value": "-"
        },
        "20": {
            "type": "note_dorsale",
            "value": "-"
        },
        "21": {
            "type": "edition",
            "value": "H. GOFFINET, <i>Cartulaire de l'abbaye de Clairefontaine (1163-1745)<\/i>, Arlon 1876, n\u00b0 22, p. 33"
        },
        "22": {
            "type": "edition",
            "value": "C. WAMPACH, <i>Urkunden- und Quellenbuch zur Geschichte der altluxemburgischen Territorien bis zur burgundischen Zeit<\/i>, t. III, Luxembourg 1939, n\u00b0 253, p. 272-273"
        },
        "23": {
            "type": "regeste",
            "value": "A. WAUTERS, <i>Table chronologique des chartes et dipl\u00f4mes concernant l'histoire de la Belgique<\/i>, t. VII, Bruxelles 1885-1889,\u00a0p. 896"
        },
        "24": {
            "type": "mention",
            "value": "-"
        },
        "25": {
            "type": "sources_manuscrites",
            "value": "BELGIQUE, Arlon, Archives de l\u2019\u00c9tat, Fonds Clairefontaine, 146, f\u00b0 135-137 (copie notari\u00e9e sur papier, XVIII<sup>e<\/sup> s.)",
            "children": {
                "type_source": "Copie"
            }
        },
        "26": {
            "type": "responsable",
            "value": "Timothy Salemme"
        },
        "27": {
            "type": "acte_scelle",
            "value": "non"
        },
        "28": {
            "type": "sceau",
            "value": "-",
            "children": {
                "sigilla": ""
            }
        },
        "29": {
            "type": "image_interne",
            "value": "http:\/\/telma-chartes.irht.cnrs.fr\/telma_img\/transscript\/transscript-DSC08498.JPG"
        }
    }
}