{
    "id": 144217,
    "name": "transscript-970",
    "type": "acte",
    "url": "http:\/\/telma-chartes.irht.cnrs.fr\/transscript\/notice\/144217",
    "project_slug": "transscript",
    "project_label": "TRANSSCRIPT",
    "user": "D_Kirt",
    "last_update": "2020-10-19 16:38:56",
    "licence": "Attribution - Pas d\u2019Utilisation Commerciale - Partage dans les M\u00eames Conditions 3.0 France (CC BY-NC-SA 3.0 FR) ",
    "licence_url": "https:\/\/creativecommons.org\/licenses\/by-nc-sa\/3.0\/fr\/",
    "elements": {
        "0": {
            "type": "auteur",
            "value": "Henri (5), comte de Luxembourg et de Laroche, marquis d'Arlon"
        },
        "1": {
            "type": "beneficiaire",
            "value": "Abbaye d'Himmerode"
        },
        "2": {
            "type": "destinataire",
            "value": "-"
        },
        "3": {
            "type": "disposant",
            "value": "Henri (5), comte de Luxembourg et de Laroche, marquis d'Arlon"
        },
        "4": {
            "type": "disposant",
            "value": "Le comte Henri l'Aveugle, grand-p\u00e8re d'Henri (5)"
        },
        "5": {
            "type": "disposant",
            "value": "La comtesse Ermesinde de Luxembourg, m\u00e8re d'Henri (5)"
        },
        "6": {
            "type": "disposant",
            "value": "Hesso de R\u00fcttgen"
        },
        "7": {
            "type": "disposant",
            "value": "Theodorich"
        },
        "8": {
            "type": "date",
            "value": "1262\/06\/00",
            "children": {
                "date_deb_annee": "1262",
                "date_deb_mois": "06",
                "date_deb_jour": "00"
            },
            "range": {
                "date_apres": 12620600,
                "date_avant": 12620699
            }
        },
        "11": {
            "type": "langue",
            "value": "Latin"
        },
        "12": {
            "type": "authenticite",
            "value": "non suspect\u00e9"
        },
        "13": {
            "type": "genre",
            "value": "Charte"
        },
        "14": {
            "type": "type_source",
            "value": "Original"
        },
        "15": {
            "type": "analyse",
            "value": "Henri (5), comte de Luxembourg et de Laroche, marquis d'Arlon, confirme \u00e0 l'abbaye de Himmerode les donations de son grand-p\u00e8re, Henri l'Aveugle, de biens situ\u00e9s dans les alentours de la seigneurie de Wittlich ainsi qu'ailleurs dans le comt\u00e9. Il renouvelle avec le consentement de son \u00e9pouse, la comtesse Marguerite de Luxembourg, la confirmation \u00e0 ce sujet de sa m\u00e8re, la comtesse Ermesinde ainsi qu'en m\u00eame temps celle de Robin d'Esch"
        },
        "17": {
            "type": "responsable",
            "value": "David Kirt"
        },
        "19": {
            "type": "edition",
            "value": "C. WAMPACH, <i>Urkunden- und Quellenbuch zur Geschichte der altluxemburgischen Territorien bis zur burgundischen Zeit,<\/i> t. III, Luxembourg 1939, n\u00b0 388, p. 419-422."
        },
        "21": {
            "type": "regeste",
            "value": "F.-X. W\u00dcRTH-PAQUET, Table chronologique des chartes et dipl\u00f4mes relatifs \u00e0 l'histoire de l'ancien pays et duch\u00e9 de Luxembourg - R\u00e8gne de Henri II 1246-1281, in PSH 15 (1860), n\u00b0 223, p. 91."
        },
        "24": {
            "type": "regeste",
            "value": "A. G\u00d6ERZ, <i>Mittelrheinische Regesten oder chronologische Zusammenstellung des Quellenmaterials f\u00fcr die Geschichte der Territorien der beiden Regierungsbezirke Koblenz und Trier in kurzen Ausz\u00fcgen,<\/i> t. III, vom Jahre 1237 bis 1273, Coblence 1881, n\u00b0 1795, p. 401."
        }
    }
}