{
    "id": 26707,
    "name": "transscript-708",
    "type": "acte",
    "url": "http:\/\/telma-chartes.irht.cnrs.fr\/transscript\/notice\/26707",
    "project_slug": "transscript",
    "project_label": "TRANSSCRIPT",
    "user": "t_salemme",
    "last_update": "2020-10-19 16:28:04",
    "licence": "Attribution - Pas d\u2019Utilisation Commerciale - Partage dans les M\u00eames Conditions 3.0 France (CC BY-NC-SA 3.0 FR) ",
    "licence_url": "https:\/\/creativecommons.org\/licenses\/by-nc-sa\/3.0\/fr\/",
    "elements": {
        "0": {
            "type": "auteur",
            "value": "Ermesinde, comtesse de Luxembourg"
        },
        "1": {
            "type": "auteur",
            "value": "Henri (5), comte de Luxembourg et de Laroche, marquis d'Arlon"
        },
        "2": {
            "type": "beneficiaire",
            "value": " Abbaye cistercienne de Bonnevoie"
        },
        "3": {
            "type": "destinataire",
            "value": "-"
        },
        "4": {
            "type": "disposant",
            "value": "Hugues de Bous"
        },
        "5": {
            "type": "date",
            "value": " 1243\/03\/15",
            "children": {
                "date_deb_jour": "15",
                "date_deb_mois": "03",
                "date_deb_annee": "1243"
            },
            "range": {
                "date_apres": 12430315,
                "date_avant": 12430315
            }
        },
        "6": {
            "type": "date_libre",
            "value": "-"
        },
        "7": {
            "type": "date_lieu",
            "value": "Luxembourg"
        },
        "8": {
            "type": "cote",
            "value": "LUXEMBOURG, Luxembourg, Archives Nationales de Luxembourg, A-XXIV-01, n\u00b0 5, f\u00b0 14r "
        },
        "10": {
            "type": "description",
            "value": "Copie dans le cartulaire de Bonnevoie, XV<sup>e<\/sup> s. (1470 environ)"
        },
        "11": {
            "type": "langue",
            "value": "latin"
        },
        "12": {
            "type": "authenticite",
            "value": "non suspect\u00e9"
        },
        "13": {
            "type": "genre",
            "value": "Charte"
        },
        "14": {
            "type": "type_source",
            "value": "Cartulaire"
        },
        "15": {
            "type": "analyse",
            "value": "Ermesinde, comtesse de Luxembourg, et son fils Henri notifient que Hugues de Bous a vendu avec leur consentement \u00e0 l'abbaye de Bonnevoie pr\u00e8s de Luxembourg la moiti\u00e9 de la d\u00eeme de  Cattenom qu'il tenait en fief d'eux."
        },
        "16": {
            "type": "transcription",
            "value": "<?xml version=\"1.0\" encoding=\"UTF-8\"?>\n\/01\/ Nos Erm(esindis) comitissa Lucelburgensis, Henricus eius filius, \/02\/ omnibus presentes litteras inspecturis notum facimus quod Hugo \/03\/ de Bous medietatem grosse decime de Kettenheim quam a nobis \/04\/ tenet in feodo, dominabus sive sanctimonialibus de Bonavia prope Lucelburg \/05\/ laude et assensu nostro vendidit, quia nostrum est feodum. In cuius \/06\/ rei testimonium sanctis dominabus presentes litteras nostris sigillis \/07\/ contulimus roboratas. Datum Lucenburg, dominica qua \/08\/ cantatur Oculi, anno Domini millesimo .CCo. .XLo. secundo.\n"
        },
        "17": {
            "type": "remarques",
            "value": "-"
        },
        "18": {
            "type": "mention_hors_teneur",
            "value": "-"
        },
        "19": {
            "type": "note_dorsale",
            "value": "-"
        },
        "20": {
            "type": "edition",
            "value": "N. VAN WERVEKE, <i>Urkundenbuch der Abtei Bonneweg<\/i>, Luxembourg, 1880, n\u00b0 9, p. 7"
        },
        "21": {
            "type": "regeste",
            "value": "-"
        },
        "22": {
            "type": "mention",
            "value": "-"
        },
        "23": {
            "type": "sources_manuscrites",
            "value": "LUXEMBOURG, Luxembourg, Archives Nationales de Luxembourg, A-XXIV-02, n\u00b0 9 (Copie du XVIII<sup>e<\/sup> s. sur papier, collationn\u00e9e et souscrite par E. Wiltheim)",
            "children": {
                "type_source": "Copie"
            }
        },
        "24": {
            "type": "responsable",
            "value": "Timothy Salemme"
        },
        "25": {
            "type": "acte_scelle",
            "value": "non"
        },
        "26": {
            "type": "sceau",
            "value": "D'apr\u00e8s la copie du XVIII<sup>e<\/sup> s. sur papier collationn\u00e9e et souscrite par E. Wiltheim (LUXEMBOURG, Luxembourg, Archives Nationales de Luxembourg, A-XXIV-02, n\u00b0 9), l'original \u00e9tait scell\u00e9 de deux sceaux pendants sur double queue de parchemin"
        },
        "27": {
            "type": "image_interne",
            "value": "http:\/\/telma-chartes.irht.cnrs.fr\/telma_img\/transscript\/transscript-115_6574.JPG"
        },
        "28": {
            "type": "sources_manuscrites",
            "value": "FRANCE, Saint-Julien-l\u00e8s-Metz, Archives d\u00e9partementales de la Moselle, H 4547 n\u00b0 1 (traduction en fran\u00e7ais, XVIII<sup>e<\/sup> s.)",
            "children": {
                "type_source": "n.c.",
                "source_type": "non"
            }
        }
    }
}