{
    "id": 144290,
    "name": "transscript-984",
    "type": "acte",
    "url": "http:\/\/telma-chartes.irht.cnrs.fr\/transscript\/notice\/144290",
    "project_slug": "transscript",
    "project_label": "TRANSSCRIPT",
    "user": "m_bouyer",
    "last_update": "2020-10-19 16:38:57",
    "licence": "Attribution - Pas d\u2019Utilisation Commerciale - Partage dans les M\u00eames Conditions 3.0 France (CC BY-NC-SA 3.0 FR) ",
    "licence_url": "https:\/\/creativecommons.org\/licenses\/by-nc-sa\/3.0\/fr\/",
    "elements": [
        {
            "type": "auteur",
            "value": "Ferry (3), duc de Lorraine et marquis"
        },
        {
            "type": "beneficiaire",
            "value": "abbaye de Moyenmoutier"
        },
        {
            "type": "disposant",
            "value": "Rainier, seigneur de Haussonville, chevalier"
        },
        {
            "type": "date",
            "value": "1285\/05\/00",
            "children": {
                "date_deb_annee": "1285",
                "date_deb_mois": "05",
                "date_deb_jour": "00"
            },
            "range": {
                "date_apres": 12850500,
                "date_avant": 12850599
            }
        },
        {
            "type": "cote",
            "value": "FRANCE, Nancy, Biblioth\u00e8que municipale, ms. 1178 A 1299, n\u00b0 12"
        },
        {
            "type": "description",
            "value": "Original sur parchemin, jadis scell\u00e9 sur double queue"
        },
        {
            "type": "langue",
            "value": "fran\u00e7ais"
        },
        {
            "type": "authenticite",
            "value": "non suspect\u00e9"
        },
        {
            "type": "genre",
            "value": "Lettre"
        },
        {
            "type": "type_source",
            "value": "Original"
        },
        {
            "type": "analyse",
            "value": "Ferry (3) fait savoir que Renier, chevalier, seigneur de Haussonville, d\u00e9clare donner \u00e0 l\u2019abbaye de Moyenmoutier 21 sous toulois par an sur la rente ou la taille de Haussonville, en raison des 20 livres que son p\u00e8re Wautier avait donn\u00e9 en aum\u00f4ne \u00e0 ladite abbaye."
        },
        {
            "type": "transcription",
            "value": "<?xml version=\"1.0\" encoding=\"UTF-8\"?>\n\/01\/ Je Ferris, dus de Lorregne marchis, fais savoir a tous que sires Reniers, chevaliers, sires de \/02\/ Hassonville, estaublis por ceu en ma presence, ait reconeu que il, por vint livres de toulois qu\u2019il devoit \/03\/ a l\u2019abbei et a covent de Moienmostier dou tans trespassei por l\u2019amosne seignor Watier, son peire, seignor \/04\/ de Hassonville qui fut, et por lo remeide de s\u2019arme et de ses ancessors, donne et otroie a tous jors \/05\/ mais perpetuelmant a l\u2019egleise de Moienmostier vint et un souls de tolois corsaibles a panre \/06\/ chescun an en la rente de Hassonville ou en la taille, se on i faisoit taille, en leu de la rente par \/07\/ mon los et par mon crant de cui fi\u00e9 ceu muet et par lou los et par lo crant seignor Watier son fil, \/08\/ seignor de Tornoy [\u2026] et a paier chescun an a messaige l\u2019abbei et lo covent davant dis a Hasson- \/09\/ -ville lo demein de Pasq[ues]. Et de ceu faire et a tenir doit estre li maires de Hassonville en la faut\u00e9 \/10\/ l\u2019abbei de Moienmostier davant dit. Et s\u2019il avenoit que li vint et un souls devant dit ne fuissent pai\u00e9 \/11\/ dedans les octaves de Pasques chescun an, il seroient doble lodemein des octaves par lo los et par \/12\/ lo crant seignor Renier et seignor Watier davant dis. Et en tesmoignaige de veritei ai je donn\u00e9 ces lettres \/13\/ saielees de mon saiel a l\u2019abbei et a covent davant dis par la proiere et par la requeste seignor Renier et seignor Wautier \/14\/ davant dis, sauves toutes autres lettres que li abb\u00e9s et li covens davant dit ont des dis seignors Re- \/15\/ -nier et Wautier. Ce fut fait et donn\u00e9 l\u2019an Notre Seignor mil dous cens quatre vins et cinc on \/16\/ mois de mai.\n"
        },
        {
            "type": "note_dorsale",
            "value": "\u00ab 1285 \", XVI<sup>e<\/sup>-XVII<sup>e<\/sup> s. ; \" Lectre de lai donation de \/ XXI sols tollois de cealz de Hassonville \", XIV<sup>e<\/sup> s. ; \" [\u2026] de Moyenmoustier \", XVI<sup>e<\/sup>-XVII<sup>e<\/sup> s. ; \" Moyeinmoutier \/ 1285 \", XVII<sup>e<\/sup>-XVIII<sup>e<\/sup> s."
        },
        {
            "type": "edition",
            "value": "C. PFISTER, \u00ab Chartes ant\u00e9rieures au XIV<sup>e<\/sup> si\u00e8cle conserv\u00e9es \u00e0 la Biblioth\u00e8que publique de Nancy (suite) \u00bb, in <i>Journal de la Soci\u00e9t\u00e9 d\u2019arch\u00e9ologie lorraine et du Mus\u00e9e historique lorrain<\/i>, n\u00b0 4, 1899, n\u00b0 18, p. 81"
        },
        {
            "type": "regeste",
            "value": "J. DE PANGE, \u00ab Catalogue des actes de Ferri III, duc de Lorraine. Deuxi\u00e8me partie (1269-1285) \u00bb, in <i>Annuaire de la Soci\u00e9t\u00e9 d\u2019histoire et d\u2019arch\u00e9ologie lorraine (XXXIV)<\/i>, Metz, 1926, n\u00b0 769, p. 561. En ligne sur GALLICA : <a target=\"_blank\" href=\"http:\/\/visualiseur.bnf.fr\/CadresFenetre?O=NUMM-200443&I=481&M=tdm\"> http:\/\/visualiseur.bnf.fr\/CadresFenetre?O=NUMM-200443&I=481&M=tdm<\/a>."
        },
        {
            "type": "responsable",
            "value": "Denis Remy ; Mathias Bouyer"
        },
        {
            "type": "image_interne",
            "value": "http:\/\/telma-chartes.irht.cnrs.fr\/telma_img\/transscript\/transscript-Nancy_BM_1178A1299_n\u00b0_12r.JPG"
        },
        {
            "type": "acte_scelle",
            "value": "non"
        },
        {
            "type": "image_interne",
            "value": "http:\/\/telma-chartes.irht.cnrs.fr\/telma_img\/transscript\/transscript-Nancy_BM_1178A1299_n\u00b0_12v.JPG"
        }
    ]
}