{
    "id": 19784,
    "name": "transscript-393",
    "type": "acte",
    "url": "http:\/\/telma-chartes.irht.cnrs.fr\/transscript\/notice\/19784",
    "project_slug": "transscript",
    "project_label": "TRANSSCRIPT",
    "user": "t_salemme",
    "last_update": "2020-10-19 16:26:42",
    "licence": "Attribution - Pas d\u2019Utilisation Commerciale - Partage dans les M\u00eames Conditions 3.0 France (CC BY-NC-SA 3.0 FR) ",
    "licence_url": "https:\/\/creativecommons.org\/licenses\/by-nc-sa\/3.0\/fr\/",
    "elements": {
        "0": {
            "type": "auteur",
            "value": "Henri (5), comte de Luxembourg et de la Roche, marquis d'Arlon"
        },
        "1": {
            "type": "auteur",
            "value": "Marguerite (de Bar), femme de Henri (5), comtesse de Luxembourg et marquise d'Arlon"
        },
        "2": {
            "type": "beneficiaire",
            "value": "Clairefontaine, abbaye"
        },
        "3": {
            "type": "destinataire",
            "value": "-"
        },
        "4": {
            "type": "disposant",
            "value": "Henri (5), comte de Luxembourg et de la Roche, marquis d'Arlon"
        },
        "5": {
            "type": "disposant",
            "value": "Marguerite (de Bar), femme de Henri (5), comtesse de Luxembourg et marquise d'Arlon"
        },
        "6": {
            "type": "date",
            "value": " 1270\/01\/00",
            "children": {
                "date_deb_jour": "00",
                "date_deb_mois": "01",
                "date_deb_annee": "1270"
            },
            "range": {
                "date_apres": 12700100,
                "date_avant": 12700199
            }
        },
        "7": {
            "type": "date_libre",
            "value": "-"
        },
        "8": {
            "type": "date_lieu",
            "value": "-"
        },
        "9": {
            "type": "cote",
            "value": "BELGIQUE, Arlon, Archives de l\u2019\u00c9tat, Fonds Clairefontaine, n\u00b0 20"
        },
        "11": {
            "type": "description",
            "value": "Original (mm. 330\/333 x 300\/310 ; repli mm. 55\/60) scell\u00e9 de deux sceaux pendants sur lacs de soie verts"
        },
        "12": {
            "type": "langue",
            "value": "fran\u00e7ais"
        },
        "13": {
            "type": "authenticite",
            "value": "non suspect\u00e9"
        },
        "14": {
            "type": "genre",
            "value": "Charte"
        },
        "15": {
            "type": "type_source",
            "value": "Original"
        },
        "16": {
            "type": "transcription",
            "value": "<?xml version=\"1.0\" encoding=\"UTF-8\"?>\n\/01\/ Nos Henris cuens de Luscemburc et de la Roche et marchis de Erlons, et nos Margarete sa femme, contesse \/02\/ de Luscemburc et marchise de Erlons, faisons savoir a toz ceaus ki sunt et ki seront ke nos, por le salut de nos armes et de nos \/03\/ ancessors, especiaument por l'arme la contesse Ermensent, mere a moi Henri desor dit, ki funda et commenca la maison \/04\/ de Clerefontainne deleiz Arlons, avons nos doneit et otroiet a tozjurs al abbasse et a covent de la maison de Clerefon- \/05\/-tainne devant dite lor usage en pasturages de tote nostre terre et de tote nostre signorie por tote maniere de bestes ki \/06\/ sunt et seront al abbie, et a granges ki sunt ja faites et ke l'abbesse et li covens desor diz feront. En apres, nos lor avons \/07\/ doneit et otroiet a tozjurs et encor donons et otroions lor alee et lor venue et le conduit par tote nostre terre et par tot nostre \/08\/ pooir pour eles, por lor convers, por lor mainie et por lor chars et charettes et por lor bestes, en maniere ke, se lor bestes faiso- \/09\/-ent damage en bleif ne en preit d'atrui, l'abbesse et li covens desor nomeit seroent tenut de vendre le damage sens mavaise \/10\/ okison et sens nule amende paier. En apres, nos lor avons doneit et otroiet a tenir a tozjurs et encor donons et otroions \/11\/ qu'ilh puissent vendre et acateir sens nul servage, sens nul toniu a paier, et aleir et venir par tot nostre pooir, eles et lor \/12\/ avoir, sens nul wienage ne autre droiture a paier, comment ke li droiture ait a nom. Et est a savoir ke le terre \/13\/ et les bois ke nos lor avons doneit entor lor abie, lor avons nos doneit et donons a tozjurs a tenir quittement et \/14\/ franchement, en toz prous, et trefons et en sorpoilh, sens nule droiture a retenir, fors la warde; et lor avons doneit \/15\/ pooir d'aquesteir en fies ki muevent de nos, soit en dimes soit en autre chose, ens es chasteleries de Luscemburc, \/16\/ de Thionville, de Erlons et de Bolongne, for les fies qui doient le warde a nous chasteaus. Et lor avons doneit \/17\/ a tozjurs et otroiet k'ekes aient et tengnent paisiblement, quecumques aumones nostre home de ces quatre chasteleries \/18\/ devant dites lor feront. Et s'ilh avenoit chose ke l'abesse et li covens desor dit ne usoent de ces choses ki desor sunt devi- \/19\/-sees, ne d'autre chose ke nos lor avons doneit, nos volons et lor otroions ke, por ce n'i aient eles mies moins de droit \/20\/ ainsi revenroent sens plait et sens costange, ne nos ne nostre oir ne les en poriens quereleir. En apres, nos lor avons \/21\/ loieit et confermeit si com segnor do fies, teil aqueist qu'eles ont fiat a Thiellemant ki fut fiz Henri d'Auteiz \/22\/ et a ses freres, si com do tiers de bois la ou ilh parroit a elles. Et por ce ke ceste chose soit ferme et estable et la maison \/23\/ de Clerefontainne en soit en pais a tosjurs, avons nos ces presentes lettres seelees de nos sees et tesmongnage de veritei \/24\/ et de garandie; ki furent faites en l'an nostre Segnor mil et dous cens et sexante nuef, en mois de genvier.\n"
        },
        "17": {
            "type": "remarques",
            "value": "-"
        },
        "18": {
            "type": "mention_hors_teneur",
            "value": "-"
        },
        "19": {
            "type": "note_dorsale",
            "value": "\u00ab\u00a01269\u00a0\u00bb, XVI<sup>e<\/sup> \u00ab\u00a0Le  prince Henry, notre  fondateur, comte de Luxembourg, et Marguerite la comtesse, sa femme, donnent pour toujours \u00e0 Clairefontaine et \u00e0 nos fermes droit de paturage en tous les domaines et terre du souveraine, le passage franc de toutes nos b\u00eates et voitures, d'acheter, de vendre entr\u00e9e et sortie par tout le pa\u00efs sans pa\u00efer le tonlieu ni autres imp\u00f4ts, avec pouvoir d'acquerir des fiefs, sans devoir sentire de prejudice du non usage de tout ceci, et de pa\u00efer les d\u00f4mage faits mais jamais d'amende\u00a0\u00bb, XVIII<sup>e<\/sup> s."
        },
        "20": {
            "type": "edition",
            "value": "H. GOFFINET, <i>Cartulaire de l'abbaye de Clairefontaine (1163-1745)<\/i>, Arlon 1876, n\u00b0 43, p. 48"
        },
        "21": {
            "type": "regeste",
            "value": "A. WAUTERS, <i>Table chronologique des chartes et dipl\u00f4mes concernant l'histoire de la Belgique<\/i>, t. VII, Bruxelles 1885-1889, p. 995"
        },
        "22": {
            "type": "regeste",
            "value": "C. WAMPACH, <i>Urkunden- und Quellenbuch zur Geschichte der altluxemburgischen Territorien bis zur burgundischen Zeit<\/i>, t. IV, Luxembourg 1940, n\u00b0 155, p. 217-219"
        },
        "23": {
            "type": "mention",
            "value": "-"
        },
        "24": {
            "type": "sources_manuscrites",
            "value": "BELGIQUE, Arlon, Archives de l\u2019\u00c9tat, Fonds Clairefontaine, 145 (Cartulaire de Clairefontaine), f\u00b0 19r-19v (XVI<sup>e<\/sup> s.)",
            "children": {
                "type_source": "Cartulaire"
            }
        },
        "25": {
            "type": "responsable",
            "value": "Timothy Salemme"
        },
        "26": {
            "type": "acte_scelle",
            "value": "oui"
        },
        "27": {
            "type": "sceau",
            "value": "Sceau pendant  sur lacs de soie verte (fragments)"
        },
        "28": {
            "type": "sceau",
            "value": "Sceau pendant  sur lacs de soie verte (fragments)"
        },
        "29": {
            "type": "image_interne",
            "value": "http:\/\/telma-chartes.irht.cnrs.fr\/telma_img\/transscript\/transscript-DSC07930.JPG",
            "children": {
                "commentaire": "Recto"
            }
        },
        "30": {
            "type": "image_interne",
            "value": "http:\/\/telma-chartes.irht.cnrs.fr\/telma_img\/transscript\/transscript-DSC07944.JPG",
            "children": {
                "commentaire": "Verso"
            }
        },
        "31": {
            "type": "analyse",
            "value": "Henri (5), comte de Luxembourg et de la Roche et marquis d'Arlon, et sa femme Marguerite (de Bar), comtesse de Luxembourg et marquise d'Arlon, font savoir qu'ils ont transf\u00e9r\u00e9 au monast\u00e8re de Clairefontaine pr\u00e8s d'Arlon, pour leurs \u00e2mes et celle d'Ermesinde, m\u00e8re dudit Henri (5), fondatrice de ladite abbaye, plusieurs droits, parmi lesquels celui de p\u00e2turage sur les terres comtales ; le droit d'aller, venir et conduire les animaux et les chariots dudit monast\u00e8re ; l'exemption pour le monast\u00e8re des droit de servage et du tonlieu ; la libre possession des terres et bois que les comtes avaient donn\u00e9s \u00e0 Clairefontaine ; le droit pour l'abbaye d'acqu\u00e9rir des fiefs mouvant des comtes dans les ch\u00e2tellenies de Luxembourg, Thionville, Arlon et Habay-la-Neuve."
        }
    }
}