{
    "id": 143364,
    "name": "transscript-928",
    "type": "acte",
    "url": "http:\/\/telma-chartes.irht.cnrs.fr\/transscript\/notice\/143364",
    "project_slug": "transscript",
    "project_label": "TRANSSCRIPT",
    "user": "t_salemme",
    "last_update": "2020-10-19 16:38:47",
    "licence": "Attribution - Pas d\u2019Utilisation Commerciale - Partage dans les M\u00eames Conditions 3.0 France (CC BY-NC-SA 3.0 FR) ",
    "licence_url": "https:\/\/creativecommons.org\/licenses\/by-nc-sa\/3.0\/fr\/",
    "elements": {
        "0": {
            "type": "auteur",
            "value": "Henri (5), comte de Luxembourg et de la Roche, marquis d'Arlon"
        },
        "1": {
            "type": "auteur",
            "value": "Marguerite (de Bar), comtesse de Luxembourg et de la Roche, marquis d'Arlon"
        },
        "2": {
            "type": "beneficiaire",
            "value": "Thi\u00e9baut (5), roi de Navarre et comte de Champagne"
        },
        "3": {
            "type": "beneficiaire",
            "value": "Henri (5), comte de Luxembourg et de la Roche, marquis d'Arlon"
        },
        "4": {
            "type": "destinataire",
            "value": "-"
        },
        "5": {
            "type": "disposant",
            "value": "Thi\u00e9baut (5), roi de Navarre et comte de Champagne"
        },
        "6": {
            "type": "disposant",
            "value": "Henri (5), comte de Luxembourg et de la Roche, marquis d'Arlon"
        },
        "7": {
            "type": "disposant",
            "value": "Marguerite (de Bar), comtesse de Luxembourg et de la Roche, marquis d'Arlon"
        },
        "8": {
            "type": "disposant",
            "value": "Henri (6), fils ain\u00e9 du comte de Luxembourg Henri (5) et de Marguerite (de Bar)"
        },
        "9": {
            "type": "date",
            "value": " 1270\/01\/11",
            "children": {
                "date_deb_jour": "11",
                "date_deb_mois": "01",
                "date_deb_annee": "1270"
            },
            "range": {
                "date_apres": 12700111,
                "date_avant": 12700111
            }
        },
        "10": {
            "type": "date_libre",
            "value": "-"
        },
        "11": {
            "type": "date_lieu",
            "value": "-"
        },
        "12": {
            "type": "cote",
            "value": "FRANCE, Paris, Biblioth\u00e8que nationale de France, Provinces Fran\u00e7aises, Collection de des 500 de Colbert, vol. 57, f\u00b0 91-92"
        },
        "15": {
            "type": "description",
            "value": "Copie dans cartulaire du XVII<sup>e<\/sup> s."
        },
        "16": {
            "type": "langue",
            "value": "fran\u00e7ais"
        },
        "17": {
            "type": "authenticite",
            "value": "non suspect\u00e9"
        },
        "18": {
            "type": "genre",
            "value": "Lettre"
        },
        "19": {
            "type": "type_source",
            "value": "Cartulaire"
        },
        "20": {
            "type": "analyse",
            "value": "Henri (5), comte de Luxembourg, de la Roche et marquis d\u2019Arlon, et sa femme Marguerite (de Bar), font savoir que ledit Henri (5) est devenu homme lige de Thi\u00e9baut (5), roi de Navarre et comte de Champagne, en \u00e9change d\u2019une rente fonci\u00e8re de 200 livres de Provins, \u00e0 prendre annuellement sur le p\u00e9age du vin sur la route qui am\u00e8ne vers Troyes. Henri, fils ain\u00e9 desdits Henri (5) et Marguerite, pr\u00eate hommage audit Thi\u00e9baut (5) au sujet de la m\u00eame rente fonci\u00e8re."
        },
        "21": {
            "type": "transcription",
            "value": "<?xml version=\"1.0\" encoding=\"UTF-8\"?>\n \/01\/ Nous Henris, cuens de Lucemborg, de la Roche \/02\/ et marchis d\u2019Erlons, et nos Marguerite, sa feme, \/03\/ comtesse et dame de ces mesmes leus, faisons savoir a \/04\/ tous que tres haus hom nostre chiers sires Thiebax, \/05\/ par la grace de Dieu rois de Navarre, de Champa- \/06\/-gne et de Brie cuens palasins, nos a donn\u00e9 deux \/07\/ cens livr\u00e9es de terre a bons Provenisiens fors ou \/08\/ portage des vins com se maine a Troies, et est a \/09\/ savoir que de ces deux cenz livr\u00e9es de terre sommes \/10\/ nous sui home lige apres nos signors liges, c\u2019est a \/11\/ savoir le roi d\u2019Alemagne, l\u2019arcivesque de Trieves, \/12\/ l\u2019evesque de Liege, les contes de Flandres et de \/13\/ Hainaut et le duc de Lamborc, et seront nostre hoir, \/14\/ d\u2019oir en hoir, qui seront comte de Lucenborg, si home, \/15\/ a lui et a ses hoirs qui seront contes de Champagne, \/16\/ ensi comme dessus est dict. Et se il avenoit que \/17\/ lesdictes deux cens livr\u00e9es ne fussent pai\u00e9es chacun \/18\/ an audit iour, ou ou jors au plus tart, puisque \/19\/ changeur seroient levez, li messeyer de qui les venroie \/20\/ querre auroient de d\u2019ores en avant chacun jor \/21\/ cinq sols de for monsignor le roi devant dit  \/22\/ et de ses hoirs por lor despenz, jusqu\u2019a tant que \/23\/ les dictes deux cent livr\u00e9es soient pai\u00e9es. En tesmoi- \/24\/-getesmoigesic pour: tesmoignage de laquelle chose nos avons mis nos seiax a ces pre- \/25\/-sentes lettres. Et je Henris, aisn\u00e9 fis le conte et la \/26\/ contesse et la contesseet la contessesic, rep\u00e9t\u00e9 deux fois de Lucemborg devant diz, \/27\/ ai fait hommage come heritiers des devant dites \/28\/ deux cent livr\u00e9es de terre a monsignor le roi dessus- \/29\/-dict, sauf ce que messires mes peres et madame \/30\/ ma mere devant nommez doient tenir les deux \/31\/ cenz livres de terre toute lor vie. En tesmoigetesmoigesic pour: tesmoignage de \/32\/ laquel chose, je Henris, fis le conte et la comtesse \/33\/ devant nomm\u00e9e, por ce que je n\u2019ay encore de seel, \/34\/ use en ces presentes lettres des seaux de monsignor \/35\/ mon pere et madame ma mere devant dicts, et \/36\/ des seaux de la court l\u2019official de Treves et mon- \/37\/-signor Renault de Bar mon oncle. Et nous li \/38\/ cuens et la contesse de Lucemborc souvent nom- \/39\/-m\u00e9, et nous l\u2019officiaus et nos Renaus \/40\/ de Bar dessus dit, a la priere et a la requeste \/41\/ dou dict fil le conte avons mis nos siaux en ces \/42\/ presentes lettres en tesmoignage de verit\u00e9. \/43\/ Ce fu fait en l\u2019an de grace nostre Signor quant \/44\/ li miliaires corroit par .M. .CC.;M. .CC.sic opur: .M. .CC. .LIX., le samedy apres \/45\/ l\u2019Apparition.\n"
        },
        "22": {
            "type": "remarques",
            "value": "Volume incommunicable. Edition effectu\u00e9e sur base de microfilm.\r\nDate du document propos\u00e9e sur la base de l\u2019acte FRANCE, Paris, Biblioth\u00e8que nationale de France, Provinces Fran\u00e7aises, Collection de des 500 de Colbert, vol. 57, f\u00b0 95-97, contenant l\u2019hommage pr\u00eat\u00e9 pour les m\u00eames biens \u00e0 Thi\u00e9baut (5), roi de Navarre et comte de Champagne, par Wal\u00e9ran, fils cadet du comte de Luxembourg Henri (5) et de sa femme Marguerite (de Bar)."
        },
        "23": {
            "type": "mention_hors_teneur",
            "value": "-"
        },
        "24": {
            "type": "note_dorsale",
            "value": "-"
        },
        "25": {
            "type": "edition",
            "value": "L. CHANTEREAU LEFEBVRE, <i>Trait\u00e9 des Fiefs et de leur origine, avec les Preuves tir\u00e9e<\/i>, t. II, n. st. (1662), p 267"
        },
        "26": {
            "type": "edition",
            "value": "C. WAMPACH, <i>Urkunden- und Quellenbuch zur Geschichte der altluxemburgischen Territorien bis zur burgundischen Zeit<\/i>, t. IV, Luxembourg 1940, n\u00b0 151, p. 212-214"
        },
        "27": {
            "type": "regeste",
            "value": "M. H. D\u2019ARBOIS de JUBAINVILLE, <i>Histoire des ducs et des comtes de Champagne<\/i>, t. VI, <i> Fin du catalogue des actes des comtes de Champagne et tables<\/i>, Paris 1863, n\u00b0 3576, p. 52"
        },
        "28": {
            "type": "regeste",
            "value": "F.-X. W\u00dcRTH-PAQUET, \u00ab Table chronologique des chartes et dipl\u00f4mes relatifs \u00e0 l'histoire de l'ancien pays et duch\u00e9 de Luxembourg. R\u00e8gne de Henri II (1246-1281) \u00bb, <i>Publications de la Section historique<\/i>, XV (1860), n\u00b0 382, p. 120"
        },
        "29": {
            "type": "mention",
            "value": "N. BRUSSEL, <i>Nouvel examen de l'usage g\u00e9n\u00e9ral des fiefs en France [\u2026]<\/i>, Paris 1750, p. 365\n"
        },
        "30": {
            "type": "mention",
            "value": "M. GROSDIDIER DE MATONS, <i>Le comt\u00e9 de Bar des origines au trait\u00e9 de Bruges (vers 950-1301)<\/i>, Paris 1922, p. 378"
        },
        "31": {
            "type": "mention",
            "value": "W. KIENAST, <i>Die deutschen F\u00fcrsten im Dienste der Westm\u00e4chte bis zum Tode Philipps des Sch\u00f6nen von Frankreich<\/i>, t. II\/1, Utrecht 1931, p. 190"
        },
        "32": {
            "type": "sources_manuscrites",
            "value": "-",
            "children": {
                "type_source": "",
                "source_edition": ""
            }
        },
        "33": {
            "type": "responsable",
            "value": "Timothy Salemme"
        },
        "34": {
            "type": "acte_scelle",
            "value": "non"
        },
        "35": {
            "type": "sceau",
            "value": "Annonce du sceau du comte de Luxembourg Henri (5)",
            "children": {
                "sigilla": ""
            }
        },
        "36": {
            "type": "sceau",
            "value": "Annonce du sceau de la comtesse de Luxembourg Marguerite (de Bar)",
            "children": {
                "sigilla": ""
            }
        },
        "37": {
            "type": "sceau",
            "value": "Annonce du sceau de l\u2019officier de Tr\u00e8ves ",
            "children": {
                "sigilla": ""
            }
        },
        "38": {
            "type": "sceau",
            "value": "Annonce du sceau de Renaud de Bar",
            "children": {
                "sigilla": ""
            }
        },
        "39": {
            "type": "image_interne",
            "value": "http:\/\/telma-chartes.irht.cnrs.fr\/telma_img\/transscript\/transscript-_Registrum_Principum_Campaniae_\u00bb_[...]_btv1b10034092k_91.jpg"
        },
        "40": {
            "type": "image_interne",
            "value": "http:\/\/telma-chartes.irht.cnrs.fr\/telma_img\/transscript\/transscript-_Registrum_Principum_Campaniae_\u00bb_[...]_btv1b10034092k_92.jpg"
        }
    }
}