{
    "id": 262,
    "name": "transscript-158",
    "type": "acte",
    "url": "http:\/\/telma-chartes.irht.cnrs.fr\/transscript\/notice\/262",
    "project_slug": "transscript",
    "project_label": "TRANSSCRIPT",
    "user": "l_gili",
    "last_update": "2020-10-19 16:24:55",
    "licence": "Attribution - Pas d\u2019Utilisation Commerciale - Partage dans les M\u00eames Conditions 3.0 France (CC BY-NC-SA 3.0 FR) ",
    "licence_url": "https:\/\/creativecommons.org\/licenses\/by-nc-sa\/3.0\/fr\/",
    "elements": {
        "0": {
            "type": "analyse",
            "value": "Renaud de Bar, \u00e9v\u00eaque de Metz, fait savoir que le duc Thi\u00e9baut (2) et lui-m\u00eame acceptent l\u2019arbitrage de Jean, comte de Salm, et d\u2019Errard et Pierre de Bar, ses fr\u00e8res, pour r\u00e9gler le diff\u00e9rend entre lui et le duc Thi\u00e9baut (2) au sujet de la maison de Volmerange avant les octaves de P\u00e2ques prochaines."
        },
        "1": {
            "type": "auteur",
            "value": "Renauld de Bar, \u00e9v\u00eaque de Metz"
        },
        "2": {
            "type": "beneficiaire",
            "value": "Jean, comte de Salm"
        },
        "3": {
            "type": "beneficiaire",
            "value": "Errard de Bar"
        },
        "4": {
            "type": "disposant",
            "value": "Renauld de Bar, \u00e9v\u00eaque de Metz"
        },
        "5": {
            "type": "authenticite",
            "value": "non suspect\u00e9"
        },
        "6": {
            "type": "cote",
            "value": "FRANCE, Nancy, Archives d\u00e9partementales de Meurthe-et-Moselle, B 585 n\u00b0 168"
        },
        "7": {
            "type": "responsable",
            "value": "Laura Gili-Th\u00e9baudeau"
        },
        "8": {
            "type": "date",
            "value": " 1311\/02\/27",
            "children": {
                "date_deb_annee": "1311",
                "date_deb_mois": "02",
                "date_deb_jour": "27"
            },
            "range": {
                "date_apres": 13110227,
                "date_avant": 13110227
            }
        },
        "10": {
            "type": "regeste",
            "value": "A.-M. MARIONNET, <i>Catalogue des actes de Thi\u00e9baut II, duc de Lorraine (1303-1312) <\/i>, dipl\u00f4me d'\u00e9tudes sup\u00e9rieures de l'Universit\u00e9 Nancy II, Nancy, [1947], n\u00b0 192"
        },
        "11": {
            "type": "genre",
            "value": "Lettre"
        },
        "12": {
            "type": "langue",
            "value": "fran\u00e7ais"
        },
        "13": {
            "type": "note_dorsale",
            "value": "Une note archivistique du XX<sup>e<\/sup> si\u00e8cle, \u00ab\u00a0B 585 n\u00b0 168\u00a0\u00bb, cache une \u00e9criture m\u00e9di\u00e9vale (XIV<sup>e<\/sup> s.) : \u00ab [... ...] pour la maison de War-\/-meranges \u00bb ; \u00ab de Warmerenges \u00bb, XIV<sup>e<\/sup> s. : \u00ab con-\/-... entre l\u2019\u00e9v\u00eaque de Metz et \/ le comte de Bar \u00bb, entre \u00ab de \u00bb et \u00ab Bar \u00bb : \u00ab R(egistrata) \u00bb ; \u00ab [W]armerenges\u00a0\u00bb, \u00ab\u00a01310 \u00bb, XVI<sup>e<\/sup> s. ; \u00ab n\u00b0 168. Boullay\u00a0\u00bb,  XVII<sup>e<\/sup> s. "
        },
        "14": {
            "type": "transcription",
            "value": "<?xml version=\"1.0\" encoding=\"UTF-8\"?>\n\/01\/ Nous Renauls de Bar, par la grace de Deu evekes de Mez, faisons savoir a tous ke des descors et des \/02\/ bestens qui estoient et estre pooient entre nous, d\u2019une part, et noble prince notre amei cousin Thibaus, \/03\/ duc et marchis de Lorrenne, d\u2019autre part, pour raison de la maison de Winerenges, soit de fiez ou \/04\/ d\u2019arrier fiez, nous en avons fat mise sur honoraubles hommes et discreis nostre amei cousin \/05\/ Jehan, conte de Saulmes, et nos ameis freires monsignor Erart et Piere de Bar et avons \/06\/ promis et prometons bonnement et loialment ke ce qu\u2019il en vorront ordeneir et raporteir \/07\/ tuit troi ensamble par lor commun acort ke nous le tenrons sans aleir encontre. Et de ce \/08\/ doient avoir raportei Jehan, Erart et Piere de Bar jukes as octaves de Pakes premierement venant. En \/09\/ tesmongnage de veritei en avons nous donnei ces presentes letres saieleies de nostre saiel \/10\/ que furent faites l\u2019an mil trois cens et dix, le premier samedi de karemme.\n"
        },
        "15": {
            "type": "type_source",
            "value": "Original"
        },
        "16": {
            "type": "acte_scelle",
            "value": "oui"
        },
        "17": {
            "type": "id_telma",
            "value": "630329"
        },
        "18": {
            "type": "sceau",
            "value": "Sceau sur double queue de parchemin",
            "children": {
                "sigilla": "http:\/\/www.sigilla.org\/fr\/sgdb\/acte\/27000"
            }
        },
        "19": {
            "type": "disposant",
            "value": "Thi\u00e9baut (2) duc de Lorraine et marquis"
        },
        "20": {
            "type": "image_interne",
            "value": "http:\/\/telma-chartes.irht.cnrs.fr\/telma_img\/transscript\/transscript-FRAD054_B585_168r.JPG"
        },
        "21": {
            "type": "image_interne",
            "value": "http:\/\/telma-chartes.irht.cnrs.fr\/telma_img\/transscript\/transscript-FRAD054_B585_168v.JPG"
        },
        "22": {
            "type": "image_interne",
            "value": "http:\/\/telma-chartes.irht.cnrs.fr\/telma_img\/transscript\/transscript-FRAD054_B585_168s.JPG"
        },
        "23": {
            "type": "description",
            "value": "Original sur parchemin (120 x 205 mm), scell\u00e9 sur double queue de parchemin"
        },
        "24": {
            "type": "beneficiaire",
            "value": "Pierre de Bar"
        }
    }
}