{
    "id": 20003,
    "name": "transscript-441",
    "type": "acte",
    "url": "http:\/\/telma-chartes.irht.cnrs.fr\/transscript\/notice\/20003",
    "project_slug": "transscript",
    "project_label": "TRANSSCRIPT",
    "user": "l_gili",
    "last_update": "2020-10-19 16:26:43",
    "licence": "Attribution - Pas d\u2019Utilisation Commerciale - Partage dans les M\u00eames Conditions 3.0 France (CC BY-NC-SA 3.0 FR) ",
    "licence_url": "https:\/\/creativecommons.org\/licenses\/by-nc-sa\/3.0\/fr\/",
    "elements": {
        "0": {
            "type": "auteur",
            "value": "Henri Waffler d\u2019Echery"
        },
        "1": {
            "type": "beneficiaire",
            "value": "Ferry (4), duc de Lorraine et marquis"
        },
        "2": {
            "type": "disposant",
            "value": "Henri Waffler d\u2019Echery "
        },
        "3": {
            "type": "date",
            "value": "1316\/07\/00",
            "children": {
                "date_deb_mois": "07",
                "date_deb_annee": "1316",
                "date_deb_type": "",
                "date_deb_jour": "00"
            },
            "range": {
                "date_apres": 13160700,
                "date_avant": 13160799
            }
        },
        "4": {
            "type": "cote",
            "value": "FRANCE, Nancy, Archives d\u00e9partementales de Meurthe-et-Moselle, B 623 n\u00b0 17 "
        },
        "6": {
            "type": "langue",
            "value": "latin"
        },
        "7": {
            "type": "authenticite",
            "value": "non suspect\u00e9"
        },
        "8": {
            "type": "genre",
            "value": "Lettre"
        },
        "9": {
            "type": "type_source",
            "value": "Original"
        },
        "10": {
            "type": "analyse",
            "value": "Henri Waffler d\u2019Echery, d\u00e9clare avoir re\u00e7u \u00e0 titre gracieux, vu ses services, un fief de la part de Ferry (4), duc de Lorraine et marquis, dans le Val de Liepvre, fief qui appartenait d\u00e9j\u00e0 \u00e0 son beau-p\u00e8re. Si Henri ou ses filles n\u2019ont pas une prog\u00e9niture masculine, le fief rentrera en possession du duc Ferry (4) et de ses successeurs."
        },
        "11": {
            "type": "transcription",
            "value": "<?xml version=\"1.0\" encoding=\"UTF-8\"?>\n\/01\/ Universis presentes litteras inspecturis Henricus Wafflerius de Escherich miles \/02\/ salutem in Eo qui est omnium vera salus. Noverint universi quod cum illustris prin-\/03\/-ceps carissimus dominus meus Ferricus, dux Lothoringie et marchio, conside-\/04\/-ratis serviciis que sibi et predecessoribus suis impendi et possim impendere in fu-\/05\/-turum, michi gratiose contulerit ut feodum sicut in Valle Leporacensi, quod a \/06\/ nobili viro advocato de Vasclehem, socero meo, comparam, ego et uxor \/07\/ mea ac etiam filia seu filie mee pacifice possideamus in augmentationem ali-\/08\/-orum nostrorum feodorum quod feodum dictus advocatus a dicto domino duce tenebat \/09\/ et possidebat sub conditione tali quod, si me vel dictam filiam seu filias meas heredem \/10\/ masculum relinquere contingerit, dictus heres masculus dictum feodum in augmenta-\/11\/-tionem, ut premissum est, possideret non obstante quavis consuetudine vel statuto. \/12\/ Sciendum est etiam quod, si me vel filiam seu filias meas sine herede masculo mori contingerit, vel etiam heredem masculum a me seu filia vel filiabus meis relictum \/13\/ sine alio herede masculo mori contingerit, quod absit, dictum feodum ad dictum dominum ducem \/14\/ et heredes suos tamquam ad superiorem dominum revertetur, sub conditione que erat \/15\/ tempore gracie michi facte. In cujus rei testimonium sigillum meum presentibus est appen-\/16\/-sum. Datum anno Domini millesimo trecentesimo sexto decimo, mense julii.\n"
        },
        "12": {
            "type": "note_dorsale",
            "value": "\u00ab Waffler d\u2019Eschery, chevalier, \/ confesse qu'il a [.]leu au duc Ferry \/ considerans ses services et promets \/ qu'il, sa femme et leurs filles puisset \/ tenir le fied que le dou\u00e9 de \/ Wascelnsheim [...] tenir au Val \/ de Liepvre, a condition qu\u2019apr\u00e9s leur \/ deces, faulte d\u2019avoir masles, ledit \/ fied retournera audit seigneur duc et a \/ ses successeurs. \/\u00a0Val de Liepvre. M. CCC. XVI.\u00a0\u00bb, XVI<sup>e<\/sup> s. ; \u00ab\u00a0n\u00b0 17. Confirmations\u00a0\u00bb, XVII<sup>e<\/sup> s. "
        },
        "13": {
            "type": "regeste",
            "value": "J. BRIDOT, <i>Catalogue des actes de Ferry IV, Duc de Lorraine (1312-1329)<\/i>, Nancy,\u00a0Biblioth\u00e8que municipale de Nancy (copie dactylographi\u00e9e du dipl\u00f4me d\u2019\u00e9tudes sup\u00e9rieures soutenu devant la Facult\u00e9 des Lettres de Nancy), 1949, n\u00b0 171"
        },
        "14": {
            "type": "sources_manuscrites",
            "value": "FRANCE, Nancy, Archives d\u00e9partementales de Meurthe-et-Moselle, B 377 f\u00b0 182v (XVI<sup>e<\/sup> si\u00e8cle)",
            "children": {
                "type_source": "Cartulaire"
            }
        },
        "15": {
            "type": "sources_manuscrites",
            "value": "FRANCE, Nancy, Archives d\u00e9partementales de Meurthe-et-Moselle, B 379 f\u00b0 207 (copie du XVI<sup>e<\/sup> si\u00e8cle)",
            "children": {
                "type_source": "Cartulaire"
            }
        },
        "16": {
            "type": "sources_manuscrites",
            "value": "Du Fourny\u00a0: FRANCE, Biblioth\u00e8que municipale de Nancy, ms. 763 (anc. 177), t. X, 2\u00b0 partie, p. 88 (information tir\u00e9e du catalogue Bridot)"
        },
        "17": {
            "type": "responsable",
            "value": "Laura Gili-Th\u00e9baudeau"
        },
        "18": {
            "type": "image_interne",
            "value": "http:\/\/telma-chartes.irht.cnrs.fr\/telma_img\/transscript\/transscript-FRAD054_B623_17.JPG"
        },
        "19": {
            "type": "image_interne",
            "value": "http:\/\/telma-chartes.irht.cnrs.fr\/telma_img\/transscript\/transscript-FRAD054_B623_17r.JPG"
        },
        "20": {
            "type": "image_interne",
            "value": "http:\/\/telma-chartes.irht.cnrs.fr\/telma_img\/transscript\/transscript-FRAD054_B623_17s1.JPG"
        },
        "21": {
            "type": "image_interne",
            "value": "http:\/\/telma-chartes.irht.cnrs.fr\/telma_img\/transscript\/transscript-FRAD054_B623_17v.JPG"
        },
        "22": {
            "type": "acte_scelle",
            "value": "oui"
        },
        "23": {
            "type": "sceau",
            "value": "Un sceau sur double queue en cire brune, un peu d\u00e9t\u00e9rior\u00e9 (description tir\u00e9e du catalogue Bridot)",
            "children": {
                "sigilla": ""
            }
        },
        "24": {
            "type": "description",
            "value": "Original sur parchemin (78 x 190 mm), scell\u00e9 sur double queue de parchemin"
        }
    }
}