{
    "id": 27441,
    "name": "transscript-847",
    "type": "acte",
    "url": "http:\/\/telma-chartes.irht.cnrs.fr\/transscript\/notice\/27441",
    "project_slug": "transscript",
    "project_label": "TRANSSCRIPT",
    "user": "t_salemme",
    "last_update": "2020-10-19 16:28:14",
    "licence": "Attribution - Pas d\u2019Utilisation Commerciale - Partage dans les M\u00eames Conditions 3.0 France (CC BY-NC-SA 3.0 FR) ",
    "licence_url": "https:\/\/creativecommons.org\/licenses\/by-nc-sa\/3.0\/fr\/",
    "elements": {
        "0": {
            "type": "auteur",
            "value": "Henri (5), comte de Luxembourg et marquis d\u2019Arlon"
        },
        "1": {
            "type": "beneficiaire",
            "value": "Abbaye de Marienthal"
        },
        "2": {
            "type": "destinataire",
            "value": "-"
        },
        "3": {
            "type": "disposant",
            "value": "Albertin de Thionville"
        },
        "4": {
            "type": "disposant",
            "value": "Marguerite, femme de Albertin de Thionville"
        },
        "5": {
            "type": "disposant",
            "value": "Catherine, femme de Albertin de Thionville"
        },
        "6": {
            "type": "disposant",
            "value": "Jean seigneur de Berburg"
        },
        "7": {
            "type": "date",
            "value": " 1276\/06\/30",
            "children": {
                "date_deb_jour": "30",
                "date_deb_mois": "06",
                "date_deb_annee": "1276"
            },
            "range": {
                "date_apres": 12760630,
                "date_avant": 12760630
            }
        },
        "8": {
            "type": "date_libre",
            "value": "-"
        },
        "9": {
            "type": "date_lieu",
            "value": "-"
        },
        "10": {
            "type": "cote",
            "value": "LUXEMBOURG, Luxembourg, Archives nationales de Luxembourg, A-XXXIX-01 (1276, 30 juin)"
        },
        "12": {
            "type": "description",
            "value": "Original sur parchemin scell\u00e9 sur double queue de parchemin"
        },
        "13": {
            "type": "langue",
            "value": "latin"
        },
        "14": {
            "type": "authenticite",
            "value": "non suspect\u00e9"
        },
        "15": {
            "type": "genre",
            "value": "Charte"
        },
        "16": {
            "type": "type_source",
            "value": "Original"
        },
        "17": {
            "type": "analyse",
            "value": "Henri (5), comte de Luxembourg et marquis d\u2019Arlon, fait savoir que Albertin de Thionville, chevalier, du consentement de sa femme Marguerite et da sa fille Catherine, a assign\u00e9 au monast\u00e8re de Marienthal une rente annuelle de 6 seaux de vin et 4 muids de froment \u00e0 la mesure de Tr\u00e8ves, \u00e0 prendre sur les possessions et rentes qu\u2019il tient en fief de Jean, seigneur de Berburg, \u00e0 Temmels, en \u00e9change de certains biens qu\u2019il avait assign\u00e9 en aum\u00f4ne audit \u00e9tablissement \u00e0 Michelau. En pr\u00e9sence du comte, Albertin, Marguerite, Catherine et Jean consentent publiquement \u00e0 l\u2019\u00e9change."
        },
        "18": {
            "type": "transcription",
            "value": "<?xml version=\"1.0\" encoding=\"UTF-8\"?>\n\/01\/ Henricus, comes Lucenburgensis et marchio Arlunensis, omnibus presens scriptum inspecturis \/02\/ notum facimus quod, cum Albertinus miles de Theonisvilla, fidelis noster, monasterio Vallis Sancte \/03\/ Marie olim in elemosinam tradidisset certas possessiones et redditus in villa de Michehouwen, processu temporis, de con- \/04\/-sensu Margarete uxoris sue et Katherine eorum filie, pro possessionibus et redditibus huiusmodi commutavit \/05\/ eidem monasterio sex amas vini et quatuor maldra tritici mensure Treverensis jure proprietatis singulis \/06\/ annis tempore vindemiarum perpetuo percipienda in possessionibus et redditibus que ipse in villa de Temmelce jure feodi \/07\/ tenet a Johanne, domino sive herede de Berreper, fideli nostro ; que quidem vinum et annonam dictum monasterium percipere debet \/08\/ antequam dictus Albertinus vel aliquis nomine suo in dictis possessionibus et redditibus aliquid percipiat aut deducat. \/09\/ Hunc autem commutationis contractum dictus Albertinus, uxor vero et filia eius ac Johannes predicti consensum coram nobis \/10\/ publice recognoverunt. In cuius rei testimonium presentibus sigillum nostrum duximus apponendum. Actum \/11\/ anno Domini .Mo. .CCo. .LXXo. sexto, feria tercia post festum Johannis Baptiste.\n"
        },
        "19": {
            "type": "remarques",
            "value": "-"
        },
        "20": {
            "type": "mention_hors_teneur",
            "value": "-"
        },
        "21": {
            "type": "note_dorsale",
            "value": "\u00ab De domino Alberto de Themelcen \u00bb, XIV<sup>e<\/sup> s. ; \u00ab De Themelcen \u00bb, XIV<sup>e<\/sup> s. ; \u00ab a b e \u00bb, XIV <sup>e<\/sup> s. ; \u00ab Nihil \u00bb, XVII <sup>e<\/sup> s. ; \u00ab 1276 \u00bb, XVIII <sup>e<\/sup> s. ; \u00ab Marienthal 30 juin 1276 \u00bb, XIX<sup>e<\/sup> s. "
        },
        "22": {
            "type": "edition",
            "value": "N. VAN WERVEKE, <i>Cartulaire du prieur\u00e9 de Marienthal<\/i>, t. I, <i>1231-1317<\/i>, Luxembourg 1885, n\u00b0 143, p. 117-118 "
        },
        "23": {
            "type": "edition",
            "value": "C. WAMPACH, <i>Urkunden- und Quellenbuch zur Geschichte der altluxemburgischen Territorien bis zur burgundischen Zeit<\/i>, t. IV, Luxembourg 1940, n\u00b0 383, p. 481-482"
        },
        "24": {
            "type": "regeste",
            "value": "F.-X. W\u00dcRTH-PAQUET \u00ab Table chronologique des chartes et dipl\u00f4mes relatifs \u00e0 l'histoire de l'ancien pays et duch\u00e9 de Luxembourg. R\u00e8gne de Henri II (1246-1281) \u00bb, <i>Publications de la Section historique<\/i>, XV (1860), n\u00b0 551, p. 152 "
        },
        "25": {
            "type": "regeste",
            "value": "A. G\u00d6ERZ, <i>Mittelrheinische Regesten oder chronologische Zusammenstellung des Quellenmaterials f\u00fcr die Geschichte der Territorien der beiden Regierungsbezirke Koblenz und Trier in kurzen Ausz\u00fcgen<\/i>, t. IV, <i>vom Jahre 1274 bis 1300<\/i>, Coblence 1881, n\u00b0 320, p. 74"
        },
        "26": {
            "type": "regeste",
            "value": "A. WAUTERS, <i>Table chronologique des chartes et dipl\u00f4mes concernant l'histoire de la Belgique<\/i>, t. VII\/2, Bruxelles 1885-1889, p. 1040"
        },
        "27": {
            "type": "mention",
            "value": "-"
        },
        "28": {
            "type": "sources_manuscrites",
            "value": "-",
            "children": {
                "type_source": "",
                "source_edition": ""
            }
        },
        "29": {
            "type": "responsable",
            "value": "Timothy Salemme"
        },
        "30": {
            "type": "acte_scelle",
            "value": "oui"
        },
        "31": {
            "type": "sceau",
            "value": "Sceau \u00e9questre \u00e0 l\u2019\u00e9p\u00e9e d\u2019Henri (5), partiellement endommag\u00e9 ; heaume cylindrique \u00e0 timbre plat, cim\u00e9 d\u2019une aigrette en \u00e9ventail, bouclier et housse du cheval armori\u00e9s (burel\u00e9 au lion couronn\u00e9 \u00e0 la queue simple). L\u00e9gende presque enti\u00e8rement perdue. Contre-sceau \u00e0 l\u2019\u00e9cu burel\u00e9 au lion couronn\u00e9 \u00e0 la queue simple. L\u00e9gende : + SIGILLVM SECRETI ",
            "children": {
                "sigilla": ""
            }
        },
        "32": {
            "type": "image_interne",
            "value": "http:\/\/telma-chartes.irht.cnrs.fr\/telma_img\/transscript\/transscript-thumb_115_4959_1024.jpg"
        },
        "33": {
            "type": "image_interne",
            "value": "http:\/\/telma-chartes.irht.cnrs.fr\/telma_img\/transscript\/transscript-thumb_115_4964_1024.jpg"
        },
        "34": {
            "type": "image_interne",
            "value": "http:\/\/telma-chartes.irht.cnrs.fr\/telma_img\/transscript\/transscript-thumb_115_4963_1024.jpg"
        },
        "35": {
            "type": "image_interne",
            "value": "http:\/\/telma-chartes.irht.cnrs.fr\/telma_img\/transscript\/transscript-thumb_115_4966_1024.jpg"
        }
    }
}