{
    "id": 21240,
    "name": "transscript-457",
    "type": "acte",
    "url": "http:\/\/telma-chartes.irht.cnrs.fr\/transscript\/notice\/21240",
    "project_slug": "transscript",
    "project_label": "TRANSSCRIPT",
    "user": "l_gili",
    "last_update": "2020-10-19 16:27:01",
    "licence": "Attribution - Pas d\u2019Utilisation Commerciale - Partage dans les M\u00eames Conditions 3.0 France (CC BY-NC-SA 3.0 FR) ",
    "licence_url": "https:\/\/creativecommons.org\/licenses\/by-nc-sa\/3.0\/fr\/",
    "elements": {
        "0": {
            "type": "auteur",
            "value": "Raoul, duc de Lorraine"
        },
        "1": {
            "type": "beneficiaire",
            "value": "coll\u00e9giale Saint-Georges de Nancy "
        },
        "2": {
            "type": "disposant",
            "value": "Raoul, duc de Lorraine"
        },
        "3": {
            "type": "date",
            "value": " 1340\/01\/03",
            "children": {
                "date_deb_jour": "03",
                "date_deb_mois": "01",
                "date_deb_annee": "1340"
            },
            "range": {
                "date_apres": 13400103,
                "date_avant": 13400103
            }
        },
        "4": {
            "type": "cote",
            "value": "FRANCE, Nancy, Archives d\u00e9partementales de Meurthe-et-Moselle, G 342",
            "children": {
                "commentaire": "N.B. : Sous la cote G 342 se trouvent plusieurs documents. "
            }
        },
        "6": {
            "type": "langue",
            "value": "fran\u00e7ais"
        },
        "7": {
            "type": "authenticite",
            "value": "non suspect\u00e9"
        },
        "8": {
            "type": "genre",
            "value": "Lettre"
        },
        "9": {
            "type": "type_source",
            "value": "Original"
        },
        "10": {
            "type": "analyse",
            "value": "Raoul, duc de Lorraine, donne \u00e0 la coll\u00e9giale Saint-Georges de Nancy le patronage des cures de Guermange et de Mulcey."
        },
        "11": {
            "type": "transcription",
            "value": "<?xml version=\"1.0\" encoding=\"UTF-8\"?>\n\/01\/ Nous Raouls dux de Loherainne et marchis faisons savoir a tous qui cez presentes lettres verront et orront que nous pensei et considerei \/02\/ au saluit de nostre ame avons donnei et donnons pour nous et pour nos hoirs pour Deu et en amone purement per donation faite entre les vis \/03\/ senz rapelleir au prevost et auz chanoinnes de nostre chapelle que nous avons fondei novellement en nostre hosteil a Nancey en l\u2019onour de mon-\/04\/-signour sainct George le martir a lours successours et a lour dite englize a tous jours maix en acroissant la fondation de nostre dicte chapelle \/05\/ lez patronages de la cure de Guermenges et de Mellecey davant nostre maison de Dueze senz riens a retenir de teil droit comme nous y avons et devons \/06\/ avoir et com nostre ancessours dux de Loherainne y ont heu on temps passei ; et en avons mis dez maintenant pour nous et pour nos hoirs par la tra-\/07\/-dition de cez lettres le dit prevost lez chanoinnes pour auz pour lour successours et pour lour dicte englize en possession ou ausi com possession \/08\/ pour tous jours maix pour donneir lez dites cures quant elles vacaront et pour ordiner par comun escord de lour chapistre ensi comme \/09\/ muelz lour sembleret pour le profit de lour englize ; et avons promis et prometons pour nous et pour nos hoirs comme loiaulz princes \/10\/ que jamaix on temps avenir en contre ceste donation nous n\u2019irons ne aleir ferons maix en laxerons joir le dit prevost et chanoinnes \/11\/ et lour successours et lour en pourterons bonne warentie en contre tous et en vers tous a tous jours maix. En tesmognage de \/12\/ veritei avons nous cez presentes lettres seellees de nostre grand seel pendant qui furent faites l\u2019an de grace Nostre Signour mil trois \/13\/ cens trente et nuef le tiers jour dou mois de janvier.\n"
        },
        "12": {
            "type": "note_dorsale",
            "value": "\u00ab\u00a0Lettre dou don \/ des patronaiges \/ de Milcey et de Guernanges\u00a0\u00bb, XIV<sup>e<\/sup> s. ; \u00ab\u00a01339 jan(vier)\u00a0\u00bb, d\u2019une main moderne, mais dont la datation est incertaine ;  \u00ab ... \u00bb, XVI<sup>e<\/sup> s."
        },
        "13": {
            "type": "regeste",
            "value": "H. LEVALLOIS, <i>Catalogue des actes de Raoul, duc de Lorraine, 1329 \u00e0 1346<\/i>, Nancy,\u00a0Biblioth\u00e8que municipale de Nancy, 1902 (dact.), n\u00b0 188"
        },
        "14": {
            "type": "responsable",
            "value": "Laura Gili-Th\u00e9baudeau"
        },
        "15": {
            "type": "image_interne",
            "value": "http:\/\/telma-chartes.irht.cnrs.fr\/telma_img\/transscript\/transscript-FRAD054_G342r.JPG"
        },
        "16": {
            "type": "acte_scelle",
            "value": "non"
        },
        "17": {
            "type": "sceau",
            "value": "Sceau sur double queue, perdu"
        },
        "18": {
            "type": "image_interne",
            "value": "http:\/\/telma-chartes.irht.cnrs.fr\/telma_img\/transscript\/transscript-FRAD054_G342v.JPG"
        },
        "19": {
            "type": "remarques",
            "value": "Dans le catalogue de Levallois, nous avons repris l\u2019analyse n\u00b0 188 correspondant \u00e0 l\u2019acte cot\u00e9 G 370. Cet acte concerne la m\u00eame affaire juridique que l\u2019acte ici \u00e9dit\u00e9 et qui est conserv\u00e9 aux Archives d\u00e9partementales de Meurthe-et-Moselle sous cote G 342. L\u2019acte G 370 est dat\u00e9\u00a0: \u00ab\u00a0l\u2019an de grace notre seigneur mil trois cens trente et nuef le jeudi apr\u00e8s la nativitei saint jehan Baptiste\u00a0\u00bb (1er juillet 1339). Voir LEVALLOIS, Henri, <i>Catalogue des actes de Raoul, duc de Lorraine<\/i>, 1329 \u00e0 1346. \u2013 Nancy,\u00a0Biblioth\u00e8que municipale de Nancy, 1902 (dact.), n\u00b0 188."
        },
        "20": {
            "type": "description",
            "value": "Original sur parchemin, jadis scell\u00e9 sur double queue"
        }
    }
}