{
    "id": 27361,
    "name": "transscript-822",
    "type": "acte",
    "url": "http:\/\/telma-chartes.irht.cnrs.fr\/transscript\/notice\/27361",
    "project_slug": "transscript",
    "project_label": "TRANSSCRIPT",
    "user": "d_remy",
    "last_update": "2020-10-19 16:28:13",
    "licence": "Attribution - Pas d\u2019Utilisation Commerciale - Partage dans les M\u00eames Conditions 3.0 France (CC BY-NC-SA 3.0 FR) ",
    "licence_url": "https:\/\/creativecommons.org\/licenses\/by-nc-sa\/3.0\/fr\/",
    "elements": {
        "0": {
            "type": "auteur",
            "value": "Thi\u00e9baut (2), duc et marquis de Lorraine "
        },
        "1": {
            "type": "beneficiaire",
            "value": "Arnould, fils de Renaud le Sauvage et d'Alait sa femme"
        },
        "2": {
            "type": "disposant",
            "value": "Renaud le Sauvage, chevalier"
        },
        "3": {
            "type": "disposant",
            "value": "Alait, femme de Renaud le Sauvage"
        },
        "4": {
            "type": "disposant",
            "value": "Thi\u00e9baut (2), duc et marquis de Lorraine"
        },
        "5": {
            "type": "date",
            "value": " 1308\/01\/06",
            "children": {
                "date_deb_jour": "06",
                "date_deb_mois": "01",
                "date_deb_annee": "1308"
            },
            "range": {
                "date_apres": 13080106,
                "date_avant": 13080106
            }
        },
        "6": {
            "type": "cote",
            "value": "LUXEMBOURG, Luxembourg, Archives nationales de Luxembourg, fonds de Reinach, A-LII-0082"
        },
        "8": {
            "type": "description",
            "value": "Original sur parchemin, jadis scell\u00e9 sur simple queue"
        },
        "9": {
            "type": "langue",
            "value": "fran\u00e7ais"
        },
        "10": {
            "type": "authenticite",
            "value": "non suspect\u00e9"
        },
        "11": {
            "type": "genre",
            "value": "Lettre"
        },
        "12": {
            "type": "type_source",
            "value": "Original"
        },
        "13": {
            "type": "analyse",
            "value": "Thi\u00e9baut (2) fait savoir que sire Renaud, chevalier, dit le Sauvage, et sa femme Alait, ont reconnu avoir donn\u00e9 \u00e0 leur fils Arnould tout ce qu'ils avaient \u00e0 Crion, sauf l'affouage de leur h\u00f4tel de H\u00e9nam\u00e9nil dans la for\u00eat de Crion qu\u2019Alait a retenu sa vie durant. Le duc valide le don alors que ces biens devaient lui revenir au d\u00e9c\u00e8s d'Alait."
        },
        "14": {
            "type": "transcription",
            "value": "<?xml version=\"1.0\" encoding=\"UTF-8\"?>\n\/01\/ Nous Thiebaulz, dus et marchis de Lorreigne, faisons savoir a tous que mes sires Renalz dis li Savaiges chevaliers \/02\/ et ma dame Alait, sa femme, ont recogneu per devant nos que il ont donei et outroi\u00e9 et acquittei, donent, outroient \/03\/ et acquittent a lour amei fil Arnoult tout ceu qu'il ont, puent et doient avoir en la ville de Crions et on ban de la \/04\/ ditte ville, c'est a savoir en ban, en justice, en homes, en femmes, en rentes, en prises et en toutes autres menieres de \/05\/ prises et de signorie quelz qu'elles soient, sens riens a retenir, foirs que tant que li dis mes sires Renalz et madame \/06\/ Alais sa femme ont retenui et retiennent a la vie la devant ditte ma dame Alait lour affouaige de lour ostel de \/07\/ Henamesni on bois de la ditte ville de Crions et les paisseis tous qu'\u2019il convanrait en lour vignes de Henamesni. \/08\/ Et apres lou decest la ditte ma dame Alait doient revenir quittement et franchement en la main lou dit Ar-\/09\/-noul li dit affouaige et li dit paisseil senz empachement de nului. Et cest don et ceste acquittance ont fait \/10\/ li dis mes sires Renalz et ma dame Alais sa femme par nostre outroi et par nostre los, car a nos et a nos hoirs \/11\/ devoit escheoir li diz heritaiges apres lou decest de la desuz ditte ma dame Alait. Et por ceu que ceu soit \/12\/ferme choze et estable avons nos mis nostre seeil en ces presentes lettres a la requeste des diz mon signour \/13\/ Renalt et de ma dame Alait, sa femme, les quelz furent faites l'an de graice mil trois cens et sept, \/14\/ lou jour de l'Apparition on mois de jenvier.\n"
        },
        "15": {
            "type": "note_dorsale",
            "value": "\"H. Lv\", XV<sup>e<\/sup> s."
        },
        "18": {
            "type": "responsable",
            "value": "Denis Remy ; Mathias Bouyer"
        },
        "19": {
            "type": "acte_scelle",
            "value": "non"
        },
        "20": {
            "type": "sceau",
            "value": "Sceau pendant sur simple queue, perdu"
        },
        "21": {
            "type": "image_interne",
            "value": "http:\/\/telma-chartes.irht.cnrs.fr\/telma_img\/transscript\/transscript-A-LII-0082_0000000000.jpg"
        },
        "22": {
            "type": "image_interne",
            "value": "http:\/\/telma-chartes.irht.cnrs.fr\/telma_img\/transscript\/transscript-A-LII-0082_0000000010.jpg"
        },
        "23": {
            "type": "regeste",
            "value": " H. LEVALLOIS, Table chronologique provisoire des actes des ducs Thi\u00e9baut II et Ferry IV conserv\u00e9s dans le Tr\u00e9sor des chartes de Lorraine ou publi\u00e9s et analys\u00e9s, Nancy, Biblioth\u00e8que municipale, ms. 1185 (4 et 5)"
        }
    }
}