{
    "id": 184,
    "name": "transscript-113",
    "type": "acte",
    "url": "http:\/\/telma-chartes.irht.cnrs.fr\/transscript\/notice\/184",
    "project_slug": "transscript",
    "project_label": "TRANSSCRIPT",
    "user": "l_gili",
    "last_update": "2020-10-19 16:24:54",
    "licence": "Attribution - Pas d\u2019Utilisation Commerciale - Partage dans les M\u00eames Conditions 3.0 France (CC BY-NC-SA 3.0 FR) ",
    "licence_url": "https:\/\/creativecommons.org\/licenses\/by-nc-sa\/3.0\/fr\/",
    "elements": {
        "0": {
            "type": "analyse",
            "value": "Catherine, duchesse de Lorraine, et son fils Ferry (3), duc de Lorraine, promettent de ne lever \u00e0 Saint-Di\u00e9, sans le consentement du chapitre, aucun droit de passage autre qu'un denier par cheval charg\u00e9, les chanoines \u00e9tant exempt\u00e9s de ce droit."
        },
        "1": {
            "type": "auteur",
            "value": "Catherine (de Limbourg), duchesse de Lorraine et marquise"
        },
        "2": {
            "type": "auteur",
            "value": "Ferry (3), duc de Lorraine et marquis"
        },
        "3": {
            "type": "beneficiaire",
            "value": "Chapitre coll\u00e9gial de Saint-Di\u00e9"
        },
        "4": {
            "type": "authenticite",
            "value": "non suspect\u00e9"
        },
        "5": {
            "type": "cote",
            "value": "FRANCE, \u00c9pinal, Archives d\u00e9partementales des Vosges, G 249 n\u00b0 17"
        },
        "6": {
            "type": "responsable",
            "value": "Laura Gili-Th\u00e9baudeau"
        },
        "7": {
            "type": "date",
            "value": " 1255\/03\/28",
            "children": {
                "date_deb_annee": "1255",
                "date_deb_mois": "03",
                "date_deb_jour": "28"
            },
            "range": {
                "date_apres": 12550328,
                "date_avant": 12550328
            }
        },
        "9": {
            "type": "regeste",
            "value": "J. DE PANGE, <i>Catalogue des actes de Ferri III, duc de Lorraine (1251-1303) <\/i>, Paris, 1930, 285 p. + <i>Table des noms de personnes et des noms de lieux contenus dans le catalogue<\/i> (p. I-XXIX), n\u00b0 54, p. 11 (il s\u2019agit du regeste de l\u2019acte conserv\u00e9 \u00e0 Paris, \u00e0 la Biblioth\u00e8que nationale de France, dans Provinces Fran\u00e7aises, Collection de Lorraine, vol. 720, f\u00b0 160v)"
        },
        "10": {
            "type": "genre",
            "value": "Lettre"
        },
        "11": {
            "type": "langue",
            "value": "latin"
        },
        "12": {
            "type": "sources_manuscrites",
            "value": "FRANCE, \u00c9pinal, Archives d\u00e9partementales des Vosges, G 249 n\u00b0 16 (copie du 7 septembre 1690)",
            "children": {
                "type_source": "Registre"
            }
        },
        "13": {
            "type": "sources_manuscrites",
            "value": "FRANCE, Paris, Biblioth\u00e8que nationale de France, Provinces fran\u00e7aises, Collection de Lorraine, vol. 720, f\u00b0 160v",
            "children": {
                "type_source": "Copie",
                "commentaire": "\u00c0 v\u00e9rifier. En 2017, le volume 720 de la Collection de Lorraine est incommunicable."
            }
        },
        "14": {
            "type": "note_dorsale",
            "value": "\u00ab\u00a0Littera Boffridi sub sigillo F(rederici) ducis et Kath(erine) \/ matris ejus, quod carriis, bige aut equi (il suit une lettre qui semble avoir \u00e9t\u00e9 ray\u00e9e) \/ canonicorum et clericorum suorum nich(il) debent \/ et alio modo equi debet quilibet unum denarium basilien(sis)\u00a0\u00bb, XV<sup>e<\/sup> s. En-dessous, d\u2019une main moderne: \u00ab\u00a0n\u00b0 13\u00a0\u00bb et V. R(egistrata) p(er). S.\u00a0\u00bb, XVI<sup>e<\/sup> s. Encore en-dessous, une autre note de chancellerie et, entour\u00e9 par une ellisse, d\u2019une main m\u00e9di\u00e9vale\u00a0: \u00ab\u00a0transcripta\u00a0\u00bb, \u00ab\u00a0xxii\u00a0\u00bb et \u00ab\u00a01255\u00a0\u00bb, XIV<sup>e<\/sup> s. Il y a d\u2019autres notes de chancellerie, dont \u00ab V \u00bb, \u00ab 17 \u00bb, \u00ab P \u00bb. \n"
        },
        "15": {
            "type": "transcription",
            "value": "<?xml version=\"1.0\" encoding=\"UTF-8\"?>\n\/01\/ Nos Katherina duscissa et Fridericus ejus filius, dux Lothoringie et marchio, notum facimus universis \/02\/ presentes litteras inspecturis quod ad hoc nos astrinximus propria voluntate corporali super hoc a nobis presti-\/03\/-to juramento quod ad beffridum quod in solo ecclesie Sancti Deodati fecimus ad deffensionem rerum et hominum \/04\/ ecclesie memorate numquam accipiemus nec accipi permittemus nomine pedacii quod ibi accipimus preposito, decano \/05\/ et capitulo ejusdem ecclesie reclamantibus et inuitis nisi tantummodo unum denarium basilien(sem) pro quolibet \/06\/ equo mercibus honerato hominum ad ipsam ecclesiam pertinentium per beffridum hic transeunte. Ita etiam quod \/07\/ pro eundo et redeundo simili non nisi unum tantum predictum denarium pro equo quolibet exigemus mercibus honerato \/08\/ pro personis autem hominum, pedes vel eques euntium, nichil penitus exigemus neque pro equis aut curtibus aut \/10\/ bigis canonicorum aut ecclesie Sancti Deodati vel clericorum ejusdem ecclesie vino vel rebus aliis honeratis, nichil \/11\/ omnino similiter exigemus jure et actione quam super hoc habet ipsa contra nos ecclesia contra nos et successores nostros perpetuo \/12\/ sine prescritione quolibet salva ipsi ecclesie nichilominus remanente. In cujus rei perpetuam firmitatem sigillis nostris sunt presentes littere \/13\/ sigillate. Datum anno Domini M\u00b0 CC\u00b0 quinquagesimo quinto, Va kalendas aprilis.\n"
        },
        "16": {
            "type": "type_source",
            "value": "Original"
        },
        "17": {
            "type": "acte_scelle",
            "value": "non"
        },
        "18": {
            "type": "id_telma",
            "value": "630282"
        },
        "19": {
            "type": "image_interne",
            "value": "http:\/\/telma-chartes.irht.cnrs.fr\/telma_img\/transscript\/transscript-FRAD088_G249_n.17r.JPG"
        },
        "20": {
            "type": "image_interne",
            "value": "http:\/\/telma-chartes.irht.cnrs.fr\/telma_img\/transscript\/transscript-FRAD088_G249_n.17v.JPG"
        },
        "21": {
            "type": "sceau",
            "value": "Sceau perdu."
        },
        "22": {
            "type": "disposant",
            "value": "Catherine (de Limbourg), duchesse de Lorraine et marquis"
        },
        "23": {
            "type": "disposant",
            "value": "Ferry (3), duc de Lorraine et marquis"
        },
        "24": {
            "type": "description",
            "value": "Original sur parchemin, jadis scell\u00e9"
        }
    }
}