{
    "id": 488,
    "name": "transscript-275",
    "type": "acte",
    "url": "http:\/\/telma-chartes.irht.cnrs.fr\/transscript\/notice\/488",
    "project_slug": "transscript",
    "project_label": "TRANSSCRIPT",
    "user": "jd_mougeot",
    "last_update": "2020-10-19 16:24:57",
    "licence": "Attribution - Pas d\u2019Utilisation Commerciale - Partage dans les M\u00eames Conditions 3.0 France (CC BY-NC-SA 3.0 FR) ",
    "licence_url": "https:\/\/creativecommons.org\/licenses\/by-nc-sa\/3.0\/fr\/",
    "elements": {
        "0": {
            "type": "auteur",
            "value": "Henri, seigneur de Houffalize"
        },
        "1": {
            "type": "cote",
            "value": "FRANCE, Nancy, Archives d\u00e9partementales de Meurthe-et-Moselle, B 566 n\u00b0 4"
        },
        "2": {
            "type": "responsable",
            "value": "Laura Gili-Th\u00e9baudeau"
        },
        "3": {
            "type": "date",
            "value": " 1251\/08\/31",
            "children": {
                "date_deb_annee": "1251",
                "date_deb_mois": "08",
                "date_deb_jour": "31"
            },
            "range": {
                "date_apres": 12510831,
                "date_avant": 12510831
            }
        },
        "4": {
            "type": "edition",
            "value": "C. WAMPACH, <i>Urkunden- und Quellenbuch zur Geschichte der altluxemburgischen Territorien bis zur burgundischen Zeit<\/i>, t. III, Luxembourg 1939, n\u00b0 82, p. 79-80"
        },
        "5": {
            "type": "langue",
            "value": "latin"
        },
        "6": {
            "type": "acte_scelle",
            "value": "non"
        },
        "7": {
            "type": "id_telma",
            "value": "630509"
        },
        "8": {
            "type": "transcription",
            "value": "<?xml version=\"1.0\" encoding=\"UTF-8\"?>\n\/01\/ Ego Henricus, dominus de Huefelise, universis notum facio presentes litteras inspecturis quod ego deveni\u00a0\/02\/ homo legius post dominos meos illustris ducisse Loth(oringie) Katherine et Ferrici suiFerrici suisic, \u00e0 int\u00e9grer avec: filii, ita tamen quod \/03\/ pro homagio isto domina mea ducissa et filius ejus F(erricus) dederunt et concesserunt michi et heredibus \/04\/ meis annuatim in perpetuum duas karratas vini in vinea sua de Syrkes; et si in eadem \/05\/ vinea tantum vini non cresceret, prenominata ducissa et Ferricus filius ejus de meliori vino \/06\/ quod crescit in monte in quo vinea sua sita est de redditibus suis vini quos habent \/07\/ ibidem duas karratas vini michi et heredibus meis sicut superius est prenotatum per-\/08\/-ficere tenerentur. Sciendum est etiam quod, post decessum meum, filius meus qui erit \/09\/ dominus de Huefelise deveniet homo legius domine mee ducisse et Ferrici filii sui \/10\/ ante comitem Barri, salva legietate aliorum dominorum suorum. Quod ut ratum per-\/11\/-maneat presentem paginam sigilli mei munimine feci roborari. Anno Domini .Mo. \/12\/ .CCo. quinquagesimo primo, feria quinta post decollationem Beati Johanni Baptiste.\n"
        },
        "9": {
            "type": "sources_manuscrites",
            "value": "FRANCE, Bar-le-Duc, Archives d\u00e9partementales de la Meuse, B 256, f\u00b0 23r (cartulaire du XIV<sup>e<\/sup> s.)",
            "children": {
                "type_source": "Cartulaire"
            }
        },
        "10": {
            "type": "regeste",
            "value": "J. DE PANGE, <i>Catalogue des actes de Ferri III, duc de Lorraine (1251-1303)<\/i>, Paris 1930, n\u00b0 15, p. 4"
        },
        "11": {
            "type": "regeste",
            "value": "H. LEPAGE, \u00ab\u00a0Opinion de Dom Calmet sur l'emprisonnement de Ferry III et catalogue des actes du r\u00e8gne de ce prince\u00a0\u00bb, <i>M\u00e9moires de la Soci\u00e9t\u00e9 d'arch\u00e9ologie lorraine et du Mus\u00e9e historique lorrain<\/i>, 3<sup>e<\/sup> s\u00e9rie, 4, 1876, n\u00b0 5"
        },
        "12": {
            "type": "image_interne",
            "value": "http:\/\/telma-chartes.irht.cnrs.fr\/telma_img\/transscript\/transscript-FRAD054_B566_4r.JPG",
            "children": {
                "commentaire": "FRANCE, Nancy, Archives d\u00e9partementales de Meurthe-et-Moselle, B 566 n\u00b0 4r"
            }
        },
        "13": {
            "type": "beneficiaire",
            "value": "Ferry (3), duc de Lorraine et marquis"
        },
        "14": {
            "type": "beneficiaire",
            "value": "Catherine de Limbourg, duchesse de Lorraine"
        },
        "15": {
            "type": "disposant",
            "value": "Ferry (3), duc de Lorraine et marquis"
        },
        "16": {
            "type": "disposant",
            "value": "Catherine, duchesse de Lorraine"
        },
        "17": {
            "type": "analyse",
            "value": "Henri, seigneur de Houffalize, fait savoir qu'il est devenu homme lige de Catherine, duchesse de Lorraine, et de son fils Ferry (3), en \u00e9change d'une rente annuelle perp\u00e9tuelle de deux charret\u00e9es de vin \u00e0 prendre dans les vignes de ladite duchesse et de son fils \u00e0 Sierck(-les-Bains)."
        },
        "18": {
            "type": "sceau",
            "value": "Sceau pendant perdu. Annonce du sceau de Henri, seigneur de Houffalize"
        },
        "19": {
            "type": "note_dorsale",
            "value": "\u00ab\u00a0Homage mons(ignour) Henri de Heuph(alize)\u00a0\u00bb, XIV<sup>e<\/sup> s.\u00a0;  \u00ab\u00a0Lettre de l'omaige Hanri signour de Heuphileizei\u00a0\u00bb, XIV<sup>e<\/sup> s.\u00a0; inscrits dans un rectangle, \u00ab R \u00bb, pr\u00e9c\u00e9d\u00e9 par un carr\u00e9 partag\u00e9 en quatre par une croix, XIV<sup>e<\/sup>-XV<sup>e<\/sup> s.\u00a0; \u00ab\u00a0Pour deux charrees de vin sur la vigne de Sirgues. 1251\u00a0\u00bb, XVI<sup>e<\/sup> s.\u00a0; \u00ab1251\u00bb, XVIII<sup>e<\/sup> s., suivi par \u00ab\u00a0du jeudy apres la decolation saint Jean\u00a0\u00bb, XVIII<sup>e<\/sup> s. ; \u00ab N. 4 Bitch. Castres Schaumb \u00bb, XVIII<sup>e<\/sup> s.  "
        },
        "20": {
            "type": "image_interne",
            "value": "http:\/\/telma-chartes.irht.cnrs.fr\/telma_img\/transscript\/transscript-FRAD054_B566_n.4v.JPG",
            "children": {
                "commentaire": "FRANCE, Nancy, Archives d\u00e9partementales de Meurthe-et-Moselle, B 566 n\u00b0 4v"
            }
        },
        "21": {
            "type": "genre",
            "value": "Lettre"
        },
        "22": {
            "type": "description",
            "value": "Original sur parchemin (106 x 192 mm), jadis scell\u00e9 sur double queue de parchemin"
        },
        "24": {
            "type": "beneficiaire",
            "value": "Henri, seigneur de Houffalize"
        },
        "25": {
            "type": "disposant",
            "value": "Henri, seigneur de Houffalize"
        },
        "26": {
            "type": "date_libre",
            "value": "-"
        },
        "27": {
            "type": "date_lieu",
            "value": "-"
        },
        "28": {
            "type": "destinataire",
            "value": "-"
        },
        "29": {
            "type": "mention_hors_teneur",
            "value": "-"
        },
        "30": {
            "type": "remarques",
            "value": "-"
        },
        "31": {
            "type": "mention",
            "value": "-"
        }
    }
}