{
    "id": 14753,
    "name": "transscript-311",
    "type": "acte",
    "url": "http:\/\/telma-chartes.irht.cnrs.fr\/transscript\/notice\/14753",
    "project_slug": "transscript",
    "project_label": "TRANSSCRIPT",
    "user": "t_salemme",
    "last_update": "2020-10-19 16:25:54",
    "licence": "Attribution - Pas d\u2019Utilisation Commerciale - Partage dans les M\u00eames Conditions 3.0 France (CC BY-NC-SA 3.0 FR) ",
    "licence_url": "https:\/\/creativecommons.org\/licenses\/by-nc-sa\/3.0\/fr\/",
    "elements": {
        "0": {
            "type": "auteur",
            "value": "Henri (5), comte de Luxembourg, de la Roche et marquis d'Arlon"
        },
        "1": {
            "type": "auteur",
            "value": "Marguerite (de Bar), comtesse de Luxembourg et marquise d'Arlon"
        },
        "2": {
            "type": "beneficiaire",
            "value": "Monast\u00e8re de Clairefontaine"
        },
        "3": {
            "type": "date",
            "value": "1253\/03\/26",
            "children": {
                "date_deb_jour": "26",
                "date_deb_mois": "03",
                "date_deb_annee": "1253",
                "date_deb_type": ""
            },
            "range": {
                "date_apres": 12530326,
                "date_avant": 12530326
            }
        },
        "4": {
            "type": "date_lieu",
            "value": "-"
        },
        "6": {
            "type": "cote",
            "value": "BELGIQUE, Arlon, Archives de l\u2019\u00c9tat, Fonds Clairefontaine, n\u00b0 5"
        },
        "7": {
            "type": "description",
            "value": "Original sur parchemin (mm. 407\/412 x  240\/247\u00a0; repli mm. 45\/49), scell\u00e9 de deux sceaux pendants sur double queue de parchemin (dont il reste un fragment du deuxi\u00e8me)"
        },
        "8": {
            "type": "langue",
            "value": "latin"
        },
        "9": {
            "type": "authenticite",
            "value": "non suspect\u00e9"
        },
        "10": {
            "type": "genre",
            "value": "Lettre"
        },
        "11": {
            "type": "type_source",
            "value": "Original"
        },
        "12": {
            "type": "transcription",
            "value": "<?xml version=\"1.0\" encoding=\"UTF-8\"?>\n\/01\/ Nos Henricus comes Luceburgensis, Rupensis et marchio de Arlons, et nos Margareta comitissa Luceburgensis et marchionissa Arlonensis, \/02\/ uxor eius, tenore presentium memorie committimus futurorum quod, cum felicis memorie Ermensendis comitissa Luceburgensis, mater nostra, ob remedium \/03\/ anime sue et suorum, claustrum quod Clarusfons appellatur situm prope Arlons castrum, construere ceperit, idemque hereditate sua dotaverit, super hoc nostro ac- \/04\/-cedente consensu,nos omnem donationem quam dicta Ermensindis, pie recordationis mater nostra, dicto cenobio fecit, pio favore concedentes, ratam habemus et firmam. \/05\/ Et ne super dicta donatione dubitatio possit in posterum exoriri, prefatam donationem cum determinatione locorum eius presenti pagina duximus exprimendam, \/06\/ videlicet decimam de Altrenote, scilicet duas partes totius decime grosse et minute, cum jure patronatus et cum appenditiis suis; item decimam de Aubrisart, \/07\/ medietatem scilicet totius decime, cum jure patronatus; item terragio de Hoppeseio integraliter, in omni eiusdem ville finagio, in omni crescentia terrarum cultarum \/08\/ et colendarum; item medietatem terre de Dele, cum appenditiis suis, et totam terram de Hasperenges integraliter in pratis, silvis, campis, aquis et pascuis, cum omni \/09\/ jure et omni usu; item locum in quo abbatia residet, et quadraginta jornalia terre et nemoris vel amplius circa abbatiam, inter villam de Hisse et \/10\/ Walsenges sita; item usuarium dicte abbatie, pro grangiis construendis et pertinentiis suis, in locis in quibus habet usuarium villa de Hisse; item usuarium in nemoribus \/11\/ totius banni de Ansliers ad omnia necessaria dicte domus cum pertinentiis suis, grangiarum et bergariarum, et domorum aliarum construendarum sive constructarum, \/12\/ que proprie erunt ipsius abbatie; item pasturas ad omne genus animalium in dictis nemoribus de Ansliers, et usuagium tam glandis quam fagine usque ad centum porcos, \/13\/ absque solutione pasnagii; et si dicta animalia dampnum alicui inferrent, libera et quitta erunt a quocumque capiantur, per restitutionem dampni capitalis, absque \/14\/ placitatione et emenda. Hec autem omnia predicta pro salute animarum nostrarum et nobilis domine Ermensendis matris nostre et antecessorum et successorum nostrorum libere \/15\/ et quiete et pacifice dicte abbatie tamquam puram et perpetuam elemosinam nostram dicte abbatie in perpetuum concedimus habenda et possidenda. Et garantisare \/16\/ tenemur nos et successores nostri in perpetuum contra omnes ac legitimam de predictis ferre tutelam. In cuius rei testimonium presentibus litteris sigilla nostra \/17\/ duximus apponenda. Actum et datum anno Domini millesimo ducentesimo quinquagesimo tertio, mense martio, in crastino Annuntiationis Dominice.\n"
        },
        "13": {
            "type": "responsable",
            "value": "Timothy Salemme"
        },
        "14": {
            "type": "acte_scelle",
            "value": "oui"
        },
        "15": {
            "type": "sceau",
            "value": "Sceau pendant perdu. Annonce du sceau de Henri (5), comte de Luxembourg"
        },
        "16": {
            "type": "sceau",
            "value": "Fragment du sceau de Marguerite comtesse de Luxembourg"
        },
        "17": {
            "type": "disposant",
            "value": "Henri (5), comte de Luxembourg, de la Roche et marquis d'Arlon"
        },
        "18": {
            "type": "disposant",
            "value": "Marguerite (de Bar), comtesse de Luxembourg et marquise d'Arlon"
        },
        "19": {
            "type": "analyse",
            "value": "Henri (5), comte de Luxembourg et de la Roche et marquis d'Arlon, et sa femme Marguerite, comtesse de Luxembourg et marquise d'Arlon, font savoir qu'ils confirment toutes les donations faites par la comtesse Ermesinde, m\u00e8re dudit Henri (5), en faveur du monast\u00e8re de Clairefontaine pr\u00e8s d'Arlon."
        },
        "20": {
            "type": "edition",
            "value": "J. BERTHOLET, <i>Histoire eccl\u00e9siastique et civile du duch\u00e9 de Luxembourg et comte de Chiny<\/i>, t. V, Luxembourg 1743, p. 41"
        },
        "21": {
            "type": "note_dorsale",
            "value": "\u00ab\u00a0De la deime d'Aternoit et de Aubrisart, et des usuaires des terres d'Ainsliers\u00a0\u00bb, XIII<sup>e<\/sup>-XIV<sup>e<\/sup> s.\u00a0; \u00ab n\u00b0 266\u00a0\u00bb ray\u00e9, XVIII<sup>e<\/sup> s.\u00a0; \u00ab\u00a0n\u00b0 109\u00a0\u00bb, XVIII<sup>e<\/sup> s.\u00a0; \u00ab\u00a01253 n\u00b0 11\u00a0\u00bb, XVIII<sup>e<\/sup> s.\u00a0; regeste du XVIII<sup>e<\/sup> ou XIX<sup>e<\/sup> s. enti\u00e8rement illisible\u00a0; \u00ab\u00a0Voir, pour la reproduction de cette pi\u00e8ce, Bertholet, tome V, page 41 des pi\u00e8ces justificatives\u00a0\u00bb, XIX<sup>e<\/sup> s."
        },
        "22": {
            "type": "regeste",
            "value": "F.-X. W\u00dcRTH-PAQUET \u00ab Table chronologique des chartes et dipl\u00f4mes relatifs \u00e0 l'histoire de l'ancien pays et duch\u00e9 de Luxembourg. R\u00e8gne de Henri II (1246-1281)\u00bb, <i>Publications de la Section historique<\/i>, XV (1860), n\u00b0 91, p. 68"
        },
        "23": {
            "type": "edition",
            "value": "H. GOFFINET, <i>Cartulaire de l'abbaye de Clairefontaine (1163-1745)<\/i>, Arlon 1876, n\u00b0 6, p. 13"
        },
        "24": {
            "type": "regeste",
            "value": "E. TANDEL, <i>Les communes luxembourgeoises<\/i>, t. II, <i>L'arrondissement d'Arlon<\/i>, Luxembourg 1889, p. 209"
        },
        "25": {
            "type": "regeste",
            "value": "A. WAUTERS, <i>Table chronologique des chartes et dipl\u00f4mes concernant l'histoire de la Belgique<\/i>, t. V, <i>1251-1276<\/i>, Bruxelles 1877, p. 81"
        },
        "26": {
            "type": "regeste",
            "value": "A. WAUTERS, <i>Table chronologique des chartes et dipl\u00f4mes concernant l'histoire de la Belgique<\/i>, t. VII, Bruxelles 1885-1889, p. 864"
        },
        "27": {
            "type": "sources_manuscrites",
            "value": "BELGIQUE, Arlon, Archives de l\u2019\u00c9tat, Fonds Clairefontaine, 145 (Cartulaire de Clairefontaine), f\u00b0 20r ; f\u00b0 150r-150v",
            "children": {
                "type_source": "Cartulaire"
            }
        },
        "28": {
            "type": "sources_manuscrites",
            "value": "BELGIQUE, Arlon, Archives de l\u2019\u00c9tat, Fonds Clairefontaine, 146, f\u00b0 401-403 (copie notari\u00e9e sur papier, XVIII<sup>e<\/sup> s.)",
            "children": {
                "type_source": "Copie"
            }
        },
        "29": {
            "type": "sources_manuscrites",
            "value": "BELGIQUE, Arlon, Archives de l\u2019\u00c9tat, Fonds Clairefontaine, 146, f\u00b0 702-707 (copie notari\u00e9e sur papier, XVIII<sup>e<\/sup> s.)",
            "children": {
                "type_source": "Copie"
            }
        },
        "30": {
            "type": "sources_manuscrites",
            "value": "BELGIQUE, Arlon, Archives de l\u2019\u00c9tat, Fonds Clairefontaine, 147, n\u00b0 11, f\u00b0 6v-7r (copie notari\u00e9e sur papier en fran\u00e7ais, notaire Pierret, XVIII<sup>e<\/sup> s.)",
            "children": {
                "type_source": "Copie"
            }
        },
        "31": {
            "type": "sources_manuscrites",
            "value": "BELGIQUE, Arlon, Archives de l\u2019\u00c9tat, Fonds Clairefontaine, 150 (copie notari\u00e9e sur papier, XVIII<sup>e<\/sup> s.)",
            "children": {
                "type_source": "Copie"
            }
        },
        "32": {
            "type": "sources_manuscrites",
            "value": "BELGIQUE, Arlon, Archives de l\u2019\u00c9tat, Fonds Clairefontaine, 150 (autre copie notari\u00e9e sur papier, XVIII<sup>e<\/sup> s.)",
            "children": {
                "type_source": "Copie"
            }
        },
        "35": {
            "type": "edition",
            "value": "C. WAMPACH, <i>Urkunden- und Quellenbuch zur Geschichte der altluxemburgischen Territorien bis zur burgundischen Zeit<\/i>, t. III, Luxembourg 1939, n\u00b0 135, p. 137-138"
        },
        "36": {
            "type": "date_libre",
            "value": "-"
        },
        "37": {
            "type": "destinataire",
            "value": "-"
        },
        "38": {
            "type": "remarques",
            "value": "-"
        },
        "39": {
            "type": "mention_hors_teneur",
            "value": "-"
        },
        "40": {
            "type": "mention",
            "value": "-"
        }
    }
}