{
    "id": 27193,
    "name": "transscript-755",
    "type": "acte",
    "url": "http:\/\/telma-chartes.irht.cnrs.fr\/transscript\/notice\/27193",
    "project_slug": "transscript",
    "project_label": "TRANSSCRIPT",
    "user": "t_salemme",
    "last_update": "2020-10-19 16:28:11",
    "licence": "Attribution - Pas d\u2019Utilisation Commerciale - Partage dans les M\u00eames Conditions 3.0 France (CC BY-NC-SA 3.0 FR) ",
    "licence_url": "https:\/\/creativecommons.org\/licenses\/by-nc-sa\/3.0\/fr\/",
    "elements": {
        "0": {
            "type": "auteur",
            "value": "Jean (l\u2019Aveugle), roi de Boh\u00eame et comte de Luxembourg"
        },
        "1": {
            "type": "beneficiaire",
            "value": "W\u00e9ric de Berbourg, \u00e9cuyer"
        },
        "2": {
            "type": "destinataire",
            "value": "Le s\u00e9n\u00e9chal et les officiers du comt\u00e9 de Luxembourg"
        },
        "3": {
            "type": "disposant",
            "value": "Jean (l\u2019Aveugle), roi de Boh\u00eame et comte de Luxembourg"
        },
        "4": {
            "type": "date",
            "value": " 1337\/06\/02",
            "children": {
                "date_deb_jour": "02",
                "date_deb_mois": "06",
                "date_deb_annee": "1337"
            },
            "range": {
                "date_apres": 13370602,
                "date_avant": 13370602
            }
        },
        "5": {
            "type": "date_libre",
            "value": "-"
        },
        "6": {
            "type": "date_lieu",
            "value": "Prague"
        },
        "7": {
            "type": "cote",
            "value": "LUXEMBOURG, Luxembourg, Archives nationales de Luxembourg, Fonds Culenborg, A-LXIII-62"
        },
        "9": {
            "type": "description",
            "value": "Original sur parchemin (mm. 297 x 117) jadis scell\u00e9 sur double queue de parchemin"
        },
        "10": {
            "type": "langue",
            "value": "fran\u00e7ais"
        },
        "11": {
            "type": "authenticite",
            "value": "non suspect\u00e9"
        },
        "12": {
            "type": "genre",
            "value": "Mandement"
        },
        "13": {
            "type": "type_source",
            "value": "Original"
        },
        "14": {
            "type": "analyse",
            "value": "Jean (l\u2019Aveugle), roi de Boh\u00eame et comte de Luxembourg, fait savoir qu\u2019il a autoris\u00e9 W\u00e9ric de Berbourg, \u00e9cuyer, ses successeurs et ses hommes \u00e0 vendre leurs marchandises et \u00e0 les transporter par le pont de Wasserbillig sans payer les droits de tonlieu et de p\u00e9age. Il mande en outre au s\u00e9n\u00e9chal du comt\u00e9 de Luxembourg et aux autres officiers de ne pas s\u2019opposer \u00e0 la jouissance dudit octroi de la part de W\u00e9ric."
        },
        "15": {
            "type": "transcription",
            "value": "<?xml version=\"1.0\" encoding=\"UTF-8\"?>\n\/01\/ Jean, par la grace de Dieu roys de Boeme et contes de Luccemburch, a tous ceus qui ces presentes lettres verront et orront salut. Sachent \/02\/ tuit que nous avons otriiet, otrions et voulons que nos amez et fealz Wiris de Bereperch, escuiers, si hoirs, si homes et leur hoirs \/03\/ puissent vendre et meneir hors leur biens de leur propre cru toutes foiz que leur plaira quittement et franchement, sens paier \/04\/ tonieu ou passaige, a nostre pont a Billo tout assi avant que li antecessours le dit Wiris et leur homes l\u2019ont useit dou temps \/05\/ passei. Si mandons a nostre senescal de la contei de Luccembourch que ore est et qui pour le temps sera et a nos autres officiiens \/06\/ dou lieu que il des ore en avant ne leur en facent ne ne sueffrent a faire offense ne empechement. En tesmoignaige de ce \/07\/ nous avons donei a dit Wiri ces presentes lettres saielees de nostre seel. Don(ees) a Pragh, le secon jour dou moi de juyn \/08\/ l\u2019an mil trois cens trente et sept.\n"
        },
        "16": {
            "type": "remarques",
            "value": "-"
        },
        "17": {
            "type": "mention_hors_teneur",
            "value": "Sur le repli, \u00e0 droite: \u00ab Pour le roi. Henri \u00bb"
        },
        "18": {
            "type": "note_dorsale",
            "value": "\u00ab Anno 1337 \u00bb, XVIII<sup>e<\/sup> s. ; \u00ab E \u00bb, XVIII<sup>e<\/sup> s. ; \u00ab N\u00b0 51 \u00bb, XVIII<sup>e<\/sup> s. ; \u00ab Jan Koning van Boheme graaf van Luccemburg vergunt Wynrik heer van Berpurch zyne goedere tolvry uit te voeren \u00bb, XIX<sup>e<\/sup> s. "
        },
        "19": {
            "type": "edition",
            "value": "A. ESTGEN, M. PAULY et J. SCHROEDER, <i>Urkunden- und Quellenbuch zur Geschichte der altluxemburgischen Territorien, begr\u00fcndet von Camille Wampach<\/i>, t. XI\/1, <i>Die Urkunden Graf Johanns des Blinden (1310-1346). Die Urkunden aus Luxemburger Archivbest\u00e4nden<\/i>, Luxembourg 1997, n\u00b0 L60"
        },
        "20": {
            "type": "regeste",
            "value": "-"
        },
        "21": {
            "type": "mention",
            "value": "-"
        },
        "22": {
            "type": "sources_manuscrites",
            "value": "LUXEMBOURG, Luxembourg, Archives Nationales de Luxembourg, Fonds Culenborg, A-LXIII-62 (regeste dactylographi\u00e9 conserv\u00e9 avec l'original, XX<sup>e<\/sup> s.) ",
            "children": {
                "type_source": "n.c.",
                "source_edition": ""
            }
        },
        "23": {
            "type": "responsable",
            "value": "Timothy Salemme"
        },
        "24": {
            "type": "acte_scelle",
            "value": "non"
        },
        "25": {
            "type": "sceau",
            "value": "Sceau pendant perdu. Annonce du sceau de Jean l\u2019Aveugle",
            "children": {
                "sigilla": ""
            }
        },
        "28": {
            "type": "image_interne",
            "value": "http:\/\/telma-chartes.irht.cnrs.fr\/telma_img\/transscript\/transscript-A-LXIII-0024_0000000000.jpg"
        },
        "29": {
            "type": "image_interne",
            "value": "http:\/\/telma-chartes.irht.cnrs.fr\/telma_img\/transscript\/transscript-A-LXIII-0024_0000000010.jpg"
        }
    }
}