{
    "id": 25014,
    "name": "transscript-634",
    "type": "acte",
    "url": "http:\/\/telma-chartes.irht.cnrs.fr\/transscript\/notice\/25014",
    "project_slug": "transscript",
    "project_label": "TRANSSCRIPT",
    "user": "t_salemme",
    "last_update": "2020-10-19 16:27:38",
    "licence": "Attribution - Pas d\u2019Utilisation Commerciale - Partage dans les M\u00eames Conditions 3.0 France (CC BY-NC-SA 3.0 FR) ",
    "licence_url": "https:\/\/creativecommons.org\/licenses\/by-nc-sa\/3.0\/fr\/",
    "elements": {
        "0": {
            "type": "auteur",
            "value": "Jean (l'Aveugle), roi de Boh\u00eame et de Pologne et comte de Luxembourg"
        },
        "1": {
            "type": "beneficiaire",
            "value": "Guillaume (3), comte de Hainaut"
        },
        "2": {
            "type": "beneficiaire",
            "value": "Renaud (2), comte de Gueldre"
        },
        "3": {
            "type": "destinataire",
            "value": "-"
        },
        "4": {
            "type": "disposant",
            "value": "Jean (l\u2019Aveugle), roi de Boh\u00eame et de Pologne et comte de Luxembourg"
        },
        "5": {
            "type": "date",
            "value": " 1334\/06\/16",
            "children": {
                "date_deb_jour": "16",
                "date_deb_mois": "06",
                "date_deb_annee": "1334"
            },
            "range": {
                "date_apres": 13340616,
                "date_avant": 13340616
            }
        },
        "6": {
            "type": "date_libre",
            "value": "-"
        },
        "7": {
            "type": "date_lieu",
            "value": "Valenciennes"
        },
        "8": {
            "type": "cote",
            "value": "BELGIQUE, Mons, Archives de l\u2019\u00c9tat, Chartes des comtes de Hainaut, n\u00b0 681"
        },
        "13": {
            "type": "description",
            "value": "Original sur parchemin (mm. 265\/267 x 125, dont repli mm. 12) , scell\u00e9 sur simple queue de parchemin"
        },
        "14": {
            "type": "langue",
            "value": "fran\u00e7ais"
        },
        "15": {
            "type": "authenticite",
            "value": "non suspect\u00e9"
        },
        "16": {
            "type": "genre",
            "value": "Lettre"
        },
        "17": {
            "type": "type_source",
            "value": "Original"
        },
        "18": {
            "type": "analyse",
            "value": "Jean (l\u2019Aveugle), roi de Boh\u00eame et de Pologne et comte de Luxembourg, fait savoir qu\u2019il a donn\u00e9 quittance aux comtes Guillaume (3) de Hainaut et Renaud (2) de Gueldre relativement au paiement d\u2019une somme de 9.000 florins royaux, valant 11.250 florins de Florence, dont ils s\u2019\u00e9taient port\u00e9s caution pour Louis (1), comte de Flandre, et que ledit Jean (l\u2019Aveugle) a destin\u00e9e comme suit : 6.000 florins \u00e0 ceux de Li\u00e8ge et de Huy ; 2.500 florins aux soldats de Neuss ; 636 florins au pr\u00eatre de Saint-Trond ; 200 florins \u00e0 Pourpart dou Sart ; 400 florins au m\u00eame comte de Hainaut, \u00e0 prendre sur la taille du bois de Raimes ; 1.324 florins \u00e0 Nicaise, chapelain de Jean (l\u2019Aveugle), pour les sommes que ce dernier a avanc\u00e9es au nom dudit Jean (l\u2019Aveugle) \u00e0 plusieurs endroits ; 190 florins \u00e0 nouveau audit Nicaise, cette somme devant lui \u00eatre rembours\u00e9 par Jean (l\u2019Aveugle) pour un pr\u00eat de 40.000 florins que ce dernier avait re\u00e7u."
        },
        "19": {
            "type": "transcription",
            "value": "<?xml version=\"1.0\" encoding=\"UTF-8\"?>\n\/01\/ Jehans, par le grace de Diu roys de Boeme, de Poulaine et cuens de Lussembourc, faisons savoir a tous ke, comme no chier cousin li conte de Haynnaut \/02\/ et de Gelre se soient envers nous obligiet et demouret plege pour no chier cousin le conte de Flandres en une somme de nuef mille florins \/03\/ royaus, qui valent onze mil deus cens et chinquante florins de Florence, a paiier au jour Saint Remi prochainement venant, \/04\/ lesquels nous avons assennes, et no cousin de Haynnaut et de Gelre les ont pour nous enconvent a rendre au jour devant dit \/05\/ as persones chi apries nommees, ch\u2019est a savoir a chiaus de Liege et de Huy sis mil florenches, item as saudoyiers de Nusse deus mil \/06\/ et chunc cens florenches, item au prestre no hoste de Saint Tron sis cens trente sis florenches, item a monseigneur Poupart dou Sart \/07\/ deus cens florenches, item ke nos dis cousins de Haynnaut nous a prestet, a prendre sour le taille des bos de Raymes, quatrecens \/08\/ florenches ; item ke nous avons assenet a monseigneur Nicaise no capellain, pour paiier en pluseurs lius pour nous ou nous li avons \/09\/ commandet, mil trois cens vint et quatre florenches, item li devons nous de prest qu\u2019il a paiiet deseure le somme des quarante \/10\/ mille florences qu\u2019il devoit, si comme il appert par nos autres lettres qui de chou font mention, cent quatrevins dis florenches, les \/11\/ quelles parties dessus dites montent le somme des nuef mille florins royaus dessudis ; nous parmi chou ke dit est, nous en tenons a sols \/12\/ et a paiies de nos dis cousins de Haynnaut et de Gelre, et les en quittons par le tiesmoing de ches lettres saiellees dou signet de notre secret. \/13\/ Donnees a Valenchienes, l\u2019an mil trois cens trente et quatre, le sezime jour dou moys de juing.\u2003\n"
        },
        "20": {
            "type": "remarques",
            "value": "-"
        },
        "21": {
            "type": "mention_hors_teneur",
            "value": "-"
        },
        "22": {
            "type": "regeste",
            "value": "F.-X. W\u00dcRTH-PAQUET, <i>Table chronologique des chartes et dipl\u00f4mes relatifs au r\u00e8gne de Jean, roi de Boh\u00eame et comte de Luxembourg<\/i>, in Publications de la Section historique, XX (1865), n\u00b0 1017, p. 11"
        },
        "23": {
            "type": "regeste",
            "value": "G. WYMANS, <i>Inventaire analytique du chartrier de la Tr\u00e9sorerie des comtes de Hainaut (Archives g\u00e9n\u00e9rales du Royaume et archives de l\u2019Etat dans les provinces. Archives de l\u2019Etat \u00e0 Mons, inv. 72)<\/i>, Bruxelles 1985, p. 149"
        },
        "24": {
            "type": "mention",
            "value": "J. DE SAINT-GENOIS, <i>Monuments anciens essentiellement utiles \u00e0 la France, aux Provinces de Hainaut, Flandre, Brabant, Namur, Artois, Li\u00e8ge, Hollande, Z\u00e9lande, Frise, Cologne et autres Pays limitrophes de l\u2019Empire<\/i>, t. 1, Paris 1782, p. 406"
        },
        "25": {
            "type": "sources_manuscrites",
            "value": "-",
            "children": {
                "type_source": "",
                "source_edition": ""
            }
        },
        "26": {
            "type": "responsable",
            "value": "Timothy Salemme"
        },
        "27": {
            "type": "acte_scelle",
            "value": "oui"
        },
        "28": {
            "type": "sceau",
            "value": "Petit sceau secret de Jean l\u2019Aveugle, \u00e0 l\u2019\u00e9cu \u00e9cartel\u00e9 aux 1 et 4 de Boh\u00eame et aux 2 et 3 de Luxembourg ; pench\u00e9, timbr\u00e9 d\u2019un heaume de profil \u00e0 volet, cim\u00e9 d\u2019un grand vol. Le champ est orn\u00e9 de rinceaux. L\u00e9gende : SECRET\u2019 [IOH\u2019 R]EG\u2019 B[OEM\u2019 ET] COM\u2019 LVC\u2019"
        },
        "29": {
            "type": "image_interne",
            "value": "http:\/\/telma-chartes.irht.cnrs.fr\/telma_img\/transscript\/transscript-681-1.jpg"
        },
        "30": {
            "type": "edition",
            "value": "J. VANN\u00c9RUS, <i>Les chartes luxembourgeoises conserv\u00e9es dans la Tr\u00e9sorerie des comtes de Hainaut aux Archives de l\u2019\u00c9tat \u00e0 Mons<\/i>, Annales de l\u2019Institut arch\u00e9ologique du Luxembourg, XXXVII (1902), n\u00b0 63, p. 180-181"
        },
        "31": {
            "type": "note_dorsale",
            "value": "\u00ab\u00a0Quittance des .IX<sup>m<\/sup>.\u00a0florins royals don mes(sire) de Haynut et mes(sire) de Gelre ont finet pour mons(seigneur) de Behangne as persones chi dedens contenues; desquels il raplegierent envers mons(eigneur) de Beh(angne) le conte de Flandres\u00a0\u00bb, XIV<sup>e<\/sup> s.\u00a0; \u00ab\u00a0XX\u00a0\u00bb, XV<sup>e<\/sup> s. ; \u00ab\u00a0Z 46\u00a0\u00bb, XVII<sup>e<\/sup>-XVIII<sup>e<\/sup> s.\u00a0; \u00ab\u00a01334\u00a0\u00bb, XVIII<sup>e<\/sup> s.\u00a0; \u00ab\u00a0511\u00a0\u00bb, XVIII<sup>e<\/sup> s.\u00a0; \u00ab\u00a0574\u00a0\u00bb, XX<sup>e<\/sup> s.\u00a0; \u00ab641\/2\u00bb, XX<sup>e<\/sup> s.  "
        },
        "32": {
            "type": "image_interne",
            "value": "http:\/\/telma-chartes.irht.cnrs.fr\/telma_img\/transscript\/transscript-DSC03996.JPG"
        }
    }
}