{
    "id": 26765,
    "name": "transscript-724",
    "type": "acte",
    "url": "http:\/\/telma-chartes.irht.cnrs.fr\/transscript\/notice\/26765",
    "project_slug": "transscript",
    "project_label": "TRANSSCRIPT",
    "user": "t_salemme",
    "last_update": "2020-10-19 16:28:04",
    "licence": "Attribution - Pas d\u2019Utilisation Commerciale - Partage dans les M\u00eames Conditions 3.0 France (CC BY-NC-SA 3.0 FR) ",
    "licence_url": "https:\/\/creativecommons.org\/licenses\/by-nc-sa\/3.0\/fr\/",
    "elements": {
        "0": {
            "type": "auteur",
            "value": "Henri (7), comte de Luxembourg et de la Roche et marquis d'Arlon"
        },
        "1": {
            "type": "beneficiaire",
            "value": "Abbaye cistercienne de Bonnevoie"
        },
        "2": {
            "type": "beneficiaire",
            "value": "Henri (7), comte de Luxembourg et de la Roche et marquis d'Arlon"
        },
        "3": {
            "type": "destinataire",
            "value": "-"
        },
        "4": {
            "type": "disposant",
            "value": "Henri (7), comte de Luxembourg et de la Roche et marquis d'Arlon"
        },
        "5": {
            "type": "disposant",
            "value": "Abbaye cistercienne de Bonnevoie"
        },
        "6": {
            "type": "date",
            "value": " 1298\/03\/28",
            "children": {
                "date_deb_jour": "28",
                "date_deb_mois": "03",
                "date_deb_annee": "1298"
            },
            "range": {
                "date_apres": 12980328,
                "date_avant": 12980328
            }
        },
        "7": {
            "type": "date_libre",
            "value": "-"
        },
        "8": {
            "type": "date_lieu",
            "value": "-"
        },
        "9": {
            "type": "cote",
            "value": "LUXEMBOURG, Luxembourg, Archives Nationales de Luxembourg, A-XXIV-09, n\u00b0 64"
        },
        "11": {
            "type": "description",
            "value": "Original sur parchemin (mm. 240 x 140; repli mm. 17) scell\u00e9 sur double queue de parchemin"
        },
        "12": {
            "type": "langue",
            "value": "latin"
        },
        "13": {
            "type": "authenticite",
            "value": "non suspect\u00e9"
        },
        "14": {
            "type": "genre",
            "value": "Lettre"
        },
        "15": {
            "type": "type_source",
            "value": "Original"
        },
        "16": {
            "type": "analyse",
            "value": "Henri (7), comte de Luxembourg et de la Roche, marquis d'Arlon, fait savoir que, d'une part, il a donn\u00e9 quittance au monast\u00e8re de Bonnevoie pour les rentes qu'il avait h\u00e9rit\u00e9es de ses anc\u00eatres en provenance de la ferme comtale de Kopstal; de l'autre, l'\u00e9tablissement a lui donn\u00e9 quittance pour les redevances sur le moulin de Deurvort et pour sa part de la neuvi\u00e8me de Cessange et de Hollerich. Pour cet \u00e9change, le comte s'engage pour une redevance  sur la neuvi\u00e8me de Cessange et de Hollerich."
        },
        "17": {
            "type": "transcription",
            "value": "<?xml version=\"1.0\" encoding=\"UTF-8\"?>\n\/01\/ Nous Henris, cuens de Luxembourch et de la Roche, marchis d'Erlons, faisons savoir a tous ke, comme il fust ensi ke nous \/02\/ deuissiens et fuissiens tenu de paier cascun an a l'abbeesse de Bonevoie et au couvent qutorze madres de fourment et dis \/03\/ madres d'avaine, a prendre et a rechevoir sour nostre grange de Copestal, dont elles avoient lettres de nos ancisseurs, et \/04\/ comme li dite abbeesse et li couvens nous deuissent ossi cascun an sis madres de soile et vint et set saus de Trevessiens \/05\/ a prendre et a rechevoir sour le nuef moulin de Deurvort, et nous devoient encore de nuevimes pour trente journauls \/06\/ de terre, pau plus pau mains, k'elles tienent de nous ou ban et ou terroit de Chiessenges et de Haldegrenges, ki montoit \/07\/ a trois madres de soile par an ; nous, par le consel de nos gens et pour bien avons quite et quitons a le dite abbeesse et au cou- \/08\/-vent tout ce k'elles nous devoient sour le devant dit moulin et ossi les trois madres de soile k'elles nous devoient de \/09\/ nuevime pour les trente journauls de terre si com dit est, parmi ce k'elles nous ont ossi quite les qutorse madres de four- \/10\/-ment et les dis madres d'avaine ke nous leur deviens sour nostre grange de Copestal si com devant est dit ; sauf ce, \/11\/ ke s'il avenoit ke li dite abbeesse et li couvens aqueroient aucuns eritages u on leur aumosnast ou dit terroit u ailleurs \/12\/ outre les trente journauls devant dis, nous ne leur quitons mie ne ne volons quiter k'elles ne soient tenues de paier a \/13\/ nous le nuevime tel com li eritages k'elles aroient aquis u c'on leur aroit aumosne seroit tenus de paier selonc l'usage \/14\/ dou pais. Et pour cest escange, nous avons ledite abbeesse et le couvent assenees a prendre cascun an sour nostre \/15\/ nuevime ke nous avons et devons avoir ou ban et ou terroit de Chiessenges et de Haldecrenges dis madres d'avaine; \/16\/ et s'il avenoit ke nous u nos gens de par nous vendissent u accensesissent nostre dit nuevime, nous volons et commandons \/17\/ ke chius ki l'acatera u accensira, fine et responde des dis madres d'avaine a le dite abbeesse et au couvent et en fachent \/18\/ a leur gre. Et toutes ces choses leur avons nous encouvent a tenir et a faire tenir fermement com sires. En tesmoingnage \/19\/ de laquel chose nous avons ces presentes lettres saielees de nostre propre saiel ; ki furent faites et donnees l'an de grasce \/20\/ mil deus cens qutrevins et diset, le venredi devant Paskes flories ou mois de march.\n"
        },
        "18": {
            "type": "remarques",
            "value": "-"
        },
        "19": {
            "type": "mention_hors_teneur",
            "value": "-"
        },
        "20": {
            "type": "note_dorsale",
            "value": "\u00ab\u00a0Pour lis dix maldres d'avoysne que le roy doibt a Bonnevoye\u00a0\u00bb, XVIII<sup>e<\/sup> s.\u00a0; \u00ab\u00a0N\u00b0 85\u00a0\u00bb, XVIII<sup>e<\/sup> s."
        },
        "21": {
            "type": "edition",
            "value": "N. VAN WERVEKE, <i>Urkundenbuch der Abtei Bonneweg<\/i>, Luxembourg, 1880, n\u00b0 66, p. 42-43"
        },
        "22": {
            "type": "edition",
            "value": "C. WAMPACH, <i>Urkunden- und Quellenbuch zur Geschichte der altluxemburgischen Territorien bis zur burgundischen Zeit<\/i>, t. VI, Luxembourg, 1949, n\u00b0 707, p. 161-163"
        },
        "23": {
            "type": "regeste",
            "value": "-"
        },
        "24": {
            "type": "mention",
            "value": "-"
        },
        "25": {
            "type": "sources_manuscrites",
            "value": "LUXEMBOURG, Luxembourg, Archives Nationales de Luxembourg, A-XXIV-09, n\u00b0 64 (Regeste du XVIII<sup>e<\/sup> s. sur papier cousu \u00e0 l'original)",
            "children": {
                "type_source": "n.c."
            }
        },
        "26": {
            "type": "responsable",
            "value": "Timothy Salemme"
        },
        "27": {
            "type": "acte_scelle",
            "value": "oui"
        },
        "28": {
            "type": "sceau",
            "value": "Fragment du sceau equestre du comte Henri (7), en cire rouge, restaur\u00e9\u00a0;il ne reste qu'une jambe du chevalier et la housse du cheval armori\u00e9e (burel\u00e9e au lion couronn\u00e9 \u00e0 la queue simple). L\u00e9gende du sceau perdue. Contre-sceau \u00e0 l'\u00e9cu burel\u00e9 au lion couronn\u00e9 \u00e0 la queue simple. L\u00e9gende du contre-sceau: + SIG[ILLVM] SECRETI N[OSTRI] ",
            "children": {
                "sigilla": ""
            }
        },
        "33": {
            "type": "image_interne",
            "value": "http:\/\/telma-chartes.irht.cnrs.fr\/telma_img\/transscript\/transscript-A-XXIV-064_0000000000.jpg"
        },
        "34": {
            "type": "image_interne",
            "value": "http:\/\/telma-chartes.irht.cnrs.fr\/telma_img\/transscript\/transscript-A-XXIV-064_0000000010.jpg"
        },
        "35": {
            "type": "image_interne",
            "value": "http:\/\/telma-chartes.irht.cnrs.fr\/telma_img\/transscript\/transscript-A-XXIV-064_0000000020.jpg"
        }
    }
}