{
    "id": 19705,
    "name": "transscript-336",
    "type": "acte",
    "url": "http:\/\/telma-chartes.irht.cnrs.fr\/transscript\/notice\/19705",
    "project_slug": "transscript",
    "project_label": "TRANSSCRIPT",
    "user": "D_Kirt",
    "last_update": "2020-10-19 16:26:41",
    "licence": "Attribution - Pas d\u2019Utilisation Commerciale - Partage dans les M\u00eames Conditions 3.0 France (CC BY-NC-SA 3.0 FR) ",
    "licence_url": "https:\/\/creativecommons.org\/licenses\/by-nc-sa\/3.0\/fr\/",
    "elements": [
        {
            "type": "auteur",
            "value": "Jean (l'Aveugle), roi de Boh\u00eame et comte de Luxembourg"
        },
        {
            "type": "beneficiaire",
            "value": "Marie d'Artois, comtesse de Namur"
        },
        {
            "type": "date",
            "value": " 1344\/10\/03",
            "children": {
                "date_deb_jour": "03",
                "date_deb_mois": "10",
                "date_deb_annee": "1344"
            },
            "range": {
                "date_apres": 13441003,
                "date_avant": 13441003
            }
        },
        {
            "type": "cote",
            "value": "BELGIQUE, Bruxelles, AGR, Chartes du Luxembourg N\u00b0 903"
        },
        {
            "type": "description",
            "value": "Transsumpt d'une charte non dat\u00e9e de Marie d'Artois."
        },
        {
            "type": "langue",
            "value": "fran\u00e7ais"
        },
        {
            "type": "authenticite",
            "value": "non suspect\u00e9"
        },
        {
            "type": "genre",
            "value": "Charte"
        },
        {
            "type": "type_source",
            "value": "n.c."
        },
        {
            "type": "analyse",
            "value": "Jean, roi de Boh\u00eame et comte de Luxembourg, ordonne \u00e0 Louis, Jacques et Arnaud d\u2019Agimont, \u00e0 Th\u00e9odoric de Haneffe, seigneur de Seraing, \u00e0 Wirich d\u2019Harz\u00e9e et \u00e0 Wautier de Juppleux d\u2019investir sa tante Marie d\u2019Artois des propri\u00e9t\u00e9s de Lomprez, Nassogne, S\u00e9ny, Terwagne, Villance, Vireux, Graide, Maissin, Haumez, Focant, Neuville et Martouzin qu\u2019ils avaient jadis achet\u00e9es en son nom \u00e0 Adolphe, \u00e9v\u00eaque de Li\u00e8ge."
        },
        {
            "type": "transcription",
            "value": "<?xml version=\"1.0\" encoding=\"UTF-8\"?>\n\/23\/ Jehans, par la grace de dieu roys de Boeme et contez de Luccembourch, a nous ames et feablez messire Lowy, messire Jake, messire Ernouls d'Agimont, freres, nos \/24\/ chiers cousins, messire Thiery de Haneffe, signour de Serain, messire Werry de Herzeez et messire Wautier de Juppleu, chevaliers, salut. Comme vous li cinq, li quatre, li trois ou li deus de vous ensemble par la vertu d'une procuration que de nous aveis eue, aiez rachateis pour nous et en nostre nom a reverent \/25\/ pere en Dieu Adolph, par la grace de Dieu evesques de Liege, nostre chier cousin, lez chasteaulz, forteresches, maisons, villez et terres de Lompreit, de Nassongne, de Seny, de Terwenne, de Villance, de Vyruel, des Graidez, de Meaussin, de Haumez, de Foucant, de Nuefville et de Martinuoisin \/26\/ avenc tout leur appartenances, lesquelz chasteauls, villez et biens entierement nous avons vendus a nostre chiere tante, madame Marie d'Artois , contesse de Namur, ensi que il appert par noz lettrez sur ce faitez, nous vous mandons et commandons par cez presentez ouvertez, saelleez de nostre sael, que vous li \/27\/ cinq, li quatre, li trois ou li deus de vous ensemble, pour nous et en nom de nous, et ensi que nos porriens faire, se nous y estiens present en aheriteis et en metteis nostre dite chiere tante ou celi ou ceauls quelle y commettera en possession et saisine corporelle et que lez hommez de fief dez dis \/28\/ chasteaulz, villes et terres, les quelz nous quittons de nostre hommage et feaute, quant ad ce faitez hommage et feaute a nostre dite chiere tante ou a celi ou a ceaulz quelle y commetter ou aura commis et en toutes autres manieres le faitez joijr des fruys de toutez choses et droiturez appartenans az dis chasteauls, \/29\/ villez et terrez selonc la tenure des lettrez dou vendaige, que nous li avons fait. Et est nostre entente, volons et declarons que des fruys, appartenans as dis chastealz, villez et terres, vous le faites joijr dou temps que li dis rachas avera este fait en avant. Et tout ce que dez chosez dessuditez fereis et averes fait, \/30\/ nous promettons et avons enconvent en bonne foys loyaulment pour nous, nos hoirs et successours a tenir ferme et estable sans faire ne venir encontre par nous ne par autruy en aucune maniere. Par le tesmoing de ces lettrez saelleez de nostre sael. Faites et donnees en l'an de grace mil trois cens quarante \/31\/ et quatre, le tier jour dou mois d'octobre.\n"
        },
        {
            "type": "edition",
            "value": "BERTHOLET, Jean: Histoire eccl\u00e9siastique et civile du Duch\u00e9 de Luxembourg et comt\u00e9 de Chiny, t. VI, Luxembourg 1743, Preuves p. LXIII-LXIV"
        },
        {
            "type": "edition",
            "value": "ESTGEN, Aloyse; PAULY, Michel; SCHROEDER, Jean; PETTIAU, H\u00e9rold (\u00e9d.): Urkunden- und Quellenbuch zur Geschichte der altluxemburgischen Territorien. Vol. XI: Die Urkunden Graf Johanns des Blinden (1310-1346). Partie 2: Die Urkunden aus den Archives G\u00e9n\u00e9rales du Royaume, Br\u00fcssel. Publications du CLUDEM, t. 22. Luxembourg 2009; N\u00b0 B.192"
        },
        {
            "type": "regeste",
            "value": "W\u00dcRTH-PAQUET, Fran\u00e7ois-Xavier: Table chronologique des chartes et dipl\u00f4mes relatifs \u00e0 l'histoire de l'ancien pays et duch\u00e9 de Luxembourg - R\u00e8gne de Jean, roi de Boh\u00eame et comte de Luxembourg 1310-1346, in: PSH 21 (1866), p. 1-100; N\u00b0 1695"
        },
        {
            "type": "regeste",
            "value": "VERKOOREN, Alphonse: Inventaire des chartes & cartulaires du Luxembourg (Comt\u00e9 puis Duch\u00e9), t. II, Bruxelles 1915, N\u00b0 901"
        },
        {
            "type": "responsable",
            "value": "David KIRT"
        },
        {
            "type": "acte_scelle",
            "value": "non",
            "children": {
                "sigilla": ""
            }
        },
        {
            "type": "image_interne",
            "value": "http:\/\/telma-chartes.irht.cnrs.fr\/telma_img\/transscript\/transscript-510_0023_000_00903_000_r.jpg"
        },
        {
            "type": "image_interne",
            "value": "http:\/\/telma-chartes.irht.cnrs.fr\/telma_img\/transscript\/transscript-510_0023_000_00903_000_v.jpg"
        }
    ]
}