{
    "id": 19751,
    "name": "transscript-363",
    "type": "acte",
    "url": "http:\/\/telma-chartes.irht.cnrs.fr\/transscript\/notice\/19751",
    "project_slug": "transscript",
    "project_label": "TRANSSCRIPT",
    "user": "h_pettiau",
    "last_update": "2020-10-19 16:26:41",
    "licence": "Attribution - Pas d\u2019Utilisation Commerciale - Partage dans les M\u00eames Conditions 3.0 France (CC BY-NC-SA 3.0 FR) ",
    "licence_url": "https:\/\/creativecommons.org\/licenses\/by-nc-sa\/3.0\/fr\/",
    "elements": {
        "0": {
            "type": "auteur",
            "value": "Guy, comte de Flandre et marquis de Namur"
        },
        "1": {
            "type": "auteur",
            "value": "Henri (5), comte de Luxembourg"
        },
        "2": {
            "type": "auteur",
            "value": "G\u00e9rard de Luxembourg, seigneur de Durbuy"
        },
        "3": {
            "type": "auteur",
            "value": "Jean, \u00e9v\u00eaque de Li\u00e8ge"
        },
        "4": {
            "type": "beneficiaire",
            "value": "non pr\u00e9cis\u00e9 (trait\u00e9)"
        },
        "5": {
            "type": "disposant",
            "value": "Guy, comte de Flandre et marquis de Namur"
        },
        "6": {
            "type": "disposant",
            "value": "Henri (5), comte de Luxembourg"
        },
        "7": {
            "type": "disposant",
            "value": "G\u00e9rard de Luxembourg, seigneur de Durbuy"
        },
        "8": {
            "type": "disposant",
            "value": "Jean, \u00e9v\u00eaque de Li\u00e8ge"
        },
        "9": {
            "type": "date",
            "value": " 1278\/04\/05",
            "children": {
                "date_deb_jour": "05",
                "date_deb_mois": "04",
                "date_deb_annee": "1278"
            },
            "range": {
                "date_apres": 12780405,
                "date_avant": 12780405
            }
        },
        "10": {
            "type": "date_lieu",
            "value": "Abbaye de Bonne Esp\u00e9rance"
        },
        "11": {
            "type": "cote",
            "value": "France, Lille, Archives d\u00e9partementales du Nord, Chambre des Comptes, B 232, No 2001"
        },
        "16": {
            "type": "description",
            "value": "Copie sur parchemin, non scell\u00e9, dimensions\u00a0: 325 mm x 440\/435 mm\n"
        },
        "17": {
            "type": "langue",
            "value": "fran\u00e7ais"
        },
        "18": {
            "type": "authenticite",
            "value": "non suspect\u00e9"
        },
        "19": {
            "type": "genre",
            "value": "Charte"
        },
        "20": {
            "type": "type_source",
            "value": "Copie"
        },
        "21": {
            "type": "analyse",
            "value": "Guy, comte de Flandre et marquis de Namur, Henri (5) comte de Luxembourg, G\u00e9rard de Luxembourg, seigneur de Durbuy et Jean, \u00e9v\u00eaque de Li\u00e8ge d\u00e9signent \u00e0 la demande de Philippe (3) roi de France, et en pr\u00e9sence de ses envoy\u00e9s, des arbitres pour r\u00e9gler le conflit qui oppose les trois premiers \u00e0 l\u2019\u00e9v\u00eaque de Li\u00e8ge. Ils devront apporter \u00e0 l\u2019abbaye de Bonne Esp\u00e9rance \u00e0 la Saint Jean-Baptiste prochaine\u00a0: En cas de d\u00e9saccord entre les arbitres, Gobert d\u2019Aspremont, repr\u00e9sentant du roi de France est d\u00e9sign\u00e9 pour arbitrer. S\u2019il n\u2019y a toujours pas d\u2019accord apr\u00e8s la Saint-Jean, un nouveau rendez-vous sera fix\u00e9 dans le m\u00eame lieu le 15 ao\u00fbt prochain, en pr\u00e9sence des parties.",
            "children": {
                "commentaire": "les arbitres d\u00e9sign\u00e9s par les parties sont d\u00e9nomm\u00e9s \"enquereurs\"\/enqu\u00eateurs. Ils doivent rapporter \u00e0 Bonne-Esp\u00e9rance le r\u00e9sultat de leurs enqu\u00eates. "
            }
        },
        "22": {
            "type": "transcription",
            "value": "<?xml version=\"1.0\" encoding=\"UTF-8\"?>\nNous, Guis, cuens de Flandres et marchis de Namur, Henris, cuens de Luxcelbourg et Geras de Luxcelbourg, sires de Durbui et nous Jehans, par la grace de Diu,  evesques de Liege, faisons savoir a tous ceaus ki ces lettres verront et oront, ke comme descors et guerre aient esteit entre nous conte de Flandres, conte de Luxcelbourg, conte  de laroche et Gerart de Luxcelbourg, signeur de Durbui, d'une part, et nous evesques de Liege devant dit, d'autre part, sur le queil descort et sur la queile guerre triwes  ont esteit prises pluseurs fois a la requeste de tres haut et excellent signeur Philippon, par la grace de Diu roi de France, et il li rois sen soit maintes fois entre mis,  et par lui et par ses gens de la pais a faire entre nous parties, au derrains en la presence de frere Ernout de Wizemale, del ordene dou Temple et maistre  Wautier de Chembli, archidiacre de Meaus, message le roi, envoiet especiaument de par lui pour la pais moevoir et faire sur ces cozes, nous cuens de Flandres,  jou cuens de Luxcelbourg, pour mi et pour mon fil Henri, conte de la Roche devant nommei, et jou Gerars de Luxcelbourg, sires de Durbui, dune part,  et nous Jehans, par le grace de Diu evesques de Liege, dautre part, somes accordei ensi, par nostres esponges volonteis, ke nous li cuens de Flandres et nostre partie,  si comme dit est, avons pris pour nous et pour nostre partie disceit houme Pieron, prevost de la eglize de Bethune et mon signeur Gerart de Daules; et nous  li evesques de Liege avons pris pour nous et pour nostre partie monsigneur Wauthier Bertaut de Malines, le pere, et Willaume de Pytresem, canone de Liege;  en teil maniere\u00b7ke cil quatre ont jureit sur saintes ewangiles kil enquerront bien et loaument et pour dune partie et pour lautre sur ces descors et sur la grace  de la meute, et dou commencement jusques a le fin, et de damages fais dedens triwes et dehors triwes, et d'une part et d'autre. Et quant il aront tout chou enquis,  il le raporteront a Bone Esperance a lendemain de le Saint Jehan Baptiste ki vint procainement ces coses enquises. E s'il se peuwent acorder tout quatre de dire leur dit  adont, selon chou qu'il aront enquis, il le diront en la presence de nous parties ki adont i devons estre par nous ou par procureurs a ce suffisaument  ordeneis, et trestout primierement sur les damages fais dedens triwes, et tantost apres, a celi mime journee, dou principal dont la guerre est meute  et de trestous autres damages fais hors triwes et de toutes coses autres ki sont avenues pour J'ocoison des descors et de la guerre devant dite.  Et sil ne se peulent acordeir tout quatre en Ieur dit sur toutes coses, toutes voies, cou kil acorderont ou diront par acort sera acordeit et demora  estaible; et s'il ne se peulent acordeir en tout ou en partie, li rois de France deseure dit, par le conscent et lotroi de ambedeus les parties, a donnei le quint,  c'est a savoir mon signeur Gobert d'Aspremont, liqueils a jurei sur saintes ewengiles k'il, en bonnc foi et en bonne loauteit, quant il ara veu chou en quoi  cil quatre enquereur se descorderont, il les acordera a son poir, et s'il ne les peut acordeir, \u00e7ou k'il en dira de ces coses en queiles eil quatre seront  descordant, avec mon signeur Bertaut et Willeaume de Pyetresem ou avec le provost de Bethune et mon signeur Gerart de Daules devant dis ou  avec le plus grant partie des quatre, ce sera tenut fernement de l'une partie et de l'autre et demora tout estaule a tous jours. Et est a savoir ke sour chou  de quoi me sires Gobers d'Aspremont ne pora acordeir les autre enquerreurs devant dis, a lendemain de le saint Jehan devant dit, il s' en doit acordeir  avec les deus enquerreurs de l'une partie pris ou avec les autresis deus, pris de l'autre partie; et en doit dire sen dit, avec les uns deus ou avec  les autres deus enquerreurs ou avec le plus grant partie des autre enquerreurs devant dis, lendemain de le feste Nostre Dame, en mi aoust procain  a venir, a Bone Esperance, et en la presence de nous parties ki adont i devons estre ou par nous ou par procureurs suffisans de par  nous. Et nous cuens de Flandres, jou cuens de Luxcelbourg, pour mi et pour Henri, mon fil, et jou Gerars de Luxcellebourg devant dit,  dune part, et nous evesques de Liege deseur nommei, d'autre part, avons jurei sur les saintes ewengiles a tenir fermement sans jamais  enfraindre, et a wardeir et acomplir en bone foi et en bonc loaltei quan ke eil quatre devant dit diront tout ensemble, par commun acort, de  toutes ces coses ou coses ou ke me sires Gobers d' Aspremont dira avec les deus enquerreurs pris d'une part ou avec les autres deus pris d'autre  part ou avec le plus grant partie des autre enquerreurs deseure nommeis. Et si est a savoir ke parmi ceste ordenance ki est accordee entre  nous parties devant dites, il est bone pais et ferme de maintenant a tous jours de la guerre et des descors deseure dis. Et nous Guis,  cuens de Flandres, et jou, Henri, cuens de Luxcelbourg, pour mi et pour Henri mon fil, conte de la Roche, et jou Gerars de Luxcelbourg, sires de  Durbui devant nommei, avons juree ceste pais sur saintes ewangiles, et le prometons par nostre serment devant dit pour nous et pour  nous aideurs a tenir et a wardeir et faire gardeir bien et loaument et en bone foi a nostre poir a l'evesque de Liege devant dit  et a tous ses aideurs, ne jamais pour ocoison de ces coses ne a unes d'eles ne aucune, nous \u00b7n'arons content ne descort, ne guerre  no ne moverons a lui ne au siens. Et nous Jehans, par le grace de Diu, evesques de Liege, pour nous et nos aideurs, avons en  autre teile maniere juree la pais devant dite, et le prometons par nostre serment devant dit pour nous et pour nous aideurs,  a tenir, a gardeir ou a faire gardeir, bien et loaument en bonne foi, a nostre poir, au conte de Flandres, au conte de  Luxelbourg, au signeur de Durbui et a mon signeur Henri, conte de la Roche devant dit et a leur aideurs. Et pour ce ke ce  soit ferme cose et estauble, nous Guis, cuens de Flandres, jou Henri, cuens de Luxcelbourg, pour mi et pour Henri, mon  fil, conte de la Roche jou Gerars de Luxcelbourg, sire deDurbui, et nous Jehans, par le grace de Diu evesques de Liege,  deseure dit, ;avons pendus nous saiaus a ces presentes lettres. Ce fu fait a Bone Esperance, en l'an del incarnation  mil deus cens soissante dis et set, ou mois d'avril, le mardi devant Paskes flories.\n"
        },
        "23": {
            "type": "remarques",
            "value": "Original perdu; copie sur parchemin aux AD Nord \u00e0 Lille. Les regestes de Godefroy et Saint-G\u00e9nois sont de l'original; ceux de Reiffenberg et Poncelet, de la copie. "
        },
        "24": {
            "type": "note_dorsale",
            "value": "Cop.\n\nCest li transcris dele pais de Liege \n"
        },
        "25": {
            "type": "edition",
            "value": "C. WAMPACH, Urkunden- und Quellenbuch zur Geschichte der altluxemburgischen Territorien bis zur burgundischen Zeit, IV, Luxembourg 1939, n\u00b0 442, p. 547-550"
        },
        "26": {
            "type": "regeste",
            "value": "D.J. GODEFROY, Inventaire des archives de la Chambre des Compte, III, no 2001"
        },
        "27": {
            "type": "mention",
            "value": "S.p. ERNST, , Histoire du Limbourg suivie de celle des comt\u00e9s de Daelhem et de Fauquemont, des annales de l'abbaye de Rolduc, IV, Li\u00e8ge 1839, p. 89"
        },
        "28": {
            "type": "responsable",
            "value": "H\u00e9rold Pettiau"
        },
        "29": {
            "type": "image_interne",
            "value": "http:\/\/telma-chartes.irht.cnrs.fr\/telma_img\/transscript\/transscript-DSC06812.JPG",
            "children": {
                "commentaire": "Recto"
            }
        },
        "30": {
            "type": "acte_scelle",
            "value": "non",
            "children": {
                "sigilla": ""
            }
        },
        "31": {
            "type": "regeste",
            "value": "J. de SAINT-GENOIS, Monuments anciens, essentiellement utiles \u00e0 la France, aux provinces de Hainaut, Flandre, Brabant, Namur [\u2026] et autres pays limitrophes de l'Empire, Bruxelles, 1804-1806, I,2, p. 664"
        },
        "32": {
            "type": "regeste",
            "value": "E. PONCELET, \"La guere dite \" de la vache de Ciney \"\", dans Bulletin de la Commission Royale, s\u00e9rie 5, vol. 3 (1893), p. 275",
            "children": {
                "commentaire": "V\u00e9rifier s'il s'agit bien d'un regeste ou d'une \u00e9dition !"
            }
        },
        "33": {
            "type": "edition",
            "value": "Baron de REIFFENBERG, Monuments pour servir \u00e0 l'histoire des provinces de Namur, de Hainaut et de Luxembourg, I, Bruxelles 1844, p. 14-16"
        },
        "35": {
            "type": "mention",
            "value": "F.-X. W\u00dcRTH-PAQUET, Table chronologique des chartes et dipl\u00f4mes relatifs \u00e0 l'histoire de l'ancien pays et duch\u00e9 de Luxembourg - R\u00e8gne de Henri II 1246-1281, in PSH 15 (1860), no 560, p. 153 (sous 1277)"
        }
    }
}