{
    "id": 26799,
    "name": "transscript-736",
    "type": "acte",
    "url": "http:\/\/telma-chartes.irht.cnrs.fr\/transscript\/notice\/26799",
    "project_slug": "transscript",
    "project_label": "TRANSSCRIPT",
    "user": "l_gili",
    "last_update": "2020-10-19 16:28:05",
    "licence": "Attribution - Pas d\u2019Utilisation Commerciale - Partage dans les M\u00eames Conditions 3.0 France (CC BY-NC-SA 3.0 FR) ",
    "licence_url": "https:\/\/creativecommons.org\/licenses\/by-nc-sa\/3.0\/fr\/",
    "elements": {
        "0": {
            "type": "auteur",
            "value": "Jacques, doyen, le chapitre de Toul"
        },
        "1": {
            "type": "auteur",
            "value": "Huart de Misembourg, archidiacre"
        },
        "2": {
            "type": "auteur",
            "value": "Wautier, chantre"
        },
        "3": {
            "type": "auteur",
            "value": "Officiaux de la cour de Toul"
        },
        "4": {
            "type": "beneficiaire",
            "value": "Thi\u00e9baut (2), duc de Lorraine et marquis "
        },
        "5": {
            "type": "destinataire",
            "value": "-"
        },
        "6": {
            "type": "disposant",
            "value": "Ferry (3), duc de Lorraine et marquis"
        },
        "7": {
            "type": "date",
            "value": " 1278\/05\/23",
            "children": {
                "date_deb_jour": "23",
                "date_deb_mois": "05",
                "date_deb_annee": "1278"
            },
            "range": {
                "date_apres": 12780523,
                "date_avant": 12780523
            }
        },
        "8": {
            "type": "date_lieu",
            "value": "-"
        },
        "9": {
            "type": "cote",
            "value": "FRANCE, Nancy, Archives d\u00e9partementales de Meurthe et Moselle, B 821 n\u00b0 3"
        },
        "11": {
            "type": "description",
            "value": "Original sur parchemin, scell\u00e9 de quatre sceaux sur double queue de parchemin"
        },
        "12": {
            "type": "langue",
            "value": "fran\u00e7ais"
        },
        "13": {
            "type": "authenticite",
            "value": "non suspect\u00e9"
        },
        "14": {
            "type": "genre",
            "value": "Lettre"
        },
        "15": {
            "type": "type_source",
            "value": "Original"
        },
        "16": {
            "type": "analyse",
            "value": "Jacques, doyen, le chapitre de Toul, Huart de Misembourg, archidiacre, Wautier, chantre, et les officiaux de la cour de Toul, d\u00e9clarent qu\u2019en leur pr\u00e9sence, Ferry, duc de Lorraine, a mis hors de mainbournie, son fils a\u00een\u00e9 Thi\u00e9baut."
        },
        "17": {
            "type": "transcription",
            "value": "<?xml version=\"1.0\" encoding=\"UTF-8\"?>\n\/01\/ Nos Jaiques, daiens, et li chapitres de l\u2019englise de Toul, nos Huars de Mysemborc, arcediaicres en icelle \/02\/ englise, nos Wautiers, chantres d\u2019icelle englise, et nos officiaus de la curt de Toul faisons savoir a \/03\/ touz que nobles homz Ferriz dux de Lorraingne et marchys ai mis par davant nos hors de sa \/04\/ mainburnie Thyebaut son ainnei fil a la requeste dou davant dit Thyebaut. En tesmoingnaige de la \/05\/ quel chose por ce que ferme soit et estauble nos avons mis noz seels en ces presantes letres \/06\/ a la requeste des davant diz duc et Thyebaut son fil ; et fu faite ceste chose chapitre sonei, \/07\/ le siege de toul vacant, l\u2019an de grace mil doucenz sexante dix et huit ans ou mois de \/08\/ may, le lundi davant l\u2019ascension Nostre Signor.\n"
        },
        "18": {
            "type": "mention_hors_teneur",
            "value": "-"
        },
        "19": {
            "type": "note_dorsale",
            "value": "(Pas de photo disponible du verso). "
        },
        "20": {
            "type": "edition",
            "value": "-"
        },
        "21": {
            "type": "regeste",
            "value": "J. DE PANGE, <i>Catalogue des actes de Ferri III, duc de Lorraine (1251-1303)<\/i>, Paris, 1930, 285 p. + <i>Table des noms de personnes et des noms de lieux contenus dans le catalogue<\/i> (p. I-XXIX), n\u00b0 586, p. 114"
        },
        "22": {
            "type": "regeste",
            "value": "A.-M. MARIONNET, <i>Catalogue des actes de Thi\u00e9baut II, duc de Lorraine (1303-1312) <\/i>, (dipl\u00f4me d\u2019\u00e9tudes sup\u00e9rieures de l\u2019Universit\u00e9 Nancy II) Nancy [1947], n\u00b0 5"
        },
        "23": {
            "type": "mention",
            "value": "-"
        },
        "24": {
            "type": "sources_manuscrites",
            "value": "-",
            "children": {
                "type_source": "",
                "source_edition": ""
            }
        },
        "25": {
            "type": "responsable",
            "value": "Laura Gili-Th\u00e9baudeau"
        },
        "26": {
            "type": "acte_scelle",
            "value": "oui"
        },
        "27": {
            "type": "sceau",
            "value": "Quatre sceaux sur double queue de parchemin",
            "children": {
                "sigilla": ""
            }
        },
        "28": {
            "type": "image_interne",
            "value": "http:\/\/telma-chartes.irht.cnrs.fr\/telma_img\/transscript\/transscript-FRAD054_B821_3r.JPG"
        },
        "29": {
            "type": "image_interne",
            "value": "http:\/\/telma-chartes.irht.cnrs.fr\/telma_img\/transscript\/transscript-FRAD054_B821_3s1.JPG"
        },
        "30": {
            "type": "image_interne",
            "value": "http:\/\/telma-chartes.irht.cnrs.fr\/telma_img\/transscript\/transscript-FRAD054_B821_3s2.JPG"
        },
        "31": {
            "type": "image_interne",
            "value": "http:\/\/telma-chartes.irht.cnrs.fr\/telma_img\/transscript\/transscript-FRAD054_B821_3s3.JPG"
        },
        "32": {
            "type": "image_interne",
            "value": "http:\/\/telma-chartes.irht.cnrs.fr\/telma_img\/transscript\/transscript-FRAD054_B821_3s4.JPG"
        },
        "33": {
            "type": "image_interne",
            "value": "http:\/\/telma-chartes.irht.cnrs.fr\/telma_img\/transscript\/transscript-FRAD054_B821_3s5.JPG"
        },
        "34": {
            "type": "image_interne",
            "value": "http:\/\/telma-chartes.irht.cnrs.fr\/telma_img\/transscript\/transscript-FRAD054_B821_3cs1.JPG"
        },
        "35": {
            "type": "image_interne",
            "value": "http:\/\/telma-chartes.irht.cnrs.fr\/telma_img\/transscript\/transscript-FRAD054_B821_3cs2.JPG"
        },
        "36": {
            "type": "image_interne",
            "value": "http:\/\/telma-chartes.irht.cnrs.fr\/telma_img\/transscript\/transscript-FRAD054_B821_3cs3.JPG"
        },
        "37": {
            "type": "image_interne",
            "value": "http:\/\/telma-chartes.irht.cnrs.fr\/telma_img\/transscript\/transscript-FRAD054_B821_3cs4.JPG"
        },
        "38": {
            "type": "image_interne",
            "value": "http:\/\/telma-chartes.irht.cnrs.fr\/telma_img\/transscript\/transscript-FRAD054_B821_3cs5.JPG"
        }
    }
}