{
    "id": 165,
    "name": "transscript-96",
    "type": "acte",
    "url": "http:\/\/telma-chartes.irht.cnrs.fr\/transscript\/notice\/165",
    "project_slug": "transscript",
    "project_label": "TRANSSCRIPT",
    "user": "l_gili",
    "last_update": "2020-10-19 16:24:53",
    "licence": "Attribution - Pas d\u2019Utilisation Commerciale - Partage dans les M\u00eames Conditions 3.0 France (CC BY-NC-SA 3.0 FR) ",
    "licence_url": "https:\/\/creativecommons.org\/licenses\/by-nc-sa\/3.0\/fr\/",
    "elements": {
        "0": {
            "type": "analyse",
            "value": "Vidimus des officiaux de la cour de Toul de l'acte par lequel Ferry, fils du duc Ferry (3), notifie avoir vendu au chapitre de cette ville ce qu'il poss\u00e9dait sur les terres dont il avait des droits \u00e0 Bulligny : le droit de faire p\u00e2tre les b\u00eates sur les champs dont la r\u00e9colte \u00e9tait enlev\u00e9e (bann(um) et l'\u00e9tendue de territoire qu'il avait en possession (finagium) au prix de deux cent cinquante livres de petits toulois. Pour que l'action juridique ait plus de garanties, des fid\u00e9jusseurs ont \u00e9t\u00e9 constitu\u00e9s."
        },
        "1": {
            "type": "beneficiaire",
            "value": "Chapitre cath\u00e9dral de Toul"
        },
        "2": {
            "type": "destinataire",
            "value": "Chapitre cath\u00e9dral de Toul"
        },
        "3": {
            "type": "disposant",
            "value": "Ferry, chanoine du chapitre de Toul, fils de Ferry (3), duc de Lorraine et marquis"
        },
        "4": {
            "type": "authenticite",
            "value": "non suspect\u00e9"
        },
        "5": {
            "type": "cote",
            "value": "FRANCE, Nancy, Archives d\u00e9partementales de Meurthe-et-Moselle, G 18 (2)",
            "children": {
                "commentaire": "L\u2019acte copi\u00e9 dans AD 54 2 F 5 f. 44v semblerait \u00eatre li\u00e9 \u00e0 cet acte. Voir transscript-86 : \n\u00ab \/01\/ Nous Ferris, dus de Lohrenne et marchis, faisons savoir a tous que com nous \/02\/ a\u00efens donei ce que nous aviens a Bulleney et ou ban de ladite ville en tou-\/03\/-tes choses a nostre chier fil Ferri, grant prevost de Saint Diey, et nostres ameis \/04\/ filz ait vendue ladite terre toute que nous li aviens donee aus signours dou chapistre \/05\/ de Saint Estene de Toul que nous lou dit vendage creantons et nous i aconsentons \/06\/ et promettons par nostre foy donee corporelement et par sairement que nous ne no-\/07\/-stre hoir ne poons aller contre lou dit vendaige en tout ne en partie par nous ne \/08\/ par autrui. En tesmoignaige de ceste choze en avons donees ces lettres saelees de nostre \/09\/ sael que furent faites l'an de grace mil dous cens quatre vins et deixans ou mois \/10\/ de julet lou lundi prochien apr\u00e8s feste saint Piere saint Paul. \u00bb\n"
            }
        },
        "6": {
            "type": "responsable",
            "value": "Laura Gili-Th\u00e9baudeau"
        },
        "7": {
            "type": "date",
            "value": "apres 1290\/07\/00 - avant 1291\/10\/20",
            "children": {
                "date_deb_annee": "1290",
                "date_deb_mois": "07",
                "date_deb_type": "apres",
                "date_deb_jour": "00",
                "date_fin_type": "avant",
                "date_fin_annee": "1291",
                "date_fin_mois": "10",
                "date_fin_jour": "20"
            },
            "range": {
                "date_apres": 12900700,
                "date_avant": 12911020
            }
        },
        "9": {
            "type": "regeste",
            "value": "J. DE PANGE, <i>Catalogue des actes de Ferri III, duc de Lorraine (1251-1303) <\/i>, Paris, 1930, 285 p. + <i>Table des noms de personnes et des noms de lieux contenus dans le catalogue<\/i> (p. I-XXIX), n\u00b0 941, p. 183"
        },
        "10": {
            "type": "langue",
            "value": "latin"
        },
        "11": {
            "type": "sources_manuscrites",
            "value": "Original perdu (?)"
        },
        "12": {
            "type": "sources_manuscrites",
            "value": "FRANCE, Nancy, Archives d\u00e9partementales de Meurthe-et-Moselle, G 18 (2)",
            "children": {
                "type_source": "Vidimus"
            }
        },
        "13": {
            "type": "sources_manuscrites",
            "value": "FRANCE, Nancy, Archives d\u00e9partementales de Meurthe-et-Moselle, G 18 (1) (vidimus de deux actes : en latin et en fran\u00e7ais)",
            "children": {
                "type_source": "Vidimus"
            }
        },
        "14": {
            "type": "sources_manuscrites",
            "value": "FRANCE, Nancy, Archives d\u00e9partementales de Meurthe-et-Moselle, 2 F 5 f\u00b0 44v",
            "children": {
                "type_source": "Cartulaire"
            }
        },
        "15": {
            "type": "transcription",
            "value": "<?xml version=\"1.0\" encoding=\"UTF-8\"?>\n\/01\/ Nos officiales curie Tullensis notum facimus universis presentes litteras inspecturis et audituris quod nos anno Domini \/02\/ millesimo CC\u00b0 nonagesimo primo, sabbato post festum beati Luce evangeliste, vidimus et diligenter legimus et tenuimus litteras \/03\/ infrascriptas sanas et integras, non cancellatas, non abolitas, non rasas, nec in aliqua parte sui viciatas tenor quarum \/04\/ talis est : Universis presentes litteras inspecturis Ferricus, natus nobilis viri Ferrici, ducis Lothoringie et marchionis, \/05\/ prepositus ecclesie Sancti Deodati Tullensis dyocesis et canonicus Tullensis ecclesie, salutem in Domino. Noverint universi quod nos quicquid habe-\/06\/-bamus unquam habuimus, habere potuimus ex quacumque causa vel titulo ac omne id de quo fuimus in possessione \/07\/ ante tempus confectionis presentium habendi et percipiendi in villa banno et finagio de Beligneyo prope castrum de \/08\/ Blenodio, Tullensis dyocesis, in omni usu, proagio et profectu vendidimus viris venerabilis et discretis decano et capitulo ecclesie Tullensis \/09\/ habendi, tenendi et percipiendi ab eisdem seu eorum mandato in perpetuum absque omnia calumpnia pro ducentis et quinquaginta \/10\/ libris turonensium parvorum de qua pecunie summa confitemur nos plenariam satisfacionem recepisse in pecunia numerata \/11\/ ob causam premissam. Renuntiantes expresse et per juramentum super hoc a nobis corporaliter prestitum necnon per pactum \/12\/ sollempne exceptioni non numerate ob predictam causam pecunie, doli, fraudis, deceptionis ultra dimidiam justi pretii, \/13\/ necnon omnibus aliis rationibus et deffensionibus juris et facti que nobis in hoc casu possent prodesse et dictis venerabilibus \/14\/ viris seu ecclesie Tullensis obesse et specialiter juri introducto ad hoc quod generalis renuntiatio non valeat promittentes nos \/15\/ super premissis legitimam garantiam portatur erga omnes dictis viris venerabilibus decano et capitulo Tullensis ecclesie et ecclesie \/16\/ Tullensis antedicte personam quia nostram et universa bona nostra ubicumque et in quibuscumque consistant specialiter obligando \/17\/ et ad majorem securitatem de garantia super premissis portanda habendam ex parte nostra erga dictos viros venerabiles \/18\/ et ecclesiam Tullensis antedictam constituimus et constituerunt se fidejussores infrascriptos, videlicet viros venerabiles Joffridum de Vitello \/19\/ de saxaginta libris dicte monete ac Johannem de Vozago, archidiaconos, de quatraviginti libris, Johannem de Borlemonte \/20\/ de viginti quinque, Stephanum, dictum de Mollans, canonicos in ecclesia Tullensis, de viginti quinque libris ejusdem monete ac Ascelinum, \/21\/ dictum cornerium de Tullo, clericum, de sexaginta libris dicte monete. Et nos Joffridus ac Johannes, archidyaconi predicti, \/22\/ Johannes et Stephanus, canonici in ecclesia Tullensis, predicti homis dicte fidejussonis in nos suscipientes sigilla nostra presentibus \/23\/ in testimonium hujus rei duximus apponenda. Ego vero Acelinus predictus in testimonium obligationis premisse quam in \/24\/ me suscepi sigillum curie Tullensis presentibus apponi supplicam. Et nos Ferricus, prepositus predictus, ad omnia pre\/25\/missa firmius nos astringentes sigillum nostrum similiter presentibus duximus apponendum in testimonium veri\/26\/tatis omnium premissorum unacum sigillo curie Tullensis. Et nos officialis curie Tullensis ad rogatum et supplicationem \/27\/ dicti Ascelinii in quantum premissa ipsum tangunt sigillum curie Tullensis presentibus duximus appendendum in testi\/28\/monium veritatis. Actum et datum anno Domini M\u00b0 CC\u00b0 nonagesimo, mense julii. Datum sub sigillo curie Tullensis die et \/29\/ anno predictis.\n"
        },
        "16": {
            "type": "type_source",
            "value": "Vidimus"
        },
        "17": {
            "type": "acte_scelle",
            "value": "non"
        },
        "18": {
            "type": "id_telma",
            "value": "630265"
        },
        "19": {
            "type": "image_interne",
            "value": "http:\/\/telma-chartes.irht.cnrs.fr\/telma_img\/transscript\/FRAD054_G18(2)r.JPG"
        },
        "20": {
            "type": "image_interne",
            "value": "http:\/\/telma-chartes.irht.cnrs.fr\/telma_img\/transscript\/FRAD054_G18(2)v.JPG"
        },
        "21": {
            "type": "auteur",
            "value": "Ferry, chanoine de la cath\u00e9drale de Toul, fils de Ferry (3)",
            "children": {
                "commentaire": "Auteur de l\u2019acte vidim\u00e9. "
            }
        },
        "22": {
            "type": "sceau",
            "value": "sceau sur double queue, perdu"
        },
        "23": {
            "type": "remarques",
            "value": "Dans le recto du parchemin, il y a des notes archivistiques : \u00ab Juillet 1290 \u00bb, XIV<sup>e<\/sup>- XV<sup>e<\/sup> s. ; \u00ab 6e ... \u00bb, XVII<sup>e<\/sup>- XVIII<sup>e<\/sup> s. ; \u00ab Bulligny liasse Ire N\u00b0 2 \u00bb, XVIII<sup>e<\/sup> - XIX<sup>e<\/sup> s. ; \u00ab Seigneurie \u00bb, XVIII<sup>e<\/sup> - XIX<sup>e<\/sup> s. Normalement, ce type de notes sont plac\u00e9es dans le verso. "
        },
        "24": {
            "type": "note_dorsale",
            "value": "\u00ab Littera de Bullynej \u00bb, XIV<sup>e<\/sup> s., \u00e0 la fin de ce toponyme, un ajout d\u2019une autre main, peut-\u00eatre toujours du XIV<sup>e<\/sup> s. : \u00ab o \u00bb et \u00ab sive \/ vidimus \u00bb ; \u00ab vendicionis ... sus (lecture incertaine) \/ domini \/ ducis \u00bb, XIV<sup>e<\/sup> s. ; \u00ab R(egistrata) IIII<sup>c<\/sup> XXIIII \u00bb, en rouge, XVI<sup>e<\/sup> s. ; \u00ab e \u00bb ; \u00ab 1290 \u00bb, XV<sup>e<\/sup> s., et, d\u2019une autre encre, \u00ab in mense julio \u00bb, XVIII<sup>e<\/sup> s. \u00ab # \u00bb. "
        },
        "25": {
            "type": "description",
            "value": "Original sur parchemin (530 x 380 mm)"
        },
        "26": {
            "type": "regeste",
            "value": "FRANCE, Paris, Biblioth\u00e8que nationale de France, Collection de Lorraine, vol. 1, f\u00b0 12v et 21v"
        }
    }
}