{
    "id": 26749,
    "name": "transscript-716",
    "type": "acte",
    "url": "http:\/\/telma-chartes.irht.cnrs.fr\/transscript\/notice\/26749",
    "project_slug": "transscript",
    "project_label": "TRANSSCRIPT",
    "user": "t_salemme",
    "last_update": "2020-10-19 16:28:04",
    "licence": "Attribution - Pas d\u2019Utilisation Commerciale - Partage dans les M\u00eames Conditions 3.0 France (CC BY-NC-SA 3.0 FR) ",
    "licence_url": "https:\/\/creativecommons.org\/licenses\/by-nc-sa\/3.0\/fr\/",
    "elements": {
        "0": {
            "type": "auteur",
            "value": "Henri (5), comte de Luxembourg et de la Roche, marquis d'Arlon"
        },
        "1": {
            "type": "beneficiaire",
            "value": "Abbaye cistercienne de Bonnevoie"
        },
        "2": {
            "type": "destinataire",
            "value": "-"
        },
        "3": {
            "type": "disposant",
            "value": "Anselme de  Sentzich, chevalier"
        },
        "4": {
            "type": "date",
            "value": " 1257\/00\/00",
            "children": {
                "date_deb_jour": "00",
                "date_deb_mois": "00",
                "date_deb_annee": "1257"
            },
            "range": {
                "date_apres": 12570000,
                "date_avant": 12579999
            }
        },
        "5": {
            "type": "date_libre",
            "value": "-"
        },
        "6": {
            "type": "date_lieu",
            "value": "-"
        },
        "7": {
            "type": "cote",
            "value": "LUXEMBOURG, Luxembourg, Archives Nationales de Luxembourg, A-XXIV-03, n\u00b0 24"
        },
        "9": {
            "type": "description",
            "value": "Original sur parchemin (mm. 253 \u00d7 62 ; repli mm. 12), jadis scell\u00e9 sur double queue de parchemin"
        },
        "10": {
            "type": "langue",
            "value": "latin"
        },
        "11": {
            "type": "authenticite",
            "value": "non suspect\u00e9"
        },
        "12": {
            "type": "genre",
            "value": "Charte"
        },
        "13": {
            "type": "type_source",
            "value": "Original"
        },
        "14": {
            "type": "analyse",
            "value": "Henri (5), comte de Luxembourg et de la Roche et marquis d'Arlon, fait savoir que Anselme de  Sentzich, chevalier, a assign\u00e9 en aum\u00f4ne perp\u00e9tuel quatre muids de seigle au monast\u00e8re de Bonnevoie \u00e0 prendre \u00e0 la f\u00eate de Saint-Martin sur ses biens \u00e0 Bolerbach. Suite a cette assignation, ledit couvent a accueilli une des filles du dit Anselme."
        },
        "15": {
            "type": "transcription",
            "value": "<?xml version=\"1.0\" encoding=\"UTF-8\"?>\n\/01\/ Nos Henricus comes Lucelburgensis, Rupensis et marchio Arlunensis scire volumus universos quod dominus Anselmus \/02\/ de Zenci, fidelis noster, religiosis dominabus abbatisse et conventui de Bonavia in elemosinam .IIIIor. maldra siliginis in bonis \/03\/ suis de Bolar pie contulit perpetuo in festo beati Martini percipienda. Que quidem domine ex post facto unam filiarum suarum \/04\/ ordini suo et societati aggregarunt. Qui quidem miles, de consensu liberorum suorum et heredum, predictam elemosinam contulit sub hoc \/05\/ modo, quod si .IIIIor. maldra predicta antedictis dominabus non solverentur, se ad fundum tenere deberent bonorum illorum unde supradicta annona \/06\/ .IIIIor. maldrorum originem trahit et procreatur. In cuius rei memoriam presentibus sigillum nostrum appendi iussimus in perpetuum robur \/07\/ et munimen. Datum anno Domini .Mo. .CCo. .Lo. septimo.\n"
        },
        "16": {
            "type": "remarques",
            "value": "-"
        },
        "17": {
            "type": "mention_hors_teneur",
            "value": "-"
        },
        "18": {
            "type": "note_dorsale",
            "value": "\u00ab\u00a0.IIII. malder Roicken zu[r] Bolle[i]\u00a0\u00bb, XVI<sup>e<\/sup> s.\u00a0; \u00ab\u00a0Pour quatre maldres de seigle a Bolla\u00a0\u00bb, XVIII<sup>e<\/sup> s."
        },
        "19": {
            "type": "edition",
            "value": "C. WAMPACH, <i>Urkunden- und Quellenbuch zur Geschichte der altluxemburgischen Territorien bis zur burgundischen Zeit<\/i>, t. III, Luxembourg, 1939, n\u00b0 259, p. 280-281"
        },
        "20": {
            "type": "regeste",
            "value": "-"
        },
        "21": {
            "type": "mention",
            "value": "-"
        },
        "22": {
            "type": "sources_manuscrites",
            "value": "LUXEMBOURG, Luxembourg, Archives Nationales de Luxembourg, A-XXIV-03, n\u00b0 24 (Regeste du XVIII<sup>e<\/sup> s. sur papier cousu \u00e0 l'original)",
            "children": {
                "type_source": "n.c."
            }
        },
        "23": {
            "type": "responsable",
            "value": "Timothy Salemme"
        },
        "24": {
            "type": "acte_scelle",
            "value": "non"
        },
        "25": {
            "type": "sceau",
            "value": "Sceau perdu. Annonce du sceau du comte Henri (5)",
            "children": {
                "sigilla": ""
            }
        },
        "28": {
            "type": "image_interne",
            "value": "http:\/\/telma-chartes.irht.cnrs.fr\/telma_img\/transscript\/transscript-A-XXIV-024_0000000000.jpg"
        },
        "29": {
            "type": "image_interne",
            "value": "http:\/\/telma-chartes.irht.cnrs.fr\/telma_img\/transscript\/transscript-A-XXIV-024_0000000010.jpg"
        },
        "30": {
            "type": "image_interne",
            "value": "http:\/\/telma-chartes.irht.cnrs.fr\/telma_img\/transscript\/transscript-A-XXIV-024_0000000020.jpg"
        }
    }
}