{
    "id": 144193,
    "name": "transscript-958",
    "type": "acte",
    "url": "http:\/\/telma-chartes.irht.cnrs.fr\/transscript\/notice\/144193",
    "project_slug": "transscript",
    "project_label": "TRANSSCRIPT",
    "user": "t_salemme",
    "last_update": "2020-10-19 16:38:56",
    "licence": "Attribution - Pas d\u2019Utilisation Commerciale - Partage dans les M\u00eames Conditions 3.0 France (CC BY-NC-SA 3.0 FR) ",
    "licence_url": "https:\/\/creativecommons.org\/licenses\/by-nc-sa\/3.0\/fr\/",
    "elements": [
        {
            "type": "auteur",
            "value": "Henri (7), comte de Luxembourg et marquis d\u2019Arlon"
        },
        {
            "type": "beneficiaire",
            "value": "Henri (3), comte de Bar"
        },
        {
            "type": "destinataire",
            "value": "-"
        },
        {
            "type": "disposant",
            "value": "Henri (7), comte de Luxembourg et marquis d\u2019Arlon"
        },
        {
            "type": "date",
            "value": "1296\/01\/08",
            "children": {
                "date_deb_annee": "1296",
                "date_deb_mois": "01",
                "date_deb_jour": "08"
            },
            "range": {
                "date_apres": 12960108,
                "date_avant": 12960108
            }
        },
        {
            "type": "date_libre",
            "value": "-"
        },
        {
            "type": "date_lieu",
            "value": "-"
        },
        {
            "type": "cote",
            "value": "FRANCE, Paris, Biblioth\u00e8que nationale de France, Provinces Fran\u00e7aises, Collection de Lorraine, vol. 211ter, n\u00b0 69"
        },
        {
            "type": "description",
            "value": "Original sur parchemin scell\u00e9 sur double queue de parchemin"
        },
        {
            "type": "langue",
            "value": "fran\u00e7ais"
        },
        {
            "type": "authenticite",
            "value": "non suspect\u00e9"
        },
        {
            "type": "genre",
            "value": "Lettre"
        },
        {
            "type": "type_source",
            "value": "Original"
        },
        {
            "type": "analyse",
            "value": "Henri (7), comte de Luxembourg et marquis d\u2019Arlon , fait savoir qu\u2019il a re\u00e7u du comte de Bar Henri (3) 2.250 livres de petits tournois, \u00e0 rabattre d\u2019une dette de 4.500 livres que ce dernier s\u2019\u00e9tait engag\u00e9 \u00e0 payer en deux termes \u2013 la premi\u00e8re moiti\u00e9 au No\u00ebl pr\u00e9c\u00e9dent, la deuxi\u00e8me moiti\u00e9 \u00e0 P\u00e2ques \u2013 ; une fois l\u2019argent rembours\u00e9, Henri (7) promet de rendre audit Henri (3) les lettres qu\u2019il a de ce dernier et de ses garants au sujet de ladite somme. "
        },
        {
            "type": "transcription",
            "value": "<?xml version=\"1.0\" encoding=\"UTF-8\"?>\n\/01\/ Je Henris, cuens de Lucemborch et marchis d\u2019Erlons, fais coignoissant a tous que je ai receu de mon amei \/02\/ et feable coisin Henry, conte de Bar, dous mille et dous cens et cinquante livres de bons petis tornois, que \/03\/ doient cheoir et estre rabatue de la summe de quattre mille et cinc cens livres que il me doit por la quitance \/04\/ et l\u2019acort que je li ai fait des choses contenues en mes lettres pendens que il at de moy, au termine de cest \/05\/ Noiel passei la moitiei des diz deniers, et a la Pasque venent l\u2019autre moitiei des diz deniers ; et le terme \/06\/ de la Pasque venent trespassei, ensi tost comme li diz cuens m\u2019averat encor balliei et delivrei dous mille dou cens \/07\/ et cinquante livres de petis tornois, je deliverrai et suis tenus de delivreir au dit conte ses lettres que \/08\/ je ai de lui et de ses pleges des quatre mille et cinc cens livres desor dites. En tesmoignage de laquel chose, \/09\/ por ce que ferme chose soit et estable, je ai mis mon seel en ces presentes lettres, qui furent faites l\u2019an de grace \/10\/ mil dous cens quatrevins et quinze, le dimenge apres l\u2019apparicion nostre Signor.\n"
        },
        {
            "type": "remarques",
            "value": "Volume incommunicable. Edition effectu\u00e9e sur base de microfilm"
        },
        {
            "type": "mention_hors_teneur",
            "value": "-"
        },
        {
            "type": "note_dorsale",
            "value": "Illisibles (acte coll\u00e9 au support) "
        },
        {
            "type": "edition",
            "value": "N. DE WAILLY, <i>Notice sur les actes en langue vulgaire du XIII<sup>e<\/sup> si\u00e8cle contenus dans la Collection de Lorraine<\/i>, \u00e0 la Biblioth\u00e8que nationale, Paris, 1878, n\u00b0 344, p. 253"
        },
        {
            "type": "edition",
            "value": "C. WAMPACH, <i>Urkunden- und Quellenbuch zur Geschichte der altluxemburgischen Territorien bis zur burgundischen Zeit<\/i>, t. VI, Luxembourg 1949, n\u00b0 615, p. 73-74"
        },
        {
            "type": "regeste",
            "value": "-"
        },
        {
            "type": "mention",
            "value": "M. GROSDIDIER DE MATONS, <i>Le comt\u00e9 de Bar des origines au trait\u00e9 de Bruges (vers 950-1301)<\/i>, Paris 1922, p. 484"
        },
        {
            "type": "sources_manuscrites",
            "value": "-"
        },
        {
            "type": "responsable",
            "value": "Timothy Salemme"
        },
        {
            "type": "image_interne",
            "value": "http:\/\/telma-chartes.irht.cnrs.fr\/telma_img\/transscript\/transscript-211ter_n\u00b0_69.png"
        },
        {
            "type": "acte_scelle",
            "value": "oui"
        },
        {
            "type": "sceau",
            "value": "Fragment du sceau \u00e9questre de chasse du comte de Luxembourg Henri (7), en cire rouge ; \u00e0 gauche, un \u00e9cu aux armes de Luxembourg (burel\u00e9 au lion couronn\u00e9 \u00e0 queue simple ; \u00e0 droite, un \u00e9cu aux armes des Avesnes (band\u00e9) ; l\u00e9gende presque enti\u00e8rement perdue. Contre-sceau armorial, \u00e0 l\u2019\u00e9cu burel\u00e9 au lion couronn\u00e9 \u00e0 la queue simple ; l\u00e9gende : + CLAVIS SIGILLI MEI"
        }
    ]
}