{
    "id": 387,
    "name": "transscript-227",
    "type": "acte",
    "url": "http:\/\/telma-chartes.irht.cnrs.fr\/transscript\/notice\/387",
    "project_slug": "transscript",
    "project_label": "TRANSSCRIPT",
    "user": "t_salemme",
    "last_update": "2020-10-19 16:24:56",
    "licence": "Attribution - Pas d\u2019Utilisation Commerciale - Partage dans les M\u00eames Conditions 3.0 France (CC BY-NC-SA 3.0 FR) ",
    "licence_url": "https:\/\/creativecommons.org\/licenses\/by-nc-sa\/3.0\/fr\/",
    "elements": {
        "0": {
            "type": "analyse",
            "value": "Henri (5), comte de Luxembourg et de la Roche et marquis d\u2019Arlon, fait savoir que Godefroy Geldart et sa femme Cun\u00e9gonde, de Huncherange, ont re\u00e7u du couvent cistercien de Bonnevoie la quatri\u00e8me partie de la terre de Livange, proche \u00e0 une autre partie qui leur appartient, avec l\u2019obligation de payer un cens annuel de cinq sous \u00e0 No\u00ebl. Il notifie aussi que Godefroy et Cun\u00e9gonde se sont engag\u00e9s \u00e0 transf\u00e9rer au couvent de Bonnevoie la propri\u00e9t\u00e9 des deux parties apr\u00e8s leur d\u00e9c\u00e8s."
        },
        "1": {
            "type": "auteur",
            "value": "Henri (5), comte de Luxembourg et de la Roche, marquis d'Arlon"
        },
        "2": {
            "type": "beneficiaire",
            "value": "Godefroy dit Geldart de Huncherange"
        },
        "3": {
            "type": "disposant",
            "value": "Abbaye de Bonnevoie"
        },
        "4": {
            "type": "authenticite",
            "value": "non suspect\u00e9"
        },
        "5": {
            "type": "remarques",
            "value": "-"
        },
        "6": {
            "type": "cote",
            "value": "LUXEMBOURG, Luxembourg, Archives nationales de Luxembourg, A-XXIV-03, n\u00b0 22"
        },
        "7": {
            "type": "responsable",
            "value": "Timothy Salemme"
        },
        "8": {
            "type": "date",
            "value": " 1255\/08\/09",
            "children": {
                "date_deb_annee": "1255",
                "date_deb_mois": "08",
                "date_deb_jour": "09"
            },
            "range": {
                "date_apres": 12550809,
                "date_avant": 12550809
            }
        },
        "9": {
            "type": "description",
            "value": "Original sur parchemin (mm. 245\/245 \u00d7 110\/110\u00a0; repli mm. 15), scell\u00e9 sur double queue de parchemin"
        },
        "11": {
            "type": "edition",
            "value": "N. VAN WERVEKE, <i>Urkundenbuch der Abtei Bonneweg<\/i>, Luxembourg 1880, n\u00b0 25, p. 15"
        },
        "12": {
            "type": "edition",
            "value": "C. WAMPACH, <i>Urkunden- und Quellenbuch zur Geschichte der altluxemburgischen Territorien bis zur burgundischen Zeit<\/i>, t. III, Luxembourg 1939, n\u00b0 200, p. 207 "
        },
        "13": {
            "type": "regeste",
            "value": "-"
        },
        "14": {
            "type": "genre",
            "value": "Charte"
        },
        "15": {
            "type": "langue",
            "value": "latin"
        },
        "16": {
            "type": "sources_manuscrites",
            "value": "LUXEMBOURG, Luxembourg, Archives nationales de Luxembourg, A-XXIV-03, n\u00b0 22 (regeste du XVII<sup>e<\/sup> s. sur papier cousu \u00e0 l'original)",
            "children": {
                "type_source": "n.c."
            }
        },
        "17": {
            "type": "note_dorsale",
            "value": "\u00abvon den g[...] zu he[...] zu das closter geben vain laut [...]\u00bb, XIV<sup>e<\/sup> s.; \u00abLyvingen\u00bb, XV<sup>e<\/sup> s.;  \u00abRente [...] a Livingen de [...]\u00bb, XVII<sup>e<\/sup> s."
        },
        "18": {
            "type": "transcription",
            "value": "<?xml version=\"1.0\" encoding=\"UTF-8\"?>\n\/01\/ Nos Henricus comes Lucelburgensis, Rupensis et marchio Arlunensis tenore presencium noticie committimus \/02\/ singulorum quod, constituti in nostra presencia Godefridus dictus Geldart et Cunigundis uxor sua de Hunke-\/03\/-rengen, a dominabus de Bonavia Cisterciensis ordinis quartam partem terre que sita est apud Livengen in agris, pratis, silvis \/04\/ sub annuo censu quinque solidorum usualis monete in nativitate Domini persolvendorum receperunt, que quidem quarta \/05\/ pars partem dictorum G(odefridi) et C(unigundis) inmediate contingit. Hac adiecta conditione, quod predicti G(odefridus) et C(unigundis) quartam \/06\/ partem suam nomine elemosine post decessum suum nominatis dominabus libere contulerunt, quiete et absolute in \/07\/ perpetuum possidendum cum altera quarta parte partis prenotate in omni jure, ita quod si aliquis in hiis dictas dominas \/08\/ molestare vel perturbare ausu temerario presumeret, nos nostrique successores istud deponere promittimus et per pre-\/09\/-sentes nos obligamus. Proviso quod si G(odefridus) et C(unigundis) sepedicti ante decessum suum ex inspiratione divina ha-\/10\/-bitum commutando in Bonavia vellent commorari, eedem domine de tribus domibus unam inibi sitam eis tenen-\/11\/-tur accummodare et per consequens statim dictarum duarum parcium intrabunt in possessionem domine preli-\/12\/-bate; quod si habitum non commutarent, dictas partes ad vitam suam prope dominas commorando posside-\/13\/-bunt. In cuius rei signum presentibus sigillum nostrum appendi mandavimus in perpetuum robur et munimen, ad par-\/14\/-cium requisitionem. Datum et actum anno Domini .Mo. .CCo. .Lo. quinto, in vigilia Beati Laurencii.\n"
        },
        "19": {
            "type": "type_source",
            "value": "Original"
        },
        "20": {
            "type": "acte_scelle",
            "value": "oui"
        },
        "21": {
            "type": "id_telma",
            "value": "630424"
        },
        "22": {
            "type": "sceau",
            "value": "Sceau \u00e9questre en cire brune du comte Henri (5), restaur\u00e9, \u00e0 l'\u00e9p\u00e9e, heaume cylindrique \u00e0 timbre plat, cim\u00e9 d'une aigrette en \u00e9ventail, bouclier et housse du cheval armori\u00e9s (burel\u00e9 au lion couronn\u00e9 \u00e0 la queue simple); l\u00e9gende perdue.\nContre-sceau armorial, \u00e0 l'\u00e9cu burel\u00e9 au lion couronn\u00e9 \u00e0 la queue simple; l\u00e9gende: + SIGILLVM SECRETI"
        },
        "27": {
            "type": "beneficiaire",
            "value": "Cun\u00e9gonde, femme de Godefroy dit Geldart de Huncherange"
        },
        "28": {
            "type": "destinataire",
            "value": "-"
        },
        "29": {
            "type": "date_libre",
            "value": "-"
        },
        "30": {
            "type": "date_lieu",
            "value": "-"
        },
        "31": {
            "type": "mention_hors_teneur",
            "value": "-"
        },
        "32": {
            "type": "mention",
            "value": "-"
        },
        "33": {
            "type": "image_interne",
            "value": "http:\/\/telma-chartes.irht.cnrs.fr\/telma_img\/transscript\/transscript-A-XXIV-022_0000000000.jpg"
        },
        "34": {
            "type": "image_interne",
            "value": "http:\/\/telma-chartes.irht.cnrs.fr\/telma_img\/transscript\/transscript-A-XXIV-022_0000000010.jpg"
        },
        "35": {
            "type": "image_interne",
            "value": "http:\/\/telma-chartes.irht.cnrs.fr\/telma_img\/transscript\/transscript-A-XXIV-022_0000000020.jpg"
        }
    }
}