{
    "id": 186,
    "name": "transscript-115",
    "type": "acte",
    "url": "http:\/\/telma-chartes.irht.cnrs.fr\/transscript\/notice\/186",
    "project_slug": "transscript",
    "project_label": "TRANSSCRIPT",
    "user": "l_gili",
    "last_update": "2020-10-19 16:24:54",
    "licence": "Attribution - Pas d\u2019Utilisation Commerciale - Partage dans les M\u00eames Conditions 3.0 France (CC BY-NC-SA 3.0 FR) ",
    "licence_url": "https:\/\/creativecommons.org\/licenses\/by-nc-sa\/3.0\/fr\/",
    "elements": {
        "0": {
            "type": "analyse",
            "value": "Ferry (3) fait savoir qu'il prend en sa garde et protection les religieux cisterciens de Haute-Seille, leurs biens et leurs messagers traversant ses terres."
        },
        "1": {
            "type": "auteur",
            "value": "Ferry (3), duc de Lorraine et marquis"
        },
        "2": {
            "type": "beneficiaire",
            "value": "Abbaye de Haute-Seille"
        },
        "3": {
            "type": "disposant",
            "value": "Ferry (3), duc de Lorraine et marquis"
        },
        "4": {
            "type": "authenticite",
            "value": "non suspect\u00e9"
        },
        "5": {
            "type": "cote",
            "value": "FRANCE, Nancy, Archives d\u00e9partementales de Meurthe-et-Moselle, H 546"
        },
        "6": {
            "type": "responsable",
            "value": "Laura Gili-Th\u00e9baudeau"
        },
        "7": {
            "type": "date",
            "value": "1267\/10\/00",
            "children": {
                "date_deb_annee": "1267",
                "date_deb_mois": "10",
                "date_deb_type": "",
                "date_deb_jour": "00"
            },
            "range": {
                "date_apres": 12671000,
                "date_avant": 12671099
            }
        },
        "9": {
            "type": "regeste",
            "value": "J. DE PANGE, <i>Catalogue des actes de Ferri III, duc de Lorraine (1251-1303) <\/i>, Paris, 1930, 285 p. + <i>Table des noms de personnes et des noms de lieux contenus dans le catalogue<\/i> (p. I-XXIX), n\u00b0 324, p. 65"
        },
        "10": {
            "type": "mention",
            "value": "H. LEPAGE, <i>Opinion de Dom Calmet sur l\u2019emprisonnement de Ferry III et catalogue des actes du r\u00e8gne de ce prince<\/i>, in \u00ab M\u00e9moires de la Soci\u00e9t\u00e9 d'arch\u00e9ologie lorraine et du Mus\u00e9e historique lorrain \u00bb, 3<sup>e<\/sup> s\u00e9rie, 4, 1876, n\u00b0 152"
        },
        "11": {
            "type": "genre",
            "value": "Lettre"
        },
        "12": {
            "type": "langue",
            "value": "latin"
        },
        "13": {
            "type": "sources_manuscrites",
            "value": "FRANCE, Nancy, Archives d\u00e9partementales de Meurthe-et-Moselle, B 484 n\u00b0 26",
            "children": {
                "type_source": "Cartulaire"
            }
        },
        "14": {
            "type": "transcription",
            "value": "<?xml version=\"1.0\" encoding=\"UTF-8\"?>\n\/01\/ Nos Fredericus, dux Lothoringie et marchio, notum facimus universis quod nos res et bona dilectorum in Christo \/02\/ fratrum Altesilve, cysterciensis ordinis, et eorum nuntios eundo et redeundo per terram nostram et possessionem nostram in nostra \/03\/ protectione et tutela recepimus et recipimus. Et eorum res cum nuntiis tanquam nostras proprias ab omnibus nobis \/04\/ subditis custodiri volumus et tueri. In cujus rei testimonium sigillum nostrum presentibus est appensum. \/05\/ Datum anno Domini M\u00b0 CC\u00b0 LX VII\u00b0, mense octobri.\n"
        },
        "15": {
            "type": "type_source",
            "value": "Original"
        },
        "16": {
            "type": "acte_scelle",
            "value": "non"
        },
        "17": {
            "type": "id_telma",
            "value": "630284"
        },
        "18": {
            "type": "image_interne",
            "value": "http:\/\/telma-chartes.irht.cnrs.fr\/telma_img\/transscript\/transscript-FRAD054_H546r.JPG"
        },
        "19": {
            "type": "image_interne",
            "value": "http:\/\/telma-chartes.irht.cnrs.fr\/telma_img\/transscript\/transscript-FRAD054_H546v.JPG"
        },
        "20": {
            "type": "sceau",
            "value": "Sceau sur double queue de parchemin, perdu"
        },
        "21": {
            "type": "note_dorsale",
            "value": "\u00ab ... et passage libre par ses terres \u00bb, XVI<sup>e<\/sup>-XVII<sup>e<\/sup> s. D\u2019autres \u00e9critures non lisibles. "
        },
        "22": {
            "type": "description",
            "value": "Original sur parchemin (220 x 75 mm), jadis scell\u00e9 sur double queue de parchemin"
        }
    }
}