{
    "id": 428,
    "name": "transscript-247",
    "type": "acte",
    "url": "http:\/\/telma-chartes.irht.cnrs.fr\/transscript\/notice\/428",
    "project_slug": "transscript",
    "project_label": "TRANSSCRIPT",
    "user": "t_salemme",
    "last_update": "2020-10-19 16:24:56",
    "licence": "Attribution - Pas d\u2019Utilisation Commerciale - Partage dans les M\u00eames Conditions 3.0 France (CC BY-NC-SA 3.0 FR) ",
    "licence_url": "https:\/\/creativecommons.org\/licenses\/by-nc-sa\/3.0\/fr\/",
    "elements": {
        "0": {
            "type": "analyse",
            "value": "Ferry (3), duc de Lorraine, en pr\u00e9sence de Renaud, comte de Bitche, de G\u00e9rard de Luxembourg, seigneur de Durbuy, de Robert, seigneur de Esch-sur-S\u00fbre, de Henri seigneur de Houffalize, de Sogier, seigneur de Bouscheid, de Nicolas, seigneur d'Ottange, et d'Arnoud, seigneur de Wolkrange,  fait savoir qu'il ne r\u00e9clamera plus rien \u00e0 son oncle Henri (5), comte de Luxembourg de la partie \u00e0 lui transmise par ce dernier sur l'h\u00e9ritage que sa m\u00e8re Catherine, duchesse de Lorraine, avait re\u00e7u de ses parents Waleran et de Ermesinde, comte et comtesse de Luxembourg."
        },
        "1": {
            "type": "auteur",
            "value": "Ferry (3), duc de Lorraine et marquis"
        },
        "2": {
            "type": "beneficiaire",
            "value": "Henri (5), comte de Luxembourg"
        },
        "3": {
            "type": "disposant",
            "value": "Ferry (3), duc de Lorraine et marquis"
        },
        "4": {
            "type": "authenticite",
            "value": "non suspect\u00e9"
        },
        "5": {
            "type": "remarques",
            "value": "-"
        },
        "6": {
            "type": "cote",
            "value": "FRANCE, Paris, Biblioth\u00e8que nationale de France, Provinces Fran\u00e7aises, Collection de Lorraine, vol. 211, n\u00b0 16"
        },
        "7": {
            "type": "responsable",
            "value": "Timothy Salemme"
        },
        "8": {
            "type": "date",
            "value": " 1255\/10\/01",
            "children": {
                "date_deb_annee": "1255",
                "date_deb_mois": "10",
                "date_deb_jour": "01"
            },
            "range": {
                "date_apres": 12551001,
                "date_avant": 12551001
            }
        },
        "9": {
            "type": "description",
            "value": "Original sur parchemin scell\u00e9 de trois sceaux pendants sur double queue de parchemin (il subsiste le troisi\u00e8me)"
        },
        "11": {
            "type": "edition",
            "value": "N. DE WAILLY, <i>Notice sur les actes en langue vulgaire du XIII<sup>e<\/sup> si\u00e8cle contenus dans la Collection de Lorraine, \u00e0 la Biblioth\u00e8que nationale<\/i>, Paris 1878, n\u00b0 45, p. 46-47"
        },
        "12": {
            "type": "edition",
            "value": "C. WAMPACH, <i>Urkunden- und Quellenbuch zur Geschichte der altluxemburgischen Territorien bis zur burgundischen Zeit<\/i>, t. III, Luxembourg 1939, n\u00b0 205, p. 213-214"
        },
        "13": {
            "type": "edition",
            "value": "Acte n\u00b0 222690 dans \u00ab Chartae Galliae \u00bb. Edition \u00e9lectronique : Institut de Recherche et d'Histoire des Textes, 2014, en ligne <a target=\"_blank\" href=\"http:\/\/www.cn-telma.fr\/chartae-galliae\/charte222690\/\">http:\/\/www.cn-telma.fr\/chartae-galliae\/charte222690\/<\/a> (d'apr\u00e8s l'\u00e9dition DE WAILLY)"
        },
        "14": {
            "type": "regeste",
            "value": "J. DE PANGE, <i>Catalogue des actes de Ferri III, duc de Lorraine (1251-1303)<\/i>, Paris 1930, n\u00b0 86, p. 17"
        },
        "15": {
            "type": "mention",
            "value": "J. VANNERUS, \u00ab\u00a0Les anciens dynastes d'Esch-sur-S\u00fbre\u00a0\u00bb, <i>Ons Hemecht<\/i>, XI (1909), p. 112"
        },
        "16": {
            "type": "genre",
            "value": "Lettre"
        },
        "17": {
            "type": "langue",
            "value": "fran\u00e7ais"
        },
        "18": {
            "type": "sources_manuscrites",
            "value": "FRANCE, Nancy, Archives d\u00e9partementales de Meurthe-et-Moselle, B 407. Recueil de titres relatifs aux comtes de Luxembourg et de Chiny, f\u00b0 76v (copie dans cartulaire de la fin du XVI<sup>e<\/sup> s.)",
            "children": {
                "type_source": "Cartulaire"
            }
        },
        "19": {
            "type": "note_dorsale",
            "value": "\u00ab Luxembourg I, n\u00b0 12 \u00bb, XVIII<sup>e<\/sup> s."
        },
        "20": {
            "type": "transcription",
            "value": "<?xml version=\"1.0\" encoding=\"UTF-8\"?>\n\/01\/ Je Ferris, dux de Lourregne et marchis, fas conoissant a tous ces qui ces lettres verront et ourront que de teil \/02\/ escheoite qui dut escheoir a madame ma mere Katherine, duchesse de Lourregne et marchise, de par le duc Waleran som peire \/03\/ et de par sa meire, madame Ermensend, contes de Luceleb(orc), que ce que mes oncles Hanris, coens de Luceleb(orc), de la Rouche \/04\/ et marchis de Erlons, m'en a laissie et donei, si com les lettres qu'il m'en a donei saelees de son sael le tesmoignent, qui noment \/05\/ les leus ou il le m'a assis et les moes lettres aussi qu'il en a de moi, que ce preng ie a grei et a asseis en teil meniere que \/06\/ de celle escheoite ie ne puis mais rien reclameir sour lui ne sour ses oirs. Et ces choses ai ie faites par ma plaine volentei \/07\/ et fors de mambornie en tesmoignage de mes oncles Renaut, conte de Castres, et monsignor Girart de Luceleb(orc), signor \/08\/ de Dourbuis, et en tesmoignage de Robert, signor d'Aisse, de Hanri, signor de Huphalise, de Sohier, signor de Bourseid et de \/09\/ mes feals monsignor Nichole d'Othenges et monsignor Arnoult de Wolquerenges. Et pour ce que ce soit ferme chose et esta-\/10\/-ble et que ie et mi oir ne puissiens aleir a l'encontre, si ai ie fait en tesmoignage de veritei ces presens lettres saeleir \/11\/ de mon sael, et a ma requeste et a ma proiere mi oncle devantdit ont aussi fait metre lour saels a ces presentes lettres; \/12\/ lesquels furent faites et donees le jor de la feste Saint Remei en vendenges, en l'an de l'incarnation nostre Signor \/13\/ de .M. .CC. .LV. ans, ou mois d'octobre.\n"
        },
        "21": {
            "type": "type_source",
            "value": "Original"
        },
        "22": {
            "type": "acte_scelle",
            "value": "oui"
        },
        "23": {
            "type": "id_telma",
            "value": "630449"
        },
        "24": {
            "type": "sceau",
            "value": "Sceau pendant perdu"
        },
        "25": {
            "type": "sceau",
            "value": "Sceau pendant perdu"
        },
        "28": {
            "type": "date_libre",
            "value": "-"
        },
        "29": {
            "type": "date_lieu",
            "value": "-"
        },
        "30": {
            "type": "destinataire",
            "value": "-"
        },
        "31": {
            "type": "mention_hors_teneur",
            "value": "-"
        },
        "32": {
            "type": "sceau",
            "value": "Sceau pendant (photo non disponible)"
        }
    }
}