{
    "id": 25003,
    "name": "transscript-626",
    "type": "acte",
    "url": "http:\/\/telma-chartes.irht.cnrs.fr\/transscript\/notice\/25003",
    "project_slug": "transscript",
    "project_label": "TRANSSCRIPT",
    "user": "t_salemme",
    "last_update": "2020-10-19 16:27:38",
    "licence": "Attribution - Pas d\u2019Utilisation Commerciale - Partage dans les M\u00eames Conditions 3.0 France (CC BY-NC-SA 3.0 FR) ",
    "licence_url": "https:\/\/creativecommons.org\/licenses\/by-nc-sa\/3.0\/fr\/",
    "elements": {
        "0": {
            "type": "auteur",
            "value": "Jean (l\u2019Aveugle), roi de Boh\u00eame et de Pologne, comte de Luxembourg et marquis de Bautzen (Budisse)"
        },
        "1": {
            "type": "beneficiaire",
            "value": "Jean, fils de Fr\u00e9d\u00e9ric de Orreo de Tr\u00e8ves"
        },
        "2": {
            "type": "beneficiaire",
            "value": "Lorette, femme de Jean, fils de Fr\u00e9d\u00e9ric de Orreo de Tr\u00e8ves"
        },
        "3": {
            "type": "beneficiaire",
            "value": "Monast\u00e8re de Sainte-Catherine de Tr\u00e8ves"
        },
        "4": {
            "type": "destinataire",
            "value": "-"
        },
        "5": {
            "type": "disposant",
            "value": "Jean (l\u2019Aveugle), roi de Boh\u00eame et de Pologne, comte de Luxembourg et marquis de Bautzen (Budisse)"
        },
        "6": {
            "type": "date",
            "value": " 1321\/07\/21",
            "children": {
                "date_deb_jour": "21",
                "date_deb_mois": "07",
                "date_deb_annee": "1321"
            },
            "range": {
                "date_apres": 13210721,
                "date_avant": 13210721
            }
        },
        "7": {
            "type": "date_libre",
            "value": "-"
        },
        "8": {
            "type": "date_lieu",
            "value": "Tr\u00e8ves"
        },
        "9": {
            "type": "cote",
            "value": "ALLEMAGNE, Coblence, Landeshauptarchiv, Abt. 193, n\u00b0 95"
        },
        "12": {
            "type": "description",
            "value": "Original sur parchemin (mm. 225 x 249) scell\u00e9 sur lacs de soie verts et rouges (sceau endommag\u00e9)"
        },
        "13": {
            "type": "langue",
            "value": "latin"
        },
        "14": {
            "type": "authenticite",
            "value": "non suspect\u00e9"
        },
        "15": {
            "type": "genre",
            "value": "Lettre"
        },
        "16": {
            "type": "type_source",
            "value": "Original"
        },
        "17": {
            "type": "analyse",
            "value": "Jean (l\u2019Aveugle), roi de Boh\u00eame et de Pologne, comte de Luxembourg et marquis de Bautzen (Budisse) fait savoir qu\u2019il a confirm\u00e9 la donation ou vente de la quatri\u00e8me partie de la d\u00eeme de l\u2019\u00e9glise de Saint-Isidore pr\u00e8s du village de \u00d6ren, dans le dioc\u00e8se de Tr\u00e8ves, r\u00e9alis\u00e9e par Jean fils de Fr\u00e9d\u00e9ric de Orreo de Tr\u00e8ves \u2013 qui tenait ladite d\u00eeme en fief de lui \u2013 et par sa femme Lorette en faveur du monast\u00e8re de Sainte-Catherine de Tr\u00e8ves."
        },
        "18": {
            "type": "transcription",
            "value": "<?xml version=\"1.0\" encoding=\"UTF-8\"?>\n\/01\/ Nos Johannes, Dei gratia Boemie et Polonie rex, Lucemburgensis comes \/02\/ marchieque Budysinensis dominus, scire volumus universos quod nos do- \/03\/-nacionem seu cessionem per Johannem filium Friderici de Horreo in Treveri \/04\/ et Loratham uxorem suam de quarta parte decimarum ecclesie Sancti \/05\/ Isydori prope villam Uren, Treverensis dyocesis, quam idem Johannes a nobis \/06\/ tenuit in feudum, devotis ac religiosis dominabus sanctimonialium monasterii Sancte \/07\/ Katherine in Treveri factam, ratam et gratam habemus, ipsam huius \/08\/ scripti patrocinio confirmamus omneque jus quod nobis competit vel com- \/09\/-petere posset in quarta parte decimarum predictarum in prefatas dominas \/10\/ et eorum monasterium de nostre liberalitatis munificentia transferentes et \/11\/ prefatum Johannem a fidelitatis iuramento quo nobis ratione deci- \/12\/-marum predictarum tenebatur absolventes harum testimonio litterarum. \/13\/ Datum in Treveri, .XIIo. kalendas augusti, anno Domini millesimo .CCCmo. \/14\/ vicesimo primo, regnorum vero nostrorum anno undecimo.\n"
        },
        "19": {
            "type": "remarques",
            "value": "-"
        },
        "20": {
            "type": "mention_hors_teneur",
            "value": "-"
        },
        "21": {
            "type": "note_dorsale",
            "value": "\u00ab .XV. \u00bb, XIV<sup>e<\/sup> s. , effac\u00e9 ; \u00ab .LVII. \u00bb, XIV<sup>e<\/sup>-XV<sup>e<\/sup> s. ; \u00ab Donation quarte partis decime in Sancto Ysidory regis Bohemye \u00bb, XVI<sup>e<\/sup> s. ; \u00ab Vor der Bruck etc. \u00bb, XVII<sup>e<\/sup> s. ; \u00ab N. 14 \u00bb ray\u00e9, XVIII<sup>e<\/sup> s. ; \u00ab F. num. 17 \u00bb, XVIII<sup>e<\/sup> s., corrig\u00e9 de \u00ab Y 3 \u00bb, XVIII<sup>e<\/sup> s."
        },
        "22": {
            "type": "edition",
            "value": "-"
        },
        "23": {
            "type": "regeste",
            "value": "T. ZIMMER, <i>Dominikanerinnenkloster St. Katharinen in Trier. Urkunden und Akten<\/i>, D\u00fcsseldorf, 1995, n\u00b0 100, p. 32"
        },
        "24": {
            "type": "mention",
            "value": "-"
        },
        "25": {
            "type": "sources_manuscrites",
            "value": "ALLEMAGNE, Coblence, Landeshauptarchiv, Abt. 193, n\u00b0 404 (copie notariale du XVI<sup>e<\/sup> s.)",
            "children": {
                "type_source": "Copie"
            }
        },
        "26": {
            "type": "responsable",
            "value": "Timothy Salemme"
        },
        "27": {
            "type": "acte_scelle",
            "value": "oui"
        },
        "28": {
            "type": "sceau",
            "value": "Sceau de majest\u00e9 de Jean l\u2019Aveugle, endommag\u00e9, representant le roi couronn\u00e9, assis sur un tr\u00f4ne, tenant de la main droite un sceptre et de la gauche un globe crucif\u00e8re, accost\u00e9 de deux \u00e9cus, \u00e0 gauche \u00e0 l\u2019aigle d\u00e9ploy\u00e9e (Pologne) et \u00e0 droite au lion couronn\u00e9 \u00e0 la queue fourchue (Boh\u00eame). L\u00e9gende : + IOANNES DEI GRATIA BOEMIE ET POLONIE REX AC LVCEMBVRGENSIS COMES\nContre-sceau secret armorial, repr\u00e9sentant un \u00e9cu \u00e9cartel\u00e9 aux 1 et 4 de Boh\u00eame et aux 2 et 3 de Luxembourg, pos\u00e9 sur une aigle. L\u00e9gende : + SECRETVM IOH\u2019IS REGIS BOEMIE ET COMITIS LVCCEMBVRGEN\u2019.\nPhotographies du sceau et contre sceau non disponibles"
        }
    }
}