{
    "id": 102,
    "name": "transscript-53",
    "type": "acte",
    "url": "http:\/\/telma-chartes.irht.cnrs.fr\/transscript\/notice\/102",
    "project_slug": "transscript",
    "project_label": "TRANSSCRIPT",
    "user": "t_salemme",
    "last_update": "2020-10-19 16:24:53",
    "licence": "Attribution - Pas d\u2019Utilisation Commerciale - Partage dans les M\u00eames Conditions 3.0 France (CC BY-NC-SA 3.0 FR) ",
    "licence_url": "https:\/\/creativecommons.org\/licenses\/by-nc-sa\/3.0\/fr\/",
    "elements": {
        "0": {
            "type": "analyse",
            "value": "Conrad, chevalier et seigneur de Schleiden, fait savoir qu\u2019il a acquitt\u00e9 Jean (l\u2019Aveugle), roi de Boh\u00eame, de 200 livres de petits tournois, pay\u00e9es par Arnold, pr\u00e9v\u00f4t d'Arlon."
        },
        "1": {
            "type": "auteur",
            "value": "Conrad, seigneur de Schleiden, chevalier"
        },
        "2": {
            "type": "beneficiaire",
            "value": "Jean (l\u2019Aveugle), roi de Boh\u00eame"
        },
        "3": {
            "type": "disposant",
            "value": "Conrad, seigneur de Scheleiden, chevalier"
        },
        "4": {
            "type": "authenticite",
            "value": "non suspect\u00e9"
        },
        "5": {
            "type": "remarques",
            "value": "Original faisant partie d'un paquet de 7 quittances (filiasse)"
        },
        "6": {
            "type": "cote",
            "value": "LUXEMBOURG, Luxembourg, Archives nationales de Luxembourg, A-X-02 n\u00b0 37\/3"
        },
        "7": {
            "type": "responsable",
            "value": "Timothy Salemme"
        },
        "8": {
            "type": "date",
            "value": " 1323\/07\/14",
            "children": {
                "date_deb_annee": "1323",
                "date_deb_mois": "07",
                "date_deb_jour": "14"
            },
            "range": {
                "date_apres": 13230714,
                "date_avant": 13230714
            }
        },
        "9": {
            "type": "description",
            "value": "Original sur parchemin (mm. 260 \u00d7 42, dont queue mm. 7), jadis scell\u00e9 sur simple queue de parchemin (attache parisienne)"
        },
        "11": {
            "type": "edition",
            "value": "A. ESTGEN, M. PAULY et J. SCHROEDER, <i>Urkunden- und Quellenbuch zur Geschichte der altluxemburgischen Territorien, begr\u00fcndet von Camille Wampach<\/i>, t. XI\/1, <i>Die Urkunden Graf Johanns des Blinden (1310-1346). Die Urkunden aus Luxemburger Archivbest\u00e4nden<\/i>, Luxembourg 1997, n\u00b0 L20"
        },
        "12": {
            "type": "genre",
            "value": "Lettre"
        },
        "13": {
            "type": "langue",
            "value": "latin"
        },
        "14": {
            "type": "sources_manuscrites",
            "value": "-"
        },
        "15": {
            "type": "note_dorsale",
            "value": "\u00ab LXXV \u00bb, XV<sup>e<\/sup> s."
        },
        "16": {
            "type": "transcription",
            "value": "<?xml version=\"1.0\" encoding=\"UTF-8\"?>\n\/01\/ Nos Conradus, dominus de Sleyda, miles, notum facimus universis et presentibus publice profitemur nobis a discreto viro Arnoldo, preposito Arlunensi, nomine illustri principis \/02\/ Johannis, Deo gratia regis Bohemie, anno Domini .Mo. .CCCo. vicesimo tercio, in vigilia divisionis apostolorum, d[e] ducentibus libris Turonensium parvorum in quibus idem dominus Johannes rex Bohe-\/03\/-mie extitit obligatus, esse satisfactum; unde ipsum dominum regem ab huiusmodi debitis acquittimus per presentes et promittimus nos restituere si aliquas literas habemus vel invener[im]us de \/04\/ debito prenotato. In cuius rei testimonium sigillum nostrum presentibus duximus apponendum. Datum anno et die predictis.\n"
        },
        "17": {
            "type": "type_source",
            "value": "Original"
        },
        "18": {
            "type": "acte_scelle",
            "value": "non"
        },
        "19": {
            "type": "id_telma",
            "value": "630217"
        },
        "20": {
            "type": "sceau",
            "value": "Sceau pendant perdu. Annonce du sceau de Conrad de Schleiden"
        },
        "22": {
            "type": "destinataire",
            "value": "-"
        },
        "23": {
            "type": "date_libre",
            "value": "-"
        },
        "24": {
            "type": "date_lieu",
            "value": "-"
        },
        "25": {
            "type": "mention_hors_teneur",
            "value": "-"
        },
        "26": {
            "type": "regeste",
            "value": "-"
        },
        "27": {
            "type": "mention",
            "value": "-"
        }
    }
}