{
    "id": 27246,
    "name": "transscript-783",
    "type": "acte",
    "url": "http:\/\/telma-chartes.irht.cnrs.fr\/transscript\/notice\/27246",
    "project_slug": "transscript",
    "project_label": "TRANSSCRIPT",
    "user": "l_gili",
    "last_update": "2020-10-19 16:28:11",
    "licence": "Attribution - Pas d\u2019Utilisation Commerciale - Partage dans les M\u00eames Conditions 3.0 France (CC BY-NC-SA 3.0 FR) ",
    "licence_url": "https:\/\/creativecommons.org\/licenses\/by-nc-sa\/3.0\/fr\/",
    "elements": {
        "0": {
            "type": "auteur",
            "value": "Huguenin de Fougerolles, fils de feu Guillaume de Fougerolles"
        },
        "1": {
            "type": "beneficiaire",
            "value": "Raoul, duc de Lorraine et marquis"
        },
        "2": {
            "type": "destinataire",
            "value": "-"
        },
        "3": {
            "type": "disposant",
            "value": "Huguenin de Fougerolles, fils de feu Guillaume de Fougerolles"
        },
        "4": {
            "type": "date",
            "value": " 1344\/02\/05",
            "children": {
                "date_deb_jour": "05",
                "date_deb_mois": "02",
                "date_deb_annee": "1344"
            },
            "range": {
                "date_apres": 13440205,
                "date_avant": 13440205
            }
        },
        "5": {
            "type": "date_lieu",
            "value": "Nancy"
        },
        "6": {
            "type": "cote",
            "value": "FRANCE, Nancy, Archives d\u00e9partementales de Meurthe et Moselle, B 822 n\u00b0 111"
        },
        "8": {
            "type": "description",
            "value": "Original sur parchemin, jadis scell\u00e9 sur double queue de parchemin"
        },
        "9": {
            "type": "langue",
            "value": "fran\u00e7ais"
        },
        "10": {
            "type": "langue",
            "value": "latin"
        },
        "11": {
            "type": "authenticite",
            "value": "non suspect\u00e9"
        },
        "12": {
            "type": "genre",
            "value": "Lettre"
        },
        "13": {
            "type": "type_source",
            "value": "Original"
        },
        "14": {
            "type": "analyse",
            "value": "Huguenin de Fougerolles, fils de feu Guillaume de Fougerolles, d\u00e9clare par-devant Pierre G\u00e9nin de R\u00e9m\u00e9r\u00e9ville, notaire imp\u00e9rial, tenir ligement de Raoul le quart du ch\u00e2teau de Fougerolles, ce qu\u2019il poss\u00e8de en la ville et sur le p\u00e9age de Fougerolles, la haute justice du Val d\u2019Ajol et tout ce qu\u2019il a \u00e0 Cornimont."
        },
        "15": {
            "type": "transcription",
            "value": "<?xml version=\"1.0\" encoding=\"UTF-8\"?>\n\/01\/ Je Euguenins de Foucheruelles escuiers fil monsignour Wyllame de Foucheruelles chevalier que fuit, faix savoir et cognissant ai tous que je suix et doie estre hons \/02\/ liges de tr\u00e9s hault et pouxant prince mon tr\u00e9s chier et redouter signour monsignour lou dus de Loherainne davant tous homes et an teng et doie tenir et mei hors \/03\/ apr\u00e9s m\u00e9 de lui et de sez hors dus de Loherainne lou chaistelz de Foucheruelles, telle partie com je y ai, c\u2019est assavoir lou quairs dou dit chaistelz rendauble, aidauble et receptai-\/04\/-ble et avecs ceu tout ceu que je ai en lai ville de Foucherulles et en paiage de lai dite ville et lai haulte justice dou vaulz dez Jous et encor tout ceu que je \/05\/ ai a Cornimont ; et toutes ses chozes cognois je que je teng et doie tenir et mei hors apr\u00e9s m\u00e9 de mon dit signour et de sez hors dus de Loherainne en lai me-\/06\/-niere dessus escripte et divis\u00e9e. Et pour ceu que ferme choze soit et estauble ai je donnei a mon dit signour sez presentes lettres sail\u00e9es de mon saielz pendant ; et encor \/07\/ ai plux grant seurter a avoir dez chozes dessus dites ai je suppliier et requis, supplie et requiers a discrete persone signour Piere de Ramereville notaire tabellion \/08\/ inperiaulz par devant lou quelz je cognois et ai cogneuz lez chozes dessus dites quar il en signe de veritei vellet metre son signe publique avecs sai subscripcion en sez presentes lettres \/09\/ avecs mon saielz ; que furent faites l\u2019an de graice Nostre Signour mil trois cens quarante trois, lou juedi jour de feste sainte Agathe on mois de fevriers. (ST) \/01\/ Et ego Petrus Jenini quondam de Ramerevilla, Tullensis dyocesis, imperiali auctoritate ac curie Tullensis \/02\/ notarius, suprascriptis omnibus et singulis dum per supradictum Eugueninum sic agerentur sub anno Domini millesimo \/03\/ trecentesimo quadragesimo tercio, indictione duodecima, quinta die mensis februarii circa horam ipsius diei \/04\/ primam, ante ecclesiam collegiatam Beati Georgii de Nanceyo, dicte Tullensis dyocesis, pontificatus sanctissimi in Christo \/05\/ patris et domini, domini Clementis divina providentia pape sexti anno secundo, presens interfui eaque omnia et singula fieri, \/06\/ vidi et audivi et inde me subscripsi signumque meum consuetum ad supplicationem dicti Euguenini una cum sigillo \/07\/ suo litteris presentis apposui in testimonium veritatis, presentibus venerabilis viris dominis Ronaldo et Renero de Nance-\/08\/-yo militibus et Gerardo dicti Euguenini fratre armigero testibus ad premissa vocatis specialiter et rogatis.\n"
        },
        "16": {
            "type": "mention_hors_teneur",
            "value": "-"
        },
        "17": {
            "type": "note_dorsale",
            "value": "\u00ab Instr(ument) de l\u2019omaige Huguenin de Foucherueles \/ touchant le chastel de Foulcheruelles \u00bb, XIV<sup>e<\/sup> s. ;  \u00ab Instr(ument) du val d\u2019Ajo \u00bb, XV<sup>e<\/sup> s. ; \u00ab N. 111 \/ Nancy I \u00bb, XVII<sup>e<\/sup> s. "
        },
        "18": {
            "type": "edition",
            "value": "-"
        },
        "19": {
            "type": "regeste",
            "value": "H. LEVALLOIS, <i>Catalogue des actes de Raoul, duc de Lorraine<\/i>, 1329 \u00e0 1346, Nancy, Biblioth\u00e8que municipale de Nancy, 1902 (dact.), n\u00b0 372"
        },
        "20": {
            "type": "mention",
            "value": "-"
        },
        "21": {
            "type": "sources_manuscrites",
            "value": "FRANCE, Paris, Biblioth\u00e8que nationale de France, Provinces Fran\u00e7aises, Collection de Lorraine, vol. 710 f\u00b0 206\u2002(copie XV<sup>e<\/sup> s.)",
            "children": {
                "type_source": "Copie",
                "source_edition": ""
            }
        },
        "22": {
            "type": "sources_manuscrites",
            "value": "FRANCE, Nancy, Archives d\u00e9partementales de Meurthe et Moselle, B 377 f\u00b0 36v (XVI<sup>e<\/sup> s.)",
            "children": {
                "type_source": "Cartulaire"
            }
        },
        "23": {
            "type": "sources_manuscrites",
            "value": "FRANCE, Paris, Biblioth\u00e8que nationale de France, Provinces Fran\u00e7aises, Collection de Lorraine, vol. 122 f\u00b0 293\u2002(copie XVII<sup>e<\/sup> s.)",
            "children": {
                "type_source": "Copie"
            }
        },
        "24": {
            "type": "responsable",
            "value": "Laura Gili-Th\u00e9baudeau"
        },
        "25": {
            "type": "acte_scelle",
            "value": "non"
        },
        "26": {
            "type": "sceau",
            "value": "Un sceau sur double queue de parchemin perdu",
            "children": {
                "sigilla": ""
            }
        },
        "27": {
            "type": "image_interne",
            "value": "http:\/\/telma-chartes.irht.cnrs.fr\/telma_img\/transscript\/transscript-FRAD054_B822_111r.JPG"
        },
        "28": {
            "type": "image_interne",
            "value": "http:\/\/telma-chartes.irht.cnrs.fr\/telma_img\/transscript\/transscript-FRAD054_B822_111v.JPG"
        },
        "29": {
            "type": "sources_manuscrites",
            "value": "FRANCE, Nancy, Archives d\u00e9partementales de Meurthe et Moselle, B 379 f\u00b0 164r (XVI<sup>e<\/sup> s.)",
            "children": {
                "type_source": "Cartulaire"
            }
        }
    }
}