{
    "id": 144454,
    "name": "transscript-1018",
    "type": "acte",
    "url": "http:\/\/telma-chartes.irht.cnrs.fr\/transscript\/notice\/144454",
    "project_slug": "transscript",
    "project_label": "TRANSSCRIPT",
    "user": "t_salemme",
    "last_update": "2020-10-19 16:39:00",
    "licence": "Attribution - Pas d\u2019Utilisation Commerciale - Partage dans les M\u00eames Conditions 3.0 France (CC BY-NC-SA 3.0 FR) ",
    "licence_url": "https:\/\/creativecommons.org\/licenses\/by-nc-sa\/3.0\/fr\/",
    "elements": [
        {
            "type": "auteur",
            "value": "Henri (7), comte de Luxembourg et de la Roche, marquis d\u2019Arlon"
        },
        {
            "type": "beneficiaire",
            "value": "Thi\u00e9baut de Heu, bourgeois de Metz"
        },
        {
            "type": "destinataire",
            "value": "-"
        },
        {
            "type": "disposant",
            "value": "Henri (7), comte de Luxembourg et de la Roche, marquis d\u2019Arlon"
        },
        {
            "type": "date",
            "value": "1307\/06\/29",
            "children": {
                "date_deb_annee": "1307",
                "date_deb_mois": "06",
                "date_deb_jour": "29"
            },
            "range": {
                "date_apres": 13070629,
                "date_avant": 13070629
            }
        },
        {
            "type": "date_libre",
            "value": "-"
        },
        {
            "type": "date_lieu",
            "value": "-"
        },
        {
            "type": "cote",
            "value": "FRANCE, Saint-Julien-l\u00e8s-Metz, Archives d\u00e9partementales de la Moselle, 7F 662"
        },
        {
            "type": "description",
            "value": "Copie sur parchemin, XIV<sup>e<\/sup> s."
        },
        {
            "type": "langue",
            "value": "fran\u00e7ais"
        },
        {
            "type": "authenticite",
            "value": "non suspect\u00e9"
        },
        {
            "type": "genre",
            "value": "Lettre"
        },
        {
            "type": "type_source",
            "value": "Copie"
        },
        {
            "type": "analyse",
            "value": "Henri (7), comte de Luxembourg et de la Roche et marquis d\u2019Arlon, fait savoir qu\u2019il a re\u00e7u en homme lige Thi\u00e9baut de Heu, bourgeois de Metz, fils du jadis Roger de Heu, en raison d\u2019un h\u00e9ritage \u00e0 Malroy que celui-ci a achet\u00e9 aux fr\u00e8res Poincignon et Jehan, fils du jadis Raoul seigneur de Volmerange."
        },
        {
            "type": "transcription",
            "value": "<?xml version=\"1.0\" encoding=\"UTF-8\"?>\n\/01\/ Nous Hanris, cuens de Lucembourch, de la Roche et marchis d\u2019Airlens, faissons savoir et cognissant a toz \/02\/ ceaulz qui ces prezentes lettres vairont et oront que nous avons receut a homme en nostre fiaulteit et en nostre \/03\/ homaige nostre bien amey feable Thiebaut de Heu, citain de Metz, fil Rogier de Heu qui fuit, de teil heritaige \/04\/ comme il ait aquasteit a Poincignon et a Jehan freires, anffans monsignor Raul de Wermerangez, chevalier qui \/05\/ fuit. Liqueilz heritaigez geist a Malleroy et ans bans et ens appandixes tout enci com li devant dit Poin- \/06\/-cignon et Jehan freirez le tenoient de nous. Et ceu avons nous fait saulf le droit d\u2019aultrui. Et a ceu \/07\/ faire furent presans plussours de noz chivelliers, c\u2019est assavoir li sires Robers d\u2019Uezedange, li sires Sohiers \/08\/ de Brouxey, li sires Gilles de Rodemacres, li sires Leudolf de Holvex, li sires Richairs de Dunes et li \/09\/ sires Jehans de Rouzeires. En tesmoignaige de veriteit en avons nous donneit a devant dit Thiebalt \/10\/ ces presantes lettrez seellees de nostre seel, lesqueilles furent faites l\u2019an de graice nostre Signour mil trois cens \/11\/ et sept, le juedi apres feste Saint Jehan Baptiste.\n"
        },
        {
            "type": "remarques",
            "value": "-"
        },
        {
            "type": "mention_hors_teneur",
            "value": "-"
        },
        {
            "type": "note_dorsale",
            "value": "\u00ab Reprise de Malroy \u00bb, XV<sup>e<\/sup> s. ; \u00ab 1307 Juni 28. 85 \u00bb, XX<sup>e<\/sup> s."
        },
        {
            "type": "edition",
            "value": "F.-X. W\u00dcRTH-PAQUET et N. VAN WERVEKE, \u00ab Archives de Clervaux \u00bb, <i>Publications de la Section historique<\/i>, XXXVI (1883), n\u00b0 81, p. 20"
        },
        {
            "type": "edition",
            "value": "C. WAMPACH, <i>Urkunden- und Quellenbuch zur Geschichte der altluxemburgischen Territorien bis zur burgundischen Zeit<\/i>, t. VII, Luxembourg 1949, n\u00b0 111, p. 170-171"
        },
        {
            "type": "regeste",
            "value": "-"
        },
        {
            "type": "mention",
            "value": "-"
        },
        {
            "type": "sources_manuscrites",
            "value": "-"
        },
        {
            "type": "responsable",
            "value": "Timothy Salemme"
        },
        {
            "type": "image_interne",
            "value": "http:\/\/telma-chartes.irht.cnrs.fr\/telma_img\/transscript\/transscript-ADMetz_7F_662_recto.JPG"
        },
        {
            "type": "acte_scelle",
            "value": "non"
        },
        {
            "type": "sceau",
            "value": "-"
        },
        {
            "type": "image_interne",
            "value": "http:\/\/telma-chartes.irht.cnrs.fr\/telma_img\/transscript\/transscript-ADMetz_7F_662_verso.JPG"
        }
    ]
}