{
    "id": 26636,
    "name": "transscript-693",
    "type": "acte",
    "url": "http:\/\/telma-chartes.irht.cnrs.fr\/transscript\/notice\/26636",
    "project_slug": "transscript",
    "project_label": "TRANSSCRIPT",
    "user": "l_gili",
    "last_update": "2020-10-19 16:28:03",
    "licence": "Attribution - Pas d\u2019Utilisation Commerciale - Partage dans les M\u00eames Conditions 3.0 France (CC BY-NC-SA 3.0 FR) ",
    "licence_url": "https:\/\/creativecommons.org\/licenses\/by-nc-sa\/3.0\/fr\/",
    "elements": {
        "0": {
            "type": "auteur",
            "value": "Raoul, duc de Lorraine et marquis"
        },
        "1": {
            "type": "beneficiaire",
            "value": "\u00c9glise de Saint-Di\u00e9"
        },
        "2": {
            "type": "destinataire",
            "value": "Jean de Rosi\u00e8res"
        },
        "3": {
            "type": "disposant",
            "value": "Raoul, duc de Lorraine et marquis"
        },
        "4": {
            "type": "date",
            "value": " 1346\/02\/23",
            "children": {
                "date_deb_jour": "23",
                "date_deb_mois": "02",
                "date_deb_annee": "1346"
            },
            "range": {
                "date_apres": 13460223,
                "date_avant": 13460223
            }
        },
        "5": {
            "type": "date_lieu",
            "value": "-"
        },
        "6": {
            "type": "cote",
            "value": "FRANCE, \u00c9pinal, Archives d\u00e9partementales des Vosges, G 250 n\u00b0 16"
        },
        "8": {
            "type": "description",
            "value": "Original sur parchemin, scell\u00e9 sur simple queue de parchemin"
        },
        "9": {
            "type": "langue",
            "value": "fran\u00e7ais"
        },
        "10": {
            "type": "authenticite",
            "value": "non suspect\u00e9"
        },
        "11": {
            "type": "genre",
            "value": "Mandement"
        },
        "12": {
            "type": "type_source",
            "value": "Original"
        },
        "13": {
            "type": "analyse",
            "value": "Raoul mande \u00e0 Jean de Rosi\u00e8res, bailli de Vosges, de d\u00e9fendre l\u2019\u00e9glise de Saint-Di\u00e9 et les chanoines contre toutes mani\u00e8res de gens, allemands ou autres."
        },
        "14": {
            "type": "transcription",
            "value": "<?xml version=\"1.0\" encoding=\"UTF-8\"?>\n\/01\/ Raoulz, dus de Loheraine et marchis, ai nostre amei et feaul meussire Jehan de Rozieres, nostre bally de Vosge, salut et \/02\/ dilection. Nos vos mandons et comandons que vos wardeis, aidiez et deffend\u00e9s par tout nostre englize de Saint Diey en \/03\/ chief et en membre lez chenones lour homes, lour terre et tous lours biens encontre toute meniere de gens alemans \/04\/ ou autres lai quelle englize avecs toutes sez appartenances nos vos recogmandons et volons que vos l\u2019aiens pour \/05\/ recomand\u00e9e et ne souffreis que nulles oppressions, injures, damaiges ne violances lour soient fais ; ansois voi-\/06\/-lons qui soient aidiez et secourrus par tout ensic comme nos propres homes et wardeis qui n\u2019i ait deffaut si chier \/07\/ com vos aveis nostre amour et sur ceu nos vos envoions cez lettres sail\u00e9es de nostre saiel que furent faites \/08\/ l\u2019an de graice Nostre Signour mil trois cens quarante cinq, lou jour de feste saint Piere, en fevrier.\n"
        },
        "15": {
            "type": "mention_hors_teneur",
            "value": "-"
        },
        "16": {
            "type": "note_dorsale",
            "value": "\u00ab Mandement a monsignour Jehan de Rozieres \u00bb, \u00ab 1345 \u00bb, XIV<sup>e<\/sup> s. ; \u00ab Secunda ducum \u00bb, \u00ab d. B. \u00bb, XV<sup>e<\/sup> s. ; \u00ab N\u00b0 32 \u00bb, \u00ab du duc Raoul \u00bb, XVII<sup>e<\/sup> s. "
        },
        "17": {
            "type": "edition",
            "value": "-"
        },
        "18": {
            "type": "regeste",
            "value": "H. LEVALLOIS, <i>Catalogue des actes de Raoul, duc de Lorraine<\/i>, 1329 \u00e0 1346, Nancy, Biblioth\u00e8que municipale de Nancy, 1902 (dact.), n\u00b0 524"
        },
        "19": {
            "type": "mention",
            "value": "-"
        },
        "20": {
            "type": "sources_manuscrites",
            "value": "-",
            "children": {
                "type_source": "",
                "source_edition": ""
            }
        },
        "21": {
            "type": "responsable",
            "value": "Laura Gili-Th\u00e9baudeau"
        },
        "22": {
            "type": "acte_scelle",
            "value": "oui"
        },
        "23": {
            "type": "sceau",
            "value": "Un sceau sur simple queue de parchemin, en cire verte, type b (description tir\u00e9e du catalogue Levallois n\u00b0 524)",
            "children": {
                "sigilla": ""
            }
        },
        "24": {
            "type": "image_interne",
            "value": "http:\/\/telma-chartes.irht.cnrs.fr\/telma_img\/transscript\/transscript-FRAD088_G250_16r.JPG"
        },
        "25": {
            "type": "image_interne",
            "value": "http:\/\/telma-chartes.irht.cnrs.fr\/telma_img\/transscript\/transscript-FRAD088_G250_16v.JPG"
        },
        "26": {
            "type": "image_interne",
            "value": "http:\/\/telma-chartes.irht.cnrs.fr\/telma_img\/transscript\/transscript-FRAD088_G250_16s.JPG"
        }
    }
}