{
    "id": 145832,
    "name": "transscript-1093",
    "type": "acte",
    "url": "http:\/\/telma-chartes.irht.cnrs.fr\/transscript\/notice\/145832",
    "project_slug": "transscript",
    "project_label": "TRANSSCRIPT",
    "user": "m_bouyer",
    "last_update": "2020-10-19 16:39:12",
    "licence": "Attribution - Pas d\u2019Utilisation Commerciale - Partage dans les M\u00eames Conditions 3.0 France (CC BY-NC-SA 3.0 FR) ",
    "licence_url": "https:\/\/creativecommons.org\/licenses\/by-nc-sa\/3.0\/fr\/",
    "elements": [
        {
            "type": "auteur",
            "value": "Raoul, duc de Lorraine et marquis"
        },
        {
            "type": "beneficiaire",
            "value": "Couvent des cordeli\u00e8res de Neufch\u00e2teau"
        },
        {
            "type": "disposant",
            "value": "Raoul, duc de Lorraine et marquis"
        },
        {
            "type": "date",
            "value": "1341\/04\/12",
            "children": {
                "date_deb_annee": "1341",
                "date_deb_mois": "04",
                "date_deb_jour": "12"
            },
            "range": {
                "date_apres": 13410412,
                "date_avant": 13410412
            }
        },
        {
            "type": "cote",
            "value": "FRANCE, \u00c9pinal, Archives d\u00e9partementales des Vosges, XLI H 6 (F)"
        },
        {
            "type": "description",
            "value": "Original sur parchemin, jadis scell\u00e9 sur double queue de parchemin"
        },
        {
            "type": "langue",
            "value": "fran\u00e7ais"
        },
        {
            "type": "authenticite",
            "value": "non suspect\u00e9"
        },
        {
            "type": "genre",
            "value": "Lettre"
        },
        {
            "type": "type_source",
            "value": "Original"
        },
        {
            "type": "analyse",
            "value": "Raoul fait savoir qu\u2019il a donn\u00e9 aux s\u0153urs cordeli\u00e8res de Neufch\u00e2teau, en \u00e9change de leurs pri\u00e8res pour lui, ses h\u00e9ritiers et ses pr\u00e9d\u00e9cesseurs, des tours et leur usuaire derri\u00e8re les murs de la ville."
        },
        {
            "type": "transcription",
            "value": "<?xml version=\"1.0\" encoding=\"UTF-8\"?>\n\/01\/ Nous Raoulz dus de Lorrainne et marchis faissons savoir a tous que nous avons \/02\/ donei et otroiei, donnons et otroions pour nous et pour nos hoirs a tous jours en perpetuitei par \/03\/ don fait entre lez vis pour Deu et en amosne sens jamais rappeller a religiouses dames lez serours \/04\/ cordelieres dou Nuefchastel pour tant que elles prioient pour nous, pour nos hoirs et pour lez \/05\/ ames de nos predecessours, les tours qui sunt darriers lour maison ensemble toute la place et l'u- \/06\/ -suare seant darriers lez murs de nostre dite ville dou Nuefchastel dou lonc de lour dite maison si comme \/07\/ elle se porte dez le pusticel qui fuit Hussenet Maultrempei jusques a la maison Jehan Willaume joingnant \/08\/ a la tour de la porte a la rue Verdenoise et des dis murs jusques sus Mouzon pour avoir lour \/09\/ alee et lour venue en yceux leux et faire lour aisance telle comme il lour plaira sens faire chose que \/10\/ soit nuisans ne grevauble a la fermetei de nostre dite ville. Et comme lez dites religiouses avoient et \/11\/ doient avoir lour alee et lour venue en l'usuare qui est darriers la maison Olrion la mecienne \/12\/ joingnant a lour dite maison, et li dis Olrions ou aulcuns de sez hoirs lour vueille destourber et \/13\/ empeschier nous volons et commandons que il ne autres quelz que il soit ne lez empuisse destour- \/14\/ -ner ne empeschier lour alee ne lour venue par aulcune maniere mais volons que elles et lour \/15\/ maigni\u00e9s y usoient et conversoient si comme elles ont fait anciennement. Et cest don et otroi lour \/16\/ avons nous promis et promettons leaulment pour nous et pour nos hoirs tenir et garder pour \/17\/ tous jours fermement et entierement sens aler au contraire et ycelles faire joir et garentir de tout \/18\/ ceu que devant est dit paisiblement et sens debat envers tous et contre tous jusques a droit. \/19\/ Et pour ce que ce soit ferme chose et estauble nous avons fait mettre nostre grant seel en ces \/20\/ presentes lettres en signe et en tesmoingnage de veritei. Ce fuit fait l'an de grace Nostre Signour mil \/21\/ trois cens quarante et un a douze jours dou moix d'avril.\n"
        },
        {
            "type": "note_dorsale",
            "value": "\u00ab Pour tous le \/ terain qui nous \/ apartien de [ apartien de [...] la porte Verdenoire \/ jusque notre [...] \u00bb"
        },
        {
            "type": "responsable",
            "value": "Denis Remy ; Mathias Bouyer"
        },
        {
            "type": "image_interne",
            "value": "http:\/\/telma-chartes.irht.cnrs.fr\/telma_img\/transscript\/transscript-FRAD088_41H6_F_r.JPG"
        },
        {
            "type": "acte_scelle",
            "value": "non"
        },
        {
            "type": "image_interne",
            "value": "http:\/\/telma-chartes.irht.cnrs.fr\/telma_img\/transscript\/transscript-FRAD088_41H6_F_v.JPG"
        }
    ]
}