{
    "id": 26565,
    "name": "transscript-665",
    "type": "acte",
    "url": "http:\/\/telma-chartes.irht.cnrs.fr\/transscript\/notice\/26565",
    "project_slug": "transscript",
    "project_label": "TRANSSCRIPT",
    "user": "D_Kirt",
    "last_update": "2020-10-19 16:28:02",
    "licence": "Attribution - Pas d\u2019Utilisation Commerciale - Partage dans les M\u00eames Conditions 3.0 France (CC BY-NC-SA 3.0 FR) ",
    "licence_url": "https:\/\/creativecommons.org\/licenses\/by-nc-sa\/3.0\/fr\/",
    "elements": {
        "0": {
            "type": "auteur",
            "value": "Jean, roi de Boh\u00eame"
        },
        "1": {
            "type": "beneficiaire",
            "value": "Henri, chevalier de Boppard, bailli du roi Jean de Boh\u00eame"
        },
        "2": {
            "type": "destinataire",
            "value": "Baudouin, archev\u00eaque de Tr\u00e8ves"
        },
        "3": {
            "type": "disposant",
            "value": "Jean, roi de Boh\u00eame"
        },
        "4": {
            "type": "date",
            "value": " 1343\/02\/06",
            "children": {
                "date_deb_jour": "06",
                "date_deb_mois": "02",
                "date_deb_annee": "1343"
            },
            "range": {
                "date_apres": 13430206,
                "date_avant": 13430206
            }
        },
        "5": {
            "type": "date_libre",
            "value": "-"
        },
        "6": {
            "type": "date_lieu",
            "value": "Luxembourg"
        },
        "7": {
            "type": "cote",
            "value": "ALLEMAGNE, Coblence, Landeshauptarchiv, d\u00e9p. 1A, Nr. 5141"
        },
        "10": {
            "type": "description",
            "value": "Original sur parchemin, 232 x 99 mm, scell\u00e9 d'un sceau pendant de couleur verte, attach\u00e9 \u00e0 une queue de parchemin."
        },
        "11": {
            "type": "langue",
            "value": "allemand"
        },
        "12": {
            "type": "authenticite",
            "value": "non suspect\u00e9"
        },
        "13": {
            "type": "genre",
            "value": "Charte"
        },
        "14": {
            "type": "type_source",
            "value": "Original"
        },
        "15": {
            "type": "analyse",
            "value": "Jean (l'Aveugle), roi de Boh\u00eame, demande de la part de l\u2019archev\u00eaque Baudouin de Tr\u00e8ves d\u2019accorder \u00e0 son bailli Henri de Boppard un grand tournois de la douane de Bacharach que l\u2019archev\u00eaque tient en gage de Jean lui-m\u00eame, jusqu\u2019au remboursement de la dette due au bailli."
        },
        "16": {
            "type": "transcription",
            "value": "<?xml version=\"1.0\" encoding=\"UTF-8\"?>\n\/01\/ Dem erwirdigen in gode vader und heren hern Balduin, erczb\u00fdschove z\u016f Tr\u00fdre unserm lieben ohem, enbieten \/02\/ wir Johan, von gots k\u016fnig z\u016f Bohemen, waz wir vermogen eren und gudes. Lieber o\u0364hem, \/03\/ wan wir Heinriche Be\u1e8fer, ritter von Boparthen, uw###tne###\/virvaterne und unserm amptmanne vil schuldig sin, \/04\/ als die brieve sprechen die wir \u1e8fme dar ubirgegeben han und en zu\u0364 disem male nit bezalen \/05\/ kunnen, als wir gerne teden. Des bidten wir uch, daz ir \u00fdme zu\u0364 Bacherach unser thornose einen, die \/06\/ wir uch versastz han, wellent lazen vallen als lange biz er sin gelt uf gehebit, daz wir \u1e8fme \/07\/ schuldig sin, do dunt ir uns eine sunderliche fruntschaft an. Zu\u0364 urkunde geben wir disen \/08\/ brief besigelt mit unserm ingesigel. Geben zu\u0364 Lu\u0364czelinborg uf den donrestag na sent Agathen \/09\/ tage do man zalte na Crists geborte druzenhundert zwe\u1e8f und virzig jar.\n"
        },
        "17": {
            "type": "remarques",
            "value": "-"
        },
        "18": {
            "type": "mention_hors_teneur",
            "value": "-"
        },
        "19": {
            "type": "note_dorsale",
            "value": "\"Rex Boemie rogate bauro permitti 1 gulde ! t[uronensem] 42. 6. februaris \u2013 quousque persolvatur.\" XV<sup>e<\/sup> s. \"\u2013 F. \u2013 Johan K\u00f6nig in B\u00f6hmen  einen ihm Viref\u00e4ndeten k\u00f6niglichen Zollturnus zu Bacherach dem Bayer von Boppard bis zur Tilgung seiner Forderung einzur\u00e4umen 1342\" XVIII<sup>e<\/sup> s."
        },
        "20": {
            "type": "edition",
            "value": "-"
        },
        "21": {
            "type": "regeste",
            "value": "J. F. B\u00d6HEMER, <i>Regesta Imperii inde ab anno MCCCXIII usque ad annum MCCCXLVII. Die Urkunden Kaiser Ludwigs des Baiern, K\u00f6nig Friedericj des Sch\u00f6nen und K\u00f6nig Johanns von B\u00f6hmen nebst einer Auswahl der Briefe und Bullen des P\u00e4pste und anderer Urkunden welche f\u00fcr die Geschichte Deutschlands von 1314 bis 1347 vorz\u00fcglich wichtig sind<\/i>, t. III, Additamentum tertium, Francfort-sur-le-Main 1865, p. 408, n\u00b0 860."
        },
        "22": {
            "type": "regeste",
            "value": "F.-X. W\u00dcRTH-PAQUET: <i>Table chronologique des chartes et dipl\u00f4mes relatifs \u00e0 l'histoire de l'ancien pays et duch\u00e9 de Luxembourg - R\u00e8gne de Jean, roi de Boh\u00eame et comte de Luxembourg 1310-1346<\/i>, in: PSH 21,2 (1865), p. 7 n\u00b0 1562."
        },
        "23": {
            "type": "regeste",
            "value": "J. EMLER (\u00e9d.), <i>Regesta diplomatica necnon epistolaria Bohemiae et Moraviae, vol. 4: Annorum 1333-1346<\/i>, Prague 1892, p. 488, n\u00b0 1224."
        },
        "24": {
            "type": "mention",
            "value": "W. REICHERT, <i>Landesherrschaft zwischen Reich und Frankreich. Verfassung, Wirtschaft und Territorialpolitik in der Grafschaft Luxemburg von der Mitte des 13. bis zur Mitte des 14. Jahrhunderts<\/i>, t. I, Tr\u00e8ves 1993, p. 247s., note 16"
        },
        "25": {
            "type": "sources_manuscrites",
            "value": "-",
            "children": {
                "type_source": "",
                "source_edition": ""
            }
        },
        "26": {
            "type": "responsable",
            "value": "David Kirt"
        },
        "27": {
            "type": "acte_scelle",
            "value": "oui"
        },
        "28": {
            "type": "sceau",
            "value": "Sceau pendant de couleur verte, attach\u00e9 \u00e0 une queue de parchemin.",
            "children": {
                "sigilla": ""
            }
        }
    }
}