{
    "id": 144199,
    "name": "transscript-962",
    "type": "acte",
    "url": "http:\/\/telma-chartes.irht.cnrs.fr\/transscript\/notice\/144199",
    "project_slug": "transscript",
    "project_label": "TRANSSCRIPT",
    "user": "t_salemme",
    "last_update": "2020-10-19 16:38:56",
    "licence": "Attribution - Pas d\u2019Utilisation Commerciale - Partage dans les M\u00eames Conditions 3.0 France (CC BY-NC-SA 3.0 FR) ",
    "licence_url": "https:\/\/creativecommons.org\/licenses\/by-nc-sa\/3.0\/fr\/",
    "elements": [
        {
            "type": "auteur",
            "value": "Thi\u00e9baut (2), duc de Lorraine et marquis"
        },
        {
            "type": "beneficiaire",
            "value": "Henri (7), comte de Luxembourg et de la Roche, marquis d\u2019Arlon"
        },
        {
            "type": "destinataire",
            "value": "-"
        },
        {
            "type": "disposant",
            "value": "Thi\u00e9baut (2), duc de Lorraine et marquis"
        },
        {
            "type": "date",
            "value": "1301\/12\/06",
            "children": {
                "date_deb_annee": "1301",
                "date_deb_mois": "12",
                "date_deb_jour": "06"
            },
            "range": {
                "date_apres": 13011206,
                "date_avant": 13011206
            }
        },
        {
            "type": "date_libre",
            "value": "-"
        },
        {
            "type": "date_lieu",
            "value": "-"
        },
        {
            "type": "cote",
            "value": "FRANCE, Paris, Biblioth\u00e8que nationale de France, Provinces Fran\u00e7aises, Collection de Lorraine, vol. 211ter, n\u00b0 70"
        },
        {
            "type": "description",
            "value": "Original sur parchemin scell\u00e9 sur double queue de parchemin"
        },
        {
            "type": "langue",
            "value": "fran\u00e7ais"
        },
        {
            "type": "authenticite",
            "value": "non suspect\u00e9"
        },
        {
            "type": "genre",
            "value": "Lettre"
        },
        {
            "type": "type_source",
            "value": "Original"
        },
        {
            "type": "analyse",
            "value": "Thi\u00e9baut de Lorraine, seigneur (de Rumigny et) de Florennes, fait savoir qu\u2019il se soumettra \u00e0 l\u2019arbitrage d\u2019Henri (7), comte de Luxembourg et de la Roche et marquis d\u2019Arlon, dans le cadre du diff\u00e9rend qui l\u2019oppose \u00e0 Jean de Looz (seigneur d\u2019Agimont)."
        },
        {
            "type": "transcription",
            "value": "<?xml version=\"1.0\" encoding=\"UTF-8\"?>\n\/01\/ Je Thiebaus de Loerraine, sires de Florines, fach savoir a tous chaus ke ces presentes lettres veront \/02\/ et oront ke, comme bestens ait este entre moi, d\u2019une part, et monseigneur Jehan de Lost, d\u2019autre, et nobles \/03\/ hons et saiges mes tres chiers et ames cousins Henris, cuens de Luxembourch, de la Roche et marchis de \/04\/ Herlons ait entrepris a acorder monseigneur Jehan deseur dit et moi dou bestench ke nos aviens \/05\/ ensamble, c\u2019est a savoir ke en toute en la maniere ke mes chiers et ames cousins deseur dis en or- \/06\/-denera et fera, je le tenrai a ferme et a estauble par le tiesmoingnage de ces presentes lettres, saielees de \/07\/ mon propre saiel, donnees l\u2019an mil .CCC. et un, le jour Saint Nicholay.\n"
        },
        {
            "type": "remarques",
            "value": "Volume incommunicable. Edition effectu\u00e9e sur base de microfilm"
        },
        {
            "type": "mention_hors_teneur",
            "value": "-"
        },
        {
            "type": "note_dorsale",
            "value": "Illisibles (acte coll\u00e9 au support) "
        },
        {
            "type": "edition",
            "value": "-"
        },
        {
            "type": "regeste",
            "value": "J. DE PANGE, <i>Catalogue des actes de Ferri III, duc de Lorraine (1251-1303)<\/i>, Paris 1930, n\u00b0 1425, p. 278"
        },
        {
            "type": "regeste",
            "value": "C. WAMPACH, <i>Urkunden- und Quellenbuch zur Geschichte der altluxemburgischen Territorien bis zur burgundischen Zeit<\/i>, t. VI, Luxembourg 1949, n\u00b0 846, p. 314"
        },
        {
            "type": "mention",
            "value": "-"
        },
        {
            "type": "sources_manuscrites",
            "value": "FRANCE, Nancy, Archives d\u00e9partementales de Meurthe-et-Moselle, B 407, f\u00b0 72v (XVI<sup>e<\/sup> s.)",
            "children": {
                "source_type": "non",
                "type_source": "Registre"
            }
        },
        {
            "type": "responsable",
            "value": "Timothy Salemme"
        },
        {
            "type": "image_interne",
            "value": "http:\/\/telma-chartes.irht.cnrs.fr\/telma_img\/transscript\/transscript-211ter_n\u00b0_70_recto.png"
        },
        {
            "type": "acte_scelle",
            "value": "oui"
        },
        {
            "type": "sceau",
            "value": "Sceau \u00e9questre de Thi\u00e9baut de Lorraine, \u00e0 l\u2019\u00e9p\u00e9e"
        }
    ]
}