{
    "id": 27418,
    "name": "transscript-840",
    "type": "acte",
    "url": "http:\/\/telma-chartes.irht.cnrs.fr\/transscript\/notice\/27418",
    "project_slug": "transscript",
    "project_label": "TRANSSCRIPT",
    "user": "t_salemme",
    "last_update": "2020-10-19 16:28:14",
    "licence": "Attribution - Pas d\u2019Utilisation Commerciale - Partage dans les M\u00eames Conditions 3.0 France (CC BY-NC-SA 3.0 FR) ",
    "licence_url": "https:\/\/creativecommons.org\/licenses\/by-nc-sa\/3.0\/fr\/",
    "elements": {
        "0": {
            "type": "auteur",
            "value": "Jacques dit <i>Cuto<\/i> d\u2019Arlon"
        },
        "1": {
            "type": "beneficiaire",
            "value": "Abbaye de Marienthal"
        },
        "2": {
            "type": "destinataire",
            "value": "-"
        },
        "3": {
            "type": "disposant",
            "value": "Jacques dit <i>Cuto<\/i> d\u2019Arlon"
        },
        "4": {
            "type": "date",
            "value": " 1264\/03\/27",
            "children": {
                "date_deb_jour": "27",
                "date_deb_mois": "03",
                "date_deb_annee": "1264"
            },
            "range": {
                "date_apres": 12640327,
                "date_avant": 12640327
            }
        },
        "5": {
            "type": "date_libre",
            "value": "-"
        },
        "6": {
            "type": "date_lieu",
            "value": "-"
        },
        "7": {
            "type": "cote",
            "value": "LUXEMBOURG, Luxembourg, Archives nationales de Luxembourg, A-XXXIX-048"
        },
        "9": {
            "type": "description",
            "value": "Original sur parchemin jadis scell\u00e9 sur lacs de soie rouge"
        },
        "10": {
            "type": "langue",
            "value": "latin"
        },
        "11": {
            "type": "authenticite",
            "value": "non suspect\u00e9"
        },
        "12": {
            "type": "genre",
            "value": "Charte"
        },
        "13": {
            "type": "type_source",
            "value": "Original"
        },
        "14": {
            "type": "analyse",
            "value": "Jacques dit <i>Cuto<\/i> d\u2019Arlon, fait savoir qu\u2019il a c\u00e9d\u00e9, avec le consentement de sa femme \u00c9lisabeth et de leurs fils, \u00e0 la prieure et aux moniales du monast\u00e8re de Marienthal, dans le dioc\u00e8se de Tr\u00e8ves, la dime grosse et menue qui lui comp\u00e8te \u00e0 titre allodial \u00e0 D\u00e9le et \u00e0 Birel, ainsi que celle qu\u2019il tient en fief de W\u00e9ric de Koerich \u00e0 Autel, en recevant en \u00e9change dudit \u00e9tablissement les biens que le couvent avait re\u00e7u \u00e0 titre allodial de C\u00e9sar chevalier d\u2019Arlon \u00e0 B\u00e9bange et une somme d\u2019argent. \u00c0 la demande de Jacques et de W\u00e9ric, le comte de Luxembourg Henri (5) ratifie la transaction par l\u2019apposition de son sceau."
        },
        "15": {
            "type": "transcription",
            "value": "<?xml version=\"1.0\" encoding=\"UTF-8\"?>\n\/01\/ Universis presentes litteras inspecturis, ego Jacobus dictus Cuto de Arluns notum facio quod decimas meas grossas et minutas, quarum una est allodialis sita apud Dele et \/02\/ Burle, altera vero feodalis sita in villa dicta vulgariter Eltere, quam tenebam a domino Wirico milite de Corrich jure feodatario, trado, accedentibus Elyzabeth uxoris mee et liberorum meorum \/03\/ consensibus et omnium quorum consensus necessarius est et merito requirendus, religiosis dominabus .. priorisse et conventui sanctimonalium Vallis Sancte Marie Treverensis dyocesis, ordinis Sancti Augustini, \/04\/ per titulum permutationis ab eisdem in perpetuum possidendas, quia dicte domine vice versa mihi tradiderunt bona sua allodialia sita apud Bebingen eis a quondam domino Ciselone bone memorie \/05\/ milite de Arluns in elemosinam collata, et nichilominus certam mihi persolverunt pecuniam competentem nomine precii, et ipsam michi tradiderunt numeratam. Quarum quidem decimarum am- \/06\/-barum possessionem et proprietatem ipsarum et quicquid juris habeo in eisdem, transfero libere et absolute in priorissam et conventum memoratas et ipsas earundem decimarum et omnium \/07\/ jurium ad eas pertinentium et appendiciorum in presenti constituo possessores. Verum ne prefate priorissa et conventus occasione supradicte feodalis decime a predicto domino Wirico, heredibus \/08\/ aut successoribus suis, vel a quoquam in posterum patiantur aliquam questionem, seu difficultatis sive dubitationis aliquis exoriatur scrupulus, in liberationem ipsius decime feodalis \/09\/ trado bona mea allodialia sita apud Vrasene predicto domino Wirico in forma recompensationis ; et illa quidem bona recipio ab eodem domino Wirico in feodo sub eisdem juribus \/10\/ et oneribus sub quibus predictam decimam feodalem que modo facta est libera et absoluta et predictis dominabus tradita obtinebam. Nos vero suprasdictus \/11\/ Wiricus miles de Corrich huic permutationi et contractui consensum adhibemus et favorem. Ut autem premissa rata perpetuo et inconcussa permaneant, presentes \/12\/ litteras inde confectas nos predicti Wiricus et Jacobus sigilli illustris viri domini nostri Henrici comitis Luccemburgensis supradictis dominabus tradimus muni- \/13\/-mine roboratas. Nos vero comes Luccemburgensis nostrum isti contractui et permutationi impertientes consensum, ad petitionem supradictorum Wirici et Jacobi \/14\/ sigillum nostrum presentibus litteris duximus appendendum et hoc ab omnibus inviolabiliter observandum sub hoc modo, quod dicta bona permutata titulo feodali a nobis meisque \/15\/ successoribus teneantur et descendant, sicut prima bona a nobis ante permutationem istam tenebantur. Actum et datum anno Domini .Mo. .CCo. .LXo. quarto, \/16\/ .VIo. kalendas aprilis.\n"
        },
        "16": {
            "type": "remarques",
            "value": "-"
        },
        "17": {
            "type": "mention_hors_teneur",
            "value": "-"
        },
        "18": {
            "type": "note_dorsale",
            "value": "\u00ab Jacobi nomine Kuto \u00bb, XIII<sup>e<\/sup> s. ; \u00ab Jacobi Kuten de donatione in Dyele et in Alter et Burell \u00bb, XIV<sup>e<\/sup> s. ; \u00ab LXXXIX \u00bb, XV<sup>e<\/sup> s. ; \u00ab aa \u00bb, XVI<sup>e<\/sup> s. ; \u00ab Loquitur de decimis in Deler, Burell, Elter \u00bb, fin XVII<sup>e<\/sup>-d\u00e9but XVIII<sup>e<\/sup>  s. ; \u00ab 1264 \u00bb, XVIII<sup>e<\/sup> s. ; \u00ab Daller, Elter, Burell. Eschange et achapt de la grosse et menue disme de Cuto d\u2019Arlon et son espouse Elisabet avec l\u2019agreation de Wiric seigneur de Koerich, ratifi\u00e9 par Henry comte de Luxembourg .VI. kalendas aprilis 1264 \u00bb, XVIII<sup>e<\/sup> s. ; \u00ab Marienthal, n\u00b0 75 \u00e0 ann\u00e9antir \u00bb, fin XVIII<sup>e<\/sup>-d\u00e9but XIX<sup>e<\/sup> s.\u00a0; \u00ab 39, 1 \u00bb, XX<sup>e<\/sup> s.  "
        },
        "19": {
            "type": "edition",
            "value": "N. VAN WERVEKE, <i>Cartulaire du prieur\u00e9 de Marienthal<\/i>, t. I, <i>1231-1317<\/i>, Luxembourg 1885, n\u00b0 89, p. 71-72 "
        },
        "20": {
            "type": "regeste",
            "value": "C. WAMPACH, <i>Urkunden- und Quellenbuch zur Geschichte der altluxemburgischen Territorien bis zur burgundischen Zeit<\/i>, t. III, Luxembourg 1939, n\u00b0 460, p. 497-498"
        },
        "21": {
            "type": "mention",
            "value": "-"
        },
        "22": {
            "type": "sources_manuscrites",
            "value": "LUXEMBOURG, Luxembourg, Archives nationales de Luxembourg, A-XXXIX-01 (1264, mars 27) (copie sur papier, XVII<sup>e<\/sup> s.)",
            "children": {
                "type_source": "Copie",
                "source_edition": ""
            }
        },
        "23": {
            "type": "responsable",
            "value": "Timothy Salemme"
        },
        "24": {
            "type": "acte_scelle",
            "value": "non"
        },
        "25": {
            "type": "sceau",
            "value": "Sceau perdu. Annonce du sceau du comte Henri (5)",
            "children": {
                "sigilla": ""
            }
        },
        "26": {
            "type": "image_interne",
            "value": "http:\/\/telma-chartes.irht.cnrs.fr\/telma_img\/transscript\/transscript-A-XXXIX-048_0000000000.jpg"
        },
        "27": {
            "type": "image_interne",
            "value": "http:\/\/telma-chartes.irht.cnrs.fr\/telma_img\/transscript\/transscript-A-XXXIX-048_0000000010.jpg"
        }
    }
}