{
    "id": 26570,
    "name": "transscript-670",
    "type": "acte",
    "url": "http:\/\/telma-chartes.irht.cnrs.fr\/transscript\/notice\/26570",
    "project_slug": "transscript",
    "project_label": "TRANSSCRIPT",
    "user": "l_gili",
    "last_update": "2020-10-19 16:28:02",
    "licence": "Attribution - Pas d\u2019Utilisation Commerciale - Partage dans les M\u00eames Conditions 3.0 France (CC BY-NC-SA 3.0 FR) ",
    "licence_url": "https:\/\/creativecommons.org\/licenses\/by-nc-sa\/3.0\/fr\/",
    "elements": {
        "0": {
            "type": "auteur",
            "value": "Philippe (6), roi de France"
        },
        "1": {
            "type": "beneficiaire",
            "value": "Raoul, duc de Lorraine et marquis"
        },
        "2": {
            "type": "destinataire",
            "value": "bailli de Chaumont"
        },
        "3": {
            "type": "destinataire",
            "value": "Lieutenant du bailli de Chaumont"
        },
        "4": {
            "type": "disposant",
            "value": "Philippe (6), roi de France"
        },
        "5": {
            "type": "date",
            "value": "apres 1332\/03\/09 - avant 1336\/09\/16",
            "children": {
                "date_deb_jour": "09",
                "date_deb_mois": "03",
                "date_deb_annee": "1332",
                "date_deb_type": "apres",
                "date_fin_type": "avant",
                "date_fin_annee": "1336",
                "date_fin_mois": "09",
                "date_fin_jour": "16"
            },
            "range": {
                "date_apres": 13320309,
                "date_avant": 13360916
            }
        },
        "6": {
            "type": "date_lieu",
            "value": "Melun"
        },
        "7": {
            "type": "cote",
            "value": "FRANCE, Nancy, Archives d\u00e9partementales de Meurthe-et-Moselle, B 810 n\u00b0 14 "
        },
        "9": {
            "type": "langue",
            "value": "fran\u00e7ais"
        },
        "10": {
            "type": "authenticite",
            "value": "non suspect\u00e9"
        },
        "11": {
            "type": "genre",
            "value": "Mandement"
        },
        "12": {
            "type": "type_source",
            "value": "Vidimus"
        },
        "13": {
            "type": "analyse",
            "value": "Philippe (6) mande au bailli de Chaumont d\u2019enlever la sauvegarde mise par les sergents royaux sur la ville de Poussay, s\u2019il est reconnu, apr\u00e8s information, que ladite ville n\u2019est pas du royaume, ni des fiefs et arri\u00e8re-fiefs de la couronne, mais du duch\u00e9 de Lorraine, ce qu\u2019affirme Raoul, se plaignant que ses droits sont viol\u00e9s par les sergents royaux qui \u00e0 la requ\u00eate des habitants sergentent en ladite ville et ailleurs dans le duch\u00e9."
        },
        "14": {
            "type": "transcription",
            "value": "<?xml version=\"1.0\" encoding=\"UTF-8\"?>\n\/01\/ Philippe par la grace de Dieu roys de France a nostre ame et feal conseillier le gouverneur des baillies de Vittry et de Chaumont ou a son lieutenant salut. Nous avons veues noz \/02\/ autres lettres contenant la fourme qui s\u2019ensuit. Philippe par la grace de Dieu roys de France au bailli de Chaumont ou a son lieutenant salut. Nostre ame Raoul duc de Lorrenne \/03\/ et marchis s\u2019est complaint a nous que par vertu d\u2019une garde donn\u00e9e par nous ou par noz gens aus habitans de la ville de Pourses la quele est assise en son droit duchi\u00e9 \/04\/ et hors de nostre royaume et de nos fiez et arriere fiez si comme il dit li duc est troublez et empeschiez en ses droiz et justices indessement par aucuns de noz sergens qui \/05\/ a la requeste des diz habitans gentent en ladite ville et ailleurs en la terre dudit duc. Pour quoi nous vous mandons que se appelle nostre procureur et ceulx de nostre \/06\/ conseil que bonnement pourrez avoir par dela il vous appert notoirement que ladite ville ne soit pas de nostre royaume ne des ressors et les diz habitanz n\u2019aient \/07\/ *** acoustumez d\u2019estre gardez par nos predecesseurs ostez ladite garde et se par vertu d\u2019icelle aucunne chose est attempt\u00e9e ou prejudice dudit duc si la remectez \/08\/ a estat deu si comme raison sera et a vous appartenra. Donn\u00e9 a Meleun sur Sainne le IXe jour de mars l\u2019an de grace mil trois cenz trente et un. Et combien que \/09\/ noz dites lettres aient este monstr\u00e9es a nostre devantier bailli de Chaumont ou a son lieutenant et requises de ycelles mettre a execucion ledit toutevoie votre devant sires \/10\/ ou ses lieustenants en fu remis et negligens si comme on dit pour quoy nous vous mandons et estroictement enjoingnons que vous ycelles enterinez et acomplissiez selonc \/11\/ leur teneur si diligenment et si devement que plainte n\u2019en reveingne par devers nous quar il nous en desplairoit. Donn\u00e9 a Sainte Katherine leez Rouen, le XVIe \/12\/ jour de septembre, l\u2019an de grace mil trois cenz trente et sis.\n"
        },
        "15": {
            "type": "mention_hors_teneur",
            "value": "\u00ab Par le roy a la rela(tio)n dou doien de S(aint) \/ Martin de Tours et mo(n)ss(eigneur) G. de Vill \/ Mah(..) (lecture incertaine). \u00bb \u00ab Facta est coll(ati)on. \u00bb."
        },
        "16": {
            "type": "note_dorsale",
            "value": "\u00ab .icent. \/ Lettres sus la sauvew(ar)de \/ de Pources ... se ... \/ est on duchaine le duc \/ ... et son li ... \/ ... qu\u2019elle soit aniantie  \/ de par le roy \u00bb, \u00ab 1336 \u00bb, \u00ab1331 \u00bb, XV<sup>e<\/sup> s. ; , \u00ab Touch(ant) Pousas que soulz \/ ... ... garde \/ du roy et franc lay \/ vouloit ... ... ... \/ de chascun \u00bb, XV<sup>e<\/sup>-XVI<sup>e<\/sup> s. ; \u00ab N\u00b0 14. \/ Mirecourt 1336 \u00bb, XVII<sup>e<\/sup> s. "
        },
        "17": {
            "type": "edition",
            "value": "-"
        },
        "18": {
            "type": "regeste",
            "value": "H. LEVALLOIS, <i>Catalogue des actes de Raoul, duc de Lorraine<\/i>, 1329 \u00e0 1346, Nancy, Biblioth\u00e8que municipale de Nancy, 1902 (dact.), n\u00b0 38 (acte vidim\u00e9) et 109 (vidimus)"
        },
        "19": {
            "type": "mention",
            "value": "-"
        },
        "20": {
            "type": "sources_manuscrites",
            "value": "FRANCE, Nancy, Archives d\u00e9partementales de Meurthe-et-Moselle, B 810 f\u00b0 281r (copie XVI<sup>e<\/sup> s)",
            "children": {
                "type_source": "Copie",
                "source_edition": ""
            }
        },
        "21": {
            "type": "responsable",
            "value": "Laura Gili-Th\u00e9baudeau"
        },
        "22": {
            "type": "acte_scelle",
            "value": "non"
        },
        "23": {
            "type": "sceau",
            "value": "Un sceau sur simple queue de parchemin perdu"
        },
        "24": {
            "type": "image_interne",
            "value": "http:\/\/telma-chartes.irht.cnrs.fr\/telma_img\/transscript\/transscript-FRAD054_B810_14r.JPG"
        },
        "25": {
            "type": "image_interne",
            "value": "http:\/\/telma-chartes.irht.cnrs.fr\/telma_img\/transscript\/transscript-FRAD054_B810_14v.JPG"
        },
        "26": {
            "type": "description",
            "value": "Vidimus sur parchemin, jadis scell\u00e9 sur simple queue"
        }
    }
}