{
    "id": 379,
    "name": "transscript-223",
    "type": "acte",
    "url": "http:\/\/telma-chartes.irht.cnrs.fr\/transscript\/notice\/379",
    "project_slug": "transscript",
    "project_label": "TRANSSCRIPT",
    "user": "t_salemme",
    "last_update": "2020-10-19 16:24:56",
    "licence": "Attribution - Pas d\u2019Utilisation Commerciale - Partage dans les M\u00eames Conditions 3.0 France (CC BY-NC-SA 3.0 FR) ",
    "licence_url": "https:\/\/creativecommons.org\/licenses\/by-nc-sa\/3.0\/fr\/",
    "elements": {
        "0": {
            "type": "analyse",
            "value": "Henri (5), comte de Luxembourg et de la Roche, marquis d'Arlon, notifie que, ayant re\u00e7u sous sa protection ma\u00eetre Roger et ses biens, il ne pr\u00e9tend pas avoir juridiction en la cour de Longuyon, appartenant \u00e0 l'\u00e9glise de Sainte-Marie <i>ad Martyres<\/i> de Tr\u00e8ves."
        },
        "1": {
            "type": "auteur",
            "value": "Henri (5), comte de Luxembourg et de la Roche, marquis d'Arlon"
        },
        "2": {
            "type": "beneficiaire",
            "value": "Eglise de Sainte-Marie <i>ad Martyres<\/i> de Tr\u00e8ves"
        },
        "3": {
            "type": "disposant",
            "value": "Henri (5), comte de Luxembourg et de la Roche, marquis d'Arlon"
        },
        "4": {
            "type": "authenticite",
            "value": "non suspect\u00e9"
        },
        "5": {
            "type": "remarques",
            "value": "Acte pr\u00e9c\u00e9d\u00e9 par le titre: \u00ab\u00a0Littera de curte in Longuinon, recognitio comitis Luxemburgensis quod pertinet monasterio. 1247\u00a0\u00bb, XVIII<sup>e<\/sup> s., et suivi par: \u00abPro extractu autentico libri antichissimi et omni expetione majoris documentorum abbatialis monasterii B. M. V. ad Sanctos Martyres prope Treviros, fo. 113, sub. litt. S. Signat. J. Rhombus, monasterii praetor et archiepiscopalis curiae Trevirensis assessor. Treviris, 5 augusti 1688 \u00bb, XVIII<sup>e<\/sup> s.; \u00ab\u00a0Collata concordat cum originali servato in archiviis Aurae Vallis quod ego notarius regius in comitatu Chiniocensi in fidem requisitus testor die decima nona aprilis, anno millesimo septingentesimo quadragesimo secundo. Duhattoy\u00a0\u00bb"
        },
        "6": {
            "type": "cote",
            "value": "BELGIQUE, Arlon, Archives de l\u2019\u00c9tat, Archives de l'abbaye Notre-Dame d'Orval, cart. 67, f\u00b0 255r"
        },
        "7": {
            "type": "responsable",
            "value": "Timothy Salemme"
        },
        "8": {
            "type": "date",
            "value": "1247\/05\/00",
            "children": {
                "date_deb_annee": "1247",
                "date_deb_mois": "05",
                "date_deb_type": "",
                "date_deb_jour": "00"
            },
            "range": {
                "date_apres": 12470500,
                "date_avant": 12470599
            }
        },
        "9": {
            "type": "description",
            "value": "Copie notari\u00e9e provenant du cartulaire d'Orval, papier, XVIII<sup>e<\/sup> s. (Recueil des archives d'Orval compos\u00e9 l'an de gr\u00e2ce 1737 par ordre de Monsieur le tr\u00e8s r\u00e9v\u00e9rend abb\u00e9 et seigneur d'Orval, Dom Jean Mathieu Mommerts, tome troisi\u00e8me)"
        },
        "11": {
            "type": "edition",
            "value": "H. GOFFINET, <i>Cartulaire de l'abbaye d'Orval depuis l'origine de ce monast\u00e8re jusqu'\u00e0 l'ann\u00e9e 1565 inclusivement, \u00e9poque de la r\u00e9union du Comt\u00e9 de Chiny au Duch\u00e9 de Luxembourg<\/i>, Bruxelles 1879, n\u00b0 273, p. 298"
        },
        "12": {
            "type": "edition",
            "value": "C. WAMPACH, <i>Urkunden- und Quellenbuch zur Geschichte der altluxemburgischen Territorien bis zur burgundischen Zeit<\/i>, t. III, Luxembourg 1939, n\u00b0 4, p. 3"
        },
        "13": {
            "type": "regeste",
            "value": "-"
        },
        "14": {
            "type": "genre",
            "value": "Charte"
        },
        "15": {
            "type": "langue",
            "value": "latin"
        },
        "16": {
            "type": "sources_manuscrites",
            "value": "-"
        },
        "17": {
            "type": "mention_hors_teneur",
            "value": "-"
        },
        "18": {
            "type": "transcription",
            "value": "<?xml version=\"1.0\" encoding=\"UTF-8\"?>\n\/01\/ Henricus, comes Luceleburgensis et Rupensis et marchio Arlunensis, \/02\/ notum facimus universis quod nullam jurisdictionem reclamamus nec \/03\/ reclamare volumus in curte de Longuion, que spectat ad ecclesiam Sancte \/04\/ Marie ad Martyres Trevirenses, pro eo quod nos magistrum Rogerum et omnia \/05\/ bona sua sub protectione nostra recepimus et tutela. Datum Luceleburgi, \/06\/ anno Domini .Mo. .CCo. .XLVIIo., mense maio.\n"
        },
        "19": {
            "type": "type_source",
            "value": "Cartulaire"
        },
        "20": {
            "type": "acte_scelle",
            "value": "non"
        },
        "21": {
            "type": "id_telma",
            "value": "630420"
        },
        "22": {
            "type": "sceau",
            "value": "-"
        },
        "23": {
            "type": "destinataire",
            "value": "-"
        },
        "24": {
            "type": "date_libre",
            "value": "-"
        },
        "25": {
            "type": "date_lieu",
            "value": "Luxembourg"
        },
        "26": {
            "type": "note_dorsale",
            "value": "-"
        },
        "27": {
            "type": "mention",
            "value": "-"
        }
    }
}