{
    "id": 41,
    "name": "transscript-21",
    "type": "acte",
    "url": "http:\/\/telma-chartes.irht.cnrs.fr\/transscript\/notice\/41",
    "project_slug": "transscript",
    "project_label": "TRANSSCRIPT",
    "user": "t_salemme",
    "last_update": "2020-10-19 16:24:52",
    "licence": "Attribution - Pas d\u2019Utilisation Commerciale - Partage dans les M\u00eames Conditions 3.0 France (CC BY-NC-SA 3.0 FR) ",
    "licence_url": "https:\/\/creativecommons.org\/licenses\/by-nc-sa\/3.0\/fr\/",
    "elements": {
        "0": {
            "type": "analyse",
            "value": "Jean (l\u2019Aveugle), roi de Boh\u00eame et de Pologne et comte de Luxembourg, fait savoir qu'il a exempt\u00e9 le monast\u00e8re cistercien de Differdange du paiement de la d\u00eeme qui lui avait \u00e9t\u00e9 accord\u00e9e par le Si\u00e8ge apostolique, en ordonnant aussi aux collecteurs de ne pas molester ledit \u00e9tablissement \u00e0 ce sujet."
        },
        "1": {
            "type": "auteur",
            "value": "Jean (l\u2019Aveugle), roi de Boh\u00eame et de Pologne, comte de Luxembourg"
        },
        "2": {
            "type": "beneficiaire",
            "value": "Abbaye de Differdange"
        },
        "3": {
            "type": "destinataire",
            "value": "Collecteurs de la d\u00eeme"
        },
        "4": {
            "type": "authenticite",
            "value": "non suspect\u00e9"
        },
        "5": {
            "type": "cote",
            "value": "LUXEMBOURG, Luxembourg, Archives nationales de Luxembourg, ASHL, Abt. 1\/4, n\u00b0 147"
        },
        "6": {
            "type": "responsable",
            "value": "Timothy Salemme"
        },
        "7": {
            "type": "date",
            "value": " 1326\/09\/19",
            "children": {
                "date_deb_annee": "1326",
                "date_deb_mois": "09",
                "date_deb_jour": "19"
            },
            "range": {
                "date_apres": 13260919,
                "date_avant": 13260919
            }
        },
        "8": {
            "type": "description",
            "value": "Original sur parchemin (mm. 228 \u00d7 92, dont queue mm. 11) scell\u00e9 sur simple queue de parchemin"
        },
        "10": {
            "type": "edition",
            "value": "A. ESTGEN, M. PAULY et J. SCHROEDER, <i>Urkunden- und Quellenbuch zur Geschichte der altluxemburgischen Territorien, begr\u00fcndet von Camille Wampach<\/i>, t. XI\/1, <i>Die Urkunden Graf Johanns des Blinden (1310-1346). Die Urkunden aus Luxemburger Archivbest\u00e4nden<\/i>, Luxembourg 1997, n\u00b0 L26 "
        },
        "11": {
            "type": "regeste",
            "value": "J. F. B\u00d6HEMER, <i>Regesta Imperii inde ab anno MCCCXIII usque ad annum MCCCXLVII. Die Urkunden Kaiser Ludwigs des Baiern, K\u00f6nig Friedericj des Sch\u00f6nen und K\u00f6nig Johanns von B\u00f6hmen nebst einer Auswahl der Briefe und Bullen des P\u00e4pste und anderer Urkunden welche f\u00fcr die Geschichte Deutschlands von 1314 bis 1347 vorz\u00fcglich wichtig sind, Additamentum primum<\/i>, Francfort-sur-le-Main 1841, p. 297, n\u00b0 391 (autre date)"
        },
        "12": {
            "type": "regeste",
            "value": "F.-X. W\u00dcRTH-PAQUET, \u00ab\u00a0Table chronologique des chartes et dipl\u00f4mes relatifs \u00e0 l\u2019histoire de l\u2019ancien pays et duch\u00e9 de Luxembourg. R\u00e8gne de Jean, roi de Boh\u00eame et comte de Luxembourg (1310-1346)\u00a0\u00bb, <i>Publications de la Section historique<\/i>, XIX (1864), n\u00b0 665"
        },
        "13": {
            "type": "genre",
            "value": "Mandement"
        },
        "14": {
            "type": "langue",
            "value": "latin"
        },
        "15": {
            "type": "sources_manuscrites",
            "value": "LUXEMBOURG, Luxembourg, Archives nationales de Luxembourg, ASHL, Abt. 1\/4 n\u00b0 147 (regeste dactylographi\u00e9 du XX<sup>e<\/sup> s. conserv\u00e9 avec l\u2019original)",
            "children": {
                "type_source": "n.c."
            }
        },
        "16": {
            "type": "note_dorsale",
            "value": "\u00ab Execution par le Roy de Boheme pour ne paier dismes \u00bb, XVIII<sup>e<\/sup> s.; \u00ab Confirmation par Jean, roy de Boheme, de Pologne, de nos titres d'exemption, a paier dismes. Enregistr\u00e9 folio 130 \u00bb, XVIII<sup>e<\/sup> s.; \u00ab 1326 feria sexta post Lambertum Ep. \u00bb, XIX<sup>e<\/sup> s."
        },
        "17": {
            "type": "transcription",
            "value": "<?xml version=\"1.0\" encoding=\"UTF-8\"?>\n\/01\/ Johannes, Dei gracia Boemie et Polonie rex ac Luccemburgensis comes, ad universorum noticiam \/02\/ deducimus per presentes quod nos, pietate moti et inspectis pluribus servi\u00e7iis que dilecte nobis \/03\/ sanctimoniales monasterii de Dieferdingin Citerciensis ordinis nobis impenduntur hucusque, ipsas \/04\/ et dictum suum monasterium a solucione decime nobis auctoritate apostolica jam concesse quitas \/05\/ esse volumus et solutas, mandantes harum sive harum universis et singulis tam executoribus \/06\/ quam colltoribuscolltoribussic pour: collectoribus dicte decime ne dictas dominas et dictum monasterium super hiis molestent \/07\/ in aliquo seu perturbent, ullo alio mandato a nobis non obstante. Datum Luccemburgi, \/08\/ anno Domini millesimo trecentesimo vicesimo sexto, feria sexta post Lamberti episcopi et martiris.\n"
        },
        "18": {
            "type": "type_source",
            "value": "Original"
        },
        "19": {
            "type": "acte_scelle",
            "value": "oui"
        },
        "20": {
            "type": "id_telma",
            "value": "629536"
        },
        "21": {
            "type": "sceau",
            "value": "Sceau pendant (fragment)"
        },
        "24": {
            "type": "disposant",
            "value": "Jean (l\u2019Aveugle), roi de Boh\u00eame et de Pologne, comte de Luxembourg"
        },
        "25": {
            "type": "date_libre",
            "value": "-"
        },
        "26": {
            "type": "date_lieu",
            "value": "Luxembourg"
        },
        "27": {
            "type": "remarques",
            "value": "-"
        },
        "28": {
            "type": "mention",
            "value": "-"
        },
        "29": {
            "type": "mention_hors_teneur",
            "value": "-"
        }
    }
}