{
    "id": 145858,
    "name": "transscript-1098",
    "type": "acte",
    "url": "http:\/\/telma-chartes.irht.cnrs.fr\/transscript\/notice\/145858",
    "project_slug": "transscript",
    "project_label": "TRANSSCRIPT",
    "user": "m_bouyer",
    "last_update": "2020-10-19 16:39:13",
    "licence": "Attribution - Pas d\u2019Utilisation Commerciale - Partage dans les M\u00eames Conditions 3.0 France (CC BY-NC-SA 3.0 FR) ",
    "licence_url": "https:\/\/creativecommons.org\/licenses\/by-nc-sa\/3.0\/fr\/",
    "elements": [
        {
            "type": "auteur",
            "value": "Ferry (4), duc de Lorraine et marquis"
        },
        {
            "type": "beneficiaire",
            "value": "Ferry (4), duc de Lorraine et marquis"
        },
        {
            "type": "beneficiaire",
            "value": "Burnequin d'Haussonville"
        },
        {
            "type": "disposant",
            "value": "Ferry (4), duc de Lorraine et marquis"
        },
        {
            "type": "disposant",
            "value": "Burnequin d'Haussonville"
        },
        {
            "type": "date",
            "value": "1322\/04\/20",
            "children": {
                "date_deb_annee": "1322",
                "date_deb_mois": "04",
                "date_deb_jour": "20"
            },
            "range": {
                "date_apres": 13220420,
                "date_avant": 13220420
            }
        },
        {
            "type": "cote",
            "value": "FRANCE, Nancy, Archives d\u00e9partementales de Meurthe-et-Moselle, B 822, n\u00b0 106"
        },
        {
            "type": "description",
            "value": "Original sur parchemin, jadis scell\u00e9 sur double queue de parchemin"
        },
        {
            "type": "langue",
            "value": "fran\u00e7ais"
        },
        {
            "type": "authenticite",
            "value": "non suspect\u00e9"
        },
        {
            "type": "genre",
            "value": "Lettre"
        },
        {
            "type": "type_source",
            "value": "Original"
        },
        {
            "type": "analyse",
            "value": "Ferry (4) fait savoir qu\u2019il a \u00e9chang\u00e9 avec Burnekin de Haussonville tout ce que Burnekin avait \u00e0 Mangonville et \u00e0 Roville-devant-Bayon pour raison d\u2019avouerie, contre une rente de 4 deniers et 1 maille toullois sur chaque feu de Tonnoy  et une rente d'1 maille toulloise sur chaque grosse b\u00eate \u00e0 M\u00e9nil."
        },
        {
            "type": "transcription",
            "value": "<?xml version=\"1.0\" encoding=\"UTF-8\"?>\n\/01\/Nous Ferris dus de Loherengne et marchis faisons savoir a tous que nous avons fait eschainge pour nous et pour nous hoirs a Burnekin \/02\/ de Hassonville escuier en teil meniere que nous aupourtons pour raison d\u2019eschainge tout ceu entierement que Burnekins avoit a Mangonville et a \/03\/ Roville pour raison de vowerie que est nostre fi\u00e9s davant tous homes et y vant Burnequins antretant com messire Jehans de Hassonville chevaliers \/04\/ seis freres y ait car c\u2019est tout d\u2019un partaige et en recompensation deis choses dessus dites li dis Burnekins empourte pour lui et pour seis hoirs \/05\/ pour raison d\u2019eschainge a tous jours maix en heritaige teil acquest com nous aviens fait a Gerairt fil Drowyn de Tournoi et a Beautrix \/06\/ feme lou dit Gerairt, c\u2019est assavoir quaitre deniers et maille sus chascun feu chascun an ensi com il appert par leis lettres de l\u2019acquest saieillees \/07\/ dou saieil de lai court de Toul que nous en avons rendue et delivree au dit Burnequun, deis queilz lettres li tenours est teilz : Je Gerairs de \/08\/ Tournoi escuiers et je Beautrix sai feme fasons savor a tous ceaulz qui ceis presentes lettres varont et orront que com nous auxiens pour nous et pour \/09\/ nous hoirs quatre deniers toullois et une maile sus chascun feu de lais ville de Tournoi, exceptei lai maison lou curei, lai maison lou signeur \/10\/ de lai dite ville et lai nostre maison, a panre chascun an a tous jours perpetuielment leis dis quatre deniers et maille a trois termines, c\u2019est assavoir lou \/11\/ tiers a lai Nativitei Nostre Signeur, l\u2019autre tiers a Paiques et et l\u2019autre tiers a lai Nativitei Sant Jehan Baptiste ou a panre tout a queil deis dis trois ter- \/12\/ -nines que il nous plairoit et com nous auxiens encor a Masnil pour chascune grosse beste amaul une maille toulloize a panre chascun an a lai Saint \/13\/ Frami par teille condiction que ce auscuns font celloit auscune dez dites bestes elle fuit acquize a nous je Gerairs etje Beautrix dou grey et de l\u2019autoritei \/14\/ mon dit mari recongnixons par ceis presens lettres que nous panssey et considerei nostre grant prefeit avons vendui, tresfonciei et acquitei, vandons, tresfon- \/15\/ -cons et acquitons par ces presentes lettres pour nous et pour nous hoirs perpetuielment toutes lez choses dessus dites a nostre chier et amei signeur haut prince et no- \/16\/ -ble Ferri duc et marchis de Loherengne a tenir et a [...] toutes lez choses dessus dites dou dit nostre signeur lou duc et de seis hoirs a tous jours maix en \/17\/ lai meniere dessus escripte sens debait de nous ne de nous hoirs, et avons fait cest vendaige pour lou preix et lai some de trente livres de \/18\/ boins petis tournois vies, lez queilz deniers nous avons eus et receus dou dit eschetour en bone monnoie bien comtee et bien nombree, et nous sons \/19\/ devestus dez dites chozes vendues pour nous et pour nous hoirs et en avons envestuy lou dit eschetour pour lui et pour seis hoirs et mis en corporeil \/20\/ possession par l\u2019outroi et lai tradition de ces presentes lettres. Et avons promis par nous foys corporelment donnees en lai main dou notaire si dessous \/21\/ escript et sus l\u2019oibligation de tous nous biens a pourtei bone warentie et loiaul a dit eschetour de choses dessus dites et que contre cest dit vendai- \/22\/ -ge ne verons venir ne ferons par nous ne par autres en queilque meniere que ceu soit et je Beautrix especialment pour raison de dons pour nouses et de \/23\/ dowaire et pour ceu nous par nous dites foys avons renunciei a l\u2019exception de boidie de circonvention de deception outre lai moiti\u00e9 de juste preix de cho- \/24\/ -ses [...] ensi faites et a toutes autres exceptions, allegations, deffences et qualietelles de fait et de droit escript et nun escript et de costume que \/25\/ nous ou nous hoirs poiroient aidier en cest fait et ai dit eschetour ou a seis hoirs graver. En tesmoingnaige de veritei et pour toutes ceis cho- \/26\/ -ses estre fermes et estaubles avons nous requix l\u2019onnorable persone et discrete l\u2019officiaul de lai court de Toul qui feisset mectre lou saieil de sai dite \/27\/ court en cez presentes lettres. Et nous li officiaulz dessus dis, a lai supplication et a lai requeste deis dis vendours faites par davant nostre fiauble clerc Jehan \/28\/ de Rosieres notaire de nostre dite court jurei a queil nous avons et volons avor foy plenne en ceis chozes et em plux grans et a lai relation dou dit \/29\/ notaire avons fait mettre lou saieil de nostre dite court de Toul en ceis presentes lettres, que furent faites et donnees l\u2019an mil trois cens et vint \/30\/ lou jeudi apres feste Sainte Katheline. Dou queil eschainge nous et nostre hoir devons pourter bone warentie et loiaul et en devons faire joir a tous \/31\/ jours maix paisiblement sens nul empaichement et sens niant aler encontre par nous ne par autrui par nulle raison que soit et de ceu a tenir avons nous \/32\/ obligiei pour nous et pour nous hoirs tous nous biens presens et avenir par tout. Et pour ceu que ceu soit ferme chose et estauble nous l\u2019en avons \/33\/ donnees ceis lettres saieillees dou saieil de nostre court de Nancey par nostre requeste et de nostre especiaul comendement. Ceu fuit fait lou mardi davant \/34\/ lai feste Saint George lou martir l\u2019an de graice Nostre Signeur mil trois cens vint et dous on moys d\u2019avril. Seing Jehan Jaique marlier de Nancey.\n"
        },
        {
            "type": "note_dorsale",
            "value": "\u00ab Eschange \/ d\u2019entre le duc Ferry et \/ Burnequin de Haussonville \/ par lequel \/ mondit seigneur duc emportece que ledit \/ Burnquemin avoit a Mangonville, \/ a Roville a cause de vouerie qui \/ meuvent ja en fied de mondit seigneur, \/ et ledit Burnequin quatre deniers maille \/ sur chacun feu de Tonnoy, que mondit \/ seigneur avoit acquest\u00e9 de Girardin de \/ Tonnoy \u00bb, XVII<sup>e<\/sup>-XVIII<sup>e<\/sup> s. ; \u00ab N 106 Nancy I \u00bb, XVII<sup>e<\/sup>-XVIII<sup>e<\/sup> s. ; \u00ab M . CCC . XXII \u00bb, XVII<sup>e<\/sup>-XVIII<sup>e<\/sup> s. ; \u00ab au mois d\u2019avril \u00bb, XVIII<sup>e<\/sup> s. ; \u00ab Registrata \u00bb, XIV<sup>e<\/sup>-XV<sup>e<\/sup> s. ; \u00ab Nancy \u00bb, XVII<sup>e<\/sup>-XVIII<sup>e<\/sup> s. ; \u00ab Registrata \u00bb (sic), XIV<sup>e<\/sup>-XV<sup>e<\/sup>s."
        },
        {
            "type": "regeste",
            "value": "J. BRIDOT, <i>Catalogue des actes de Ferry IV, Duc de Lorraine (1312-1329)<\/i>, Nancy, Biblioth\u00e8que municipale de Nancy (copie dactylographi\u00e9e du dipl\u00f4me d\u2019\u00e9tudes sup\u00e9rieures soutenu devant la Facult\u00e9 des Lettres de Nancy), 1949, n\u00b0 273"
        },
        {
            "type": "sources_manuscrites",
            "value": "FRANCE, Nancy, Archives d\u00e9partementales de Meurthe-et-Moselle, B 377, f\u00b0 99 (XVI<sup>e<\/sup> s.)",
            "children": {
                "source_type": "non",
                "type_source": "Cartulaire"
            }
        },
        {
            "type": "sources_manuscrites",
            "value": "FRANCE, Nancy, Archives d\u00e9partementales de Meurthe-et-Moselle, B 379, f\u00b0 72 (XVI<sup>e<\/sup> s.)",
            "children": {
                "source_type": "non",
                "type_source": "Cartulaire"
            }
        },
        {
            "type": "responsable",
            "value": "Mathias Bouyer"
        },
        {
            "type": "image_interne",
            "value": "http:\/\/telma-chartes.irht.cnrs.fr\/telma_img\/transscript\/transscript-FRAD054_B822_106r.jpg"
        },
        {
            "type": "acte_scelle",
            "value": "non"
        },
        {
            "type": "image_interne",
            "value": "http:\/\/telma-chartes.irht.cnrs.fr\/telma_img\/transscript\/transscript-FRAD054_B822_106v.jpg"
        }
    ]
}