{
    "id": 19974,
    "name": "transscript-429",
    "type": "acte",
    "url": "http:\/\/telma-chartes.irht.cnrs.fr\/transscript\/notice\/19974",
    "project_slug": "transscript",
    "project_label": "TRANSSCRIPT",
    "user": "t_salemme",
    "last_update": "2020-10-19 16:26:43",
    "licence": "Attribution - Pas d\u2019Utilisation Commerciale - Partage dans les M\u00eames Conditions 3.0 France (CC BY-NC-SA 3.0 FR) ",
    "licence_url": "https:\/\/creativecommons.org\/licenses\/by-nc-sa\/3.0\/fr\/",
    "elements": {
        "0": {
            "type": "auteur",
            "value": "Jean (l'Aveugle), roi de Boh\u00eame et comte de Luxembourg"
        },
        "1": {
            "type": "beneficiaire",
            "value": "Clairefontaine, abbaye"
        },
        "2": {
            "type": "destinataire",
            "value": "S\u00e9n\u00e9chal du comt\u00e9 de Luxembourg"
        },
        "3": {
            "type": "destinataire",
            "value": "Pr\u00e9v\u00f4t de Thionville"
        },
        "4": {
            "type": "destinataire",
            "value": "Officiers et justiciers du comt\u00e9 de Luxembourg"
        },
        "5": {
            "type": "disposant",
            "value": "Jean (l'Aveugle), roi de Boh\u00eame et comte de Luxembourg"
        },
        "6": {
            "type": "date",
            "value": "1346\/00\/00",
            "children": {
                "date_deb_annee": "1346",
                "date_deb_mois": "00",
                "date_deb_jour": "00"
            },
            "range": {
                "date_apres": 13460000,
                "date_avant": 13469999
            }
        },
        "7": {
            "type": "date_libre",
            "value": "-"
        },
        "8": {
            "type": "date_lieu",
            "value": "-"
        },
        "9": {
            "type": "cote",
            "value": "BELGIQUE, Arlon, Archives de l\u2019\u00c9tat, Fonds Clairefontaine, 145 (Cartulaire de Clairefontaine), f\u00b0 28r"
        },
        "11": {
            "type": "description",
            "value": "Copie dans cartulaire, XVI<sup>e<\/sup> s. (papier)"
        },
        "12": {
            "type": "langue",
            "value": "fran\u00e7ais"
        },
        "13": {
            "type": "authenticite",
            "value": "non suspect\u00e9"
        },
        "14": {
            "type": "genre",
            "value": "Mandement"
        },
        "15": {
            "type": "type_source",
            "value": "Cartulaire"
        },
        "16": {
            "type": "analyse",
            "value": "Jean (l'Aveugle), roi de Boh\u00eame et comte de Luxembourg, fait savoir qu\u2019il a donn\u00e9 et conc\u00e9d\u00e9 en aum\u00f4ne en perp\u00e9tuit\u00e9 \u00e0 l\u2019abbesse et au couvent du monast\u00e8re de Clairefontaine pr\u00e8s d\u2019Arlon tous les droits qu'il d\u00e9tient sur la neuvi\u00e8me partie des produits r\u00e9colt\u00e9s dans 12 journaux de vigne et 12 journaux de terre arable que ladite abbaye poss\u00e8de entre Cattenom et Sentzich. Il mande en outre au s\u00e9n\u00e9chal du comt\u00e9 de Luxembourg, au pr\u00e9v\u00f4t de Thionville et \u00e0 tous ses officiers et justiciers de respecter ladite donation."
        },
        "17": {
            "type": "transcription",
            "value": "<?xml version=\"1.0\" encoding=\"UTF-8\"?>\n\/01\/ Jehans, par le grace de Dieu roy de Boeme et conte de Luccembourch, a tous ceaulz \/02\/ qui ces lettres verront et orront salut. Savoir faisons nos a tous que nous, \/03\/ pour Dieu et en osmone, pour le salut des armes de nos et de nostre \/04\/ tres chiere et tres amee suer et compagne lau royne et en remuneration des \/05\/ proieres que religieuses dame et honestes nos bin ameis et feaulz \/06\/ l\u2019abbasse et le convent de Cleirfontainne souz Erlon, ont fait pour nos ou \/07\/ temps passe, et que nos esperons qu\u2019el doient fair a temps advenier, \/08\/ a ycelles religieuses avons donneit et otroiet, et par ces presentes donnons, \/09\/ otroions a tousjours maix perpetuelement tout le droit que nous avons \/10\/ ou porons avoir a cause de nuefvime en douze jour de vignes \/11\/ et en douze jour de terres arrables que lesdites religieuses ont, seanz \/12\/ es bans et terrages de nous villes de Cathenem et de Sencey\u00a0; lesqueilz \/13\/ vintquatre jours de vignes et de terres nous pour nous et pour nos \/14\/ hoirs et successeurs afranchissons dudit nuefvime, et de celles \/15\/ quittons a tousjours maix, perpetuelement. Mandons a seneschal \/16\/ de nostredit conteit, ou prevost de Thyonville et a tous autres nos offi- \/17\/-ciers et justichiers qui sont a present et qui ou temps advenier seront que \/18\/ lesdites religieuses lessent d\u2019orez en avant joir de nostre presente grace \/19\/ et, contre la tenuer d\u2019icelle, ne les empeschent en aucune maniere, ne \/20\/ ne seuffrent estre empeschies. En tesmoing de ce, nous avons fait \/21\/ saieller ces lettres de nostre seel\u00a0; donnees l\u2019an de grace .M. .Co..Co..Co. .XLVI.\n"
        },
        "18": {
            "type": "remarques",
            "value": "-"
        },
        "19": {
            "type": "mention_hors_teneur",
            "value": "-"
        },
        "20": {
            "type": "note_dorsale",
            "value": "-"
        },
        "21": {
            "type": "edition",
            "value": "H. GOFFINET, <i>Cartulaire de l'abbaye de Clairefontaine (1163-1745)<\/i>, Arlon 1876, n\u00b0 169, p. 172-173"
        },
        "22": {
            "type": "regeste",
            "value": "-"
        },
        "23": {
            "type": "mention",
            "value": "-"
        },
        "24": {
            "type": "sources_manuscrites",
            "value": "BELGIQUE, Arlon, Archives de l\u2019\u00c9tat, Fonds Clairefontaine, 147, n\u00b0 151, f\u00b0 124v-125r (copie sur papier, notaire Pierret, XVIII<sup>e<\/sup> s.)",
            "children": {
                "type_source": "Copie"
            }
        },
        "25": {
            "type": "responsable",
            "value": "Timothy Salemme"
        },
        "26": {
            "type": "acte_scelle",
            "value": "non"
        },
        "27": {
            "type": "sceau",
            "value": "-",
            "children": {
                "sigilla": ""
            }
        },
        "28": {
            "type": "image_interne",
            "value": "http:\/\/telma-chartes.irht.cnrs.fr\/telma_img\/transscript\/transscript-DSC08545.JPG"
        }
    }
}