{
    "id": 21256,
    "name": "transscript-472",
    "type": "acte",
    "url": "http:\/\/telma-chartes.irht.cnrs.fr\/transscript\/notice\/21256",
    "project_slug": "transscript",
    "project_label": "TRANSSCRIPT",
    "user": "l_gili",
    "last_update": "2020-10-19 16:27:03",
    "licence": "Attribution - Pas d\u2019Utilisation Commerciale - Partage dans les M\u00eames Conditions 3.0 France (CC BY-NC-SA 3.0 FR) ",
    "licence_url": "https:\/\/creativecommons.org\/licenses\/by-nc-sa\/3.0\/fr\/",
    "elements": {
        "0": {
            "type": "auteur",
            "value": "Raoul, duc de Lorraine"
        },
        "1": {
            "type": "beneficiaire",
            "value": "coll\u00e9giale Saint-Georges de Nancy"
        },
        "2": {
            "type": "disposant",
            "value": "Raoul, duc de Lorraine"
        },
        "3": {
            "type": "date",
            "value": " 1339\/05\/27",
            "children": {
                "date_deb_jour": "27",
                "date_deb_mois": "05",
                "date_deb_annee": "1339"
            },
            "range": {
                "date_apres": 13390527,
                "date_avant": 13390527
            }
        },
        "4": {
            "type": "cote",
            "value": "FRANCE, Nancy, Archives d\u00e9partementales de Meurthe-et-Moselle, G 342 n\u00b0 2"
        },
        "6": {
            "type": "langue",
            "value": "fran\u00e7ais"
        },
        "7": {
            "type": "authenticite",
            "value": "non suspect\u00e9"
        },
        "8": {
            "type": "genre",
            "value": "Lettre"
        },
        "9": {
            "type": "type_source",
            "value": "Original"
        },
        "10": {
            "type": "analyse",
            "value": "Raoul, duc de Lorraine, fonde \u00e0 Nancy la coll\u00e9giale Saint-Georges."
        },
        "11": {
            "type": "transcription",
            "value": "<?xml version=\"1.0\" encoding=\"UTF-8\"?>\nEn non de nostre Signour amen. Nous Raoulz, dux de Loherainne et marchis, faisons savoir a tous que comme nous a la loenge et a la glore de Deu et de toute la Trinitei la benoite Vierge Mare et de toute la coure de paradiz \/2\/ pour le salut et remeide de ames de bone memoire Ferri, dux de Loherainne et marchis, nostre pere, de nous, de nos predecessours et successours eusient conceu et proposei que en aucun leu de nostre duchiei convenauble a ceu nous fonderiens une englize collegial de chanoinnes seculers \/3\/ et la dotteriens seffisamment a la sustentation dez dis chanoinnes, nous deliberation sus ceu heue considerei et rewardei que nostre ville de Nancey l\u2019ai ou il at grant pupple et qui est planteurouse et convenable pour lez chouzes dessuis dites siet en mei leu \/4\/ de nostre duchiei et pour ceu l\u2019avons nous aleu et alisons pour ceu faire davant tous autres leus et lai en une partie de nostre hosteil en l\u2019onour de Deu et de la benoite Virge Marie sa meire et de Sainct George le martir dou consentement et auctoritei de reve-\/5\/-rent peire en Deu signour Thomes avesque de Toul par la grace de Deu avons nous draci\u00e9 et faisons faire une englize ou chapelle a nos propres despens laquelle englize ou chapelle serat appell\u00e9e Sainct George et par ceu que la dite englize ou chapelle en tout \/6\/ soit plus honor\u00e9e comme il y averat plusours menistres et qu\u2019elle serat plus enrechie nous a la sustentation dez chanoinnes de la dite englize ou chapelle avons donnei a la dite englize real et perpetuel donation en non doaire plisours possessions, rentes, \/7\/ encheues et obventions et plusours autres biens jusques a la valour de dous cens livr\u00e9es de terre a petis tournois chascun an ensi comme il est plus plainement contenu en lettres faites des dictes donations si volons et ordenons que en la dicte englize soit creet\u00a0? \/8\/ a present li nombres de vint chanoinnes le quel nombre li davant dis reverens peires ou sui successour poussent ramener et restrangne a manre nombre ce il lour sembloit que boin fuit. Encore volons que li chanoinne de la dite englize alisient un \/9\/ d\u2019aulz en prevost li quelz averet fais alz teil jurisdiction et teil pousance comme ont et avoir doient de droit li doiens dez autres collegiaulz englizes seculeires et recevrat li dis prevos et repanrat en sa novelletei tout le temporel de la dicte \/10\/ englize de nous et de nos successours et li repanrat de main et de bouche. Et est assavoir que nous retenons a nous et a nos successours a tous jourmax la donation des dites prevendes en teil maniere que nulz ne soit receus en la dite englize ne \/11\/ institueis maique alz que par nous ou nos successours dus de Loherainne serat nommeis et a cui nous averons donnei la prebende et si tost comme nous ou nos successours averons donei ai acun la prevende li prevos et li chanoinne le doient recevoir sens \/12\/ delai et sens debat et le doit li prevos envestir de la dite prevende et metre en corporel possession. Encor volons que un chascuns des diz chanoinnes ce ilz welt waigner lez gros frus de sa prevende soit tenus de faire residence personel en la dite \/13\/ englize par quinze semainnes a tout le moins. Encors donnons pour nous et pour nos successours a la dite englize et auz chanoinnes d\u2019ycelle pooir d\u2019aquarir et d\u2019aquesteir avec ceu que nous lour avons jai donnei tout ceu qu\u2019il pourront meus on non \/14\/ de la dite englize en notre terre et desous nous jusques a la somme de cent livr\u00e9es de terre a petis tournois soit en fi\u00e9s, en arrierfi\u00e9s, en wardes, en alleu ou en autres chouzes de poteil avec tout ceu que donnei serat en la dite englize on temps a ave-\/15\/-nir Par quelque maniere que ce soit sens perdre l\u2019omaige de nos hommes on cas qu\u2019il aquesteroient en nos fi\u00e9s lez quelez chouzes acheteies ou donnees a la dicte englize nous pour nous et pour nos successours volons estre amorites et amortissons dez man- \/16\/ -tenant avec toutes lez chouzes aultres que nous avons ja donnei a la dicte englize lez queiles nous amortissons en perpetuitei et aussi amortissons dez maintenant toutes autres chouzes que par nous ou par autres seront donnees a la dicte englize on temps ave \/17\/ nir. Et volons que tuit li biens dez diz chanoinnes lez queilz il tanront ou averont pour raison de la dite englize soient heritaiges, sences, frus, rentes, maisons ou autres biens queilz qu\u2019il soient appartenant a la dite englize soient eusant et franc de toute \/16\/ notre jurisdiction seculeire en teil maniere que baillis, prevos, maires, doyens, sergens ne aultres offici\u00e9s nostres ne aultres de nos gens n\u2019ait signorie ne commandement ne jurisdiction quelz qu\u2019elle soit en diz biens par prise et par sasine ne par aultre ma-\/17\/-nire quele qu\u2019elle soit. Encor avons receu et recevons pour nous et pour nos successours la dite englize le prevost, lez chanoines, lez chapellains et lez clers qui seront pour le temps lour magni\u00e9es et lour biens appartenant ai aulz et a la dicte \/18\/ englize en nostre especiaul et salve garde ou qu\u2019il soient et pouront estre et lez prometons aulz et lour biens wardeir et deffendre contre tous jusques a droit. Et avons promis et prometons par nostre foy corporelment donn\u00e9e et ausi l\u2019avons nous jurei et jurons \/19\/ comme loiaulz princes pour nous et pour nos successours dus de Loherainne que lez biens de la dite englize queilconques y soient presens ou avenir nous par nous ne par aultre ne panrons ne panre ferons ne arresterons ne arresteir ne ferons max volons \/20\/ que li chanoine et lez persones de la dite englize tegnent pasiblement ysseus biens et en jossent franchement et en facent et puisse faire lour voluntei a lour vie et a lour mort ne ne volons que li dit chanoinne puissent estre contrains par la prise ou \/21\/ sasine dez biens de la dite englize dez frus ne dez chateilz qu\u2019il en averont ou pouront avoir on temps ai avenir en la dite ville de Nancey ne en aultre leu quelz qu\u2019il soit pour quelque necessitei que nous ou nostre successour riens en pussiens avoir \/22\/ ne pour guerre ne pour lez detes dez diz chanoinnes ne pour lours meffais ne pour autre cause quel qu\u2019elle soit en semblant maniere volons nous, ordonons et jurons de touz lez autres biens que li chanoinnes et lez aultres personez de la dite en-\/23\/-glize averont ou avoir pourront on temps a avenir en la dicte ville de Nancey on ban et on finage d\u2019ycelz. Encor avons promis en bone foy et jurei sus le corps Jhesucrist pour nous et pour nos successours que nous warderons et saulverons \/24\/ wardeir et saulveir ferons ensi comme la nostre propre chouze tous les biens qui seront mis en la dicte englize pour cause de commandise ou pour autre cause quelle qu\u2019elle soit ne ne lez sasirons ne arresterons pour queil cause ne maniere que ceu soit. Encor volons \/25\/ que nos successours dus de Loherainne et marchis si tost comme il enterront en la dite ville de Nancey en lour premiere venue vaillent droit a la dicte englize et facent sollempnei sarment qu\u2019il tanront et warderont lez liberteiz et lez franchizes donn\u00e9es a le dicte \/26\/ englize par nous et par aultres et toutes lez autres chouzes dessuis dites sens nulle enfrainte. Et volons ausi que li chevaulz suis quoy li dux soirat en sa premiere venue quant ilz entrerat en la ville de Nancey soit aquis a la dite englize et aulz chanoin-\/27\/-nes. Encor volons que nostres baillis et prevost de Nancey qui seront pour le temps si tost comme il seront entreiz en lour office faisient a la dite englize sollempnei sarment que il warderont lez drois, lez franchises et lez liberteis dessus dictes. Encor volons \/28\/ que la fondation, le doaire et lez donations faites par nous en la dite englize soient tenu de chanteir chascun an pour nous une messe dou Sainct Esperit lou diemenge apr\u00e9s feste sainct George le martir tant comme nous viverons et apr\u00e9s nostre decet une messe de \/29\/ requiem a teil jour comme serat li jours que nous partirons de ceste ciegle. Et pour ceu que li dict chanoinne soient mieus tenus de ceu faire nous lour donnons a un chascun d\u2019aulz tant conjuctement que diviseement affouaige pour lours hosteilz en nos boix \/30\/ de Heis on leu lai ou cil de Nancey le prennent et panront. Et toutevoie se nous ou nos successour l\u2019empachiens a cealz de Nancey si volons nous que li chanoinne l\u2019aient on leu soffisant preis de Nancey selonc l\u2019assenement dou grouyer qui serat pour le temps \/31\/ lou queil li diz grouyers serat tenus de faire. Et toutes lez chouzes dessus dites avons nous promis et prometons pour nous et pour nos successours tenir et wardeir fermement et non venir encontre en tout ne en partie suis poinne d\u2019escumeniement et \/32\/ suis obligation de tous nos biens et de nos successours. Et volons et consentons que si nous ou nos successour ou cil que cause averient de nous allient de riens encontre les chouzes dessus dites que a la requeste dez diz chanoinnes ou de lour procurour \/33\/ reverens peires en Deu li evesques de Toul qui serat pour le temps nous puisse ammoneteir que dedens seix jours ou dedens autre termine soffisant fasient assez aulz diz chanoinnes dez gri\u00e9s, damaiges, injures et empauchement dessuis dit et se nous \/34\/ ne le faisiens li dis reverens peires apreis quarante jours ou aprez autre termine soffizant nous puisse excomenier et se nous ou nos successour ou cil que cause averient de nous sosteniens la dite cause d\u2019excomeniement par quarante jours ceu que \/35\/ Deus ne welle nous volons et consentons que li ordinaires dou leu ou sez officiaulz a la requeste dez diz chanoinnes puissient metre l\u2019entredit en nostre terre et quant a ceu nous obligons nous et nos successours nos biens et lez lours et en submetons \/36\/ nous et nos successours a la jurisdiction dou dit ordenaire. En tesmongnaige dez quelz chouzes nous avons fait metre nostre grand seel en cez presentes lettres et supplions au dit reverent peire mon signour Thomas par la grace de Deu evesque de Toul que tou-\/37\/-tes les chouzes dessuis dites faites a nostre plaisir et nostre grei welle loeir, estaublir, ordeneir, approveir et [...]eir. Et nous Thomas par la grace de Deu evesques de Toul considerei et resgardei la dite englize ou chapelle estre fond\u00e9e et do\u00e9e on dit leu de nostre auctoritei et \/38\/ nous ausi\u00a0? soffisamment [....]ei le dit doaire, possessions et (eassues)\u00a0? et autres [...] a la dite englize jusques a la vallour de dous cens livr\u00e9es de terre a petis tournoix chascun an les queles dous cens livr\u00e9es de terre doit soffire quant \/39\/ a leu [fin]ancement de la fondation et dou nombre dessuis dit saulf le droit de restrengner [...] semble boin considerei ausi et regardei la plantei et condition dou pays et le boin propos dou dit prince et ausi lez sarmens, les obligations, les \/40\/ libertez et les donations dessuis dites tendans a l\u2019acressement dou servise de Deu a sa [...] [approvons] la dite fondation le propous et la voluntei dou dit prince et volons que toutes les chouzes dessuis dites vaillent et lez estaublissons et la confermons \/41\/ par la tenour de ces presentes lettres. Et y mettons nostre auctoritei en signe de ceu qu\u2019elles [...] [perpet]uelment. En tesmongnage de ceu avons nous mis nostre seel en ces presentes lettres avec le seel dou dit duc donn\u00e9es l\u2019an nostre Signour mil trois \/42\/ cens trente nuef, le juedi apr\u00e9s la feste de la Sain[ct \u2026] [\u2026]ent.\n"
        },
        "12": {
            "type": "mention_hors_teneur",
            "value": ""
        },
        "13": {
            "type": "note_dorsale",
            "value": "\u00ab\u00a0N\u00b0 1\u00a0\u00bb, XIX<sup>e<\/sup>-XX<sup>e<\/sup> s.\n"
        },
        "14": {
            "type": "edition",
            "value": "[C.-L. HUGO]) <i>Trait\u00e9 historique et critique sur l\u2019origine et la g\u00e9n\u00e9alogie de la maison de Lorraine avec les chartes servant de preuves [...]<\/i>, Berlin, 1740, Preuves, p. \u00a0cxxiii-cxxx",
            "children": {
                "commentaire": "Le texte \u00e9dit\u00e9 est en latin. L\u2019\u00e9diteur \u00e9crit en t\u00eate du document la date erron\u00e9e \u00ab\u00a01330\u00a0\u00bb."
            }
        },
        "15": {
            "type": "edition",
            "value": "H. LEPAGE, <i>L\u2019Insigne \u00e9glise coll\u00e9giale Saint-Georges de Nancy<\/i>,\u00a0in \u00ab\u00a0Bulletin de la Soci\u00e9t\u00e9 d\u2019Arch\u00e9ologie lorraine\u00a0\u00bb, 1849, t.\u00a0I, 1, p. 157-284. Pi\u00e8ces justificatives, n\u00b0\u00a05 (d\u2019apr\u00e8s B)"
        },
        "16": {
            "type": "regeste",
            "value": "H. LEVALLOIS, <i>Catalogue des actes de Raoul, duc de Lorraine, 1329 \u00e0 1346<\/i>, Nancy,\u00a0Biblioth\u00e8que municipale de Nancy, 1902 (dact.), n\u00b0 169"
        },
        "17": {
            "type": "mention",
            "value": "H. LEPAGE, <i>Les communes de la Meurthe, Journal historique des villes, bourgs, villages, hameaux et censes de ce d\u00e9partement<\/i>, Nancy, 1853, t. II, p. 99 (d\u2019apr\u00e8s B). En ligne sur GALLICA\u00a0: <a target=\"_blank\" href=\"http:\/\/gallica.bnf.fr\/ark:\/12148\/bpt6k9632309g \">http:\/\/gallica.bnf.fr\/ark:\/12148\/bpt6k9632309g<\/a>"
        },
        "18": {
            "type": "sources_manuscrites",
            "value": "FRANCE, Nancy, Archives d\u00e9partementales de Meurthe-et-Moselle, G\u00a0342 (traduction fran\u00e7aise exp\u00e9di\u00e9e avec l\u2019original)",
            "children": {
                "type_source": "n.c."
            }
        },
        "19": {
            "type": "sources_manuscrites",
            "value": "FRANCE, Nancy, Archives d\u00e9partementales de Meurthe-et-Moselle, B\u00a0711, n\u00b0 38 (copie notari\u00e9e du 9 ao\u00fbt 1341 par Drue de Bi\u00e9court)",
            "children": {
                "type_source": "Copie"
            }
        },
        "20": {
            "type": "sources_manuscrites",
            "value": "FRANCE, Nancy, Archives d\u00e9partementales de Meurthe-et-Moselle, B\u00a0375 f\u00b0\u00a034\u00a0; B\u00a0418 f\u00b0\u00a01 (XVI<sup>e<\/sup>\u00a0s. - d\u2019apr\u00e8s la copie notari\u00e9e)",
            "children": {
                "type_source": "Cartulaire"
            }
        },
        "21": {
            "type": "sources_manuscrites",
            "value": "FRANCE, Nancy, Biblioth\u00e8que municipale, ms. n\u00b0\u00a0602 (456), p. \u00a01 \u00e0 14 (copie du XVIII<sup>e<\/sup> si\u00e8cle - d\u2019apr\u00e8s A, acte en latin, ou B, traduction fran\u00e7aise)",
            "children": {
                "type_source": "Copie"
            }
        },
        "22": {
            "type": "responsable",
            "value": "Laura Gili-Th\u00e9baudeau"
        },
        "23": {
            "type": "image_interne",
            "value": "http:\/\/telma-chartes.irht.cnrs.fr\/telma_img\/transscript\/transscript-FRAD054_G342_2r_1.JPG"
        },
        "24": {
            "type": "acte_scelle",
            "value": "non",
            "children": {
                "sigilla": ""
            }
        },
        "25": {
            "type": "image_interne",
            "value": "http:\/\/telma-chartes.irht.cnrs.fr\/telma_img\/transscript\/transscript-FRAD054_G342_2r_2.JPG"
        },
        "26": {
            "type": "remarques",
            "value": "Dans le marge, notes archivistiques : \u00ab\u00a0Le jeudy apres la Sainte Trinit\u00e9 \/ 1339 \/ Armoire 3 \/ 1r partie \/ Liasse 1e \/ N\u00b0 1\u00a0\u00bb.",
            "children": {
                "commentaire": "LGT : dater"
            }
        },
        "27": {
            "type": "image_interne",
            "value": "http:\/\/telma-chartes.irht.cnrs.fr\/telma_img\/transscript\/transscript-T-472_FRAD054_G342v.JPG"
        },
        "28": {
            "type": "description",
            "value": "Original sur parchemin, jadis scell\u00e9"
        }
    }
}