{
    "id": 264,
    "name": "transscript-159",
    "type": "acte",
    "url": "http:\/\/telma-chartes.irht.cnrs.fr\/transscript\/notice\/264",
    "project_slug": "transscript",
    "project_label": "TRANSSCRIPT",
    "user": "t_salemme",
    "last_update": "2020-10-19 16:24:55",
    "licence": "Attribution - Pas d\u2019Utilisation Commerciale - Partage dans les M\u00eames Conditions 3.0 France (CC BY-NC-SA 3.0 FR) ",
    "licence_url": "https:\/\/creativecommons.org\/licenses\/by-nc-sa\/3.0\/fr\/",
    "elements": {
        "0": {
            "type": "analyse",
            "value": "Arnould, comte de Looz, seigneur de Rummen et Quabeek, fait savoir que, suite \u00e0 la vente du comt\u00e9 de Chiny qu\u2019il a op\u00e9r\u00e9e en faveur de Wenceslas (1), duc de Luxembourg et de Brabant, il a demand\u00e9 \u00e0 tous seigneurs, bannerets, chevaliers, \u00e9cuyers, hommes de fief, villes, franchises, officiers, pr\u00e9v\u00f4ts, sergents, mayeurs, \u00e9chevins et habitants dudit comt\u00e9 de reconna\u00eetre le dit duc pour l\u00e9gitime seigneur et de lui pr\u00eater l\u2019hommage d\u00fb."
        },
        "1": {
            "type": "auteur",
            "value": "Arnold, comte de Looz, seigneur de Rummen et Quabeek"
        },
        "2": {
            "type": "beneficiaire",
            "value": "Wenceslas (1), duc de Luxembourg et de Brabant"
        },
        "3": {
            "type": "destinataire",
            "value": "Seigneurs, bannerets, chevaliers, \u00e9cuyers, hommes de fief, villes, officiers, pr\u00e9v\u00f4ts, sergents, ma\u00efeurs, \u00e9chevins et habitants du comt\u00e9 de Chiny"
        },
        "4": {
            "type": "disposant",
            "value": "Arnold, comte de Looz, seigneur de Rummen et Quabeek"
        },
        "5": {
            "type": "authenticite",
            "value": "non suspect\u00e9"
        },
        "6": {
            "type": "cote",
            "value": "BELGIQUE, Bruxelles, Archives G\u00e9n\u00e9rales du Royaume, Fonds Chartes et Cartulaires de Luxembourg, n\u00b0 1095 "
        },
        "7": {
            "type": "responsable",
            "value": "Timothy Salemme"
        },
        "8": {
            "type": "date",
            "value": " 1365\/02\/25",
            "children": {
                "date_deb_annee": "1365",
                "date_deb_mois": "02",
                "date_deb_jour": "25"
            },
            "range": {
                "date_apres": 13650225,
                "date_avant": 13650225
            }
        },
        "9": {
            "type": "description",
            "value": "Original sur parchemin (mm. 252\/250 \u00d7 153\/135, dont queue mm. 13), scell\u00e9 sur simple queue de parchemin (attache parisienne)"
        },
        "11": {
            "type": "edition",
            "value": "M. J. WOLTERS, <i>Codex diplomaticus Lossensis ou Recueil et analyse de chartes servant de preuves \u00e0 l'histoire de l'ancien comt\u00e9 de Looz<\/i>, Gand 1849, p. 362"
        },
        "12": {
            "type": "regeste",
            "value": "A. VERKOOREN, <i>Inventaire des chartes et cartulaires du Luxembourg (comt\u00e9, puis duch\u00e9)<\/i>, t. III, Bruxelles 1915, n\u00b0 1095"
        },
        "13": {
            "type": "genre",
            "value": "Lettre"
        },
        "14": {
            "type": "langue",
            "value": "fran\u00e7ais"
        },
        "15": {
            "type": "sources_manuscrites",
            "value": "BELGIQUE, Bruxelles, Archives G\u00e9n\u00e9rales du Royaume, Fonds Chartes et Cartulaires de Luxembourg, cartulaire VIII, f\u00b0 46 (copie dans cartulaire du XVII<sup>e<\/sup> s. (1625))",
            "children": {
                "type_source": "Cartulaire"
            }
        },
        "16": {
            "type": "note_dorsale",
            "value": "\u00ab Qualiter comes Lossensis requirit subditos comitatus de Chiny quod faciant duci Wenceslao fidelitatem \u00bb et \u00ab XXX \u00bb, XIV<sup>e<\/sup> s. ; \u00ab XXVIII \u00bb, XIV<sup>e<\/sup> s. ; \u00ab 1364 \u00bb et \u00ab I. 28 \u00bb, XVIII<sup>e<\/sup>-XIX<sup>e<\/sup> s."
        },
        "17": {
            "type": "transcription",
            "value": "<?xml version=\"1.0\" encoding=\"UTF-8\"?>\n\/01\/ Nous Arnolt, conte de Los, sires de Ruminez et de Quacbecke, faisons savoir a tous que, comme nouz pour \/02\/ nostre tres grant necessiteit ayens vendut nostre conteit de Chiny et toutez ses appartenances a tres hault et tres puissant prince \/03\/ nostre tres chier et redoubte signeur monsigneur Wenceslau, duc de Luccembourch et de Brabant, pour certeine somme de florins \/04\/ si comme contenut est es lettres principales sur ce faites, de laqueille il nous at asseiz fait et bien payet, et nous en tenons \/05\/ a bien content ; si prions et requerons a tous signeurs banneres, chevaliers, escuiers, hommes de fies, bonnes villes \/06\/ franchises, officyeus, prevos, sergens, maiours, eschevins et a tout le comun pays de la dicte conteit de Chiny que vous \/07\/ et chascun de vous veilles faire teille feauteit que a nous deveriez se vendut ne vous aviens, a devant dit monsigneur \/08\/ le duc, et le veilles tenir pour vostre droit signeur heritier, car nous avons renonchiet et dez maintenant renonchons \/09\/ a ladicte conteit de Chini, a toutes ses appartenances, a vous et a chascun de vous senz malengien. Tesmoing ces \/10\/ lettres saeleez de nostre sael. Donnees a Bruxelle, .XXV. jours en f\u00e9vrier, l\u2019an mil troiscent sixante quatre selonc \/11\/ la coustume de la diocese de Cambray.\n"
        },
        "18": {
            "type": "type_source",
            "value": "Original"
        },
        "19": {
            "type": "acte_scelle",
            "value": "oui"
        },
        "20": {
            "type": "id_telma",
            "value": "630330"
        },
        "21": {
            "type": "sceau",
            "value": "Petit sceau armorial d'Arnould de Rummen, \u00e0 l'\u00e9cu \u00e9cartel\u00e9 aux 1 et 4 de Looz (burel\u00e9) et de Chiny (sem\u00e9 de croisettes, \u00e0 deux bars adoss\u00e9s) et aux 2 et 3 de Heinsberg (lion couronn\u00e9, la queue fourchue); dans un polylobe. L\u00e9gende : + S. ARN[OLDI COMIT' [LOSSENS' AC DNI DE RVME ET] DE QECB'"
        },
        "22": {
            "type": "date_libre",
            "value": "-"
        },
        "23": {
            "type": "date_lieu",
            "value": "Bruxelles"
        },
        "25": {
            "type": "remarques",
            "value": "-"
        },
        "26": {
            "type": "mention_hors_teneur",
            "value": "-"
        },
        "27": {
            "type": "mention",
            "value": "-"
        },
        "28": {
            "type": "image_interne",
            "value": "http:\/\/telma-chartes.irht.cnrs.fr\/telma_img\/transscript\/transscript-510_0023_000_01095_000_r.jpg"
        },
        "29": {
            "type": "image_interne",
            "value": "http:\/\/telma-chartes.irht.cnrs.fr\/telma_img\/transscript\/transscript-510_0023_000_01095_000_v.jpg"
        }
    }
}