{
    "id": 26572,
    "name": "transscript-672",
    "type": "acte",
    "url": "http:\/\/telma-chartes.irht.cnrs.fr\/transscript\/notice\/26572",
    "project_slug": "transscript",
    "project_label": "TRANSSCRIPT",
    "user": "l_gili",
    "last_update": "2020-10-19 16:28:02",
    "licence": "Attribution - Pas d\u2019Utilisation Commerciale - Partage dans les M\u00eames Conditions 3.0 France (CC BY-NC-SA 3.0 FR) ",
    "licence_url": "https:\/\/creativecommons.org\/licenses\/by-nc-sa\/3.0\/fr\/",
    "elements": {
        "0": {
            "type": "auteur",
            "value": "Ferry (4), duc de Lorraine et marquis"
        },
        "1": {
            "type": "beneficiaire",
            "value": "Symon dit \u00ab le Bourguignon \u00bb"
        },
        "2": {
            "type": "destinataire",
            "value": "-"
        },
        "3": {
            "type": "disposant",
            "value": "Ferry (4), duc de Lorraine et marquis"
        },
        "4": {
            "type": "date",
            "value": "1329\/03\/31",
            "children": {
                "date_deb_jour": "31",
                "date_deb_mois": "03",
                "date_deb_annee": "1329",
                "date_deb_type": ""
            },
            "range": {
                "date_apres": 13290331,
                "date_avant": 13290331
            }
        },
        "5": {
            "type": "date_lieu",
            "value": "-"
        },
        "6": {
            "type": "cote",
            "value": "FRANCE, Paris, Biblioth\u00e8que Nationale de France, Provinces fran\u00e7aises, Collection de Lorraine, vol. 3 n\u00b0 30"
        },
        "8": {
            "type": "langue",
            "value": "fran\u00e7ais"
        },
        "9": {
            "type": "authenticite",
            "value": "non suspect\u00e9"
        },
        "10": {
            "type": "genre",
            "value": "Lettre"
        },
        "11": {
            "type": "type_source",
            "value": "Original"
        },
        "12": {
            "type": "analyse",
            "value": "Reconnaissance par Ferry (4), d\u2019une dette de 90 florins de Florence envers Simon, dit le Bourguignon, dit des Bons Enfants, tavernier, demeurant rue Saint Victor \u00e0 Paris ; avec promesse de les lui payer \u00e0 la prochaine Saint-Jean, se soumettant \u00e0 la juridiction du Ch\u00e2telet et donnant comme caution Bugny fils d\u2019Alexandre Bugny, Lombard d\u2019Asti."
        },
        "13": {
            "type": "transcription",
            "value": "<?xml version=\"1.0\" encoding=\"UTF-8\"?>\n\/01\/ Nous Ferris, dus de Loherenne et marchis, faisons savoir a tous que nos devons a Symon le bour-\/02\/-guinion dit dez boins enfans le tavernier demorant en la rue saint Victour a Paris [par ceu que ] \/03\/ nos ait presteiz et fait avoir en la ville de Paris quatre vins et deix petis florins de Florence \/04\/ [...] paris.. lesquels nous li prometons paier en bone foi et leament a lui ou a son comandement \/05\/ que cez lettres averoit a ceste feiste saint Jehan-Baptiste prochienement venant sus l\u2019obligation de tous nos \/06\/ biens moblez et non moblez presens et avenir et nous en submetons en la juridition dou chastellet \/07\/ de Paris ; et de ceu a tenir c\u2019est establis plaiges por nous et a nostre requeste en la main dou \/08\/ dit Symon nostre bien amez sires Bugnys, filz Alixandre Bugny lombart d\u2019Ast qui fuit, lou quel \/09\/ nos on prometons a quieteir de tous damaiges suz l\u2019obligement de tous mons dis biens. En \/10\/ tesmoingnaige de veritei nos avons mis nostre saiel pendant en cez lettres faites l\u2019an mil CCC. et \/11\/ et vint et nuef le vanredi apr\u00e9s l\u2019anuntiation Nostre Dame on mois de mairs.\n"
        },
        "14": {
            "type": "mention_hors_teneur",
            "value": "-"
        },
        "15": {
            "type": "note_dorsale",
            "value": "\u00ab Quittance de Symon de Paris \u00bb, XIV<sup>e<\/sup> s. ; \u00ab Obligation faite par Ferry, duc de Lorraine, \/ de 90 petits florins de Florence au profit \/ de Simon le Bourguignon tavernier a Paris \/ rue de Saint Victor \/ avec la quittance de la dite somme. 1329 \u00bb, \u00ab mars 1329 \u00bb, XVIII<sup>e<\/sup> s. "
        },
        "16": {
            "type": "edition",
            "value": "-"
        },
        "17": {
            "type": "regeste",
            "value": "J. BRIDOT, <i>Catalogue des actes de Ferry IV, Duc de Lorraine (1312-1329)<\/i>, Nancy, Biblioth\u00e8que municipale de Nancy (copie dactylographi\u00e9e du dipl\u00f4me d\u2019\u00e9tudes sup\u00e9rieures soutenu devant la Facult\u00e9 des Lettres de Nancy) 1949 n\u00b0 442"
        },
        "18": {
            "type": "mention",
            "value": "H. LEVALLOIS, <i>Table chronologique provisoire des actes des ducs Thi\u00e9baut II et Ferry IV conserv\u00e9s dans le Tr\u00e9sor des chartes de Lorraine ou publi\u00e9s et analys\u00e9s<\/i>, Nancy, Biblioth\u00e8que municipale, ms. 1185 (4 et 5)"
        },
        "19": {
            "type": "sources_manuscrites",
            "value": "-",
            "children": {
                "type_source": "",
                "source_edition": ""
            }
        },
        "20": {
            "type": "responsable",
            "value": "Laura Gili-Th\u00e9baudeau"
        },
        "21": {
            "type": "acte_scelle",
            "value": "oui"
        },
        "22": {
            "type": "sceau",
            "value": "Un sceau sur double queue de parchemin, en cire brune, d\u00e9t\u00e9rior\u00e9"
        },
        "23": {
            "type": "image_interne",
            "value": "http:\/\/telma-chartes.irht.cnrs.fr\/telma_img\/transscript\/transscript-BNF_Coll.Lorr_3_030r_1.jpg"
        },
        "24": {
            "type": "image_interne",
            "value": "http:\/\/telma-chartes.irht.cnrs.fr\/telma_img\/transscript\/transscript-BNF_Coll.Lorr_3_030v.jpg"
        },
        "25": {
            "type": "description",
            "value": "Original sur parchemin (207 x 133 mm, scell\u00e9 sur double queue de parchemin"
        }
    }
}