{
    "id": 144462,
    "name": "transscript-1024",
    "type": "acte",
    "url": "http:\/\/telma-chartes.irht.cnrs.fr\/transscript\/notice\/144462",
    "project_slug": "transscript",
    "project_label": "TRANSSCRIPT",
    "user": "t_salemme",
    "last_update": "2020-10-19 16:39:00",
    "licence": "Attribution - Pas d\u2019Utilisation Commerciale - Partage dans les M\u00eames Conditions 3.0 France (CC BY-NC-SA 3.0 FR) ",
    "licence_url": "https:\/\/creativecommons.org\/licenses\/by-nc-sa\/3.0\/fr\/",
    "elements": [
        {
            "type": "auteur",
            "value": "Jean (l\u2019Aveugle), roi de Boh\u00eame et de Pologne, comte de Luxembourg"
        },
        {
            "type": "beneficiaire",
            "value": "Hermann de Bassenheim, chevalier"
        },
        {
            "type": "destinataire",
            "value": "-"
        },
        {
            "type": "disposant",
            "value": "Jean (l\u2019Aveugle), roi de Boh\u00eame et de Pologne, comte de Luxembourg"
        },
        {
            "type": "date",
            "value": "1326\/09\/28",
            "children": {
                "date_deb_annee": "1326",
                "date_deb_mois": "09",
                "date_deb_jour": "28"
            },
            "range": {
                "date_apres": 13260928,
                "date_avant": 13260928
            }
        },
        {
            "type": "date_libre",
            "value": "-"
        },
        {
            "type": "date_lieu",
            "value": "-"
        },
        {
            "type": "cote",
            "value": "FRANCE, Saint-Julien-l\u00e8s-Metz, Archives d\u00e9partementales de la Moselle, 7F 13 n\u00b0 137"
        },
        {
            "type": "description",
            "value": "Original sur parchemin (mm. 200\/200 x 85, dont queue mm. 7) scell\u00e9 sur simple queue de parchemin"
        },
        {
            "type": "langue",
            "value": "latin"
        },
        {
            "type": "authenticite",
            "value": "non suspect\u00e9"
        },
        {
            "type": "genre",
            "value": "Lettre"
        },
        {
            "type": "type_source",
            "value": "Original"
        },
        {
            "type": "analyse",
            "value": "Jean (l\u2019Aveugle), roi de Boh\u00eame et de Pologne et comte de Luxembourg, fait savoir qu\u2019il a acquis comme vassal Hermann de Bassenheim, chevalier, au prix de 100 livres de Halle, qu\u2019il s\u2019engage \u00e0 lui verser durant l\u2019ann\u00e9e ; \u00e0 d\u00e9faut du payement, il lui assignera une rente annuelle de 10 livres de Halle jusqu\u2019au remboursement de ladite somme. Une fois le payement effectu\u00e9, Hermann s\u2019engage \u00e0 reprendre en fief dudit Jean (l\u2019Aveugle) 10 livr\u00e9es de terre de son franc-alleu."
        },
        {
            "type": "transcription",
            "value": "<?xml version=\"1.0\" encoding=\"UTF-8\"?>\n\/01\/ Johannes, Dei gratia Bohemie et Polonie rex comesque Luceburgensis, notum facimus universis quod nos dilectum nostrum nobilem virum \/02\/ Hermannum de Bassenheem, militem, pro centum libris hallensium sibi per nos infra annum a data presentium persolvendis \/03\/ in nostrum et heredum nostrorum comitum Luceburgensium, receptis primitus ab eodem fide et homagio, hominem aquisivimus \/04\/ et vassallum ; ita tamen quod, nisi dicta peccunia dicto militi infra dictum terminum persolvatur, nos eidem decem libras annui \/05\/ redditus predicte monete facere et assidere tenemur, percipien(das) et levan(das) singulis annis usque ad plenariam solutionem \/06\/ peccunie supradicte. Dicta autem peccunie summa persoluta, dictus miles vel eius heredes decem libratas terre in et de \/07\/ suo allodio assignare tenentur, quas a nobis et heredibus nostris comitibus Luceburgensibus tenebunt in feodum et \/08\/ homagium, et dictam terram a nobis sibi ut predicitur assignatam reddent nobis liberam et immunem dictasque decem libratas \/09\/ terre a nobis seu heredibus nostris predictis, quotienscumque casus se offeret, per fidem et hommagium relevabunt, et pro ipsa \/10\/ terra nobis nostrisque heredibus servire tanquam fideles et vasalli nostri et heredum nostrorum in perpetuum tenebuntur. In \/11\/ quorum testimonium sigillum nostrum litteris presentibus duximus apponendum. Datum die dominica in vigilia Sancti Michaelis, anno \/12\/ Domini millesimo .CCCo. vicesimo sexto.\n"
        },
        {
            "type": "remarques",
            "value": "-"
        },
        {
            "type": "mention_hors_teneur",
            "value": "-"
        },
        {
            "type": "note_dorsale",
            "value": "\u00ab Eyn Leynbryeff  herr Iohan (<i>sic<\/i>) van Baissehem \u00bb, XV<sup>e<\/sup> s. ; \u00ab Irerman de Bassenheym vassal de Jean de boheme, comte de Luxembourg. 1326 \u00bb, XVIII<sup>e<\/sup> s. ; \u00ab 536 \u00bb, XX<sup>e<\/sup> s."
        },
        {
            "type": "edition",
            "value": "F.-X. W\u00dcRTH-PAQUET et N. VAN WERVEKE, \u00ab Archives de Clervaux \u00bb, <i>Publications de la Section historique<\/i>, XXXVI (1883), n\u00b0 137, p. 32-33"
        },
        {
            "type": "regeste",
            "value": "-"
        },
        {
            "type": "mention",
            "value": "-"
        },
        {
            "type": "sources_manuscrites",
            "value": "-"
        },
        {
            "type": "responsable",
            "value": "Timothy Salemme"
        },
        {
            "type": "image_interne",
            "value": "http:\/\/telma-chartes.irht.cnrs.fr\/telma_img\/transscript\/transscript-2018-08-31_12.11.08.jpg"
        },
        {
            "type": "acte_scelle",
            "value": "oui"
        },
        {
            "type": "sceau",
            "value": "Fragment du sceau du comte de Luxembourg Jean (l\u2019Aveugle)"
        },
        {
            "type": "image_interne",
            "value": "http:\/\/telma-chartes.irht.cnrs.fr\/telma_img\/transscript\/transscript-2018-08-31_12.11.23.jpg"
        }
    ]
}