{
    "id": 79,
    "name": "transscript-40",
    "type": "acte",
    "url": "http:\/\/telma-chartes.irht.cnrs.fr\/transscript\/notice\/79",
    "project_slug": "transscript",
    "project_label": "TRANSSCRIPT",
    "user": "t_salemme",
    "last_update": "2020-10-19 16:24:53",
    "licence": "Attribution - Pas d\u2019Utilisation Commerciale - Partage dans les M\u00eames Conditions 3.0 France (CC BY-NC-SA 3.0 FR) ",
    "licence_url": "https:\/\/creativecommons.org\/licenses\/by-nc-sa\/3.0\/fr\/",
    "elements": {
        "0": {
            "type": "analyse",
            "value": "Jean (l\u2019Aveugle), roi de Boh\u00eame et comte de Luxembourg, notifie devoir \u00e0 son \u00e9cuyer Jacques de Moncler 500 livres de bons petits tournois \u00e0 8 gros tournois pour 15 tournois petits, en raison de la garde de sa maison de Freudenburg, que ledit Jacques doit assurer pendant six semaines; ladite somme lui a \u00e9t\u00e9 assign\u00e9e par 60 livr\u00e9es de terre en la cour de Cattenom; il reprend aussi en fief du comte de Luxembourg la ville de Beurig avec ses d\u00e9pendances."
        },
        "1": {
            "type": "auteur",
            "value": "Jean (l\u2019Aveugle), roi de Boh\u00eame et comte de Luxembourg"
        },
        "2": {
            "type": "beneficiaire",
            "value": "Jacques de Montclair, \u00e9cuyer"
        },
        "3": {
            "type": "disposant",
            "value": "Jean (l\u2019Aveugle), roi de Boh\u00eame et comte de Luxembourg"
        },
        "4": {
            "type": "authenticite",
            "value": "non suspect\u00e9"
        },
        "5": {
            "type": "cote",
            "value": "LUXEMBOURG, Luxembourg, Archives nationales de Luxembourg, A-LII-05, n\u00b0 262"
        },
        "6": {
            "type": "responsable",
            "value": "Timothy Salemme"
        },
        "7": {
            "type": "date",
            "value": " 1338\/07\/30",
            "children": {
                "date_deb_annee": "1338",
                "date_deb_mois": "07",
                "date_deb_jour": "30"
            },
            "range": {
                "date_apres": 13380730,
                "date_avant": 13380730
            }
        },
        "8": {
            "type": "description",
            "value": "Original sur parchemin (mm. 245 \u00d7 120\u00a0; repli mm. 20), jadis scell\u00e9 sur double queue de parchemin"
        },
        "10": {
            "type": "edition",
            "value": "A. ESTGEN, M. PAULY et J. SCHROEDER, <i>Urkunden- und Quellenbuch zur Geschichte der altluxemburgischen Territorien, begr\u00fcndet von Camille Wampach<\/i>, t. XI\/1, <i>Die Urkunden Graf Johanns des Blinden (1310-1346). Die Urkunden aus Luxemburger Archivbest\u00e4nden<\/i>, Luxembourg 1997, n\u00b0 L68"
        },
        "11": {
            "type": "regeste",
            "value": "J. F. B\u00d6HEMER, <i>Regesta Imperii inde ab anno MCCCXIII usque ad annum MCCCXLVII. Die Urkunden Kaiser Ludwigs des Baiern, K\u00f6nig Friedericj des Sch\u00f6nen und K\u00f6nig Johanns von B\u00f6hmen nebst einer Auswahl der Briefe und Bullen des P\u00e4pste und anderer Urkunden welche f\u00fcr die Geschichte Deutschlands von 1314 bis 1347 vorz\u00fcglich wichtig sind<\/i>, t. III, <i>Additamentum tertium<\/i>, Francfort-sur-le-Main 1865, n\u00b0 800, p. 405"
        },
        "12": {
            "type": "regeste",
            "value": "F.-X. W\u00dcRTH-PAQUET, \u00ab\u00a0Chartes de la famille de Reinach\u00a0\u00bb, <i>Publications de la Section historique<\/i>, XXXIII (1879), n\u00b0 262"
        },
        "13": {
            "type": "genre",
            "value": "Lettre"
        },
        "14": {
            "type": "langue",
            "value": "fran\u00e7ais"
        },
        "15": {
            "type": "sources_manuscrites",
            "value": "LUXEMBOURG, Luxembourg, Archives nationales de Luxembourg, A-LII-5, n\u00b0 262 (regeste dactylographi\u00e9 du XX<sup>e<\/sup> s., conserv\u00e9 avec l'original)",
            "children": {
                "type_source": "n.c."
            }
        },
        "16": {
            "type": "note_dorsale",
            "value": "\u00ab [\u2026]XXVI \u00bb, XIV<sup>e<\/sup>-XV<sup>e<\/sup> s. (?); \u00ab Z000Z0 \u00bb, XVIII<sup>e<\/sup> s.; \u00ab B \u00bb, XVIII<sup>e<\/sup> s. "
        },
        "17": {
            "type": "transcription",
            "value": "<?xml version=\"1.0\" encoding=\"UTF-8\"?>\n\/01\/ Jehan, par la grace de Dieu rois de Boeme et conte de Lucembourch, faissons savoir a tous que nous devons et sommes tenus a \/02\/ nostre ame et fealle Jacopt de Moncler, escuyer, seixcent livres de boins petis tournois contet un vies gros tournois par quinze tournois \/03\/ petis pour cause qu\u2019il est devenus wardains de fies de warde de nostre maixon de Vreudemberch, laquelle warde se doit faire \/04\/ seix semainnes entierement; pour laquelle somme de deniers nous ly avons asennet et asenons seixante livreez de terre en \/05\/ nostre court de Katenem, c\u2019est a savoir sus le niovime dou bleif vint maldre de fromant; item soille vint maldre; item \/06\/ avoyne dix maldre; item trois chareez et demye de vin sus le niovime de vins de ladite court. Pour lesquelles \/07\/ seixcent livres tournois dessusdis ly dessusdis Jacob et ses hoirs et sucesours de ores en avant ont repris et rellevet de nous et de nos \/08\/ hoirs contes de Lucembourch la ville de Bourriche, toute la court, tout che que y a pout comme puet appartenir en homes, en \/09\/ femmes, en champs, en preis, en fours, en molins, en boix, en yaues, en remptes, en censses quelles que le soient, en \/10\/ tailhes, en prieres, en justices hautes et basses et en toutes autres droitures, segnories, revenues et servitutes \/11\/ queilcunques elles soient sens riens hors metre ne excepter; lesquelz biens entierement desus nommes estoient ses frans \/12\/ allieus, et dou jour du vy en avant lydis Jacob, ses hoirs et ses sucessours segnours de Moncler les doient tenir \/13\/ de nous et de nos hoirs contes de Lucembourch pour tousjours mais en fiez de warde de nostredite maixon de Vreudemberch, comme \/14\/ dessusdit est, sens nul malengien aquerrir. En tesmoing desquelles chousses nous ly avons donnet ces presentes \/15\/ lettres saillees de nostre saiel, faites et donneez l\u2019an de grace mil trois cens trente wyt, le .XXXme. jour de mois de jullet.\n"
        },
        "18": {
            "type": "type_source",
            "value": "Original"
        },
        "19": {
            "type": "acte_scelle",
            "value": "non"
        },
        "20": {
            "type": "id_telma",
            "value": "629556"
        },
        "21": {
            "type": "sceau",
            "value": "Sceau pendant perdu. Annonce du sceau de Jean (l'Aveugle)"
        },
        "24": {
            "type": "destinataire",
            "value": "-"
        },
        "25": {
            "type": "date_libre",
            "value": "-"
        },
        "26": {
            "type": "date_lieu",
            "value": "-"
        },
        "27": {
            "type": "remarques",
            "value": "-"
        },
        "28": {
            "type": "mention_hors_teneur",
            "value": "-"
        },
        "29": {
            "type": "mention",
            "value": "-"
        },
        "30": {
            "type": "image_interne",
            "value": "http:\/\/telma-chartes.irht.cnrs.fr\/telma_img\/transscript\/transscript-A-LII-0262_0000000000.jpg"
        },
        "31": {
            "type": "image_interne",
            "value": "http:\/\/telma-chartes.irht.cnrs.fr\/telma_img\/transscript\/transscript-A-LII-0262_0000000010.jpg"
        }
    }
}