{
    "id": 27179,
    "name": "transscript-750",
    "type": "acte",
    "url": "http:\/\/telma-chartes.irht.cnrs.fr\/transscript\/notice\/27179",
    "project_slug": "transscript",
    "project_label": "TRANSSCRIPT",
    "user": "D_Kirt",
    "last_update": "2020-10-19 16:28:10",
    "licence": "Attribution - Pas d\u2019Utilisation Commerciale - Partage dans les M\u00eames Conditions 3.0 France (CC BY-NC-SA 3.0 FR) ",
    "licence_url": "https:\/\/creativecommons.org\/licenses\/by-nc-sa\/3.0\/fr\/",
    "elements": {
        "0": {
            "type": "auteur",
            "value": "Henri (5) comte de Luxembourg et de Laroche, marquis d'Arlon"
        },
        "1": {
            "type": "beneficiaire",
            "value": "Couvent des clarisses urbanistes du Saint-Esprit \u00e0 Luxembourg"
        },
        "2": {
            "type": "destinataire",
            "value": "-"
        },
        "3": {
            "type": "disposant",
            "value": "Sigefroi de Cattenom, pr\u00eatre"
        },
        "4": {
            "type": "date",
            "value": " 1252\/01\/11",
            "children": {
                "date_deb_jour": "11",
                "date_deb_mois": "01",
                "date_deb_annee": "1252"
            },
            "range": {
                "date_apres": 12520111,
                "date_avant": 12520111
            }
        },
        "5": {
            "type": "cote",
            "value": "LUXEMBOURG, Luxembourg, Archives nationales de Luxembourg, A-XXXV-004"
        },
        "7": {
            "type": "langue",
            "value": "latin"
        },
        "8": {
            "type": "authenticite",
            "value": "non suspect\u00e9"
        },
        "9": {
            "type": "genre",
            "value": "Charte"
        },
        "10": {
            "type": "analyse",
            "value": "Henri (5), comte de Luxembourg, de la Roche et marquis d\u2019Arlon, fait savoir que le pr\u00eatre Sigefroi de Cattenom avait vendu avec son consentement pour 15 et une demie livres de deniers tr\u00e9virois un vignoble qui lui appartenait \u00e0 Sentzich et sur lequel il payait annuellement 8 deniers \u00e0 Anselme de Sentzich."
        },
        "12": {
            "type": "remarques",
            "value": "-"
        },
        "13": {
            "type": "mention_hors_teneur",
            "value": "-"
        },
        "15": {
            "type": "edition",
            "value": "J. BERTHOLET, Histoire eccl\u00e9siastique et civile du duch\u00e9 de Luxembourg et comt\u00e9 de Chiny, t. V, preuves, Luxembourg 1743, p. 37"
        },
        "16": {
            "type": "edition",
            "value": "C. WAMPACH, Urkunden- und Quellenbuch zur Geschichte der altluxemburgischen Territorien bis zur burgundischen Zeit, t. III, Luxembourg, 1939, n\u00b0 91, p. 94-95"
        },
        "17": {
            "type": "regeste",
            "value": "F.-X. W\u00dcRTH-PAQUET, Table chronologique des chartes et dipl\u00f4mes relatifs \u00e0 l'histoire de l'ancien pays et duch\u00e9 de Luxembourg. R\u00e8gne de Henri II (1246-1281), in Publications de la Section historique, XV (1860), n\u00b0 108, p. 71"
        },
        "18": {
            "type": "regeste",
            "value": "A. WAUTERS, Table chronologique des chartes et dipl\u00f4mes imprim\u00e9s concernant l'histoire de la Belgique, V, 1251-1276 (suppl\u00e9ment), Bruxelles 1877, p. 22"
        },
        "19": {
            "type": "mention",
            "value": "-"
        },
        "21": {
            "type": "sources_manuscrites",
            "value": "[Cartulaire] LUXEMBOURG, Luxembourg, Archives nationales de Luxembourg, A-XXXV-382, Relation du monast\u00e8re du Saint-Esprit I, p. 32"
        },
        "22": {
            "type": "responsable",
            "value": "David Kirt"
        },
        "23": {
            "type": "acte_scelle",
            "value": "oui"
        },
        "24": {
            "type": "sceau",
            "value": "???"
        },
        "25": {
            "type": "image_interne",
            "value": "http:\/\/telma-chartes.irht.cnrs.fr\/telma_img\/transscript\/transscript-A-XXXV-004_0000000000.jpg"
        },
        "26": {
            "type": "image_interne",
            "value": "http:\/\/telma-chartes.irht.cnrs.fr\/telma_img\/transscript\/transscript-A-XXXV-004_0000000010.jpg"
        },
        "27": {
            "type": "image_interne",
            "value": "http:\/\/telma-chartes.irht.cnrs.fr\/telma_img\/transscript\/transscript-A-XXXV-004_0000000020.jpg"
        }
    }
}