{
    "id": 21271,
    "name": "transscript-485",
    "type": "acte",
    "url": "http:\/\/telma-chartes.irht.cnrs.fr\/transscript\/notice\/21271",
    "project_slug": "transscript",
    "project_label": "TRANSSCRIPT",
    "user": "l_gili",
    "last_update": "2020-10-19 16:27:03",
    "licence": "Attribution - Pas d\u2019Utilisation Commerciale - Partage dans les M\u00eames Conditions 3.0 France (CC BY-NC-SA 3.0 FR) ",
    "licence_url": "https:\/\/creativecommons.org\/licenses\/by-nc-sa\/3.0\/fr\/",
    "elements": {
        "0": {
            "type": "auteur",
            "value": "Thi\u00e9baut (2), duc de Lorraine et marquis"
        },
        "1": {
            "type": "auteur",
            "value": "Gilles, \u00e9v\u00eaque de Toul"
        },
        "2": {
            "type": "beneficiaire",
            "value": "prieur\u00e9s de Froville et de Relanges "
        },
        "3": {
            "type": "disposant",
            "value": "Ferry (3), duc de Lorraine et marquis"
        },
        "5": {
            "type": "date_lieu",
            "value": "Lun\u00e9ville"
        },
        "6": {
            "type": "cote",
            "value": "FRANCE, Nancy, Archives d\u00e9partementales de Meurthe-et-Moselle, H 166 (2)"
        },
        "8": {
            "type": "description",
            "value": "Vidimus sur parchemin"
        },
        "9": {
            "type": "langue",
            "value": "fran\u00e7ais"
        },
        "10": {
            "type": "authenticite",
            "value": "non suspect\u00e9"
        },
        "11": {
            "type": "genre",
            "value": "Lettre"
        },
        "12": {
            "type": "type_source",
            "value": "Vidimus"
        },
        "13": {
            "type": "analyse",
            "value": "Vidimus par Thi\u00e9baut (2) d\u2019un acte de Gilles, \u00e9v\u00eaque de Toul, dans lequel Ferry (3) fait serment de ne pas renouveler les exactions commises par sa m\u00e8re et ses pr\u00e9d\u00e9cesseurs au pr\u00e9judice des prieur\u00e9s de Froville et de Relanges.",
            "children": {
                "commentaire": "Le vidimus du duc est scell\u00e9 du sceau de cour de Lun\u00e9ville"
            }
        },
        "14": {
            "type": "transcription",
            "value": "<?xml version=\"1.0\" encoding=\"UTF-8\"?>\n\/01\/ Nos Gilez, par la graice de Deu evesques de Toul, faisons savoir a ceus qui les presentes lettres vairront \/02\/ et orront que com li priour de Froville et de Relenges frequentaissent la justice de sainte englize encontre Ka-\/03\/-therine, duchesse de Lorreigne, que fuit de bone memore et contre noble home Ferri, son fil duc de Lorreigne \/04\/ et marchi, por maintes juivres et toirs fais as dis priours et a lour homes de pair la ditte Katherine et lou dit \/05\/ Ferri duc. C\u2019est a savoir que il avoient receu et pris efforciement et a toirt vint [\u2026] chascune maison \/06\/ des homes des englizes as dis priours en tollant les bestes et les chozes as dis homes et por plusours autrez \/07\/ juivres et toirs fais que li ditte Katherine et Ferris dus et lour ancesour avoient faites as dittes englizes \/08\/ a la presin li dis nobels hons Ferris Ferris dus establiz en nostre presence por ceu [\u2026]ntans ait recogneu que \/09\/ il n\u2019avoit nul droit de faire telz exactions et estorsions as dis priours ne a lour homes et les ait acquitei \/10\/ a tous jours maix par son sairment corporel fait de sa plainne voluntei. Et ait promis par son sairment que \/11\/ il ce tanrait de faire teles juivres et estorsions ou manres ou plus grans ou samblant. Et en oblige que \/12\/ a ceu lui et ces successours a tenir ces chozes perdurablement. Et par tele condition que cil avenoit que li dis \/13\/ Ferris aloit encontre son devant dit sairment por cause quelz quele fuit que Deus ne vuelle en fai-\/14\/-sant aucunes juivres ou damages as dis priours ou as homes des dittes englizes nos a la reque-\/15\/-ste et de la volentei lou dit Ferri promettons fermement as dis priours a escommenyer la persone dou \/16\/ dit Ferri et a mettre en entr[\u2026] la terre monition competant ansois [\u2026] anci tost com nos en \/17\/ serons requis par les dis priours ou par lors lettres ou par lour certain mess[ai]ge a quel messaige et \/18\/ as ques nos somes tenu d\u2019obeir sanz contraditions et nos obligons a ceste choze faire et acomplir \/19\/ par l\u2019atoritei de ces presentes lettres. Et renoncet li dis Ferris toutes voies d\u2019eception et de defense de \/20\/ fait ou de droit es chozes desus dittes. Et ne li doit eistre gaird\u00e9e aucune defense quelz qu\u2019elle soit en-\/21\/-contre les sentences desuz dittes. Et pour ceu que ce soit ferme choze et estable avons nos mis nostre \/22\/ seeil en ces presentes lettres avec lou seeil lou dit Ferri duc et marchi que furent faites l\u2019an de \/23\/ graice mil douz cens cinquante et cinc on mois de juneit. Et nos Thiebalz, dus desus diz, \/24\/ avons fait seeiller cest present escript dou seeil de nostre cort a la requeste dou priour de Froville \/25\/ sauf nostre droit. En tesmoignaige que nos avons veu les lettres desuz dittes si com dit est \/26\/ foirs que tant que les dittes lettres estoient en latin et sunt translat\u00e9es en romans por mellour de-\/27\/-claration. Ce fuit fait a Luneville, l\u2019an de graice et lou jour desuz dis.\n"
        },
        "15": {
            "type": "remarques",
            "value": "Le document fait partie d\u2019une pancarte. Voir aussi \u00ab transcrit-197 \u00bb et \u00ab transscript-484 \u00bb. "
        },
        "16": {
            "type": "note_dorsale",
            "value": "\u00ab H 166 \u00bb, une croix et \u00ab 1255 \u00bb, XIV<sup>e<\/sup> s."
        },
        "17": {
            "type": "regeste",
            "value": "J. DE PANGE, <i>Catalogue des actes de Ferri III, duc de Lorraine<\/i>, in \u00ab\u00a0Annuaire de la Soci\u00e9t\u00e9 d\u2019histoire et d\u2019arch\u00e9ologie lorraine\u00a0\u00bb, Metz\u00a0(XXXIV), 1925, p. 262-328, n\u00b0 74"
        },
        "18": {
            "type": "regeste",
            "value": "A.-M. MARIONNET, <i>Catalogue des actes de Thi\u00e9baut II, duc de Lorraine (1303-1312)<\/i>, dipl\u00f4me d'\u00e9tudes sup\u00e9rieures de l'Universit\u00e9 Nancy II, Nancy, [1947], n\u00b0\u00a090 (m\u00eame num\u00e9ro que pour le premier acte de la pancarte H 166 n\u00b0 1)"
        },
        "19": {
            "type": "responsable",
            "value": "Laura Gili-Th\u00e9baudeau"
        },
        "20": {
            "type": "image_interne",
            "value": "http:\/\/telma-chartes.irht.cnrs.fr\/telma_img\/transscript\/transscript-FRAD054_H166r.JPG"
        },
        "21": {
            "type": "acte_scelle",
            "value": "oui"
        },
        "22": {
            "type": "sceau",
            "value": "Sceau en cire brune sur double queue de parchemin de la cour ducale de Lun\u00e9ville",
            "children": {
                "sigilla": "http:\/\/www.sigilla.org\/fr\/sgdb\/acte\/27134"
            }
        },
        "23": {
            "type": "image_interne",
            "value": "http:\/\/telma-chartes.irht.cnrs.fr\/telma_img\/transscript\/transscript-transscript-FRAD054_H166v.JPG"
        }
    }
}