{
    "id": 13358,
    "name": "moreau-12832",
    "type": "acte",
    "url": "http:\/\/telma-chartes.irht.cnrs.fr\/moreau\/notice\/13358",
    "project_slug": "moreau",
    "project_label": "Inventaire Moreau",
    "user": "b_tock",
    "last_update": "2020-10-19 16:25:49",
    "licence": "Attribution - Pas d\u2019Utilisation Commerciale - Partage dans les M\u00eames Conditions 3.0 France (CC BY-NC-SA 3.0 FR) ",
    "licence_url": "https:\/\/creativecommons.org\/licenses\/by-nc-sa\/3.0\/fr\/",
    "elements": [
        {
            "type": "date",
            "value": "1249",
            "children": {
                "date_deb_annee": "1249"
            },
            "range": {
                "date_apres": 12490000,
                "date_avant": 12499999
            }
        },
        {
            "type": "remarques",
            "value": "extrait"
        },
        {
            "type": "auteur",
            "value": "Isabelle, comtesse de Chartres"
        },
        {
            "type": "beneficiaire",
            "value": "Eau, abbaye"
        },
        {
            "type": "cote",
            "value": "FRANCE, Paris, BNF, Collection Moreau, t. 102, f. 163"
        }
    ]
}