{
    "id": 7604,
    "name": "moreau-7078",
    "type": "acte",
    "url": "http:\/\/telma-chartes.irht.cnrs.fr\/moreau\/notice\/7604",
    "project_slug": "moreau",
    "project_label": "Inventaire Moreau",
    "user": "b_tock",
    "last_update": "2020-10-19 16:25:27",
    "licence": "Attribution - Pas d\u2019Utilisation Commerciale - Partage dans les M\u00eames Conditions 3.0 France (CC BY-NC-SA 3.0 FR) ",
    "licence_url": "https:\/\/creativecommons.org\/licenses\/by-nc-sa\/3.0\/fr\/",
    "elements": [
        {
            "type": "date",
            "value": "1123\/03\/30",
            "children": {
                "date_deb_annee": "1123",
                "date_deb_mois": "03",
                "date_deb_jour": "30"
            },
            "range": {
                "date_apres": 11230330,
                "date_avant": 11230330
            }
        },
        {
            "type": "auteur",
            "value": "Calixte II, pape"
        },
        {
            "type": "beneficiaire",
            "value": "St-Omer, abbaye Saint-Bertin"
        },
        {
            "type": "cote",
            "value": "FRANCE, Paris, BNF, Collection Moreau, t. 51, f. 4"
        }
    ]
}