{
    "id": 10528,
    "name": "moreau-10002",
    "type": "acte",
    "url": "http:\/\/telma-chartes.irht.cnrs.fr\/moreau\/notice\/10528",
    "project_slug": "moreau",
    "project_label": "Inventaire Moreau",
    "user": "b_tock",
    "last_update": "2020-10-19 16:25:38",
    "licence": "Attribution - Pas d\u2019Utilisation Commerciale - Partage dans les M\u00eames Conditions 3.0 France (CC BY-NC-SA 3.0 FR) ",
    "licence_url": "https:\/\/creativecommons.org\/licenses\/by-nc-sa\/3.0\/fr\/",
    "elements": [
        {
            "type": "date",
            "value": "1172",
            "children": {
                "date_deb_annee": "1172"
            },
            "range": {
                "date_apres": 11720000,
                "date_avant": 11729999
            }
        },
        {
            "type": "auteur",
            "value": "Maurice, \u00e9v\u00eaque de Paris"
        },
        {
            "type": "beneficiaire",
            "value": "Paris, abbaye Saint-Victor"
        },
        {
            "type": "cote",
            "value": "FRANCE, Paris, BNF, Collection Moreau, t. 78, f. 15"
        }
    ]
}