{
    "id": 9871,
    "name": "moreau-9345",
    "type": "acte",
    "url": "http:\/\/telma-chartes.irht.cnrs.fr\/moreau\/notice\/9871",
    "project_slug": "moreau",
    "project_label": "Inventaire Moreau",
    "user": "b_tock",
    "last_update": "2020-10-19 16:25:36",
    "licence": "Attribution - Pas d\u2019Utilisation Commerciale - Partage dans les M\u00eames Conditions 3.0 France (CC BY-NC-SA 3.0 FR) ",
    "licence_url": "https:\/\/creativecommons.org\/licenses\/by-nc-sa\/3.0\/fr\/",
    "elements": [
        {
            "type": "date",
            "value": "1163\/06\/13",
            "children": {
                "date_deb_annee": "1163",
                "date_deb_mois": "06",
                "date_deb_jour": "13"
            },
            "range": {
                "date_apres": 11630613,
                "date_avant": 11630613
            }
        },
        {
            "type": "auteur",
            "value": "Hu., cardinal \u00e9v\u00eaque d'Ostie"
        },
        {
            "type": "auteur",
            "value": "B., cardinal \u00e9v\u00eaque de Porto"
        },
        {
            "type": "auteur",
            "value": "etc."
        },
        {
            "type": "beneficiaire",
            "value": "Cluny, abbaye Saint-Pierre-et-Saint-Paul"
        },
        {
            "type": "cote",
            "value": "FRANCE, Paris, BNF, Collection Moreau, t. 72, f. 13"
        }
    ]
}