{
    "id": 788,
    "name": "moreau-262",
    "type": "acte",
    "url": "http:\/\/telma-chartes.irht.cnrs.fr\/moreau\/notice\/788",
    "project_slug": "moreau",
    "project_label": "Inventaire Moreau",
    "user": "b_tock",
    "last_update": "2020-10-19 16:24:59",
    "licence": "Attribution - Pas d\u2019Utilisation Commerciale - Partage dans les M\u00eames Conditions 3.0 France (CC BY-NC-SA 3.0 FR) ",
    "licence_url": "https:\/\/creativecommons.org\/licenses\/by-nc-sa\/3.0\/fr\/",
    "elements": [
        {
            "type": "date",
            "value": "0889\/06\/16",
            "children": {
                "date_deb_annee": "0889",
                "date_deb_mois": "06",
                "date_deb_jour": "16"
            },
            "range": {
                "date_apres": 8890616,
                "date_avant": 8890616
            }
        },
        {
            "type": "remarques",
            "value": "archives de la cath\u00e9drale de Chartres"
        },
        {
            "type": "auteur",
            "value": "Eudes, roi des Francs"
        },
        {
            "type": "beneficiaire",
            "value": "Ricbodo"
        },
        {
            "type": "cote",
            "value": "FRANCE, Paris, BNF, Collection Moreau, t. 3, f. 52"
        }
    ]
}