{
    "id": 1015,
    "name": "moreau-489",
    "type": "acte",
    "url": "http:\/\/telma-chartes.irht.cnrs.fr\/moreau\/notice\/1015",
    "project_slug": "moreau",
    "project_label": "Inventaire Moreau",
    "user": "b_tock",
    "last_update": "2020-10-19 16:25:00",
    "licence": "Attribution - Pas d\u2019Utilisation Commerciale - Partage dans les M\u00eames Conditions 3.0 France (CC BY-NC-SA 3.0 FR) ",
    "licence_url": "https:\/\/creativecommons.org\/licenses\/by-nc-sa\/3.0\/fr\/",
    "elements": [
        {
            "type": "date",
            "value": "0924\/02\/13",
            "children": {
                "date_deb_annee": "0924",
                "date_deb_mois": "02",
                "date_deb_jour": "13"
            },
            "range": {
                "date_apres": 9240213,
                "date_avant": 9240213
            }
        },
        {
            "type": "remarques",
            "value": "archives de l'abbaye de Cluny"
        },
        {
            "type": "auteur",
            "value": "Alexandre, \u00e9v\u00eaque de Vienne"
        },
        {
            "type": "beneficiaire",
            "value": "Ageltrudis"
        },
        {
            "type": "cote",
            "value": "FRANCE, Paris, BNF, Collection Moreau, t. 4, f. 130"
        }
    ]
}