{
    "id": 12302,
    "name": "moreau-11776",
    "type": "acte",
    "url": "http:\/\/telma-chartes.irht.cnrs.fr\/moreau\/notice\/12302",
    "project_slug": "moreau",
    "project_label": "Inventaire Moreau",
    "user": "b_tock",
    "last_update": "2020-10-19 16:25:45",
    "licence": "Attribution - Pas d\u2019Utilisation Commerciale - Partage dans les M\u00eames Conditions 3.0 France (CC BY-NC-SA 3.0 FR) ",
    "licence_url": "https:\/\/creativecommons.org\/licenses\/by-nc-sa\/3.0\/fr\/",
    "elements": [
        {
            "type": "date",
            "value": "1191",
            "children": {
                "date_deb_annee": "1191"
            },
            "range": {
                "date_apres": 11910000,
                "date_avant": 11919999
            }
        },
        {
            "type": "auteur",
            "value": "Pierre, abb\u00e9 de Saint-Just"
        },
        {
            "type": "beneficiaire",
            "value": "Amiens, abbaye Saint-Fuscien"
        },
        {
            "type": "cote",
            "value": "FRANCE, Paris, BNF, Collection Moreau, t. 93, f. 230"
        }
    ]
}