{
    "id": 956,
    "name": "moreau-430",
    "type": "acte",
    "url": "http:\/\/telma-chartes.irht.cnrs.fr\/moreau\/notice\/956",
    "project_slug": "moreau",
    "project_label": "Inventaire Moreau",
    "user": "b_tock",
    "last_update": "2020-10-19 16:24:59",
    "licence": "Attribution - Pas d\u2019Utilisation Commerciale - Partage dans les M\u00eames Conditions 3.0 France (CC BY-NC-SA 3.0 FR) ",
    "licence_url": "https:\/\/creativecommons.org\/licenses\/by-nc-sa\/3.0\/fr\/",
    "elements": [
        {
            "type": "date_libre",
            "value": "916\/921-03"
        },
        {
            "type": "date",
            "value": "apres 0916 - avant 0921\/03",
            "children": {
                "date_deb_annee": "0916",
                "date_deb_type": "apres",
                "date_fin_annee": "0921",
                "date_fin_mois": "03",
                "date_fin_type": "avant"
            },
            "range": {
                "date_apres": 9160000,
                "date_avant": 9210399
            }
        },
        {
            "type": "remarques",
            "value": "archives de l'abbaye de Cluny"
        },
        {
            "type": "auteur",
            "value": "Rotardus"
        },
        {
            "type": "beneficiaire",
            "value": "Ansherius"
        },
        {
            "type": "cote",
            "value": "FRANCE, Paris, BNF, Collection Moreau, t. 4, f. 50"
        }
    ]
}