{
    "id": 11026,
    "name": "moreau-10500",
    "type": "acte",
    "url": "http:\/\/telma-chartes.irht.cnrs.fr\/moreau\/notice\/11026",
    "project_slug": "moreau",
    "project_label": "Inventaire Moreau",
    "user": "b_tock",
    "last_update": "2020-10-19 16:25:40",
    "licence": "Attribution - Pas d\u2019Utilisation Commerciale - Partage dans les M\u00eames Conditions 3.0 France (CC BY-NC-SA 3.0 FR) ",
    "licence_url": "https:\/\/creativecommons.org\/licenses\/by-nc-sa\/3.0\/fr\/",
    "elements": [
        {
            "type": "date",
            "value": "1179",
            "children": {
                "date_deb_annee": "1179"
            },
            "range": {
                "date_apres": 11790000,
                "date_avant": 11799999
            }
        },
        {
            "type": "remarques",
            "value": "archives de l'abbaye de Saint-Germer Fly"
        },
        {
            "type": "auteur",
            "value": "Vermond, vidame de Picquigny"
        },
        {
            "type": "beneficiaire",
            "value": "Gouy, \u00e9glise Saint-Pierre"
        },
        {
            "type": "cote",
            "value": "FRANCE, Paris, BNF, Collection Moreau, t. 82, f. 227"
        }
    ]
}