{
    "id": 1247,
    "name": "moreau-721",
    "type": "acte",
    "url": "http:\/\/telma-chartes.irht.cnrs.fr\/moreau\/notice\/1247",
    "project_slug": "moreau",
    "project_label": "Inventaire Moreau",
    "user": "b_tock",
    "last_update": "2020-10-19 16:25:01",
    "licence": "Attribution - Pas d\u2019Utilisation Commerciale - Partage dans les M\u00eames Conditions 3.0 France (CC BY-NC-SA 3.0 FR) ",
    "licence_url": "https:\/\/creativecommons.org\/licenses\/by-nc-sa\/3.0\/fr\/",
    "elements": [
        {
            "type": "date",
            "value": "apres 0938 - avant 0939",
            "children": {
                "date_deb_annee": "0938",
                "date_deb_type": "apres",
                "date_fin_annee": "0939",
                "date_fin_type": "avant"
            },
            "range": {
                "date_apres": 9380000,
                "date_avant": 9399999
            }
        },
        {
            "type": "remarques",
            "value": "archives de abb\u00e9 Saint-Cyprien Poitiers"
        },
        {
            "type": "auteur",
            "value": "Alboin, \u00e9v\u00eaque de Poitiers"
        },
        {
            "type": "beneficiaire",
            "value": "Batresse, \u00e9glise"
        },
        {
            "type": "cote",
            "value": "FRANCE, Paris, BNF, Collection Moreau, t. 6, f. 125"
        }
    ]
}