{
    "id": 3703,
    "name": "moreau-3177",
    "type": "acte",
    "url": "http:\/\/telma-chartes.irht.cnrs.fr\/moreau\/notice\/3703",
    "project_slug": "moreau",
    "project_label": "Inventaire Moreau",
    "user": "b_tock",
    "last_update": "2020-10-19 16:25:11",
    "licence": "Attribution - Pas d\u2019Utilisation Commerciale - Partage dans les M\u00eames Conditions 3.0 France (CC BY-NC-SA 3.0 FR) ",
    "licence_url": "https:\/\/creativecommons.org\/licenses\/by-nc-sa\/3.0\/fr\/",
    "elements": [
        {
            "type": "date",
            "value": "apres 0996 - avant 1026",
            "children": {
                "date_deb_annee": "0996",
                "date_deb_type": "apres",
                "date_fin_annee": "1026",
                "date_fin_type": "avant"
            },
            "range": {
                "date_apres": 9960000,
                "date_avant": 10269999
            }
        },
        {
            "type": "remarques",
            "value": "P\u00e8re Richard (1008-1027) et Robert (1010-1035)"
        },
        {
            "type": "auteur",
            "value": "Richard, duc de Normandie"
        },
        {
            "type": "beneficiaire",
            "value": "Mont-Saint-Michel, abbaye"
        },
        {
            "type": "cote",
            "value": "FRANCE, Paris, BNF, Collection Moreau, t. 20, f. 185"
        }
    ]
}