{
    "id": 4979,
    "name": "moreau-4453",
    "type": "acte",
    "url": "http:\/\/telma-chartes.irht.cnrs.fr\/moreau\/notice\/4979",
    "project_slug": "moreau",
    "project_label": "Inventaire Moreau",
    "user": "b_tock",
    "last_update": "2020-10-19 16:25:17",
    "licence": "Attribution - Pas d\u2019Utilisation Commerciale - Partage dans les M\u00eames Conditions 3.0 France (CC BY-NC-SA 3.0 FR) ",
    "licence_url": "https:\/\/creativecommons.org\/licenses\/by-nc-sa\/3.0\/fr\/",
    "elements": [
        {
            "type": "date",
            "value": "1073",
            "children": {
                "date_deb_annee": "1073"
            },
            "range": {
                "date_apres": 10730000,
                "date_avant": 10739999
            }
        },
        {
            "type": "remarques",
            "value": "erreur pour 1173\u00a0?"
        },
        {
            "type": "auteur",
            "value": "Gautier, \u00e9v\u00eaque de Laon"
        },
        {
            "type": "beneficiaire",
            "value": "Saint-Nicolas-au-Bois, abbaye"
        },
        {
            "type": "cote",
            "value": "FRANCE, Paris, BNF, Collection Moreau, t. 30, f. 244"
        }
    ]
}