{
    "id": 7292,
    "name": "moreau-6766",
    "type": "acte",
    "url": "http:\/\/telma-chartes.irht.cnrs.fr\/moreau\/notice\/7292",
    "project_slug": "moreau",
    "project_label": "Inventaire Moreau",
    "user": "b_tock",
    "last_update": "2020-10-19 16:25:26",
    "licence": "Attribution - Pas d\u2019Utilisation Commerciale - Partage dans les M\u00eames Conditions 3.0 France (CC BY-NC-SA 3.0 FR) ",
    "licence_url": "https:\/\/creativecommons.org\/licenses\/by-nc-sa\/3.0\/fr\/",
    "elements": [
        {
            "type": "date",
            "value": "1116\/03\/16",
            "children": {
                "date_deb_annee": "1116",
                "date_deb_mois": "03",
                "date_deb_jour": "16"
            },
            "range": {
                "date_apres": 11160316,
                "date_avant": 11160316
            }
        },
        {
            "type": "auteur",
            "value": "Pascal II, pape"
        },
        {
            "type": "beneficiaire",
            "value": "Micy, abbaye Saint-Mesmin"
        },
        {
            "type": "cote",
            "value": "FRANCE, Paris, BNF, Collection Moreau, t. 48, f. 70"
        }
    ]
}