{
    "id": 3620,
    "name": "moreau-3094",
    "type": "acte",
    "url": "http:\/\/telma-chartes.irht.cnrs.fr\/moreau\/notice\/3620",
    "project_slug": "moreau",
    "project_label": "Inventaire Moreau",
    "user": "b_tock",
    "last_update": "2020-10-19 16:25:11",
    "licence": "Attribution - Pas d\u2019Utilisation Commerciale - Partage dans les M\u00eames Conditions 3.0 France (CC BY-NC-SA 3.0 FR) ",
    "licence_url": "https:\/\/creativecommons.org\/licenses\/by-nc-sa\/3.0\/fr\/",
    "elements": [
        {
            "type": "date",
            "value": "1022\/03\/11",
            "children": {
                "date_deb_annee": "1022",
                "date_deb_mois": "03",
                "date_deb_jour": "11"
            },
            "range": {
                "date_apres": 10220311,
                "date_avant": 10220311
            }
        },
        {
            "type": "auteur",
            "value": "ex\u00e9cuteurs testamentaires de Seginus"
        },
        {
            "type": "beneficiaire",
            "value": "Cuxa, abbaye Saint-Michel"
        },
        {
            "type": "cote",
            "value": "FRANCE, Paris, BNF, Collection Moreau, t. 20, f. 45"
        }
    ]
}