{
    "id": 4423,
    "name": "moreau-3897",
    "type": "acte",
    "url": "http:\/\/telma-chartes.irht.cnrs.fr\/moreau\/notice\/4423",
    "project_slug": "moreau",
    "project_label": "Inventaire Moreau",
    "user": "b_tock",
    "last_update": "2020-10-19 16:25:14",
    "licence": "Attribution - Pas d\u2019Utilisation Commerciale - Partage dans les M\u00eames Conditions 3.0 France (CC BY-NC-SA 3.0 FR) ",
    "licence_url": "https:\/\/creativecommons.org\/licenses\/by-nc-sa\/3.0\/fr\/",
    "elements": [
        {
            "type": "date",
            "value": "1057\/08",
            "children": {
                "date_deb_annee": "1057",
                "date_deb_mois": "08"
            },
            "range": {
                "date_apres": 10570800,
                "date_avant": 10570899
            }
        },
        {
            "type": "auteur",
            "value": "Ermengarde, reine"
        },
        {
            "type": "beneficiaire",
            "value": "Grenoble, cath\u00e9drale Notre-Dame"
        },
        {
            "type": "cote",
            "value": "FRANCE, Paris, BNF, Collection Moreau, t. 26, f. 4"
        }
    ]
}