{
    "id": 13036,
    "name": "moreau-12510",
    "type": "acte",
    "url": "http:\/\/telma-chartes.irht.cnrs.fr\/moreau\/notice\/13036",
    "project_slug": "moreau",
    "project_label": "Inventaire Moreau",
    "user": "b_tock",
    "last_update": "2020-10-19 16:25:48",
    "licence": "Attribution - Pas d\u2019Utilisation Commerciale - Partage dans les M\u00eames Conditions 3.0 France (CC BY-NC-SA 3.0 FR) ",
    "licence_url": "https:\/\/creativecommons.org\/licenses\/by-nc-sa\/3.0\/fr\/",
    "elements": [
        {
            "type": "date",
            "value": "1199",
            "children": {
                "date_deb_annee": "1199"
            },
            "range": {
                "date_apres": 11990000,
                "date_avant": 11999999
            }
        },
        {
            "type": "auteur",
            "value": "Gautier, seigneur d'Avesnes"
        },
        {
            "type": "beneficiaire",
            "value": "Hautmont, abbaye Saint-Pierre-et-Saint-Paul"
        },
        {
            "type": "cote",
            "value": "FRANCE, Paris, BNF, Collection Moreau, t. 100, f. 8"
        }
    ]
}