{
    "id": 1335,
    "name": "moreau-809",
    "type": "acte",
    "url": "http:\/\/telma-chartes.irht.cnrs.fr\/moreau\/notice\/1335",
    "project_slug": "moreau",
    "project_label": "Inventaire Moreau",
    "user": "b_tock",
    "last_update": "2020-10-19 16:25:01",
    "licence": "Attribution - Pas d\u2019Utilisation Commerciale - Partage dans les M\u00eames Conditions 3.0 France (CC BY-NC-SA 3.0 FR) ",
    "licence_url": "https:\/\/creativecommons.org\/licenses\/by-nc-sa\/3.0\/fr\/",
    "elements": [
        {
            "type": "date",
            "value": "apres 0950 - avant 0960",
            "children": {
                "date_deb_annee": "0950",
                "date_deb_type": "apres",
                "date_fin_annee": "0960",
                "date_fin_type": "avant"
            },
            "range": {
                "date_apres": 9500000,
                "date_avant": 9609999
            }
        },
        {
            "type": "auteur",
            "value": "Graulfus, abb\u00e9 de Saint-Ch\u00e9ron de Chartres"
        },
        {
            "type": "beneficiaire",
            "value": "Chartres, abbaye Saint-P\u00e8re"
        },
        {
            "type": "cote",
            "value": "FRANCE, Paris, BNF, Collection Moreau, t. 6, f. 239"
        }
    ]
}