{
    "id": 10662,
    "name": "moreau-10136",
    "type": "acte",
    "url": "http:\/\/telma-chartes.irht.cnrs.fr\/moreau\/notice\/10662",
    "project_slug": "moreau",
    "project_label": "Inventaire Moreau",
    "user": "b_tock",
    "last_update": "2020-10-19 16:25:39",
    "licence": "Attribution - Pas d\u2019Utilisation Commerciale - Partage dans les M\u00eames Conditions 3.0 France (CC BY-NC-SA 3.0 FR) ",
    "licence_url": "https:\/\/creativecommons.org\/licenses\/by-nc-sa\/3.0\/fr\/",
    "elements": [
        {
            "type": "date",
            "value": "1164",
            "children": {
                "date_deb_annee": "1164"
            },
            "range": {
                "date_apres": 11640000,
                "date_avant": 11649999
            }
        },
        {
            "type": "auteur",
            "value": "Andr\u00e9, \u00e9v\u00eaque d'Arras"
        },
        {
            "type": "beneficiaire",
            "value": "Ch\u00e2teau-L'Abbaye, abbaye Saint-Martin"
        },
        {
            "type": "cote",
            "value": "FRANCE, Paris, BNF, Collection Moreau, t. 79, f. 71"
        }
    ]
}