{
    "id": 4872,
    "name": "moreau-4346",
    "type": "acte",
    "url": "http:\/\/telma-chartes.irht.cnrs.fr\/moreau\/notice\/4872",
    "project_slug": "moreau",
    "project_label": "Inventaire Moreau",
    "user": "b_tock",
    "last_update": "2020-10-19 16:25:16",
    "licence": "Attribution - Pas d\u2019Utilisation Commerciale - Partage dans les M\u00eames Conditions 3.0 France (CC BY-NC-SA 3.0 FR) ",
    "licence_url": "https:\/\/creativecommons.org\/licenses\/by-nc-sa\/3.0\/fr\/",
    "elements": [
        {
            "type": "date",
            "value": "1070\/07\/10",
            "children": {
                "date_deb_annee": "1070",
                "date_deb_mois": "07",
                "date_deb_jour": "10"
            },
            "range": {
                "date_apres": 10700710,
                "date_avant": 10700710
            }
        },
        {
            "type": "auteur",
            "value": "Josseran, fils de Bernard"
        },
        {
            "type": "beneficiaire",
            "value": "Cluny, abbaye Saint-Pierre-et-Saint-Paul"
        },
        {
            "type": "cote",
            "value": "FRANCE, Paris, BNF, Collection Moreau, t. 30, f. 48"
        }
    ]
}