{
    "id": 8694,
    "name": "moreau-8168",
    "type": "acte",
    "url": "http:\/\/telma-chartes.irht.cnrs.fr\/moreau\/notice\/8694",
    "project_slug": "moreau",
    "project_label": "Inventaire Moreau",
    "user": "b_tock",
    "last_update": "2020-10-19 16:25:31",
    "licence": "Attribution - Pas d\u2019Utilisation Commerciale - Partage dans les M\u00eames Conditions 3.0 France (CC BY-NC-SA 3.0 FR) ",
    "licence_url": "https:\/\/creativecommons.org\/licenses\/by-nc-sa\/3.0\/fr\/",
    "elements": [
        {
            "type": "date",
            "value": "1145",
            "children": {
                "date_deb_annee": "1145"
            },
            "range": {
                "date_apres": 11450000,
                "date_avant": 11459999
            }
        },
        {
            "type": "remarques",
            "value": "archives de l'abbaye de Corbie"
        },
        {
            "type": "auteur",
            "value": "G\u00e9rard, abb\u00e9 de Notre-Dame d'Ham"
        },
        {
            "type": "beneficiaire",
            "value": "Arrouaise, abbaye Saint-Nicolas"
        },
        {
            "type": "cote",
            "value": "FRANCE, Paris, BNF, Collection Moreau, t. 61, f. 176"
        }
    ]
}