{
    "id": 3546,
    "name": "moreau-3020",
    "type": "acte",
    "url": "http:\/\/telma-chartes.irht.cnrs.fr\/moreau\/notice\/3546",
    "project_slug": "moreau",
    "project_label": "Inventaire Moreau",
    "user": "b_tock",
    "last_update": "2020-10-19 16:25:11",
    "licence": "Attribution - Pas d\u2019Utilisation Commerciale - Partage dans les M\u00eames Conditions 3.0 France (CC BY-NC-SA 3.0 FR) ",
    "licence_url": "https:\/\/creativecommons.org\/licenses\/by-nc-sa\/3.0\/fr\/",
    "elements": [
        {
            "type": "date_libre",
            "value": "[993-1032]-11-28"
        },
        {
            "type": "date",
            "value": "apres 0993\/11\/28 - avant 1032\/11\/28",
            "children": {
                "date_deb_annee": "0993",
                "date_deb_mois": "11",
                "date_deb_jour": "28",
                "date_deb_type": "apres",
                "date_fin_annee": "1032",
                "date_fin_mois": "11",
                "date_fin_jour": "28",
                "date_fin_type": "avant"
            },
            "range": {
                "date_apres": 9931128,
                "date_avant": 10321128
            }
        },
        {
            "type": "remarques",
            "value": "archives de l'abbaye de Cluny"
        },
        {
            "type": "auteur",
            "value": "Godard"
        },
        {
            "type": "beneficiaire",
            "value": "Jean, pr\u00eatre"
        },
        {
            "type": "cote",
            "value": "FRANCE, Paris, BNF, Collection Moreau, t. 19, f. 197"
        }
    ]
}