{
    "id": 3926,
    "name": "moreau-3400",
    "type": "acte",
    "url": "http:\/\/telma-chartes.irht.cnrs.fr\/moreau\/notice\/3926",
    "project_slug": "moreau",
    "project_label": "Inventaire Moreau",
    "user": "b_tock",
    "last_update": "2020-10-19 16:25:12",
    "licence": "Attribution - Pas d\u2019Utilisation Commerciale - Partage dans les M\u00eames Conditions 3.0 France (CC BY-NC-SA 3.0 FR) ",
    "licence_url": "https:\/\/creativecommons.org\/licenses\/by-nc-sa\/3.0\/fr\/",
    "elements": [
        {
            "type": "date",
            "value": "1035\/02\/05",
            "children": {
                "date_deb_annee": "1035",
                "date_deb_mois": "02",
                "date_deb_jour": "05"
            },
            "range": {
                "date_apres": 10350205,
                "date_avant": 10350205
            }
        },
        {
            "type": "auteur",
            "value": "Rotbaldus, fils d'Alineus"
        },
        {
            "type": "beneficiaire",
            "value": "Le Monastier, abbaye Saint-Chaffre"
        },
        {
            "type": "cote",
            "value": "FRANCE, Paris, BNF, Collection Moreau, t. 22, f. 41"
        }
    ]
}