{
    "id": 13663,
    "name": "moreau-13137",
    "type": "acte",
    "url": "http:\/\/telma-chartes.irht.cnrs.fr\/moreau\/notice\/13663",
    "project_slug": "moreau",
    "project_label": "Inventaire Moreau",
    "user": "b_tock",
    "last_update": "2020-10-19 16:25:50",
    "licence": "Attribution - Pas d\u2019Utilisation Commerciale - Partage dans les M\u00eames Conditions 3.0 France (CC BY-NC-SA 3.0 FR) ",
    "licence_url": "https:\/\/creativecommons.org\/licenses\/by-nc-sa\/3.0\/fr\/",
    "elements": [
        {
            "type": "date",
            "value": "1203\/07",
            "children": {
                "date_deb_annee": "1203",
                "date_deb_mois": "07"
            },
            "range": {
                "date_apres": 12030700,
                "date_avant": 12030799
            }
        },
        {
            "type": "auteur",
            "value": "Etienne, \u00e9v\u00eaque de Noyon"
        },
        {
            "type": "beneficiaire",
            "value": "Mont-Saint-Quentin, abbaye"
        },
        {
            "type": "cote",
            "value": "FRANCE, Paris, BNF, Collection Moreau, t. 105, f. 37"
        }
    ]
}