{
    "id": 7675,
    "name": "moreau-7149",
    "type": "acte",
    "url": "http:\/\/telma-chartes.irht.cnrs.fr\/moreau\/notice\/7675",
    "project_slug": "moreau",
    "project_label": "Inventaire Moreau",
    "user": "b_tock",
    "last_update": "2020-10-19 16:25:28",
    "licence": "Attribution - Pas d\u2019Utilisation Commerciale - Partage dans les M\u00eames Conditions 3.0 France (CC BY-NC-SA 3.0 FR) ",
    "licence_url": "https:\/\/creativecommons.org\/licenses\/by-nc-sa\/3.0\/fr\/",
    "elements": [
        {
            "type": "date",
            "value": "1124\/02\/11",
            "children": {
                "date_deb_annee": "1124",
                "date_deb_mois": "02",
                "date_deb_jour": "11"
            },
            "range": {
                "date_apres": 11240211,
                "date_avant": 11240211
            }
        },
        {
            "type": "auteur",
            "value": "Honorius II, pape"
        },
        {
            "type": "beneficiaire",
            "value": "Senlis, abbaye Saint-Vincent"
        },
        {
            "type": "cote",
            "value": "FRANCE, Paris, BNF, Collection Moreau, t. 51, f. 179"
        }
    ]
}