{
    "id": 5004,
    "name": "moreau-4478",
    "type": "acte",
    "url": "http:\/\/telma-chartes.irht.cnrs.fr\/moreau\/notice\/5004",
    "project_slug": "moreau",
    "project_label": "Inventaire Moreau",
    "user": "b_tock",
    "last_update": "2020-10-19 16:25:17",
    "licence": "Attribution - Pas d\u2019Utilisation Commerciale - Partage dans les M\u00eames Conditions 3.0 France (CC BY-NC-SA 3.0 FR) ",
    "licence_url": "https:\/\/creativecommons.org\/licenses\/by-nc-sa\/3.0\/fr\/",
    "elements": [
        {
            "type": "date",
            "value": "1074",
            "children": {
                "date_deb_annee": "1074"
            },
            "range": {
                "date_apres": 10740000,
                "date_avant": 10749999
            }
        },
        {
            "type": "auteur",
            "value": "Li\u00e9bert, \u00e9v\u00eaque de Cambrai"
        },
        {
            "type": "beneficiaire",
            "value": "Le Cateau-Cambr\u00e9sis, abbaye Saint-Andr\u00e9"
        },
        {
            "type": "cote",
            "value": "FRANCE, Paris, BNF, Collection Moreau, t. 31, f. 21"
        }
    ]
}