{
    "id": 7617,
    "name": "moreau-7091",
    "type": "acte",
    "url": "http:\/\/telma-chartes.irht.cnrs.fr\/moreau\/notice\/7617",
    "project_slug": "moreau",
    "project_label": "Inventaire Moreau",
    "user": "b_tock",
    "last_update": "2020-10-19 16:25:27",
    "licence": "Attribution - Pas d\u2019Utilisation Commerciale - Partage dans les M\u00eames Conditions 3.0 France (CC BY-NC-SA 3.0 FR) ",
    "licence_url": "https:\/\/creativecommons.org\/licenses\/by-nc-sa\/3.0\/fr\/",
    "elements": [
        {
            "type": "date",
            "value": "1122",
            "children": {
                "date_deb_annee": "1122"
            },
            "range": {
                "date_apres": 11220000,
                "date_avant": 11229999
            }
        },
        {
            "type": "auteur",
            "value": "Clarembaud, \u00e9v\u00eaque de Senlis"
        },
        {
            "type": "beneficiaire",
            "value": "Cr\u00e9py, prieur\u00e9 Sainte-Agathe Saint-Arnoul"
        },
        {
            "type": "cote",
            "value": "FRANCE, Paris, BNF, Collection Moreau, t. 51, f. 45"
        }
    ]
}