{
    "id": 14406,
    "name": "moreau-13880",
    "type": "acte",
    "url": "http:\/\/telma-chartes.irht.cnrs.fr\/moreau\/notice\/14406",
    "project_slug": "moreau",
    "project_label": "Inventaire Moreau",
    "user": "b_tock",
    "last_update": "2020-10-19 16:25:53",
    "licence": "Attribution - Pas d\u2019Utilisation Commerciale - Partage dans les M\u00eames Conditions 3.0 France (CC BY-NC-SA 3.0 FR) ",
    "licence_url": "https:\/\/creativecommons.org\/licenses\/by-nc-sa\/3.0\/fr\/",
    "elements": [
        {
            "type": "date",
            "value": "1208",
            "children": {
                "date_deb_annee": "1208"
            },
            "range": {
                "date_apres": 12080000,
                "date_avant": 12089999
            }
        },
        {
            "type": "remarques",
            "value": "archives de Marmoutier"
        },
        {
            "type": "auteur",
            "value": "Guillaume, ch\u00e2telain de St-Omer"
        },
        {
            "type": "beneficiaire",
            "value": "Beaurain, prieur\u00e9 Saint-Martin"
        },
        {
            "type": "cote",
            "value": "FRANCE, Paris, BNF, Collection Moreau, t. 111, f. 49"
        }
    ]
}