{
    "id": 10386,
    "name": "moreau-9860",
    "type": "acte",
    "url": "http:\/\/telma-chartes.irht.cnrs.fr\/moreau\/notice\/10386",
    "project_slug": "moreau",
    "project_label": "Inventaire Moreau",
    "user": "b_tock",
    "last_update": "2020-10-19 16:25:38",
    "licence": "Attribution - Pas d\u2019Utilisation Commerciale - Partage dans les M\u00eames Conditions 3.0 France (CC BY-NC-SA 3.0 FR) ",
    "licence_url": "https:\/\/creativecommons.org\/licenses\/by-nc-sa\/3.0\/fr\/",
    "elements": [
        {
            "type": "date",
            "value": "1170",
            "children": {
                "date_deb_annee": "1170"
            },
            "range": {
                "date_apres": 11700000,
                "date_avant": 11709999
            }
        },
        {
            "type": "auteur",
            "value": "Gautier, \u00e9v\u00eaque de Laon"
        },
        {
            "type": "beneficiaire",
            "value": "La Bouteille, abbaye de Foigny"
        },
        {
            "type": "cote",
            "value": "FRANCE, Paris, BNF, Collection Moreau, t. 76, f. 186"
        }
    ]
}