{
    "id": 3608,
    "name": "moreau-3082",
    "type": "acte",
    "url": "http:\/\/telma-chartes.irht.cnrs.fr\/moreau\/notice\/3608",
    "project_slug": "moreau",
    "project_label": "Inventaire Moreau",
    "user": "b_tock",
    "last_update": "2020-10-19 16:25:11",
    "licence": "Attribution - Pas d\u2019Utilisation Commerciale - Partage dans les M\u00eames Conditions 3.0 France (CC BY-NC-SA 3.0 FR) ",
    "licence_url": "https:\/\/creativecommons.org\/licenses\/by-nc-sa\/3.0\/fr\/",
    "elements": [
        {
            "type": "date",
            "value": "apres 0000 - avant 9999",
            "children": {
                "date_deb_type": "apres",
                "date_fin_type": "avant",
                "date_deb_annee": "0000",
                "date_fin_annee": "9999"
            },
            "range": {
                "date_apres": 0,
                "date_avant": 99999999
            }
        },
        {
            "type": "remarques",
            "value": "archives de Saint-Serge d'Angers"
        },
        {
            "type": "auteur",
            "value": "Geoffroy, \u00e9v\u00eaque d'Angers"
        },
        {
            "type": "beneficiaire",
            "value": "Angers, chapitre Saint-Maurice"
        },
        {
            "type": "cote",
            "value": "FRANCE, Paris, BNF, Collection Moreau, t. 20, f. 26"
        }
    ]
}