{
    "id": 5788,
    "name": "moreau-5262",
    "type": "acte",
    "url": "http:\/\/telma-chartes.irht.cnrs.fr\/moreau\/notice\/5788",
    "project_slug": "moreau",
    "project_label": "Inventaire Moreau",
    "user": "b_tock",
    "last_update": "2020-10-19 16:25:20",
    "licence": "Attribution - Pas d\u2019Utilisation Commerciale - Partage dans les M\u00eames Conditions 3.0 France (CC BY-NC-SA 3.0 FR) ",
    "licence_url": "https:\/\/creativecommons.org\/licenses\/by-nc-sa\/3.0\/fr\/",
    "elements": [
        {
            "type": "date",
            "value": "1091\/04\/01",
            "children": {
                "date_deb_annee": "1091",
                "date_deb_mois": "04",
                "date_deb_jour": "01"
            },
            "range": {
                "date_apres": 10910401,
                "date_avant": 10910401
            }
        },
        {
            "type": "auteur",
            "value": "Urbain II, pape"
        },
        {
            "type": "beneficiaire",
            "value": "Le Monastier-en-Velay, abbaye"
        },
        {
            "type": "cote",
            "value": "FRANCE, Paris, BNF, Collection Moreau, t. 36, f. 157"
        }
    ]
}