{
    "id": 13026,
    "name": "moreau-12500",
    "type": "acte",
    "url": "http:\/\/telma-chartes.irht.cnrs.fr\/moreau\/notice\/13026",
    "project_slug": "moreau",
    "project_label": "Inventaire Moreau",
    "user": "b_tock",
    "last_update": "2020-10-19 16:25:48",
    "licence": "Attribution - Pas d\u2019Utilisation Commerciale - Partage dans les M\u00eames Conditions 3.0 France (CC BY-NC-SA 3.0 FR) ",
    "licence_url": "https:\/\/creativecommons.org\/licenses\/by-nc-sa\/3.0\/fr\/",
    "elements": [
        {
            "type": "date",
            "value": "1199\/09",
            "children": {
                "date_deb_annee": "1199",
                "date_deb_mois": "09"
            },
            "range": {
                "date_apres": 11990900,
                "date_avant": 11990999
            }
        },
        {
            "type": "auteur",
            "value": "Etienne, \u00e9v\u00eaque de Noyon"
        },
        {
            "type": "beneficiaire",
            "value": "St-Quentin, ville"
        },
        {
            "type": "cote",
            "value": "FRANCE, Paris, BNF, Collection Moreau, t. 99, f. 216"
        }
    ]
}