{
    "id": 6970,
    "name": "moreau-6444",
    "type": "acte",
    "url": "http:\/\/telma-chartes.irht.cnrs.fr\/moreau\/notice\/6970",
    "project_slug": "moreau",
    "project_label": "Inventaire Moreau",
    "user": "b_tock",
    "last_update": "2020-10-19 16:25:24",
    "licence": "Attribution - Pas d\u2019Utilisation Commerciale - Partage dans les M\u00eames Conditions 3.0 France (CC BY-NC-SA 3.0 FR) ",
    "licence_url": "https:\/\/creativecommons.org\/licenses\/by-nc-sa\/3.0\/fr\/",
    "elements": [
        {
            "type": "date",
            "value": "1110\/01\/28",
            "children": {
                "date_deb_annee": "1110",
                "date_deb_mois": "01",
                "date_deb_jour": "28"
            },
            "range": {
                "date_apres": 11100128,
                "date_avant": 11100128
            }
        },
        {
            "type": "auteur",
            "value": "Chatbertus Verbigarius"
        },
        {
            "type": "beneficiaire",
            "value": "Grenoble, cath\u00e9drale Notre-Dame"
        },
        {
            "type": "cote",
            "value": "FRANCE, Paris, BNF, Collection Moreau, t. 45, f. 107"
        }
    ]
}