{
    "id": 9136,
    "name": "moreau-8610",
    "type": "acte",
    "url": "http:\/\/telma-chartes.irht.cnrs.fr\/moreau\/notice\/9136",
    "project_slug": "moreau",
    "project_label": "Inventaire Moreau",
    "user": "b_tock",
    "last_update": "2020-10-19 16:25:33",
    "licence": "Attribution - Pas d\u2019Utilisation Commerciale - Partage dans les M\u00eames Conditions 3.0 France (CC BY-NC-SA 3.0 FR) ",
    "licence_url": "https:\/\/creativecommons.org\/licenses\/by-nc-sa\/3.0\/fr\/",
    "elements": [
        {
            "type": "date",
            "value": "1151\/06\/10",
            "children": {
                "date_deb_annee": "1151",
                "date_deb_mois": "06",
                "date_deb_jour": "10"
            },
            "range": {
                "date_apres": 11510610,
                "date_avant": 11510610
            }
        },
        {
            "type": "remarques",
            "value": "archives de l'abbaye de Hasnon"
        },
        {
            "type": "auteur",
            "value": "Enguerran, comte de Saint-Pol"
        },
        {
            "type": "beneficiaire",
            "value": "Furnes, abbaye Saint-Nicolas"
        },
        {
            "type": "cote",
            "value": "FRANCE, Paris, BNF, Collection Moreau, t. 65, f. 175"
        }
    ]
}