{
    "id": 791,
    "name": "moreau-265",
    "type": "acte",
    "url": "http:\/\/telma-chartes.irht.cnrs.fr\/moreau\/notice\/791",
    "project_slug": "moreau",
    "project_label": "Inventaire Moreau",
    "user": "b_tock",
    "last_update": "2020-10-19 16:24:59",
    "licence": "Attribution - Pas d\u2019Utilisation Commerciale - Partage dans les M\u00eames Conditions 3.0 France (CC BY-NC-SA 3.0 FR) ",
    "licence_url": "https:\/\/creativecommons.org\/licenses\/by-nc-sa\/3.0\/fr\/",
    "elements": [
        {
            "type": "date",
            "value": "0890\/12\/30",
            "children": {
                "date_deb_annee": "0890",
                "date_deb_mois": "12",
                "date_deb_jour": "30"
            },
            "range": {
                "date_apres": 8901230,
                "date_avant": 8901230
            }
        },
        {
            "type": "remarques",
            "value": "archives de l'abbaye de Saint-Hilaire de Poitiers"
        },
        {
            "type": "auteur",
            "value": "Eudes, roi des Francs"
        },
        {
            "type": "beneficiaire",
            "value": "Ubaldus"
        },
        {
            "type": "cote",
            "value": "FRANCE, Paris, BNF, Collection Moreau, t. 3, f. 57"
        }
    ]
}