{
    "id": 13933,
    "name": "moreau-13407",
    "type": "acte",
    "url": "http:\/\/telma-chartes.irht.cnrs.fr\/moreau\/notice\/13933",
    "project_slug": "moreau",
    "project_label": "Inventaire Moreau",
    "user": "b_tock",
    "last_update": "2020-10-19 16:25:51",
    "licence": "Attribution - Pas d\u2019Utilisation Commerciale - Partage dans les M\u00eames Conditions 3.0 France (CC BY-NC-SA 3.0 FR) ",
    "licence_url": "https:\/\/creativecommons.org\/licenses\/by-nc-sa\/3.0\/fr\/",
    "elements": [
        {
            "type": "date",
            "value": "1205\/12",
            "children": {
                "date_deb_annee": "1205",
                "date_deb_mois": "12"
            },
            "range": {
                "date_apres": 12051200,
                "date_avant": 12051299
            }
        },
        {
            "type": "auteur",
            "value": "Hugues, seigneur de Gournay"
        },
        {
            "type": "beneficiaire",
            "value": "Bucilly, abbaye Saint-Pierre"
        },
        {
            "type": "cote",
            "value": "FRANCE, Paris, BNF, Collection Moreau, t. 107, f. 96"
        }
    ]
}