{
    "id": 2769,
    "name": "moreau-2243",
    "type": "acte",
    "url": "http:\/\/telma-chartes.irht.cnrs.fr\/moreau\/notice\/2769",
    "project_slug": "moreau",
    "project_label": "Inventaire Moreau",
    "user": "b_tock",
    "last_update": "2020-10-19 16:25:08",
    "licence": "Attribution - Pas d\u2019Utilisation Commerciale - Partage dans les M\u00eames Conditions 3.0 France (CC BY-NC-SA 3.0 FR) ",
    "licence_url": "https:\/\/creativecommons.org\/licenses\/by-nc-sa\/3.0\/fr\/",
    "elements": [
        {
            "type": "date",
            "value": "apres 0993 - avant 0994",
            "children": {
                "date_deb_annee": "0993",
                "date_deb_type": "apres",
                "date_fin_annee": "0994",
                "date_fin_type": "avant"
            },
            "range": {
                "date_apres": 9930000,
                "date_avant": 9949999
            }
        },
        {
            "type": "auteur",
            "value": "Gui"
        },
        {
            "type": "beneficiaire",
            "value": "Cluny, abbaye Saint-Pierre-et-Saint-Paul"
        },
        {
            "type": "cote",
            "value": "FRANCE, Paris, BNF, Collection Moreau, t. 15, f. 97"
        }
    ]
}