{
    "id": 5407,
    "name": "moreau-4881",
    "type": "acte",
    "url": "http:\/\/telma-chartes.irht.cnrs.fr\/moreau\/notice\/5407",
    "project_slug": "moreau",
    "project_label": "Inventaire Moreau",
    "user": "b_tock",
    "last_update": "2020-10-19 16:25:18",
    "licence": "Attribution - Pas d\u2019Utilisation Commerciale - Partage dans les M\u00eames Conditions 3.0 France (CC BY-NC-SA 3.0 FR) ",
    "licence_url": "https:\/\/creativecommons.org\/licenses\/by-nc-sa\/3.0\/fr\/",
    "elements": [
        {
            "type": "date",
            "value": "1083",
            "children": {
                "date_deb_annee": "1083"
            },
            "range": {
                "date_apres": 10830000,
                "date_avant": 10839999
            }
        },
        {
            "type": "auteur",
            "value": "Sigefroi, abb\u00e9 de Saint-Michel de St-Mihiel"
        },
        {
            "type": "beneficiaire",
            "value": "St-Mihiel, abbaye Saint-Michel"
        },
        {
            "type": "cote",
            "value": "FRANCE, Paris, BNF, Collection Moreau, t. 33, f. 217"
        }
    ]
}