{
    "id": 5495,
    "name": "moreau-4969",
    "type": "acte",
    "url": "http:\/\/telma-chartes.irht.cnrs.fr\/moreau\/notice\/5495",
    "project_slug": "moreau",
    "project_label": "Inventaire Moreau",
    "user": "b_tock",
    "last_update": "2020-10-19 16:25:18",
    "licence": "Attribution - Pas d\u2019Utilisation Commerciale - Partage dans les M\u00eames Conditions 3.0 France (CC BY-NC-SA 3.0 FR) ",
    "licence_url": "https:\/\/creativecommons.org\/licenses\/by-nc-sa\/3.0\/fr\/",
    "elements": [
        {
            "type": "date",
            "value": "1085",
            "children": {
                "date_deb_annee": "1085"
            },
            "range": {
                "date_apres": 10850000,
                "date_avant": 10859999
            }
        },
        {
            "type": "auteur",
            "value": "Philippe Ier, roi de France"
        },
        {
            "type": "beneficiaire",
            "value": "Bury, prieur\u00e9\u00a0"
        },
        {
            "type": "beneficiaire",
            "value": "St-Jean-d'Ang\u00e9ly, abbaye Saint-Jean-Baptiste"
        },
        {
            "type": "cote",
            "value": "FRANCE, Paris, BNF, Collection Moreau, t. 34, f. 152"
        }
    ]
}