{
    "id": 10632,
    "name": "moreau-10106",
    "type": "acte",
    "url": "http:\/\/telma-chartes.irht.cnrs.fr\/moreau\/notice\/10632",
    "project_slug": "moreau",
    "project_label": "Inventaire Moreau",
    "user": "b_tock",
    "last_update": "2020-10-19 16:25:39",
    "licence": "Attribution - Pas d\u2019Utilisation Commerciale - Partage dans les M\u00eames Conditions 3.0 France (CC BY-NC-SA 3.0 FR) ",
    "licence_url": "https:\/\/creativecommons.org\/licenses\/by-nc-sa\/3.0\/fr\/",
    "elements": [
        {
            "type": "date",
            "value": "1174\/10\/19",
            "children": {
                "date_deb_annee": "1174",
                "date_deb_mois": "10",
                "date_deb_jour": "19"
            },
            "range": {
                "date_apres": 11741019,
                "date_avant": 11741019
            }
        },
        {
            "type": "auteur",
            "value": "Roger, pr\u00e9v\u00f4t du chapitre cath\u00e9dral Notre-Dame-et-Saint-Vaast d'Arras"
        },
        {
            "type": "beneficiaire",
            "value": "Eaucourt, abbaye Notre-Dame"
        },
        {
            "type": "cote",
            "value": "FRANCE, Paris, BNF, Collection Moreau, t. 79, f. 18"
        }
    ]
}