{
    "id": 13317,
    "name": "moreau-12791",
    "type": "acte",
    "url": "http:\/\/telma-chartes.irht.cnrs.fr\/moreau\/notice\/13317",
    "project_slug": "moreau",
    "project_label": "Inventaire Moreau",
    "user": "b_tock",
    "last_update": "2020-10-19 16:25:49",
    "licence": "Attribution - Pas d\u2019Utilisation Commerciale - Partage dans les M\u00eames Conditions 3.0 France (CC BY-NC-SA 3.0 FR) ",
    "licence_url": "https:\/\/creativecommons.org\/licenses\/by-nc-sa\/3.0\/fr\/",
    "elements": [
        {
            "type": "date",
            "value": "1201\/07\/10",
            "children": {
                "date_deb_annee": "1201",
                "date_deb_mois": "07",
                "date_deb_jour": "10"
            },
            "range": {
                "date_apres": 12010710,
                "date_avant": 12010710
            }
        },
        {
            "type": "auteur",
            "value": "Gautier, archev\u00eaque de Rouen"
        },
        {
            "type": "beneficiaire",
            "value": "Rouen, abbaye Saint-Ouen"
        },
        {
            "type": "cote",
            "value": "FRANCE, Paris, BNF, Collection Moreau, t. 102, f. 85"
        }
    ]
}