{
    "id": 2714,
    "name": "moreau-2188",
    "type": "acte",
    "url": "http:\/\/telma-chartes.irht.cnrs.fr\/moreau\/notice\/2714",
    "project_slug": "moreau",
    "project_label": "Inventaire Moreau",
    "user": "b_tock",
    "last_update": "2020-10-19 16:25:08",
    "licence": "Attribution - Pas d\u2019Utilisation Commerciale - Partage dans les M\u00eames Conditions 3.0 France (CC BY-NC-SA 3.0 FR) ",
    "licence_url": "https:\/\/creativecommons.org\/licenses\/by-nc-sa\/3.0\/fr\/",
    "elements": [
        {
            "type": "date",
            "value": "0991\/07\/19",
            "children": {
                "date_deb_annee": "0991",
                "date_deb_mois": "07",
                "date_deb_jour": "19"
            },
            "range": {
                "date_apres": 9910719,
                "date_avant": 9910719
            }
        },
        {
            "type": "remarques",
            "value": "archives de l'abbaye de Cluny"
        },
        {
            "type": "auteur",
            "value": "Eudes, diacre"
        },
        {
            "type": "beneficiaire",
            "value": "Gui, \u00e9v\u00eaque du Puy"
        },
        {
            "type": "cote",
            "value": "FRANCE, Paris, BNF, Collection Moreau, t. 15, f. 28"
        }
    ]
}