{
    "id": 1384,
    "name": "moreau-858",
    "type": "acte",
    "url": "http:\/\/telma-chartes.irht.cnrs.fr\/moreau\/notice\/1384",
    "project_slug": "moreau",
    "project_label": "Inventaire Moreau",
    "user": "b_tock",
    "last_update": "2020-10-19 16:25:02",
    "licence": "Attribution - Pas d\u2019Utilisation Commerciale - Partage dans les M\u00eames Conditions 3.0 France (CC BY-NC-SA 3.0 FR) ",
    "licence_url": "https:\/\/creativecommons.org\/licenses\/by-nc-sa\/3.0\/fr\/",
    "elements": [
        {
            "type": "date",
            "value": "0944",
            "children": {
                "date_deb_annee": "0944"
            },
            "range": {
                "date_apres": 9440000,
                "date_avant": 9449999
            }
        },
        {
            "type": "auteur",
            "value": "Turpion, \u00e9v\u00eaque de Limoges"
        },
        {
            "type": "beneficiaire",
            "value": "Limoges, cath\u00e9drale Saint-Etienne"
        },
        {
            "type": "cote",
            "value": "FRANCE, Paris, BNF, Collection Moreau, t. 7, f. 57"
        }
    ]
}