{
    "id": 582,
    "name": "moreau-56",
    "type": "acte",
    "url": "http:\/\/telma-chartes.irht.cnrs.fr\/moreau\/notice\/582",
    "project_slug": "moreau",
    "project_label": "Inventaire Moreau",
    "user": "b_tock",
    "last_update": "2020-10-19 16:24:58",
    "licence": "Attribution - Pas d\u2019Utilisation Commerciale - Partage dans les M\u00eames Conditions 3.0 France (CC BY-NC-SA 3.0 FR) ",
    "licence_url": "https:\/\/creativecommons.org\/licenses\/by-nc-sa\/3.0\/fr\/",
    "elements": [
        {
            "type": "date",
            "value": "0840\/11\/18",
            "children": {
                "date_deb_annee": "0840",
                "date_deb_mois": "11",
                "date_deb_jour": "18"
            },
            "range": {
                "date_apres": 8401118,
                "date_avant": 8401118
            }
        },
        {
            "type": "auteur",
            "value": "Ermengarde"
        },
        {
            "type": "beneficiaire",
            "value": "Vienne, cath\u00e9drale Saint-Maurice"
        },
        {
            "type": "cote",
            "value": "FRANCE, Paris, BNF, Collection Moreau, t. 1, f. 108"
        }
    ]
}