{
    "id": 13310,
    "name": "moreau-12784",
    "type": "acte",
    "url": "http:\/\/telma-chartes.irht.cnrs.fr\/moreau\/notice\/13310",
    "project_slug": "moreau",
    "project_label": "Inventaire Moreau",
    "user": "b_tock",
    "last_update": "2020-10-19 16:25:49",
    "licence": "Attribution - Pas d\u2019Utilisation Commerciale - Partage dans les M\u00eames Conditions 3.0 France (CC BY-NC-SA 3.0 FR) ",
    "licence_url": "https:\/\/creativecommons.org\/licenses\/by-nc-sa\/3.0\/fr\/",
    "elements": [
        {
            "type": "date",
            "value": "1201\/04",
            "children": {
                "date_deb_annee": "1201",
                "date_deb_mois": "04"
            },
            "range": {
                "date_apres": 12010400,
                "date_avant": 12010499
            }
        },
        {
            "type": "remarques",
            "value": "archives de Saint-Bertin"
        },
        {
            "type": "auteur",
            "value": "Amauri, pr\u00e9v\u00f4t"
        },
        {
            "type": "auteur",
            "value": "chapitre cath\u00e9dral Notre-Dame d'Arras"
        },
        {
            "type": "beneficiaire",
            "value": "Anzin, \u00e9glise"
        },
        {
            "type": "beneficiaire",
            "value": "B\u00e9thune chapitre Saint-Barth\u00e9lemy"
        },
        {
            "type": "cote",
            "value": "FRANCE, Paris, BNF, Collection Moreau, t. 102, f. 73"
        }
    ]
}