{
    "id": 7377,
    "name": "moreau-6851",
    "type": "acte",
    "url": "http:\/\/telma-chartes.irht.cnrs.fr\/moreau\/notice\/7377",
    "project_slug": "moreau",
    "project_label": "Inventaire Moreau",
    "user": "b_tock",
    "last_update": "2020-10-19 16:25:26",
    "licence": "Attribution - Pas d\u2019Utilisation Commerciale - Partage dans les M\u00eames Conditions 3.0 France (CC BY-NC-SA 3.0 FR) ",
    "licence_url": "https:\/\/creativecommons.org\/licenses\/by-nc-sa\/3.0\/fr\/",
    "elements": [
        {
            "type": "date",
            "value": "1118\/05\/21",
            "children": {
                "date_deb_annee": "1118",
                "date_deb_mois": "05",
                "date_deb_jour": "21"
            },
            "range": {
                "date_apres": 11180521,
                "date_avant": 11180521
            }
        },
        {
            "type": "remarques",
            "value": "11e an. Louis (VI)"
        },
        {
            "type": "auteur",
            "value": "Guilhem Raimond de Palatiodan"
        },
        {
            "type": "beneficiaire",
            "value": "Arles, abbaye Notre-Dame"
        },
        {
            "type": "cote",
            "value": "FRANCE, Paris, BNF, Collection Moreau, t. 49, f. 62"
        }
    ]
}