{
    "id": 5063,
    "name": "moreau-4537",
    "type": "acte",
    "url": "http:\/\/telma-chartes.irht.cnrs.fr\/moreau\/notice\/5063",
    "project_slug": "moreau",
    "project_label": "Inventaire Moreau",
    "user": "b_tock",
    "last_update": "2020-10-19 16:25:17",
    "licence": "Attribution - Pas d\u2019Utilisation Commerciale - Partage dans les M\u00eames Conditions 3.0 France (CC BY-NC-SA 3.0 FR) ",
    "licence_url": "https:\/\/creativecommons.org\/licenses\/by-nc-sa\/3.0\/fr\/",
    "elements": [
        {
            "type": "date",
            "value": "1076\/10\/14",
            "children": {
                "date_deb_annee": "1076",
                "date_deb_mois": "10",
                "date_deb_jour": "14"
            },
            "range": {
                "date_apres": 10761014,
                "date_avant": 10761014
            }
        },
        {
            "type": "auteur",
            "value": "Philippe Ier, roi de France"
        },
        {
            "type": "beneficiaire",
            "value": "Montierneuf, abbaye Saint-Jean"
        },
        {
            "type": "cote",
            "value": "FRANCE, Paris, BNF, Collection Moreau, t. 31, f. 132"
        }
    ]
}