{
    "id": 5183,
    "name": "moreau-4657",
    "type": "acte",
    "url": "http:\/\/telma-chartes.irht.cnrs.fr\/moreau\/notice\/5183",
    "project_slug": "moreau",
    "project_label": "Inventaire Moreau",
    "user": "b_tock",
    "last_update": "2020-10-19 16:25:17",
    "licence": "Attribution - Pas d\u2019Utilisation Commerciale - Partage dans les M\u00eames Conditions 3.0 France (CC BY-NC-SA 3.0 FR) ",
    "licence_url": "https:\/\/creativecommons.org\/licenses\/by-nc-sa\/3.0\/fr\/",
    "elements": [
        {
            "type": "date",
            "value": "1080\/04\/07",
            "children": {
                "date_deb_annee": "1080",
                "date_deb_mois": "04",
                "date_deb_jour": "07"
            },
            "range": {
                "date_apres": 10800407,
                "date_avant": 10800407
            }
        },
        {
            "type": "auteur",
            "value": "Philippe Ier, roi de France"
        },
        {
            "type": "beneficiaire",
            "value": "Cluny, abbaye Saint-Pierre-et-Saint-Paul"
        },
        {
            "type": "cote",
            "value": "FRANCE, Paris, BNF, Collection Moreau, t. 32, f. 113"
        }
    ]
}