{
    "id": 8196,
    "name": "moreau-7670",
    "type": "acte",
    "url": "http:\/\/telma-chartes.irht.cnrs.fr\/moreau\/notice\/8196",
    "project_slug": "moreau",
    "project_label": "Inventaire Moreau",
    "user": "b_tock",
    "last_update": "2020-10-19 16:25:30",
    "licence": "Attribution - Pas d\u2019Utilisation Commerciale - Partage dans les M\u00eames Conditions 3.0 France (CC BY-NC-SA 3.0 FR) ",
    "licence_url": "https:\/\/creativecommons.org\/licenses\/by-nc-sa\/3.0\/fr\/",
    "elements": [
        {
            "type": "date",
            "value": "1147\/05\/29",
            "children": {
                "date_deb_annee": "1147",
                "date_deb_mois": "05",
                "date_deb_jour": "29"
            },
            "range": {
                "date_apres": 11470529,
                "date_avant": 11470529
            }
        },
        {
            "type": "remarques",
            "value": "lettre \u00e0 H. archev\u00eaque Besan\u00e7on"
        },
        {
            "type": "auteur",
            "value": "Eug\u00e8ne III, pape"
        },
        {
            "type": "beneficiaire",
            "value": "Cluny, abbaye Saint-Pierre-et-Saint-Paul"
        },
        {
            "type": "cote",
            "value": "FRANCE, Paris, BNF, Collection Moreau, t. 57, f. 93"
        }
    ]
}