{
    "id": 13330,
    "name": "moreau-12804",
    "type": "acte",
    "url": "http:\/\/telma-chartes.irht.cnrs.fr\/moreau\/notice\/13330",
    "project_slug": "moreau",
    "project_label": "Inventaire Moreau",
    "user": "b_tock",
    "last_update": "2020-10-19 16:25:49",
    "licence": "Attribution - Pas d\u2019Utilisation Commerciale - Partage dans les M\u00eames Conditions 3.0 France (CC BY-NC-SA 3.0 FR) ",
    "licence_url": "https:\/\/creativecommons.org\/licenses\/by-nc-sa\/3.0\/fr\/",
    "elements": [
        {
            "type": "date",
            "value": "1201\/10\/15",
            "children": {
                "date_deb_annee": "1201",
                "date_deb_mois": "10",
                "date_deb_jour": "15"
            },
            "range": {
                "date_apres": 12011015,
                "date_avant": 12011015
            }
        },
        {
            "type": "auteur",
            "value": "Blanche, comtesse de Troyes"
        },
        {
            "type": "beneficiaire",
            "value": "Corbie, abbaye Saint-Pierre"
        },
        {
            "type": "cote",
            "value": "FRANCE, Paris, BNF, Collection Moreau, t. 102, f. 108"
        }
    ]
}