{
    "id": 1104,
    "name": "moreau-578",
    "type": "acte",
    "url": "http:\/\/telma-chartes.irht.cnrs.fr\/moreau\/notice\/1104",
    "project_slug": "moreau",
    "project_label": "Inventaire Moreau",
    "user": "b_tock",
    "last_update": "2020-10-19 16:25:01",
    "licence": "Attribution - Pas d\u2019Utilisation Commerciale - Partage dans les M\u00eames Conditions 3.0 France (CC BY-NC-SA 3.0 FR) ",
    "licence_url": "https:\/\/creativecommons.org\/licenses\/by-nc-sa\/3.0\/fr\/",
    "elements": [
        {
            "type": "date",
            "value": "0931",
            "children": {
                "date_deb_annee": "0931"
            },
            "range": {
                "date_apres": 9310000,
                "date_avant": 9319999
            }
        },
        {
            "type": "auteur",
            "value": "Henri Ier, roi de Germanie"
        },
        {
            "type": "beneficiaire",
            "value": "Crespin, abbaye Saint-Landelin"
        },
        {
            "type": "cote",
            "value": "FRANCE, Paris, BNF, Collection Moreau, t. 5, f. 97"
        }
    ]
}