{
    "id": 8885,
    "name": "moreau-8359",
    "type": "acte",
    "url": "http:\/\/telma-chartes.irht.cnrs.fr\/moreau\/notice\/8885",
    "project_slug": "moreau",
    "project_label": "Inventaire Moreau",
    "user": "b_tock",
    "last_update": "2020-10-19 16:25:32",
    "licence": "Attribution - Pas d\u2019Utilisation Commerciale - Partage dans les M\u00eames Conditions 3.0 France (CC BY-NC-SA 3.0 FR) ",
    "licence_url": "https:\/\/creativecommons.org\/licenses\/by-nc-sa\/3.0\/fr\/",
    "elements": [
        {
            "type": "date",
            "value": "1147",
            "children": {
                "date_deb_annee": "1147"
            },
            "range": {
                "date_apres": 11470000,
                "date_avant": 11479999
            }
        },
        {
            "type": "auteur",
            "value": "Barth\u00e9lemy, \u00e9v\u00eaque de Laon"
        },
        {
            "type": "beneficiaire",
            "value": "Saint-Nicolas-au-Bois, abbaye"
        },
        {
            "type": "cote",
            "value": "FRANCE, Paris, BNF, Collection Moreau, t. 63, f. 136"
        }
    ]
}