{
    "id": 6632,
    "name": "moreau-6106",
    "type": "acte",
    "url": "http:\/\/telma-chartes.irht.cnrs.fr\/moreau\/notice\/6632",
    "project_slug": "moreau",
    "project_label": "Inventaire Moreau",
    "user": "b_tock",
    "last_update": "2020-10-19 16:25:23",
    "licence": "Attribution - Pas d\u2019Utilisation Commerciale - Partage dans les M\u00eames Conditions 3.0 France (CC BY-NC-SA 3.0 FR) ",
    "licence_url": "https:\/\/creativecommons.org\/licenses\/by-nc-sa\/3.0\/fr\/",
    "elements": [
        {
            "type": "date",
            "value": "1107\/05\/24",
            "children": {
                "date_deb_annee": "1107",
                "date_deb_mois": "05",
                "date_deb_jour": "24"
            },
            "range": {
                "date_apres": 11070524,
                "date_avant": 11070524
            }
        },
        {
            "type": "auteur",
            "value": "Pascal II, pape"
        },
        {
            "type": "beneficiaire",
            "value": "Saint-Amand, abbaye"
        },
        {
            "type": "cote",
            "value": "FRANCE, Paris, BNF, Collection Moreau, t. 42, f. 167"
        }
    ]
}