{
    "id": 9382,
    "name": "moreau-8856",
    "type": "acte",
    "url": "http:\/\/telma-chartes.irht.cnrs.fr\/moreau\/notice\/9382",
    "project_slug": "moreau",
    "project_label": "Inventaire Moreau",
    "user": "b_tock",
    "last_update": "2020-10-19 16:25:34",
    "licence": "Attribution - Pas d\u2019Utilisation Commerciale - Partage dans les M\u00eames Conditions 3.0 France (CC BY-NC-SA 3.0 FR) ",
    "licence_url": "https:\/\/creativecommons.org\/licenses\/by-nc-sa\/3.0\/fr\/",
    "elements": [
        {
            "type": "date",
            "value": "1155",
            "children": {
                "date_deb_annee": "1155"
            },
            "range": {
                "date_apres": 11550000,
                "date_avant": 11559999
            }
        },
        {
            "type": "auteur",
            "value": "Jean, fils d'Alemannus Goel"
        },
        {
            "type": "beneficiaire",
            "value": "Bourges, abbaye Saint-Sulpice"
        },
        {
            "type": "cote",
            "value": "FRANCE, Paris, BNF, Collection Moreau, t. 67, f. 213"
        }
    ]
}