{
    "id": 1770,
    "name": "moreau-1244",
    "type": "acte",
    "url": "http:\/\/telma-chartes.irht.cnrs.fr\/moreau\/notice\/1770",
    "project_slug": "moreau",
    "project_label": "Inventaire Moreau",
    "user": "b_tock",
    "last_update": "2020-10-19 16:25:03",
    "licence": "Attribution - Pas d\u2019Utilisation Commerciale - Partage dans les M\u00eames Conditions 3.0 France (CC BY-NC-SA 3.0 FR) ",
    "licence_url": "https:\/\/creativecommons.org\/licenses\/by-nc-sa\/3.0\/fr\/",
    "elements": [
        {
            "type": "date",
            "value": "0961\/08\/20",
            "children": {
                "date_deb_annee": "0961",
                "date_deb_mois": "08",
                "date_deb_jour": "20"
            },
            "range": {
                "date_apres": 9610820,
                "date_avant": 9610820
            }
        },
        {
            "type": "auteur",
            "value": "Vuarulfus"
        },
        {
            "type": "beneficiaire",
            "value": "Cluny, abbaye Saint-Pierre-et-Saint-Paul"
        },
        {
            "type": "cote",
            "value": "FRANCE, Paris, BNF, Collection Moreau, t. 9, f. 117"
        }
    ]
}