{
    "id": 1637,
    "name": "moreau-1111",
    "type": "acte",
    "url": "http:\/\/telma-chartes.irht.cnrs.fr\/moreau\/notice\/1637",
    "project_slug": "moreau",
    "project_label": "Inventaire Moreau",
    "user": "b_tock",
    "last_update": "2020-10-19 16:25:03",
    "licence": "Attribution - Pas d\u2019Utilisation Commerciale - Partage dans les M\u00eames Conditions 3.0 France (CC BY-NC-SA 3.0 FR) ",
    "licence_url": "https:\/\/creativecommons.org\/licenses\/by-nc-sa\/3.0\/fr\/",
    "elements": [
        {
            "type": "date",
            "value": "0955\/07",
            "children": {
                "date_deb_annee": "0955",
                "date_deb_mois": "07"
            },
            "range": {
                "date_apres": 9550700,
                "date_avant": 9550799
            }
        },
        {
            "type": "remarques",
            "value": "archives de l'abbaye de Sauxillanges"
        },
        {
            "type": "auteur",
            "value": "Godo"
        },
        {
            "type": "beneficiaire",
            "value": "Bertrannus"
        },
        {
            "type": "cote",
            "value": "FRANCE, Paris, BNF, Collection Moreau, t. 8, f. 154"
        }
    ]
}