{
    "id": 1410,
    "name": "moreau-884",
    "type": "acte",
    "url": "http:\/\/telma-chartes.irht.cnrs.fr\/moreau\/notice\/1410",
    "project_slug": "moreau",
    "project_label": "Inventaire Moreau",
    "user": "b_tock",
    "last_update": "2020-10-19 16:25:02",
    "licence": "Attribution - Pas d\u2019Utilisation Commerciale - Partage dans les M\u00eames Conditions 3.0 France (CC BY-NC-SA 3.0 FR) ",
    "licence_url": "https:\/\/creativecommons.org\/licenses\/by-nc-sa\/3.0\/fr\/",
    "elements": [
        {
            "type": "date",
            "value": "0946\/06",
            "children": {
                "date_deb_annee": "0946",
                "date_deb_mois": "06"
            },
            "range": {
                "date_apres": 9460600,
                "date_avant": 9460699
            }
        },
        {
            "type": "auteur",
            "value": "Rainulfus"
        },
        {
            "type": "beneficiaire",
            "value": "Rihelt"
        },
        {
            "type": "cote",
            "value": "FRANCE, Paris, BNF, Collection Moreau, t. 7, f. 92"
        }
    ]
}