{
    "id": 9138,
    "name": "moreau-8612",
    "type": "acte",
    "url": "http:\/\/telma-chartes.irht.cnrs.fr\/moreau\/notice\/9138",
    "project_slug": "moreau",
    "project_label": "Inventaire Moreau",
    "user": "b_tock",
    "last_update": "2020-10-19 16:25:33",
    "licence": "Attribution - Pas d\u2019Utilisation Commerciale - Partage dans les M\u00eames Conditions 3.0 France (CC BY-NC-SA 3.0 FR) ",
    "licence_url": "https:\/\/creativecommons.org\/licenses\/by-nc-sa\/3.0\/fr\/",
    "elements": [
        {
            "type": "date",
            "value": "1151\/07\/29",
            "children": {
                "date_deb_annee": "1151",
                "date_deb_mois": "07",
                "date_deb_jour": "29"
            },
            "range": {
                "date_apres": 11510729,
                "date_avant": 11510729
            }
        },
        {
            "type": "auteur",
            "value": "Thierry, comte de Flandre"
        },
        {
            "type": "beneficiaire",
            "value": "St-Omer, abbaye Saint-Bertin"
        },
        {
            "type": "cote",
            "value": "FRANCE, Paris, BNF, Collection Moreau, t. 65, f. 179"
        }
    ]
}