{
    "id": 10079,
    "name": "moreau-9553",
    "type": "acte",
    "url": "http:\/\/telma-chartes.irht.cnrs.fr\/moreau\/notice\/10079",
    "project_slug": "moreau",
    "project_label": "Inventaire Moreau",
    "user": "b_tock",
    "last_update": "2020-10-19 16:25:37",
    "licence": "Attribution - Pas d\u2019Utilisation Commerciale - Partage dans les M\u00eames Conditions 3.0 France (CC BY-NC-SA 3.0 FR) ",
    "licence_url": "https:\/\/creativecommons.org\/licenses\/by-nc-sa\/3.0\/fr\/",
    "elements": [
        {
            "type": "date",
            "value": "1165",
            "children": {
                "date_deb_annee": "1165"
            },
            "range": {
                "date_apres": 11650000,
                "date_avant": 11659999
            }
        },
        {
            "type": "auteur",
            "value": "G\u00e9rald, abb\u00e9 de Notre-Dame de Vicoigne"
        },
        {
            "type": "beneficiaire",
            "value": "Henri, fils de Gilla"
        },
        {
            "type": "cote",
            "value": "FRANCE, Paris, BNF, Collection Moreau, t. 74, f. 18"
        }
    ]
}