{
    "id": 790,
    "name": "moreau-264",
    "type": "acte",
    "url": "http:\/\/telma-chartes.irht.cnrs.fr\/moreau\/notice\/790",
    "project_slug": "moreau",
    "project_label": "Inventaire Moreau",
    "user": "b_tock",
    "last_update": "2020-10-19 16:24:59",
    "licence": "Attribution - Pas d\u2019Utilisation Commerciale - Partage dans les M\u00eames Conditions 3.0 France (CC BY-NC-SA 3.0 FR) ",
    "licence_url": "https:\/\/creativecommons.org\/licenses\/by-nc-sa\/3.0\/fr\/",
    "elements": [
        {
            "type": "date",
            "value": "0888\/10",
            "children": {
                "date_deb_annee": "0888",
                "date_deb_mois": "10"
            },
            "range": {
                "date_apres": 8881000,
                "date_avant": 8881099
            }
        },
        {
            "type": "remarques",
            "value": "archives de l'abbaye de Saint-Cyprien de Poitiers"
        },
        {
            "type": "auteur",
            "value": "Ebbo"
        },
        {
            "type": "beneficiaire",
            "value": "Nouaill\u00e9, abbaye Saint-Junien"
        },
        {
            "type": "cote",
            "value": "FRANCE, Paris, BNF, Collection Moreau, t. 3, f. 56"
        }
    ]
}