{
    "id": 908,
    "name": "moreau-382",
    "type": "acte",
    "url": "http:\/\/telma-chartes.irht.cnrs.fr\/moreau\/notice\/908",
    "project_slug": "moreau",
    "project_label": "Inventaire Moreau",
    "user": "b_tock",
    "last_update": "2020-10-19 16:24:59",
    "licence": "Attribution - Pas d\u2019Utilisation Commerciale - Partage dans les M\u00eames Conditions 3.0 France (CC BY-NC-SA 3.0 FR) ",
    "licence_url": "https:\/\/creativecommons.org\/licenses\/by-nc-sa\/3.0\/fr\/",
    "elements": [
        {
            "type": "date",
            "value": "apres 0909 - avant 0910",
            "children": {
                "date_deb_annee": "0909",
                "date_deb_type": "apres",
                "date_fin_annee": "0910",
                "date_fin_type": "avant"
            },
            "range": {
                "date_apres": 9090000,
                "date_avant": 9109999
            }
        },
        {
            "type": "remarques",
            "value": "archives de l'abbaye de Cluny"
        },
        {
            "type": "auteur",
            "value": "Leosbergia"
        },
        {
            "type": "beneficiaire",
            "value": "Samuel"
        },
        {
            "type": "cote",
            "value": "FRANCE, Paris, BNF, Collection Moreau, t. 3, f. 240"
        }
    ]
}