{
    "id": 8558,
    "name": "moreau-8032",
    "type": "acte",
    "url": "http:\/\/telma-chartes.irht.cnrs.fr\/moreau\/notice\/8558",
    "project_slug": "moreau",
    "project_label": "Inventaire Moreau",
    "user": "b_tock",
    "last_update": "2020-10-19 16:25:31",
    "licence": "Attribution - Pas d\u2019Utilisation Commerciale - Partage dans les M\u00eames Conditions 3.0 France (CC BY-NC-SA 3.0 FR) ",
    "licence_url": "https:\/\/creativecommons.org\/licenses\/by-nc-sa\/3.0\/fr\/",
    "elements": [
        {
            "type": "date",
            "value": "1143\/08\/05",
            "children": {
                "date_deb_annee": "1143",
                "date_deb_mois": "08",
                "date_deb_jour": "05"
            },
            "range": {
                "date_apres": 11430805,
                "date_avant": 11430805
            }
        },
        {
            "type": "auteur",
            "value": "Bernard, seigneur de Paredo"
        },
        {
            "type": "beneficiaire",
            "value": "Espira, \u00e9glise Notre-Dame"
        },
        {
            "type": "cote",
            "value": "FRANCE, Paris, BNF, Collection Moreau, t. 60, f. 163"
        }
    ]
}