{
    "id": 5664,
    "name": "moreau-5138",
    "type": "acte",
    "url": "http:\/\/telma-chartes.irht.cnrs.fr\/moreau\/notice\/5664",
    "project_slug": "moreau",
    "project_label": "Inventaire Moreau",
    "user": "b_tock",
    "last_update": "2020-10-19 16:25:19",
    "licence": "Attribution - Pas d\u2019Utilisation Commerciale - Partage dans les M\u00eames Conditions 3.0 France (CC BY-NC-SA 3.0 FR) ",
    "licence_url": "https:\/\/creativecommons.org\/licenses\/by-nc-sa\/3.0\/fr\/",
    "elements": [
        {
            "type": "date",
            "value": "1089",
            "children": {
                "date_deb_annee": "1089"
            },
            "range": {
                "date_apres": 10890000,
                "date_avant": 10899999
            }
        },
        {
            "type": "auteur",
            "value": "G\u00e9rard, \u00e9v\u00eaque de Cambrai"
        },
        {
            "type": "beneficiaire",
            "value": "Cambrai, cath\u00e9drale Notre-Dame de Gr\u00e2ce"
        },
        {
            "type": "cote",
            "value": "FRANCE, Paris, BNF, Collection Moreau, t. 35, f. 193"
        }
    ]
}