{
    "id": 7659,
    "name": "moreau-7133",
    "type": "acte",
    "url": "http:\/\/telma-chartes.irht.cnrs.fr\/moreau\/notice\/7659",
    "project_slug": "moreau",
    "project_label": "Inventaire Moreau",
    "user": "b_tock",
    "last_update": "2020-10-19 16:25:28",
    "licence": "Attribution - Pas d\u2019Utilisation Commerciale - Partage dans les M\u00eames Conditions 3.0 France (CC BY-NC-SA 3.0 FR) ",
    "licence_url": "https:\/\/creativecommons.org\/licenses\/by-nc-sa\/3.0\/fr\/",
    "elements": [
        {
            "type": "date",
            "value": "1124",
            "children": {
                "date_deb_annee": "1124"
            },
            "range": {
                "date_apres": 11240000,
                "date_avant": 11249999
            }
        },
        {
            "type": "remarques",
            "value": "cartulaire de l'abbaye d'Ourscamp"
        },
        {
            "type": "auteur",
            "value": "Simon, \u00e9v\u00eaque de Noyon et de Tournai"
        },
        {
            "type": "beneficiaire",
            "value": "Tournai, abbaye Saint-Martin"
        },
        {
            "type": "cote",
            "value": "FRANCE, Paris, BNF, Collection Moreau, t. 51, f. 142"
        }
    ]
}