{
    "id": 3464,
    "name": "moreau-2938",
    "type": "acte",
    "url": "http:\/\/telma-chartes.irht.cnrs.fr\/moreau\/notice\/3464",
    "project_slug": "moreau",
    "project_label": "Inventaire Moreau",
    "user": "b_tock",
    "last_update": "2020-10-19 16:25:10",
    "licence": "Attribution - Pas d\u2019Utilisation Commerciale - Partage dans les M\u00eames Conditions 3.0 France (CC BY-NC-SA 3.0 FR) ",
    "licence_url": "https:\/\/creativecommons.org\/licenses\/by-nc-sa\/3.0\/fr\/",
    "elements": [
        {
            "type": "date",
            "value": "apres 1000 - avant 1024",
            "children": {
                "date_deb_annee": "1000",
                "date_deb_type": "apres",
                "date_fin_annee": "1024",
                "date_fin_type": "avant"
            },
            "range": {
                "date_apres": 10000000,
                "date_avant": 10249999
            }
        },
        {
            "type": "auteur",
            "value": "Hugues, comte du Mans"
        },
        {
            "type": "beneficiaire",
            "value": "Le Mans, abbaye Saint-Vincent"
        },
        {
            "type": "cote",
            "value": "FRANCE, Paris, BNF, Collection Moreau, t. 19, f. 48"
        }
    ]
}