{
    "id": 4048,
    "name": "moreau-3522",
    "type": "acte",
    "url": "http:\/\/telma-chartes.irht.cnrs.fr\/moreau\/notice\/4048",
    "project_slug": "moreau",
    "project_label": "Inventaire Moreau",
    "user": "b_tock",
    "last_update": "2020-10-19 16:25:13",
    "licence": "Attribution - Pas d\u2019Utilisation Commerciale - Partage dans les M\u00eames Conditions 3.0 France (CC BY-NC-SA 3.0 FR) ",
    "licence_url": "https:\/\/creativecommons.org\/licenses\/by-nc-sa\/3.0\/fr\/",
    "elements": [
        {
            "type": "date",
            "value": "apres 1031 - avant 1049",
            "children": {
                "date_deb_annee": "1031",
                "date_deb_type": "apres",
                "date_fin_annee": "1049",
                "date_fin_type": "avant"
            },
            "range": {
                "date_apres": 10310000,
                "date_avant": 10499999
            }
        },
        {
            "type": "auteur",
            "value": "Bernard"
        },
        {
            "type": "beneficiaire",
            "value": "Cluny, abbaye Saint-Pierre-et-Saint-Paul"
        },
        {
            "type": "cote",
            "value": "FRANCE, Paris, BNF, Collection Moreau, t. 23, f. 16"
        }
    ]
}