{
    "id": 14163,
    "name": "moreau-13637",
    "type": "acte",
    "url": "http:\/\/telma-chartes.irht.cnrs.fr\/moreau\/notice\/14163",
    "project_slug": "moreau",
    "project_label": "Inventaire Moreau",
    "user": "b_tock",
    "last_update": "2020-10-19 16:25:52",
    "licence": "Attribution - Pas d\u2019Utilisation Commerciale - Partage dans les M\u00eames Conditions 3.0 France (CC BY-NC-SA 3.0 FR) ",
    "licence_url": "https:\/\/creativecommons.org\/licenses\/by-nc-sa\/3.0\/fr\/",
    "elements": [
        {
            "type": "date",
            "value": "1206\/01",
            "children": {
                "date_deb_annee": "1206",
                "date_deb_mois": "01"
            },
            "range": {
                "date_apres": 12060100,
                "date_avant": 12060199
            }
        },
        {
            "type": "auteur",
            "value": "Philippe, \u00e9v\u00eaque de Beauvais"
        },
        {
            "type": "beneficiaire",
            "value": "Saint-Germer-de-Flay, abbaye"
        },
        {
            "type": "cote",
            "value": "FRANCE, Paris, BNF, Collection Moreau, t. 109, f. 61"
        }
    ]
}