{
    "id": 14371,
    "name": "moreau-13845",
    "type": "acte",
    "url": "http:\/\/telma-chartes.irht.cnrs.fr\/moreau\/notice\/14371",
    "project_slug": "moreau",
    "project_label": "Inventaire Moreau",
    "user": "b_tock",
    "last_update": "2020-10-19 16:25:53",
    "licence": "Attribution - Pas d\u2019Utilisation Commerciale - Partage dans les M\u00eames Conditions 3.0 France (CC BY-NC-SA 3.0 FR) ",
    "licence_url": "https:\/\/creativecommons.org\/licenses\/by-nc-sa\/3.0\/fr\/",
    "elements": [
        {
            "type": "date",
            "value": "1208\/11",
            "children": {
                "date_deb_annee": "1208",
                "date_deb_mois": "11"
            },
            "range": {
                "date_apres": 12081100,
                "date_avant": 12081199
            }
        },
        {
            "type": "auteur",
            "value": "Jean de Tuiz"
        },
        {
            "type": "beneficiaire",
            "value": "Beauvais, maison des pauvres"
        },
        {
            "type": "cote",
            "value": "FRANCE, Paris, BNF, Collection Moreau, t. 110, f. 211"
        }
    ]
}