{
    "id": 2256,
    "name": "moreau-1730",
    "type": "acte",
    "url": "http:\/\/telma-chartes.irht.cnrs.fr\/moreau\/notice\/2256",
    "project_slug": "moreau",
    "project_label": "Inventaire Moreau",
    "user": "b_tock",
    "last_update": "2020-10-19 16:25:06",
    "licence": "Attribution - Pas d\u2019Utilisation Commerciale - Partage dans les M\u00eames Conditions 3.0 France (CC BY-NC-SA 3.0 FR) ",
    "licence_url": "https:\/\/creativecommons.org\/licenses\/by-nc-sa\/3.0\/fr\/",
    "elements": [
        {
            "type": "date",
            "value": "apres 0978 - avant 0979",
            "children": {
                "date_deb_annee": "0978",
                "date_deb_type": "apres",
                "date_fin_annee": "0979",
                "date_fin_type": "avant"
            },
            "range": {
                "date_apres": 9780000,
                "date_avant": 9799999
            }
        },
        {
            "type": "remarques",
            "value": "archives de l'abbaye de Cluny"
        },
        {
            "type": "auteur",
            "value": "Humbert"
        },
        {
            "type": "beneficiaire",
            "value": "Vuratnerius"
        },
        {
            "type": "cote",
            "value": "FRANCE, Paris, BNF, Collection Moreau, t. 12, f. 53"
        }
    ]
}