{
    "id": 6790,
    "name": "moreau-6264",
    "type": "acte",
    "url": "http:\/\/telma-chartes.irht.cnrs.fr\/moreau\/notice\/6790",
    "project_slug": "moreau",
    "project_label": "Inventaire Moreau",
    "user": "b_tock",
    "last_update": "2020-10-19 16:25:24",
    "licence": "Attribution - Pas d\u2019Utilisation Commerciale - Partage dans les M\u00eames Conditions 3.0 France (CC BY-NC-SA 3.0 FR) ",
    "licence_url": "https:\/\/creativecommons.org\/licenses\/by-nc-sa\/3.0\/fr\/",
    "elements": [
        {
            "type": "date",
            "value": "1108\/02\/19",
            "children": {
                "date_deb_annee": "1108",
                "date_deb_mois": "02",
                "date_deb_jour": "19"
            },
            "range": {
                "date_apres": 11080219,
                "date_avant": 11080219
            }
        },
        {
            "type": "auteur",
            "value": "Bonus Aur"
        },
        {
            "type": "beneficiaire",
            "value": "Grenoble, cath\u00e9drale Notre-Dame"
        },
        {
            "type": "cote",
            "value": "FRANCE, Paris, BNF, Collection Moreau, t. 43, f. 215"
        }
    ]
}