{
    "id": 567,
    "name": "moreau-41",
    "type": "acte",
    "url": "http:\/\/telma-chartes.irht.cnrs.fr\/moreau\/notice\/567",
    "project_slug": "moreau",
    "project_label": "Inventaire Moreau",
    "user": "b_tock",
    "last_update": "2020-10-19 16:24:58",
    "licence": "Attribution - Pas d\u2019Utilisation Commerciale - Partage dans les M\u00eames Conditions 3.0 France (CC BY-NC-SA 3.0 FR) ",
    "licence_url": "https:\/\/creativecommons.org\/licenses\/by-nc-sa\/3.0\/fr\/",
    "elements": [
        {
            "type": "date",
            "value": "0815\/08",
            "children": {
                "date_deb_annee": "0815",
                "date_deb_mois": "08"
            },
            "range": {
                "date_apres": 8150800,
                "date_avant": 8150899
            }
        },
        {
            "type": "auteur",
            "value": "Vego, comte de Vienne"
        },
        {
            "type": "beneficiaire",
            "value": "Alexandre, archev\u00eaque de Vienne"
        },
        {
            "type": "cote",
            "value": "FRANCE, Paris, BNF, Collection Moreau, t. 1, f. 67"
        }
    ]
}