{
    "id": 8206,
    "name": "moreau-7680",
    "type": "acte",
    "url": "http:\/\/telma-chartes.irht.cnrs.fr\/moreau\/notice\/8206",
    "project_slug": "moreau",
    "project_label": "Inventaire Moreau",
    "user": "b_tock",
    "last_update": "2020-10-19 16:25:30",
    "licence": "Attribution - Pas d\u2019Utilisation Commerciale - Partage dans les M\u00eames Conditions 3.0 France (CC BY-NC-SA 3.0 FR) ",
    "licence_url": "https:\/\/creativecommons.org\/licenses\/by-nc-sa\/3.0\/fr\/",
    "elements": [
        {
            "type": "date",
            "value": "1137",
            "children": {
                "date_deb_annee": "1137"
            },
            "range": {
                "date_apres": 11370000,
                "date_avant": 11379999
            }
        },
        {
            "type": "auteur",
            "value": "H., abb\u00e9 de Notre-Dame-et-Saint-Jean-Baptiste de Pr\u00e9montr\u00e9"
        },
        {
            "type": "beneficiaire",
            "value": "Soissons, cath\u00e9drale Saint-Gervais-et-Saint-Protais"
        },
        {
            "type": "cote",
            "value": "FRANCE, Paris, BNF, Collection Moreau, t. 57, f. 107"
        }
    ]
}