{
    "id": 2589,
    "name": "moreau-2063",
    "type": "acte",
    "url": "http:\/\/telma-chartes.irht.cnrs.fr\/moreau\/notice\/2589",
    "project_slug": "moreau",
    "project_label": "Inventaire Moreau",
    "user": "b_tock",
    "last_update": "2020-10-19 16:25:07",
    "licence": "Attribution - Pas d\u2019Utilisation Commerciale - Partage dans les M\u00eames Conditions 3.0 France (CC BY-NC-SA 3.0 FR) ",
    "licence_url": "https:\/\/creativecommons.org\/licenses\/by-nc-sa\/3.0\/fr\/",
    "elements": [
        {
            "type": "date",
            "value": "apres 0988 - avant 0989",
            "children": {
                "date_deb_annee": "0988",
                "date_deb_type": "apres",
                "date_fin_annee": "0989",
                "date_fin_type": "avant"
            },
            "range": {
                "date_apres": 9880000,
                "date_avant": 9899999
            }
        },
        {
            "type": "auteur",
            "value": "Bego"
        },
        {
            "type": "beneficiaire",
            "value": "Cluny, abbaye Saint-Pierre-et-Saint-Paul"
        },
        {
            "type": "cote",
            "value": "FRANCE, Paris, BNF, Collection Moreau, t. 14, f. 97"
        }
    ]
}