{
    "id": 5476,
    "name": "moreau-4950",
    "type": "acte",
    "url": "http:\/\/telma-chartes.irht.cnrs.fr\/moreau\/notice\/5476",
    "project_slug": "moreau",
    "project_label": "Inventaire Moreau",
    "user": "b_tock",
    "last_update": "2020-10-19 16:25:18",
    "licence": "Attribution - Pas d\u2019Utilisation Commerciale - Partage dans les M\u00eames Conditions 3.0 France (CC BY-NC-SA 3.0 FR) ",
    "licence_url": "https:\/\/creativecommons.org\/licenses\/by-nc-sa\/3.0\/fr\/",
    "elements": [
        {
            "type": "date",
            "value": "1085\/08\/29",
            "children": {
                "date_deb_annee": "1085",
                "date_deb_mois": "08",
                "date_deb_jour": "29"
            },
            "range": {
                "date_apres": 10850829,
                "date_avant": 10850829
            }
        },
        {
            "type": "remarques",
            "value": "26e an. Phil"
        },
        {
            "type": "auteur",
            "value": "Bertrand"
        },
        {
            "type": "auteur",
            "value": "Adaltrud"
        },
        {
            "type": "beneficiaire",
            "value": "Cuxa, abbaye Saint-Michel"
        },
        {
            "type": "cote",
            "value": "FRANCE, Paris, BNF, Collection Moreau, t. 34, f. 120"
        }
    ]
}