{
    "id": 10604,
    "name": "moreau-10078",
    "type": "acte",
    "url": "http:\/\/telma-chartes.irht.cnrs.fr\/moreau\/notice\/10604",
    "project_slug": "moreau",
    "project_label": "Inventaire Moreau",
    "user": "b_tock",
    "last_update": "2020-10-19 16:25:39",
    "licence": "Attribution - Pas d\u2019Utilisation Commerciale - Partage dans les M\u00eames Conditions 3.0 France (CC BY-NC-SA 3.0 FR) ",
    "licence_url": "https:\/\/creativecommons.org\/licenses\/by-nc-sa\/3.0\/fr\/",
    "elements": [
        {
            "type": "date",
            "value": "1173",
            "children": {
                "date_deb_annee": "1173"
            },
            "range": {
                "date_apres": 11730000,
                "date_avant": 11739999
            }
        },
        {
            "type": "auteur",
            "value": "Louis VII, roi de France"
        },
        {
            "type": "beneficiaire",
            "value": "Thibaud, comte de Blois"
        },
        {
            "type": "cote",
            "value": "FRANCE, Paris, BNF, Collection Moreau, t. 78, f. 181"
        }
    ]
}