{
    "id": 11094,
    "name": "moreau-10568",
    "type": "acte",
    "url": "http:\/\/telma-chartes.irht.cnrs.fr\/moreau\/notice\/11094",
    "project_slug": "moreau",
    "project_label": "Inventaire Moreau",
    "user": "b_tock",
    "last_update": "2020-10-19 16:25:41",
    "licence": "Attribution - Pas d\u2019Utilisation Commerciale - Partage dans les M\u00eames Conditions 3.0 France (CC BY-NC-SA 3.0 FR) ",
    "licence_url": "https:\/\/creativecommons.org\/licenses\/by-nc-sa\/3.0\/fr\/",
    "elements": [
        {
            "type": "date",
            "value": "1179\/02",
            "children": {
                "date_deb_annee": "1179",
                "date_deb_mois": "02"
            },
            "range": {
                "date_apres": 11790200,
                "date_avant": 11790299
            }
        },
        {
            "type": "auteur",
            "value": "Guillaume, archev\u00eaque de Reims"
        },
        {
            "type": "beneficiaire",
            "value": "Cluny, abbaye Saint-Pierre-et-Saint-Paul"
        },
        {
            "type": "cote",
            "value": "FRANCE, Paris, BNF, Collection Moreau, t. 83, f. 106"
        }
    ]
}