{
    "id": 6434,
    "name": "moreau-5908",
    "type": "acte",
    "url": "http:\/\/telma-chartes.irht.cnrs.fr\/moreau\/notice\/6434",
    "project_slug": "moreau",
    "project_label": "Inventaire Moreau",
    "user": "b_tock",
    "last_update": "2020-10-19 16:25:22",
    "licence": "Attribution - Pas d\u2019Utilisation Commerciale - Partage dans les M\u00eames Conditions 3.0 France (CC BY-NC-SA 3.0 FR) ",
    "licence_url": "https:\/\/creativecommons.org\/licenses\/by-nc-sa\/3.0\/fr\/",
    "elements": [
        {
            "type": "date",
            "value": "1101",
            "children": {
                "date_deb_annee": "1101"
            },
            "range": {
                "date_apres": 11010000,
                "date_avant": 11019999
            }
        },
        {
            "type": "auteur",
            "value": "Raoul prieur de Chemill\u00e9"
        },
        {
            "type": "beneficiaire",
            "value": "Chemill\u00e9, prieur\u00e9 Saint-Pierre\u00a0"
        },
        {
            "type": "beneficiaire",
            "value": "Marmoutier, abbaye Saint-Martin"
        },
        {
            "type": "cote",
            "value": "FRANCE, Paris, BNF, Collection Moreau, t. 41, f. 25"
        }
    ]
}