{
    "id": 8338,
    "name": "moreau-7812",
    "type": "acte",
    "url": "http:\/\/telma-chartes.irht.cnrs.fr\/moreau\/notice\/8338",
    "project_slug": "moreau",
    "project_label": "Inventaire Moreau",
    "user": "b_tock",
    "last_update": "2020-10-19 16:25:30",
    "licence": "Attribution - Pas d\u2019Utilisation Commerciale - Partage dans les M\u00eames Conditions 3.0 France (CC BY-NC-SA 3.0 FR) ",
    "licence_url": "https:\/\/creativecommons.org\/licenses\/by-nc-sa\/3.0\/fr\/",
    "elements": [
        {
            "type": "date",
            "value": "1139\/02\/12",
            "children": {
                "date_deb_annee": "1139",
                "date_deb_mois": "02",
                "date_deb_jour": "12"
            },
            "range": {
                "date_apres": 11390212,
                "date_avant": 11390212
            }
        },
        {
            "type": "auteur",
            "value": "Ermengaud de Leucate"
        },
        {
            "type": "beneficiaire",
            "value": "Arles, abbaye Notre-Dame"
        },
        {
            "type": "cote",
            "value": "FRANCE, Paris, BNF, Collection Moreau, t. 58, f. 147"
        }
    ]
}