{
    "id": 4185,
    "name": "moreau-3659",
    "type": "acte",
    "url": "http:\/\/telma-chartes.irht.cnrs.fr\/moreau\/notice\/4185",
    "project_slug": "moreau",
    "project_label": "Inventaire Moreau",
    "user": "b_tock",
    "last_update": "2020-10-19 16:25:13",
    "licence": "Attribution - Pas d\u2019Utilisation Commerciale - Partage dans les M\u00eames Conditions 3.0 France (CC BY-NC-SA 3.0 FR) ",
    "licence_url": "https:\/\/creativecommons.org\/licenses\/by-nc-sa\/3.0\/fr\/",
    "elements": [
        {
            "type": "date",
            "value": "1048\/08\/10",
            "children": {
                "date_deb_annee": "1048",
                "date_deb_mois": "08",
                "date_deb_jour": "10"
            },
            "range": {
                "date_apres": 10480810,
                "date_avant": 10480810
            }
        },
        {
            "type": "auteur",
            "value": "Bligarius"
        },
        {
            "type": "beneficiaire",
            "value": "Cuxa, abbaye Saint-Michel"
        },
        {
            "type": "cote",
            "value": "FRANCE, Paris, BNF, Collection Moreau, t. 24, f. 65"
        }
    ]
}