{
    "id": 11819,
    "name": "moreau-11293",
    "type": "acte",
    "url": "http:\/\/telma-chartes.irht.cnrs.fr\/moreau\/notice\/11819",
    "project_slug": "moreau",
    "project_label": "Inventaire Moreau",
    "user": "b_tock",
    "last_update": "2020-10-19 16:25:44",
    "licence": "Attribution - Pas d\u2019Utilisation Commerciale - Partage dans les M\u00eames Conditions 3.0 France (CC BY-NC-SA 3.0 FR) ",
    "licence_url": "https:\/\/creativecommons.org\/licenses\/by-nc-sa\/3.0\/fr\/",
    "elements": [
        {
            "type": "date",
            "value": "1187\/11",
            "children": {
                "date_deb_annee": "1187",
                "date_deb_mois": "11"
            },
            "range": {
                "date_apres": 11871100,
                "date_avant": 11871199
            }
        },
        {
            "type": "auteur",
            "value": "Hugues, doyen du chapitre de Saint-Fursy de P\u00e9ronne"
        },
        {
            "type": "beneficiaire",
            "value": "P\u00e9ronne, chapitre Saint-Fursy"
        },
        {
            "type": "cote",
            "value": "FRANCE, Paris, BNF, Collection Moreau, t. 89, f. 188"
        }
    ]
}