{
    "id": 12922,
    "name": "moreau-12396",
    "type": "acte",
    "url": "http:\/\/telma-chartes.irht.cnrs.fr\/moreau\/notice\/12922",
    "project_slug": "moreau",
    "project_label": "Inventaire Moreau",
    "user": "b_tock",
    "last_update": "2020-10-19 16:25:48",
    "licence": "Attribution - Pas d\u2019Utilisation Commerciale - Partage dans les M\u00eames Conditions 3.0 France (CC BY-NC-SA 3.0 FR) ",
    "licence_url": "https:\/\/creativecommons.org\/licenses\/by-nc-sa\/3.0\/fr\/",
    "elements": [
        {
            "type": "date",
            "value": "1198\/06\/01",
            "children": {
                "date_deb_annee": "1198",
                "date_deb_mois": "06",
                "date_deb_jour": "01"
            },
            "range": {
                "date_apres": 11980601,
                "date_avant": 11980601
            }
        },
        {
            "type": "auteur",
            "value": "Louis, comte de Blois et de Clermont"
        },
        {
            "type": "beneficiaire",
            "value": "Ressons, abbaye Notre-Dame"
        },
        {
            "type": "cote",
            "value": "FRANCE, Paris, BNF, Collection Moreau, t. 99, f. 16"
        }
    ]
}