{
    "id": 1905,
    "name": "moreau-1379",
    "type": "acte",
    "url": "http:\/\/telma-chartes.irht.cnrs.fr\/moreau\/notice\/1905",
    "project_slug": "moreau",
    "project_label": "Inventaire Moreau",
    "user": "b_tock",
    "last_update": "2020-10-19 16:25:04",
    "licence": "Attribution - Pas d\u2019Utilisation Commerciale - Partage dans les M\u00eames Conditions 3.0 France (CC BY-NC-SA 3.0 FR) ",
    "licence_url": "https:\/\/creativecommons.org\/licenses\/by-nc-sa\/3.0\/fr\/",
    "elements": [
        {
            "type": "date",
            "value": "apres 0965 - avant 0966",
            "children": {
                "date_deb_annee": "0965",
                "date_deb_type": "apres",
                "date_fin_annee": "0966",
                "date_fin_type": "avant"
            },
            "range": {
                "date_apres": 9650000,
                "date_avant": 9669999
            }
        },
        {
            "type": "auteur",
            "value": "Guillaume"
        },
        {
            "type": "beneficiaire",
            "value": "Poitiers, abbaye Saint-Cyprien"
        },
        {
            "type": "cote",
            "value": "FRANCE, Paris, BNF, Collection Moreau, t. 10, f. 41"
        }
    ]
}