{
    "id": 2045,
    "name": "moreau-1519",
    "type": "acte",
    "url": "http:\/\/telma-chartes.irht.cnrs.fr\/moreau\/notice\/2045",
    "project_slug": "moreau",
    "project_label": "Inventaire Moreau",
    "user": "b_tock",
    "last_update": "2020-10-19 16:25:05",
    "licence": "Attribution - Pas d\u2019Utilisation Commerciale - Partage dans les M\u00eames Conditions 3.0 France (CC BY-NC-SA 3.0 FR) ",
    "licence_url": "https:\/\/creativecommons.org\/licenses\/by-nc-sa\/3.0\/fr\/",
    "elements": [
        {
            "type": "date",
            "value": "0967",
            "children": {
                "date_deb_annee": "0967"
            },
            "range": {
                "date_apres": 9670000,
                "date_avant": 9679999
            }
        },
        {
            "type": "auteur",
            "value": "Wigfridus, \u00e9v\u00eaque de Verdun"
        },
        {
            "type": "beneficiaire",
            "value": "Verdun, abbaye Saint-Vanne"
        },
        {
            "type": "cote",
            "value": "FRANCE, Paris, BNF, Collection Moreau, t. 10, f. 48-2"
        }
    ]
}