{
    "id": 6558,
    "name": "moreau-6032",
    "type": "acte",
    "url": "http:\/\/telma-chartes.irht.cnrs.fr\/moreau\/notice\/6558",
    "project_slug": "moreau",
    "project_label": "Inventaire Moreau",
    "user": "b_tock",
    "last_update": "2020-10-19 16:25:23",
    "licence": "Attribution - Pas d\u2019Utilisation Commerciale - Partage dans les M\u00eames Conditions 3.0 France (CC BY-NC-SA 3.0 FR) ",
    "licence_url": "https:\/\/creativecommons.org\/licenses\/by-nc-sa\/3.0\/fr\/",
    "elements": [
        {
            "type": "date",
            "value": "1105",
            "children": {
                "date_deb_annee": "1105"
            },
            "range": {
                "date_apres": 11050000,
                "date_avant": 11059999
            }
        },
        {
            "type": "auteur",
            "value": "Philippe Ier, roi de France"
        },
        {
            "type": "beneficiaire",
            "value": "Chartres, cath\u00e9drale Notre-Dame"
        },
        {
            "type": "cote",
            "value": "FRANCE, Paris, BNF, Collection Moreau, t. 42, f. 27"
        }
    ]
}