{
    "id": 14224,
    "name": "moreau-13698",
    "type": "acte",
    "url": "http:\/\/telma-chartes.irht.cnrs.fr\/moreau\/notice\/14224",
    "project_slug": "moreau",
    "project_label": "Inventaire Moreau",
    "user": "b_tock",
    "last_update": "2020-10-19 16:25:53",
    "licence": "Attribution - Pas d\u2019Utilisation Commerciale - Partage dans les M\u00eames Conditions 3.0 France (CC BY-NC-SA 3.0 FR) ",
    "licence_url": "https:\/\/creativecommons.org\/licenses\/by-nc-sa\/3.0\/fr\/",
    "elements": [
        {
            "type": "date",
            "value": "1207\/10",
            "children": {
                "date_deb_annee": "1207",
                "date_deb_mois": "10"
            },
            "range": {
                "date_apres": 12071000,
                "date_avant": 12071099
            }
        },
        {
            "type": "auteur",
            "value": "W., doyen du chapitre cath\u00e9dral Notre-Dame de Chartres"
        },
        {
            "type": "beneficiaire",
            "value": "St-Jean-en-Vall\u00e9e, abbaye Saint Jean-Baptiste"
        },
        {
            "type": "cote",
            "value": "FRANCE, Paris, BNF, Collection Moreau, t. 109, f. 189"
        }
    ]
}