{
    "id": 5143,
    "name": "moreau-4617",
    "type": "acte",
    "url": "http:\/\/telma-chartes.irht.cnrs.fr\/moreau\/notice\/5143",
    "project_slug": "moreau",
    "project_label": "Inventaire Moreau",
    "user": "b_tock",
    "last_update": "2020-10-19 16:25:17",
    "licence": "Attribution - Pas d\u2019Utilisation Commerciale - Partage dans les M\u00eames Conditions 3.0 France (CC BY-NC-SA 3.0 FR) ",
    "licence_url": "https:\/\/creativecommons.org\/licenses\/by-nc-sa\/3.0\/fr\/",
    "elements": [
        {
            "type": "date",
            "value": "1078\/02\/20",
            "children": {
                "date_deb_annee": "1078",
                "date_deb_mois": "02",
                "date_deb_jour": "20"
            },
            "range": {
                "date_apres": 10780220,
                "date_avant": 10780220
            }
        },
        {
            "type": "auteur",
            "value": "Hugues, duc de Bourgogne"
        },
        {
            "type": "beneficiaire",
            "value": "Cluny, abbaye Saint-Pierre-et-Saint-Paul"
        },
        {
            "type": "cote",
            "value": "FRANCE, Paris, BNF, Collection Moreau, t. 32, f. 41"
        }
    ]
}