{
    "id": 897,
    "name": "moreau-371",
    "type": "acte",
    "url": "http:\/\/telma-chartes.irht.cnrs.fr\/moreau\/notice\/897",
    "project_slug": "moreau",
    "project_label": "Inventaire Moreau",
    "user": "b_tock",
    "last_update": "2020-10-19 16:24:59",
    "licence": "Attribution - Pas d\u2019Utilisation Commerciale - Partage dans les M\u00eames Conditions 3.0 France (CC BY-NC-SA 3.0 FR) ",
    "licence_url": "https:\/\/creativecommons.org\/licenses\/by-nc-sa\/3.0\/fr\/",
    "elements": [
        {
            "type": "date",
            "value": "0906\/09\/24",
            "children": {
                "date_deb_annee": "0906",
                "date_deb_mois": "09",
                "date_deb_jour": "24"
            },
            "range": {
                "date_apres": 9060924,
                "date_avant": 9060924
            }
        },
        {
            "type": "auteur",
            "value": "Robert, abb\u00e9 de Saint-Amand"
        },
        {
            "type": "beneficiaire",
            "value": "Saint-Amand, abbaye"
        },
        {
            "type": "cote",
            "value": "FRANCE, Paris, BNF, Collection Moreau, t. 3, f. 217"
        }
    ]
}