{
    "id": 3226,
    "name": "moreau-2700",
    "type": "acte",
    "url": "http:\/\/telma-chartes.irht.cnrs.fr\/moreau\/notice\/3226",
    "project_slug": "moreau",
    "project_label": "Inventaire Moreau",
    "user": "b_tock",
    "last_update": "2020-10-19 16:25:09",
    "licence": "Attribution - Pas d\u2019Utilisation Commerciale - Partage dans les M\u00eames Conditions 3.0 France (CC BY-NC-SA 3.0 FR) ",
    "licence_url": "https:\/\/creativecommons.org\/licenses\/by-nc-sa\/3.0\/fr\/",
    "elements": [
        {
            "type": "date",
            "value": "apres 1003 - avant 1004",
            "children": {
                "date_deb_annee": "1003",
                "date_deb_type": "apres",
                "date_fin_annee": "1004",
                "date_fin_type": "avant"
            },
            "range": {
                "date_apres": 10030000,
                "date_avant": 10049999
            }
        },
        {
            "type": "remarques",
            "value": "notice"
        },
        {
            "type": "auteur",
            "value": "Odilon, abb\u00e9 de Saint-Pierre-et-Saint-Paul de Cluny"
        },
        {
            "type": "beneficiaire",
            "value": "Aldebaldus, pr\u00eatre"
        },
        {
            "type": "cote",
            "value": "FRANCE, Paris, BNF, Collection Moreau, t. 17, f. 176"
        }
    ]
}