{
    "id": 4474,
    "name": "moreau-3948",
    "type": "acte",
    "url": "http:\/\/telma-chartes.irht.cnrs.fr\/moreau\/notice\/4474",
    "project_slug": "moreau",
    "project_label": "Inventaire Moreau",
    "user": "b_tock",
    "last_update": "2020-10-19 16:25:14",
    "licence": "Attribution - Pas d\u2019Utilisation Commerciale - Partage dans les M\u00eames Conditions 3.0 France (CC BY-NC-SA 3.0 FR) ",
    "licence_url": "https:\/\/creativecommons.org\/licenses\/by-nc-sa\/3.0\/fr\/",
    "elements": [
        {
            "type": "date",
            "value": "1060",
            "children": {
                "date_deb_annee": "1060"
            },
            "range": {
                "date_apres": 10600000,
                "date_avant": 10609999
            }
        },
        {
            "type": "auteur",
            "value": "Philippe Ier, roi de France"
        },
        {
            "type": "beneficiaire",
            "value": "Beauvais, abbaye Saint-Lucien"
        },
        {
            "type": "cote",
            "value": "FRANCE, Paris, BNF, Collection Moreau, t. 26, f. 109"
        }
    ]
}