{
    "id": 6606,
    "name": "moreau-6080",
    "type": "acte",
    "url": "http:\/\/telma-chartes.irht.cnrs.fr\/moreau\/notice\/6606",
    "project_slug": "moreau",
    "project_label": "Inventaire Moreau",
    "user": "b_tock",
    "last_update": "2020-10-19 16:25:23",
    "licence": "Attribution - Pas d\u2019Utilisation Commerciale - Partage dans les M\u00eames Conditions 3.0 France (CC BY-NC-SA 3.0 FR) ",
    "licence_url": "https:\/\/creativecommons.org\/licenses\/by-nc-sa\/3.0\/fr\/",
    "elements": [
        {
            "type": "date",
            "value": "1106",
            "children": {
                "date_deb_annee": "1106"
            },
            "range": {
                "date_apres": 11060000,
                "date_avant": 11069999
            }
        },
        {
            "type": "auteur",
            "value": "Etienne Magalannus"
        },
        {
            "type": "beneficiaire",
            "value": "St-Jean-d'Ang\u00e9ly, abbaye Saint-Jean-Baptiste"
        },
        {
            "type": "cote",
            "value": "FRANCE, Paris, BNF, Collection Moreau, t. 42, f. 114"
        }
    ]
}