{
    "id": 8129,
    "name": "moreau-7603",
    "type": "acte",
    "url": "http:\/\/telma-chartes.irht.cnrs.fr\/moreau\/notice\/8129",
    "project_slug": "moreau",
    "project_label": "Inventaire Moreau",
    "user": "b_tock",
    "last_update": "2020-10-19 16:25:29",
    "licence": "Attribution - Pas d\u2019Utilisation Commerciale - Partage dans les M\u00eames Conditions 3.0 France (CC BY-NC-SA 3.0 FR) ",
    "licence_url": "https:\/\/creativecommons.org\/licenses\/by-nc-sa\/3.0\/fr\/",
    "elements": [
        {
            "type": "date",
            "value": "1135",
            "children": {
                "date_deb_annee": "1135"
            },
            "range": {
                "date_apres": 11350000,
                "date_avant": 11359999
            }
        },
        {
            "type": "auteur",
            "value": "Yves, seigneur de Nesle"
        },
        {
            "type": "beneficiaire",
            "value": "Corbie, abbaye Saint-Pierre"
        },
        {
            "type": "cote",
            "value": "FRANCE, Paris, BNF, Collection Moreau, t. 56, f. 177"
        }
    ]
}