{
    "id": 5799,
    "name": "moreau-5273",
    "type": "acte",
    "url": "http:\/\/telma-chartes.irht.cnrs.fr\/moreau\/notice\/5799",
    "project_slug": "moreau",
    "project_label": "Inventaire Moreau",
    "user": "b_tock",
    "last_update": "2020-10-19 16:25:20",
    "licence": "Attribution - Pas d\u2019Utilisation Commerciale - Partage dans les M\u00eames Conditions 3.0 France (CC BY-NC-SA 3.0 FR) ",
    "licence_url": "https:\/\/creativecommons.org\/licenses\/by-nc-sa\/3.0\/fr\/",
    "elements": [
        {
            "type": "date",
            "value": "1091",
            "children": {
                "date_deb_annee": "1091"
            },
            "range": {
                "date_apres": 10910000,
                "date_avant": 10919999
            }
        },
        {
            "type": "auteur",
            "value": "Baudouin, comte de Hainaut"
        },
        {
            "type": "beneficiaire",
            "value": "Crespin, abbaye Saint-Landelin"
        },
        {
            "type": "cote",
            "value": "FRANCE, Paris, BNF, Collection Moreau, t. 36, f. 188"
        }
    ]
}