{
    "id": 14082,
    "name": "moreau-13556",
    "type": "acte",
    "url": "http:\/\/telma-chartes.irht.cnrs.fr\/moreau\/notice\/14082",
    "project_slug": "moreau",
    "project_label": "Inventaire Moreau",
    "user": "b_tock",
    "last_update": "2020-10-19 16:25:52",
    "licence": "Attribution - Pas d\u2019Utilisation Commerciale - Partage dans les M\u00eames Conditions 3.0 France (CC BY-NC-SA 3.0 FR) ",
    "licence_url": "https:\/\/creativecommons.org\/licenses\/by-nc-sa\/3.0\/fr\/",
    "elements": [
        {
            "type": "date",
            "value": "1206\/12",
            "children": {
                "date_deb_annee": "1206",
                "date_deb_mois": "12"
            },
            "range": {
                "date_apres": 12061200,
                "date_avant": 12061299
            }
        },
        {
            "type": "auteur",
            "value": "Hugues de Auseio"
        },
        {
            "type": "beneficiaire",
            "value": "Maroeuil, abbaye Saint-Amand-et-Sainte-Bertilie"
        },
        {
            "type": "cote",
            "value": "FRANCE, Paris, BNF, Collection Moreau, t. 108, f. 164"
        }
    ]
}