{
    "id": 8251,
    "name": "moreau-7725",
    "type": "acte",
    "url": "http:\/\/telma-chartes.irht.cnrs.fr\/moreau\/notice\/8251",
    "project_slug": "moreau",
    "project_label": "Inventaire Moreau",
    "user": "b_tock",
    "last_update": "2020-10-19 16:25:30",
    "licence": "Attribution - Pas d\u2019Utilisation Commerciale - Partage dans les M\u00eames Conditions 3.0 France (CC BY-NC-SA 3.0 FR) ",
    "licence_url": "https:\/\/creativecommons.org\/licenses\/by-nc-sa\/3.0\/fr\/",
    "elements": [
        {
            "type": "date",
            "value": "1138\/12\/21",
            "children": {
                "date_deb_annee": "1138",
                "date_deb_mois": "12",
                "date_deb_jour": "21"
            },
            "range": {
                "date_apres": 11381221,
                "date_avant": 11381221
            }
        },
        {
            "type": "auteur",
            "value": "Innocent II, pape"
        },
        {
            "type": "beneficiaire",
            "value": "Vicoigne, abbaye Notre-Dame"
        },
        {
            "type": "cote",
            "value": "FRANCE, Paris, BNF, Collection Moreau, t. 57, f. 199"
        }
    ]
}