{
    "id": 11735,
    "name": "moreau-11209",
    "type": "acte",
    "url": "http:\/\/telma-chartes.irht.cnrs.fr\/moreau\/notice\/11735",
    "project_slug": "moreau",
    "project_label": "Inventaire Moreau",
    "user": "b_tock",
    "last_update": "2020-10-19 16:25:43",
    "licence": "Attribution - Pas d\u2019Utilisation Commerciale - Partage dans les M\u00eames Conditions 3.0 France (CC BY-NC-SA 3.0 FR) ",
    "licence_url": "https:\/\/creativecommons.org\/licenses\/by-nc-sa\/3.0\/fr\/",
    "elements": [
        {
            "type": "date",
            "value": "1186",
            "children": {
                "date_deb_annee": "1186"
            },
            "range": {
                "date_apres": 11860000,
                "date_avant": 11869999
            }
        },
        {
            "type": "auteur",
            "value": "Baudouin, comte de Hainaut"
        },
        {
            "type": "beneficiaire",
            "value": "Anchin, abbaye Saint-Sauveur"
        },
        {
            "type": "cote",
            "value": "FRANCE, Paris, BNF, Collection Moreau, t. 89, f. 39"
        }
    ]
}