{
    "id": 1689,
    "name": "moreau-1163",
    "type": "acte",
    "url": "http:\/\/telma-chartes.irht.cnrs.fr\/moreau\/notice\/1689",
    "project_slug": "moreau",
    "project_label": "Inventaire Moreau",
    "user": "b_tock",
    "last_update": "2020-10-19 16:25:03",
    "licence": "Attribution - Pas d\u2019Utilisation Commerciale - Partage dans les M\u00eames Conditions 3.0 France (CC BY-NC-SA 3.0 FR) ",
    "licence_url": "https:\/\/creativecommons.org\/licenses\/by-nc-sa\/3.0\/fr\/",
    "elements": [
        {
            "type": "date",
            "value": "0957\/03\/27",
            "children": {
                "date_deb_annee": "0957",
                "date_deb_mois": "03",
                "date_deb_jour": "27"
            },
            "range": {
                "date_apres": 9570327,
                "date_avant": 9570327
            }
        },
        {
            "type": "auteur",
            "value": "Didier"
        },
        {
            "type": "beneficiaire",
            "value": "Cuxa, abbaye Saint-Michel"
        },
        {
            "type": "cote",
            "value": "FRANCE, Paris, BNF, Collection Moreau, t. 9, f. 2"
        }
    ]
}