{
    "id": 11279,
    "name": "moreau-10753",
    "type": "acte",
    "url": "http:\/\/telma-chartes.irht.cnrs.fr\/moreau\/notice\/11279",
    "project_slug": "moreau",
    "project_label": "Inventaire Moreau",
    "user": "b_tock",
    "last_update": "2020-10-19 16:25:41",
    "licence": "Attribution - Pas d\u2019Utilisation Commerciale - Partage dans les M\u00eames Conditions 3.0 France (CC BY-NC-SA 3.0 FR) ",
    "licence_url": "https:\/\/creativecommons.org\/licenses\/by-nc-sa\/3.0\/fr\/",
    "elements": [
        {
            "type": "date",
            "value": "1181\/04",
            "children": {
                "date_deb_annee": "1181",
                "date_deb_mois": "04"
            },
            "range": {
                "date_apres": 11810400,
                "date_avant": 11810499
            }
        },
        {
            "type": "auteur",
            "value": "Alphonse, roi d'Aragon"
        },
        {
            "type": "beneficiaire",
            "value": "Perpignan, h\u00f4pital Saint-Jean"
        },
        {
            "type": "cote",
            "value": "FRANCE, Paris, BNF, Collection Moreau, t. 85, f. 7"
        }
    ]
}