{
    "id": 9405,
    "name": "moreau-8879",
    "type": "acte",
    "url": "http:\/\/telma-chartes.irht.cnrs.fr\/moreau\/notice\/9405",
    "project_slug": "moreau",
    "project_label": "Inventaire Moreau",
    "user": "b_tock",
    "last_update": "2020-10-19 16:25:34",
    "licence": "Attribution - Pas d\u2019Utilisation Commerciale - Partage dans les M\u00eames Conditions 3.0 France (CC BY-NC-SA 3.0 FR) ",
    "licence_url": "https:\/\/creativecommons.org\/licenses\/by-nc-sa\/3.0\/fr\/",
    "elements": [
        {
            "type": "date",
            "value": "1155\/02\/24",
            "children": {
                "date_deb_annee": "1155",
                "date_deb_mois": "02",
                "date_deb_jour": "24"
            },
            "range": {
                "date_apres": 11550224,
                "date_avant": 11550224
            }
        },
        {
            "type": "remarques",
            "value": "archives de la cath\u00e9drale d'Elne"
        },
        {
            "type": "auteur",
            "value": "Artaud, \u00e9v\u00eaque d'Elne"
        },
        {
            "type": "beneficiaire",
            "value": "Guillaume de Salses"
        },
        {
            "type": "cote",
            "value": "FRANCE, Paris, BNF, Collection Moreau, t. 68, f. 3"
        }
    ]
}