{
    "id": 7605,
    "name": "moreau-7079",
    "type": "acte",
    "url": "http:\/\/telma-chartes.irht.cnrs.fr\/moreau\/notice\/7605",
    "project_slug": "moreau",
    "project_label": "Inventaire Moreau",
    "user": "b_tock",
    "last_update": "2020-10-19 16:25:27",
    "licence": "Attribution - Pas d\u2019Utilisation Commerciale - Partage dans les M\u00eames Conditions 3.0 France (CC BY-NC-SA 3.0 FR) ",
    "licence_url": "https:\/\/creativecommons.org\/licenses\/by-nc-sa\/3.0\/fr\/",
    "elements": [
        {
            "type": "date",
            "value": "1123\/03\/22",
            "children": {
                "date_deb_annee": "1123",
                "date_deb_mois": "03",
                "date_deb_jour": "22"
            },
            "range": {
                "date_apres": 11230322,
                "date_avant": 11230322
            }
        },
        {
            "type": "auteur",
            "value": "Calixte II, pape"
        },
        {
            "type": "beneficiaire",
            "value": "Cluny, abbaye Saint-Pierre-et-Saint-Paul\u00a0Saint-Pierre"
        },
        {
            "type": "beneficiaire",
            "value": "Montierneuf, abbaye Saint-Jean"
        },
        {
            "type": "cote",
            "value": "FRANCE, Paris, BNF, Collection Moreau, t. 51, f. 7"
        }
    ]
}