{
    "id": 5503,
    "name": "moreau-4977",
    "type": "acte",
    "url": "http:\/\/telma-chartes.irht.cnrs.fr\/moreau\/notice\/5503",
    "project_slug": "moreau",
    "project_label": "Inventaire Moreau",
    "user": "b_tock",
    "last_update": "2020-10-19 16:25:18",
    "licence": "Attribution - Pas d\u2019Utilisation Commerciale - Partage dans les M\u00eames Conditions 3.0 France (CC BY-NC-SA 3.0 FR) ",
    "licence_url": "https:\/\/creativecommons.org\/licenses\/by-nc-sa\/3.0\/fr\/",
    "elements": [
        {
            "type": "date",
            "value": "1086\/04\/24",
            "children": {
                "date_deb_annee": "1086",
                "date_deb_mois": "04",
                "date_deb_jour": "24"
            },
            "range": {
                "date_apres": 10860424,
                "date_avant": 10860424
            }
        },
        {
            "type": "remarques",
            "value": "26e an Phil"
        },
        {
            "type": "auteur",
            "value": "Guilhem, comte de Cerdagne et Sancia, comtesse"
        },
        {
            "type": "beneficiaire",
            "value": "Elne, cath\u00e9drale Sainte-Eulalie-et-Sainte-Julie"
        },
        {
            "type": "cote",
            "value": "FRANCE, Paris, BNF, Collection Moreau, t. 34, f. 175"
        }
    ]
}