{
    "id": 2072,
    "name": "moreau-1546",
    "type": "acte",
    "url": "http:\/\/telma-chartes.irht.cnrs.fr\/moreau\/notice\/2072",
    "project_slug": "moreau",
    "project_label": "Inventaire Moreau",
    "user": "b_tock",
    "last_update": "2020-10-19 16:25:05",
    "licence": "Attribution - Pas d\u2019Utilisation Commerciale - Partage dans les M\u00eames Conditions 3.0 France (CC BY-NC-SA 3.0 FR) ",
    "licence_url": "https:\/\/creativecommons.org\/licenses\/by-nc-sa\/3.0\/fr\/",
    "elements": [
        {
            "type": "date",
            "value": "0971\/06\/27",
            "children": {
                "date_deb_annee": "0971",
                "date_deb_mois": "06",
                "date_deb_jour": "27"
            },
            "range": {
                "date_apres": 9710627,
                "date_avant": 9710627
            }
        },
        {
            "type": "auteur",
            "value": "Eudes, \u00e9v\u00eaque de Chartres"
        },
        {
            "type": "beneficiaire",
            "value": "Chartres, abbaye Saint-P\u00e8re"
        },
        {
            "type": "cote",
            "value": "FRANCE, Paris, BNF, Collection Moreau, t. 11, f. 21"
        }
    ]
}