{
    "id": 3255,
    "name": "moreau-2729",
    "type": "acte",
    "url": "http:\/\/telma-chartes.irht.cnrs.fr\/moreau\/notice\/3255",
    "project_slug": "moreau",
    "project_label": "Inventaire Moreau",
    "user": "b_tock",
    "last_update": "2020-10-19 16:25:09",
    "licence": "Attribution - Pas d\u2019Utilisation Commerciale - Partage dans les M\u00eames Conditions 3.0 France (CC BY-NC-SA 3.0 FR) ",
    "licence_url": "https:\/\/creativecommons.org\/licenses\/by-nc-sa\/3.0\/fr\/",
    "elements": [
        {
            "type": "date",
            "value": "1005\/10\/01",
            "children": {
                "date_deb_annee": "1005",
                "date_deb_mois": "10",
                "date_deb_jour": "01"
            },
            "range": {
                "date_apres": 10051001,
                "date_avant": 10051001
            }
        },
        {
            "type": "remarques",
            "value": "archives de l'abbaye de Cluny"
        },
        {
            "type": "auteur",
            "value": "Durand, diacre"
        },
        {
            "type": "beneficiaire",
            "value": "Grudilla"
        },
        {
            "type": "cote",
            "value": "FRANCE, Paris, BNF, Collection Moreau, t. 17, f. 225"
        }
    ]
}