{
    "id": 9679,
    "name": "moreau-9153",
    "type": "acte",
    "url": "http:\/\/telma-chartes.irht.cnrs.fr\/moreau\/notice\/9679",
    "project_slug": "moreau",
    "project_label": "Inventaire Moreau",
    "user": "b_tock",
    "last_update": "2020-10-19 16:25:35",
    "licence": "Attribution - Pas d\u2019Utilisation Commerciale - Partage dans les M\u00eames Conditions 3.0 France (CC BY-NC-SA 3.0 FR) ",
    "licence_url": "https:\/\/creativecommons.org\/licenses\/by-nc-sa\/3.0\/fr\/",
    "elements": [
        {
            "type": "date_libre",
            "value": "[1171-1178]-03-12"
        },
        {
            "type": "date",
            "value": "apres 1171\/03\/12 - avant 1178\/03\/12",
            "children": {
                "date_deb_annee": "1171",
                "date_deb_mois": "03",
                "date_deb_jour": "12",
                "date_deb_type": "apres",
                "date_fin_annee": "1178",
                "date_fin_mois": "03",
                "date_fin_jour": "12",
                "date_fin_type": "avant"
            },
            "range": {
                "date_apres": 11710312,
                "date_avant": 11780312
            }
        },
        {
            "type": "remarques",
            "value": "Jaff\u00e9, 12996"
        },
        {
            "type": "auteur",
            "value": "Alexandre III, pape"
        },
        {
            "type": "beneficiaire",
            "value": "Avesnes, abbaye Notre-Dame"
        },
        {
            "type": "cote",
            "value": "FRANCE, Paris, BNF, Collection Moreau, t. 70, f. 89"
        }
    ]
}