{
    "id": 12909,
    "name": "moreau-12383",
    "type": "acte",
    "url": "http:\/\/telma-chartes.irht.cnrs.fr\/moreau\/notice\/12909",
    "project_slug": "moreau",
    "project_label": "Inventaire Moreau",
    "user": "b_tock",
    "last_update": "2020-10-19 16:25:48",
    "licence": "Attribution - Pas d\u2019Utilisation Commerciale - Partage dans les M\u00eames Conditions 3.0 France (CC BY-NC-SA 3.0 FR) ",
    "licence_url": "https:\/\/creativecommons.org\/licenses\/by-nc-sa\/3.0\/fr\/",
    "elements": [
        {
            "type": "date",
            "value": "1197\/02\/02",
            "children": {
                "date_deb_annee": "1197",
                "date_deb_mois": "02",
                "date_deb_jour": "02"
            },
            "range": {
                "date_apres": 11970202,
                "date_avant": 11970202
            }
        },
        {
            "type": "auteur",
            "value": "Henri VI, empereur"
        },
        {
            "type": "beneficiaire",
            "value": "Ch\u00e2tillon, abbaye Notre-Dame"
        },
        {
            "type": "cote",
            "value": "FRANCE, Paris, BNF, Collection Moreau, t. 98, f. 198"
        }
    ]
}