{
    "id": 560,
    "name": "moreau-34",
    "type": "acte",
    "url": "http:\/\/telma-chartes.irht.cnrs.fr\/moreau\/notice\/560",
    "project_slug": "moreau",
    "project_label": "Inventaire Moreau",
    "user": "b_tock",
    "last_update": "2020-10-19 16:24:58",
    "licence": "Attribution - Pas d\u2019Utilisation Commerciale - Partage dans les M\u00eames Conditions 3.0 France (CC BY-NC-SA 3.0 FR) ",
    "licence_url": "https:\/\/creativecommons.org\/licenses\/by-nc-sa\/3.0\/fr\/",
    "elements": [
        {
            "type": "date",
            "value": "0821\/06\/04",
            "children": {
                "date_deb_annee": "0821",
                "date_deb_mois": "06",
                "date_deb_jour": "04"
            },
            "range": {
                "date_apres": 8210604,
                "date_avant": 8210604
            }
        },
        {
            "type": "auteur",
            "value": "Louis le Pieux, empereur"
        },
        {
            "type": "beneficiaire",
            "value": "Micy, abbaye Saint-Mesmin"
        },
        {
            "type": "cote",
            "value": "FRANCE, Paris, BNF, Collection Moreau, t. 1, f. 52"
        }
    ]
}