{
    "id": 9782,
    "name": "moreau-9256",
    "type": "acte",
    "url": "http:\/\/telma-chartes.irht.cnrs.fr\/moreau\/notice\/9782",
    "project_slug": "moreau",
    "project_label": "Inventaire Moreau",
    "user": "b_tock",
    "last_update": "2020-10-19 16:25:36",
    "licence": "Attribution - Pas d\u2019Utilisation Commerciale - Partage dans les M\u00eames Conditions 3.0 France (CC BY-NC-SA 3.0 FR) ",
    "licence_url": "https:\/\/creativecommons.org\/licenses\/by-nc-sa\/3.0\/fr\/",
    "elements": [
        {
            "type": "date",
            "value": "1161",
            "children": {
                "date_deb_annee": "1161"
            },
            "range": {
                "date_apres": 11610000,
                "date_avant": 11619999
            }
        },
        {
            "type": "auteur",
            "value": "T., pr\u00e9v\u00f4t"
        },
        {
            "type": "auteur",
            "value": "H., doyen du chapitre cath\u00e9dral Notre-Dame de Cambrai"
        },
        {
            "type": "beneficiaire",
            "value": "Vicoigne, abbaye Notre-Dame"
        },
        {
            "type": "cote",
            "value": "FRANCE, Paris, BNF, Collection Moreau, t. 71, f. 28"
        }
    ]
}