{
    "id": 8621,
    "name": "moreau-8095",
    "type": "acte",
    "url": "http:\/\/telma-chartes.irht.cnrs.fr\/moreau\/notice\/8621",
    "project_slug": "moreau",
    "project_label": "Inventaire Moreau",
    "user": "b_tock",
    "last_update": "2020-10-19 16:25:31",
    "licence": "Attribution - Pas d\u2019Utilisation Commerciale - Partage dans les M\u00eames Conditions 3.0 France (CC BY-NC-SA 3.0 FR) ",
    "licence_url": "https:\/\/creativecommons.org\/licenses\/by-nc-sa\/3.0\/fr\/",
    "elements": [
        {
            "type": "date",
            "value": "1144\/05\/26",
            "children": {
                "date_deb_annee": "1144",
                "date_deb_mois": "05",
                "date_deb_jour": "26"
            },
            "range": {
                "date_apres": 11440526,
                "date_avant": 11440526
            }
        },
        {
            "type": "auteur",
            "value": "Lucius II, pape"
        },
        {
            "type": "beneficiaire",
            "value": "St-Omer, abbaye Saint-Bertin"
        },
        {
            "type": "cote",
            "value": "FRANCE, Paris, BNF, Collection Moreau, t. 61, f. 35"
        }
    ]
}