{
    "id": 12099,
    "name": "moreau-11573",
    "type": "acte",
    "url": "http:\/\/telma-chartes.irht.cnrs.fr\/moreau\/notice\/12099",
    "project_slug": "moreau",
    "project_label": "Inventaire Moreau",
    "user": "b_tock",
    "last_update": "2020-10-19 16:25:45",
    "licence": "Attribution - Pas d\u2019Utilisation Commerciale - Partage dans les M\u00eames Conditions 3.0 France (CC BY-NC-SA 3.0 FR) ",
    "licence_url": "https:\/\/creativecommons.org\/licenses\/by-nc-sa\/3.0\/fr\/",
    "elements": [
        {
            "type": "date",
            "value": "1190\/06\/26",
            "children": {
                "date_deb_annee": "1190",
                "date_deb_mois": "06",
                "date_deb_jour": "26"
            },
            "range": {
                "date_apres": 11900626,
                "date_avant": 11900626
            }
        },
        {
            "type": "auteur",
            "value": "Renaud, \u00e9v\u00eaque de Chartres"
        },
        {
            "type": "beneficiaire",
            "value": "Chartres, cath\u00e9drale Notre-Dame"
        },
        {
            "type": "cote",
            "value": "FRANCE, Paris, BNF, Collection Moreau, t. 92, f. 34"
        }
    ]
}