{
    "id": 6105,
    "name": "moreau-5579",
    "type": "acte",
    "url": "http:\/\/telma-chartes.irht.cnrs.fr\/moreau\/notice\/6105",
    "project_slug": "moreau",
    "project_label": "Inventaire Moreau",
    "user": "b_tock",
    "last_update": "2020-10-19 16:25:21",
    "licence": "Attribution - Pas d\u2019Utilisation Commerciale - Partage dans les M\u00eames Conditions 3.0 France (CC BY-NC-SA 3.0 FR) ",
    "licence_url": "https:\/\/creativecommons.org\/licenses\/by-nc-sa\/3.0\/fr\/",
    "elements": [
        {
            "type": "date",
            "value": "1098\/10\/15",
            "children": {
                "date_deb_annee": "1098",
                "date_deb_mois": "10",
                "date_deb_jour": "15"
            },
            "range": {
                "date_apres": 10981015,
                "date_avant": 10981015
            }
        },
        {
            "type": "auteur",
            "value": "Chartres, abbaye Saint-P\u00e8re"
        },
        {
            "type": "beneficiaire",
            "value": "Chartres, abbaye Saint-P\u00e8re"
        },
        {
            "type": "cote",
            "value": "FRANCE, Paris, BNF, Collection Moreau, t. 39, f. 5"
        }
    ]
}