{
    "id": 3977,
    "name": "moreau-3451",
    "type": "acte",
    "url": "http:\/\/telma-chartes.irht.cnrs.fr\/moreau\/notice\/3977",
    "project_slug": "moreau",
    "project_label": "Inventaire Moreau",
    "user": "b_tock",
    "last_update": "2020-10-19 16:25:12",
    "licence": "Attribution - Pas d\u2019Utilisation Commerciale - Partage dans les M\u00eames Conditions 3.0 France (CC BY-NC-SA 3.0 FR) ",
    "licence_url": "https:\/\/creativecommons.org\/licenses\/by-nc-sa\/3.0\/fr\/",
    "elements": [
        {
            "type": "date",
            "value": "1037\/08\/22",
            "children": {
                "date_deb_annee": "1037",
                "date_deb_mois": "08",
                "date_deb_jour": "22"
            },
            "range": {
                "date_apres": 10370822,
                "date_avant": 10370822
            }
        },
        {
            "type": "auteur",
            "value": "Raymond, comte de Pailhas"
        },
        {
            "type": "beneficiaire",
            "value": "Cuxa, abbaye Saint-Michel"
        },
        {
            "type": "cote",
            "value": "FRANCE, Paris, BNF, Collection Moreau, t. 22, f. 142"
        }
    ]
}