{
    "id": 606,
    "name": "moreau-80",
    "type": "acte",
    "url": "http:\/\/telma-chartes.irht.cnrs.fr\/moreau\/notice\/606",
    "project_slug": "moreau",
    "project_label": "Inventaire Moreau",
    "user": "b_tock",
    "last_update": "2020-10-19 16:24:58",
    "licence": "Attribution - Pas d\u2019Utilisation Commerciale - Partage dans les M\u00eames Conditions 3.0 France (CC BY-NC-SA 3.0 FR) ",
    "licence_url": "https:\/\/creativecommons.org\/licenses\/by-nc-sa\/3.0\/fr\/",
    "elements": [
        {
            "type": "date",
            "value": "0843",
            "children": {
                "date_deb_annee": "0843"
            },
            "range": {
                "date_apres": 8430000,
                "date_avant": 8439999
            }
        },
        {
            "type": "auteur",
            "value": "Anowareth"
        },
        {
            "type": "beneficiaire",
            "value": "Saint-Maur-sur-Loire, abbaye"
        },
        {
            "type": "cote",
            "value": "FRANCE, Paris, BNF, Collection Moreau, t. 1, f. 158"
        }
    ]
}