{
    "id": 9416,
    "name": "moreau-8890",
    "type": "acte",
    "url": "http:\/\/telma-chartes.irht.cnrs.fr\/moreau\/notice\/9416",
    "project_slug": "moreau",
    "project_label": "Inventaire Moreau",
    "user": "b_tock",
    "last_update": "2020-10-19 16:25:34",
    "licence": "Attribution - Pas d\u2019Utilisation Commerciale - Partage dans les M\u00eames Conditions 3.0 France (CC BY-NC-SA 3.0 FR) ",
    "licence_url": "https:\/\/creativecommons.org\/licenses\/by-nc-sa\/3.0\/fr\/",
    "elements": [
        {
            "type": "date",
            "value": "1156\/06\/15",
            "children": {
                "date_deb_annee": "1156",
                "date_deb_mois": "06",
                "date_deb_jour": "15"
            },
            "range": {
                "date_apres": 11560615,
                "date_avant": 11560615
            }
        },
        {
            "type": "auteur",
            "value": "Adrien IV, pape"
        },
        {
            "type": "beneficiaire",
            "value": "Gorze, abbaye Saint-Gorgon"
        },
        {
            "type": "cote",
            "value": "FRANCE, Paris, BNF, Collection Moreau, t. 68, f. 31"
        }
    ]
}