{
    "id": 11113,
    "name": "moreau-10587",
    "type": "acte",
    "url": "http:\/\/telma-chartes.irht.cnrs.fr\/moreau\/notice\/11113",
    "project_slug": "moreau",
    "project_label": "Inventaire Moreau",
    "user": "b_tock",
    "last_update": "2020-10-19 16:25:41",
    "licence": "Attribution - Pas d\u2019Utilisation Commerciale - Partage dans les M\u00eames Conditions 3.0 France (CC BY-NC-SA 3.0 FR) ",
    "licence_url": "https:\/\/creativecommons.org\/licenses\/by-nc-sa\/3.0\/fr\/",
    "elements": [
        {
            "type": "date",
            "value": "1180\/09\/01",
            "children": {
                "date_deb_annee": "1180",
                "date_deb_mois": "09",
                "date_deb_jour": "01"
            },
            "range": {
                "date_apres": 11800901,
                "date_avant": 11800901
            }
        },
        {
            "type": "auteur",
            "value": "Artaud, vicomte"
        },
        {
            "type": "beneficiaire",
            "value": "Cluny, abbaye Saint-Pierre-et-Saint-Paul"
        },
        {
            "type": "cote",
            "value": "FRANCE, Paris, BNF, Collection Moreau, t. 83, f. 146"
        }
    ]
}