{
    "id": 1003,
    "name": "moreau-477",
    "type": "acte",
    "url": "http:\/\/telma-chartes.irht.cnrs.fr\/moreau\/notice\/1003",
    "project_slug": "moreau",
    "project_label": "Inventaire Moreau",
    "user": "b_tock",
    "last_update": "2020-10-19 16:25:00",
    "licence": "Attribution - Pas d\u2019Utilisation Commerciale - Partage dans les M\u00eames Conditions 3.0 France (CC BY-NC-SA 3.0 FR) ",
    "licence_url": "https:\/\/creativecommons.org\/licenses\/by-nc-sa\/3.0\/fr\/",
    "elements": [
        {
            "type": "date",
            "value": "0924\/08",
            "children": {
                "date_deb_annee": "0924",
                "date_deb_mois": "08"
            },
            "range": {
                "date_apres": 9240800,
                "date_avant": 9240899
            }
        },
        {
            "type": "remarques",
            "value": "archives de l'abbaye de Saint-Hilaire de Poitiers"
        },
        {
            "type": "auteur",
            "value": "Gunbaldus"
        },
        {
            "type": "beneficiaire",
            "value": "Alboin"
        },
        {
            "type": "cote",
            "value": "FRANCE, Paris, BNF, Collection Moreau, t. 4, f. 115"
        }
    ]
}