{
    "id": 1921,
    "name": "moreau-1395",
    "type": "acte",
    "url": "http:\/\/telma-chartes.irht.cnrs.fr\/moreau\/notice\/1921",
    "project_slug": "moreau",
    "project_label": "Inventaire Moreau",
    "user": "b_tock",
    "last_update": "2020-10-19 16:25:04",
    "licence": "Attribution - Pas d\u2019Utilisation Commerciale - Partage dans les M\u00eames Conditions 3.0 France (CC BY-NC-SA 3.0 FR) ",
    "licence_url": "https:\/\/creativecommons.org\/licenses\/by-nc-sa\/3.0\/fr\/",
    "elements": [
        {
            "type": "date",
            "value": "0967\/10\/30",
            "children": {
                "date_deb_annee": "0967",
                "date_deb_mois": "10",
                "date_deb_jour": "30"
            },
            "range": {
                "date_apres": 9671030,
                "date_avant": 9671030
            }
        },
        {
            "type": "auteur",
            "value": "Isarn, vicomte"
        },
        {
            "type": "beneficiaire",
            "value": "Camprodon, abbaye Saint-Pierre"
        },
        {
            "type": "cote",
            "value": "FRANCE, Paris, BNF, Collection Moreau, t. 10, f. 65"
        }
    ]
}