{
    "id": 662,
    "name": "moreau-136",
    "type": "acte",
    "url": "http:\/\/telma-chartes.irht.cnrs.fr\/moreau\/notice\/662",
    "project_slug": "moreau",
    "project_label": "Inventaire Moreau",
    "user": "b_tock",
    "last_update": "2020-10-19 16:24:58",
    "licence": "Attribution - Pas d\u2019Utilisation Commerciale - Partage dans les M\u00eames Conditions 3.0 France (CC BY-NC-SA 3.0 FR) ",
    "licence_url": "https:\/\/creativecommons.org\/licenses\/by-nc-sa\/3.0\/fr\/",
    "elements": [
        {
            "type": "date",
            "value": "0863\/04",
            "children": {
                "date_deb_annee": "0863",
                "date_deb_mois": "04"
            },
            "range": {
                "date_apres": 8630400,
                "date_avant": 8630499
            }
        },
        {
            "type": "auteur",
            "value": "Asulfus"
        },
        {
            "type": "beneficiaire",
            "value": "Reginmundus, comte  de Pallars"
        },
        {
            "type": "cote",
            "value": "FRANCE, Paris, BNF, Collection Moreau, t. 2, f. 35"
        }
    ]
}