{
    "id": 7885,
    "name": "moreau-7359",
    "type": "acte",
    "url": "http:\/\/telma-chartes.irht.cnrs.fr\/moreau\/notice\/7885",
    "project_slug": "moreau",
    "project_label": "Inventaire Moreau",
    "user": "b_tock",
    "last_update": "2020-10-19 16:25:29",
    "licence": "Attribution - Pas d\u2019Utilisation Commerciale - Partage dans les M\u00eames Conditions 3.0 France (CC BY-NC-SA 3.0 FR) ",
    "licence_url": "https:\/\/creativecommons.org\/licenses\/by-nc-sa\/3.0\/fr\/",
    "elements": [
        {
            "type": "date",
            "value": "1129\/03\/02",
            "children": {
                "date_deb_annee": "1129",
                "date_deb_mois": "03",
                "date_deb_jour": "02"
            },
            "range": {
                "date_apres": 11290302,
                "date_avant": 11290302
            }
        },
        {
            "type": "auteur",
            "value": "Haton, \u00e9v\u00eaque de Troyes"
        },
        {
            "type": "beneficiaire",
            "value": "Montier-en-Der, abbaye Saint-Pierre-et-Saint-Paul"
        },
        {
            "type": "cote",
            "value": "FRANCE, Paris, BNF, Collection Moreau, t. 54, f. 86"
        }
    ]
}