{
    "id": 4813,
    "name": "moreau-4287",
    "type": "acte",
    "url": "http:\/\/telma-chartes.irht.cnrs.fr\/moreau\/notice\/4813",
    "project_slug": "moreau",
    "project_label": "Inventaire Moreau",
    "user": "b_tock",
    "last_update": "2020-10-19 16:25:16",
    "licence": "Attribution - Pas d\u2019Utilisation Commerciale - Partage dans les M\u00eames Conditions 3.0 France (CC BY-NC-SA 3.0 FR) ",
    "licence_url": "https:\/\/creativecommons.org\/licenses\/by-nc-sa\/3.0\/fr\/",
    "elements": [
        {
            "type": "date",
            "value": "1067",
            "children": {
                "date_deb_annee": "1067"
            },
            "range": {
                "date_apres": 10670000,
                "date_avant": 10679999
            }
        },
        {
            "type": "auteur",
            "value": "Robert de Sablulio"
        },
        {
            "type": "auteur",
            "value": "Hazuisa"
        },
        {
            "type": "beneficiaire",
            "value": "Marmoutier, abbaye Saint-Martin"
        },
        {
            "type": "cote",
            "value": "FRANCE, Paris, BNF, Collection Moreau, t. 29, f. 122"
        }
    ]
}