{
    "id": 7977,
    "name": "moreau-7451",
    "type": "acte",
    "url": "http:\/\/telma-chartes.irht.cnrs.fr\/moreau\/notice\/7977",
    "project_slug": "moreau",
    "project_label": "Inventaire Moreau",
    "user": "b_tock",
    "last_update": "2020-10-19 16:25:29",
    "licence": "Attribution - Pas d\u2019Utilisation Commerciale - Partage dans les M\u00eames Conditions 3.0 France (CC BY-NC-SA 3.0 FR) ",
    "licence_url": "https:\/\/creativecommons.org\/licenses\/by-nc-sa\/3.0\/fr\/",
    "elements": [
        {
            "type": "date",
            "value": "1131",
            "children": {
                "date_deb_annee": "1131"
            },
            "range": {
                "date_apres": 11310000,
                "date_avant": 11319999
            }
        },
        {
            "type": "auteur",
            "value": "Guillaume, duc d'Aquitaine"
        },
        {
            "type": "beneficiaire",
            "value": "St-Jean-d'Ang\u00e9ly, abbaye Saint-Jean-Baptiste"
        },
        {
            "type": "cote",
            "value": "FRANCE, Paris, BNF, Collection Moreau, t. 55, f. 41"
        }
    ]
}