{
    "id": 11547,
    "name": "moreau-11021",
    "type": "acte",
    "url": "http:\/\/telma-chartes.irht.cnrs.fr\/moreau\/notice\/11547",
    "project_slug": "moreau",
    "project_label": "Inventaire Moreau",
    "user": "b_tock",
    "last_update": "2020-10-19 16:25:43",
    "licence": "Attribution - Pas d\u2019Utilisation Commerciale - Partage dans les M\u00eames Conditions 3.0 France (CC BY-NC-SA 3.0 FR) ",
    "licence_url": "https:\/\/creativecommons.org\/licenses\/by-nc-sa\/3.0\/fr\/",
    "elements": [
        {
            "type": "date_libre",
            "value": "1183 et 1189"
        },
        {
            "type": "date",
            "value": "apres 1183 - avant 1189",
            "children": {
                "date_deb_annee": "1183",
                "date_deb_type": "apres",
                "date_fin_annee": "1189",
                "date_fin_type": "avant"
            },
            "range": {
                "date_apres": 11830000,
                "date_avant": 11899999
            }
        },
        {
            "type": "auteur",
            "value": "Thibaud, \u00e9v\u00eaque d'Amiens"
        },
        {
            "type": "beneficiaire",
            "value": "Froidmont, abbaye Notre-Dame"
        },
        {
            "type": "cote",
            "value": "FRANCE, Paris, BNF, Collection Moreau, t. 87, f. 83"
        }
    ]
}