{
    "id": 2225,
    "name": "moreau-1699",
    "type": "acte",
    "url": "http:\/\/telma-chartes.irht.cnrs.fr\/moreau\/notice\/2225",
    "project_slug": "moreau",
    "project_label": "Inventaire Moreau",
    "user": "b_tock",
    "last_update": "2020-10-19 16:25:06",
    "licence": "Attribution - Pas d\u2019Utilisation Commerciale - Partage dans les M\u00eames Conditions 3.0 France (CC BY-NC-SA 3.0 FR) ",
    "licence_url": "https:\/\/creativecommons.org\/licenses\/by-nc-sa\/3.0\/fr\/",
    "elements": [
        {
            "type": "date",
            "value": "apres 0976 - avant 0977",
            "children": {
                "date_deb_annee": "0976",
                "date_deb_type": "apres",
                "date_fin_annee": "0977",
                "date_fin_type": "avant"
            },
            "range": {
                "date_apres": 9760000,
                "date_avant": 9779999
            }
        },
        {
            "type": "auteur",
            "value": "Silvius"
        },
        {
            "type": "beneficiaire",
            "value": "Cluny, abbaye Saint-Pierre-et-Saint-Paul"
        },
        {
            "type": "cote",
            "value": "FRANCE, Paris, BNF, Collection Moreau, t. 11, f. 213"
        }
    ]
}