{
    "id": 6733,
    "name": "moreau-6207",
    "type": "acte",
    "url": "http:\/\/telma-chartes.irht.cnrs.fr\/moreau\/notice\/6733",
    "project_slug": "moreau",
    "project_label": "Inventaire Moreau",
    "user": "b_tock",
    "last_update": "2020-10-19 16:25:23",
    "licence": "Attribution - Pas d\u2019Utilisation Commerciale - Partage dans les M\u00eames Conditions 3.0 France (CC BY-NC-SA 3.0 FR) ",
    "licence_url": "https:\/\/creativecommons.org\/licenses\/by-nc-sa\/3.0\/fr\/",
    "elements": [
        {
            "type": "date",
            "value": "1108\/01\/26",
            "children": {
                "date_deb_annee": "1108",
                "date_deb_mois": "01",
                "date_deb_jour": "26"
            },
            "range": {
                "date_apres": 11080126,
                "date_avant": 11080126
            }
        },
        {
            "type": "remarques",
            "value": "48e an. Phil"
        },
        {
            "type": "auteur",
            "value": "Raimond B\u00e9renger, comte de Barcelone"
        },
        {
            "type": "beneficiaire",
            "value": "Barcelone, cath\u00e9drale Sainte-Croix"
        },
        {
            "type": "cote",
            "value": "FRANCE, Paris, BNF, Collection Moreau, t. 43, f. 108"
        }
    ]
}