{
    "id": 4200,
    "name": "moreau-3674",
    "type": "acte",
    "url": "http:\/\/telma-chartes.irht.cnrs.fr\/moreau\/notice\/4200",
    "project_slug": "moreau",
    "project_label": "Inventaire Moreau",
    "user": "b_tock",
    "last_update": "2020-10-19 16:25:13",
    "licence": "Attribution - Pas d\u2019Utilisation Commerciale - Partage dans les M\u00eames Conditions 3.0 France (CC BY-NC-SA 3.0 FR) ",
    "licence_url": "https:\/\/creativecommons.org\/licenses\/by-nc-sa\/3.0\/fr\/",
    "elements": [
        {
            "type": "date",
            "value": "apres 1049 - avant 1054",
            "children": {
                "date_deb_annee": "1049",
                "date_deb_type": "apres",
                "date_fin_annee": "1054",
                "date_fin_type": "avant"
            },
            "range": {
                "date_apres": 10490000,
                "date_avant": 10549999
            }
        },
        {
            "type": "auteur",
            "value": "L\u00e9on IX, pape"
        },
        {
            "type": "beneficiaire",
            "value": "Cluny, abbaye Saint-Pierre-et-Saint-Paul"
        },
        {
            "type": "cote",
            "value": "FRANCE, Paris, BNF, Collection Moreau, t. 24, f. 95"
        }
    ]
}