{
    "id": 8472,
    "name": "moreau-7946",
    "type": "acte",
    "url": "http:\/\/telma-chartes.irht.cnrs.fr\/moreau\/notice\/8472",
    "project_slug": "moreau",
    "project_label": "Inventaire Moreau",
    "user": "b_tock",
    "last_update": "2020-10-19 16:25:31",
    "licence": "Attribution - Pas d\u2019Utilisation Commerciale - Partage dans les M\u00eames Conditions 3.0 France (CC BY-NC-SA 3.0 FR) ",
    "licence_url": "https:\/\/creativecommons.org\/licenses\/by-nc-sa\/3.0\/fr\/",
    "elements": [
        {
            "type": "date",
            "value": "1141\/03\/06",
            "children": {
                "date_deb_annee": "1141",
                "date_deb_mois": "03",
                "date_deb_jour": "06"
            },
            "range": {
                "date_apres": 11410306,
                "date_avant": 11410306
            }
        },
        {
            "type": "auteur",
            "value": "Innocent II, pape"
        },
        {
            "type": "beneficiaire",
            "value": "St-Wandrille, abbaye Saint-Pierre"
        },
        {
            "type": "cote",
            "value": "FRANCE, Paris, BNF, Collection Moreau, t. 59, f. 194"
        }
    ]
}