{
    "id": 11362,
    "name": "moreau-10836",
    "type": "acte",
    "url": "http:\/\/telma-chartes.irht.cnrs.fr\/moreau\/notice\/11362",
    "project_slug": "moreau",
    "project_label": "Inventaire Moreau",
    "user": "b_tock",
    "last_update": "2020-10-19 16:25:42",
    "licence": "Attribution - Pas d\u2019Utilisation Commerciale - Partage dans les M\u00eames Conditions 3.0 France (CC BY-NC-SA 3.0 FR) ",
    "licence_url": "https:\/\/creativecommons.org\/licenses\/by-nc-sa\/3.0\/fr\/",
    "elements": [
        {
            "type": "date_libre",
            "value": "[1182-1183]-05-14"
        },
        {
            "type": "date",
            "value": "apres 1182\/05\/14 - avant 1183\/05\/14",
            "children": {
                "date_deb_annee": "1182",
                "date_deb_mois": "05",
                "date_deb_jour": "14",
                "date_deb_type": "apres",
                "date_fin_annee": "1183",
                "date_fin_mois": "05",
                "date_fin_jour": "14",
                "date_fin_type": "avant"
            },
            "range": {
                "date_apres": 11820514,
                "date_avant": 11830514
            }
        },
        {
            "type": "remarques",
            "value": "Jaff\u00e9, 14773"
        },
        {
            "type": "auteur",
            "value": "Lucius III, pape"
        },
        {
            "type": "beneficiaire",
            "value": "Senlis, chapitre Saint-Frambaud"
        },
        {
            "type": "cote",
            "value": "FRANCE, Paris, BNF, Collection Moreau, t. 85, f. 173"
        }
    ]
}