{
    "id": 13647,
    "name": "moreau-13121",
    "type": "acte",
    "url": "http:\/\/telma-chartes.irht.cnrs.fr\/moreau\/notice\/13647",
    "project_slug": "moreau",
    "project_label": "Inventaire Moreau",
    "user": "b_tock",
    "last_update": "2020-10-19 16:25:50",
    "licence": "Attribution - Pas d\u2019Utilisation Commerciale - Partage dans les M\u00eames Conditions 3.0 France (CC BY-NC-SA 3.0 FR) ",
    "licence_url": "https:\/\/creativecommons.org\/licenses\/by-nc-sa\/3.0\/fr\/",
    "elements": [
        {
            "type": "date",
            "value": "1203\/04",
            "children": {
                "date_deb_annee": "1203",
                "date_deb_mois": "04"
            },
            "range": {
                "date_apres": 12030400,
                "date_avant": 12030499
            }
        },
        {
            "type": "auteur",
            "value": "Blanche, comtesse de Troyes"
        },
        {
            "type": "beneficiaire",
            "value": "Monti\u00e9ramey, abbaye Saint-Pierre"
        },
        {
            "type": "cote",
            "value": "FRANCE, Paris, BNF, Collection Moreau, t. 105, f. 8"
        }
    ]
}