{
    "id": 4680,
    "name": "moreau-4154",
    "type": "acte",
    "url": "http:\/\/telma-chartes.irht.cnrs.fr\/moreau\/notice\/4680",
    "project_slug": "moreau",
    "project_label": "Inventaire Moreau",
    "user": "b_tock",
    "last_update": "2020-10-19 16:25:15",
    "licence": "Attribution - Pas d\u2019Utilisation Commerciale - Partage dans les M\u00eames Conditions 3.0 France (CC BY-NC-SA 3.0 FR) ",
    "licence_url": "https:\/\/creativecommons.org\/licenses\/by-nc-sa\/3.0\/fr\/",
    "elements": [
        {
            "type": "date",
            "value": "1064\/12\/06",
            "children": {
                "date_deb_annee": "1064",
                "date_deb_mois": "12",
                "date_deb_jour": "06"
            },
            "range": {
                "date_apres": 10641206,
                "date_avant": 10641206
            }
        },
        {
            "type": "auteur",
            "value": "Thibaud des Roches"
        },
        {
            "type": "beneficiaire",
            "value": "Marmoutier, abbaye Saint-Martin"
        },
        {
            "type": "cote",
            "value": "FRANCE, Paris, BNF, Collection Moreau, t. 28, f. 67"
        }
    ]
}