{
    "id": 1420,
    "name": "moreau-894",
    "type": "acte",
    "url": "http:\/\/telma-chartes.irht.cnrs.fr\/moreau\/notice\/1420",
    "project_slug": "moreau",
    "project_label": "Inventaire Moreau",
    "user": "b_tock",
    "last_update": "2020-10-19 16:25:02",
    "licence": "Attribution - Pas d\u2019Utilisation Commerciale - Partage dans les M\u00eames Conditions 3.0 France (CC BY-NC-SA 3.0 FR) ",
    "licence_url": "https:\/\/creativecommons.org\/licenses\/by-nc-sa\/3.0\/fr\/",
    "elements": [
        {
            "type": "date",
            "value": "0946\/11\/29",
            "children": {
                "date_deb_annee": "0946",
                "date_deb_mois": "11",
                "date_deb_jour": "29"
            },
            "range": {
                "date_apres": 9461129,
                "date_avant": 9461129
            }
        },
        {
            "type": "remarques",
            "value": "archives de la cath\u00e9drale d'Elne"
        },
        {
            "type": "auteur",
            "value": "Ermetrucomtes"
        },
        {
            "type": "beneficiaire",
            "value": "Amalricus"
        },
        {
            "type": "cote",
            "value": "FRANCE, Paris, BNF, Collection Moreau, t. 7, f. 107"
        }
    ]
}