{
    "id": 7886,
    "name": "moreau-7360",
    "type": "acte",
    "url": "http:\/\/telma-chartes.irht.cnrs.fr\/moreau\/notice\/7886",
    "project_slug": "moreau",
    "project_label": "Inventaire Moreau",
    "user": "b_tock",
    "last_update": "2020-10-19 16:25:29",
    "licence": "Attribution - Pas d\u2019Utilisation Commerciale - Partage dans les M\u00eames Conditions 3.0 France (CC BY-NC-SA 3.0 FR) ",
    "licence_url": "https:\/\/creativecommons.org\/licenses\/by-nc-sa\/3.0\/fr\/",
    "elements": [
        {
            "type": "date",
            "value": "1129",
            "children": {
                "date_deb_annee": "1129"
            },
            "range": {
                "date_apres": 11290000,
                "date_avant": 11299999
            }
        },
        {
            "type": "remarques",
            "value": "archives du chapitre d'Ager"
        },
        {
            "type": "auteur",
            "value": "Concile de Narbonne"
        },
        {
            "type": "cote",
            "value": "FRANCE, Paris, BNF, Collection Moreau, t. 54, f. 87"
        }
    ]
}