{
    "id": 10365,
    "name": "moreau-9839",
    "type": "acte",
    "url": "http:\/\/telma-chartes.irht.cnrs.fr\/moreau\/notice\/10365",
    "project_slug": "moreau",
    "project_label": "Inventaire Moreau",
    "user": "b_tock",
    "last_update": "2020-10-19 16:25:38",
    "licence": "Attribution - Pas d\u2019Utilisation Commerciale - Partage dans les M\u00eames Conditions 3.0 France (CC BY-NC-SA 3.0 FR) ",
    "licence_url": "https:\/\/creativecommons.org\/licenses\/by-nc-sa\/3.0\/fr\/",
    "elements": [
        {
            "type": "date",
            "value": "1218\/04",
            "children": {
                "date_deb_annee": "1218",
                "date_deb_mois": "04"
            },
            "range": {
                "date_apres": 12180400,
                "date_avant": 12180499
            }
        },
        {
            "type": "auteur",
            "value": "Thibaud, comte de Blois et de Clermont"
        },
        {
            "type": "beneficiaire",
            "value": "Bonnevaux, h\u00f4pital"
        },
        {
            "type": "cote",
            "value": "FRANCE, Paris, BNF, Collection Moreau, t. 76, f. 150"
        }
    ]
}