{
    "id": 12532,
    "name": "moreau-12006",
    "type": "acte",
    "url": "http:\/\/telma-chartes.irht.cnrs.fr\/moreau\/notice\/12532",
    "project_slug": "moreau",
    "project_label": "Inventaire Moreau",
    "user": "b_tock",
    "last_update": "2020-10-19 16:25:46",
    "licence": "Attribution - Pas d\u2019Utilisation Commerciale - Partage dans les M\u00eames Conditions 3.0 France (CC BY-NC-SA 3.0 FR) ",
    "licence_url": "https:\/\/creativecommons.org\/licenses\/by-nc-sa\/3.0\/fr\/",
    "elements": [
        {
            "type": "date",
            "value": "1194",
            "children": {
                "date_deb_annee": "1194"
            },
            "range": {
                "date_apres": 11940000,
                "date_avant": 11949999
            }
        },
        {
            "type": "auteur",
            "value": "Jean, archev\u00eaque de Tr\u00e8ves"
        },
        {
            "type": "beneficiaire",
            "value": "Metz, abbaye Saint-Cl\u00e9ment"
        },
        {
            "type": "cote",
            "value": "FRANCE, Paris, BNF, Collection Moreau, t. 95, f. 183"
        }
    ]
}