{
    "id": 12580,
    "name": "moreau-12054",
    "type": "acte",
    "url": "http:\/\/telma-chartes.irht.cnrs.fr\/moreau\/notice\/12580",
    "project_slug": "moreau",
    "project_label": "Inventaire Moreau",
    "user": "b_tock",
    "last_update": "2020-10-19 16:25:46",
    "licence": "Attribution - Pas d\u2019Utilisation Commerciale - Partage dans les M\u00eames Conditions 3.0 France (CC BY-NC-SA 3.0 FR) ",
    "licence_url": "https:\/\/creativecommons.org\/licenses\/by-nc-sa\/3.0\/fr\/",
    "elements": [
        {
            "type": "date",
            "value": "1194",
            "children": {
                "date_deb_annee": "1194"
            },
            "range": {
                "date_apres": 11940000,
                "date_avant": 11949999
            }
        },
        {
            "type": "remarques",
            "value": "notice"
        },
        {
            "type": "auteur",
            "value": "Baudouin, comte de Flandre et de Hainaut"
        },
        {
            "type": "beneficiaire",
            "value": "Hasnon, abbaye Saint-Pierre"
        },
        {
            "type": "cote",
            "value": "FRANCE, Paris, BNF, Collection Moreau, t. 96, f. 49"
        }
    ]
}