{
    "id": 7439,
    "name": "moreau-6913",
    "type": "acte",
    "url": "http:\/\/telma-chartes.irht.cnrs.fr\/moreau\/notice\/7439",
    "project_slug": "moreau",
    "project_label": "Inventaire Moreau",
    "user": "b_tock",
    "last_update": "2020-10-19 16:25:26",
    "licence": "Attribution - Pas d\u2019Utilisation Commerciale - Partage dans les M\u00eames Conditions 3.0 France (CC BY-NC-SA 3.0 FR) ",
    "licence_url": "https:\/\/creativecommons.org\/licenses\/by-nc-sa\/3.0\/fr\/",
    "elements": [
        {
            "type": "date",
            "value": "1120\/01\/02",
            "children": {
                "date_deb_annee": "1120",
                "date_deb_mois": "01",
                "date_deb_jour": "02"
            },
            "range": {
                "date_apres": 11200102,
                "date_avant": 11200102
            }
        },
        {
            "type": "auteur",
            "value": "Eudes, comte de la Marche"
        },
        {
            "type": "beneficiaire",
            "value": "Rocadamour, prieur\u00e9"
        },
        {
            "type": "beneficiaire",
            "value": "Tulle, abbaye Saint-Martin"
        },
        {
            "type": "cote",
            "value": "FRANCE, Paris, BNF, Collection Moreau, t. 49, f. 192"
        }
    ]
}