{
    "id": 13801,
    "name": "moreau-13275",
    "type": "acte",
    "url": "http:\/\/telma-chartes.irht.cnrs.fr\/moreau\/notice\/13801",
    "project_slug": "moreau",
    "project_label": "Inventaire Moreau",
    "user": "b_tock",
    "last_update": "2020-10-19 16:25:51",
    "licence": "Attribution - Pas d\u2019Utilisation Commerciale - Partage dans les M\u00eames Conditions 3.0 France (CC BY-NC-SA 3.0 FR) ",
    "licence_url": "https:\/\/creativecommons.org\/licenses\/by-nc-sa\/3.0\/fr\/",
    "elements": [
        {
            "type": "date",
            "value": "1204\/10",
            "children": {
                "date_deb_annee": "1204",
                "date_deb_mois": "10"
            },
            "range": {
                "date_apres": 12041000,
                "date_avant": 12041099
            }
        },
        {
            "type": "auteur",
            "value": "Raoul, \u00e9lu d'Arras"
        },
        {
            "type": "beneficiaire",
            "value": "Maroeuil, abbaye Saint-Amand-et-Sainte-Bertilie"
        },
        {
            "type": "cote",
            "value": "FRANCE, Paris, BNF, Collection Moreau, t. 106, f. 69"
        }
    ]
}