{
    "id": 1022,
    "name": "moreau-496",
    "type": "acte",
    "url": "http:\/\/telma-chartes.irht.cnrs.fr\/moreau\/notice\/1022",
    "project_slug": "moreau",
    "project_label": "Inventaire Moreau",
    "user": "b_tock",
    "last_update": "2020-10-19 16:25:00",
    "licence": "Attribution - Pas d\u2019Utilisation Commerciale - Partage dans les M\u00eames Conditions 3.0 France (CC BY-NC-SA 3.0 FR) ",
    "licence_url": "https:\/\/creativecommons.org\/licenses\/by-nc-sa\/3.0\/fr\/",
    "elements": [
        {
            "type": "date",
            "value": "0925\/12",
            "children": {
                "date_deb_annee": "0925",
                "date_deb_mois": "12"
            },
            "range": {
                "date_apres": 9251200,
                "date_avant": 9251299
            }
        },
        {
            "type": "auteur",
            "value": "Richard, tr\u00e9sorier de la cath\u00e9drale Notre-Dame de Poitiers"
        },
        {
            "type": "beneficiaire",
            "value": "Nouaill\u00e9, abbaye Saint-Junien"
        },
        {
            "type": "cote",
            "value": "FRANCE, Paris, BNF, Collection Moreau, t. 4, f. 139"
        }
    ]
}