{
    "id": 5073,
    "name": "moreau-4547",
    "type": "acte",
    "url": "http:\/\/telma-chartes.irht.cnrs.fr\/moreau\/notice\/5073",
    "project_slug": "moreau",
    "project_label": "Inventaire Moreau",
    "user": "b_tock",
    "last_update": "2020-10-19 16:25:17",
    "licence": "Attribution - Pas d\u2019Utilisation Commerciale - Partage dans les M\u00eames Conditions 3.0 France (CC BY-NC-SA 3.0 FR) ",
    "licence_url": "https:\/\/creativecommons.org\/licenses\/by-nc-sa\/3.0\/fr\/",
    "elements": [
        {
            "type": "date",
            "value": "1076",
            "children": {
                "date_deb_annee": "1076"
            },
            "range": {
                "date_apres": 10760000,
                "date_avant": 10769999
            }
        },
        {
            "type": "auteur",
            "value": "Fouchard d'Aifre"
        },
        {
            "type": "beneficiaire",
            "value": "Saint-Maixent, abbaye"
        },
        {
            "type": "cote",
            "value": "FRANCE, Paris, BNF, Collection Moreau, t. 31, f. 154"
        }
    ]
}