{
    "id": 1513,
    "name": "moreau-987",
    "type": "acte",
    "url": "http:\/\/telma-chartes.irht.cnrs.fr\/moreau\/notice\/1513",
    "project_slug": "moreau",
    "project_label": "Inventaire Moreau",
    "user": "b_tock",
    "last_update": "2020-10-19 16:25:02",
    "licence": "Attribution - Pas d\u2019Utilisation Commerciale - Partage dans les M\u00eames Conditions 3.0 France (CC BY-NC-SA 3.0 FR) ",
    "licence_url": "https:\/\/creativecommons.org\/licenses\/by-nc-sa\/3.0\/fr\/",
    "elements": [
        {
            "type": "date",
            "value": "0951\/04",
            "children": {
                "date_deb_annee": "0951",
                "date_deb_mois": "04"
            },
            "range": {
                "date_apres": 9510400,
                "date_avant": 9510499
            }
        },
        {
            "type": "auteur",
            "value": "Hubert, pr\u00e9v\u00f4t de la cath\u00e9drale de M\u00e2con"
        },
        {
            "type": "beneficiaire",
            "value": "Cluny, abbaye Saint-Pierre-et-Saint-Paul"
        },
        {
            "type": "cote",
            "value": "FRANCE, Paris, BNF, Collection Moreau, t. 7, f. 236"
        }
    ]
}