{
    "id": 13142,
    "name": "moreau-12616",
    "type": "acte",
    "url": "http:\/\/telma-chartes.irht.cnrs.fr\/moreau\/notice\/13142",
    "project_slug": "moreau",
    "project_label": "Inventaire Moreau",
    "user": "b_tock",
    "last_update": "2020-10-19 16:25:48",
    "licence": "Attribution - Pas d\u2019Utilisation Commerciale - Partage dans les M\u00eames Conditions 3.0 France (CC BY-NC-SA 3.0 FR) ",
    "licence_url": "https:\/\/creativecommons.org\/licenses\/by-nc-sa\/3.0\/fr\/",
    "elements": [
        {
            "type": "date",
            "value": "1200\/09",
            "children": {
                "date_deb_annee": "1200",
                "date_deb_mois": "09"
            },
            "range": {
                "date_apres": 12000900,
                "date_avant": 12000999
            }
        },
        {
            "type": "auteur",
            "value": "Lambert, \u00e9v\u00eaque de Th\u00e9rouanne"
        },
        {
            "type": "beneficiaire",
            "value": "Andres, abbaye Saint-Sauveur"
        },
        {
            "type": "cote",
            "value": "FRANCE, Paris, BNF, Collection Moreau, t. 100, f. 211"
        }
    ]
}