{
    "id": 11900,
    "name": "moreau-11374",
    "type": "acte",
    "url": "http:\/\/telma-chartes.irht.cnrs.fr\/moreau\/notice\/11900",
    "project_slug": "moreau",
    "project_label": "Inventaire Moreau",
    "user": "b_tock",
    "last_update": "2020-10-19 16:25:44",
    "licence": "Attribution - Pas d\u2019Utilisation Commerciale - Partage dans les M\u00eames Conditions 3.0 France (CC BY-NC-SA 3.0 FR) ",
    "licence_url": "https:\/\/creativecommons.org\/licenses\/by-nc-sa\/3.0\/fr\/",
    "elements": [
        {
            "type": "date",
            "value": "1188\/04",
            "children": {
                "date_deb_annee": "1188",
                "date_deb_mois": "04"
            },
            "range": {
                "date_apres": 11880400,
                "date_avant": 11880499
            }
        },
        {
            "type": "auteur",
            "value": "Philippe Auguste, roi de France"
        },
        {
            "type": "beneficiaire",
            "value": "Beauvais, cath\u00e9drale Saint-Pierre"
        },
        {
            "type": "cote",
            "value": "FRANCE, Paris, BNF, Collection Moreau, t. 90, f. 112"
        }
    ]
}