{
    "id": 14059,
    "name": "moreau-13533",
    "type": "acte",
    "url": "http:\/\/telma-chartes.irht.cnrs.fr\/moreau\/notice\/14059",
    "project_slug": "moreau",
    "project_label": "Inventaire Moreau",
    "user": "b_tock",
    "last_update": "2020-10-19 16:25:52",
    "licence": "Attribution - Pas d\u2019Utilisation Commerciale - Partage dans les M\u00eames Conditions 3.0 France (CC BY-NC-SA 3.0 FR) ",
    "licence_url": "https:\/\/creativecommons.org\/licenses\/by-nc-sa\/3.0\/fr\/",
    "elements": [
        {
            "type": "date",
            "value": "1206\/06\/10",
            "children": {
                "date_deb_annee": "1206",
                "date_deb_mois": "06",
                "date_deb_jour": "10"
            },
            "range": {
                "date_apres": 12060610,
                "date_avant": 12060610
            }
        },
        {
            "type": "auteur",
            "value": "Raoul, \u00e9v\u00eaque d'Arras"
        },
        {
            "type": "beneficiaire",
            "value": "Vicoigne, abbaye Notre-Dame\u00a0"
        },
        {
            "type": "beneficiaire",
            "value": "Valenciennes, abbaye Saint-Jean"
        },
        {
            "type": "cote",
            "value": "FRANCE, Paris, BNF, Collection Moreau, t. 108, f. 126"
        }
    ]
}