{
    "id": 8802,
    "name": "moreau-8276",
    "type": "acte",
    "url": "http:\/\/telma-chartes.irht.cnrs.fr\/moreau\/notice\/8802",
    "project_slug": "moreau",
    "project_label": "Inventaire Moreau",
    "user": "b_tock",
    "last_update": "2020-10-19 16:25:32",
    "licence": "Attribution - Pas d\u2019Utilisation Commerciale - Partage dans les M\u00eames Conditions 3.0 France (CC BY-NC-SA 3.0 FR) ",
    "licence_url": "https:\/\/creativecommons.org\/licenses\/by-nc-sa\/3.0\/fr\/",
    "elements": [
        {
            "type": "date",
            "value": "1185",
            "children": {
                "date_deb_annee": "1185"
            },
            "range": {
                "date_apres": 11850000,
                "date_avant": 11859999
            }
        },
        {
            "type": "auteur",
            "value": "Renaud, \u00e9v\u00eaque \u00e9lu de Chartres"
        },
        {
            "type": "beneficiaire",
            "value": "L'Etoile, abbaye"
        },
        {
            "type": "cote",
            "value": "FRANCE, Paris, BNF, Collection Moreau, t. 62, f. 173"
        }
    ]
}