{
    "id": 1431,
    "name": "moreau-905",
    "type": "acte",
    "url": "http:\/\/telma-chartes.irht.cnrs.fr\/moreau\/notice\/1431",
    "project_slug": "moreau",
    "project_label": "Inventaire Moreau",
    "user": "b_tock",
    "last_update": "2020-10-19 16:25:02",
    "licence": "Attribution - Pas d\u2019Utilisation Commerciale - Partage dans les M\u00eames Conditions 3.0 France (CC BY-NC-SA 3.0 FR) ",
    "licence_url": "https:\/\/creativecommons.org\/licenses\/by-nc-sa\/3.0\/fr\/",
    "elements": [
        {
            "type": "date",
            "value": "0948\/04\/30",
            "children": {
                "date_deb_annee": "0948",
                "date_deb_mois": "04",
                "date_deb_jour": "30"
            },
            "range": {
                "date_apres": 9480430,
                "date_avant": 9480430
            }
        },
        {
            "type": "auteur",
            "value": "Otton Ier, roi de Germanie"
        },
        {
            "type": "beneficiaire",
            "value": "Cambrai, cath\u00e9drale Notre-Dame de Gr\u00e2ce"
        },
        {
            "type": "cote",
            "value": "FRANCE, Paris, BNF, Collection Moreau, t. 7, f. 131"
        }
    ]
}