{
    "id": 5960,
    "name": "moreau-5434",
    "type": "acte",
    "url": "http:\/\/telma-chartes.irht.cnrs.fr\/moreau\/notice\/5960",
    "project_slug": "moreau",
    "project_label": "Inventaire Moreau",
    "user": "b_tock",
    "last_update": "2020-10-19 16:25:20",
    "licence": "Attribution - Pas d\u2019Utilisation Commerciale - Partage dans les M\u00eames Conditions 3.0 France (CC BY-NC-SA 3.0 FR) ",
    "licence_url": "https:\/\/creativecommons.org\/licenses\/by-nc-sa\/3.0\/fr\/",
    "elements": [
        {
            "type": "date",
            "value": "1113",
            "children": {
                "date_deb_annee": "1113"
            },
            "range": {
                "date_apres": 11130000,
                "date_avant": 11139999
            }
        },
        {
            "type": "remarques",
            "value": "pancarte"
        },
        {
            "type": "auteur",
            "value": "Hugues, comte de Troyes"
        },
        {
            "type": "beneficiaire",
            "value": "Monti\u00e9ramey, abbaye Saint-Pierre"
        },
        {
            "type": "cote",
            "value": "FRANCE, Paris, BNF, Collection Moreau, t. 37, f. 241"
        }
    ]
}