{
    "id": 7027,
    "name": "moreau-6501",
    "type": "acte",
    "url": "http:\/\/telma-chartes.irht.cnrs.fr\/moreau\/notice\/7027",
    "project_slug": "moreau",
    "project_label": "Inventaire Moreau",
    "user": "b_tock",
    "last_update": "2020-10-19 16:25:25",
    "licence": "Attribution - Pas d\u2019Utilisation Commerciale - Partage dans les M\u00eames Conditions 3.0 France (CC BY-NC-SA 3.0 FR) ",
    "licence_url": "https:\/\/creativecommons.org\/licenses\/by-nc-sa\/3.0\/fr\/",
    "elements": [
        {
            "type": "date",
            "value": "1111\/04\/21",
            "children": {
                "date_deb_annee": "1111",
                "date_deb_mois": "04",
                "date_deb_jour": "21"
            },
            "range": {
                "date_apres": 11110421,
                "date_avant": 11110421
            }
        },
        {
            "type": "auteur",
            "value": "Hugues de La Balma"
        },
        {
            "type": "auteur",
            "value": "Aalgardis"
        },
        {
            "type": "beneficiaire",
            "value": "Grenoble, cath\u00e9drale Notre-Dame"
        },
        {
            "type": "cote",
            "value": "FRANCE, Paris, BNF, Collection Moreau, t. 46, f. 3"
        }
    ]
}