{
    "id": 960,
    "name": "moreau-434",
    "type": "acte",
    "url": "http:\/\/telma-chartes.irht.cnrs.fr\/moreau\/notice\/960",
    "project_slug": "moreau",
    "project_label": "Inventaire Moreau",
    "user": "b_tock",
    "last_update": "2020-10-19 16:24:59",
    "licence": "Attribution - Pas d\u2019Utilisation Commerciale - Partage dans les M\u00eames Conditions 3.0 France (CC BY-NC-SA 3.0 FR) ",
    "licence_url": "https:\/\/creativecommons.org\/licenses\/by-nc-sa\/3.0\/fr\/",
    "elements": [
        {
            "type": "date",
            "value": "apres 0910 - avant 0927",
            "children": {
                "date_deb_annee": "0910",
                "date_deb_type": "apres",
                "date_fin_annee": "0927",
                "date_fin_type": "avant"
            },
            "range": {
                "date_apres": 9100000,
                "date_avant": 9279999
            }
        },
        {
            "type": "auteur",
            "value": "Guillaume, comte"
        },
        {
            "type": "beneficiaire",
            "value": "Cluny, abbaye Saint-Pierre-et-Saint-Paul"
        },
        {
            "type": "cote",
            "value": "FRANCE, Paris, BNF, Collection Moreau, t. 4, f. 54"
        }
    ]
}