{
    "id": 11455,
    "name": "moreau-10929",
    "type": "acte",
    "url": "http:\/\/telma-chartes.irht.cnrs.fr\/moreau\/notice\/11455",
    "project_slug": "moreau",
    "project_label": "Inventaire Moreau",
    "user": "b_tock",
    "last_update": "2020-10-19 16:25:42",
    "licence": "Attribution - Pas d\u2019Utilisation Commerciale - Partage dans les M\u00eames Conditions 3.0 France (CC BY-NC-SA 3.0 FR) ",
    "licence_url": "https:\/\/creativecommons.org\/licenses\/by-nc-sa\/3.0\/fr\/",
    "elements": [
        {
            "type": "date",
            "value": "1149\/09\/22",
            "children": {
                "date_deb_annee": "1149",
                "date_deb_mois": "09",
                "date_deb_jour": "22"
            },
            "range": {
                "date_apres": 11490922,
                "date_avant": 11490922
            }
        },
        {
            "type": "remarques",
            "value": "vidimus Urbain\u00a0? V\u00e9rone le 4 mars"
        },
        {
            "type": "auteur",
            "value": "Bernard, \u00e9v\u00eaque de Saintes"
        },
        {
            "type": "beneficiaire",
            "value": "Cluny, abbaye Saint-Pierre-et-Saint-Paul"
        },
        {
            "type": "cote",
            "value": "FRANCE, Paris, BNF, Collection Moreau, t. 86, f. 103"
        }
    ]
}