{
    "id": 2594,
    "name": "moreau-2068",
    "type": "acte",
    "url": "http:\/\/telma-chartes.irht.cnrs.fr\/moreau\/notice\/2594",
    "project_slug": "moreau",
    "project_label": "Inventaire Moreau",
    "user": "b_tock",
    "last_update": "2020-10-19 16:25:07",
    "licence": "Attribution - Pas d\u2019Utilisation Commerciale - Partage dans les M\u00eames Conditions 3.0 France (CC BY-NC-SA 3.0 FR) ",
    "licence_url": "https:\/\/creativecommons.org\/licenses\/by-nc-sa\/3.0\/fr\/",
    "elements": [
        {
            "type": "date",
            "value": "0989\/01",
            "children": {
                "date_deb_annee": "0989",
                "date_deb_mois": "01"
            },
            "range": {
                "date_apres": 9890100,
                "date_avant": 9890199
            }
        },
        {
            "type": "auteur",
            "value": "Guillaume, duc d'Aquitaine"
        },
        {
            "type": "beneficiaire",
            "value": "Nouaill\u00e9, abbaye Saint-Junien"
        },
        {
            "type": "cote",
            "value": "FRANCE, Paris, BNF, Collection Moreau, t. 14, f. 105"
        }
    ]
}