{
    "id": 7589,
    "name": "moreau-7063",
    "type": "acte",
    "url": "http:\/\/telma-chartes.irht.cnrs.fr\/moreau\/notice\/7589",
    "project_slug": "moreau",
    "project_label": "Inventaire Moreau",
    "user": "b_tock",
    "last_update": "2020-10-19 16:25:27",
    "licence": "Attribution - Pas d\u2019Utilisation Commerciale - Partage dans les M\u00eames Conditions 3.0 France (CC BY-NC-SA 3.0 FR) ",
    "licence_url": "https:\/\/creativecommons.org\/licenses\/by-nc-sa\/3.0\/fr\/",
    "elements": [
        {
            "type": "date",
            "value": "1122",
            "children": {
                "date_deb_annee": "1122"
            },
            "range": {
                "date_apres": 11220000,
                "date_avant": 11229999
            }
        },
        {
            "type": "auteur",
            "value": "Pierre Viguier, fils de Robert"
        },
        {
            "type": "beneficiaire",
            "value": "Saintes, abbaye Notre-Dame"
        },
        {
            "type": "cote",
            "value": "FRANCE, Paris, BNF, Collection Moreau, t. 50, f. 241"
        }
    ]
}