{
    "id": 11806,
    "name": "moreau-11280",
    "type": "acte",
    "url": "http:\/\/telma-chartes.irht.cnrs.fr\/moreau\/notice\/11806",
    "project_slug": "moreau",
    "project_label": "Inventaire Moreau",
    "user": "b_tock",
    "last_update": "2020-10-19 16:25:43",
    "licence": "Attribution - Pas d\u2019Utilisation Commerciale - Partage dans les M\u00eames Conditions 3.0 France (CC BY-NC-SA 3.0 FR) ",
    "licence_url": "https:\/\/creativecommons.org\/licenses\/by-nc-sa\/3.0\/fr\/",
    "elements": [
        {
            "type": "date_libre",
            "value": "1186\/1187-05-26"
        },
        {
            "type": "date",
            "value": "apres 1186 - avant 1187\/05\/26",
            "children": {
                "date_deb_annee": "1186",
                "date_deb_type": "apres",
                "date_fin_annee": "1187",
                "date_fin_mois": "05",
                "date_fin_jour": "26",
                "date_fin_type": "avant"
            },
            "range": {
                "date_apres": 11860000,
                "date_avant": 11870526
            }
        },
        {
            "type": "remarques",
            "value": "lettres aux doyens cath\u00e9drale Paris et Auxerre. Jaff\u00e9, 15863"
        },
        {
            "type": "auteur",
            "value": "Urbain III, pape"
        },
        {
            "type": "beneficiaire",
            "value": "Beauvais, cath\u00e9drale Saint-Pierre"
        },
        {
            "type": "cote",
            "value": "FRANCE, Paris, BNF, Collection Moreau, t. 89, f. 161"
        }
    ]
}