{
    "id": 9670,
    "name": "moreau-9144",
    "type": "acte",
    "url": "http:\/\/telma-chartes.irht.cnrs.fr\/moreau\/notice\/9670",
    "project_slug": "moreau",
    "project_label": "Inventaire Moreau",
    "user": "b_tock",
    "last_update": "2020-10-19 16:25:35",
    "licence": "Attribution - Pas d\u2019Utilisation Commerciale - Partage dans les M\u00eames Conditions 3.0 France (CC BY-NC-SA 3.0 FR) ",
    "licence_url": "https:\/\/creativecommons.org\/licenses\/by-nc-sa\/3.0\/fr\/",
    "elements": [
        {
            "type": "date",
            "value": "1160",
            "children": {
                "date_deb_annee": "1160"
            },
            "range": {
                "date_apres": 11600000,
                "date_avant": 11609999
            }
        },
        {
            "type": "auteur",
            "value": "Godescalc, \u00e9v\u00eaque d'Arras"
        },
        {
            "type": "beneficiaire",
            "value": "Marchiennes, abbaye Sainte-Rictrude-et-Saint-Pierre"
        },
        {
            "type": "cote",
            "value": "FRANCE, Paris, BNF, Collection Moreau, t. 70, f. 69"
        }
    ]
}