{
    "id": 2123,
    "name": "moreau-1597",
    "type": "acte",
    "url": "http:\/\/telma-chartes.irht.cnrs.fr\/moreau\/notice\/2123",
    "project_slug": "moreau",
    "project_label": "Inventaire Moreau",
    "user": "b_tock",
    "last_update": "2020-10-19 16:25:05",
    "licence": "Attribution - Pas d\u2019Utilisation Commerciale - Partage dans les M\u00eames Conditions 3.0 France (CC BY-NC-SA 3.0 FR) ",
    "licence_url": "https:\/\/creativecommons.org\/licenses\/by-nc-sa\/3.0\/fr\/",
    "elements": [
        {
            "type": "date",
            "value": "0974\/07\/25",
            "children": {
                "date_deb_annee": "0974",
                "date_deb_mois": "07",
                "date_deb_jour": "25"
            },
            "range": {
                "date_apres": 9740725,
                "date_avant": 9740725
            }
        },
        {
            "type": "remarques",
            "value": "archives de l'abbaye de Cluny"
        },
        {
            "type": "auteur",
            "value": "Adalelmus"
        },
        {
            "type": "beneficiaire",
            "value": "Adtonus"
        },
        {
            "type": "cote",
            "value": "FRANCE, Paris, BNF, Collection Moreau, t. 11, f. 87"
        }
    ]
}