{
    "id": 9504,
    "name": "moreau-8978",
    "type": "acte",
    "url": "http:\/\/telma-chartes.irht.cnrs.fr\/moreau\/notice\/9504",
    "project_slug": "moreau",
    "project_label": "Inventaire Moreau",
    "user": "b_tock",
    "last_update": "2020-10-19 16:25:35",
    "licence": "Attribution - Pas d\u2019Utilisation Commerciale - Partage dans les M\u00eames Conditions 3.0 France (CC BY-NC-SA 3.0 FR) ",
    "licence_url": "https:\/\/creativecommons.org\/licenses\/by-nc-sa\/3.0\/fr\/",
    "elements": [
        {
            "type": "date",
            "value": "1157",
            "children": {
                "date_deb_annee": "1157"
            },
            "range": {
                "date_apres": 11570000,
                "date_avant": 11579999
            }
        },
        {
            "type": "auteur",
            "value": "Nicolas, \u00e9v\u00eaque de Cambrai"
        },
        {
            "type": "beneficiaire",
            "value": "Arrouaise, abbaye Saint-Nicolas"
        },
        {
            "type": "cote",
            "value": "FRANCE, Paris, BNF, Collection Moreau, t. 68, f. 212"
        }
    ]
}