{
    "id": 3944,
    "name": "moreau-3418",
    "type": "acte",
    "url": "http:\/\/telma-chartes.irht.cnrs.fr\/moreau\/notice\/3944",
    "project_slug": "moreau",
    "project_label": "Inventaire Moreau",
    "user": "b_tock",
    "last_update": "2020-10-19 16:25:12",
    "licence": "Attribution - Pas d\u2019Utilisation Commerciale - Partage dans les M\u00eames Conditions 3.0 France (CC BY-NC-SA 3.0 FR) ",
    "licence_url": "https:\/\/creativecommons.org\/licenses\/by-nc-sa\/3.0\/fr\/",
    "elements": [
        {
            "type": "date",
            "value": "1034",
            "children": {
                "date_deb_annee": "1034"
            },
            "range": {
                "date_apres": 10340000,
                "date_avant": 10349999
            }
        },
        {
            "type": "auteur",
            "value": "Dudon, abb\u00e9 de Saint-Pierre-et-Saint-Paul de Montier-en-Der"
        },
        {
            "type": "beneficiaire",
            "value": "Montier-en-Der, abbaye Saint-Pierre-et-Saint-Paul"
        },
        {
            "type": "cote",
            "value": "FRANCE, Paris, BNF, Collection Moreau, t. 22, f. 83"
        }
    ]
}