{
    "id": 8651,
    "name": "moreau-8125",
    "type": "acte",
    "url": "http:\/\/telma-chartes.irht.cnrs.fr\/moreau\/notice\/8651",
    "project_slug": "moreau",
    "project_label": "Inventaire Moreau",
    "user": "b_tock",
    "last_update": "2020-10-19 16:25:31",
    "licence": "Attribution - Pas d\u2019Utilisation Commerciale - Partage dans les M\u00eames Conditions 3.0 France (CC BY-NC-SA 3.0 FR) ",
    "licence_url": "https:\/\/creativecommons.org\/licenses\/by-nc-sa\/3.0\/fr\/",
    "elements": [
        {
            "type": "date",
            "value": "1144",
            "children": {
                "date_deb_annee": "1144"
            },
            "range": {
                "date_apres": 11440000,
                "date_avant": 11449999
            }
        },
        {
            "type": "auteur",
            "value": "Eudes, \u00e9v\u00eaque de Beauvais"
        },
        {
            "type": "beneficiaire",
            "value": "Esserent, prieur\u00e9 Saint-Leu"
        },
        {
            "type": "cote",
            "value": "FRANCE, Paris, BNF, Collection Moreau, t. 61, f. 94"
        }
    ]
}