{
    "id": 5577,
    "name": "moreau-5051",
    "type": "acte",
    "url": "http:\/\/telma-chartes.irht.cnrs.fr\/moreau\/notice\/5577",
    "project_slug": "moreau",
    "project_label": "Inventaire Moreau",
    "user": "b_tock",
    "last_update": "2020-10-19 16:25:19",
    "licence": "Attribution - Pas d\u2019Utilisation Commerciale - Partage dans les M\u00eames Conditions 3.0 France (CC BY-NC-SA 3.0 FR) ",
    "licence_url": "https:\/\/creativecommons.org\/licenses\/by-nc-sa\/3.0\/fr\/",
    "elements": [
        {
            "type": "date",
            "value": "1088\/08\/27",
            "children": {
                "date_deb_annee": "1088",
                "date_deb_mois": "08",
                "date_deb_jour": "27"
            },
            "range": {
                "date_apres": 10880827,
                "date_avant": 10880827
            }
        },
        {
            "type": "auteur",
            "value": "Pibon, \u00e9v\u00eaque de Toul"
        },
        {
            "type": "beneficiaire",
            "value": "St-Mihiel, abbaye Saint-Michel"
        },
        {
            "type": "cote",
            "value": "FRANCE, Paris, BNF, Collection Moreau, t. 35, f. 54"
        }
    ]
}