{
    "id": 8511,
    "name": "moreau-7985",
    "type": "acte",
    "url": "http:\/\/telma-chartes.irht.cnrs.fr\/moreau\/notice\/8511",
    "project_slug": "moreau",
    "project_label": "Inventaire Moreau",
    "user": "b_tock",
    "last_update": "2020-10-19 16:25:31",
    "licence": "Attribution - Pas d\u2019Utilisation Commerciale - Partage dans les M\u00eames Conditions 3.0 France (CC BY-NC-SA 3.0 FR) ",
    "licence_url": "https:\/\/creativecommons.org\/licenses\/by-nc-sa\/3.0\/fr\/",
    "elements": [
        {
            "type": "date",
            "value": "1142",
            "children": {
                "date_deb_annee": "1142"
            },
            "range": {
                "date_apres": 11420000,
                "date_avant": 11429999
            }
        },
        {
            "type": "auteur",
            "value": "Louis VII, roi de France"
        },
        {
            "type": "beneficiaire",
            "value": "Morigny, abbaye Sainte-Trinit\u00e9"
        },
        {
            "type": "cote",
            "value": "FRANCE, Paris, BNF, Collection Moreau, t. 60, f. 66"
        }
    ]
}