{
    "id": 8164,
    "name": "moreau-7638",
    "type": "acte",
    "url": "http:\/\/telma-chartes.irht.cnrs.fr\/moreau\/notice\/8164",
    "project_slug": "moreau",
    "project_label": "Inventaire Moreau",
    "user": "b_tock",
    "last_update": "2020-10-19 16:25:30",
    "licence": "Attribution - Pas d\u2019Utilisation Commerciale - Partage dans les M\u00eames Conditions 3.0 France (CC BY-NC-SA 3.0 FR) ",
    "licence_url": "https:\/\/creativecommons.org\/licenses\/by-nc-sa\/3.0\/fr\/",
    "elements": [
        {
            "type": "date",
            "value": "1136",
            "children": {
                "date_deb_annee": "1136"
            },
            "range": {
                "date_apres": 11360000,
                "date_avant": 11369999
            }
        },
        {
            "type": "auteur",
            "value": "Louis VI, roi de France"
        },
        {
            "type": "beneficiaire",
            "value": "Marmoutier, abbaye Saint-Martin"
        },
        {
            "type": "cote",
            "value": "FRANCE, Paris, BNF, Collection Moreau, t. 57, f. 14"
        }
    ]
}