{
    "id": 4341,
    "name": "moreau-3815",
    "type": "acte",
    "url": "http:\/\/telma-chartes.irht.cnrs.fr\/moreau\/notice\/4341",
    "project_slug": "moreau",
    "project_label": "Inventaire Moreau",
    "user": "b_tock",
    "last_update": "2020-10-19 16:25:14",
    "licence": "Attribution - Pas d\u2019Utilisation Commerciale - Partage dans les M\u00eames Conditions 3.0 France (CC BY-NC-SA 3.0 FR) ",
    "licence_url": "https:\/\/creativecommons.org\/licenses\/by-nc-sa\/3.0\/fr\/",
    "elements": [
        {
            "type": "date",
            "value": "1053\/01\/02",
            "children": {
                "date_deb_annee": "1053",
                "date_deb_mois": "01",
                "date_deb_jour": "02"
            },
            "range": {
                "date_apres": 10530102,
                "date_avant": 10530102
            }
        },
        {
            "type": "remarques",
            "value": "Jaff\u00e9, 4288"
        },
        {
            "type": "auteur",
            "value": "L\u00e9on IX, pape"
        },
        {
            "type": "beneficiaire",
            "value": "Verdun, abbaye Saint-Vanne"
        },
        {
            "type": "cote",
            "value": "FRANCE, Paris, BNF, Collection Moreau, t. 25, f. 81"
        }
    ]
}