{
    "id": 14181,
    "name": "moreau-13655",
    "type": "acte",
    "url": "http:\/\/telma-chartes.irht.cnrs.fr\/moreau\/notice\/14181",
    "project_slug": "moreau",
    "project_label": "Inventaire Moreau",
    "user": "b_tock",
    "last_update": "2020-10-19 16:25:53",
    "licence": "Attribution - Pas d\u2019Utilisation Commerciale - Partage dans les M\u00eames Conditions 3.0 France (CC BY-NC-SA 3.0 FR) ",
    "licence_url": "https:\/\/creativecommons.org\/licenses\/by-nc-sa\/3.0\/fr\/",
    "elements": [
        {
            "type": "date",
            "value": "1207\/04\/07",
            "children": {
                "date_deb_annee": "1207",
                "date_deb_mois": "04",
                "date_deb_jour": "07"
            },
            "range": {
                "date_apres": 12070407,
                "date_avant": 12070407
            }
        },
        {
            "type": "auteur",
            "value": "Innocent III, pape"
        },
        {
            "type": "beneficiaire",
            "value": "Bourg-Achard, prieur\u00e9 Saint-L\u00f4"
        },
        {
            "type": "cote",
            "value": "FRANCE, Paris, BNF, Collection Moreau, t. 109, f. 103"
        }
    ]
}