{
    "id": 13445,
    "name": "moreau-12919",
    "type": "acte",
    "url": "http:\/\/telma-chartes.irht.cnrs.fr\/moreau\/notice\/13445",
    "project_slug": "moreau",
    "project_label": "Inventaire Moreau",
    "user": "b_tock",
    "last_update": "2020-10-19 16:25:49",
    "licence": "Attribution - Pas d\u2019Utilisation Commerciale - Partage dans les M\u00eames Conditions 3.0 France (CC BY-NC-SA 3.0 FR) ",
    "licence_url": "https:\/\/creativecommons.org\/licenses\/by-nc-sa\/3.0\/fr\/",
    "elements": [
        {
            "type": "date",
            "value": "1203\/02\/04",
            "children": {
                "date_deb_annee": "1203",
                "date_deb_mois": "02",
                "date_deb_jour": "04"
            },
            "range": {
                "date_apres": 12030204,
                "date_avant": 12030204
            }
        },
        {
            "type": "remarques",
            "value": "http:\/\/www.cn-telma.fr\/chartae-galliae\/charte205412\/"
        },
        {
            "type": "auteur",
            "value": "Innocent III, pape"
        },
        {
            "type": "beneficiaire",
            "value": "St-Omer, abbaye Saint-Bertin"
        },
        {
            "type": "cote",
            "value": "FRANCE, Paris, BNF, Collection Moreau, t. 103, f. 110"
        }
    ]
}