{
    "id": 10039,
    "name": "moreau-9513",
    "type": "acte",
    "url": "http:\/\/telma-chartes.irht.cnrs.fr\/moreau\/notice\/10039",
    "project_slug": "moreau",
    "project_label": "Inventaire Moreau",
    "user": "b_tock",
    "last_update": "2020-10-19 16:25:37",
    "licence": "Attribution - Pas d\u2019Utilisation Commerciale - Partage dans les M\u00eames Conditions 3.0 France (CC BY-NC-SA 3.0 FR) ",
    "licence_url": "https:\/\/creativecommons.org\/licenses\/by-nc-sa\/3.0\/fr\/",
    "elements": [
        {
            "type": "date",
            "value": "1164\/01\/22",
            "children": {
                "date_deb_annee": "1164",
                "date_deb_mois": "01",
                "date_deb_jour": "22"
            },
            "range": {
                "date_apres": 11640122,
                "date_avant": 11640122
            }
        },
        {
            "type": "auteur",
            "value": "Alexandre III, pape"
        },
        {
            "type": "beneficiaire",
            "value": "La Bouteille, abbaye de Foigny"
        },
        {
            "type": "cote",
            "value": "FRANCE, Paris, BNF, Collection Moreau, t. 73, f. 161"
        }
    ]
}