{
    "id": 7648,
    "name": "moreau-7122",
    "type": "acte",
    "url": "http:\/\/telma-chartes.irht.cnrs.fr\/moreau\/notice\/7648",
    "project_slug": "moreau",
    "project_label": "Inventaire Moreau",
    "user": "b_tock",
    "last_update": "2020-10-19 16:25:28",
    "licence": "Attribution - Pas d\u2019Utilisation Commerciale - Partage dans les M\u00eames Conditions 3.0 France (CC BY-NC-SA 3.0 FR) ",
    "licence_url": "https:\/\/creativecommons.org\/licenses\/by-nc-sa\/3.0\/fr\/",
    "elements": [
        {
            "type": "date",
            "value": "1124",
            "children": {
                "date_deb_annee": "1124"
            },
            "range": {
                "date_apres": 11240000,
                "date_avant": 11249999
            }
        },
        {
            "type": "auteur",
            "value": "Manass\u00e8s, comte de Gu\u00eenes"
        },
        {
            "type": "beneficiaire",
            "value": "St-Omer, abbaye Saint-Bertin"
        },
        {
            "type": "cote",
            "value": "FRANCE, Paris, BNF, Collection Moreau, t. 51, f. 115"
        }
    ]
}