{
    "id": 8435,
    "name": "moreau-7909",
    "type": "acte",
    "url": "http:\/\/telma-chartes.irht.cnrs.fr\/moreau\/notice\/8435",
    "project_slug": "moreau",
    "project_label": "Inventaire Moreau",
    "user": "b_tock",
    "last_update": "2020-10-19 16:25:30",
    "licence": "Attribution - Pas d\u2019Utilisation Commerciale - Partage dans les M\u00eames Conditions 3.0 France (CC BY-NC-SA 3.0 FR) ",
    "licence_url": "https:\/\/creativecommons.org\/licenses\/by-nc-sa\/3.0\/fr\/",
    "elements": [
        {
            "type": "date",
            "value": "1141\/09\/22",
            "children": {
                "date_deb_annee": "1141",
                "date_deb_mois": "09",
                "date_deb_jour": "22"
            },
            "range": {
                "date_apres": 11410922,
                "date_avant": 11410922
            }
        },
        {
            "type": "auteur",
            "value": "Gumbaud de Tolojar"
        },
        {
            "type": "beneficiaire",
            "value": "Elne, chapitre cath\u00e9dral Sainte-Eulalie-et-Sainte-Julie"
        },
        {
            "type": "cote",
            "value": "FRANCE, Paris, BNF, Collection Moreau, t. 59, f. 114"
        }
    ]
}