{
    "id": 6748,
    "name": "moreau-6222",
    "type": "acte",
    "url": "http:\/\/telma-chartes.irht.cnrs.fr\/moreau\/notice\/6748",
    "project_slug": "moreau",
    "project_label": "Inventaire Moreau",
    "user": "b_tock",
    "last_update": "2020-10-19 16:25:23",
    "licence": "Attribution - Pas d\u2019Utilisation Commerciale - Partage dans les M\u00eames Conditions 3.0 France (CC BY-NC-SA 3.0 FR) ",
    "licence_url": "https:\/\/creativecommons.org\/licenses\/by-nc-sa\/3.0\/fr\/",
    "elements": [
        {
            "type": "date",
            "value": "1108",
            "children": {
                "date_deb_annee": "1108"
            },
            "range": {
                "date_apres": 11080000,
                "date_avant": 11089999
            }
        },
        {
            "type": "auteur",
            "value": "Guillaume, abb\u00e9 de Saint-P\u00e8re de Chartres"
        },
        {
            "type": "beneficiaire",
            "value": "Chartres, abbaye Saint-P\u00e8re"
        },
        {
            "type": "cote",
            "value": "FRANCE, Paris, BNF, Collection Moreau, t. 43, f. 139"
        }
    ]
}