{
    "id": 3414,
    "name": "moreau-2888",
    "type": "acte",
    "url": "http:\/\/telma-chartes.irht.cnrs.fr\/moreau\/notice\/3414",
    "project_slug": "moreau",
    "project_label": "Inventaire Moreau",
    "user": "b_tock",
    "last_update": "2020-10-19 16:25:10",
    "licence": "Attribution - Pas d\u2019Utilisation Commerciale - Partage dans les M\u00eames Conditions 3.0 France (CC BY-NC-SA 3.0 FR) ",
    "licence_url": "https:\/\/creativecommons.org\/licenses\/by-nc-sa\/3.0\/fr\/",
    "elements": [
        {
            "type": "date_libre",
            "value": "[997-1030]-08"
        },
        {
            "type": "date",
            "value": "apres 0997\/08 - avant 1030\/08",
            "children": {
                "date_deb_annee": "0997",
                "date_deb_mois": "08",
                "date_deb_type": "apres",
                "date_fin_annee": "1030",
                "date_fin_mois": "08",
                "date_fin_type": "avant"
            },
            "range": {
                "date_apres": 9970800,
                "date_avant": 10300899
            }
        },
        {
            "type": "auteur",
            "value": "Rigaud"
        },
        {
            "type": "beneficiaire",
            "value": "Limoges, cath\u00e9drale Saint-Etienne"
        },
        {
            "type": "cote",
            "value": "FRANCE, Paris, BNF, Collection Moreau, t. 18, f. 219"
        }
    ]
}