{
    "id": 736,
    "name": "moreau-210",
    "type": "acte",
    "url": "http:\/\/telma-chartes.irht.cnrs.fr\/moreau\/notice\/736",
    "project_slug": "moreau",
    "project_label": "Inventaire Moreau",
    "user": "b_tock",
    "last_update": "2020-10-19 16:24:58",
    "licence": "Attribution - Pas d\u2019Utilisation Commerciale - Partage dans les M\u00eames Conditions 3.0 France (CC BY-NC-SA 3.0 FR) ",
    "licence_url": "https:\/\/creativecommons.org\/licenses\/by-nc-sa\/3.0\/fr\/",
    "elements": [
        {
            "type": "date",
            "value": "0878\/07\/04",
            "children": {
                "date_deb_annee": "0878",
                "date_deb_mois": "07",
                "date_deb_jour": "04"
            },
            "range": {
                "date_apres": 8780704,
                "date_avant": 8780704
            }
        },
        {
            "type": "auteur",
            "value": "Louis II le B\u00e8gue, roi des Francs"
        },
        {
            "type": "beneficiaire",
            "value": "Poitiers, abbaye Sainte-Croix"
        },
        {
            "type": "beneficiaire",
            "value": "Poitiers, abbaye Sainte-Radegonde"
        },
        {
            "type": "cote",
            "value": "FRANCE, Paris, BNF, Collection Moreau, t. 2, f. 180"
        }
    ]
}