{
    "id": 1516,
    "name": "moreau-990",
    "type": "acte",
    "url": "http:\/\/telma-chartes.irht.cnrs.fr\/moreau\/notice\/1516",
    "project_slug": "moreau",
    "project_label": "Inventaire Moreau",
    "user": "b_tock",
    "last_update": "2020-10-19 16:25:02",
    "licence": "Attribution - Pas d\u2019Utilisation Commerciale - Partage dans les M\u00eames Conditions 3.0 France (CC BY-NC-SA 3.0 FR) ",
    "licence_url": "https:\/\/creativecommons.org\/licenses\/by-nc-sa\/3.0\/fr\/",
    "elements": [
        {
            "type": "date",
            "value": "0950",
            "children": {
                "date_deb_annee": "0950"
            },
            "range": {
                "date_apres": 9500000,
                "date_avant": 9509999
            }
        },
        {
            "type": "auteur",
            "value": "Eve, comtesse"
        },
        {
            "type": "auteur",
            "value": "Adelricus, archev\u00eaque de Reims"
        },
        {
            "type": "beneficiaire",
            "value": "Metz, abbaye Saint-Arnoul"
        },
        {
            "type": "cote",
            "value": "FRANCE, Paris, BNF, Collection Moreau, t. 7, f. 239"
        }
    ]
}