{
    "id": 3202,
    "name": "moreau-2676",
    "type": "acte",
    "url": "http:\/\/telma-chartes.irht.cnrs.fr\/moreau\/notice\/3202",
    "project_slug": "moreau",
    "project_label": "Inventaire Moreau",
    "user": "b_tock",
    "last_update": "2020-10-19 16:25:09",
    "licence": "Attribution - Pas d\u2019Utilisation Commerciale - Partage dans les M\u00eames Conditions 3.0 France (CC BY-NC-SA 3.0 FR) ",
    "licence_url": "https:\/\/creativecommons.org\/licenses\/by-nc-sa\/3.0\/fr\/",
    "elements": [
        {
            "type": "date",
            "value": "apres 0977 - avant 1030",
            "children": {
                "date_deb_annee": "0977",
                "date_deb_type": "apres",
                "date_fin_annee": "1030",
                "date_fin_type": "avant"
            },
            "range": {
                "date_apres": 9770000,
                "date_avant": 10309999
            }
        },
        {
            "type": "auteur",
            "value": "abb\u00e9 de Saint-Pierre de Corbie"
        },
        {
            "type": "beneficiaire",
            "value": "Laon, abbaye Saint-Vincent"
        },
        {
            "type": "cote",
            "value": "FRANCE, Paris, BNF, Collection Moreau, t. 17, f. 146"
        }
    ]
}