{
    "id": 8847,
    "name": "moreau-8321",
    "type": "acte",
    "url": "http:\/\/telma-chartes.irht.cnrs.fr\/moreau\/notice\/8847",
    "project_slug": "moreau",
    "project_label": "Inventaire Moreau",
    "user": "b_tock",
    "last_update": "2020-10-19 16:25:32",
    "licence": "Attribution - Pas d\u2019Utilisation Commerciale - Partage dans les M\u00eames Conditions 3.0 France (CC BY-NC-SA 3.0 FR) ",
    "licence_url": "https:\/\/creativecommons.org\/licenses\/by-nc-sa\/3.0\/fr\/",
    "elements": [
        {
            "type": "date",
            "value": "1147\/11\/03",
            "children": {
                "date_deb_annee": "1147",
                "date_deb_mois": "11",
                "date_deb_jour": "03"
            },
            "range": {
                "date_apres": 11471103,
                "date_avant": 11471103
            }
        },
        {
            "type": "auteur",
            "value": "Eug\u00e8ne III, pape"
        },
        {
            "type": "beneficiaire",
            "value": "Compi\u00e8gne, chapitre"
        },
        {
            "type": "cote",
            "value": "FRANCE, Paris, BNF, Collection Moreau, t. 63, f. 56"
        }
    ]
}