{
    "id": 8769,
    "name": "moreau-8243",
    "type": "acte",
    "url": "http:\/\/telma-chartes.irht.cnrs.fr\/moreau\/notice\/8769",
    "project_slug": "moreau",
    "project_label": "Inventaire Moreau",
    "user": "b_tock",
    "last_update": "2020-10-19 16:25:32",
    "licence": "Attribution - Pas d\u2019Utilisation Commerciale - Partage dans les M\u00eames Conditions 3.0 France (CC BY-NC-SA 3.0 FR) ",
    "licence_url": "https:\/\/creativecommons.org\/licenses\/by-nc-sa\/3.0\/fr\/",
    "elements": [
        {
            "type": "date",
            "value": "1146\/11\/25",
            "children": {
                "date_deb_annee": "1146",
                "date_deb_mois": "11",
                "date_deb_jour": "25"
            },
            "range": {
                "date_apres": 11461125,
                "date_avant": 11461125
            }
        },
        {
            "type": "auteur",
            "value": "B\u00e9atrice, \u00e9pouse de Guillaume Isarn"
        },
        {
            "type": "beneficiaire",
            "value": "Espira, \u00e9glise Notre-Dame"
        },
        {
            "type": "cote",
            "value": "FRANCE, Paris, BNF, Collection Moreau, t. 62, f. 113"
        }
    ]
}