{
    "id": 568,
    "name": "moreau-42",
    "type": "acte",
    "url": "http:\/\/telma-chartes.irht.cnrs.fr\/moreau\/notice\/568",
    "project_slug": "moreau",
    "project_label": "Inventaire Moreau",
    "user": "b_tock",
    "last_update": "2020-10-19 16:24:58",
    "licence": "Attribution - Pas d\u2019Utilisation Commerciale - Partage dans les M\u00eames Conditions 3.0 France (CC BY-NC-SA 3.0 FR) ",
    "licence_url": "https:\/\/creativecommons.org\/licenses\/by-nc-sa\/3.0\/fr\/",
    "elements": [
        {
            "type": "date",
            "value": "0828\/11\/08",
            "children": {
                "date_deb_annee": "0828",
                "date_deb_mois": "11",
                "date_deb_jour": "08"
            },
            "range": {
                "date_apres": 8281108,
                "date_avant": 8281108
            }
        },
        {
            "type": "auteur",
            "value": "Goibertus"
        },
        {
            "type": "beneficiaire",
            "value": "St-Omer, abbaye Saint-Bertin"
        },
        {
            "type": "cote",
            "value": "FRANCE, Paris, BNF, Collection Moreau, t. 1, f. 69"
        }
    ]
}