{
    "id": 13495,
    "name": "moreau-12969",
    "type": "acte",
    "url": "http:\/\/telma-chartes.irht.cnrs.fr\/moreau\/notice\/13495",
    "project_slug": "moreau",
    "project_label": "Inventaire Moreau",
    "user": "b_tock",
    "last_update": "2020-10-19 16:25:50",
    "licence": "Attribution - Pas d\u2019Utilisation Commerciale - Partage dans les M\u00eames Conditions 3.0 France (CC BY-NC-SA 3.0 FR) ",
    "licence_url": "https:\/\/creativecommons.org\/licenses\/by-nc-sa\/3.0\/fr\/",
    "elements": [
        {
            "type": "date",
            "value": "1202\/06",
            "children": {
                "date_deb_annee": "1202",
                "date_deb_mois": "06"
            },
            "range": {
                "date_apres": 12020600,
                "date_avant": 12020699
            }
        },
        {
            "type": "auteur",
            "value": "Enguerran, seigneur de Coucy"
        },
        {
            "type": "beneficiaire",
            "value": "Saint-Amand, abbaye"
        },
        {
            "type": "cote",
            "value": "FRANCE, Paris, BNF, Collection Moreau, t. 103, f. 207"
        }
    ]
}