{
    "id": 10309,
    "name": "moreau-9783",
    "type": "acte",
    "url": "http:\/\/telma-chartes.irht.cnrs.fr\/moreau\/notice\/10309",
    "project_slug": "moreau",
    "project_label": "Inventaire Moreau",
    "user": "b_tock",
    "last_update": "2020-10-19 16:25:38",
    "licence": "Attribution - Pas d\u2019Utilisation Commerciale - Partage dans les M\u00eames Conditions 3.0 France (CC BY-NC-SA 3.0 FR) ",
    "licence_url": "https:\/\/creativecommons.org\/licenses\/by-nc-sa\/3.0\/fr\/",
    "elements": [
        {
            "type": "date",
            "value": "1169",
            "children": {
                "date_deb_annee": "1169"
            },
            "range": {
                "date_apres": 11690000,
                "date_avant": 11699999
            }
        },
        {
            "type": "auteur",
            "value": "Guillaume, abb\u00e9 de Saint-Michel-en-Thi\u00e9rache"
        },
        {
            "type": "auteur",
            "value": "Robert, abb\u00e9 de Notre-Dame de Foigny"
        },
        {
            "type": "beneficiaire",
            "value": "St-Michel-en-Thi\u00e9rache, abbaye Saint-Michel La Bouteille, abbaye de Foigny"
        },
        {
            "type": "cote",
            "value": "FRANCE, Paris, BNF, Collection Moreau, t. 76, f. 31"
        }
    ]
}