{
    "id": 1887,
    "name": "moreau-1361",
    "type": "acte",
    "url": "http:\/\/telma-chartes.irht.cnrs.fr\/moreau\/notice\/1887",
    "project_slug": "moreau",
    "project_label": "Inventaire Moreau",
    "user": "b_tock",
    "last_update": "2020-10-19 16:25:04",
    "licence": "Attribution - Pas d\u2019Utilisation Commerciale - Partage dans les M\u00eames Conditions 3.0 France (CC BY-NC-SA 3.0 FR) ",
    "licence_url": "https:\/\/creativecommons.org\/licenses\/by-nc-sa\/3.0\/fr\/",
    "elements": [
        {
            "type": "date",
            "value": "apres 0958 - avant 0963",
            "children": {
                "date_deb_annee": "0958",
                "date_deb_type": "apres",
                "date_fin_annee": "0963",
                "date_fin_type": "avant"
            },
            "range": {
                "date_apres": 9580000,
                "date_avant": 9639999
            }
        },
        {
            "type": "auteur",
            "value": "Ebles, \u00e9v\u00eaque de Limoges"
        },
        {
            "type": "beneficiaire",
            "value": "Saint-Maixent, abbaye"
        },
        {
            "type": "cote",
            "value": "FRANCE, Paris, BNF, Collection Moreau, t. 10, f. 14"
        }
    ]
}