{
    "id": 4430,
    "name": "moreau-3904",
    "type": "acte",
    "url": "http:\/\/telma-chartes.irht.cnrs.fr\/moreau\/notice\/4430",
    "project_slug": "moreau",
    "project_label": "Inventaire Moreau",
    "user": "b_tock",
    "last_update": "2020-10-19 16:25:14",
    "licence": "Attribution - Pas d\u2019Utilisation Commerciale - Partage dans les M\u00eames Conditions 3.0 France (CC BY-NC-SA 3.0 FR) ",
    "licence_url": "https:\/\/creativecommons.org\/licenses\/by-nc-sa\/3.0\/fr\/",
    "elements": [
        {
            "type": "date",
            "value": "1058\/09\/12",
            "children": {
                "date_deb_annee": "1058",
                "date_deb_mois": "09",
                "date_deb_jour": "12"
            },
            "range": {
                "date_apres": 10580912,
                "date_avant": 10580912
            }
        },
        {
            "type": "auteur",
            "value": "Emma, vicomtesse du Mans"
        },
        {
            "type": "beneficiaire",
            "value": "Angers, abbaye Saint-Serge"
        },
        {
            "type": "cote",
            "value": "FRANCE, Paris, BNF, Collection Moreau, t. 26, f. 20"
        }
    ]
}