{
    "id": 7323,
    "name": "moreau-6797",
    "type": "acte",
    "url": "http:\/\/telma-chartes.irht.cnrs.fr\/moreau\/notice\/7323",
    "project_slug": "moreau",
    "project_label": "Inventaire Moreau",
    "user": "b_tock",
    "last_update": "2020-10-19 16:25:26",
    "licence": "Attribution - Pas d\u2019Utilisation Commerciale - Partage dans les M\u00eames Conditions 3.0 France (CC BY-NC-SA 3.0 FR) ",
    "licence_url": "https:\/\/creativecommons.org\/licenses\/by-nc-sa\/3.0\/fr\/",
    "elements": [
        {
            "type": "date",
            "value": "1117",
            "children": {
                "date_deb_annee": "1117"
            },
            "range": {
                "date_apres": 11170000,
                "date_avant": 11179999
            }
        },
        {
            "type": "auteur",
            "value": "Guibert, abb\u00e9 de Notre-Dame de Nogent"
        },
        {
            "type": "beneficiaire",
            "value": "Nogent, abbaye Notre-Dame"
        },
        {
            "type": "cote",
            "value": "FRANCE, Paris, BNF, Collection Moreau, t. 48, f. 136"
        }
    ]
}