{
    "id": 13742,
    "name": "moreau-13216",
    "type": "acte",
    "url": "http:\/\/telma-chartes.irht.cnrs.fr\/moreau\/notice\/13742",
    "project_slug": "moreau",
    "project_label": "Inventaire Moreau",
    "user": "b_tock",
    "last_update": "2020-10-19 16:25:51",
    "licence": "Attribution - Pas d\u2019Utilisation Commerciale - Partage dans les M\u00eames Conditions 3.0 France (CC BY-NC-SA 3.0 FR) ",
    "licence_url": "https:\/\/creativecommons.org\/licenses\/by-nc-sa\/3.0\/fr\/",
    "elements": [
        {
            "type": "date",
            "value": "1203",
            "children": {
                "date_deb_annee": "1203"
            },
            "range": {
                "date_apres": 12030000,
                "date_avant": 12039999
            }
        },
        {
            "type": "auteur",
            "value": "Baudouin, abb\u00e9 de Notre-Dame d'Ourscamp\u00a0"
        },
        {
            "type": "auteur",
            "value": "Herv\u00e9, prieur de Sainte-Marguerite d'Elincourt"
        },
        {
            "type": "beneficiaire",
            "value": "Ourscamp, abbaye Notre-Dame"
        },
        {
            "type": "cote",
            "value": "FRANCE, Paris, BNF, Collection Moreau, t. 105, f. 192"
        }
    ]
}