{
    "id": 2407,
    "name": "moreau-1881",
    "type": "acte",
    "url": "http:\/\/telma-chartes.irht.cnrs.fr\/moreau\/notice\/2407",
    "project_slug": "moreau",
    "project_label": "Inventaire Moreau",
    "user": "b_tock",
    "last_update": "2020-10-19 16:25:06",
    "licence": "Attribution - Pas d\u2019Utilisation Commerciale - Partage dans les M\u00eames Conditions 3.0 France (CC BY-NC-SA 3.0 FR) ",
    "licence_url": "https:\/\/creativecommons.org\/licenses\/by-nc-sa\/3.0\/fr\/",
    "elements": [
        {
            "type": "date",
            "value": "0983\/01",
            "children": {
                "date_deb_annee": "0983",
                "date_deb_mois": "01"
            },
            "range": {
                "date_apres": 9830100,
                "date_avant": 9830199
            }
        },
        {
            "type": "auteur",
            "value": "Bernard"
        },
        {
            "type": "auteur",
            "value": "Ingelgerius"
        },
        {
            "type": "beneficiaire",
            "value": "Cluny, abbaye Saint-Pierre-et-Saint-Paul"
        },
        {
            "type": "cote",
            "value": "FRANCE, Paris, BNF, Collection Moreau, t. 13, f. 27"
        }
    ]
}