{
    "id": 12680,
    "name": "moreau-12154",
    "type": "acte",
    "url": "http:\/\/telma-chartes.irht.cnrs.fr\/moreau\/notice\/12680",
    "project_slug": "moreau",
    "project_label": "Inventaire Moreau",
    "user": "b_tock",
    "last_update": "2020-10-19 16:25:47",
    "licence": "Attribution - Pas d\u2019Utilisation Commerciale - Partage dans les M\u00eames Conditions 3.0 France (CC BY-NC-SA 3.0 FR) ",
    "licence_url": "https:\/\/creativecommons.org\/licenses\/by-nc-sa\/3.0\/fr\/",
    "elements": [
        {
            "type": "date",
            "value": "1195",
            "children": {
                "date_deb_annee": "1195"
            },
            "range": {
                "date_apres": 11950000,
                "date_avant": 11959999
            }
        },
        {
            "type": "remarques",
            "value": "charte de franchises"
        },
        {
            "type": "auteur",
            "value": "Isembard, abb\u00e9 de Saint-Maur-des-Foss\u00e9s"
        },
        {
            "type": "beneficiaire",
            "value": "Evry"
        },
        {
            "type": "cote",
            "value": "FRANCE, Paris, BNF, Collection Moreau, t. 96, f. 226"
        }
    ]
}