{
    "id": 3973,
    "name": "moreau-3447",
    "type": "acte",
    "url": "http:\/\/telma-chartes.irht.cnrs.fr\/moreau\/notice\/3973",
    "project_slug": "moreau",
    "project_label": "Inventaire Moreau",
    "user": "b_tock",
    "last_update": "2020-10-19 16:25:12",
    "licence": "Attribution - Pas d\u2019Utilisation Commerciale - Partage dans les M\u00eames Conditions 3.0 France (CC BY-NC-SA 3.0 FR) ",
    "licence_url": "https:\/\/creativecommons.org\/licenses\/by-nc-sa\/3.0\/fr\/",
    "elements": [
        {
            "type": "date",
            "value": "1037\/05\/14",
            "children": {
                "date_deb_annee": "1037",
                "date_deb_mois": "05",
                "date_deb_jour": "14"
            },
            "range": {
                "date_apres": 10370514,
                "date_avant": 10370514
            }
        },
        {
            "type": "auteur",
            "value": "Aia"
        },
        {
            "type": "beneficiaire",
            "value": "Cluny, abbaye Saint-Pierre-et-Saint-Paul"
        },
        {
            "type": "cote",
            "value": "FRANCE, Paris, BNF, Collection Moreau, t. 22, f. 135"
        }
    ]
}