{
    "id": 13270,
    "name": "moreau-12744",
    "type": "acte",
    "url": "http:\/\/telma-chartes.irht.cnrs.fr\/moreau\/notice\/13270",
    "project_slug": "moreau",
    "project_label": "Inventaire Moreau",
    "user": "b_tock",
    "last_update": "2020-10-19 16:25:49",
    "licence": "Attribution - Pas d\u2019Utilisation Commerciale - Partage dans les M\u00eames Conditions 3.0 France (CC BY-NC-SA 3.0 FR) ",
    "licence_url": "https:\/\/creativecommons.org\/licenses\/by-nc-sa\/3.0\/fr\/",
    "elements": [
        {
            "type": "date",
            "value": "1200\/04\/16",
            "children": {
                "date_deb_annee": "1200",
                "date_deb_mois": "04",
                "date_deb_jour": "16"
            },
            "range": {
                "date_apres": 12000416,
                "date_avant": 12000416
            }
        },
        {
            "type": "auteur",
            "value": "Pierre, abb\u00e9 de Beaulieu et official du Mans"
        },
        {
            "type": "beneficiaire",
            "value": "Mont-Saint-Michel, abbaye"
        },
        {
            "type": "beneficiaire",
            "value": "Le Mans, chapitre cath\u00e9dral Saint-Julien"
        },
        {
            "type": "cote",
            "value": "FRANCE, Paris, BNF, Collection Moreau, t. 101, f. 221"
        }
    ]
}