{
    "id": 4724,
    "name": "moreau-4198",
    "type": "acte",
    "url": "http:\/\/telma-chartes.irht.cnrs.fr\/moreau\/notice\/4724",
    "project_slug": "moreau",
    "project_label": "Inventaire Moreau",
    "user": "b_tock",
    "last_update": "2020-10-19 16:25:16",
    "licence": "Attribution - Pas d\u2019Utilisation Commerciale - Partage dans les M\u00eames Conditions 3.0 France (CC BY-NC-SA 3.0 FR) ",
    "licence_url": "https:\/\/creativecommons.org\/licenses\/by-nc-sa\/3.0\/fr\/",
    "elements": [
        {
            "type": "date",
            "value": "1065",
            "children": {
                "date_deb_annee": "1065"
            },
            "range": {
                "date_apres": 10650000,
                "date_avant": 10659999
            }
        },
        {
            "type": "auteur",
            "value": "Baudouin, comte de Hainaut"
        },
        {
            "type": "beneficiaire",
            "value": "Hasnon, abbaye Saint-Pierre"
        },
        {
            "type": "cote",
            "value": "FRANCE, Paris, BNF, Collection Moreau, t. 28, f. 193"
        }
    ]
}