{
    "id": 1886,
    "name": "moreau-1360",
    "type": "acte",
    "url": "http:\/\/telma-chartes.irht.cnrs.fr\/moreau\/notice\/1886",
    "project_slug": "moreau",
    "project_label": "Inventaire Moreau",
    "user": "b_tock",
    "last_update": "2020-10-19 16:25:04",
    "licence": "Attribution - Pas d\u2019Utilisation Commerciale - Partage dans les M\u00eames Conditions 3.0 France (CC BY-NC-SA 3.0 FR) ",
    "licence_url": "https:\/\/creativecommons.org\/licenses\/by-nc-sa\/3.0\/fr\/",
    "elements": [
        {
            "type": "date",
            "value": "apres 0963 - avant 0994",
            "children": {
                "date_deb_annee": "0963",
                "date_deb_type": "apres",
                "date_fin_annee": "0994",
                "date_fin_type": "avant"
            },
            "range": {
                "date_apres": 9630000,
                "date_avant": 9949999
            }
        },
        {
            "type": "auteur",
            "value": "G\u00e9rard, \u00e9v\u00eaque de Toul"
        },
        {
            "type": "beneficiaire",
            "value": "Bouxi\u00e8res-aux-Dames, abbaye Notre-Dame"
        },
        {
            "type": "cote",
            "value": "FRANCE, Paris, BNF, Collection Moreau, t. 10, f. 13"
        }
    ]
}