{
    "id": 9773,
    "name": "moreau-9247",
    "type": "acte",
    "url": "http:\/\/telma-chartes.irht.cnrs.fr\/moreau\/notice\/9773",
    "project_slug": "moreau",
    "project_label": "Inventaire Moreau",
    "user": "b_tock",
    "last_update": "2020-10-19 16:25:36",
    "licence": "Attribution - Pas d\u2019Utilisation Commerciale - Partage dans les M\u00eames Conditions 3.0 France (CC BY-NC-SA 3.0 FR) ",
    "licence_url": "https:\/\/creativecommons.org\/licenses\/by-nc-sa\/3.0\/fr\/",
    "elements": [
        {
            "type": "date",
            "value": "1161\/05\/27",
            "children": {
                "date_deb_annee": "1161",
                "date_deb_mois": "05",
                "date_deb_jour": "27"
            },
            "range": {
                "date_apres": 11610527,
                "date_avant": 11610527
            }
        },
        {
            "type": "auteur",
            "value": "Guillaume, \u00e9v\u00eaque du Mans"
        },
        {
            "type": "beneficiaire",
            "value": "Le Mans, abbaye Saint-Vincent"
        },
        {
            "type": "cote",
            "value": "FRANCE, Paris, BNF, Collection Moreau, t. 71, f. 11"
        }
    ]
}