{
    "id": 803,
    "name": "moreau-277",
    "type": "acte",
    "url": "http:\/\/telma-chartes.irht.cnrs.fr\/moreau\/notice\/803",
    "project_slug": "moreau",
    "project_label": "Inventaire Moreau",
    "user": "b_tock",
    "last_update": "2020-10-19 16:24:59",
    "licence": "Attribution - Pas d\u2019Utilisation Commerciale - Partage dans les M\u00eames Conditions 3.0 France (CC BY-NC-SA 3.0 FR) ",
    "licence_url": "https:\/\/creativecommons.org\/licenses\/by-nc-sa\/3.0\/fr\/",
    "elements": [
        {
            "type": "date",
            "value": "0892\/06",
            "children": {
                "date_deb_annee": "0892",
                "date_deb_mois": "06"
            },
            "range": {
                "date_apres": 8920600,
                "date_avant": 8920699
            }
        },
        {
            "type": "remarques",
            "value": "archives de l'abbaye de Nouaill\u00e9"
        },
        {
            "type": "auteur",
            "value": "Segoinus"
        },
        {
            "type": "beneficiaire",
            "value": "Itier"
        },
        {
            "type": "cote",
            "value": "FRANCE, Paris, BNF, Collection Moreau, t. 3, f. 72"
        }
    ]
}