{
    "id": 9579,
    "name": "moreau-9053",
    "type": "acte",
    "url": "http:\/\/telma-chartes.irht.cnrs.fr\/moreau\/notice\/9579",
    "project_slug": "moreau",
    "project_label": "Inventaire Moreau",
    "user": "b_tock",
    "last_update": "2020-10-19 16:25:35",
    "licence": "Attribution - Pas d\u2019Utilisation Commerciale - Partage dans les M\u00eames Conditions 3.0 France (CC BY-NC-SA 3.0 FR) ",
    "licence_url": "https:\/\/creativecommons.org\/licenses\/by-nc-sa\/3.0\/fr\/",
    "elements": [
        {
            "type": "date",
            "value": "1159\/07\/07",
            "children": {
                "date_deb_annee": "1159",
                "date_deb_mois": "07",
                "date_deb_jour": "07"
            },
            "range": {
                "date_apres": 11590707,
                "date_avant": 11590707
            }
        },
        {
            "type": "auteur",
            "value": "Hellin, archev\u00eaque de Tr\u00e8ves"
        },
        {
            "type": "beneficiaire",
            "value": "Verdun, cath\u00e9drale Notre-Dame"
        },
        {
            "type": "cote",
            "value": "FRANCE, Paris, BNF, Collection Moreau, t. 69, f. 127"
        }
    ]
}