{
    "id": 13096,
    "name": "moreau-12570",
    "type": "acte",
    "url": "http:\/\/telma-chartes.irht.cnrs.fr\/moreau\/notice\/13096",
    "project_slug": "moreau",
    "project_label": "Inventaire Moreau",
    "user": "b_tock",
    "last_update": "2020-10-19 16:25:48",
    "licence": "Attribution - Pas d\u2019Utilisation Commerciale - Partage dans les M\u00eames Conditions 3.0 France (CC BY-NC-SA 3.0 FR) ",
    "licence_url": "https:\/\/creativecommons.org\/licenses\/by-nc-sa\/3.0\/fr\/",
    "elements": [
        {
            "type": "date",
            "value": "1102",
            "children": {
                "date_deb_annee": "1102"
            },
            "range": {
                "date_apres": 11020000,
                "date_avant": 11029999
            }
        },
        {
            "type": "auteur",
            "value": "Eudes, duc de Bourgogne"
        },
        {
            "type": "beneficiaire",
            "value": "Cluny, abbaye Saint-Pierre-et-Saint-Paul"
        },
        {
            "type": "cote",
            "value": "FRANCE, Paris, BNF, Collection Moreau, t. 100, f. 122"
        }
    ]
}