{
    "id": 927,
    "name": "moreau-401",
    "type": "acte",
    "url": "http:\/\/telma-chartes.irht.cnrs.fr\/moreau\/notice\/927",
    "project_slug": "moreau",
    "project_label": "Inventaire Moreau",
    "user": "b_tock",
    "last_update": "2020-10-19 16:24:59",
    "licence": "Attribution - Pas d\u2019Utilisation Commerciale - Partage dans les M\u00eames Conditions 3.0 France (CC BY-NC-SA 3.0 FR) ",
    "licence_url": "https:\/\/creativecommons.org\/licenses\/by-nc-sa\/3.0\/fr\/",
    "elements": [
        {
            "type": "date_libre",
            "value": "907\/912-11-11"
        },
        {
            "type": "date",
            "value": "apres 0907 - avant 0912\/11\/11",
            "children": {
                "date_deb_annee": "0907",
                "date_deb_type": "apres",
                "date_fin_annee": "0912",
                "date_fin_mois": "11",
                "date_fin_jour": "11",
                "date_fin_type": "avant"
            },
            "range": {
                "date_apres": 9070000,
                "date_avant": 9121111
            }
        },
        {
            "type": "auteur",
            "value": "Robert, abb\u00e9 de Saint-Martin de Marmoutier"
        },
        {
            "type": "beneficiaire",
            "value": "Marmoutier, abbaye Saint-Martin"
        },
        {
            "type": "cote",
            "value": "FRANCE, Paris, BNF, Collection Moreau, t. 4, f. 6"
        }
    ]
}