{
    "id": 1988,
    "name": "moreau-1462",
    "type": "acte",
    "url": "http:\/\/telma-chartes.irht.cnrs.fr\/moreau\/notice\/1988",
    "project_slug": "moreau",
    "project_label": "Inventaire Moreau",
    "user": "b_tock",
    "last_update": "2020-10-19 16:25:04",
    "licence": "Attribution - Pas d\u2019Utilisation Commerciale - Partage dans les M\u00eames Conditions 3.0 France (CC BY-NC-SA 3.0 FR) ",
    "licence_url": "https:\/\/creativecommons.org\/licenses\/by-nc-sa\/3.0\/fr\/",
    "elements": [
        {
            "type": "date",
            "value": "0969\/06\/09",
            "children": {
                "date_deb_annee": "0969",
                "date_deb_mois": "06",
                "date_deb_jour": "09"
            },
            "range": {
                "date_apres": 9690609,
                "date_avant": 9690609
            }
        },
        {
            "type": "auteur",
            "value": "Raymond, comte de Pallars"
        },
        {
            "type": "beneficiaire",
            "value": "Gerri, abbaye Notre-Dame"
        },
        {
            "type": "cote",
            "value": "FRANCE, Paris, BNF, Collection Moreau, t. 10, f. 171"
        }
    ]
}