{
    "id": 5578,
    "name": "moreau-5052",
    "type": "acte",
    "url": "http:\/\/telma-chartes.irht.cnrs.fr\/moreau\/notice\/5578",
    "project_slug": "moreau",
    "project_label": "Inventaire Moreau",
    "user": "b_tock",
    "last_update": "2020-10-19 16:25:19",
    "licence": "Attribution - Pas d\u2019Utilisation Commerciale - Partage dans les M\u00eames Conditions 3.0 France (CC BY-NC-SA 3.0 FR) ",
    "licence_url": "https:\/\/creativecommons.org\/licenses\/by-nc-sa\/3.0\/fr\/",
    "elements": [
        {
            "type": "date",
            "value": "1088\/11\/01",
            "children": {
                "date_deb_annee": "1088",
                "date_deb_mois": "11",
                "date_deb_jour": "01"
            },
            "range": {
                "date_apres": 10881101,
                "date_avant": 10881101
            }
        },
        {
            "type": "auteur",
            "value": "Urbain II, pape"
        },
        {
            "type": "beneficiaire",
            "value": "Cluny, abbaye Saint-Pierre-et-Saint-Paul"
        },
        {
            "type": "cote",
            "value": "FRANCE, Paris, BNF, Collection Moreau, t. 35, f. 56"
        }
    ]
}