{
    "id": 1352,
    "name": "moreau-826",
    "type": "acte",
    "url": "http:\/\/telma-chartes.irht.cnrs.fr\/moreau\/notice\/1352",
    "project_slug": "moreau",
    "project_label": "Inventaire Moreau",
    "user": "b_tock",
    "last_update": "2020-10-19 16:25:01",
    "licence": "Attribution - Pas d\u2019Utilisation Commerciale - Partage dans les M\u00eames Conditions 3.0 France (CC BY-NC-SA 3.0 FR) ",
    "licence_url": "https:\/\/creativecommons.org\/licenses\/by-nc-sa\/3.0\/fr\/",
    "elements": [
        {
            "type": "date",
            "value": "0944\/03\/28",
            "children": {
                "date_deb_annee": "0944",
                "date_deb_mois": "03",
                "date_deb_jour": "28"
            },
            "range": {
                "date_apres": 9440328,
                "date_avant": 9440328
            }
        },
        {
            "type": "auteur",
            "value": "Ad\u00e9mar, vicomte de Lyon"
        },
        {
            "type": "beneficiaire",
            "value": "Cluny, abbaye Saint-Pierre-et-Saint-Paul"
        },
        {
            "type": "cote",
            "value": "FRANCE, Paris, BNF, Collection Moreau, t. 7, f. 16"
        }
    ]
}