{
    "id": 8457,
    "name": "moreau-7931",
    "type": "acte",
    "url": "http:\/\/telma-chartes.irht.cnrs.fr\/moreau\/notice\/8457",
    "project_slug": "moreau",
    "project_label": "Inventaire Moreau",
    "user": "b_tock",
    "last_update": "2020-10-19 16:25:31",
    "licence": "Attribution - Pas d\u2019Utilisation Commerciale - Partage dans les M\u00eames Conditions 3.0 France (CC BY-NC-SA 3.0 FR) ",
    "licence_url": "https:\/\/creativecommons.org\/licenses\/by-nc-sa\/3.0\/fr\/",
    "elements": [
        {
            "type": "date",
            "value": "1141",
            "children": {
                "date_deb_annee": "1141"
            },
            "range": {
                "date_apres": 11410000,
                "date_avant": 11419999
            }
        },
        {
            "type": "auteur",
            "value": "Geoffroi, \u00e9v\u00eaque de Ch\u00e2lons"
        },
        {
            "type": "beneficiaire",
            "value": "Marmoutier, abbaye Saint-Martin"
        },
        {
            "type": "cote",
            "value": "FRANCE, Paris, BNF, Collection Moreau, t. 59, f. 163"
        }
    ]
}