{
    "id": 1508,
    "name": "moreau-982",
    "type": "acte",
    "url": "http:\/\/telma-chartes.irht.cnrs.fr\/moreau\/notice\/1508",
    "project_slug": "moreau",
    "project_label": "Inventaire Moreau",
    "user": "b_tock",
    "last_update": "2020-10-19 16:25:02",
    "licence": "Attribution - Pas d\u2019Utilisation Commerciale - Partage dans les M\u00eames Conditions 3.0 France (CC BY-NC-SA 3.0 FR) ",
    "licence_url": "https:\/\/creativecommons.org\/licenses\/by-nc-sa\/3.0\/fr\/",
    "elements": [
        {
            "type": "date",
            "value": "apres 0937 - avant 0993",
            "children": {
                "date_deb_annee": "0937",
                "date_deb_type": "apres",
                "date_fin_annee": "0993",
                "date_fin_type": "avant"
            },
            "range": {
                "date_apres": 9370000,
                "date_avant": 9939999
            }
        },
        {
            "type": "auteur",
            "value": "Pascal"
        },
        {
            "type": "beneficiaire",
            "value": "Ad\u00e9mar"
        },
        {
            "type": "cote",
            "value": "FRANCE, Paris, BNF, Collection Moreau, t. 7, f. 231"
        }
    ]
}