{
    "id": 2674,
    "name": "moreau-2148",
    "type": "acte",
    "url": "http:\/\/telma-chartes.irht.cnrs.fr\/moreau\/notice\/2674",
    "project_slug": "moreau",
    "project_label": "Inventaire Moreau",
    "user": "b_tock",
    "last_update": "2020-10-19 16:25:07",
    "licence": "Attribution - Pas d\u2019Utilisation Commerciale - Partage dans les M\u00eames Conditions 3.0 France (CC BY-NC-SA 3.0 FR) ",
    "licence_url": "https:\/\/creativecommons.org\/licenses\/by-nc-sa\/3.0\/fr\/",
    "elements": [
        {
            "type": "date",
            "value": "0991\/03",
            "children": {
                "date_deb_annee": "0991",
                "date_deb_mois": "03"
            },
            "range": {
                "date_apres": 9910300,
                "date_avant": 9910399
            }
        },
        {
            "type": "remarques",
            "value": "notice"
        },
        {
            "type": "auteur",
            "value": "Cluny, abbaye Saint-Pierre-et-Saint-Paul"
        },
        {
            "type": "beneficiaire",
            "value": "Gotefredus"
        },
        {
            "type": "cote",
            "value": "FRANCE, Paris, BNF, Collection Moreau, t. 14, f. 219"
        }
    ]
}