{
    "id": 6470,
    "name": "moreau-5944",
    "type": "acte",
    "url": "http:\/\/telma-chartes.irht.cnrs.fr\/moreau\/notice\/6470",
    "project_slug": "moreau",
    "project_label": "Inventaire Moreau",
    "user": "b_tock",
    "last_update": "2020-10-19 16:25:22",
    "licence": "Attribution - Pas d\u2019Utilisation Commerciale - Partage dans les M\u00eames Conditions 3.0 France (CC BY-NC-SA 3.0 FR) ",
    "licence_url": "https:\/\/creativecommons.org\/licenses\/by-nc-sa\/3.0\/fr\/",
    "elements": [
        {
            "type": "date",
            "value": "1103\/05\/17",
            "children": {
                "date_deb_annee": "1103",
                "date_deb_mois": "05",
                "date_deb_jour": "17"
            },
            "range": {
                "date_apres": 11030517,
                "date_avant": 11030517
            }
        },
        {
            "type": "auteur",
            "value": "Pascal II, pape"
        },
        {
            "type": "beneficiaire",
            "value": "Aurillac, abbaye Saint-G\u00e9raud"
        },
        {
            "type": "cote",
            "value": "FRANCE, Paris, BNF, Collection Moreau, t. 41, f. 92"
        }
    ]
}