{
    "id": 10562,
    "name": "moreau-10036",
    "type": "acte",
    "url": "http:\/\/telma-chartes.irht.cnrs.fr\/moreau\/notice\/10562",
    "project_slug": "moreau",
    "project_label": "Inventaire Moreau",
    "user": "b_tock",
    "last_update": "2020-10-19 16:25:39",
    "licence": "Attribution - Pas d\u2019Utilisation Commerciale - Partage dans les M\u00eames Conditions 3.0 France (CC BY-NC-SA 3.0 FR) ",
    "licence_url": "https:\/\/creativecommons.org\/licenses\/by-nc-sa\/3.0\/fr\/",
    "elements": [
        {
            "type": "date",
            "value": "1173\/05\/14",
            "children": {
                "date_deb_annee": "1173",
                "date_deb_mois": "05",
                "date_deb_jour": "14"
            },
            "range": {
                "date_apres": 11730514,
                "date_avant": 11730514
            }
        },
        {
            "type": "auteur",
            "value": "Alphonse, roi d'Aragon"
        },
        {
            "type": "beneficiaire",
            "value": "Perpignan, ville"
        },
        {
            "type": "cote",
            "value": "FRANCE, Paris, BNF, Collection Moreau, t. 78, f. 90"
        }
    ]
}