{
    "id": 11555,
    "name": "moreau-11029",
    "type": "acte",
    "url": "http:\/\/telma-chartes.irht.cnrs.fr\/moreau\/notice\/11555",
    "project_slug": "moreau",
    "project_label": "Inventaire Moreau",
    "user": "b_tock",
    "last_update": "2020-10-19 16:25:43",
    "licence": "Attribution - Pas d\u2019Utilisation Commerciale - Partage dans les M\u00eames Conditions 3.0 France (CC BY-NC-SA 3.0 FR) ",
    "licence_url": "https:\/\/creativecommons.org\/licenses\/by-nc-sa\/3.0\/fr\/",
    "elements": [
        {
            "type": "date",
            "value": "1184\/06\/15",
            "children": {
                "date_deb_annee": "1184",
                "date_deb_mois": "06",
                "date_deb_jour": "15"
            },
            "range": {
                "date_apres": 11840615,
                "date_avant": 11840615
            }
        },
        {
            "type": "auteur",
            "value": "Lucius III, pape"
        },
        {
            "type": "beneficiaire",
            "value": "Marchiennes, abbaye Sainte-Rictrude-et-Saint-Pierre"
        },
        {
            "type": "cote",
            "value": "FRANCE, Paris, BNF, Collection Moreau, t. 87, f. 103"
        }
    ]
}