{
    "id": 13513,
    "name": "moreau-12987",
    "type": "acte",
    "url": "http:\/\/telma-chartes.irht.cnrs.fr\/moreau\/notice\/13513",
    "project_slug": "moreau",
    "project_label": "Inventaire Moreau",
    "user": "b_tock",
    "last_update": "2020-10-19 16:25:50",
    "licence": "Attribution - Pas d\u2019Utilisation Commerciale - Partage dans les M\u00eames Conditions 3.0 France (CC BY-NC-SA 3.0 FR) ",
    "licence_url": "https:\/\/creativecommons.org\/licenses\/by-nc-sa\/3.0\/fr\/",
    "elements": [
        {
            "type": "date",
            "value": "1202\/10",
            "children": {
                "date_deb_annee": "1202",
                "date_deb_mois": "10"
            },
            "range": {
                "date_apres": 12021000,
                "date_avant": 12021099
            }
        },
        {
            "type": "auteur",
            "value": "Alice, dame de Coucy"
        },
        {
            "type": "beneficiaire",
            "value": "Mont-Saint-Quentin, abbaye"
        },
        {
            "type": "cote",
            "value": "FRANCE, Paris, BNF, Collection Moreau, t. 104, f. 3"
        }
    ]
}