{
    "id": 12795,
    "name": "moreau-12269",
    "type": "acte",
    "url": "http:\/\/telma-chartes.irht.cnrs.fr\/moreau\/notice\/12795",
    "project_slug": "moreau",
    "project_label": "Inventaire Moreau",
    "user": "b_tock",
    "last_update": "2020-10-19 16:25:47",
    "licence": "Attribution - Pas d\u2019Utilisation Commerciale - Partage dans les M\u00eames Conditions 3.0 France (CC BY-NC-SA 3.0 FR) ",
    "licence_url": "https:\/\/creativecommons.org\/licenses\/by-nc-sa\/3.0\/fr\/",
    "elements": [
        {
            "type": "date",
            "value": "1196\/01",
            "children": {
                "date_deb_annee": "1196",
                "date_deb_mois": "01"
            },
            "range": {
                "date_apres": 11960100,
                "date_avant": 11960199
            }
        },
        {
            "type": "remarques",
            "value": "vidimus en 1310"
        },
        {
            "type": "auteur",
            "value": "Pierre, roi d'Aragon"
        },
        {
            "type": "beneficiaire",
            "value": "Perpignan, h\u00f4pital"
        },
        {
            "type": "cote",
            "value": "FRANCE, Paris, BNF, Collection Moreau, t. 97, f. 201"
        }
    ]
}