{
    "id": 614,
    "name": "moreau-88",
    "type": "acte",
    "url": "http:\/\/telma-chartes.irht.cnrs.fr\/moreau\/notice\/614",
    "project_slug": "moreau",
    "project_label": "Inventaire Moreau",
    "user": "b_tock",
    "last_update": "2020-10-19 16:24:58",
    "licence": "Attribution - Pas d\u2019Utilisation Commerciale - Partage dans les M\u00eames Conditions 3.0 France (CC BY-NC-SA 3.0 FR) ",
    "licence_url": "https:\/\/creativecommons.org\/licenses\/by-nc-sa\/3.0\/fr\/",
    "elements": [
        {
            "type": "date",
            "value": "0821\/03\/23",
            "children": {
                "date_deb_annee": "0821",
                "date_deb_mois": "03",
                "date_deb_jour": "23"
            },
            "range": {
                "date_apres": 8210323,
                "date_avant": 8210323
            }
        },
        {
            "type": "auteur",
            "value": "Charles le Chauve, roi des Francs"
        },
        {
            "type": "beneficiaire",
            "value": "Saint-Amand, abbaye"
        },
        {
            "type": "cote",
            "value": "FRANCE, Paris, BNF, Collection Moreau, t. 1, f. 177"
        }
    ]
}