{
    "id": 9760,
    "name": "moreau-9234",
    "type": "acte",
    "url": "http:\/\/telma-chartes.irht.cnrs.fr\/moreau\/notice\/9760",
    "project_slug": "moreau",
    "project_label": "Inventaire Moreau",
    "user": "b_tock",
    "last_update": "2020-10-19 16:25:36",
    "licence": "Attribution - Pas d\u2019Utilisation Commerciale - Partage dans les M\u00eames Conditions 3.0 France (CC BY-NC-SA 3.0 FR) ",
    "licence_url": "https:\/\/creativecommons.org\/licenses\/by-nc-sa\/3.0\/fr\/",
    "elements": [
        {
            "type": "date",
            "value": "1177\/06\/04",
            "children": {
                "date_deb_annee": "1177",
                "date_deb_mois": "06",
                "date_deb_jour": "04"
            },
            "range": {
                "date_apres": 11770604,
                "date_avant": 11770604
            }
        },
        {
            "type": "auteur",
            "value": "Alexandre III, pape"
        },
        {
            "type": "beneficiaire",
            "value": "Hasnon, abbaye Saint-Pierre"
        },
        {
            "type": "cote",
            "value": "FRANCE, Paris, BNF, Collection Moreau, t. 70, f. 254"
        }
    ]
}