{
    "id": 5432,
    "name": "moreau-4906",
    "type": "acte",
    "url": "http:\/\/telma-chartes.irht.cnrs.fr\/moreau\/notice\/5432",
    "project_slug": "moreau",
    "project_label": "Inventaire Moreau",
    "user": "b_tock",
    "last_update": "2020-10-19 16:25:18",
    "licence": "Attribution - Pas d\u2019Utilisation Commerciale - Partage dans les M\u00eames Conditions 3.0 France (CC BY-NC-SA 3.0 FR) ",
    "licence_url": "https:\/\/creativecommons.org\/licenses\/by-nc-sa\/3.0\/fr\/",
    "elements": [
        {
            "type": "date",
            "value": "1087\/11\/20",
            "children": {
                "date_deb_annee": "1087",
                "date_deb_mois": "11",
                "date_deb_jour": "20"
            },
            "range": {
                "date_apres": 10871120,
                "date_avant": 10871120
            }
        },
        {
            "type": "auteur",
            "value": "Liudbaldus de Puliaco"
        },
        {
            "type": "beneficiaire",
            "value": "Cluny, abbaye Saint-Pierre-et-Saint-Paul"
        },
        {
            "type": "cote",
            "value": "FRANCE, Paris, BNF, Collection Moreau, t. 34, f. 4"
        }
    ]
}