{
    "id": 4879,
    "name": "moreau-4353",
    "type": "acte",
    "url": "http:\/\/telma-chartes.irht.cnrs.fr\/moreau\/notice\/4879",
    "project_slug": "moreau",
    "project_label": "Inventaire Moreau",
    "user": "b_tock",
    "last_update": "2020-10-19 16:25:16",
    "licence": "Attribution - Pas d\u2019Utilisation Commerciale - Partage dans les M\u00eames Conditions 3.0 France (CC BY-NC-SA 3.0 FR) ",
    "licence_url": "https:\/\/creativecommons.org\/licenses\/by-nc-sa\/3.0\/fr\/",
    "elements": [
        {
            "type": "date",
            "value": "1070",
            "children": {
                "date_deb_annee": "1070"
            },
            "range": {
                "date_apres": 10700000,
                "date_avant": 10709999
            }
        },
        {
            "type": "auteur",
            "value": "Adalb\u00e9ron, \u00e9v\u00eaque de Metz"
        },
        {
            "type": "beneficiaire",
            "value": "Metz, abbaye Saint-Arnoul"
        },
        {
            "type": "cote",
            "value": "FRANCE, Paris, BNF, Collection Moreau, t. 30, f. 57"
        }
    ]
}