{
    "id": 7266,
    "name": "moreau-6740",
    "type": "acte",
    "url": "http:\/\/telma-chartes.irht.cnrs.fr\/moreau\/notice\/7266",
    "project_slug": "moreau",
    "project_label": "Inventaire Moreau",
    "user": "b_tock",
    "last_update": "2020-10-19 16:25:26",
    "licence": "Attribution - Pas d\u2019Utilisation Commerciale - Partage dans les M\u00eames Conditions 3.0 France (CC BY-NC-SA 3.0 FR) ",
    "licence_url": "https:\/\/creativecommons.org\/licenses\/by-nc-sa\/3.0\/fr\/",
    "elements": [
        {
            "type": "date",
            "value": "1116",
            "children": {
                "date_deb_annee": "1116"
            },
            "range": {
                "date_apres": 11160000,
                "date_avant": 11169999
            }
        },
        {
            "type": "auteur",
            "value": "Robert Rofiniaci"
        },
        {
            "type": "beneficiaire",
            "value": "Vigeois, abbaye Saint-Pierre"
        },
        {
            "type": "cote",
            "value": "FRANCE, Paris, BNF, Collection Moreau, t. 48, f. 22"
        }
    ]
}