{
    "id": 9423,
    "name": "moreau-8897",
    "type": "acte",
    "url": "http:\/\/telma-chartes.irht.cnrs.fr\/moreau\/notice\/9423",
    "project_slug": "moreau",
    "project_label": "Inventaire Moreau",
    "user": "b_tock",
    "last_update": "2020-10-19 16:25:34",
    "licence": "Attribution - Pas d\u2019Utilisation Commerciale - Partage dans les M\u00eames Conditions 3.0 France (CC BY-NC-SA 3.0 FR) ",
    "licence_url": "https:\/\/creativecommons.org\/licenses\/by-nc-sa\/3.0\/fr\/",
    "elements": [
        {
            "type": "date",
            "value": "1156",
            "children": {
                "date_deb_annee": "1156"
            },
            "range": {
                "date_apres": 11560000,
                "date_avant": 11569999
            }
        },
        {
            "type": "auteur",
            "value": "Thibaud, comte de Blois"
        },
        {
            "type": "beneficiaire",
            "value": "Chartres, cath\u00e9drale Notre-Dame"
        },
        {
            "type": "cote",
            "value": "FRANCE, Paris, BNF, Collection Moreau, t. 68, f. 46"
        }
    ]
}