{
    "id": 12648,
    "name": "moreau-12122",
    "type": "acte",
    "url": "http:\/\/telma-chartes.irht.cnrs.fr\/moreau\/notice\/12648",
    "project_slug": "moreau",
    "project_label": "Inventaire Moreau",
    "user": "b_tock",
    "last_update": "2020-10-19 16:25:46",
    "licence": "Attribution - Pas d\u2019Utilisation Commerciale - Partage dans les M\u00eames Conditions 3.0 France (CC BY-NC-SA 3.0 FR) ",
    "licence_url": "https:\/\/creativecommons.org\/licenses\/by-nc-sa\/3.0\/fr\/",
    "elements": [
        {
            "type": "date",
            "value": "1195",
            "children": {
                "date_deb_annee": "1195"
            },
            "range": {
                "date_apres": 11950000,
                "date_avant": 11959999
            }
        },
        {
            "type": "auteur",
            "value": "Am\u00e9d\u00e9e, archev\u00eaque de Besan\u00e7on"
        },
        {
            "type": "beneficiaire",
            "value": "Buillon, abbaye Notre-Dame"
        },
        {
            "type": "cote",
            "value": "FRANCE, Paris, BNF, Collection Moreau, t. 96, f. 163"
        }
    ]
}