{
    "id": 14495,
    "name": "moreau-13969",
    "type": "acte",
    "url": "http:\/\/telma-chartes.irht.cnrs.fr\/moreau\/notice\/14495",
    "project_slug": "moreau",
    "project_label": "Inventaire Moreau",
    "user": "b_tock",
    "last_update": "2020-10-19 16:25:54",
    "licence": "Attribution - Pas d\u2019Utilisation Commerciale - Partage dans les M\u00eames Conditions 3.0 France (CC BY-NC-SA 3.0 FR) ",
    "licence_url": "https:\/\/creativecommons.org\/licenses\/by-nc-sa\/3.0\/fr\/",
    "elements": [
        {
            "type": "date",
            "value": "apres 1190 - avant 1214",
            "children": {
                "date_deb_annee": "1190",
                "date_deb_type": "apres",
                "date_fin_annee": "1214",
                "date_fin_type": "avant"
            },
            "range": {
                "date_apres": 11900000,
                "date_avant": 12149999
            }
        },
        {
            "type": "auteur",
            "value": "Hamelin, \u00e9v\u00eaque du Mans"
        },
        {
            "type": "beneficiaire",
            "value": "Le Mans, abbaye Saint-Vincent"
        },
        {
            "type": "cote",
            "value": "FRANCE, Paris, BNF, Collection Moreau, t. 111, f. 232"
        }
    ]
}