{
    "id": 12918,
    "name": "moreau-12392",
    "type": "acte",
    "url": "http:\/\/telma-chartes.irht.cnrs.fr\/moreau\/notice\/12918",
    "project_slug": "moreau",
    "project_label": "Inventaire Moreau",
    "user": "b_tock",
    "last_update": "2020-10-19 16:25:48",
    "licence": "Attribution - Pas d\u2019Utilisation Commerciale - Partage dans les M\u00eames Conditions 3.0 France (CC BY-NC-SA 3.0 FR) ",
    "licence_url": "https:\/\/creativecommons.org\/licenses\/by-nc-sa\/3.0\/fr\/",
    "elements": [
        {
            "type": "date",
            "value": "1198\/05\/16",
            "children": {
                "date_deb_annee": "1198",
                "date_deb_mois": "05",
                "date_deb_jour": "16"
            },
            "range": {
                "date_apres": 11980516,
                "date_avant": 11980516
            }
        },
        {
            "type": "remarques",
            "value": "\u00e0 l'abb\u00e9 Pr\u00e9montr\u00e9, archidiacre et chanoine cath\u00e9drale Laon"
        },
        {
            "type": "auteur",
            "value": "Innocent III, pape"
        },
        {
            "type": "beneficiaire",
            "value": "Ribemont, abbaye Saint-Nicolas-des-Pr\u00e8s"
        },
        {
            "type": "cote",
            "value": "FRANCE, Paris, BNF, Collection Moreau, t. 99, f. 6"
        }
    ]
}