{
    "id": 1717,
    "name": "moreau-1191",
    "type": "acte",
    "url": "http:\/\/telma-chartes.irht.cnrs.fr\/moreau\/notice\/1717",
    "project_slug": "moreau",
    "project_label": "Inventaire Moreau",
    "user": "b_tock",
    "last_update": "2020-10-19 16:25:03",
    "licence": "Attribution - Pas d\u2019Utilisation Commerciale - Partage dans les M\u00eames Conditions 3.0 France (CC BY-NC-SA 3.0 FR) ",
    "licence_url": "https:\/\/creativecommons.org\/licenses\/by-nc-sa\/3.0\/fr\/",
    "elements": [
        {
            "type": "date",
            "value": "0958\/06\/13",
            "children": {
                "date_deb_annee": "0958",
                "date_deb_mois": "06",
                "date_deb_jour": "13"
            },
            "range": {
                "date_apres": 9580613,
                "date_avant": 9580613
            }
        },
        {
            "type": "auteur",
            "value": "Otton Ier, roi de Germanie"
        },
        {
            "type": "beneficiaire",
            "value": "Cambrai, cath\u00e9drale Notre-Dame de Gr\u00e2ce"
        },
        {
            "type": "cote",
            "value": "FRANCE, Paris, BNF, Collection Moreau, t. 9, f. 40"
        }
    ]
}