{
    "id": 4718,
    "name": "moreau-4192",
    "type": "acte",
    "url": "http:\/\/telma-chartes.irht.cnrs.fr\/moreau\/notice\/4718",
    "project_slug": "moreau",
    "project_label": "Inventaire Moreau",
    "user": "b_tock",
    "last_update": "2020-10-19 16:25:16",
    "licence": "Attribution - Pas d\u2019Utilisation Commerciale - Partage dans les M\u00eames Conditions 3.0 France (CC BY-NC-SA 3.0 FR) ",
    "licence_url": "https:\/\/creativecommons.org\/licenses\/by-nc-sa\/3.0\/fr\/",
    "elements": [
        {
            "type": "date",
            "value": "1065\/08\/07",
            "children": {
                "date_deb_annee": "1065",
                "date_deb_mois": "08",
                "date_deb_jour": "07"
            },
            "range": {
                "date_apres": 10650807,
                "date_avant": 10650807
            }
        },
        {
            "type": "auteur",
            "value": "Henri IV, roi des Romains"
        },
        {
            "type": "beneficiaire",
            "value": "Verdun, cath\u00e9drale Notre-Dame"
        },
        {
            "type": "cote",
            "value": "FRANCE, Paris, BNF, Collection Moreau, t. 28, f. 183"
        }
    ]
}