{
    "id": 9921,
    "name": "moreau-9395",
    "type": "acte",
    "url": "http:\/\/telma-chartes.irht.cnrs.fr\/moreau\/notice\/9921",
    "project_slug": "moreau",
    "project_label": "Inventaire Moreau",
    "user": "b_tock",
    "last_update": "2020-10-19 16:25:36",
    "licence": "Attribution - Pas d\u2019Utilisation Commerciale - Partage dans les M\u00eames Conditions 3.0 France (CC BY-NC-SA 3.0 FR) ",
    "licence_url": "https:\/\/creativecommons.org\/licenses\/by-nc-sa\/3.0\/fr\/",
    "elements": [
        {
            "type": "date",
            "value": "1163",
            "children": {
                "date_deb_annee": "1163"
            },
            "range": {
                "date_apres": 11630000,
                "date_avant": 11639999
            }
        },
        {
            "type": "auteur",
            "value": "T., pr\u00e9v\u00f4t"
        },
        {
            "type": "auteur",
            "value": "Cambrai, chapitre cath\u00e9dral Notre-Dame de Gr\u00e2ce"
        },
        {
            "type": "beneficiaire",
            "value": "Cambrai, cath\u00e9drale Notre-Dame de Gr\u00e2ce"
        },
        {
            "type": "cote",
            "value": "FRANCE, Paris, BNF, Collection Moreau, t. 72, f. 124"
        }
    ]
}