{
    "id": 10110,
    "name": "moreau-9584",
    "type": "acte",
    "url": "http:\/\/telma-chartes.irht.cnrs.fr\/moreau\/notice\/10110",
    "project_slug": "moreau",
    "project_label": "Inventaire Moreau",
    "user": "b_tock",
    "last_update": "2020-10-19 16:25:37",
    "licence": "Attribution - Pas d\u2019Utilisation Commerciale - Partage dans les M\u00eames Conditions 3.0 France (CC BY-NC-SA 3.0 FR) ",
    "licence_url": "https:\/\/creativecommons.org\/licenses\/by-nc-sa\/3.0\/fr\/",
    "elements": [
        {
            "type": "date",
            "value": "1164\/10\/20",
            "children": {
                "date_deb_annee": "1164",
                "date_deb_mois": "10",
                "date_deb_jour": "20"
            },
            "range": {
                "date_apres": 11641020,
                "date_avant": 11641020
            }
        },
        {
            "type": "remarques",
            "value": "Jaff\u00e9, 11071"
        },
        {
            "type": "auteur",
            "value": "Alexandre III, pape"
        },
        {
            "type": "beneficiaire",
            "value": "Compi\u00e8gne, abbaye Saint-Corneille"
        },
        {
            "type": "cote",
            "value": "FRANCE, Paris, BNF, Collection Moreau, t. 74, f. 79"
        }
    ]
}