{
    "id": 3509,
    "name": "moreau-2983",
    "type": "acte",
    "url": "http:\/\/telma-chartes.irht.cnrs.fr\/moreau\/notice\/3509",
    "project_slug": "moreau",
    "project_label": "Inventaire Moreau",
    "user": "b_tock",
    "last_update": "2020-10-19 16:25:11",
    "licence": "Attribution - Pas d\u2019Utilisation Commerciale - Partage dans les M\u00eames Conditions 3.0 France (CC BY-NC-SA 3.0 FR) ",
    "licence_url": "https:\/\/creativecommons.org\/licenses\/by-nc-sa\/3.0\/fr\/",
    "elements": [
        {
            "type": "date",
            "value": "apres 1017 - avant 1018",
            "children": {
                "date_deb_annee": "1017",
                "date_deb_type": "apres",
                "date_fin_annee": "1018",
                "date_fin_type": "avant"
            },
            "range": {
                "date_apres": 10170000,
                "date_avant": 10189999
            }
        },
        {
            "type": "auteur",
            "value": "Letberga"
        },
        {
            "type": "beneficiaire",
            "value": "Cluny, abbaye Saint-Pierre-et-Saint-Paul"
        },
        {
            "type": "cote",
            "value": "FRANCE, Paris, BNF, Collection Moreau, t. 19, f. 119"
        }
    ]
}