{
    "id": 2528,
    "name": "moreau-2002",
    "type": "acte",
    "url": "http:\/\/telma-chartes.irht.cnrs.fr\/moreau\/notice\/2528",
    "project_slug": "moreau",
    "project_label": "Inventaire Moreau",
    "user": "b_tock",
    "last_update": "2020-10-19 16:25:07",
    "licence": "Attribution - Pas d\u2019Utilisation Commerciale - Partage dans les M\u00eames Conditions 3.0 France (CC BY-NC-SA 3.0 FR) ",
    "licence_url": "https:\/\/creativecommons.org\/licenses\/by-nc-sa\/3.0\/fr\/",
    "elements": [
        {
            "type": "date",
            "value": "0987\/08\/25",
            "children": {
                "date_deb_annee": "0987",
                "date_deb_mois": "08",
                "date_deb_jour": "25"
            },
            "range": {
                "date_apres": 9870825,
                "date_avant": 9870825
            }
        },
        {
            "type": "auteur",
            "value": "Hugues Capet, roi de France"
        },
        {
            "type": "beneficiaire",
            "value": "Micy, abbaye Saint-Mesmin"
        },
        {
            "type": "cote",
            "value": "FRANCE, Paris, BNF, Collection Moreau, t. 14, f. 7"
        }
    ]
}