{
    "id": 5184,
    "name": "moreau-4658",
    "type": "acte",
    "url": "http:\/\/telma-chartes.irht.cnrs.fr\/moreau\/notice\/5184",
    "project_slug": "moreau",
    "project_label": "Inventaire Moreau",
    "user": "b_tock",
    "last_update": "2020-10-19 16:25:17",
    "licence": "Attribution - Pas d\u2019Utilisation Commerciale - Partage dans les M\u00eames Conditions 3.0 France (CC BY-NC-SA 3.0 FR) ",
    "licence_url": "https:\/\/creativecommons.org\/licenses\/by-nc-sa\/3.0\/fr\/",
    "elements": [
        {
            "type": "date",
            "value": "1080\/05\/19",
            "children": {
                "date_deb_annee": "1080",
                "date_deb_mois": "05",
                "date_deb_jour": "19"
            },
            "range": {
                "date_apres": 10800519,
                "date_avant": 10800519
            }
        },
        {
            "type": "auteur",
            "value": "Hugues de Langeais"
        },
        {
            "type": "beneficiaire",
            "value": "Cormery, abbaye Saint-Paul"
        },
        {
            "type": "cote",
            "value": "FRANCE, Paris, BNF, Collection Moreau, t. 32, f. 118"
        }
    ]
}