{
    "id": 8203,
    "name": "moreau-7677",
    "type": "acte",
    "url": "http:\/\/telma-chartes.irht.cnrs.fr\/moreau\/notice\/8203",
    "project_slug": "moreau",
    "project_label": "Inventaire Moreau",
    "user": "b_tock",
    "last_update": "2020-10-19 16:25:30",
    "licence": "Attribution - Pas d\u2019Utilisation Commerciale - Partage dans les M\u00eames Conditions 3.0 France (CC BY-NC-SA 3.0 FR) ",
    "licence_url": "https:\/\/creativecommons.org\/licenses\/by-nc-sa\/3.0\/fr\/",
    "elements": [
        {
            "type": "date",
            "value": "1137\/07\/18",
            "children": {
                "date_deb_annee": "1137",
                "date_deb_mois": "07",
                "date_deb_jour": "18"
            },
            "range": {
                "date_apres": 11370718,
                "date_avant": 11370718
            }
        },
        {
            "type": "auteur",
            "value": "Raimond B\u00e9renger, comte de Barcelone"
        },
        {
            "type": "beneficiaire",
            "value": "Cuxa, abbaye Saint-Michel"
        },
        {
            "type": "cote",
            "value": "FRANCE, Paris, BNF, Collection Moreau, t. 57, f. 102"
        }
    ]
}