{
    "id": 3689,
    "name": "moreau-3163",
    "type": "acte",
    "url": "http:\/\/telma-chartes.irht.cnrs.fr\/moreau\/notice\/3689",
    "project_slug": "moreau",
    "project_label": "Inventaire Moreau",
    "user": "b_tock",
    "last_update": "2020-10-19 16:25:11",
    "licence": "Attribution - Pas d\u2019Utilisation Commerciale - Partage dans les M\u00eames Conditions 3.0 France (CC BY-NC-SA 3.0 FR) ",
    "licence_url": "https:\/\/creativecommons.org\/licenses\/by-nc-sa\/3.0\/fr\/",
    "elements": [
        {
            "type": "date_libre",
            "value": "1017\/1026-01-09"
        },
        {
            "type": "date",
            "value": "apres 1017 - avant 1026\/01\/09",
            "children": {
                "date_deb_annee": "1017",
                "date_deb_type": "apres",
                "date_fin_annee": "1026",
                "date_fin_mois": "01",
                "date_fin_jour": "09",
                "date_fin_type": "avant"
            },
            "range": {
                "date_apres": 10170000,
                "date_avant": 10260109
            }
        },
        {
            "type": "remarques",
            "value": "30e ann. Robert le Pieux"
        },
        {
            "type": "auteur",
            "value": "Segarius"
        },
        {
            "type": "beneficiaire",
            "value": "Cuxa, abbaye Saint-Michel"
        },
        {
            "type": "cote",
            "value": "FRANCE, Paris, BNF, Collection Moreau, t. 20, f. 160"
        }
    ]
}