{
    "id": 12406,
    "name": "moreau-11880",
    "type": "acte",
    "url": "http:\/\/telma-chartes.irht.cnrs.fr\/moreau\/notice\/12406",
    "project_slug": "moreau",
    "project_label": "Inventaire Moreau",
    "user": "b_tock",
    "last_update": "2020-10-19 16:25:46",
    "licence": "Attribution - Pas d\u2019Utilisation Commerciale - Partage dans les M\u00eames Conditions 3.0 France (CC BY-NC-SA 3.0 FR) ",
    "licence_url": "https:\/\/creativecommons.org\/licenses\/by-nc-sa\/3.0\/fr\/",
    "elements": [
        {
            "type": "date",
            "value": "1192",
            "children": {
                "date_deb_annee": "1192"
            },
            "range": {
                "date_apres": 11920000,
                "date_avant": 11929999
            }
        },
        {
            "type": "auteur",
            "value": "Geoffroi, seigneur de Joinville"
        },
        {
            "type": "beneficiaire",
            "value": "Saint-Urbain, abbaye"
        },
        {
            "type": "cote",
            "value": "FRANCE, Paris, BNF, Collection Moreau, t. 94, f. 202"
        }
    ]
}