{
    "id": 8530,
    "name": "moreau-8004",
    "type": "acte",
    "url": "http:\/\/telma-chartes.irht.cnrs.fr\/moreau\/notice\/8530",
    "project_slug": "moreau",
    "project_label": "Inventaire Moreau",
    "user": "b_tock",
    "last_update": "2020-10-19 16:25:31",
    "licence": "Attribution - Pas d\u2019Utilisation Commerciale - Partage dans les M\u00eames Conditions 3.0 France (CC BY-NC-SA 3.0 FR) ",
    "licence_url": "https:\/\/creativecommons.org\/licenses\/by-nc-sa\/3.0\/fr\/",
    "elements": [
        {
            "type": "date",
            "value": "1142\/01\/04",
            "children": {
                "date_deb_annee": "1142",
                "date_deb_mois": "01",
                "date_deb_jour": "04"
            },
            "range": {
                "date_apres": 11420104,
                "date_avant": 11420104
            }
        },
        {
            "type": "auteur",
            "value": "Raimond de Malloliis"
        },
        {
            "type": "beneficiaire",
            "value": "Elne, cath\u00e9drale Sainte-Eulalie-et-Sainte-Julie"
        },
        {
            "type": "cote",
            "value": "FRANCE, Paris, BNF, Collection Moreau, t. 60, f. 110"
        }
    ]
}