{
    "id": 11461,
    "name": "moreau-10935",
    "type": "acte",
    "url": "http:\/\/telma-chartes.irht.cnrs.fr\/moreau\/notice\/11461",
    "project_slug": "moreau",
    "project_label": "Inventaire Moreau",
    "user": "b_tock",
    "last_update": "2020-10-19 16:25:42",
    "licence": "Attribution - Pas d\u2019Utilisation Commerciale - Partage dans les M\u00eames Conditions 3.0 France (CC BY-NC-SA 3.0 FR) ",
    "licence_url": "https:\/\/creativecommons.org\/licenses\/by-nc-sa\/3.0\/fr\/",
    "elements": [
        {
            "type": "date",
            "value": "1183\/04\/29",
            "children": {
                "date_deb_annee": "1183",
                "date_deb_mois": "04",
                "date_deb_jour": "29"
            },
            "range": {
                "date_apres": 11830429,
                "date_avant": 11830429
            }
        },
        {
            "type": "auteur",
            "value": "Lucius III, pape"
        },
        {
            "type": "beneficiaire",
            "value": "Maroeuil, abbaye Saint-Amand-et-Sainte-Bertilie"
        },
        {
            "type": "cote",
            "value": "FRANCE, Paris, BNF, Collection Moreau, t. 86, f. 120"
        }
    ]
}