{
    "id": 13097,
    "name": "moreau-12571",
    "type": "acte",
    "url": "http:\/\/telma-chartes.irht.cnrs.fr\/moreau\/notice\/13097",
    "project_slug": "moreau",
    "project_label": "Inventaire Moreau",
    "user": "b_tock",
    "last_update": "2020-10-19 16:25:48",
    "licence": "Attribution - Pas d\u2019Utilisation Commerciale - Partage dans les M\u00eames Conditions 3.0 France (CC BY-NC-SA 3.0 FR) ",
    "licence_url": "https:\/\/creativecommons.org\/licenses\/by-nc-sa\/3.0\/fr\/",
    "elements": [
        {
            "type": "date",
            "value": "apres 1196 - avant 1208",
            "children": {
                "date_deb_annee": "1196",
                "date_deb_type": "apres",
                "date_fin_annee": "1208",
                "date_fin_type": "avant"
            },
            "range": {
                "date_apres": 11960000,
                "date_avant": 12089999
            }
        },
        {
            "type": "auteur",
            "value": "Paris, abbaye Saint-Magloire"
        },
        {
            "type": "beneficiaire",
            "value": "Eudes, \u00e9v\u00eaque de Paris"
        },
        {
            "type": "cote",
            "value": "FRANCE, Paris, BNF, Collection Moreau, t. 100, f. 124"
        }
    ]
}