{
    "id": 11563,
    "name": "moreau-11037",
    "type": "acte",
    "url": "http:\/\/telma-chartes.irht.cnrs.fr\/moreau\/notice\/11563",
    "project_slug": "moreau",
    "project_label": "Inventaire Moreau",
    "user": "b_tock",
    "last_update": "2020-10-19 16:25:43",
    "licence": "Attribution - Pas d\u2019Utilisation Commerciale - Partage dans les M\u00eames Conditions 3.0 France (CC BY-NC-SA 3.0 FR) ",
    "licence_url": "https:\/\/creativecommons.org\/licenses\/by-nc-sa\/3.0\/fr\/",
    "elements": [
        {
            "type": "date_libre",
            "value": "1184\/1185-11-13"
        },
        {
            "type": "date",
            "value": "apres 1184 - avant 1185\/11\/13",
            "children": {
                "date_deb_annee": "1184",
                "date_deb_type": "apres",
                "date_fin_annee": "1185",
                "date_fin_mois": "11",
                "date_fin_jour": "13",
                "date_fin_type": "avant"
            },
            "range": {
                "date_apres": 11840000,
                "date_avant": 11851113
            }
        },
        {
            "type": "remarques",
            "value": "lettre abb\u00e9 Saint-R\u00e9mi et doyen cath\u00e9drale Reims. Jaff\u00e9, 15328"
        },
        {
            "type": "auteur",
            "value": "Lucius III, pape"
        },
        {
            "type": "beneficiaire",
            "value": "Hautmont, abbaye Saint-Pierre-et-Saint-Paul"
        },
        {
            "type": "cote",
            "value": "FRANCE, Paris, BNF, Collection Moreau, t. 87, f. 117"
        }
    ]
}