{
    "id": 2720,
    "name": "moreau-2194",
    "type": "acte",
    "url": "http:\/\/telma-chartes.irht.cnrs.fr\/moreau\/notice\/2720",
    "project_slug": "moreau",
    "project_label": "Inventaire Moreau",
    "user": "b_tock",
    "last_update": "2020-10-19 16:25:08",
    "licence": "Attribution - Pas d\u2019Utilisation Commerciale - Partage dans les M\u00eames Conditions 3.0 France (CC BY-NC-SA 3.0 FR) ",
    "licence_url": "https:\/\/creativecommons.org\/licenses\/by-nc-sa\/3.0\/fr\/",
    "elements": [
        {
            "type": "date",
            "value": "0992\/12",
            "children": {
                "date_deb_annee": "0992",
                "date_deb_mois": "12"
            },
            "range": {
                "date_apres": 9921200,
                "date_avant": 9921299
            }
        },
        {
            "type": "auteur",
            "value": "Guillaume, duc d'Aquitaine"
        },
        {
            "type": "beneficiaire",
            "value": "Saint-Maixent, abbaye"
        },
        {
            "type": "cote",
            "value": "FRANCE, Paris, BNF, Collection Moreau, t. 15, f. 34"
        }
    ]
}