{
    "id": 12098,
    "name": "moreau-11572",
    "type": "acte",
    "url": "http:\/\/telma-chartes.irht.cnrs.fr\/moreau\/notice\/12098",
    "project_slug": "moreau",
    "project_label": "Inventaire Moreau",
    "user": "b_tock",
    "last_update": "2020-10-19 16:25:45",
    "licence": "Attribution - Pas d\u2019Utilisation Commerciale - Partage dans les M\u00eames Conditions 3.0 France (CC BY-NC-SA 3.0 FR) ",
    "licence_url": "https:\/\/creativecommons.org\/licenses\/by-nc-sa\/3.0\/fr\/",
    "elements": [
        {
            "type": "date",
            "value": "1190\/06\/24",
            "children": {
                "date_deb_annee": "1190",
                "date_deb_mois": "06",
                "date_deb_jour": "24"
            },
            "range": {
                "date_apres": 11900624,
                "date_avant": 11900624
            }
        },
        {
            "type": "auteur",
            "value": "Raoul, seigneur de Coucy"
        },
        {
            "type": "beneficiaire",
            "value": "Mont-Saint-Quentin, abbaye"
        },
        {
            "type": "cote",
            "value": "FRANCE, Paris, BNF, Collection Moreau, t. 92, f. 32"
        }
    ]
}