{
    "id": 13129,
    "name": "moreau-12603",
    "type": "acte",
    "url": "http:\/\/telma-chartes.irht.cnrs.fr\/moreau\/notice\/13129",
    "project_slug": "moreau",
    "project_label": "Inventaire Moreau",
    "user": "b_tock",
    "last_update": "2020-10-19 16:25:48",
    "licence": "Attribution - Pas d\u2019Utilisation Commerciale - Partage dans les M\u00eames Conditions 3.0 France (CC BY-NC-SA 3.0 FR) ",
    "licence_url": "https:\/\/creativecommons.org\/licenses\/by-nc-sa\/3.0\/fr\/",
    "elements": [
        {
            "type": "date",
            "value": "1200\/05\/26",
            "children": {
                "date_deb_annee": "1200",
                "date_deb_mois": "05",
                "date_deb_jour": "26"
            },
            "range": {
                "date_apres": 12000526,
                "date_avant": 12000526
            }
        },
        {
            "type": "auteur",
            "value": "Innocent III, pape"
        },
        {
            "type": "beneficiaire",
            "value": "La Bouteille, abbaye de Foigny"
        },
        {
            "type": "cote",
            "value": "FRANCE, Paris, BNF, Collection Moreau, t. 100, f. 185"
        }
    ]
}