{
    "id": 1251,
    "name": "moreau-725",
    "type": "acte",
    "url": "http:\/\/telma-chartes.irht.cnrs.fr\/moreau\/notice\/1251",
    "project_slug": "moreau",
    "project_label": "Inventaire Moreau",
    "user": "b_tock",
    "last_update": "2020-10-19 16:25:01",
    "licence": "Attribution - Pas d\u2019Utilisation Commerciale - Partage dans les M\u00eames Conditions 3.0 France (CC BY-NC-SA 3.0 FR) ",
    "licence_url": "https:\/\/creativecommons.org\/licenses\/by-nc-sa\/3.0\/fr\/",
    "elements": [
        {
            "type": "date",
            "value": "0939\/07\/28",
            "children": {
                "date_deb_annee": "0939",
                "date_deb_mois": "07",
                "date_deb_jour": "28"
            },
            "range": {
                "date_apres": 9390728,
                "date_avant": 9390728
            }
        },
        {
            "type": "auteur",
            "value": "Seniofredus"
        },
        {
            "type": "beneficiaire",
            "value": "Rodas, abbaye Saint-Pierre"
        },
        {
            "type": "cote",
            "value": "FRANCE, Paris, BNF, Collection Moreau, t. 6, f. 129"
        }
    ]
}