{
    "id": 12177,
    "name": "moreau-11651",
    "type": "acte",
    "url": "http:\/\/telma-chartes.irht.cnrs.fr\/moreau\/notice\/12177",
    "project_slug": "moreau",
    "project_label": "Inventaire Moreau",
    "user": "b_tock",
    "last_update": "2020-10-19 16:25:45",
    "licence": "Attribution - Pas d\u2019Utilisation Commerciale - Partage dans les M\u00eames Conditions 3.0 France (CC BY-NC-SA 3.0 FR) ",
    "licence_url": "https:\/\/creativecommons.org\/licenses\/by-nc-sa\/3.0\/fr\/",
    "elements": [
        {
            "type": "date",
            "value": "1190\/03\/16",
            "children": {
                "date_deb_annee": "1190",
                "date_deb_mois": "03",
                "date_deb_jour": "16"
            },
            "range": {
                "date_apres": 11900316,
                "date_avant": 11900316
            }
        },
        {
            "type": "auteur",
            "value": "Louis, comte de Blois et de Clermont"
        },
        {
            "type": "beneficiaire",
            "value": "Chartres, cath\u00e9drale Notre-Dame"
        },
        {
            "type": "cote",
            "value": "FRANCE, Paris, BNF, Collection Moreau, t. 92, f. 195"
        }
    ]
}