{
    "id": 1422,
    "name": "moreau-896",
    "type": "acte",
    "url": "http:\/\/telma-chartes.irht.cnrs.fr\/moreau\/notice\/1422",
    "project_slug": "moreau",
    "project_label": "Inventaire Moreau",
    "user": "b_tock",
    "last_update": "2020-10-19 16:25:02",
    "licence": "Attribution - Pas d\u2019Utilisation Commerciale - Partage dans les M\u00eames Conditions 3.0 France (CC BY-NC-SA 3.0 FR) ",
    "licence_url": "https:\/\/creativecommons.org\/licenses\/by-nc-sa\/3.0\/fr\/",
    "elements": [
        {
            "type": "date",
            "value": "0947\/06\/19",
            "children": {
                "date_deb_annee": "0947",
                "date_deb_mois": "06",
                "date_deb_jour": "19"
            },
            "range": {
                "date_apres": 9470619,
                "date_avant": 9470619
            }
        },
        {
            "type": "auteur",
            "value": "Hugues, duc des Francs"
        },
        {
            "type": "beneficiaire",
            "value": "Chartres, chapitre Notre-Dame"
        },
        {
            "type": "cote",
            "value": "FRANCE, Paris, BNF, Collection Moreau, t. 7, f. 112"
        }
    ]
}