{
    "id": 3885,
    "name": "moreau-3359",
    "type": "acte",
    "url": "http:\/\/telma-chartes.irht.cnrs.fr\/moreau\/notice\/3885",
    "project_slug": "moreau",
    "project_label": "Inventaire Moreau",
    "user": "b_tock",
    "last_update": "2020-10-19 16:25:12",
    "licence": "Attribution - Pas d\u2019Utilisation Commerciale - Partage dans les M\u00eames Conditions 3.0 France (CC BY-NC-SA 3.0 FR) ",
    "licence_url": "https:\/\/creativecommons.org\/licenses\/by-nc-sa\/3.0\/fr\/",
    "elements": [
        {
            "type": "date",
            "value": "1032\/07\/29",
            "children": {
                "date_deb_annee": "1032",
                "date_deb_mois": "07",
                "date_deb_jour": "29"
            },
            "range": {
                "date_apres": 10320729,
                "date_avant": 10320729
            }
        },
        {
            "type": "auteur",
            "value": "Pierre Voluradus"
        },
        {
            "type": "beneficiaire",
            "value": "Cuxa, abbaye Saint-Michel"
        },
        {
            "type": "cote",
            "value": "FRANCE, Paris, BNF, Collection Moreau, t. 21, f. 200"
        }
    ]
}