{
    "id": 5709,
    "name": "moreau-5183",
    "type": "acte",
    "url": "http:\/\/telma-chartes.irht.cnrs.fr\/moreau\/notice\/5709",
    "project_slug": "moreau",
    "project_label": "Inventaire Moreau",
    "user": "b_tock",
    "last_update": "2020-10-19 16:25:19",
    "licence": "Attribution - Pas d\u2019Utilisation Commerciale - Partage dans les M\u00eames Conditions 3.0 France (CC BY-NC-SA 3.0 FR) ",
    "licence_url": "https:\/\/creativecommons.org\/licenses\/by-nc-sa\/3.0\/fr\/",
    "elements": [
        {
            "type": "date",
            "value": "1090",
            "children": {
                "date_deb_annee": "1090"
            },
            "range": {
                "date_apres": 10900000,
                "date_avant": 10909999
            }
        },
        {
            "type": "auteur",
            "value": "Sophie, comtesse de Bar"
        },
        {
            "type": "beneficiaire",
            "value": "St-Mihiel, abbaye Saint-Michel"
        },
        {
            "type": "cote",
            "value": "FRANCE, Paris, BNF, Collection Moreau, t. 36, f. 39"
        }
    ]
}