{
    "id": 1746,
    "name": "moreau-1220",
    "type": "acte",
    "url": "http:\/\/telma-chartes.irht.cnrs.fr\/moreau\/notice\/1746",
    "project_slug": "moreau",
    "project_label": "Inventaire Moreau",
    "user": "b_tock",
    "last_update": "2020-10-19 16:25:03",
    "licence": "Attribution - Pas d\u2019Utilisation Commerciale - Partage dans les M\u00eames Conditions 3.0 France (CC BY-NC-SA 3.0 FR) ",
    "licence_url": "https:\/\/creativecommons.org\/licenses\/by-nc-sa\/3.0\/fr\/",
    "elements": [
        {
            "type": "date",
            "value": "0960\/11",
            "children": {
                "date_deb_annee": "0960",
                "date_deb_mois": "11"
            },
            "range": {
                "date_apres": 9601100,
                "date_avant": 9601199
            }
        },
        {
            "type": "remarques",
            "value": "archives de l'abbaye de Nouaill\u00e9"
        },
        {
            "type": "auteur",
            "value": "Bernart"
        },
        {
            "type": "beneficiaire",
            "value": "Thierry"
        },
        {
            "type": "cote",
            "value": "FRANCE, Paris, BNF, Collection Moreau, t. 9, f. 85"
        }
    ]
}