{
    "id": 865,
    "name": "moreau-339",
    "type": "acte",
    "url": "http:\/\/telma-chartes.irht.cnrs.fr\/moreau\/notice\/865",
    "project_slug": "moreau",
    "project_label": "Inventaire Moreau",
    "user": "b_tock",
    "last_update": "2020-10-19 16:24:59",
    "licence": "Attribution - Pas d\u2019Utilisation Commerciale - Partage dans les M\u00eames Conditions 3.0 France (CC BY-NC-SA 3.0 FR) ",
    "licence_url": "https:\/\/creativecommons.org\/licenses\/by-nc-sa\/3.0\/fr\/",
    "elements": [
        {
            "type": "date",
            "value": "circa 0897\/04",
            "children": {
                "date_deb_annee": "0897",
                "date_deb_mois": "04",
                "date_deb_type": "circa"
            },
            "range": {
                "date_apres": 8970400,
                "date_avant": 8970499
            }
        },
        {
            "type": "remarques",
            "value": "archives de l'abbaye de Cluny"
        },
        {
            "type": "auteur",
            "value": "Guergano"
        },
        {
            "type": "beneficiaire",
            "value": "Bernois"
        },
        {
            "type": "cote",
            "value": "FRANCE, Paris, BNF, Collection Moreau, t. 3, f. 175"
        }
    ]
}