{
    "id": 9169,
    "name": "moreau-8643",
    "type": "acte",
    "url": "http:\/\/telma-chartes.irht.cnrs.fr\/moreau\/notice\/9169",
    "project_slug": "moreau",
    "project_label": "Inventaire Moreau",
    "user": "b_tock",
    "last_update": "2020-10-19 16:25:34",
    "licence": "Attribution - Pas d\u2019Utilisation Commerciale - Partage dans les M\u00eames Conditions 3.0 France (CC BY-NC-SA 3.0 FR) ",
    "licence_url": "https:\/\/creativecommons.org\/licenses\/by-nc-sa\/3.0\/fr\/",
    "elements": [
        {
            "type": "date",
            "value": "1152\/06\/29",
            "children": {
                "date_deb_annee": "1152",
                "date_deb_mois": "06",
                "date_deb_jour": "29"
            },
            "range": {
                "date_apres": 11520629,
                "date_avant": 11520629
            }
        },
        {
            "type": "auteur",
            "value": "Arras, abbaye Saint-Vaast et cath\u00e9drale"
        },
        {
            "type": "beneficiaire",
            "value": "Arras, abbaye Saint-Vaast et cath\u00e9drale"
        },
        {
            "type": "cote",
            "value": "FRANCE, Paris, BNF, Collection Moreau, t. 66, f. 6"
        }
    ]
}