{
    "id": 3212,
    "name": "moreau-2686",
    "type": "acte",
    "url": "http:\/\/telma-chartes.irht.cnrs.fr\/moreau\/notice\/3212",
    "project_slug": "moreau",
    "project_label": "Inventaire Moreau",
    "user": "b_tock",
    "last_update": "2020-10-19 16:25:09",
    "licence": "Attribution - Pas d\u2019Utilisation Commerciale - Partage dans les M\u00eames Conditions 3.0 France (CC BY-NC-SA 3.0 FR) ",
    "licence_url": "https:\/\/creativecommons.org\/licenses\/by-nc-sa\/3.0\/fr\/",
    "elements": [
        {
            "type": "date",
            "value": "1003\/05\/23",
            "children": {
                "date_deb_annee": "1003",
                "date_deb_mois": "05",
                "date_deb_jour": "23"
            },
            "range": {
                "date_apres": 10030523,
                "date_avant": 10030523
            }
        },
        {
            "type": "auteur",
            "value": "Henri II, roi de Germanie"
        },
        {
            "type": "beneficiaire",
            "value": "Cambrai, cath\u00e9drale Notre-Dame-de-Gr\u00e2ce"
        },
        {
            "type": "cote",
            "value": "FRANCE, Paris, BNF, Collection Moreau, t. 17, f. 157"
        }
    ]
}