{
    "id": 11163,
    "name": "moreau-10637",
    "type": "acte",
    "url": "http:\/\/telma-chartes.irht.cnrs.fr\/moreau\/notice\/11163",
    "project_slug": "moreau",
    "project_label": "Inventaire Moreau",
    "user": "b_tock",
    "last_update": "2020-10-19 16:25:41",
    "licence": "Attribution - Pas d\u2019Utilisation Commerciale - Partage dans les M\u00eames Conditions 3.0 France (CC BY-NC-SA 3.0 FR) ",
    "licence_url": "https:\/\/creativecommons.org\/licenses\/by-nc-sa\/3.0\/fr\/",
    "elements": [
        {
            "type": "date",
            "value": "1180",
            "children": {
                "date_deb_annee": "1180"
            },
            "range": {
                "date_apres": 11800000,
                "date_avant": 11809999
            }
        },
        {
            "type": "auteur",
            "value": "Elisabeth, comtesse de Flandre et de Vermandois"
        },
        {
            "type": "beneficiaire",
            "value": "Ourscamp, abbaye Notre-Dame"
        },
        {
            "type": "cote",
            "value": "FRANCE, Paris, BNF, Collection Moreau, t. 84, f. 45"
        }
    ]
}