{
    "id": 14255,
    "name": "moreau-13729",
    "type": "acte",
    "url": "http:\/\/telma-chartes.irht.cnrs.fr\/moreau\/notice\/14255",
    "project_slug": "moreau",
    "project_label": "Inventaire Moreau",
    "user": "b_tock",
    "last_update": "2020-10-19 16:25:53",
    "licence": "Attribution - Pas d\u2019Utilisation Commerciale - Partage dans les M\u00eames Conditions 3.0 France (CC BY-NC-SA 3.0 FR) ",
    "licence_url": "https:\/\/creativecommons.org\/licenses\/by-nc-sa\/3.0\/fr\/",
    "elements": [
        {
            "type": "date",
            "value": "1207",
            "children": {
                "date_deb_annee": "1207"
            },
            "range": {
                "date_apres": 12070000,
                "date_avant": 12079999
            }
        },
        {
            "type": "auteur",
            "value": "Hugues, chevalier de Pomponne"
        },
        {
            "type": "beneficiaire",
            "value": "Chaalis, abbaye Notre-Dame"
        },
        {
            "type": "cote",
            "value": "FRANCE, Paris, BNF, Collection Moreau, t. 109, f. 247"
        }
    ]
}