{
    "id": 9751,
    "name": "moreau-9225",
    "type": "acte",
    "url": "http:\/\/telma-chartes.irht.cnrs.fr\/moreau\/notice\/9751",
    "project_slug": "moreau",
    "project_label": "Inventaire Moreau",
    "user": "b_tock",
    "last_update": "2020-10-19 16:25:36",
    "licence": "Attribution - Pas d\u2019Utilisation Commerciale - Partage dans les M\u00eames Conditions 3.0 France (CC BY-NC-SA 3.0 FR) ",
    "licence_url": "https:\/\/creativecommons.org\/licenses\/by-nc-sa\/3.0\/fr\/",
    "elements": [
        {
            "type": "date_libre",
            "value": "[1166-1179]-03-15"
        },
        {
            "type": "date",
            "value": "apres 1166\/03\/15 - avant 1179\/03\/15",
            "children": {
                "date_deb_annee": "1166",
                "date_deb_mois": "03",
                "date_deb_jour": "15",
                "date_deb_type": "apres",
                "date_fin_annee": "1179",
                "date_fin_mois": "03",
                "date_fin_jour": "15",
                "date_fin_type": "avant"
            },
            "range": {
                "date_apres": 11660315,
                "date_avant": 11790315
            }
        },
        {
            "type": "remarques",
            "value": "Jaff\u00e9, 13189"
        },
        {
            "type": "auteur",
            "value": "Alexandre III, pape"
        },
        {
            "type": "beneficiaire",
            "value": "Maroeuil, abbaye Saint-Amand-et-Sainte-Bertilie"
        },
        {
            "type": "cote",
            "value": "FRANCE, Paris, BNF, Collection Moreau, t. 70, f. 239"
        }
    ]
}