{
    "id": 8356,
    "name": "moreau-7830",
    "type": "acte",
    "url": "http:\/\/telma-chartes.irht.cnrs.fr\/moreau\/notice\/8356",
    "project_slug": "moreau",
    "project_label": "Inventaire Moreau",
    "user": "b_tock",
    "last_update": "2020-10-19 16:25:30",
    "licence": "Attribution - Pas d\u2019Utilisation Commerciale - Partage dans les M\u00eames Conditions 3.0 France (CC BY-NC-SA 3.0 FR) ",
    "licence_url": "https:\/\/creativecommons.org\/licenses\/by-nc-sa\/3.0\/fr\/",
    "elements": [
        {
            "type": "date",
            "value": "1140",
            "children": {
                "date_deb_annee": "1140"
            },
            "range": {
                "date_apres": 11400000,
                "date_avant": 11409999
            }
        },
        {
            "type": "auteur",
            "value": "Eudes, \u00e9v\u00eaque de Beauvais"
        },
        {
            "type": "beneficiaire",
            "value": "Beauvais, abbaye Saint-Lucien"
        },
        {
            "type": "cote",
            "value": "FRANCE, Paris, BNF, Collection Moreau, t. 58, f. 179"
        }
    ]
}