{
    "id": 9326,
    "name": "moreau-8800",
    "type": "acte",
    "url": "http:\/\/telma-chartes.irht.cnrs.fr\/moreau\/notice\/9326",
    "project_slug": "moreau",
    "project_label": "Inventaire Moreau",
    "user": "b_tock",
    "last_update": "2020-10-19 16:25:34",
    "licence": "Attribution - Pas d\u2019Utilisation Commerciale - Partage dans les M\u00eames Conditions 3.0 France (CC BY-NC-SA 3.0 FR) ",
    "licence_url": "https:\/\/creativecommons.org\/licenses\/by-nc-sa\/3.0\/fr\/",
    "elements": [
        {
            "type": "date_libre",
            "value": "[1155-1159]-02-22"
        },
        {
            "type": "date",
            "value": "apres 1155\/02\/22 - avant 1159\/02\/22",
            "children": {
                "date_deb_annee": "1155",
                "date_deb_mois": "02",
                "date_deb_jour": "22",
                "date_deb_type": "apres",
                "date_fin_annee": "1159",
                "date_fin_mois": "02",
                "date_fin_jour": "22",
                "date_fin_type": "avant"
            },
            "range": {
                "date_apres": 11550222,
                "date_avant": 11590222
            }
        },
        {
            "type": "auteur",
            "value": "Adrien IV, pape"
        },
        {
            "type": "beneficiaire",
            "value": "Solignac, abbaye Saint-Pierre"
        },
        {
            "type": "cote",
            "value": "FRANCE, Paris, BNF, Collection Moreau, t. 67, f. 97"
        }
    ]
}