{
    "id": 7680,
    "name": "moreau-7154",
    "type": "acte",
    "url": "http:\/\/telma-chartes.irht.cnrs.fr\/moreau\/notice\/7680",
    "project_slug": "moreau",
    "project_label": "Inventaire Moreau",
    "user": "b_tock",
    "last_update": "2020-10-19 16:25:28",
    "licence": "Attribution - Pas d\u2019Utilisation Commerciale - Partage dans les M\u00eames Conditions 3.0 France (CC BY-NC-SA 3.0 FR) ",
    "licence_url": "https:\/\/creativecommons.org\/licenses\/by-nc-sa\/3.0\/fr\/",
    "elements": [
        {
            "type": "date",
            "value": "1126\/04\/24",
            "children": {
                "date_deb_annee": "1126",
                "date_deb_mois": "04",
                "date_deb_jour": "24"
            },
            "range": {
                "date_apres": 11260424,
                "date_avant": 11260424
            }
        },
        {
            "type": "remarques",
            "value": "Jaff\u00e9, 7260 (5240)"
        },
        {
            "type": "auteur",
            "value": "Honorius II, pape"
        },
        {
            "type": "beneficiaire",
            "value": "Cluny, abbaye Saint-Pierre-et-Saint-Paul"
        },
        {
            "type": "cote",
            "value": "FRANCE, Paris, BNF, Collection Moreau, t. 51, f. 189"
        }
    ]
}