{
    "id": 10723,
    "name": "moreau-10197",
    "type": "acte",
    "url": "http:\/\/telma-chartes.irht.cnrs.fr\/moreau\/notice\/10723",
    "project_slug": "moreau",
    "project_label": "Inventaire Moreau",
    "user": "b_tock",
    "last_update": "2020-10-19 16:25:39",
    "licence": "Attribution - Pas d\u2019Utilisation Commerciale - Partage dans les M\u00eames Conditions 3.0 France (CC BY-NC-SA 3.0 FR) ",
    "licence_url": "https:\/\/creativecommons.org\/licenses\/by-nc-sa\/3.0\/fr\/",
    "elements": [
        {
            "type": "date",
            "value": "1175",
            "children": {
                "date_deb_annee": "1175"
            },
            "range": {
                "date_apres": 11750000,
                "date_avant": 11759999
            }
        },
        {
            "type": "remarques",
            "value": "archives de Saint-Fuscien Amiens"
        },
        {
            "type": "auteur",
            "value": "Thibaud, \u00e9v\u00eaque d'Amiens"
        },
        {
            "type": "beneficiaire",
            "value": "Amiens, cath\u00e9drale Notre-Dame"
        },
        {
            "type": "cote",
            "value": "FRANCE, Paris, BNF, Collection Moreau, t. 79, f. 187"
        }
    ]
}