{
    "id": 14372,
    "name": "moreau-13846",
    "type": "acte",
    "url": "http:\/\/telma-chartes.irht.cnrs.fr\/moreau\/notice\/14372",
    "project_slug": "moreau",
    "project_label": "Inventaire Moreau",
    "user": "b_tock",
    "last_update": "2020-10-19 16:25:53",
    "licence": "Attribution - Pas d\u2019Utilisation Commerciale - Partage dans les M\u00eames Conditions 3.0 France (CC BY-NC-SA 3.0 FR) ",
    "licence_url": "https:\/\/creativecommons.org\/licenses\/by-nc-sa\/3.0\/fr\/",
    "elements": [
        {
            "type": "date",
            "value": "1208\/12\/12",
            "children": {
                "date_deb_annee": "1208",
                "date_deb_mois": "12",
                "date_deb_jour": "12"
            },
            "range": {
                "date_apres": 12081212,
                "date_avant": 12081212
            }
        },
        {
            "type": "auteur",
            "value": "Richard, \u00e9v\u00eaque d'Amiens"
        },
        {
            "type": "beneficiaire",
            "value": "Amiens, chapitre cath\u00e9dral"
        },
        {
            "type": "cote",
            "value": "FRANCE, Paris, BNF, Collection Moreau, t. 110, f. 213"
        }
    ]
}