{
    "id": 553,
    "name": "moreau-27",
    "type": "acte",
    "url": "http:\/\/telma-chartes.irht.cnrs.fr\/moreau\/notice\/553",
    "project_slug": "moreau",
    "project_label": "Inventaire Moreau",
    "user": "b_tock",
    "last_update": "2020-10-19 16:24:57",
    "licence": "Attribution - Pas d\u2019Utilisation Commerciale - Partage dans les M\u00eames Conditions 3.0 France (CC BY-NC-SA 3.0 FR) ",
    "licence_url": "https:\/\/creativecommons.org\/licenses\/by-nc-sa\/3.0\/fr\/",
    "elements": [
        {
            "type": "date",
            "value": "0814\/12",
            "children": {
                "date_deb_annee": "0814",
                "date_deb_mois": "12"
            },
            "range": {
                "date_apres": 8141200,
                "date_avant": 8141299
            }
        },
        {
            "type": "auteur",
            "value": "Arnevertus"
        },
        {
            "type": "beneficiaire",
            "value": "Bourges, abbaye Saint-Sulpice"
        },
        {
            "type": "cote",
            "value": "FRANCE, Paris, BNF, Collection Moreau, t. 1, f. 41"
        }
    ]
}