{
    "id": 9633,
    "name": "moreau-9107",
    "type": "acte",
    "url": "http:\/\/telma-chartes.irht.cnrs.fr\/moreau\/notice\/9633",
    "project_slug": "moreau",
    "project_label": "Inventaire Moreau",
    "user": "b_tock",
    "last_update": "2020-10-19 16:25:35",
    "licence": "Attribution - Pas d\u2019Utilisation Commerciale - Partage dans les M\u00eames Conditions 3.0 France (CC BY-NC-SA 3.0 FR) ",
    "licence_url": "https:\/\/creativecommons.org\/licenses\/by-nc-sa\/3.0\/fr\/",
    "elements": [
        {
            "type": "date",
            "value": "1161\/12\/21",
            "children": {
                "date_deb_annee": "1161",
                "date_deb_mois": "12",
                "date_deb_jour": "21"
            },
            "range": {
                "date_apres": 11611221,
                "date_avant": 11611221
            }
        },
        {
            "type": "remarques",
            "value": "http:\/\/www.cn-telma.fr\/chartae-galliae\/charte207917\/"
        },
        {
            "type": "auteur",
            "value": "Alexandre III, pape"
        },
        {
            "type": "beneficiaire",
            "value": "Monti\u00e9ramey, abbaye Saint-Pierre"
        },
        {
            "type": "cote",
            "value": "FRANCE, Paris, BNF, Collection Moreau, t. 69, f. 243"
        }
    ]
}