{
    "id": 14213,
    "name": "moreau-13687",
    "type": "acte",
    "url": "http:\/\/telma-chartes.irht.cnrs.fr\/moreau\/notice\/14213",
    "project_slug": "moreau",
    "project_label": "Inventaire Moreau",
    "user": "b_tock",
    "last_update": "2020-10-19 16:25:53",
    "licence": "Attribution - Pas d\u2019Utilisation Commerciale - Partage dans les M\u00eames Conditions 3.0 France (CC BY-NC-SA 3.0 FR) ",
    "licence_url": "https:\/\/creativecommons.org\/licenses\/by-nc-sa\/3.0\/fr\/",
    "elements": [
        {
            "type": "date",
            "value": "1197\/08\/26",
            "children": {
                "date_deb_annee": "1197",
                "date_deb_mois": "08",
                "date_deb_jour": "26"
            },
            "range": {
                "date_apres": 11970826,
                "date_avant": 11970826
            }
        },
        {
            "type": "auteur",
            "value": "Henri, abb\u00e9 de Saint-Denis"
        },
        {
            "type": "beneficiaire",
            "value": "Paris, \u00e9v\u00each\u00e9"
        },
        {
            "type": "cote",
            "value": "FRANCE, Paris, BNF, Collection Moreau, t. 109, f. 162"
        }
    ]
}