{
    "id": 12801,
    "name": "moreau-12275",
    "type": "acte",
    "url": "http:\/\/telma-chartes.irht.cnrs.fr\/moreau\/notice\/12801",
    "project_slug": "moreau",
    "project_label": "Inventaire Moreau",
    "user": "b_tock",
    "last_update": "2020-10-19 16:25:47",
    "licence": "Attribution - Pas d\u2019Utilisation Commerciale - Partage dans les M\u00eames Conditions 3.0 France (CC BY-NC-SA 3.0 FR) ",
    "licence_url": "https:\/\/creativecommons.org\/licenses\/by-nc-sa\/3.0\/fr\/",
    "elements": [
        {
            "type": "date",
            "value": "1197\/04\/21",
            "children": {
                "date_deb_annee": "1197",
                "date_deb_mois": "04",
                "date_deb_jour": "21"
            },
            "range": {
                "date_apres": 11970421,
                "date_avant": 11970421
            }
        },
        {
            "type": "auteur",
            "value": "Philippe \u00e9v\u00eaque de Beauvais"
        },
        {
            "type": "beneficiaire",
            "value": "Froidmont, abbaye Notre-Dame"
        },
        {
            "type": "cote",
            "value": "FRANCE, Paris, BNF, Collection Moreau, t. 98, f. 3"
        }
    ]
}