{
    "id": 719,
    "name": "moreau-193",
    "type": "acte",
    "url": "http:\/\/telma-chartes.irht.cnrs.fr\/moreau\/notice\/719",
    "project_slug": "moreau",
    "project_label": "Inventaire Moreau",
    "user": "b_tock",
    "last_update": "2020-10-19 16:24:58",
    "licence": "Attribution - Pas d\u2019Utilisation Commerciale - Partage dans les M\u00eames Conditions 3.0 France (CC BY-NC-SA 3.0 FR) ",
    "licence_url": "https:\/\/creativecommons.org\/licenses\/by-nc-sa\/3.0\/fr\/",
    "elements": [
        {
            "type": "date",
            "value": "apres 0883 - avant 0916",
            "children": {
                "date_deb_annee": "0883",
                "date_deb_type": "apres",
                "date_fin_annee": "0916",
                "date_fin_type": "avant"
            },
            "range": {
                "date_apres": 8830000,
                "date_avant": 9169999
            }
        },
        {
            "type": "auteur",
            "value": "Robert, \u00e9v\u00eaque de Metz"
        },
        {
            "type": "beneficiaire",
            "value": "Metz, abbaye Saint-Arnoul"
        },
        {
            "type": "cote",
            "value": "FRANCE, Paris, BNF, Collection Moreau, t. 2, f. 147"
        }
    ]
}