{
    "id": 528,
    "name": "moreau-2",
    "type": "acte",
    "url": "http:\/\/telma-chartes.irht.cnrs.fr\/moreau\/notice\/528",
    "project_slug": "moreau",
    "project_label": "Inventaire Moreau",
    "user": "b_tock",
    "last_update": "2020-10-19 16:24:57",
    "licence": "Attribution - Pas d\u2019Utilisation Commerciale - Partage dans les M\u00eames Conditions 3.0 France (CC BY-NC-SA 3.0 FR) ",
    "licence_url": "https:\/\/creativecommons.org\/licenses\/by-nc-sa\/3.0\/fr\/",
    "elements": [
        {
            "type": "date",
            "value": "0941",
            "children": {
                "date_deb_annee": "0941"
            },
            "range": {
                "date_apres": 9410000,
                "date_avant": 9419999
            }
        },
        {
            "type": "remarques",
            "value": "analyse"
        },
        {
            "type": "auteur",
            "value": "Transmar, \u00e9v\u00eaque de Noyon et de Tournai"
        },
        {
            "type": "beneficiaire",
            "value": "Gand, abbaye Saint-Pierre"
        },
        {
            "type": "cote",
            "value": "FRANCE, Paris, BNF, Collection Moreau, t. 1, f. 4"
        }
    ]
}