{
    "id": 7550,
    "name": "moreau-7024",
    "type": "acte",
    "url": "http:\/\/telma-chartes.irht.cnrs.fr\/moreau\/notice\/7550",
    "project_slug": "moreau",
    "project_label": "Inventaire Moreau",
    "user": "b_tock",
    "last_update": "2020-10-19 16:25:27",
    "licence": "Attribution - Pas d\u2019Utilisation Commerciale - Partage dans les M\u00eames Conditions 3.0 France (CC BY-NC-SA 3.0 FR) ",
    "licence_url": "https:\/\/creativecommons.org\/licenses\/by-nc-sa\/3.0\/fr\/",
    "elements": [
        {
            "type": "date",
            "value": "1121",
            "children": {
                "date_deb_annee": "1121"
            },
            "range": {
                "date_apres": 11210000,
                "date_avant": 11219999
            }
        },
        {
            "type": "auteur",
            "value": "Boson, abb\u00e9 de Fleury"
        },
        {
            "type": "beneficiaire",
            "value": "Chartres, abbaye Saint-Jean-en-Vall\u00e9e"
        },
        {
            "type": "cote",
            "value": "FRANCE, Paris, BNF, Collection Moreau, t. 50, f. 166"
        }
    ]
}