{
    "id": 3684,
    "name": "moreau-3158",
    "type": "acte",
    "url": "http:\/\/telma-chartes.irht.cnrs.fr\/moreau\/notice\/3684",
    "project_slug": "moreau",
    "project_label": "Inventaire Moreau",
    "user": "b_tock",
    "last_update": "2020-10-19 16:25:11",
    "licence": "Attribution - Pas d\u2019Utilisation Commerciale - Partage dans les M\u00eames Conditions 3.0 France (CC BY-NC-SA 3.0 FR) ",
    "licence_url": "https:\/\/creativecommons.org\/licenses\/by-nc-sa\/3.0\/fr\/",
    "elements": [
        {
            "type": "date_libre",
            "value": "[1016\/1017]\/[1025\/1026]"
        },
        {
            "type": "date",
            "value": "apres 1016 - avant 1026",
            "children": {
                "date_deb_annee": "1016",
                "date_deb_type": "apres",
                "date_fin_annee": "1026",
                "date_fin_type": "avant"
            },
            "range": {
                "date_apres": 10160000,
                "date_avant": 10269999
            }
        },
        {
            "type": "remarques",
            "value": "30e ann. Robert le Pieux"
        },
        {
            "type": "auteur",
            "value": "Henri"
        },
        {
            "type": "beneficiaire",
            "value": "Cluny, abbaye Saint-Pierre-et-Saint-Paul"
        },
        {
            "type": "cote",
            "value": "FRANCE, Paris, BNF, Collection Moreau, t. 20, f. 155"
        }
    ]
}