{
    "id": 603,
    "name": "moreau-77",
    "type": "acte",
    "url": "http:\/\/telma-chartes.irht.cnrs.fr\/moreau\/notice\/603",
    "project_slug": "moreau",
    "project_label": "Inventaire Moreau",
    "user": "b_tock",
    "last_update": "2020-10-19 16:24:58",
    "licence": "Attribution - Pas d\u2019Utilisation Commerciale - Partage dans les M\u00eames Conditions 3.0 France (CC BY-NC-SA 3.0 FR) ",
    "licence_url": "https:\/\/creativecommons.org\/licenses\/by-nc-sa\/3.0\/fr\/",
    "elements": [
        {
            "type": "date",
            "value": "0845\/06\/13",
            "children": {
                "date_deb_annee": "0845",
                "date_deb_mois": "06",
                "date_deb_jour": "13"
            },
            "range": {
                "date_apres": 8450613,
                "date_avant": 8450613
            }
        },
        {
            "type": "auteur",
            "value": "Charles le Chauve, roi des Francs"
        },
        {
            "type": "beneficiaire",
            "value": "Saumur, abbaye Saint-Florent"
        },
        {
            "type": "cote",
            "value": "FRANCE, Paris, BNF, Collection Moreau, t. 1, f. 151"
        }
    ]
}