{
    "id": 5466,
    "name": "moreau-4940",
    "type": "acte",
    "url": "http:\/\/telma-chartes.irht.cnrs.fr\/moreau\/notice\/5466",
    "project_slug": "moreau",
    "project_label": "Inventaire Moreau",
    "user": "b_tock",
    "last_update": "2020-10-19 16:25:18",
    "licence": "Attribution - Pas d\u2019Utilisation Commerciale - Partage dans les M\u00eames Conditions 3.0 France (CC BY-NC-SA 3.0 FR) ",
    "licence_url": "https:\/\/creativecommons.org\/licenses\/by-nc-sa\/3.0\/fr\/",
    "elements": [
        {
            "type": "date",
            "value": "1084",
            "children": {
                "date_deb_annee": "1084"
            },
            "range": {
                "date_apres": 10840000,
                "date_avant": 10849999
            }
        },
        {
            "type": "auteur",
            "value": "Geoffroi, \u00e9v\u00eaque de Chartres"
        },
        {
            "type": "beneficiaire",
            "value": "Chartres, abbaye Saint-P\u00e8re"
        },
        {
            "type": "cote",
            "value": "FRANCE, Paris, BNF, Collection Moreau, t. 34, f. 100"
        }
    ]
}