{
    "id": 7823,
    "name": "moreau-7297",
    "type": "acte",
    "url": "http:\/\/telma-chartes.irht.cnrs.fr\/moreau\/notice\/7823",
    "project_slug": "moreau",
    "project_label": "Inventaire Moreau",
    "user": "b_tock",
    "last_update": "2020-10-19 16:25:28",
    "licence": "Attribution - Pas d\u2019Utilisation Commerciale - Partage dans les M\u00eames Conditions 3.0 France (CC BY-NC-SA 3.0 FR) ",
    "licence_url": "https:\/\/creativecommons.org\/licenses\/by-nc-sa\/3.0\/fr\/",
    "elements": [
        {
            "type": "date",
            "value": "1128",
            "children": {
                "date_deb_annee": "1128"
            },
            "range": {
                "date_apres": 11280000,
                "date_avant": 11289999
            }
        },
        {
            "type": "auteur",
            "value": "Gossuin de Mons"
        },
        {
            "type": "beneficiaire",
            "value": "Crespin, abbaye Saint-Landelin"
        },
        {
            "type": "cote",
            "value": "FRANCE, Paris, BNF, Collection Moreau, t. 53, f. 117"
        }
    ]
}