{
    "id": 556,
    "name": "moreau-30",
    "type": "acte",
    "url": "http:\/\/telma-chartes.irht.cnrs.fr\/moreau\/notice\/556",
    "project_slug": "moreau",
    "project_label": "Inventaire Moreau",
    "user": "b_tock",
    "last_update": "2020-10-19 16:24:57",
    "licence": "Attribution - Pas d\u2019Utilisation Commerciale - Partage dans les M\u00eames Conditions 3.0 France (CC BY-NC-SA 3.0 FR) ",
    "licence_url": "https:\/\/creativecommons.org\/licenses\/by-nc-sa\/3.0\/fr\/",
    "elements": [
        {
            "type": "date",
            "value": "0816\/04\/15",
            "children": {
                "date_deb_annee": "0816",
                "date_deb_mois": "04",
                "date_deb_jour": "15"
            },
            "range": {
                "date_apres": 8160415,
                "date_avant": 8160415
            }
        },
        {
            "type": "auteur",
            "value": "Louis le Pieux, empereur"
        },
        {
            "type": "beneficiaire",
            "value": "Hildoardus, \u00e9v\u00eaque de Cambrai"
        },
        {
            "type": "cote",
            "value": "FRANCE, Paris, BNF, Collection Moreau, t. 1, f. 47"
        }
    ]
}