{
    "id": 13958,
    "name": "moreau-13432",
    "type": "acte",
    "url": "http:\/\/telma-chartes.irht.cnrs.fr\/moreau\/notice\/13958",
    "project_slug": "moreau",
    "project_label": "Inventaire Moreau",
    "user": "b_tock",
    "last_update": "2020-10-19 16:25:51",
    "licence": "Attribution - Pas d\u2019Utilisation Commerciale - Partage dans les M\u00eames Conditions 3.0 France (CC BY-NC-SA 3.0 FR) ",
    "licence_url": "https:\/\/creativecommons.org\/licenses\/by-nc-sa\/3.0\/fr\/",
    "elements": [
        {
            "type": "date",
            "value": "1205",
            "children": {
                "date_deb_annee": "1205"
            },
            "range": {
                "date_apres": 12050000,
                "date_avant": 12059999
            }
        },
        {
            "type": "auteur",
            "value": "B., doyen\u00a0"
        },
        {
            "type": "auteur",
            "value": "R., ma\u00eetre de l'h\u00f4tel-Dieu\u00a0"
        },
        {
            "type": "auteur",
            "value": "G., prieur Bar"
        },
        {
            "type": "beneficiaire",
            "value": "Monti\u00e9ramey, abbaye Saint-Pierre"
        },
        {
            "type": "cote",
            "value": "FRANCE, Paris, BNF, Collection Moreau, t. 107, f. 155"
        }
    ]
}