{
    "id": 9980,
    "name": "moreau-9454",
    "type": "acte",
    "url": "http:\/\/telma-chartes.irht.cnrs.fr\/moreau\/notice\/9980",
    "project_slug": "moreau",
    "project_label": "Inventaire Moreau",
    "user": "b_tock",
    "last_update": "2020-10-19 16:25:37",
    "licence": "Attribution - Pas d\u2019Utilisation Commerciale - Partage dans les M\u00eames Conditions 3.0 France (CC BY-NC-SA 3.0 FR) ",
    "licence_url": "https:\/\/creativecommons.org\/licenses\/by-nc-sa\/3.0\/fr\/",
    "elements": [
        {
            "type": "date",
            "value": "1164\/12\/04",
            "children": {
                "date_deb_annee": "1164",
                "date_deb_mois": "12",
                "date_deb_jour": "04"
            },
            "range": {
                "date_apres": 11641204,
                "date_avant": 11641204
            }
        },
        {
            "type": "remarques",
            "value": "archives de l'abbaye de Ourscamp"
        },
        {
            "type": "auteur",
            "value": "Philippe, comte de Flandre et de Vermandois"
        },
        {
            "type": "beneficiaire",
            "value": "Clairvaux, abbaye"
        },
        {
            "type": "cote",
            "value": "FRANCE, Paris, BNF, Collection Moreau, t. 73, f. 45"
        }
    ]
}