{
    "id": 3335,
    "name": "moreau-2809",
    "type": "acte",
    "url": "http:\/\/telma-chartes.irht.cnrs.fr\/moreau\/notice\/3335",
    "project_slug": "moreau",
    "project_label": "Inventaire Moreau",
    "user": "b_tock",
    "last_update": "2020-10-19 16:25:10",
    "licence": "Attribution - Pas d\u2019Utilisation Commerciale - Partage dans les M\u00eames Conditions 3.0 France (CC BY-NC-SA 3.0 FR) ",
    "licence_url": "https:\/\/creativecommons.org\/licenses\/by-nc-sa\/3.0\/fr\/",
    "elements": [
        {
            "type": "date",
            "value": "1007\/10\/28",
            "children": {
                "date_deb_annee": "1007",
                "date_deb_mois": "10",
                "date_deb_jour": "28"
            },
            "range": {
                "date_apres": 10071028,
                "date_avant": 10071028
            }
        },
        {
            "type": "auteur",
            "value": "Hugues, comte"
        },
        {
            "type": "beneficiaire",
            "value": "Rodas, abbaye Saint-Pierre"
        },
        {
            "type": "cote",
            "value": "FRANCE, Paris, BNF, Collection Moreau, t. 18, f. 101"
        }
    ]
}