{
    "id": 7721,
    "name": "moreau-7195",
    "type": "acte",
    "url": "http:\/\/telma-chartes.irht.cnrs.fr\/moreau\/notice\/7721",
    "project_slug": "moreau",
    "project_label": "Inventaire Moreau",
    "user": "b_tock",
    "last_update": "2020-10-19 16:25:28",
    "licence": "Attribution - Pas d\u2019Utilisation Commerciale - Partage dans les M\u00eames Conditions 3.0 France (CC BY-NC-SA 3.0 FR) ",
    "licence_url": "https:\/\/creativecommons.org\/licenses\/by-nc-sa\/3.0\/fr\/",
    "elements": [
        {
            "type": "date",
            "value": "1127\/12\/06",
            "children": {
                "date_deb_annee": "1127",
                "date_deb_mois": "12",
                "date_deb_jour": "06"
            },
            "range": {
                "date_apres": 11271206,
                "date_avant": 11271206
            }
        },
        {
            "type": "remarques",
            "value": "Jaff\u00e9, 7294"
        },
        {
            "type": "auteur",
            "value": "Honorius II, pape"
        },
        {
            "type": "beneficiaire",
            "value": "Verdun, abbaye Saint-Vanne et cath\u00e9drale"
        },
        {
            "type": "cote",
            "value": "FRANCE, Paris, BNF, Collection Moreau, t. 52, f. 65"
        }
    ]
}