{
    "id": 7533,
    "name": "moreau-7007",
    "type": "acte",
    "url": "http:\/\/telma-chartes.irht.cnrs.fr\/moreau\/notice\/7533",
    "project_slug": "moreau",
    "project_label": "Inventaire Moreau",
    "user": "b_tock",
    "last_update": "2020-10-19 16:25:27",
    "licence": "Attribution - Pas d\u2019Utilisation Commerciale - Partage dans les M\u00eames Conditions 3.0 France (CC BY-NC-SA 3.0 FR) ",
    "licence_url": "https:\/\/creativecommons.org\/licenses\/by-nc-sa\/3.0\/fr\/",
    "elements": [
        {
            "type": "date",
            "value": "1121\/08\/31",
            "children": {
                "date_deb_annee": "1121",
                "date_deb_mois": "08",
                "date_deb_jour": "31"
            },
            "range": {
                "date_apres": 11210831,
                "date_avant": 11210831
            }
        },
        {
            "type": "auteur",
            "value": "Rocelin"
        },
        {
            "type": "auteur",
            "value": "Hilduin de Vendoeuvre"
        },
        {
            "type": "beneficiaire",
            "value": "Monti\u00e9ramey, abbaye Saint-Pierre"
        },
        {
            "type": "cote",
            "value": "FRANCE, Paris, BNF, Collection Moreau, t. 50, f. 135"
        }
    ]
}