{
    "id": 1731,
    "name": "moreau-1205",
    "type": "acte",
    "url": "http:\/\/telma-chartes.irht.cnrs.fr\/moreau\/notice\/1731",
    "project_slug": "moreau",
    "project_label": "Inventaire Moreau",
    "user": "b_tock",
    "last_update": "2020-10-19 16:25:03",
    "licence": "Attribution - Pas d\u2019Utilisation Commerciale - Partage dans les M\u00eames Conditions 3.0 France (CC BY-NC-SA 3.0 FR) ",
    "licence_url": "https:\/\/creativecommons.org\/licenses\/by-nc-sa\/3.0\/fr\/",
    "elements": [
        {
            "type": "date",
            "value": "apres 0958 - avant 0959",
            "children": {
                "date_deb_annee": "0958",
                "date_deb_type": "apres",
                "date_fin_annee": "0959",
                "date_fin_type": "avant"
            },
            "range": {
                "date_apres": 9580000,
                "date_avant": 9599999
            }
        },
        {
            "type": "remarques",
            "value": "archives de l'abbaye de Cluny"
        },
        {
            "type": "auteur",
            "value": "Ma\u00efeul, abb\u00e9 de Saint-Pierre-et-Saint-Paul de Cluny"
        },
        {
            "type": "beneficiaire",
            "value": "Rotgrimmus"
        },
        {
            "type": "cote",
            "value": "FRANCE, Paris, BNF, Collection Moreau, t. 9, f. 62"
        }
    ]
}