{
    "id": 13814,
    "name": "moreau-13288",
    "type": "acte",
    "url": "http:\/\/telma-chartes.irht.cnrs.fr\/moreau\/notice\/13814",
    "project_slug": "moreau",
    "project_label": "Inventaire Moreau",
    "user": "b_tock",
    "last_update": "2020-10-19 16:25:51",
    "licence": "Attribution - Pas d\u2019Utilisation Commerciale - Partage dans les M\u00eames Conditions 3.0 France (CC BY-NC-SA 3.0 FR) ",
    "licence_url": "https:\/\/creativecommons.org\/licenses\/by-nc-sa\/3.0\/fr\/",
    "elements": [
        {
            "type": "date",
            "value": "1204\/12",
            "children": {
                "date_deb_annee": "1204",
                "date_deb_mois": "12"
            },
            "range": {
                "date_apres": 12041200,
                "date_avant": 12041299
            }
        },
        {
            "type": "auteur",
            "value": "Florent, abb\u00e9 de Saint-Josse-sur-Mer\u00a0"
        },
        {
            "type": "auteur",
            "value": "Guillaume, comte de Pontieu"
        },
        {
            "type": "beneficiaire",
            "value": "Saint-Josse, abbaye"
        },
        {
            "type": "cote",
            "value": "FRANCE, Paris, BNF, Collection Moreau, t. 106, f. 96"
        }
    ]
}