{
    "id": 7158,
    "name": "moreau-6632",
    "type": "acte",
    "url": "http:\/\/telma-chartes.irht.cnrs.fr\/moreau\/notice\/7158",
    "project_slug": "moreau",
    "project_label": "Inventaire Moreau",
    "user": "b_tock",
    "last_update": "2020-10-19 16:25:25",
    "licence": "Attribution - Pas d\u2019Utilisation Commerciale - Partage dans les M\u00eames Conditions 3.0 France (CC BY-NC-SA 3.0 FR) ",
    "licence_url": "https:\/\/creativecommons.org\/licenses\/by-nc-sa\/3.0\/fr\/",
    "elements": [
        {
            "type": "date",
            "value": "1113",
            "children": {
                "date_deb_annee": "1113"
            },
            "range": {
                "date_apres": 11130000,
                "date_avant": 11139999
            }
        },
        {
            "type": "remarques",
            "value": "archives de l'abbaye de Saint-Jean-d'Ang\u00e9ly"
        },
        {
            "type": "auteur",
            "value": "G\u00e9rard, \u00e9v\u00eaque d'Angoul\u00eame et l\u00e9gat pontifical"
        },
        {
            "type": "beneficiaire",
            "value": "Angoul\u00eame, cath\u00e9drale Saint-Pierre"
        },
        {
            "type": "cote",
            "value": "FRANCE, Paris, BNF, Collection Moreau, t. 47, f. 47"
        }
    ]
}