{
    "id": 6917,
    "name": "moreau-6391",
    "type": "acte",
    "url": "http:\/\/telma-chartes.irht.cnrs.fr\/moreau\/notice\/6917",
    "project_slug": "moreau",
    "project_label": "Inventaire Moreau",
    "user": "b_tock",
    "last_update": "2020-10-19 16:25:24",
    "licence": "Attribution - Pas d\u2019Utilisation Commerciale - Partage dans les M\u00eames Conditions 3.0 France (CC BY-NC-SA 3.0 FR) ",
    "licence_url": "https:\/\/creativecommons.org\/licenses\/by-nc-sa\/3.0\/fr\/",
    "elements": [
        {
            "type": "date",
            "value": "1110\/08\/30",
            "children": {
                "date_deb_annee": "1110",
                "date_deb_mois": "08",
                "date_deb_jour": "30"
            },
            "range": {
                "date_apres": 11100830,
                "date_avant": 11100830
            }
        },
        {
            "type": "remarques",
            "value": "3e an. Louis"
        },
        {
            "type": "auteur",
            "value": "Pierre Rigaud, prieur de Notre-Dame de Villa Bertraudi"
        },
        {
            "type": "beneficiaire",
            "value": "Elne, cath\u00e9drale Sainte-Eulalie-et-Sainte-Julie"
        },
        {
            "type": "cote",
            "value": "FRANCE, Paris, BNF, Collection Moreau, t. 45, f. 11"
        }
    ]
}