{
    "id": 8572,
    "name": "moreau-8046",
    "type": "acte",
    "url": "http:\/\/telma-chartes.irht.cnrs.fr\/moreau\/notice\/8572",
    "project_slug": "moreau",
    "project_label": "Inventaire Moreau",
    "user": "b_tock",
    "last_update": "2020-10-19 16:25:31",
    "licence": "Attribution - Pas d\u2019Utilisation Commerciale - Partage dans les M\u00eames Conditions 3.0 France (CC BY-NC-SA 3.0 FR) ",
    "licence_url": "https:\/\/creativecommons.org\/licenses\/by-nc-sa\/3.0\/fr\/",
    "elements": [
        {
            "type": "date",
            "value": "1143",
            "children": {
                "date_deb_annee": "1143"
            },
            "range": {
                "date_apres": 11430000,
                "date_avant": 11439999
            }
        },
        {
            "type": "auteur",
            "value": "Absalon, abb\u00e9 de Saint-Amand-les-Eaux"
        },
        {
            "type": "beneficiaire",
            "value": "Sainte-F\u00e9licit\u00e9, abbaye"
        },
        {
            "type": "cote",
            "value": "FRANCE, Paris, BNF, Collection Moreau, t. 60, f. 190"
        }
    ]
}