{
    "id": 9540,
    "name": "moreau-9014",
    "type": "acte",
    "url": "http:\/\/telma-chartes.irht.cnrs.fr\/moreau\/notice\/9540",
    "project_slug": "moreau",
    "project_label": "Inventaire Moreau",
    "user": "b_tock",
    "last_update": "2020-10-19 16:25:35",
    "licence": "Attribution - Pas d\u2019Utilisation Commerciale - Partage dans les M\u00eames Conditions 3.0 France (CC BY-NC-SA 3.0 FR) ",
    "licence_url": "https:\/\/creativecommons.org\/licenses\/by-nc-sa\/3.0\/fr\/",
    "elements": [
        {
            "type": "date",
            "value": "1158",
            "children": {
                "date_deb_annee": "1158"
            },
            "range": {
                "date_apres": 11580000,
                "date_avant": 11589999
            }
        },
        {
            "type": "auteur",
            "value": "Albert, comte de Chiny"
        },
        {
            "type": "beneficiaire",
            "value": "Metz, abbaye Saint-Arnoul"
        },
        {
            "type": "cote",
            "value": "FRANCE, Paris, BNF, Collection Moreau, t. 69, f. 36"
        }
    ]
}