{
    "id": 9010,
    "name": "moreau-8484",
    "type": "acte",
    "url": "http:\/\/telma-chartes.irht.cnrs.fr\/moreau\/notice\/9010",
    "project_slug": "moreau",
    "project_label": "Inventaire Moreau",
    "user": "b_tock",
    "last_update": "2020-10-19 16:25:33",
    "licence": "Attribution - Pas d\u2019Utilisation Commerciale - Partage dans les M\u00eames Conditions 3.0 France (CC BY-NC-SA 3.0 FR) ",
    "licence_url": "https:\/\/creativecommons.org\/licenses\/by-nc-sa\/3.0\/fr\/",
    "elements": [
        {
            "type": "date",
            "value": "1150",
            "children": {
                "date_deb_annee": "1150"
            },
            "range": {
                "date_apres": 11500000,
                "date_avant": 11509999
            }
        },
        {
            "type": "auteur",
            "value": "Pierre, abb\u00e9 de Saint-Pierre-et-Saint-Paul de Cluny"
        },
        {
            "type": "beneficiaire",
            "value": "Cluny, abbaye Saint-Pierre-et-Saint-Paul"
        },
        {
            "type": "cote",
            "value": "FRANCE, Paris, BNF, Collection Moreau, t. 64, f. 161"
        }
    ]
}