{
    "id": 5188,
    "name": "moreau-4662",
    "type": "acte",
    "url": "http:\/\/telma-chartes.irht.cnrs.fr\/moreau\/notice\/5188",
    "project_slug": "moreau",
    "project_label": "Inventaire Moreau",
    "user": "b_tock",
    "last_update": "2020-10-19 16:25:17",
    "licence": "Attribution - Pas d\u2019Utilisation Commerciale - Partage dans les M\u00eames Conditions 3.0 France (CC BY-NC-SA 3.0 FR) ",
    "licence_url": "https:\/\/creativecommons.org\/licenses\/by-nc-sa\/3.0\/fr\/",
    "elements": [
        {
            "type": "date",
            "value": "1080\/12\/29",
            "children": {
                "date_deb_annee": "1080",
                "date_deb_mois": "12",
                "date_deb_jour": "29"
            },
            "range": {
                "date_apres": 10801229,
                "date_avant": 10801229
            }
        },
        {
            "type": "remarques",
            "value": "archives de la cath\u00e9drale de Nevers 21e ann\u00e9e"
        },
        {
            "type": "auteur",
            "value": "Girbert, fils d'Evrard"
        },
        {
            "type": "beneficiaire",
            "value": "Erbert"
        },
        {
            "type": "beneficiaire",
            "value": "son \u00e9pouse"
        },
        {
            "type": "cote",
            "value": "FRANCE, Paris, BNF, Collection Moreau, t. 32, f. 124"
        }
    ]
}