{
    "id": 723,
    "name": "moreau-197",
    "type": "acte",
    "url": "http:\/\/telma-chartes.irht.cnrs.fr\/moreau\/notice\/723",
    "project_slug": "moreau",
    "project_label": "Inventaire Moreau",
    "user": "b_tock",
    "last_update": "2020-10-19 16:24:58",
    "licence": "Attribution - Pas d\u2019Utilisation Commerciale - Partage dans les M\u00eames Conditions 3.0 France (CC BY-NC-SA 3.0 FR) ",
    "licence_url": "https:\/\/creativecommons.org\/licenses\/by-nc-sa\/3.0\/fr\/",
    "elements": [
        {
            "type": "date",
            "value": "0877",
            "children": {
                "date_deb_annee": "0877"
            },
            "range": {
                "date_apres": 8770000,
                "date_avant": 8779999
            }
        },
        {
            "type": "auteur",
            "value": "Radbaldus"
        },
        {
            "type": "beneficiaire",
            "value": "Saint-Jouin, abbaye"
        },
        {
            "type": "cote",
            "value": "FRANCE, Paris, BNF, Collection Moreau, t. 2, f. 154"
        }
    ]
}