{
    "id": 7569,
    "name": "moreau-7043",
    "type": "acte",
    "url": "http:\/\/telma-chartes.irht.cnrs.fr\/moreau\/notice\/7569",
    "project_slug": "moreau",
    "project_label": "Inventaire Moreau",
    "user": "b_tock",
    "last_update": "2020-10-19 16:25:27",
    "licence": "Attribution - Pas d\u2019Utilisation Commerciale - Partage dans les M\u00eames Conditions 3.0 France (CC BY-NC-SA 3.0 FR) ",
    "licence_url": "https:\/\/creativecommons.org\/licenses\/by-nc-sa\/3.0\/fr\/",
    "elements": [
        {
            "type": "date",
            "value": "1122\/10\/10",
            "children": {
                "date_deb_annee": "1122",
                "date_deb_mois": "10",
                "date_deb_jour": "10"
            },
            "range": {
                "date_apres": 11221010,
                "date_avant": 11221010
            }
        },
        {
            "type": "auteur",
            "value": "Donald, \u00e9v\u00eaque de Saint-Malo"
        },
        {
            "type": "beneficiaire",
            "value": "Marmoutier, abbaye Saint-Martin"
        },
        {
            "type": "cote",
            "value": "FRANCE, Paris, BNF, Collection Moreau, t. 50, f. 200"
        }
    ]
}