{
    "id": 967,
    "name": "moreau-441",
    "type": "acte",
    "url": "http:\/\/telma-chartes.irht.cnrs.fr\/moreau\/notice\/967",
    "project_slug": "moreau",
    "project_label": "Inventaire Moreau",
    "user": "b_tock",
    "last_update": "2020-10-19 16:25:00",
    "licence": "Attribution - Pas d\u2019Utilisation Commerciale - Partage dans les M\u00eames Conditions 3.0 France (CC BY-NC-SA 3.0 FR) ",
    "licence_url": "https:\/\/creativecommons.org\/licenses\/by-nc-sa\/3.0\/fr\/",
    "elements": [
        {
            "type": "date",
            "value": "0919\/03\/30",
            "children": {
                "date_deb_annee": "0919",
                "date_deb_mois": "03",
                "date_deb_jour": "30"
            },
            "range": {
                "date_apres": 9190330,
                "date_avant": 9190330
            }
        },
        {
            "type": "auteur",
            "value": "Charles III le Simple, roi des Francs"
        },
        {
            "type": "beneficiaire",
            "value": "Eptinus"
        },
        {
            "type": "cote",
            "value": "FRANCE, Paris, BNF, Collection Moreau, t. 4, f. 62"
        }
    ]
}