{
    "id": 14373,
    "name": "moreau-13847",
    "type": "acte",
    "url": "http:\/\/telma-chartes.irht.cnrs.fr\/moreau\/notice\/14373",
    "project_slug": "moreau",
    "project_label": "Inventaire Moreau",
    "user": "b_tock",
    "last_update": "2020-10-19 16:25:53",
    "licence": "Attribution - Pas d\u2019Utilisation Commerciale - Partage dans les M\u00eames Conditions 3.0 France (CC BY-NC-SA 3.0 FR) ",
    "licence_url": "https:\/\/creativecommons.org\/licenses\/by-nc-sa\/3.0\/fr\/",
    "elements": [
        {
            "type": "date",
            "value": "1208\/12\/13",
            "children": {
                "date_deb_annee": "1208",
                "date_deb_mois": "12",
                "date_deb_jour": "13"
            },
            "range": {
                "date_apres": 12081213,
                "date_avant": 12081213
            }
        },
        {
            "type": "remarques",
            "value": "archives d'Hasnon"
        },
        {
            "type": "auteur",
            "value": "Raoul, \u00e9v\u00eaque d'Arras"
        },
        {
            "type": "beneficiaire",
            "value": "Douai, chapitre Saint-Am\u00e9"
        },
        {
            "type": "cote",
            "value": "FRANCE, Paris, BNF, Collection Moreau, t. 110, f. 215"
        }
    ]
}