{
    "id": 1479,
    "name": "moreau-953",
    "type": "acte",
    "url": "http:\/\/telma-chartes.irht.cnrs.fr\/moreau\/notice\/1479",
    "project_slug": "moreau",
    "project_label": "Inventaire Moreau",
    "user": "b_tock",
    "last_update": "2020-10-19 16:25:02",
    "licence": "Attribution - Pas d\u2019Utilisation Commerciale - Partage dans les M\u00eames Conditions 3.0 France (CC BY-NC-SA 3.0 FR) ",
    "licence_url": "https:\/\/creativecommons.org\/licenses\/by-nc-sa\/3.0\/fr\/",
    "elements": [
        {
            "type": "date",
            "value": "0949\/05\/18",
            "children": {
                "date_deb_annee": "0949",
                "date_deb_mois": "05",
                "date_deb_jour": "18"
            },
            "range": {
                "date_apres": 9490518,
                "date_avant": 9490518
            }
        },
        {
            "type": "auteur",
            "value": "Leotaldus, comte de M\u00e2con"
        },
        {
            "type": "beneficiaire",
            "value": "Cluny, abbaye Saint-Pierre-et-Saint-Paul"
        },
        {
            "type": "cote",
            "value": "FRANCE, Paris, BNF, Collection Moreau, t. 7, f. 193"
        }
    ]
}