{
    "id": 8590,
    "name": "moreau-8064",
    "type": "acte",
    "url": "http:\/\/telma-chartes.irht.cnrs.fr\/moreau\/notice\/8590",
    "project_slug": "moreau",
    "project_label": "Inventaire Moreau",
    "user": "b_tock",
    "last_update": "2020-10-19 16:25:31",
    "licence": "Attribution - Pas d\u2019Utilisation Commerciale - Partage dans les M\u00eames Conditions 3.0 France (CC BY-NC-SA 3.0 FR) ",
    "licence_url": "https:\/\/creativecommons.org\/licenses\/by-nc-sa\/3.0\/fr\/",
    "elements": [
        {
            "type": "date",
            "value": "1143",
            "children": {
                "date_deb_annee": "1143"
            },
            "range": {
                "date_apres": 11430000,
                "date_avant": 11439999
            }
        },
        {
            "type": "remarques",
            "value": "archives de l'abbaye de Corbie"
        },
        {
            "type": "auteur",
            "value": "Garin, \u00e9v\u00eaque d'Amiens"
        },
        {
            "type": "beneficiaire",
            "value": "Ourscamp, abbaye Notre-Dame\u00a0"
        },
        {
            "type": "beneficiaire",
            "value": "Marg\u00e8re, prieur\u00e9"
        },
        {
            "type": "cote",
            "value": "FRANCE, Paris, BNF, Collection Moreau, t. 60, f. 234"
        }
    ]
}