{
    "id": 8984,
    "name": "moreau-8458",
    "type": "acte",
    "url": "http:\/\/telma-chartes.irht.cnrs.fr\/moreau\/notice\/8984",
    "project_slug": "moreau",
    "project_label": "Inventaire Moreau",
    "user": "b_tock",
    "last_update": "2020-10-19 16:25:33",
    "licence": "Attribution - Pas d\u2019Utilisation Commerciale - Partage dans les M\u00eames Conditions 3.0 France (CC BY-NC-SA 3.0 FR) ",
    "licence_url": "https:\/\/creativecommons.org\/licenses\/by-nc-sa\/3.0\/fr\/",
    "elements": [
        {
            "type": "date",
            "value": "1149",
            "children": {
                "date_deb_annee": "1149"
            },
            "range": {
                "date_apres": 11490000,
                "date_avant": 11499999
            }
        },
        {
            "type": "auteur",
            "value": "Guillaume de Meres"
        },
        {
            "type": "beneficiaire",
            "value": "Eu, abbaye"
        },
        {
            "type": "cote",
            "value": "FRANCE, Paris, BNF, Collection Moreau, t. 64, f. 107"
        }
    ]
}