{
    "id": 11799,
    "name": "moreau-11273",
    "type": "acte",
    "url": "http:\/\/telma-chartes.irht.cnrs.fr\/moreau\/notice\/11799",
    "project_slug": "moreau",
    "project_label": "Inventaire Moreau",
    "user": "b_tock",
    "last_update": "2020-10-19 16:25:43",
    "licence": "Attribution - Pas d\u2019Utilisation Commerciale - Partage dans les M\u00eames Conditions 3.0 France (CC BY-NC-SA 3.0 FR) ",
    "licence_url": "https:\/\/creativecommons.org\/licenses\/by-nc-sa\/3.0\/fr\/",
    "elements": [
        {
            "type": "date_libre",
            "value": "1186\/1187-01-15"
        },
        {
            "type": "date",
            "value": "apres 1186 - avant 1187\/01\/15",
            "children": {
                "date_deb_annee": "1186",
                "date_deb_type": "apres",
                "date_fin_annee": "1187",
                "date_fin_mois": "01",
                "date_fin_jour": "15",
                "date_fin_type": "avant"
            },
            "range": {
                "date_apres": 11860000,
                "date_avant": 11870115
            }
        },
        {
            "type": "remarques",
            "value": "Jaff\u00e9, 15768"
        },
        {
            "type": "auteur",
            "value": "Urbain III, pape"
        },
        {
            "type": "beneficiaire",
            "value": "Senlis, abbaye Saint-Vincent"
        },
        {
            "type": "cote",
            "value": "FRANCE, Paris, BNF, Collection Moreau, t. 89, f. 149"
        }
    ]
}