{
    "id": 11109,
    "name": "moreau-10583",
    "type": "acte",
    "url": "http:\/\/telma-chartes.irht.cnrs.fr\/moreau\/notice\/11109",
    "project_slug": "moreau",
    "project_label": "Inventaire Moreau",
    "user": "b_tock",
    "last_update": "2020-10-19 16:25:41",
    "licence": "Attribution - Pas d\u2019Utilisation Commerciale - Partage dans les M\u00eames Conditions 3.0 France (CC BY-NC-SA 3.0 FR) ",
    "licence_url": "https:\/\/creativecommons.org\/licenses\/by-nc-sa\/3.0\/fr\/",
    "elements": [
        {
            "type": "date_libre",
            "value": "[1160-1178]-01-16"
        },
        {
            "type": "date",
            "value": "apres 1160\/01\/16 - avant 1178\/01\/16",
            "children": {
                "date_deb_annee": "1160",
                "date_deb_mois": "01",
                "date_deb_jour": "16",
                "date_deb_type": "apres",
                "date_fin_annee": "1178",
                "date_fin_mois": "01",
                "date_fin_jour": "16",
                "date_fin_type": "avant"
            },
            "range": {
                "date_apres": 11600116,
                "date_avant": 11780116
            }
        },
        {
            "type": "remarques",
            "value": "Jaff\u00e9, 12972"
        },
        {
            "type": "auteur",
            "value": "Alexandre III, pape"
        },
        {
            "type": "beneficiaire",
            "value": "Metz, chapitre Saint-Thi\u00e9baut"
        },
        {
            "type": "cote",
            "value": "FRANCE, Paris, BNF, Collection Moreau, t. 83, f. 139"
        }
    ]
}