{
    "id": 2672,
    "name": "moreau-2146",
    "type": "acte",
    "url": "http:\/\/telma-chartes.irht.cnrs.fr\/moreau\/notice\/2672",
    "project_slug": "moreau",
    "project_label": "Inventaire Moreau",
    "user": "b_tock",
    "last_update": "2020-10-19 16:25:07",
    "licence": "Attribution - Pas d\u2019Utilisation Commerciale - Partage dans les M\u00eames Conditions 3.0 France (CC BY-NC-SA 3.0 FR) ",
    "licence_url": "https:\/\/creativecommons.org\/licenses\/by-nc-sa\/3.0\/fr\/",
    "elements": [
        {
            "type": "date",
            "value": "0991\/02\/19",
            "children": {
                "date_deb_annee": "0991",
                "date_deb_mois": "02",
                "date_deb_jour": "19"
            },
            "range": {
                "date_apres": 9910219,
                "date_avant": 9910219
            }
        },
        {
            "type": "auteur",
            "value": "Riculfe, abb\u00e9 de Saint-Etienne de St-Est\u00e8ve"
        },
        {
            "type": "beneficiaire",
            "value": "Hilderiudus, \u00e9v\u00eaque d'Elne"
        },
        {
            "type": "cote",
            "value": "FRANCE, Paris, BNF, Collection Moreau, t. 14, f. 214"
        }
    ]
}