{
    "id": 14302,
    "name": "moreau-13776",
    "type": "acte",
    "url": "http:\/\/telma-chartes.irht.cnrs.fr\/moreau\/notice\/14302",
    "project_slug": "moreau",
    "project_label": "Inventaire Moreau",
    "user": "b_tock",
    "last_update": "2020-10-19 16:25:53",
    "licence": "Attribution - Pas d\u2019Utilisation Commerciale - Partage dans les M\u00eames Conditions 3.0 France (CC BY-NC-SA 3.0 FR) ",
    "licence_url": "https:\/\/creativecommons.org\/licenses\/by-nc-sa\/3.0\/fr\/",
    "elements": [
        {
            "type": "date",
            "value": "1220\/12\/07",
            "children": {
                "date_deb_annee": "1220",
                "date_deb_mois": "12",
                "date_deb_jour": "07"
            },
            "range": {
                "date_apres": 12201207,
                "date_avant": 12201207
            }
        },
        {
            "type": "auteur",
            "value": "Jacques de B\u00e9thune, official de Cambrai"
        },
        {
            "type": "beneficiaire",
            "value": "Cateau-Cambr\u00e9sis, abbaye Saint-Andr\u00e9"
        },
        {
            "type": "cote",
            "value": "FRANCE, Paris, BNF, Collection Moreau, t. 110, f. 77"
        }
    ]
}