{
    "id": 1302,
    "name": "moreau-776",
    "type": "acte",
    "url": "http:\/\/telma-chartes.irht.cnrs.fr\/moreau\/notice\/1302",
    "project_slug": "moreau",
    "project_label": "Inventaire Moreau",
    "user": "b_tock",
    "last_update": "2020-10-19 16:25:01",
    "licence": "Attribution - Pas d\u2019Utilisation Commerciale - Partage dans les M\u00eames Conditions 3.0 France (CC BY-NC-SA 3.0 FR) ",
    "licence_url": "https:\/\/creativecommons.org\/licenses\/by-nc-sa\/3.0\/fr\/",
    "elements": [
        {
            "type": "date",
            "value": "apres 0927 - avant 0942",
            "children": {
                "date_deb_annee": "0927",
                "date_deb_type": "apres",
                "date_fin_annee": "0942",
                "date_fin_type": "avant"
            },
            "range": {
                "date_apres": 9270000,
                "date_avant": 9429999
            }
        },
        {
            "type": "auteur",
            "value": "Rectrudis"
        },
        {
            "type": "beneficiaire",
            "value": "Cluny, abbaye Saint-Pierre-et-Saint-Paul"
        },
        {
            "type": "cote",
            "value": "FRANCE, Paris, BNF, Collection Moreau, t. 6, f. 194"
        }
    ]
}