{
    "id": 1314,
    "name": "moreau-788",
    "type": "acte",
    "url": "http:\/\/telma-chartes.irht.cnrs.fr\/moreau\/notice\/1314",
    "project_slug": "moreau",
    "project_label": "Inventaire Moreau",
    "user": "b_tock",
    "last_update": "2020-10-19 16:25:01",
    "licence": "Attribution - Pas d\u2019Utilisation Commerciale - Partage dans les M\u00eames Conditions 3.0 France (CC BY-NC-SA 3.0 FR) ",
    "licence_url": "https:\/\/creativecommons.org\/licenses\/by-nc-sa\/3.0\/fr\/",
    "elements": [
        {
            "type": "date",
            "value": "0942\/04\/07",
            "children": {
                "date_deb_annee": "0942",
                "date_deb_mois": "04",
                "date_deb_jour": "07"
            },
            "range": {
                "date_apres": 9420407,
                "date_avant": 9420407
            }
        },
        {
            "type": "auteur",
            "value": "Suniefredus, comte"
        },
        {
            "type": "beneficiaire",
            "value": "Wadaldus, \u00e9v\u00eaque d'Elne"
        },
        {
            "type": "cote",
            "value": "FRANCE, Paris, BNF, Collection Moreau, t. 6, f. 210"
        }
    ]
}