{
    "id": 4827,
    "name": "moreau-4301",
    "type": "acte",
    "url": "http:\/\/telma-chartes.irht.cnrs.fr\/moreau\/notice\/4827",
    "project_slug": "moreau",
    "project_label": "Inventaire Moreau",
    "user": "b_tock",
    "last_update": "2020-10-19 16:25:16",
    "licence": "Attribution - Pas d\u2019Utilisation Commerciale - Partage dans les M\u00eames Conditions 3.0 France (CC BY-NC-SA 3.0 FR) ",
    "licence_url": "https:\/\/creativecommons.org\/licenses\/by-nc-sa\/3.0\/fr\/",
    "elements": [
        {
            "type": "date",
            "value": "1068\/05",
            "children": {
                "date_deb_annee": "1068",
                "date_deb_mois": "05"
            },
            "range": {
                "date_apres": 10680500,
                "date_avant": 10680599
            }
        },
        {
            "type": "auteur",
            "value": "Josseli, tr\u00e9sorier de Saint-Hilaire de Poitiers"
        },
        {
            "type": "beneficiaire",
            "value": "Bourgueil, abbaye Saint-Pierre"
        },
        {
            "type": "cote",
            "value": "FRANCE, Paris, BNF, Collection Moreau, t. 29, f. 166"
        }
    ]
}