{
    "id": 7747,
    "name": "moreau-7221",
    "type": "acte",
    "url": "http:\/\/telma-chartes.irht.cnrs.fr\/moreau\/notice\/7747",
    "project_slug": "moreau",
    "project_label": "Inventaire Moreau",
    "user": "b_tock",
    "last_update": "2020-10-19 16:25:28",
    "licence": "Attribution - Pas d\u2019Utilisation Commerciale - Partage dans les M\u00eames Conditions 3.0 France (CC BY-NC-SA 3.0 FR) ",
    "licence_url": "https:\/\/creativecommons.org\/licenses\/by-nc-sa\/3.0\/fr\/",
    "elements": [
        {
            "type": "date",
            "value": "1126",
            "children": {
                "date_deb_annee": "1126"
            },
            "range": {
                "date_apres": 11260000,
                "date_avant": 11269999
            }
        },
        {
            "type": "auteur",
            "value": "Enguerran, \u00e9v\u00eaque d'Amiens"
        },
        {
            "type": "beneficiaire",
            "value": "Corbie, abbaye Saint-Pierre"
        },
        {
            "type": "cote",
            "value": "FRANCE, Paris, BNF, Collection Moreau, t. 52, f. 126"
        }
    ]
}