{
    "id": 9968,
    "name": "moreau-9442",
    "type": "acte",
    "url": "http:\/\/telma-chartes.irht.cnrs.fr\/moreau\/notice\/9968",
    "project_slug": "moreau",
    "project_label": "Inventaire Moreau",
    "user": "b_tock",
    "last_update": "2020-10-19 16:25:36",
    "licence": "Attribution - Pas d\u2019Utilisation Commerciale - Partage dans les M\u00eames Conditions 3.0 France (CC BY-NC-SA 3.0 FR) ",
    "licence_url": "https:\/\/creativecommons.org\/licenses\/by-nc-sa\/3.0\/fr\/",
    "elements": [
        {
            "type": "date",
            "value": "1164\/06\/18",
            "children": {
                "date_deb_annee": "1164",
                "date_deb_mois": "06",
                "date_deb_jour": "18"
            },
            "range": {
                "date_apres": 11640618,
                "date_avant": 11640618
            }
        },
        {
            "type": "auteur",
            "value": "P., pr\u00e9chantre du Mans"
        },
        {
            "type": "auteur",
            "value": "G. de Dusageiis, official du Mans"
        },
        {
            "type": "beneficiaire",
            "value": "Le Mans, abbaye Saint-Vincent"
        },
        {
            "type": "cote",
            "value": "FRANCE, Paris, BNF, Collection Moreau, t. 73, f. 11"
        }
    ]
}