{
    "id": 620,
    "name": "moreau-94",
    "type": "acte",
    "url": "http:\/\/telma-chartes.irht.cnrs.fr\/moreau\/notice\/620",
    "project_slug": "moreau",
    "project_label": "Inventaire Moreau",
    "user": "b_tock",
    "last_update": "2020-10-19 16:24:58",
    "licence": "Attribution - Pas d\u2019Utilisation Commerciale - Partage dans les M\u00eames Conditions 3.0 France (CC BY-NC-SA 3.0 FR) ",
    "licence_url": "https:\/\/creativecommons.org\/licenses\/by-nc-sa\/3.0\/fr\/",
    "elements": [
        {
            "type": "date",
            "value": "apres 0840 - avant 0877",
            "children": {
                "date_deb_annee": "0840",
                "date_deb_type": "apres",
                "date_fin_annee": "0877",
                "date_fin_type": "avant"
            },
            "range": {
                "date_apres": 8400000,
                "date_avant": 8779999
            }
        },
        {
            "type": "auteur",
            "value": "Saint-Maixent, abbaye"
        },
        {
            "type": "beneficiaire",
            "value": "Fausbertus"
        },
        {
            "type": "cote",
            "value": "FRANCE, Paris, BNF, Collection Moreau, t. 1, f. 190"
        }
    ]
}