{
    "id": 842,
    "name": "moreau-316",
    "type": "acte",
    "url": "http:\/\/telma-chartes.irht.cnrs.fr\/moreau\/notice\/842",
    "project_slug": "moreau",
    "project_label": "Inventaire Moreau",
    "user": "b_tock",
    "last_update": "2020-10-19 16:24:59",
    "licence": "Attribution - Pas d\u2019Utilisation Commerciale - Partage dans les M\u00eames Conditions 3.0 France (CC BY-NC-SA 3.0 FR) ",
    "licence_url": "https:\/\/creativecommons.org\/licenses\/by-nc-sa\/3.0\/fr\/",
    "elements": [
        {
            "type": "date",
            "value": "0900\/11\/29",
            "children": {
                "date_deb_annee": "0900",
                "date_deb_mois": "11",
                "date_deb_jour": "29"
            },
            "range": {
                "date_apres": 9001129,
                "date_avant": 9001129
            }
        },
        {
            "type": "remarques",
            "value": "archives de l'abbaye de Camprodon"
        },
        {
            "type": "auteur",
            "value": "Nantegisus, \u00e9v\u00eaque d'Urgel"
        },
        {
            "type": "cote",
            "value": "FRANCE, Paris, BNF, Collection Moreau, t. 3, f. 138"
        }
    ]
}