{
    "id": 6471,
    "name": "moreau-5945",
    "type": "acte",
    "url": "http:\/\/telma-chartes.irht.cnrs.fr\/moreau\/notice\/6471",
    "project_slug": "moreau",
    "project_label": "Inventaire Moreau",
    "user": "b_tock",
    "last_update": "2020-10-19 16:25:22",
    "licence": "Attribution - Pas d\u2019Utilisation Commerciale - Partage dans les M\u00eames Conditions 3.0 France (CC BY-NC-SA 3.0 FR) ",
    "licence_url": "https:\/\/creativecommons.org\/licenses\/by-nc-sa\/3.0\/fr\/",
    "elements": [
        {
            "type": "date",
            "value": "1103\/05\/29",
            "children": {
                "date_deb_annee": "1103",
                "date_deb_mois": "05",
                "date_deb_jour": "29"
            },
            "range": {
                "date_apres": 11030529,
                "date_avant": 11030529
            }
        },
        {
            "type": "remarques",
            "value": "archives de l'abbaye de Cluny"
        },
        {
            "type": "auteur",
            "value": "Pascal II, pape"
        },
        {
            "type": "beneficiaire",
            "value": "Limoges, abbaye Saint-Martial"
        },
        {
            "type": "cote",
            "value": "FRANCE, Paris, BNF, Collection Moreau, t. 41, f. 94"
        }
    ]
}