{
    "id": 4134,
    "name": "moreau-3608",
    "type": "acte",
    "url": "http:\/\/telma-chartes.irht.cnrs.fr\/moreau\/notice\/4134",
    "project_slug": "moreau",
    "project_label": "Inventaire Moreau",
    "user": "b_tock",
    "last_update": "2020-10-19 16:25:13",
    "licence": "Attribution - Pas d\u2019Utilisation Commerciale - Partage dans les M\u00eames Conditions 3.0 France (CC BY-NC-SA 3.0 FR) ",
    "licence_url": "https:\/\/creativecommons.org\/licenses\/by-nc-sa\/3.0\/fr\/",
    "elements": [
        {
            "type": "date",
            "value": "1045",
            "children": {
                "date_deb_annee": "1045"
            },
            "range": {
                "date_apres": 10450000,
                "date_avant": 10459999
            }
        },
        {
            "type": "auteur",
            "value": "Baudouin, \u00e9v\u00eaque de Noyon"
        },
        {
            "type": "beneficiaire",
            "value": "Noyon, cath\u00e9drale Notre-Dame"
        },
        {
            "type": "cote",
            "value": "FRANCE, Paris, BNF, Collection Moreau, t. 23, f. 186"
        }
    ]
}