{
    "id": 749,
    "name": "moreau-223",
    "type": "acte",
    "url": "http:\/\/telma-chartes.irht.cnrs.fr\/moreau\/notice\/749",
    "project_slug": "moreau",
    "project_label": "Inventaire Moreau",
    "user": "b_tock",
    "last_update": "2020-10-19 16:24:58",
    "licence": "Attribution - Pas d\u2019Utilisation Commerciale - Partage dans les M\u00eames Conditions 3.0 France (CC BY-NC-SA 3.0 FR) ",
    "licence_url": "https:\/\/creativecommons.org\/licenses\/by-nc-sa\/3.0\/fr\/",
    "elements": [
        {
            "type": "date",
            "value": "0883\/04",
            "children": {
                "date_deb_annee": "0883",
                "date_deb_mois": "04"
            },
            "range": {
                "date_apres": 8830400,
                "date_avant": 8830499
            }
        },
        {
            "type": "remarques",
            "value": "archives de la cath\u00e9drale de Limoges"
        },
        {
            "type": "auteur",
            "value": "Aimericus"
        },
        {
            "type": "beneficiaire",
            "value": "Astarius"
        },
        {
            "type": "cote",
            "value": "FRANCE, Paris, BNF, Collection Moreau, t. 2, f. 206"
        }
    ]
}