{
    "id": 3968,
    "name": "moreau-3442",
    "type": "acte",
    "url": "http:\/\/telma-chartes.irht.cnrs.fr\/moreau\/notice\/3968",
    "project_slug": "moreau",
    "project_label": "Inventaire Moreau",
    "user": "b_tock",
    "last_update": "2020-10-19 16:25:12",
    "licence": "Attribution - Pas d\u2019Utilisation Commerciale - Partage dans les M\u00eames Conditions 3.0 France (CC BY-NC-SA 3.0 FR) ",
    "licence_url": "https:\/\/creativecommons.org\/licenses\/by-nc-sa\/3.0\/fr\/",
    "elements": [
        {
            "type": "date_libre",
            "value": "[1031-1049]-03-07"
        },
        {
            "type": "date",
            "value": "apres 1031\/03\/07 - avant 1049\/03\/07",
            "children": {
                "date_deb_annee": "1031",
                "date_deb_mois": "03",
                "date_deb_jour": "07",
                "date_deb_type": "apres",
                "date_fin_annee": "1049",
                "date_fin_mois": "03",
                "date_fin_jour": "07",
                "date_fin_type": "avant"
            },
            "range": {
                "date_apres": 10310307,
                "date_avant": 10490307
            }
        },
        {
            "type": "auteur",
            "value": "Ava, \u00e9pouse de Gausfredus"
        },
        {
            "type": "beneficiaire",
            "value": "Cluny, abbaye Saint-Pierre-et-Saint-Paul"
        },
        {
            "type": "cote",
            "value": "FRANCE, Paris, BNF, Collection Moreau, t. 22, f. 127"
        }
    ]
}