{
    "id": 4364,
    "name": "moreau-3838",
    "type": "acte",
    "url": "http:\/\/telma-chartes.irht.cnrs.fr\/moreau\/notice\/4364",
    "project_slug": "moreau",
    "project_label": "Inventaire Moreau",
    "user": "b_tock",
    "last_update": "2020-10-19 16:25:14",
    "licence": "Attribution - Pas d\u2019Utilisation Commerciale - Partage dans les M\u00eames Conditions 3.0 France (CC BY-NC-SA 3.0 FR) ",
    "licence_url": "https:\/\/creativecommons.org\/licenses\/by-nc-sa\/3.0\/fr\/",
    "elements": [
        {
            "type": "date",
            "value": "1054\/03\/31",
            "children": {
                "date_deb_annee": "1054",
                "date_deb_mois": "03",
                "date_deb_jour": "31"
            },
            "range": {
                "date_apres": 10540331,
                "date_avant": 10540331
            }
        },
        {
            "type": "remarques",
            "value": "notice de plaid"
        },
        {
            "type": "auteur",
            "value": "Raimond, comte de Cerdagne"
        },
        {
            "type": "beneficiaire",
            "value": "Cuxa, abbaye Saint-Michel"
        },
        {
            "type": "cote",
            "value": "FRANCE, Paris, BNF, Collection Moreau, t. 25, f. 127"
        }
    ]
}