{
    "id": 14100,
    "name": "moreau-13574",
    "type": "acte",
    "url": "http:\/\/telma-chartes.irht.cnrs.fr\/moreau\/notice\/14100",
    "project_slug": "moreau",
    "project_label": "Inventaire Moreau",
    "user": "b_tock",
    "last_update": "2020-10-19 16:25:52",
    "licence": "Attribution - Pas d\u2019Utilisation Commerciale - Partage dans les M\u00eames Conditions 3.0 France (CC BY-NC-SA 3.0 FR) ",
    "licence_url": "https:\/\/creativecommons.org\/licenses\/by-nc-sa\/3.0\/fr\/",
    "elements": [
        {
            "type": "date",
            "value": "1206",
            "children": {
                "date_deb_annee": "1206"
            },
            "range": {
                "date_apres": 12060000,
                "date_avant": 12069999
            }
        },
        {
            "type": "auteur",
            "value": "Etienne, \u00e9v\u00eaque de Noyon"
        },
        {
            "type": "beneficiaire",
            "value": "Ham, abbaye Notre-Dame\u00a0"
        },
        {
            "type": "beneficiaire",
            "value": "P\u00e9ronne, l\u00e9proserie"
        },
        {
            "type": "cote",
            "value": "FRANCE, Paris, BNF, Collection Moreau, t. 108, f. 197"
        }
    ]
}