{
    "id": 9348,
    "name": "moreau-8822",
    "type": "acte",
    "url": "http:\/\/telma-chartes.irht.cnrs.fr\/moreau\/notice\/9348",
    "project_slug": "moreau",
    "project_label": "Inventaire Moreau",
    "user": "b_tock",
    "last_update": "2020-10-19 16:25:34",
    "licence": "Attribution - Pas d\u2019Utilisation Commerciale - Partage dans les M\u00eames Conditions 3.0 France (CC BY-NC-SA 3.0 FR) ",
    "licence_url": "https:\/\/creativecommons.org\/licenses\/by-nc-sa\/3.0\/fr\/",
    "elements": [
        {
            "type": "date",
            "value": "apres 1154 - avant 1189",
            "children": {
                "date_deb_annee": "1154",
                "date_deb_type": "apres",
                "date_fin_annee": "1189",
                "date_fin_type": "avant"
            },
            "range": {
                "date_apres": 11540000,
                "date_avant": 11899999
            }
        },
        {
            "type": "auteur",
            "value": "Henri II, roi d'Angleterre"
        },
        {
            "type": "beneficiaire",
            "value": "F\u00e9camp, abbaye Sainte-Trinit\u00e9"
        },
        {
            "type": "cote",
            "value": "FRANCE, Paris, BNF, Collection Moreau, t. 67, f. 145"
        }
    ]
}