{
    "id": 1081,
    "name": "moreau-555",
    "type": "acte",
    "url": "http:\/\/telma-chartes.irht.cnrs.fr\/moreau\/notice\/1081",
    "project_slug": "moreau",
    "project_label": "Inventaire Moreau",
    "user": "b_tock",
    "last_update": "2020-10-19 16:25:00",
    "licence": "Attribution - Pas d\u2019Utilisation Commerciale - Partage dans les M\u00eames Conditions 3.0 France (CC BY-NC-SA 3.0 FR) ",
    "licence_url": "https:\/\/creativecommons.org\/licenses\/by-nc-sa\/3.0\/fr\/",
    "elements": [
        {
            "type": "date",
            "value": "0929\/01",
            "children": {
                "date_deb_annee": "0929",
                "date_deb_mois": "01"
            },
            "range": {
                "date_apres": 9290100,
                "date_avant": 9290199
            }
        },
        {
            "type": "auteur",
            "value": "Bernon, \u00e9v\u00eaque de M\u00e2con"
        },
        {
            "type": "beneficiaire",
            "value": "Cluny, abbaye Saint-Pierre-et-Saint-Paul"
        },
        {
            "type": "cote",
            "value": "FRANCE, Paris, BNF, Collection Moreau, t. 5, f. 58"
        }
    ]
}