{
    "id": 4428,
    "name": "moreau-3902",
    "type": "acte",
    "url": "http:\/\/telma-chartes.irht.cnrs.fr\/moreau\/notice\/4428",
    "project_slug": "moreau",
    "project_label": "Inventaire Moreau",
    "user": "b_tock",
    "last_update": "2020-10-19 16:25:14",
    "licence": "Attribution - Pas d\u2019Utilisation Commerciale - Partage dans les M\u00eames Conditions 3.0 France (CC BY-NC-SA 3.0 FR) ",
    "licence_url": "https:\/\/creativecommons.org\/licenses\/by-nc-sa\/3.0\/fr\/",
    "elements": [
        {
            "type": "date_libre",
            "value": "1060\/1061-04-25"
        },
        {
            "type": "date",
            "value": "apres 1060 - avant 1061\/04\/25",
            "children": {
                "date_deb_annee": "1060",
                "date_deb_type": "apres",
                "date_fin_annee": "1061",
                "date_fin_mois": "04",
                "date_fin_jour": "25",
                "date_fin_type": "avant"
            },
            "range": {
                "date_apres": 10600000,
                "date_avant": 10610425
            }
        },
        {
            "type": "remarques",
            "value": "Jaff\u00e9, 4454"
        },
        {
            "type": "auteur",
            "value": "Nicolas II, pape"
        },
        {
            "type": "beneficiaire",
            "value": "Verdun, abbaye Saint-Vanne"
        },
        {
            "type": "cote",
            "value": "FRANCE, Paris, BNF, Collection Moreau, t. 26, f. 15"
        }
    ]
}