{
    "id": 5198,
    "name": "moreau-4672",
    "type": "acte",
    "url": "http:\/\/telma-chartes.irht.cnrs.fr\/moreau\/notice\/5198",
    "project_slug": "moreau",
    "project_label": "Inventaire Moreau",
    "user": "b_tock",
    "last_update": "2020-10-19 16:25:17",
    "licence": "Attribution - Pas d\u2019Utilisation Commerciale - Partage dans les M\u00eames Conditions 3.0 France (CC BY-NC-SA 3.0 FR) ",
    "licence_url": "https:\/\/creativecommons.org\/licenses\/by-nc-sa\/3.0\/fr\/",
    "elements": [
        {
            "type": "date",
            "value": "1080",
            "children": {
                "date_deb_annee": "1080"
            },
            "range": {
                "date_apres": 10800000,
                "date_avant": 10809999
            }
        },
        {
            "type": "auteur",
            "value": "Poitiers, chapitre Saint-Hilaire"
        },
        {
            "type": "beneficiaire",
            "value": "Longret"
        },
        {
            "type": "cote",
            "value": "FRANCE, Paris, BNF, Collection Moreau, t. 32, f. 140"
        }
    ]
}