{
    "id": 3002,
    "name": "moreau-2476",
    "type": "acte",
    "url": "http:\/\/telma-chartes.irht.cnrs.fr\/moreau\/notice\/3002",
    "project_slug": "moreau",
    "project_label": "Inventaire Moreau",
    "user": "b_tock",
    "last_update": "2020-10-19 16:25:09",
    "licence": "Attribution - Pas d\u2019Utilisation Commerciale - Partage dans les M\u00eames Conditions 3.0 France (CC BY-NC-SA 3.0 FR) ",
    "licence_url": "https:\/\/creativecommons.org\/licenses\/by-nc-sa\/3.0\/fr\/",
    "elements": [
        {
            "type": "date",
            "value": "0999\/08\/12",
            "children": {
                "date_deb_annee": "0999",
                "date_deb_mois": "08",
                "date_deb_jour": "12"
            },
            "range": {
                "date_apres": 9990812,
                "date_avant": 9990812
            }
        },
        {
            "type": "auteur",
            "value": "Foulques, comte d'Angoul\u00eame"
        },
        {
            "type": "beneficiaire",
            "value": "Angoul\u00eame, \u00e9glise Notre-Dame-de-Beaulieu"
        },
        {
            "type": "cote",
            "value": "FRANCE, Paris, BNF, Collection Moreau, t. 16, f. 175"
        }
    ]
}