{
    "id": 13192,
    "name": "moreau-12666",
    "type": "acte",
    "url": "http:\/\/telma-chartes.irht.cnrs.fr\/moreau\/notice\/13192",
    "project_slug": "moreau",
    "project_label": "Inventaire Moreau",
    "user": "b_tock",
    "last_update": "2020-10-19 16:25:49",
    "licence": "Attribution - Pas d\u2019Utilisation Commerciale - Partage dans les M\u00eames Conditions 3.0 France (CC BY-NC-SA 3.0 FR) ",
    "licence_url": "https:\/\/creativecommons.org\/licenses\/by-nc-sa\/3.0\/fr\/",
    "elements": [
        {
            "type": "date",
            "value": "1200",
            "children": {
                "date_deb_annee": "1200"
            },
            "range": {
                "date_apres": 12000000,
                "date_avant": 12009999
            }
        },
        {
            "type": "auteur",
            "value": "Philippe, \u00e9v\u00eaque de Beauvais"
        },
        {
            "type": "beneficiaire",
            "value": "Compi\u00e8gne, abbaye Saint-Corneille"
        },
        {
            "type": "cote",
            "value": "FRANCE, Paris, BNF, Collection Moreau, t. 101, f. 86"
        }
    ]
}