{
    "id": 9584,
    "name": "moreau-9058",
    "type": "acte",
    "url": "http:\/\/telma-chartes.irht.cnrs.fr\/moreau\/notice\/9584",
    "project_slug": "moreau",
    "project_label": "Inventaire Moreau",
    "user": "b_tock",
    "last_update": "2020-10-19 16:25:35",
    "licence": "Attribution - Pas d\u2019Utilisation Commerciale - Partage dans les M\u00eames Conditions 3.0 France (CC BY-NC-SA 3.0 FR) ",
    "licence_url": "https:\/\/creativecommons.org\/licenses\/by-nc-sa\/3.0\/fr\/",
    "elements": [
        {
            "type": "date",
            "value": "1159",
            "children": {
                "date_deb_annee": "1159"
            },
            "range": {
                "date_apres": 11590000,
                "date_avant": 11599999
            }
        },
        {
            "type": "auteur",
            "value": "Gautier, fils d'Hugues d'Ekas"
        },
        {
            "type": "beneficiaire",
            "value": "St-Omer, abbaye Saint-Bertin"
        },
        {
            "type": "cote",
            "value": "FRANCE, Paris, BNF, Collection Moreau, t. 69, f. 137"
        }
    ]
}