{
    "id": 7720,
    "name": "moreau-7194",
    "type": "acte",
    "url": "http:\/\/telma-chartes.irht.cnrs.fr\/moreau\/notice\/7720",
    "project_slug": "moreau",
    "project_label": "Inventaire Moreau",
    "user": "b_tock",
    "last_update": "2020-10-19 16:25:28",
    "licence": "Attribution - Pas d\u2019Utilisation Commerciale - Partage dans les M\u00eames Conditions 3.0 France (CC BY-NC-SA 3.0 FR) ",
    "licence_url": "https:\/\/creativecommons.org\/licenses\/by-nc-sa\/3.0\/fr\/",
    "elements": [
        {
            "type": "date_libre",
            "value": "[1125-1129]-04-01?"
        },
        {
            "type": "date",
            "value": "apres 1125\/04\/01 - avant 1129\/04\/01",
            "children": {
                "date_deb_annee": "1125",
                "date_deb_mois": "04",
                "date_deb_jour": "01",
                "date_deb_type": "apres",
                "date_fin_annee": "1129",
                "date_fin_mois": "04",
                "date_fin_jour": "01",
                "date_fin_type": "avant"
            },
            "range": {
                "date_apres": 11250401,
                "date_avant": 11290401
            }
        },
        {
            "type": "auteur",
            "value": "Honorius II, pape"
        },
        {
            "type": "beneficiaire",
            "value": "Verdun, abbaye Saint-Vanne et cath\u00e9drale"
        },
        {
            "type": "cote",
            "value": "FRANCE, Paris, BNF, Collection Moreau, t. 52, f. 63"
        }
    ]
}