{
    "id": 6926,
    "name": "moreau-6400",
    "type": "acte",
    "url": "http:\/\/telma-chartes.irht.cnrs.fr\/moreau\/notice\/6926",
    "project_slug": "moreau",
    "project_label": "Inventaire Moreau",
    "user": "b_tock",
    "last_update": "2020-10-19 16:25:24",
    "licence": "Attribution - Pas d\u2019Utilisation Commerciale - Partage dans les M\u00eames Conditions 3.0 France (CC BY-NC-SA 3.0 FR) ",
    "licence_url": "https:\/\/creativecommons.org\/licenses\/by-nc-sa\/3.0\/fr\/",
    "elements": [
        {
            "type": "date",
            "value": "1110",
            "children": {
                "date_deb_annee": "1110"
            },
            "range": {
                "date_apres": 11100000,
                "date_avant": 11109999
            }
        },
        {
            "type": "auteur",
            "value": "Aimeric G\u00e9raud de Pomroi"
        },
        {
            "type": "beneficiaire",
            "value": "Vigeois, abbaye Saint-Pierre"
        },
        {
            "type": "cote",
            "value": "FRANCE, Paris, BNF, Collection Moreau, t. 45, f. 28"
        }
    ]
}