{
    "id": 10247,
    "name": "moreau-9721",
    "type": "acte",
    "url": "http:\/\/telma-chartes.irht.cnrs.fr\/moreau\/notice\/10247",
    "project_slug": "moreau",
    "project_label": "Inventaire Moreau",
    "user": "b_tock",
    "last_update": "2020-10-19 16:25:37",
    "licence": "Attribution - Pas d\u2019Utilisation Commerciale - Partage dans les M\u00eames Conditions 3.0 France (CC BY-NC-SA 3.0 FR) ",
    "licence_url": "https:\/\/creativecommons.org\/licenses\/by-nc-sa\/3.0\/fr\/",
    "elements": [
        {
            "type": "date",
            "value": "1168",
            "children": {
                "date_deb_annee": "1168"
            },
            "range": {
                "date_apres": 11680000,
                "date_avant": 11689999
            }
        },
        {
            "type": "auteur",
            "value": "G\u00e9rard, \u00e9v\u00eaque de Tournai"
        },
        {
            "type": "beneficiaire",
            "value": "Arras, abbaye Saint-Vaast"
        },
        {
            "type": "cote",
            "value": "FRANCE, Paris, BNF, Collection Moreau, t. 75, f. 103"
        }
    ]
}