{
    "id": 2578,
    "name": "moreau-2052",
    "type": "acte",
    "url": "http:\/\/telma-chartes.irht.cnrs.fr\/moreau\/notice\/2578",
    "project_slug": "moreau",
    "project_label": "Inventaire Moreau",
    "user": "b_tock",
    "last_update": "2020-10-19 16:25:07",
    "licence": "Attribution - Pas d\u2019Utilisation Commerciale - Partage dans les M\u00eames Conditions 3.0 France (CC BY-NC-SA 3.0 FR) ",
    "licence_url": "https:\/\/creativecommons.org\/licenses\/by-nc-sa\/3.0\/fr\/",
    "elements": [
        {
            "type": "date",
            "value": "0989\/11\/08",
            "children": {
                "date_deb_annee": "0989",
                "date_deb_mois": "11",
                "date_deb_jour": "08"
            },
            "range": {
                "date_apres": 9891108,
                "date_avant": 9891108
            }
        },
        {
            "type": "auteur",
            "value": "Garin, abb\u00e9 de Saint-Denis"
        },
        {
            "type": "beneficiaire",
            "value": "Laon, abbaye Saint-Vincent"
        },
        {
            "type": "cote",
            "value": "FRANCE, Paris, BNF, Collection Moreau, t. 14, f. 81"
        }
    ]
}