{
    "id": 9838,
    "name": "moreau-9312",
    "type": "acte",
    "url": "http:\/\/telma-chartes.irht.cnrs.fr\/moreau\/notice\/9838",
    "project_slug": "moreau",
    "project_label": "Inventaire Moreau",
    "user": "b_tock",
    "last_update": "2020-10-19 16:25:36",
    "licence": "Attribution - Pas d\u2019Utilisation Commerciale - Partage dans les M\u00eames Conditions 3.0 France (CC BY-NC-SA 3.0 FR) ",
    "licence_url": "https:\/\/creativecommons.org\/licenses\/by-nc-sa\/3.0\/fr\/",
    "elements": [
        {
            "type": "date",
            "value": "1162",
            "children": {
                "date_deb_annee": "1162"
            },
            "range": {
                "date_apres": 11620000,
                "date_avant": 11629999
            }
        },
        {
            "type": "auteur",
            "value": "Alb\u00e9ric, comte de Dammartin"
        },
        {
            "type": "beneficiaire",
            "value": "Chaalis, abbaye Notre-Dame"
        },
        {
            "type": "cote",
            "value": "FRANCE, Paris, BNF, Collection Moreau, t. 71, f. 174"
        }
    ]
}