{
    "id": 8137,
    "name": "moreau-7611",
    "type": "acte",
    "url": "http:\/\/telma-chartes.irht.cnrs.fr\/moreau\/notice\/8137",
    "project_slug": "moreau",
    "project_label": "Inventaire Moreau",
    "user": "b_tock",
    "last_update": "2020-10-19 16:25:29",
    "licence": "Attribution - Pas d\u2019Utilisation Commerciale - Partage dans les M\u00eames Conditions 3.0 France (CC BY-NC-SA 3.0 FR) ",
    "licence_url": "https:\/\/creativecommons.org\/licenses\/by-nc-sa\/3.0\/fr\/",
    "elements": [
        {
            "type": "date",
            "value": "1136\/03\/25",
            "children": {
                "date_deb_annee": "1136",
                "date_deb_mois": "03",
                "date_deb_jour": "25"
            },
            "range": {
                "date_apres": 11360325,
                "date_avant": 11360325
            }
        },
        {
            "type": "remarques",
            "value": "archives de la cath\u00e9drale d'Elne 28e ann\u00e9e Louis"
        },
        {
            "type": "auteur",
            "value": "Adroarius"
        },
        {
            "type": "beneficiaire",
            "value": "Suniarius"
        },
        {
            "type": "cote",
            "value": "FRANCE, Paris, BNF, Collection Moreau, t. 56, f. 196"
        }
    ]
}