{
    "id": 605,
    "name": "moreau-79",
    "type": "acte",
    "url": "http:\/\/telma-chartes.irht.cnrs.fr\/moreau\/notice\/605",
    "project_slug": "moreau",
    "project_label": "Inventaire Moreau",
    "user": "b_tock",
    "last_update": "2020-10-19 16:24:58",
    "licence": "Attribution - Pas d\u2019Utilisation Commerciale - Partage dans les M\u00eames Conditions 3.0 France (CC BY-NC-SA 3.0 FR) ",
    "licence_url": "https:\/\/creativecommons.org\/licenses\/by-nc-sa\/3.0\/fr\/",
    "elements": [
        {
            "type": "date",
            "value": "0843\/12\/29",
            "children": {
                "date_deb_annee": "0843",
                "date_deb_mois": "12",
                "date_deb_jour": "29"
            },
            "range": {
                "date_apres": 8431229,
                "date_avant": 8431229
            }
        },
        {
            "type": "auteur",
            "value": "Charles le Chauve, roi des Francs"
        },
        {
            "type": "beneficiaire",
            "value": "Marmoutier, abbaye Saint-Martin"
        },
        {
            "type": "cote",
            "value": "FRANCE, Paris, BNF, Collection Moreau, t. 1, f. 154"
        }
    ]
}