{
    "id": 2945,
    "name": "moreau-2419",
    "type": "acte",
    "url": "http:\/\/telma-chartes.irht.cnrs.fr\/moreau\/notice\/2945",
    "project_slug": "moreau",
    "project_label": "Inventaire Moreau",
    "user": "b_tock",
    "last_update": "2020-10-19 16:25:08",
    "licence": "Attribution - Pas d\u2019Utilisation Commerciale - Partage dans les M\u00eames Conditions 3.0 France (CC BY-NC-SA 3.0 FR) ",
    "licence_url": "https:\/\/creativecommons.org\/licenses\/by-nc-sa\/3.0\/fr\/",
    "elements": [
        {
            "type": "date",
            "value": "0997\/03\/06",
            "children": {
                "date_deb_annee": "0997",
                "date_deb_mois": "03",
                "date_deb_jour": "06"
            },
            "range": {
                "date_apres": 9970306,
                "date_avant": 9970306
            }
        },
        {
            "type": "auteur",
            "value": "Odilon, abb\u00e9 de Saint-Pierre-et-Saint-Paul de Cluny"
        },
        {
            "type": "beneficiaire",
            "value": "Ma\u00efeul"
        },
        {
            "type": "cote",
            "value": "FRANCE, Paris, BNF, Collection Moreau, t. 16, f. 91"
        }
    ]
}