{
    "id": 14393,
    "name": "moreau-13867",
    "type": "acte",
    "url": "http:\/\/telma-chartes.irht.cnrs.fr\/moreau\/notice\/14393",
    "project_slug": "moreau",
    "project_label": "Inventaire Moreau",
    "user": "b_tock",
    "last_update": "2020-10-19 16:25:53",
    "licence": "Attribution - Pas d\u2019Utilisation Commerciale - Partage dans les M\u00eames Conditions 3.0 France (CC BY-NC-SA 3.0 FR) ",
    "licence_url": "https:\/\/creativecommons.org\/licenses\/by-nc-sa\/3.0\/fr\/",
    "elements": [
        {
            "type": "date",
            "value": "1208",
            "children": {
                "date_deb_annee": "1208"
            },
            "range": {
                "date_apres": 12080000,
                "date_avant": 12089999
            }
        },
        {
            "type": "auteur",
            "value": "Guillaume de La Roche, s\u00e9n\u00e9chal d'Anjou"
        },
        {
            "type": "beneficiaire",
            "value": "Le Mans, abbaye Saint-Vincent"
        },
        {
            "type": "cote",
            "value": "FRANCE, Paris, BNF, Collection Moreau, t. 111, f. 22"
        }
    ]
}