{
    "id": 12171,
    "name": "moreau-11645",
    "type": "acte",
    "url": "http:\/\/telma-chartes.irht.cnrs.fr\/moreau\/notice\/12171",
    "project_slug": "moreau",
    "project_label": "Inventaire Moreau",
    "user": "b_tock",
    "last_update": "2020-10-19 16:25:45",
    "licence": "Attribution - Pas d\u2019Utilisation Commerciale - Partage dans les M\u00eames Conditions 3.0 France (CC BY-NC-SA 3.0 FR) ",
    "licence_url": "https:\/\/creativecommons.org\/licenses\/by-nc-sa\/3.0\/fr\/",
    "elements": [
        {
            "type": "date",
            "value": "1190\/01\/31",
            "children": {
                "date_deb_annee": "1190",
                "date_deb_mois": "01",
                "date_deb_jour": "31"
            },
            "range": {
                "date_apres": 11900131,
                "date_avant": 11900131
            }
        },
        {
            "type": "auteur",
            "value": "Hugues, seigneur d'Antoing"
        },
        {
            "type": "beneficiaire",
            "value": "Ch\u00e2teau-L'Abbaye, abbaye Saint-Martin"
        },
        {
            "type": "cote",
            "value": "FRANCE, Paris, BNF, Collection Moreau, t. 92, f. 184"
        }
    ]
}