{
    "id": 7391,
    "name": "moreau-6865",
    "type": "acte",
    "url": "http:\/\/telma-chartes.irht.cnrs.fr\/moreau\/notice\/7391",
    "project_slug": "moreau",
    "project_label": "Inventaire Moreau",
    "user": "b_tock",
    "last_update": "2020-10-19 16:25:26",
    "licence": "Attribution - Pas d\u2019Utilisation Commerciale - Partage dans les M\u00eames Conditions 3.0 France (CC BY-NC-SA 3.0 FR) ",
    "licence_url": "https:\/\/creativecommons.org\/licenses\/by-nc-sa\/3.0\/fr\/",
    "elements": [
        {
            "type": "date",
            "value": "1119\/10",
            "children": {
                "date_deb_annee": "1119",
                "date_deb_mois": "10"
            },
            "range": {
                "date_apres": 11191000,
                "date_avant": 11191099
            }
        },
        {
            "type": "auteur",
            "value": "Bourgueil, abbaye Saint-Pierre"
        },
        {
            "type": "beneficiaire",
            "value": "Montierneuf, abbaye Saint-Jean"
        },
        {
            "type": "cote",
            "value": "FRANCE, Paris, BNF, Collection Moreau, t. 49, f. 88"
        }
    ]
}