{
    "id": 13434,
    "name": "moreau-12908",
    "type": "acte",
    "url": "http:\/\/telma-chartes.irht.cnrs.fr\/moreau\/notice\/13434",
    "project_slug": "moreau",
    "project_label": "Inventaire Moreau",
    "user": "b_tock",
    "last_update": "2020-10-19 16:25:49",
    "licence": "Attribution - Pas d\u2019Utilisation Commerciale - Partage dans les M\u00eames Conditions 3.0 France (CC BY-NC-SA 3.0 FR) ",
    "licence_url": "https:\/\/creativecommons.org\/licenses\/by-nc-sa\/3.0\/fr\/",
    "elements": [
        {
            "type": "date",
            "value": "1201\/01\/25",
            "children": {
                "date_deb_annee": "1201",
                "date_deb_mois": "01",
                "date_deb_jour": "25"
            },
            "range": {
                "date_apres": 12010125,
                "date_avant": 12010125
            }
        },
        {
            "type": "auteur",
            "value": "Louis, comte de Blois et de Clermont"
        },
        {
            "type": "beneficiaire",
            "value": "Beauvais, h\u00f4tel-Dieu"
        },
        {
            "type": "cote",
            "value": "FRANCE, Paris, BNF, Collection Moreau, t. 103, f. 89"
        }
    ]
}