{
    "id": 9202,
    "name": "moreau-8676",
    "type": "acte",
    "url": "http:\/\/telma-chartes.irht.cnrs.fr\/moreau\/notice\/9202",
    "project_slug": "moreau",
    "project_label": "Inventaire Moreau",
    "user": "b_tock",
    "last_update": "2020-10-19 16:25:34",
    "licence": "Attribution - Pas d\u2019Utilisation Commerciale - Partage dans les M\u00eames Conditions 3.0 France (CC BY-NC-SA 3.0 FR) ",
    "licence_url": "https:\/\/creativecommons.org\/licenses\/by-nc-sa\/3.0\/fr\/",
    "elements": [
        {
            "type": "date",
            "value": "1152",
            "children": {
                "date_deb_annee": "1152"
            },
            "range": {
                "date_apres": 11520000,
                "date_avant": 11529999
            }
        },
        {
            "type": "auteur",
            "value": "Pierre, abb\u00e9 de Saint-Lucien de Beauvais"
        },
        {
            "type": "beneficiaire",
            "value": "Beauvais, abbaye Saint-Lucien\u00a0"
        },
        {
            "type": "beneficiaire",
            "value": "S\u00e9lincourt, abbaye Sainte-Larme"
        },
        {
            "type": "cote",
            "value": "FRANCE, Paris, BNF, Collection Moreau, t. 66, f. 75"
        }
    ]
}