{
    "id": 6123,
    "name": "moreau-5597",
    "type": "acte",
    "url": "http:\/\/telma-chartes.irht.cnrs.fr\/moreau\/notice\/6123",
    "project_slug": "moreau",
    "project_label": "Inventaire Moreau",
    "user": "b_tock",
    "last_update": "2020-10-19 16:25:21",
    "licence": "Attribution - Pas d\u2019Utilisation Commerciale - Partage dans les M\u00eames Conditions 3.0 France (CC BY-NC-SA 3.0 FR) ",
    "licence_url": "https:\/\/creativecommons.org\/licenses\/by-nc-sa\/3.0\/fr\/",
    "elements": [
        {
            "type": "date",
            "value": "1098",
            "children": {
                "date_deb_annee": "1098"
            },
            "range": {
                "date_apres": 10980000,
                "date_avant": 10989999
            }
        },
        {
            "type": "auteur",
            "value": "Manass\u00e8s, \u00e9v\u00eaque de Cambrai"
        },
        {
            "type": "beneficiaire",
            "value": "Mont-Saint-Quentin, abbaye"
        },
        {
            "type": "cote",
            "value": "FRANCE, Paris, BNF, Collection Moreau, t. 39, f. 42"
        }
    ]
}