{
    "id": 8122,
    "name": "moreau-7596",
    "type": "acte",
    "url": "http:\/\/telma-chartes.irht.cnrs.fr\/moreau\/notice\/8122",
    "project_slug": "moreau",
    "project_label": "Inventaire Moreau",
    "user": "b_tock",
    "last_update": "2020-10-19 16:25:29",
    "licence": "Attribution - Pas d\u2019Utilisation Commerciale - Partage dans les M\u00eames Conditions 3.0 France (CC BY-NC-SA 3.0 FR) ",
    "licence_url": "https:\/\/creativecommons.org\/licenses\/by-nc-sa\/3.0\/fr\/",
    "elements": [
        {
            "type": "date",
            "value": "1135",
            "children": {
                "date_deb_annee": "1135"
            },
            "range": {
                "date_apres": 11350000,
                "date_avant": 11359999
            }
        },
        {
            "type": "remarques",
            "value": "archives de Saint-Beno\u00eet-sur-Loire"
        },
        {
            "type": "auteur",
            "value": "Louis VI, roi de France"
        },
        {
            "type": "beneficiaire",
            "value": "Ch\u00e2teauneuf, \u00e9glise"
        },
        {
            "type": "cote",
            "value": "FRANCE, Paris, BNF, Collection Moreau, t. 56, f. 161"
        }
    ]
}