{
    "id": 3360,
    "name": "moreau-2834",
    "type": "acte",
    "url": "http:\/\/telma-chartes.irht.cnrs.fr\/moreau\/notice\/3360",
    "project_slug": "moreau",
    "project_label": "Inventaire Moreau",
    "user": "b_tock",
    "last_update": "2020-10-19 16:25:10",
    "licence": "Attribution - Pas d\u2019Utilisation Commerciale - Partage dans les M\u00eames Conditions 3.0 France (CC BY-NC-SA 3.0 FR) ",
    "licence_url": "https:\/\/creativecommons.org\/licenses\/by-nc-sa\/3.0\/fr\/",
    "elements": [
        {
            "type": "date_libre",
            "value": "[994-1032]-03"
        },
        {
            "type": "date",
            "value": "apres 0994\/03 - avant 1032\/03",
            "children": {
                "date_deb_annee": "0994",
                "date_deb_mois": "03",
                "date_deb_type": "apres",
                "date_fin_annee": "1032",
                "date_fin_mois": "03",
                "date_fin_type": "avant"
            },
            "range": {
                "date_apres": 9940300,
                "date_avant": 10320399
            }
        },
        {
            "type": "auteur",
            "value": "Bernaldus"
        },
        {
            "type": "beneficiaire",
            "value": "Cluny, abbaye Saint-Pierre-et-Saint-Paul"
        },
        {
            "type": "cote",
            "value": "FRANCE, Paris, BNF, Collection Moreau, t. 18, f. 144"
        }
    ]
}