{
    "id": 12352,
    "name": "moreau-11826",
    "type": "acte",
    "url": "http:\/\/telma-chartes.irht.cnrs.fr\/moreau\/notice\/12352",
    "project_slug": "moreau",
    "project_label": "Inventaire Moreau",
    "user": "b_tock",
    "last_update": "2020-10-19 16:25:45",
    "licence": "Attribution - Pas d\u2019Utilisation Commerciale - Partage dans les M\u00eames Conditions 3.0 France (CC BY-NC-SA 3.0 FR) ",
    "licence_url": "https:\/\/creativecommons.org\/licenses\/by-nc-sa\/3.0\/fr\/",
    "elements": [
        {
            "type": "date",
            "value": "1192\/09\/24",
            "children": {
                "date_deb_annee": "1192",
                "date_deb_mois": "09",
                "date_deb_jour": "24"
            },
            "range": {
                "date_apres": 11920924,
                "date_avant": 11920924
            }
        },
        {
            "type": "auteur",
            "value": "Thibaud, \u00e9v\u00eaque d'Amiens"
        },
        {
            "type": "beneficiaire",
            "value": "Saint-Josse, abbaye"
        },
        {
            "type": "cote",
            "value": "FRANCE, Paris, BNF, Collection Moreau, t. 94, f. 96"
        }
    ]
}