{
    "id": 6145,
    "name": "moreau-5619",
    "type": "acte",
    "url": "http:\/\/telma-chartes.irht.cnrs.fr\/moreau\/notice\/6145",
    "project_slug": "moreau",
    "project_label": "Inventaire Moreau",
    "user": "b_tock",
    "last_update": "2020-10-19 16:25:21",
    "licence": "Attribution - Pas d\u2019Utilisation Commerciale - Partage dans les M\u00eames Conditions 3.0 France (CC BY-NC-SA 3.0 FR) ",
    "licence_url": "https:\/\/creativecommons.org\/licenses\/by-nc-sa\/3.0\/fr\/",
    "elements": [
        {
            "type": "date",
            "value": "1100\/02\/23",
            "children": {
                "date_deb_annee": "1100",
                "date_deb_mois": "02",
                "date_deb_jour": "23"
            },
            "range": {
                "date_apres": 11000223,
                "date_avant": 11000223
            }
        },
        {
            "type": "auteur",
            "value": "Guigues, comte"
        },
        {
            "type": "beneficiaire",
            "value": "Grenoble, cath\u00e9drale Notre-Dame"
        },
        {
            "type": "cote",
            "value": "FRANCE, Paris, BNF, Collection Moreau, t. 39, f. 78"
        }
    ]
}