{
    "id": 14330,
    "name": "moreau-13804",
    "type": "acte",
    "url": "http:\/\/telma-chartes.irht.cnrs.fr\/moreau\/notice\/14330",
    "project_slug": "moreau",
    "project_label": "Inventaire Moreau",
    "user": "b_tock",
    "last_update": "2020-10-19 16:25:53",
    "licence": "Attribution - Pas d\u2019Utilisation Commerciale - Partage dans les M\u00eames Conditions 3.0 France (CC BY-NC-SA 3.0 FR) ",
    "licence_url": "https:\/\/creativecommons.org\/licenses\/by-nc-sa\/3.0\/fr\/",
    "elements": [
        {
            "type": "date",
            "value": "1208\/05\/21",
            "children": {
                "date_deb_annee": "1208",
                "date_deb_mois": "05",
                "date_deb_jour": "21"
            },
            "range": {
                "date_apres": 12080521,
                "date_avant": 12080521
            }
        },
        {
            "type": "auteur",
            "value": "Baudouin, ch\u00e2telain de Tournai"
        },
        {
            "type": "beneficiaire",
            "value": "Ch\u00e2teau-L'Abbaye, abbaye Saint-Martin"
        },
        {
            "type": "cote",
            "value": "FRANCE, Paris, BNF, Collection Moreau, t. 110, f. 130"
        }
    ]
}