{
    "id": 10766,
    "name": "moreau-10240",
    "type": "acte",
    "url": "http:\/\/telma-chartes.irht.cnrs.fr\/moreau\/notice\/10766",
    "project_slug": "moreau",
    "project_label": "Inventaire Moreau",
    "user": "b_tock",
    "last_update": "2020-10-19 16:25:39",
    "licence": "Attribution - Pas d\u2019Utilisation Commerciale - Partage dans les M\u00eames Conditions 3.0 France (CC BY-NC-SA 3.0 FR) ",
    "licence_url": "https:\/\/creativecommons.org\/licenses\/by-nc-sa\/3.0\/fr\/",
    "elements": [
        {
            "type": "date",
            "value": "1176",
            "children": {
                "date_deb_annee": "1176"
            },
            "range": {
                "date_apres": 11760000,
                "date_avant": 11769999
            }
        },
        {
            "type": "auteur",
            "value": "Gui, \u00e9v\u00eaque de Ch\u00e2lons"
        },
        {
            "type": "beneficiaire",
            "value": "La Chalade, abbaye Notre-Dame"
        },
        {
            "type": "cote",
            "value": "FRANCE, Paris, BNF, Collection Moreau, t. 80, f. 85"
        }
    ]
}