{
    "id": 14205,
    "name": "moreau-13679",
    "type": "acte",
    "url": "http:\/\/telma-chartes.irht.cnrs.fr\/moreau\/notice\/14205",
    "project_slug": "moreau",
    "project_label": "Inventaire Moreau",
    "user": "b_tock",
    "last_update": "2020-10-19 16:25:53",
    "licence": "Attribution - Pas d\u2019Utilisation Commerciale - Partage dans les M\u00eames Conditions 3.0 France (CC BY-NC-SA 3.0 FR) ",
    "licence_url": "https:\/\/creativecommons.org\/licenses\/by-nc-sa\/3.0\/fr\/",
    "elements": [
        {
            "type": "date",
            "value": "1207\/07",
            "children": {
                "date_deb_annee": "1207",
                "date_deb_mois": "07"
            },
            "range": {
                "date_apres": 12070700,
                "date_avant": 12070799
            }
        },
        {
            "type": "auteur",
            "value": "Guillaume, comte de Pontieu et Montreuil"
        },
        {
            "type": "beneficiaire",
            "value": "Eu, prieur\u00e9 Sainte-Trinit\u00e9?"
        },
        {
            "type": "cote",
            "value": "FRANCE, Paris, BNF, Collection Moreau, t. 109, f. 147"
        }
    ]
}