{
    "id": 4783,
    "name": "moreau-4257",
    "type": "acte",
    "url": "http:\/\/telma-chartes.irht.cnrs.fr\/moreau\/notice\/4783",
    "project_slug": "moreau",
    "project_label": "Inventaire Moreau",
    "user": "b_tock",
    "last_update": "2020-10-19 16:25:16",
    "licence": "Attribution - Pas d\u2019Utilisation Commerciale - Partage dans les M\u00eames Conditions 3.0 France (CC BY-NC-SA 3.0 FR) ",
    "licence_url": "https:\/\/creativecommons.org\/licenses\/by-nc-sa\/3.0\/fr\/",
    "elements": [
        {
            "type": "date",
            "value": "1066",
            "children": {
                "date_deb_annee": "1066"
            },
            "range": {
                "date_apres": 10660000,
                "date_avant": 10669999
            }
        },
        {
            "type": "remarques",
            "value": "cartulaire baronie Picquigny, archives de l'abbaye de Corbie"
        },
        {
            "type": "auteur",
            "value": "Gui, \u00e9v\u00eaque d'Amiens"
        },
        {
            "type": "beneficiaire",
            "value": "Picquigny, chapitre"
        },
        {
            "type": "cote",
            "value": "FRANCE, Paris, BNF, Collection Moreau, t. 29, f. 63"
        }
    ]
}