{
    "id": 6441,
    "name": "moreau-5915",
    "type": "acte",
    "url": "http:\/\/telma-chartes.irht.cnrs.fr\/moreau\/notice\/6441",
    "project_slug": "moreau",
    "project_label": "Inventaire Moreau",
    "user": "b_tock",
    "last_update": "2020-10-19 16:25:22",
    "licence": "Attribution - Pas d\u2019Utilisation Commerciale - Partage dans les M\u00eames Conditions 3.0 France (CC BY-NC-SA 3.0 FR) ",
    "licence_url": "https:\/\/creativecommons.org\/licenses\/by-nc-sa\/3.0\/fr\/",
    "elements": [
        {
            "type": "date",
            "value": "1101\/03\/07",
            "children": {
                "date_deb_annee": "1101",
                "date_deb_mois": "03",
                "date_deb_jour": "07"
            },
            "range": {
                "date_apres": 11010307,
                "date_avant": 11010307
            }
        },
        {
            "type": "auteur",
            "value": "Pons Arnaud"
        },
        {
            "type": "auteur",
            "value": "Bernard Pons"
        },
        {
            "type": "beneficiaire",
            "value": "Elne, cath\u00e9drale Sainte-Eulalie-et-Sainte-Julie"
        },
        {
            "type": "cote",
            "value": "FRANCE, Paris, BNF, Collection Moreau, t. 41, f. 40"
        }
    ]
}