{
    "id": 1009,
    "name": "moreau-483",
    "type": "acte",
    "url": "http:\/\/telma-chartes.irht.cnrs.fr\/moreau\/notice\/1009",
    "project_slug": "moreau",
    "project_label": "Inventaire Moreau",
    "user": "b_tock",
    "last_update": "2020-10-19 16:25:00",
    "licence": "Attribution - Pas d\u2019Utilisation Commerciale - Partage dans les M\u00eames Conditions 3.0 France (CC BY-NC-SA 3.0 FR) ",
    "licence_url": "https:\/\/creativecommons.org\/licenses\/by-nc-sa\/3.0\/fr\/",
    "elements": [
        {
            "type": "date",
            "value": "apres 0919 - avant 0920",
            "children": {
                "date_deb_annee": "0919",
                "date_deb_type": "apres",
                "date_fin_annee": "0920",
                "date_fin_type": "avant"
            },
            "range": {
                "date_apres": 9190000,
                "date_avant": 9209999
            }
        },
        {
            "type": "auteur",
            "value": "Frofadus, archidiacre de Poitiers"
        },
        {
            "type": "beneficiaire",
            "value": "Poitiers, abbaye Saint-Hilaire"
        },
        {
            "type": "cote",
            "value": "FRANCE, Paris, BNF, Collection Moreau, t. 4, f. 124"
        }
    ]
}