{
    "id": 11911,
    "name": "moreau-11385",
    "type": "acte",
    "url": "http:\/\/telma-chartes.irht.cnrs.fr\/moreau\/notice\/11911",
    "project_slug": "moreau",
    "project_label": "Inventaire Moreau",
    "user": "b_tock",
    "last_update": "2020-10-19 16:25:44",
    "licence": "Attribution - Pas d\u2019Utilisation Commerciale - Partage dans les M\u00eames Conditions 3.0 France (CC BY-NC-SA 3.0 FR) ",
    "licence_url": "https:\/\/creativecommons.org\/licenses\/by-nc-sa\/3.0\/fr\/",
    "elements": [
        {
            "type": "date",
            "value": "1188\/07",
            "children": {
                "date_deb_annee": "1188",
                "date_deb_mois": "07"
            },
            "range": {
                "date_apres": 11880700,
                "date_avant": 11880799
            }
        },
        {
            "type": "auteur",
            "value": "Alphonse, roi d'Aragon"
        },
        {
            "type": "beneficiaire",
            "value": "Arles, abbaye Notre-Dame"
        },
        {
            "type": "cote",
            "value": "FRANCE, Paris, BNF, Collection Moreau, t. 90, f. 131"
        }
    ]
}