{
    "id": 3734,
    "name": "moreau-3208",
    "type": "acte",
    "url": "http:\/\/telma-chartes.irht.cnrs.fr\/moreau\/notice\/3734",
    "project_slug": "moreau",
    "project_label": "Inventaire Moreau",
    "user": "b_tock",
    "last_update": "2020-10-19 16:25:11",
    "licence": "Attribution - Pas d\u2019Utilisation Commerciale - Partage dans les M\u00eames Conditions 3.0 France (CC BY-NC-SA 3.0 FR) ",
    "licence_url": "https:\/\/creativecommons.org\/licenses\/by-nc-sa\/3.0\/fr\/",
    "elements": [
        {
            "type": "date",
            "value": "1032",
            "children": {
                "date_deb_annee": "1032"
            },
            "range": {
                "date_apres": 10320000,
                "date_avant": 10329999
            }
        },
        {
            "type": "auteur",
            "value": "Guifred, archev\u00eaque de Narbonne"
        },
        {
            "type": "beneficiaire",
            "value": "Angoul\u00eame, \u00e9glise Saint-Ausone?"
        },
        {
            "type": "cote",
            "value": "FRANCE, Paris, BNF, Collection Moreau, t. 20, f. 239"
        }
    ]
}