{
    "id": 765,
    "name": "moreau-239",
    "type": "acte",
    "url": "http:\/\/telma-chartes.irht.cnrs.fr\/moreau\/notice\/765",
    "project_slug": "moreau",
    "project_label": "Inventaire Moreau",
    "user": "b_tock",
    "last_update": "2020-10-19 16:24:58",
    "licence": "Attribution - Pas d\u2019Utilisation Commerciale - Partage dans les M\u00eames Conditions 3.0 France (CC BY-NC-SA 3.0 FR) ",
    "licence_url": "https:\/\/creativecommons.org\/licenses\/by-nc-sa\/3.0\/fr\/",
    "elements": [
        {
            "type": "date",
            "value": "apres 0881 - avant 0888",
            "children": {
                "date_deb_annee": "0881",
                "date_deb_type": "apres",
                "date_fin_annee": "0888",
                "date_fin_type": "avant"
            },
            "range": {
                "date_apres": 8810000,
                "date_avant": 8889999
            }
        },
        {
            "type": "remarques",
            "value": "archives de l'abbaye de Cluny"
        },
        {
            "type": "auteur",
            "value": "Charles le Gros, empereur"
        },
        {
            "type": "beneficiaire",
            "value": "Odilon"
        },
        {
            "type": "cote",
            "value": "FRANCE, Paris, BNF, Collection Moreau, t. 3, f. 12"
        }
    ]
}