{
    "id": 6080,
    "name": "moreau-5554",
    "type": "acte",
    "url": "http:\/\/telma-chartes.irht.cnrs.fr\/moreau\/notice\/6080",
    "project_slug": "moreau",
    "project_label": "Inventaire Moreau",
    "user": "b_tock",
    "last_update": "2020-10-19 16:25:21",
    "licence": "Attribution - Pas d\u2019Utilisation Commerciale - Partage dans les M\u00eames Conditions 3.0 France (CC BY-NC-SA 3.0 FR) ",
    "licence_url": "https:\/\/creativecommons.org\/licenses\/by-nc-sa\/3.0\/fr\/",
    "elements": [
        {
            "type": "date",
            "value": "1097",
            "children": {
                "date_deb_annee": "1097"
            },
            "range": {
                "date_apres": 10970000,
                "date_avant": 10979999
            }
        },
        {
            "type": "auteur",
            "value": "Baudri, \u00e9v\u00eaque de Tournai et de Noyon"
        },
        {
            "type": "beneficiaire",
            "value": "Noyon, abbaye Saint-Eloi"
        },
        {
            "type": "cote",
            "value": "FRANCE, Paris, BNF, Collection Moreau, t. 38, f. 212"
        }
    ]
}