{
    "id": 11628,
    "name": "moreau-11102",
    "type": "acte",
    "url": "http:\/\/telma-chartes.irht.cnrs.fr\/moreau\/notice\/11628",
    "project_slug": "moreau",
    "project_label": "Inventaire Moreau",
    "user": "b_tock",
    "last_update": "2020-10-19 16:25:43",
    "licence": "Attribution - Pas d\u2019Utilisation Commerciale - Partage dans les M\u00eames Conditions 3.0 France (CC BY-NC-SA 3.0 FR) ",
    "licence_url": "https:\/\/creativecommons.org\/licenses\/by-nc-sa\/3.0\/fr\/",
    "elements": [
        {
            "type": "date_libre",
            "value": "1184\/1185-08-11"
        },
        {
            "type": "date",
            "value": "apres 1184 - avant 1185\/08\/11",
            "children": {
                "date_deb_annee": "1184",
                "date_deb_type": "apres",
                "date_fin_annee": "1185",
                "date_fin_mois": "08",
                "date_fin_jour": "11",
                "date_fin_type": "avant"
            },
            "range": {
                "date_apres": 11840000,
                "date_avant": 11850811
            }
        },
        {
            "type": "auteur",
            "value": "Lucius III, pape"
        },
        {
            "type": "beneficiaire",
            "value": "St-Omer, abbaye Saint-Bertin"
        },
        {
            "type": "cote",
            "value": "FRANCE, Paris, BNF, Collection Moreau, t. 88, f. 47"
        }
    ]
}