{
    "id": 3597,
    "name": "moreau-3071",
    "type": "acte",
    "url": "http:\/\/telma-chartes.irht.cnrs.fr\/moreau\/notice\/3597",
    "project_slug": "moreau",
    "project_label": "Inventaire Moreau",
    "user": "b_tock",
    "last_update": "2020-10-19 16:25:11",
    "licence": "Attribution - Pas d\u2019Utilisation Commerciale - Partage dans les M\u00eames Conditions 3.0 France (CC BY-NC-SA 3.0 FR) ",
    "licence_url": "https:\/\/creativecommons.org\/licenses\/by-nc-sa\/3.0\/fr\/",
    "elements": [
        {
            "type": "date",
            "value": "apres 1021 - avant 1086",
            "children": {
                "date_deb_annee": "1021",
                "date_deb_type": "apres",
                "date_fin_annee": "1086",
                "date_fin_type": "avant"
            },
            "range": {
                "date_apres": 10210000,
                "date_avant": 10869999
            }
        },
        {
            "type": "auteur",
            "value": "Isembert, \u00e9v\u00eaque de Poitiers"
        },
        {
            "type": "beneficiaire",
            "value": "Marmoutier, abbaye Saint-Martin"
        },
        {
            "type": "cote",
            "value": "FRANCE, Paris, BNF, Collection Moreau, t. 20, f. 10"
        }
    ]
}