{
    "id": 5473,
    "name": "moreau-4947",
    "type": "acte",
    "url": "http:\/\/telma-chartes.irht.cnrs.fr\/moreau\/notice\/5473",
    "project_slug": "moreau",
    "project_label": "Inventaire Moreau",
    "user": "b_tock",
    "last_update": "2020-10-19 16:25:18",
    "licence": "Attribution - Pas d\u2019Utilisation Commerciale - Partage dans les M\u00eames Conditions 3.0 France (CC BY-NC-SA 3.0 FR) ",
    "licence_url": "https:\/\/creativecommons.org\/licenses\/by-nc-sa\/3.0\/fr\/",
    "elements": [
        {
            "type": "date",
            "value": "1084\/03\/01",
            "children": {
                "date_deb_annee": "1084",
                "date_deb_mois": "03",
                "date_deb_jour": "01"
            },
            "range": {
                "date_apres": 10840301,
                "date_avant": 10840301
            }
        },
        {
            "type": "auteur",
            "value": "Gui, \u00e9v\u00eaque de Beauvais"
        },
        {
            "type": "beneficiaire",
            "value": "Buri, prieur\u00e9\u00a0"
        },
        {
            "type": "beneficiaire",
            "value": "Saint-Jean-d'Ang\u00e9ly, ann."
        },
        {
            "type": "cote",
            "value": "FRANCE, Paris, BNF, Collection Moreau, t. 34, f. 114"
        }
    ]
}