{
    "id": 8295,
    "name": "moreau-7769",
    "type": "acte",
    "url": "http:\/\/telma-chartes.irht.cnrs.fr\/moreau\/notice\/8295",
    "project_slug": "moreau",
    "project_label": "Inventaire Moreau",
    "user": "b_tock",
    "last_update": "2020-10-19 16:25:30",
    "licence": "Attribution - Pas d\u2019Utilisation Commerciale - Partage dans les M\u00eames Conditions 3.0 France (CC BY-NC-SA 3.0 FR) ",
    "licence_url": "https:\/\/creativecommons.org\/licenses\/by-nc-sa\/3.0\/fr\/",
    "elements": [
        {
            "type": "date",
            "value": "1138\/02\/27",
            "children": {
                "date_deb_annee": "1138",
                "date_deb_mois": "02",
                "date_deb_jour": "27"
            },
            "range": {
                "date_apres": 11380227,
                "date_avant": 11380227
            }
        },
        {
            "type": "remarques",
            "value": "testament"
        },
        {
            "type": "auteur",
            "value": "Bernard de Turillis, chanoine d'Elne"
        },
        {
            "type": "beneficiaire",
            "value": "Elne, cath\u00e9drale Sainte-Eulalie-et-Sainte-Julie"
        },
        {
            "type": "cote",
            "value": "FRANCE, Paris, BNF, Collection Moreau, t. 58, f. 58"
        }
    ]
}