{
    "id": 13312,
    "name": "moreau-12786",
    "type": "acte",
    "url": "http:\/\/telma-chartes.irht.cnrs.fr\/moreau\/notice\/13312",
    "project_slug": "moreau",
    "project_label": "Inventaire Moreau",
    "user": "b_tock",
    "last_update": "2020-10-19 16:25:49",
    "licence": "Attribution - Pas d\u2019Utilisation Commerciale - Partage dans les M\u00eames Conditions 3.0 France (CC BY-NC-SA 3.0 FR) ",
    "licence_url": "https:\/\/creativecommons.org\/licenses\/by-nc-sa\/3.0\/fr\/",
    "elements": [
        {
            "type": "date",
            "value": "1201\/05",
            "children": {
                "date_deb_annee": "1201",
                "date_deb_mois": "05"
            },
            "range": {
                "date_apres": 12010500,
                "date_avant": 12010599
            }
        },
        {
            "type": "auteur",
            "value": "Roger, \u00e9v\u00eaque de Laon"
        },
        {
            "type": "beneficiaire",
            "value": "Fervaques, abbaye Notre-Dame"
        },
        {
            "type": "cote",
            "value": "FRANCE, Paris, BNF, Collection Moreau, t. 102, f. 76"
        }
    ]
}