{
    "id": 11526,
    "name": "moreau-11000",
    "type": "acte",
    "url": "http:\/\/telma-chartes.irht.cnrs.fr\/moreau\/notice\/11526",
    "project_slug": "moreau",
    "project_label": "Inventaire Moreau",
    "user": "b_tock",
    "last_update": "2020-10-19 16:25:42",
    "licence": "Attribution - Pas d\u2019Utilisation Commerciale - Partage dans les M\u00eames Conditions 3.0 France (CC BY-NC-SA 3.0 FR) ",
    "licence_url": "https:\/\/creativecommons.org\/licenses\/by-nc-sa\/3.0\/fr\/",
    "elements": [
        {
            "type": "date",
            "value": "1183",
            "children": {
                "date_deb_annee": "1183"
            },
            "range": {
                "date_apres": 11830000,
                "date_avant": 11839999
            }
        },
        {
            "type": "auteur",
            "value": "Philippe Auguste, roi de France"
        },
        {
            "type": "beneficiaire",
            "value": "Saint-Beno\u00eet-sur-Loire, abbaye"
        },
        {
            "type": "cote",
            "value": "FRANCE, Paris, BNF, Collection Moreau, t. 87, f. 40"
        }
    ]
}