{
    "id": 1818,
    "name": "moreau-1292",
    "type": "acte",
    "url": "http:\/\/telma-chartes.irht.cnrs.fr\/moreau\/notice\/1818",
    "project_slug": "moreau",
    "project_label": "Inventaire Moreau",
    "user": "b_tock",
    "last_update": "2020-10-19 16:25:03",
    "licence": "Attribution - Pas d\u2019Utilisation Commerciale - Partage dans les M\u00eames Conditions 3.0 France (CC BY-NC-SA 3.0 FR) ",
    "licence_url": "https:\/\/creativecommons.org\/licenses\/by-nc-sa\/3.0\/fr\/",
    "elements": [
        {
            "type": "date",
            "value": "0962\/03",
            "children": {
                "date_deb_annee": "0962",
                "date_deb_mois": "03"
            },
            "range": {
                "date_apres": 9620300,
                "date_avant": 9620399
            }
        },
        {
            "type": "remarques",
            "value": "archives de l'abbaye de Saint-Maixent"
        },
        {
            "type": "auteur",
            "value": "Ebles, \u00e9v\u00eaque de Limoges et abb\u00e9 de Saint-Maixent"
        },
        {
            "type": "beneficiaire",
            "value": "Isembard"
        },
        {
            "type": "cote",
            "value": "FRANCE, Paris, BNF, Collection Moreau, t. 9, f. 176"
        }
    ]
}