{
    "id": 13824,
    "name": "moreau-13298",
    "type": "acte",
    "url": "http:\/\/telma-chartes.irht.cnrs.fr\/moreau\/notice\/13824",
    "project_slug": "moreau",
    "project_label": "Inventaire Moreau",
    "user": "b_tock",
    "last_update": "2020-10-19 16:25:51",
    "licence": "Attribution - Pas d\u2019Utilisation Commerciale - Partage dans les M\u00eames Conditions 3.0 France (CC BY-NC-SA 3.0 FR) ",
    "licence_url": "https:\/\/creativecommons.org\/licenses\/by-nc-sa\/3.0\/fr\/",
    "elements": [
        {
            "type": "date",
            "value": "1204",
            "children": {
                "date_deb_annee": "1204"
            },
            "range": {
                "date_apres": 12040000,
                "date_avant": 12049999
            }
        },
        {
            "type": "auteur",
            "value": "Mathieu, comte de Beaumont"
        },
        {
            "type": "beneficiaire",
            "value": "Noyon, abbaye Saint-Eloi"
        },
        {
            "type": "cote",
            "value": "FRANCE, Paris, BNF, Collection Moreau, t. 106, f. 113"
        }
    ]
}