{
    "id": 2953,
    "name": "moreau-2427",
    "type": "acte",
    "url": "http:\/\/telma-chartes.irht.cnrs.fr\/moreau\/notice\/2953",
    "project_slug": "moreau",
    "project_label": "Inventaire Moreau",
    "user": "b_tock",
    "last_update": "2020-10-19 16:25:08",
    "licence": "Attribution - Pas d\u2019Utilisation Commerciale - Partage dans les M\u00eames Conditions 3.0 France (CC BY-NC-SA 3.0 FR) ",
    "licence_url": "https:\/\/creativecommons.org\/licenses\/by-nc-sa\/3.0\/fr\/",
    "elements": [
        {
            "type": "date",
            "value": "apres 1006 - avant 1007",
            "children": {
                "date_deb_annee": "1006",
                "date_deb_type": "apres",
                "date_fin_annee": "1007",
                "date_fin_type": "avant"
            },
            "range": {
                "date_apres": 10060000,
                "date_avant": 10079999
            }
        },
        {
            "type": "auteur",
            "value": "Robert le Pieux, roi de France"
        },
        {
            "type": "beneficiaire",
            "value": "Paris, abbaye Saint-Magloire"
        },
        {
            "type": "cote",
            "value": "FRANCE, Paris, BNF, Collection Moreau, t. 16, f. 104"
        }
    ]
}