{
    "id": 9875,
    "name": "moreau-9349",
    "type": "acte",
    "url": "http:\/\/telma-chartes.irht.cnrs.fr\/moreau\/notice\/9875",
    "project_slug": "moreau",
    "project_label": "Inventaire Moreau",
    "user": "b_tock",
    "last_update": "2020-10-19 16:25:36",
    "licence": "Attribution - Pas d\u2019Utilisation Commerciale - Partage dans les M\u00eames Conditions 3.0 France (CC BY-NC-SA 3.0 FR) ",
    "licence_url": "https:\/\/creativecommons.org\/licenses\/by-nc-sa\/3.0\/fr\/",
    "elements": [
        {
            "type": "date",
            "value": "1163\/08\/13",
            "children": {
                "date_deb_annee": "1163",
                "date_deb_mois": "08",
                "date_deb_jour": "13"
            },
            "range": {
                "date_apres": 11630813,
                "date_avant": 11630813
            }
        },
        {
            "type": "auteur",
            "value": "Arbert, abb\u00e9 Saint-Michel de Cuxa"
        },
        {
            "type": "beneficiaire",
            "value": "Cuxa, abbaye Saint-Michel"
        },
        {
            "type": "cote",
            "value": "FRANCE, Paris, BNF, Collection Moreau, t. 72, f. 32"
        }
    ]
}