{
    "id": 7705,
    "name": "moreau-7179",
    "type": "acte",
    "url": "http:\/\/telma-chartes.irht.cnrs.fr\/moreau\/notice\/7705",
    "project_slug": "moreau",
    "project_label": "Inventaire Moreau",
    "user": "b_tock",
    "last_update": "2020-10-19 16:25:28",
    "licence": "Attribution - Pas d\u2019Utilisation Commerciale - Partage dans les M\u00eames Conditions 3.0 France (CC BY-NC-SA 3.0 FR) ",
    "licence_url": "https:\/\/creativecommons.org\/licenses\/by-nc-sa\/3.0\/fr\/",
    "elements": [
        {
            "type": "date",
            "value": "1125",
            "children": {
                "date_deb_annee": "1125"
            },
            "range": {
                "date_apres": 11250000,
                "date_avant": 11259999
            }
        },
        {
            "type": "auteur",
            "value": "Lisiard, \u00e9v\u00eaque de Soissons"
        },
        {
            "type": "beneficiaire",
            "value": "Soissons, abbaye Saint-Jean-des-Vignes"
        },
        {
            "type": "cote",
            "value": "FRANCE, Paris, BNF, Collection Moreau, t. 52, f. 38"
        }
    ]
}