{
    "id": 8665,
    "name": "moreau-8139",
    "type": "acte",
    "url": "http:\/\/telma-chartes.irht.cnrs.fr\/moreau\/notice\/8665",
    "project_slug": "moreau",
    "project_label": "Inventaire Moreau",
    "user": "b_tock",
    "last_update": "2020-10-19 16:25:31",
    "licence": "Attribution - Pas d\u2019Utilisation Commerciale - Partage dans les M\u00eames Conditions 3.0 France (CC BY-NC-SA 3.0 FR) ",
    "licence_url": "https:\/\/creativecommons.org\/licenses\/by-nc-sa\/3.0\/fr\/",
    "elements": [
        {
            "type": "date",
            "value": "1184\/01\/31",
            "children": {
                "date_deb_annee": "1184",
                "date_deb_mois": "01",
                "date_deb_jour": "31"
            },
            "range": {
                "date_apres": 11840131,
                "date_avant": 11840131
            }
        },
        {
            "type": "remarques",
            "value": "Jaff\u00e9, 14980"
        },
        {
            "type": "auteur",
            "value": "Lucius II, pape"
        },
        {
            "type": "beneficiaire",
            "value": "Corbie, abbaye Saint-Pierre"
        },
        {
            "type": "cote",
            "value": "FRANCE, Paris, BNF, Collection Moreau, t. 61, f. 120"
        }
    ]
}