{
    "id": 13872,
    "name": "moreau-13346",
    "type": "acte",
    "url": "http:\/\/telma-chartes.irht.cnrs.fr\/moreau\/notice\/13872",
    "project_slug": "moreau",
    "project_label": "Inventaire Moreau",
    "user": "b_tock",
    "last_update": "2020-10-19 16:25:51",
    "licence": "Attribution - Pas d\u2019Utilisation Commerciale - Partage dans les M\u00eames Conditions 3.0 France (CC BY-NC-SA 3.0 FR) ",
    "licence_url": "https:\/\/creativecommons.org\/licenses\/by-nc-sa\/3.0\/fr\/",
    "elements": [
        {
            "type": "date",
            "value": "1204\/11\/22",
            "children": {
                "date_deb_annee": "1204",
                "date_deb_mois": "11",
                "date_deb_jour": "22"
            },
            "range": {
                "date_apres": 12041122,
                "date_avant": 12041122
            }
        },
        {
            "type": "auteur",
            "value": "Innocent III, pape"
        },
        {
            "type": "beneficiaire",
            "value": "Fervaques, abbaye Notre-Dame"
        },
        {
            "type": "cote",
            "value": "FRANCE, Paris, BNF, Collection Moreau, t. 106, f. 201"
        }
    ]
}