{
    "id": 665,
    "name": "moreau-139",
    "type": "acte",
    "url": "http:\/\/telma-chartes.irht.cnrs.fr\/moreau\/notice\/665",
    "project_slug": "moreau",
    "project_label": "Inventaire Moreau",
    "user": "b_tock",
    "last_update": "2020-10-19 16:24:58",
    "licence": "Attribution - Pas d\u2019Utilisation Commerciale - Partage dans les M\u00eames Conditions 3.0 France (CC BY-NC-SA 3.0 FR) ",
    "licence_url": "https:\/\/creativecommons.org\/licenses\/by-nc-sa\/3.0\/fr\/",
    "elements": [
        {
            "type": "date",
            "value": "0863",
            "children": {
                "date_deb_annee": "0863"
            },
            "range": {
                "date_apres": 8630000,
                "date_avant": 8639999
            }
        },
        {
            "type": "auteur",
            "value": "Adventius, \u00e9v\u00eaque de Metz"
        },
        {
            "type": "beneficiaire",
            "value": "Gorze, abbaye Saint-Gorgon"
        },
        {
            "type": "cote",
            "value": "FRANCE, Paris, BNF, Collection Moreau, t. 2, f. 41"
        }
    ]
}