{
    "id": 13113,
    "name": "moreau-12587",
    "type": "acte",
    "url": "http:\/\/telma-chartes.irht.cnrs.fr\/moreau\/notice\/13113",
    "project_slug": "moreau",
    "project_label": "Inventaire Moreau",
    "user": "b_tock",
    "last_update": "2020-10-19 16:25:48",
    "licence": "Attribution - Pas d\u2019Utilisation Commerciale - Partage dans les M\u00eames Conditions 3.0 France (CC BY-NC-SA 3.0 FR) ",
    "licence_url": "https:\/\/creativecommons.org\/licenses\/by-nc-sa\/3.0\/fr\/",
    "elements": [
        {
            "type": "date",
            "value": "1199\/04\/16",
            "children": {
                "date_deb_annee": "1199",
                "date_deb_mois": "04",
                "date_deb_jour": "16"
            },
            "range": {
                "date_apres": 11990416,
                "date_avant": 11990416
            }
        },
        {
            "type": "auteur",
            "value": "Arnoul de Gu\u00eenes"
        },
        {
            "type": "beneficiaire",
            "value": "La Capelle, abbaye Notre-Dame"
        },
        {
            "type": "cote",
            "value": "FRANCE, Paris, BNF, Collection Moreau, t. 100, f. 157"
        }
    ]
}