{
    "id": 11802,
    "name": "moreau-11276",
    "type": "acte",
    "url": "http:\/\/telma-chartes.irht.cnrs.fr\/moreau\/notice\/11802",
    "project_slug": "moreau",
    "project_label": "Inventaire Moreau",
    "user": "b_tock",
    "last_update": "2020-10-19 16:25:43",
    "licence": "Attribution - Pas d\u2019Utilisation Commerciale - Partage dans les M\u00eames Conditions 3.0 France (CC BY-NC-SA 3.0 FR) ",
    "licence_url": "https:\/\/creativecommons.org\/licenses\/by-nc-sa\/3.0\/fr\/",
    "elements": [
        {
            "type": "date",
            "value": "1186\/03\/12",
            "children": {
                "date_deb_annee": "1186",
                "date_deb_mois": "03",
                "date_deb_jour": "12"
            },
            "range": {
                "date_apres": 11860312,
                "date_avant": 11860312
            }
        },
        {
            "type": "auteur",
            "value": "B\u00e9renger d'Orle"
        },
        {
            "type": "beneficiaire",
            "value": "Elne, cath\u00e9drale Sainte-Eulalie-et-Sainte-Julie"
        },
        {
            "type": "cote",
            "value": "FRANCE, Paris, BNF, Collection Moreau, t. 89, f. 154"
        }
    ]
}