{
    "id": 10939,
    "name": "moreau-10413",
    "type": "acte",
    "url": "http:\/\/telma-chartes.irht.cnrs.fr\/moreau\/notice\/10939",
    "project_slug": "moreau",
    "project_label": "Inventaire Moreau",
    "user": "b_tock",
    "last_update": "2020-10-19 16:25:40",
    "licence": "Attribution - Pas d\u2019Utilisation Commerciale - Partage dans les M\u00eames Conditions 3.0 France (CC BY-NC-SA 3.0 FR) ",
    "licence_url": "https:\/\/creativecommons.org\/licenses\/by-nc-sa\/3.0\/fr\/",
    "elements": [
        {
            "type": "date",
            "value": "1178",
            "children": {
                "date_deb_annee": "1178"
            },
            "range": {
                "date_apres": 11780000,
                "date_avant": 11789999
            }
        },
        {
            "type": "auteur",
            "value": "Thibaud, \u00e9v\u00eaque d'Amiens"
        },
        {
            "type": "beneficiaire",
            "value": "Beauvais, abbaye Saint-Lucien"
        },
        {
            "type": "cote",
            "value": "FRANCE, Paris, BNF, Collection Moreau, t. 82, f. 34"
        }
    ]
}