{
    "id": 10629,
    "name": "moreau-10103",
    "type": "acte",
    "url": "http:\/\/telma-chartes.irht.cnrs.fr\/moreau\/notice\/10629",
    "project_slug": "moreau",
    "project_label": "Inventaire Moreau",
    "user": "b_tock",
    "last_update": "2020-10-19 16:25:39",
    "licence": "Attribution - Pas d\u2019Utilisation Commerciale - Partage dans les M\u00eames Conditions 3.0 France (CC BY-NC-SA 3.0 FR) ",
    "licence_url": "https:\/\/creativecommons.org\/licenses\/by-nc-sa\/3.0\/fr\/",
    "elements": [
        {
            "type": "date",
            "value": "1174\/09\/18",
            "children": {
                "date_deb_annee": "1174",
                "date_deb_mois": "09",
                "date_deb_jour": "18"
            },
            "range": {
                "date_apres": 11740918,
                "date_avant": 11740918
            }
        },
        {
            "type": "remarques",
            "value": "archives de la cath\u00e9drale de Noyon"
        },
        {
            "type": "auteur",
            "value": "Yves de Nesle, comte de Soissons"
        },
        {
            "type": "beneficiaire",
            "value": "Nesle, l\u00e9proserie"
        },
        {
            "type": "cote",
            "value": "FRANCE, Paris, BNF, Collection Moreau, t. 79, f. 12"
        }
    ]
}