{
    "id": 7459,
    "name": "moreau-6933",
    "type": "acte",
    "url": "http:\/\/telma-chartes.irht.cnrs.fr\/moreau\/notice\/7459",
    "project_slug": "moreau",
    "project_label": "Inventaire Moreau",
    "user": "b_tock",
    "last_update": "2020-10-19 16:25:27",
    "licence": "Attribution - Pas d\u2019Utilisation Commerciale - Partage dans les M\u00eames Conditions 3.0 France (CC BY-NC-SA 3.0 FR) ",
    "licence_url": "https:\/\/creativecommons.org\/licenses\/by-nc-sa\/3.0\/fr\/",
    "elements": [
        {
            "type": "date",
            "value": "1120",
            "children": {
                "date_deb_annee": "1120"
            },
            "range": {
                "date_apres": 11200000,
                "date_avant": 11209999
            }
        },
        {
            "type": "auteur",
            "value": "Renard de Thourotte"
        },
        {
            "type": "beneficiaire",
            "value": "Saint-Germer-de-Flay, abbaye"
        },
        {
            "type": "cote",
            "value": "FRANCE, Paris, BNF, Collection Moreau, t. 50, f. 25"
        }
    ]
}