{
    "id": 10918,
    "name": "moreau-10392",
    "type": "acte",
    "url": "http:\/\/telma-chartes.irht.cnrs.fr\/moreau\/notice\/10918",
    "project_slug": "moreau",
    "project_label": "Inventaire Moreau",
    "user": "b_tock",
    "last_update": "2020-10-19 16:25:40",
    "licence": "Attribution - Pas d\u2019Utilisation Commerciale - Partage dans les M\u00eames Conditions 3.0 France (CC BY-NC-SA 3.0 FR) ",
    "licence_url": "https:\/\/creativecommons.org\/licenses\/by-nc-sa\/3.0\/fr\/",
    "elements": [
        {
            "type": "date",
            "value": "apres 1178 - avant 1197",
            "children": {
                "date_deb_annee": "1178",
                "date_deb_type": "apres",
                "date_fin_annee": "1197",
                "date_fin_type": "avant"
            },
            "range": {
                "date_apres": 11780000,
                "date_avant": 11979999
            }
        },
        {
            "type": "auteur",
            "value": "Robert de Sabl\u00e9"
        },
        {
            "type": "beneficiaire",
            "value": "Angers, abbaye Saint-Serge"
        },
        {
            "type": "cote",
            "value": "FRANCE, Paris, BNF, Collection Moreau, t. 81, f. 182"
        }
    ]
}