{
    "id": 14340,
    "name": "moreau-13814",
    "type": "acte",
    "url": "http:\/\/telma-chartes.irht.cnrs.fr\/moreau\/notice\/14340",
    "project_slug": "moreau",
    "project_label": "Inventaire Moreau",
    "user": "b_tock",
    "last_update": "2020-10-19 16:25:53",
    "licence": "Attribution - Pas d\u2019Utilisation Commerciale - Partage dans les M\u00eames Conditions 3.0 France (CC BY-NC-SA 3.0 FR) ",
    "licence_url": "https:\/\/creativecommons.org\/licenses\/by-nc-sa\/3.0\/fr\/",
    "elements": [
        {
            "type": "date",
            "value": "1208\/05",
            "children": {
                "date_deb_annee": "1208",
                "date_deb_mois": "05"
            },
            "range": {
                "date_apres": 12080500,
                "date_avant": 12080599
            }
        },
        {
            "type": "auteur",
            "value": "Manass\u00e8s, abb\u00e9 de Saint-Loup de Troyes"
        },
        {
            "type": "beneficiaire",
            "value": "Monti\u00e9ramey, abbaye Saint-Pierre"
        },
        {
            "type": "cote",
            "value": "FRANCE, Paris, BNF, Collection Moreau, t. 110, f. 147"
        }
    ]
}