{
    "id": 9236,
    "name": "moreau-8710",
    "type": "acte",
    "url": "http:\/\/telma-chartes.irht.cnrs.fr\/moreau\/notice\/9236",
    "project_slug": "moreau",
    "project_label": "Inventaire Moreau",
    "user": "b_tock",
    "last_update": "2020-10-19 16:25:34",
    "licence": "Attribution - Pas d\u2019Utilisation Commerciale - Partage dans les M\u00eames Conditions 3.0 France (CC BY-NC-SA 3.0 FR) ",
    "licence_url": "https:\/\/creativecommons.org\/licenses\/by-nc-sa\/3.0\/fr\/",
    "elements": [
        {
            "type": "date",
            "value": "1153",
            "children": {
                "date_deb_annee": "1153"
            },
            "range": {
                "date_apres": 11530000,
                "date_avant": 11539999
            }
        },
        {
            "type": "auteur",
            "value": "Henri, comte de Troyes"
        },
        {
            "type": "beneficiaire",
            "value": "Provins, prieur\u00e9 Saint-Ayoul"
        },
        {
            "type": "cote",
            "value": "FRANCE, Paris, BNF, Collection Moreau, t. 66, f. 154"
        }
    ]
}