{
    "id": 11803,
    "name": "moreau-11277",
    "type": "acte",
    "url": "http:\/\/telma-chartes.irht.cnrs.fr\/moreau\/notice\/11803",
    "project_slug": "moreau",
    "project_label": "Inventaire Moreau",
    "user": "b_tock",
    "last_update": "2020-10-19 16:25:43",
    "licence": "Attribution - Pas d\u2019Utilisation Commerciale - Partage dans les M\u00eames Conditions 3.0 France (CC BY-NC-SA 3.0 FR) ",
    "licence_url": "https:\/\/creativecommons.org\/licenses\/by-nc-sa\/3.0\/fr\/",
    "elements": [
        {
            "type": "date",
            "value": "1286\/03",
            "children": {
                "date_deb_annee": "1286",
                "date_deb_mois": "03"
            },
            "range": {
                "date_apres": 12860300,
                "date_avant": 12860399
            }
        },
        {
            "type": "auteur",
            "value": "Alphonse, roi d'Aragon"
        },
        {
            "type": "beneficiaire",
            "value": "Arles, abbaye Notre-Dame"
        },
        {
            "type": "cote",
            "value": "FRANCE, Paris, BNF, Collection Moreau, t. 89, f. 156"
        }
    ]
}