{
    "id": 6426,
    "name": "moreau-5900",
    "type": "acte",
    "url": "http:\/\/telma-chartes.irht.cnrs.fr\/moreau\/notice\/6426",
    "project_slug": "moreau",
    "project_label": "Inventaire Moreau",
    "user": "b_tock",
    "last_update": "2020-10-19 16:25:22",
    "licence": "Attribution - Pas d\u2019Utilisation Commerciale - Partage dans les M\u00eames Conditions 3.0 France (CC BY-NC-SA 3.0 FR) ",
    "licence_url": "https:\/\/creativecommons.org\/licenses\/by-nc-sa\/3.0\/fr\/",
    "elements": [
        {
            "type": "date",
            "value": "1101\/11\/24",
            "children": {
                "date_deb_annee": "1101",
                "date_deb_mois": "11",
                "date_deb_jour": "24"
            },
            "range": {
                "date_apres": 11011124,
                "date_avant": 11011124
            }
        },
        {
            "type": "remarques",
            "value": "concile de Poitiers"
        },
        {
            "type": "auteur",
            "value": "Cardinaux de l'\u00c9glise romaine"
        },
        {
            "type": "beneficiaire",
            "value": "Charroux, abbaye Saint-Sauveur"
        },
        {
            "type": "cote",
            "value": "FRANCE, Paris, BNF, Collection Moreau, t. 41, f. 12"
        }
    ]
}