{
    "id": 12087,
    "name": "moreau-11561",
    "type": "acte",
    "url": "http:\/\/telma-chartes.irht.cnrs.fr\/moreau\/notice\/12087",
    "project_slug": "moreau",
    "project_label": "Inventaire Moreau",
    "user": "b_tock",
    "last_update": "2020-10-19 16:25:45",
    "licence": "Attribution - Pas d\u2019Utilisation Commerciale - Partage dans les M\u00eames Conditions 3.0 France (CC BY-NC-SA 3.0 FR) ",
    "licence_url": "https:\/\/creativecommons.org\/licenses\/by-nc-sa\/3.0\/fr\/",
    "elements": [
        {
            "type": "date",
            "value": "1190\/04\/25",
            "children": {
                "date_deb_annee": "1190",
                "date_deb_mois": "04",
                "date_deb_jour": "25"
            },
            "range": {
                "date_apres": 11900425,
                "date_avant": 11900425
            }
        },
        {
            "type": "auteur",
            "value": "M., archidiacre de Toul"
        },
        {
            "type": "beneficiaire",
            "value": "Verdun, abbaye Saint-Vanne"
        },
        {
            "type": "cote",
            "value": "FRANCE, Paris, BNF, Collection Moreau, t. 92, f. 10"
        }
    ]
}