{
    "id": 3700,
    "name": "moreau-3174",
    "type": "acte",
    "url": "http:\/\/telma-chartes.irht.cnrs.fr\/moreau\/notice\/3700",
    "project_slug": "moreau",
    "project_label": "Inventaire Moreau",
    "user": "b_tock",
    "last_update": "2020-10-19 16:25:11",
    "licence": "Attribution - Pas d\u2019Utilisation Commerciale - Partage dans les M\u00eames Conditions 3.0 France (CC BY-NC-SA 3.0 FR) ",
    "licence_url": "https:\/\/creativecommons.org\/licenses\/by-nc-sa\/3.0\/fr\/",
    "elements": [
        {
            "type": "date",
            "value": "apres 1011 - avant 1038",
            "children": {
                "date_deb_annee": "1011",
                "date_deb_type": "apres",
                "date_fin_annee": "1038",
                "date_fin_type": "avant"
            },
            "range": {
                "date_apres": 10110000,
                "date_avant": 10389999
            }
        },
        {
            "type": "auteur",
            "value": "Landulfus, \u00e9v\u00eaque de Turin"
        },
        {
            "type": "beneficiaire",
            "value": "St-Jean-d'Ang\u00e9ly, abbaye Saint-Jean-Baptiste"
        },
        {
            "type": "cote",
            "value": "FRANCE, Paris, BNF, Collection Moreau, t. 20, f. 179"
        }
    ]
}