{
    "id": 5560,
    "name": "moreau-5034",
    "type": "acte",
    "url": "http:\/\/telma-chartes.irht.cnrs.fr\/moreau\/notice\/5560",
    "project_slug": "moreau",
    "project_label": "Inventaire Moreau",
    "user": "b_tock",
    "last_update": "2020-10-19 16:25:19",
    "licence": "Attribution - Pas d\u2019Utilisation Commerciale - Partage dans les M\u00eames Conditions 3.0 France (CC BY-NC-SA 3.0 FR) ",
    "licence_url": "https:\/\/creativecommons.org\/licenses\/by-nc-sa\/3.0\/fr\/",
    "elements": [
        {
            "type": "date",
            "value": "1087",
            "children": {
                "date_deb_annee": "1087"
            },
            "range": {
                "date_apres": 10870000,
                "date_avant": 10879999
            }
        },
        {
            "type": "auteur",
            "value": "Guillaume"
        },
        {
            "type": "auteur",
            "value": "Bouchard"
        },
        {
            "type": "auteur",
            "value": "Guillaume"
        },
        {
            "type": "beneficiaire",
            "value": "Charroux, abbaye Saint-Sauveur"
        },
        {
            "type": "cote",
            "value": "FRANCE, Paris, BNF, Collection Moreau, t. 35, f. 17"
        }
    ]
}