{
    "id": 2639,
    "name": "moreau-2113",
    "type": "acte",
    "url": "http:\/\/telma-chartes.irht.cnrs.fr\/moreau\/notice\/2639",
    "project_slug": "moreau",
    "project_label": "Inventaire Moreau",
    "user": "b_tock",
    "last_update": "2020-10-19 16:25:07",
    "licence": "Attribution - Pas d\u2019Utilisation Commerciale - Partage dans les M\u00eames Conditions 3.0 France (CC BY-NC-SA 3.0 FR) ",
    "licence_url": "https:\/\/creativecommons.org\/licenses\/by-nc-sa\/3.0\/fr\/",
    "elements": [
        {
            "type": "date",
            "value": "apres 0996 - avant 1031",
            "children": {
                "date_deb_annee": "0996",
                "date_deb_type": "apres",
                "date_fin_annee": "1031",
                "date_fin_type": "avant"
            },
            "range": {
                "date_apres": 9960000,
                "date_avant": 10319999
            }
        },
        {
            "type": "auteur",
            "value": "Hugues, chanoine de Saint-Pierre de Poitiers"
        },
        {
            "type": "beneficiaire",
            "value": "Poitiers, abbaye Saint-Cyprien"
        },
        {
            "type": "cote",
            "value": "FRANCE, Paris, BNF, Collection Moreau, t. 14, f. 174"
        }
    ]
}