{
    "id": 6675,
    "name": "moreau-6149",
    "type": "acte",
    "url": "http:\/\/telma-chartes.irht.cnrs.fr\/moreau\/notice\/6675",
    "project_slug": "moreau",
    "project_label": "Inventaire Moreau",
    "user": "b_tock",
    "last_update": "2020-10-19 16:25:23",
    "licence": "Attribution - Pas d\u2019Utilisation Commerciale - Partage dans les M\u00eames Conditions 3.0 France (CC BY-NC-SA 3.0 FR) ",
    "licence_url": "https:\/\/creativecommons.org\/licenses\/by-nc-sa\/3.0\/fr\/",
    "elements": [
        {
            "type": "date",
            "value": "1251\/09\/23",
            "children": {
                "date_deb_annee": "1251",
                "date_deb_mois": "09",
                "date_deb_jour": "23"
            },
            "range": {
                "date_apres": 12510923,
                "date_avant": 12510923
            }
        },
        {
            "type": "remarques",
            "value": "vidimus du pr\u00e9c\u00e9dent"
        },
        {
            "type": "auteur",
            "value": "Renaud, \u00e9v\u00eaque de Paris"
        },
        {
            "type": "beneficiaire",
            "value": "Compi\u00e8gne, abbaye Saint-Corneille"
        },
        {
            "type": "cote",
            "value": "FRANCE, Paris, BNF, Collection Moreau, t. 42, f. 246"
        }
    ]
}