{
    "id": 916,
    "name": "moreau-390",
    "type": "acte",
    "url": "http:\/\/telma-chartes.irht.cnrs.fr\/moreau\/notice\/916",
    "project_slug": "moreau",
    "project_label": "Inventaire Moreau",
    "user": "b_tock",
    "last_update": "2020-10-19 16:24:59",
    "licence": "Attribution - Pas d\u2019Utilisation Commerciale - Partage dans les M\u00eames Conditions 3.0 France (CC BY-NC-SA 3.0 FR) ",
    "licence_url": "https:\/\/creativecommons.org\/licenses\/by-nc-sa\/3.0\/fr\/",
    "elements": [
        {
            "type": "date",
            "value": "apres 0905 - avant 0906",
            "children": {
                "date_deb_annee": "0905",
                "date_deb_type": "apres",
                "date_fin_annee": "0906",
                "date_fin_type": "avant"
            },
            "range": {
                "date_apres": 9050000,
                "date_avant": 9069999
            }
        },
        {
            "type": "remarques",
            "value": "archives de l'abbaye de Cluny"
        },
        {
            "type": "auteur",
            "value": "Octouros"
        },
        {
            "type": "beneficiaire",
            "value": "Robert"
        },
        {
            "type": "cote",
            "value": "FRANCE, Paris, BNF, Collection Moreau, t. 3, f. 248"
        }
    ]
}