{
    "id": 3362,
    "name": "moreau-2836",
    "type": "acte",
    "url": "http:\/\/telma-chartes.irht.cnrs.fr\/moreau\/notice\/3362",
    "project_slug": "moreau",
    "project_label": "Inventaire Moreau",
    "user": "b_tock",
    "last_update": "2020-10-19 16:25:10",
    "licence": "Attribution - Pas d\u2019Utilisation Commerciale - Partage dans les M\u00eames Conditions 3.0 France (CC BY-NC-SA 3.0 FR) ",
    "licence_url": "https:\/\/creativecommons.org\/licenses\/by-nc-sa\/3.0\/fr\/",
    "elements": [
        {
            "type": "date_libre",
            "value": "[993-1032]-06"
        },
        {
            "type": "date",
            "value": "apres 0993\/06 - avant 1032\/06",
            "children": {
                "date_deb_annee": "0993",
                "date_deb_mois": "06",
                "date_deb_type": "apres",
                "date_fin_annee": "1032",
                "date_fin_mois": "06",
                "date_fin_type": "avant"
            },
            "range": {
                "date_apres": 9930600,
                "date_avant": 10320699
            }
        },
        {
            "type": "auteur",
            "value": "Betso"
        },
        {
            "type": "beneficiaire",
            "value": "Cluny, abbaye Saint-Pierre-et-Saint-Paul"
        },
        {
            "type": "cote",
            "value": "FRANCE, Paris, BNF, Collection Moreau, t. 18, f. 146"
        }
    ]
}