{
    "id": 8249,
    "name": "moreau-7723",
    "type": "acte",
    "url": "http:\/\/telma-chartes.irht.cnrs.fr\/moreau\/notice\/8249",
    "project_slug": "moreau",
    "project_label": "Inventaire Moreau",
    "user": "b_tock",
    "last_update": "2020-10-19 16:25:30",
    "licence": "Attribution - Pas d\u2019Utilisation Commerciale - Partage dans les M\u00eames Conditions 3.0 France (CC BY-NC-SA 3.0 FR) ",
    "licence_url": "https:\/\/creativecommons.org\/licenses\/by-nc-sa\/3.0\/fr\/",
    "elements": [
        {
            "type": "date",
            "value": "1138\/11\/09",
            "children": {
                "date_deb_annee": "1138",
                "date_deb_mois": "11",
                "date_deb_jour": "09"
            },
            "range": {
                "date_apres": 11381109,
                "date_avant": 11381109
            }
        },
        {
            "type": "auteur",
            "value": "Udalgarius, \u00e9v\u00eaque d'Elne"
        },
        {
            "type": "beneficiaire",
            "value": "Elne, cath\u00e9drale Sainte-Eulalie-et-Sainte-Julie\u00a0"
        },
        {
            "type": "beneficiaire",
            "value": "Cuxa, abbaye Saint-Michel"
        },
        {
            "type": "cote",
            "value": "FRANCE, Paris, BNF, Collection Moreau, t. 57, f. 195"
        }
    ]
}