{
    "id": 10497,
    "name": "moreau-9971",
    "type": "acte",
    "url": "http:\/\/telma-chartes.irht.cnrs.fr\/moreau\/notice\/10497",
    "project_slug": "moreau",
    "project_label": "Inventaire Moreau",
    "user": "b_tock",
    "last_update": "2020-10-19 16:25:38",
    "licence": "Attribution - Pas d\u2019Utilisation Commerciale - Partage dans les M\u00eames Conditions 3.0 France (CC BY-NC-SA 3.0 FR) ",
    "licence_url": "https:\/\/creativecommons.org\/licenses\/by-nc-sa\/3.0\/fr\/",
    "elements": [
        {
            "type": "date",
            "value": "1172\/07\/29",
            "children": {
                "date_deb_annee": "1172",
                "date_deb_mois": "07",
                "date_deb_jour": "29"
            },
            "range": {
                "date_apres": 11720729,
                "date_avant": 11720729
            }
        },
        {
            "type": "auteur",
            "value": "Alexandre III, pape"
        },
        {
            "type": "beneficiaire",
            "value": "Saint-Riquier, abbaye"
        },
        {
            "type": "cote",
            "value": "FRANCE, Paris, BNF, Collection Moreau, t. 77, f. 187"
        }
    ]
}