{
    "id": 13890,
    "name": "moreau-13364",
    "type": "acte",
    "url": "http:\/\/telma-chartes.irht.cnrs.fr\/moreau\/notice\/13890",
    "project_slug": "moreau",
    "project_label": "Inventaire Moreau",
    "user": "b_tock",
    "last_update": "2020-10-19 16:25:51",
    "licence": "Attribution - Pas d\u2019Utilisation Commerciale - Partage dans les M\u00eames Conditions 3.0 France (CC BY-NC-SA 3.0 FR) ",
    "licence_url": "https:\/\/creativecommons.org\/licenses\/by-nc-sa\/3.0\/fr\/",
    "elements": [
        {
            "type": "date",
            "value": "1204\/03",
            "children": {
                "date_deb_annee": "1204",
                "date_deb_mois": "03"
            },
            "range": {
                "date_apres": 12040300,
                "date_avant": 12040399
            }
        },
        {
            "type": "auteur",
            "value": "Eudes, \u00e9v\u00eaque de Paris"
        },
        {
            "type": "beneficiaire",
            "value": "Luzarches, chapitre Saint-C\u00f4me"
        },
        {
            "type": "cote",
            "value": "FRANCE, Paris, BNF, Collection Moreau, t. 107, f. 15"
        }
    ]
}