{
    "id": 1255,
    "name": "moreau-729",
    "type": "acte",
    "url": "http:\/\/telma-chartes.irht.cnrs.fr\/moreau\/notice\/1255",
    "project_slug": "moreau",
    "project_label": "Inventaire Moreau",
    "user": "b_tock",
    "last_update": "2020-10-19 16:25:01",
    "licence": "Attribution - Pas d\u2019Utilisation Commerciale - Partage dans les M\u00eames Conditions 3.0 France (CC BY-NC-SA 3.0 FR) ",
    "licence_url": "https:\/\/creativecommons.org\/licenses\/by-nc-sa\/3.0\/fr\/",
    "elements": [
        {
            "type": "date_libre",
            "value": "939\/940-06"
        },
        {
            "type": "date",
            "value": "apres 0939 - avant 0940\/06",
            "children": {
                "date_deb_annee": "0939",
                "date_deb_type": "apres",
                "date_fin_annee": "0940",
                "date_fin_mois": "06",
                "date_fin_type": "avant"
            },
            "range": {
                "date_apres": 9390000,
                "date_avant": 9400699
            }
        },
        {
            "type": "remarques",
            "value": "archives de l'abbaye de Cluny"
        },
        {
            "type": "auteur",
            "value": "Ansbertus"
        },
        {
            "type": "beneficiaire",
            "value": "Rannesfredus"
        },
        {
            "type": "cote",
            "value": "FRANCE, Paris, BNF, Collection Moreau, t. 6, f. 133"
        }
    ]
}