{
    "id": 4444,
    "name": "moreau-3918",
    "type": "acte",
    "url": "http:\/\/telma-chartes.irht.cnrs.fr\/moreau\/notice\/4444",
    "project_slug": "moreau",
    "project_label": "Inventaire Moreau",
    "user": "b_tock",
    "last_update": "2020-10-19 16:25:14",
    "licence": "Attribution - Pas d\u2019Utilisation Commerciale - Partage dans les M\u00eames Conditions 3.0 France (CC BY-NC-SA 3.0 FR) ",
    "licence_url": "https:\/\/creativecommons.org\/licenses\/by-nc-sa\/3.0\/fr\/",
    "elements": [
        {
            "type": "date",
            "value": "1058",
            "children": {
                "date_deb_annee": "1058"
            },
            "range": {
                "date_apres": 10580000,
                "date_avant": 10589999
            }
        },
        {
            "type": "auteur",
            "value": "Geoffroi, \u00e9v\u00eaque d'Auxerre"
        },
        {
            "type": "beneficiaire",
            "value": "La Charit\u00e9-sur-Loire, prieur\u00e9"
        },
        {
            "type": "beneficiaire",
            "value": "Cluny, abbaye Saint-Pierre-et-Saint-Paul"
        },
        {
            "type": "cote",
            "value": "FRANCE, Paris, BNF, Collection Moreau, t. 26, f. 47"
        }
    ]
}