{
    "id": 932,
    "name": "moreau-406",
    "type": "acte",
    "url": "http:\/\/telma-chartes.irht.cnrs.fr\/moreau\/notice\/932",
    "project_slug": "moreau",
    "project_label": "Inventaire Moreau",
    "user": "b_tock",
    "last_update": "2020-10-19 16:24:59",
    "licence": "Attribution - Pas d\u2019Utilisation Commerciale - Partage dans les M\u00eames Conditions 3.0 France (CC BY-NC-SA 3.0 FR) ",
    "licence_url": "https:\/\/creativecommons.org\/licenses\/by-nc-sa\/3.0\/fr\/",
    "elements": [
        {
            "type": "date_libre",
            "value": "912\/917-05"
        },
        {
            "type": "date",
            "value": "apres 0912 - avant 0917\/05",
            "children": {
                "date_deb_annee": "0912",
                "date_deb_type": "apres",
                "date_fin_annee": "0917",
                "date_fin_mois": "05",
                "date_fin_type": "avant"
            },
            "range": {
                "date_apres": 9120000,
                "date_avant": 9170599
            }
        },
        {
            "type": "remarques",
            "value": "archives de l'abbaye de Cluny"
        },
        {
            "type": "auteur",
            "value": "Teutono"
        },
        {
            "type": "beneficiaire",
            "value": "Adbalt"
        },
        {
            "type": "cote",
            "value": "FRANCE, Paris, BNF, Collection Moreau, t. 4, f. 12"
        }
    ]
}