{
    "id": 3836,
    "name": "moreau-3310",
    "type": "acte",
    "url": "http:\/\/telma-chartes.irht.cnrs.fr\/moreau\/notice\/3836",
    "project_slug": "moreau",
    "project_label": "Inventaire Moreau",
    "user": "b_tock",
    "last_update": "2020-10-19 16:25:12",
    "licence": "Attribution - Pas d\u2019Utilisation Commerciale - Partage dans les M\u00eames Conditions 3.0 France (CC BY-NC-SA 3.0 FR) ",
    "licence_url": "https:\/\/creativecommons.org\/licenses\/by-nc-sa\/3.0\/fr\/",
    "elements": [
        {
            "type": "date",
            "value": "1030",
            "children": {
                "date_deb_annee": "1030"
            },
            "range": {
                "date_apres": 10300000,
                "date_avant": 10309999
            }
        },
        {
            "type": "auteur",
            "value": "Robert II, roi des Francs"
        },
        {
            "type": "beneficiaire",
            "value": "Noyon, cath\u00e9drale Notre-Dame"
        },
        {
            "type": "cote",
            "value": "FRANCE, Paris, BNF, Collection Moreau, t. 21, f. 119"
        }
    ]
}