{
    "id": 13637,
    "name": "moreau-13111",
    "type": "acte",
    "url": "http:\/\/telma-chartes.irht.cnrs.fr\/moreau\/notice\/13637",
    "project_slug": "moreau",
    "project_label": "Inventaire Moreau",
    "user": "b_tock",
    "last_update": "2020-10-19 16:25:50",
    "licence": "Attribution - Pas d\u2019Utilisation Commerciale - Partage dans les M\u00eames Conditions 3.0 France (CC BY-NC-SA 3.0 FR) ",
    "licence_url": "https:\/\/creativecommons.org\/licenses\/by-nc-sa\/3.0\/fr\/",
    "elements": [
        {
            "type": "date",
            "value": "1202\/03\/01",
            "children": {
                "date_deb_annee": "1202",
                "date_deb_mois": "03",
                "date_deb_jour": "01"
            },
            "range": {
                "date_apres": 12020301,
                "date_avant": 12020301
            }
        },
        {
            "type": "auteur",
            "value": "Hamelin, \u00e9v\u00eaque du Mans"
        },
        {
            "type": "beneficiaire",
            "value": "Le Mans, abbaye Saint-Vincent"
        },
        {
            "type": "cote",
            "value": "FRANCE, Paris, BNF, Collection Moreau, t. 104, f. 259"
        }
    ]
}