{
    "id": 992,
    "name": "moreau-466",
    "type": "acte",
    "url": "http:\/\/telma-chartes.irht.cnrs.fr\/moreau\/notice\/992",
    "project_slug": "moreau",
    "project_label": "Inventaire Moreau",
    "user": "b_tock",
    "last_update": "2020-10-19 16:25:00",
    "licence": "Attribution - Pas d\u2019Utilisation Commerciale - Partage dans les M\u00eames Conditions 3.0 France (CC BY-NC-SA 3.0 FR) ",
    "licence_url": "https:\/\/creativecommons.org\/licenses\/by-nc-sa\/3.0\/fr\/",
    "elements": [
        {
            "type": "date_libre",
            "value": "917\/922-02"
        },
        {
            "type": "date",
            "value": "apres 0917 - avant 0922\/02",
            "children": {
                "date_deb_annee": "0917",
                "date_deb_type": "apres",
                "date_fin_annee": "0922",
                "date_fin_mois": "02",
                "date_fin_type": "avant"
            },
            "range": {
                "date_apres": 9170000,
                "date_avant": 9220299
            }
        },
        {
            "type": "auteur",
            "value": "Agnarnus"
        },
        {
            "type": "beneficiaire",
            "value": "Nouaill\u00e9, abbaye Saint-Junien"
        },
        {
            "type": "cote",
            "value": "FRANCE, Paris, BNF, Collection Moreau, t. 4, f. 103"
        }
    ]
}