{
    "id": 9319,
    "name": "moreau-8793",
    "type": "acte",
    "url": "http:\/\/telma-chartes.irht.cnrs.fr\/moreau\/notice\/9319",
    "project_slug": "moreau",
    "project_label": "Inventaire Moreau",
    "user": "b_tock",
    "last_update": "2020-10-19 16:25:34",
    "licence": "Attribution - Pas d\u2019Utilisation Commerciale - Partage dans les M\u00eames Conditions 3.0 France (CC BY-NC-SA 3.0 FR) ",
    "licence_url": "https:\/\/creativecommons.org\/licenses\/by-nc-sa\/3.0\/fr\/",
    "elements": [
        {
            "type": "date",
            "value": "1154\/02\/18",
            "children": {
                "date_deb_annee": "1154",
                "date_deb_mois": "02",
                "date_deb_jour": "18"
            },
            "range": {
                "date_apres": 11540218,
                "date_avant": 11540218
            }
        },
        {
            "type": "auteur",
            "value": "Adrien IV, pape"
        },
        {
            "type": "beneficiaire",
            "value": "Compi\u00e8gne, abbaye Saint-Corneille"
        },
        {
            "type": "cote",
            "value": "FRANCE, Paris, BNF, Collection Moreau, t. 67, f. 81"
        }
    ]
}