{
    "id": 2468,
    "name": "moreau-1942",
    "type": "acte",
    "url": "http:\/\/telma-chartes.irht.cnrs.fr\/moreau\/notice\/2468",
    "project_slug": "moreau",
    "project_label": "Inventaire Moreau",
    "user": "b_tock",
    "last_update": "2020-10-19 16:25:07",
    "licence": "Attribution - Pas d\u2019Utilisation Commerciale - Partage dans les M\u00eames Conditions 3.0 France (CC BY-NC-SA 3.0 FR) ",
    "licence_url": "https:\/\/creativecommons.org\/licenses\/by-nc-sa\/3.0\/fr\/",
    "elements": [
        {
            "type": "date",
            "value": "0984\/08\/17",
            "children": {
                "date_deb_annee": "0984",
                "date_deb_mois": "08",
                "date_deb_jour": "17"
            },
            "range": {
                "date_apres": 9840817,
                "date_avant": 9840817
            }
        },
        {
            "type": "auteur",
            "value": "Ermenfroi, abb\u00e9 de Gorze"
        },
        {
            "type": "beneficiaire",
            "value": "Brouk, hommes"
        },
        {
            "type": "cote",
            "value": "FRANCE, Paris, BNF, Collection Moreau, t. 13, f. 95"
        }
    ]
}