{
    "id": 7179,
    "name": "moreau-6653",
    "type": "acte",
    "url": "http:\/\/telma-chartes.irht.cnrs.fr\/moreau\/notice\/7179",
    "project_slug": "moreau",
    "project_label": "Inventaire Moreau",
    "user": "b_tock",
    "last_update": "2020-10-19 16:25:25",
    "licence": "Attribution - Pas d\u2019Utilisation Commerciale - Partage dans les M\u00eames Conditions 3.0 France (CC BY-NC-SA 3.0 FR) ",
    "licence_url": "https:\/\/creativecommons.org\/licenses\/by-nc-sa\/3.0\/fr\/",
    "elements": [
        {
            "type": "date",
            "value": "1114",
            "children": {
                "date_deb_annee": "1114"
            },
            "range": {
                "date_apres": 11140000,
                "date_avant": 11149999
            }
        },
        {
            "type": "auteur",
            "value": "Pierre, pr\u00eatre"
        },
        {
            "type": "beneficiaire",
            "value": "Reims, abbaye Saint-Nicaise"
        },
        {
            "type": "cote",
            "value": "FRANCE, Paris, BNF, Collection Moreau, t. 47, f. 99"
        }
    ]
}