{
    "id": 8962,
    "name": "moreau-8436",
    "type": "acte",
    "url": "http:\/\/telma-chartes.irht.cnrs.fr\/moreau\/notice\/8962",
    "project_slug": "moreau",
    "project_label": "Inventaire Moreau",
    "user": "b_tock",
    "last_update": "2020-10-19 16:25:32",
    "licence": "Attribution - Pas d\u2019Utilisation Commerciale - Partage dans les M\u00eames Conditions 3.0 France (CC BY-NC-SA 3.0 FR) ",
    "licence_url": "https:\/\/creativecommons.org\/licenses\/by-nc-sa\/3.0\/fr\/",
    "elements": [
        {
            "type": "date",
            "value": "1149\/06\/08",
            "children": {
                "date_deb_annee": "1149",
                "date_deb_mois": "06",
                "date_deb_jour": "08"
            },
            "range": {
                "date_apres": 11490608,
                "date_avant": 11490608
            }
        },
        {
            "type": "auteur",
            "value": "Eudes de Peirestortes"
        },
        {
            "type": "beneficiaire",
            "value": "Espira, prieur\u00e9"
        },
        {
            "type": "cote",
            "value": "FRANCE, Paris, BNF, Collection Moreau, t. 64, f. 63"
        }
    ]
}