{
    "id": 3903,
    "name": "moreau-3377",
    "type": "acte",
    "url": "http:\/\/telma-chartes.irht.cnrs.fr\/moreau\/notice\/3903",
    "project_slug": "moreau",
    "project_label": "Inventaire Moreau",
    "user": "b_tock",
    "last_update": "2020-10-19 16:25:12",
    "licence": "Attribution - Pas d\u2019Utilisation Commerciale - Partage dans les M\u00eames Conditions 3.0 France (CC BY-NC-SA 3.0 FR) ",
    "licence_url": "https:\/\/creativecommons.org\/licenses\/by-nc-sa\/3.0\/fr\/",
    "elements": [
        {
            "type": "date",
            "value": "apres 1036 - avant 1047",
            "children": {
                "date_deb_annee": "1036",
                "date_deb_type": "apres",
                "date_fin_annee": "1047",
                "date_fin_type": "avant"
            },
            "range": {
                "date_apres": 10360000,
                "date_avant": 10479999
            }
        },
        {
            "type": "auteur",
            "value": "Gui de Domini"
        },
        {
            "type": "beneficiaire",
            "value": "Le Mans, cath\u00e9drale Saint-Julien"
        },
        {
            "type": "cote",
            "value": "FRANCE, Paris, BNF, Collection Moreau, t. 21, f. 247"
        }
    ]
}