{
    "id": 1809,
    "name": "moreau-1283",
    "type": "acte",
    "url": "http:\/\/telma-chartes.irht.cnrs.fr\/moreau\/notice\/1809",
    "project_slug": "moreau",
    "project_label": "Inventaire Moreau",
    "user": "b_tock",
    "last_update": "2020-10-19 16:25:03",
    "licence": "Attribution - Pas d\u2019Utilisation Commerciale - Partage dans les M\u00eames Conditions 3.0 France (CC BY-NC-SA 3.0 FR) ",
    "licence_url": "https:\/\/creativecommons.org\/licenses\/by-nc-sa\/3.0\/fr\/",
    "elements": [
        {
            "type": "date",
            "value": "0962\/12\/08",
            "children": {
                "date_deb_annee": "0962",
                "date_deb_mois": "12",
                "date_deb_jour": "08"
            },
            "range": {
                "date_apres": 9621208,
                "date_avant": 9621208
            }
        },
        {
            "type": "remarques",
            "value": "vidimus Philippe IV en 1292"
        },
        {
            "type": "auteur",
            "value": "Lothaire, roi des Francs"
        },
        {
            "type": "beneficiaire",
            "value": "Reims, abbaye Saint-Thierry"
        },
        {
            "type": "cote",
            "value": "FRANCE, Paris, BNF, Collection Moreau, t. 9, f. 164"
        }
    ]
}