{
    "id": 12923,
    "name": "moreau-12397",
    "type": "acte",
    "url": "http:\/\/telma-chartes.irht.cnrs.fr\/moreau\/notice\/12923",
    "project_slug": "moreau",
    "project_label": "Inventaire Moreau",
    "user": "b_tock",
    "last_update": "2020-10-19 16:25:48",
    "licence": "Attribution - Pas d\u2019Utilisation Commerciale - Partage dans les M\u00eames Conditions 3.0 France (CC BY-NC-SA 3.0 FR) ",
    "licence_url": "https:\/\/creativecommons.org\/licenses\/by-nc-sa\/3.0\/fr\/",
    "elements": [
        {
            "type": "date",
            "value": "1198\/07\/27",
            "children": {
                "date_deb_annee": "1198",
                "date_deb_mois": "07",
                "date_deb_jour": "27"
            },
            "range": {
                "date_apres": 11980727,
                "date_avant": 11980727
            }
        },
        {
            "type": "remarques",
            "value": "archives de l'abbaye de Bucilly"
        },
        {
            "type": "auteur",
            "value": "Innocent III, pape"
        },
        {
            "type": "beneficiaire",
            "value": "Pr\u00e9montr\u00e9, ordre"
        },
        {
            "type": "cote",
            "value": "FRANCE, Paris, BNF, Collection Moreau, t. 99, f. 18"
        }
    ]
}