{
    "id": 5929,
    "name": "moreau-5403",
    "type": "acte",
    "url": "http:\/\/telma-chartes.irht.cnrs.fr\/moreau\/notice\/5929",
    "project_slug": "moreau",
    "project_label": "Inventaire Moreau",
    "user": "b_tock",
    "last_update": "2020-10-19 16:25:20",
    "licence": "Attribution - Pas d\u2019Utilisation Commerciale - Partage dans les M\u00eames Conditions 3.0 France (CC BY-NC-SA 3.0 FR) ",
    "licence_url": "https:\/\/creativecommons.org\/licenses\/by-nc-sa\/3.0\/fr\/",
    "elements": [
        {
            "type": "date",
            "value": "1094\/11",
            "children": {
                "date_deb_annee": "1094",
                "date_deb_mois": "11"
            },
            "range": {
                "date_apres": 10941100,
                "date_avant": 10941199
            }
        },
        {
            "type": "auteur",
            "value": "Raimond Montet"
        },
        {
            "type": "beneficiaire",
            "value": "Layrac, prieur\u00e9 Saint-Martin\u00a0"
        },
        {
            "type": "beneficiaire",
            "value": "Cluny, abbaye Saint-Pierre-et-Saint-Paul"
        },
        {
            "type": "cote",
            "value": "FRANCE, Paris, BNF, Collection Moreau, t. 37, f. 170"
        }
    ]
}