{
    "id": 4180,
    "name": "moreau-3654",
    "type": "acte",
    "url": "http:\/\/telma-chartes.irht.cnrs.fr\/moreau\/notice\/4180",
    "project_slug": "moreau",
    "project_label": "Inventaire Moreau",
    "user": "b_tock",
    "last_update": "2020-10-19 16:25:13",
    "licence": "Attribution - Pas d\u2019Utilisation Commerciale - Partage dans les M\u00eames Conditions 3.0 France (CC BY-NC-SA 3.0 FR) ",
    "licence_url": "https:\/\/creativecommons.org\/licenses\/by-nc-sa\/3.0\/fr\/",
    "elements": [
        {
            "type": "date",
            "value": "apres 1046 - avant 1089",
            "children": {
                "date_deb_annee": "1046",
                "date_deb_type": "apres",
                "date_fin_annee": "1089",
                "date_fin_type": "avant"
            },
            "range": {
                "date_apres": 10460000,
                "date_avant": 10899999
            }
        },
        {
            "type": "auteur",
            "value": "Urimoldus, abb\u00e9 de Saint-Vanne de Verdun"
        },
        {
            "type": "beneficiaire",
            "value": "Verdun, abbaye Saint-Vanne"
        },
        {
            "type": "cote",
            "value": "FRANCE, Paris, BNF, Collection Moreau, t. 24, f. 55"
        }
    ]
}