{
    "id": 9185,
    "name": "moreau-8659",
    "type": "acte",
    "url": "http:\/\/telma-chartes.irht.cnrs.fr\/moreau\/notice\/9185",
    "project_slug": "moreau",
    "project_label": "Inventaire Moreau",
    "user": "b_tock",
    "last_update": "2020-10-19 16:25:34",
    "licence": "Attribution - Pas d\u2019Utilisation Commerciale - Partage dans les M\u00eames Conditions 3.0 France (CC BY-NC-SA 3.0 FR) ",
    "licence_url": "https:\/\/creativecommons.org\/licenses\/by-nc-sa\/3.0\/fr\/",
    "elements": [
        {
            "type": "date",
            "value": "1152",
            "children": {
                "date_deb_annee": "1152"
            },
            "range": {
                "date_apres": 11520000,
                "date_avant": 11529999
            }
        },
        {
            "type": "auteur",
            "value": "Jean, comte de Pontieu"
        },
        {
            "type": "beneficiaire",
            "value": "Abbeville, prieur\u00e9 Saint-Pierre"
        },
        {
            "type": "cote",
            "value": "FRANCE, Paris, BNF, Collection Moreau, t. 66, f. 35"
        }
    ]
}