{
    "id": 8597,
    "name": "moreau-8071",
    "type": "acte",
    "url": "http:\/\/telma-chartes.irht.cnrs.fr\/moreau\/notice\/8597",
    "project_slug": "moreau",
    "project_label": "Inventaire Moreau",
    "user": "b_tock",
    "last_update": "2020-10-19 16:25:31",
    "licence": "Attribution - Pas d\u2019Utilisation Commerciale - Partage dans les M\u00eames Conditions 3.0 France (CC BY-NC-SA 3.0 FR) ",
    "licence_url": "https:\/\/creativecommons.org\/licenses\/by-nc-sa\/3.0\/fr\/",
    "elements": [
        {
            "type": "date",
            "value": "1143\/03\/22",
            "children": {
                "date_deb_annee": "1143",
                "date_deb_mois": "03",
                "date_deb_jour": "22"
            },
            "range": {
                "date_apres": 11430322,
                "date_avant": 11430322
            }
        },
        {
            "type": "auteur",
            "value": "Pierre d'Orle"
        },
        {
            "type": "beneficiaire",
            "value": "Cuxa, abbaye Saint-Michel"
        },
        {
            "type": "cote",
            "value": "FRANCE, Paris, BNF, Collection Moreau, t. 60, f. 249"
        }
    ]
}