{
    "id": 1050,
    "name": "moreau-524",
    "type": "acte",
    "url": "http:\/\/telma-chartes.irht.cnrs.fr\/moreau\/notice\/1050",
    "project_slug": "moreau",
    "project_label": "Inventaire Moreau",
    "user": "b_tock",
    "last_update": "2020-10-19 16:25:00",
    "licence": "Attribution - Pas d\u2019Utilisation Commerciale - Partage dans les M\u00eames Conditions 3.0 France (CC BY-NC-SA 3.0 FR) ",
    "licence_url": "https:\/\/creativecommons.org\/licenses\/by-nc-sa\/3.0\/fr\/",
    "elements": [
        {
            "type": "date",
            "value": "0928\/05\/07",
            "children": {
                "date_deb_annee": "0928",
                "date_deb_mois": "05",
                "date_deb_jour": "07"
            },
            "range": {
                "date_apres": 9280507,
                "date_avant": 9280507
            }
        },
        {
            "type": "remarques",
            "value": "archives de l'abbaye de Cluny"
        },
        {
            "type": "auteur",
            "value": "Ailmundus"
        },
        {
            "type": "beneficiaire",
            "value": "Leutbalt"
        },
        {
            "type": "cote",
            "value": "FRANCE, Paris, BNF, Collection Moreau, t. 5, f. 8"
        }
    ]
}