{
    "id": 13685,
    "name": "moreau-13159",
    "type": "acte",
    "url": "http:\/\/telma-chartes.irht.cnrs.fr\/moreau\/notice\/13685",
    "project_slug": "moreau",
    "project_label": "Inventaire Moreau",
    "user": "b_tock",
    "last_update": "2020-10-19 16:25:50",
    "licence": "Attribution - Pas d\u2019Utilisation Commerciale - Partage dans les M\u00eames Conditions 3.0 France (CC BY-NC-SA 3.0 FR) ",
    "licence_url": "https:\/\/creativecommons.org\/licenses\/by-nc-sa\/3.0\/fr\/",
    "elements": [
        {
            "type": "date",
            "value": "1203\/03",
            "children": {
                "date_deb_annee": "1203",
                "date_deb_mois": "03"
            },
            "range": {
                "date_apres": 12030300,
                "date_avant": 12030399
            }
        },
        {
            "type": "auteur",
            "value": "El\u00e9onore, comtesse de St-Quentin et dame de Valois"
        },
        {
            "type": "beneficiaire",
            "value": "Laon, cath\u00e9drale Notre-Dame"
        },
        {
            "type": "cote",
            "value": "FRANCE, Paris, BNF, Collection Moreau, t. 105, f. 85"
        }
    ]
}