{
    "id": 4441,
    "name": "moreau-3915",
    "type": "acte",
    "url": "http:\/\/telma-chartes.irht.cnrs.fr\/moreau\/notice\/4441",
    "project_slug": "moreau",
    "project_label": "Inventaire Moreau",
    "user": "b_tock",
    "last_update": "2020-10-19 16:25:14",
    "licence": "Attribution - Pas d\u2019Utilisation Commerciale - Partage dans les M\u00eames Conditions 3.0 France (CC BY-NC-SA 3.0 FR) ",
    "licence_url": "https:\/\/creativecommons.org\/licenses\/by-nc-sa\/3.0\/fr\/",
    "elements": [
        {
            "type": "date",
            "value": "1060\/07\/08",
            "children": {
                "date_deb_annee": "1060",
                "date_deb_mois": "07",
                "date_deb_jour": "08"
            },
            "range": {
                "date_apres": 10600708,
                "date_avant": 10600708
            }
        },
        {
            "type": "remarques",
            "value": "29e ann\u00e9e Henri?"
        },
        {
            "type": "auteur",
            "value": "Saula, pr\u00eatre"
        },
        {
            "type": "beneficiaire",
            "value": "Cuxa, abbaye Saint-Michel"
        },
        {
            "type": "cote",
            "value": "FRANCE, Paris, BNF, Collection Moreau, t. 26, f. 40"
        }
    ]
}