{
    "id": 9417,
    "name": "moreau-8891",
    "type": "acte",
    "url": "http:\/\/telma-chartes.irht.cnrs.fr\/moreau\/notice\/9417",
    "project_slug": "moreau",
    "project_label": "Inventaire Moreau",
    "user": "b_tock",
    "last_update": "2020-10-19 16:25:34",
    "licence": "Attribution - Pas d\u2019Utilisation Commerciale - Partage dans les M\u00eames Conditions 3.0 France (CC BY-NC-SA 3.0 FR) ",
    "licence_url": "https:\/\/creativecommons.org\/licenses\/by-nc-sa\/3.0\/fr\/",
    "elements": [
        {
            "type": "date",
            "value": "1156\/06\/22",
            "children": {
                "date_deb_annee": "1156",
                "date_deb_mois": "06",
                "date_deb_jour": "22"
            },
            "range": {
                "date_apres": 11560622,
                "date_avant": 11560622
            }
        },
        {
            "type": "remarques",
            "value": "19e ann\u00e9e Louis VII"
        },
        {
            "type": "auteur",
            "value": "Hugues, comte d'Empuri\u00e8s"
        },
        {
            "type": "beneficiaire",
            "value": "Rodas, abbaye Saint-Pierre"
        },
        {
            "type": "cote",
            "value": "FRANCE, Paris, BNF, Collection Moreau, t. 68, f. 33"
        }
    ]
}