{
    "id": 664,
    "name": "moreau-138",
    "type": "acte",
    "url": "http:\/\/telma-chartes.irht.cnrs.fr\/moreau\/notice\/664",
    "project_slug": "moreau",
    "project_label": "Inventaire Moreau",
    "user": "b_tock",
    "last_update": "2020-10-19 16:24:58",
    "licence": "Attribution - Pas d\u2019Utilisation Commerciale - Partage dans les M\u00eames Conditions 3.0 France (CC BY-NC-SA 3.0 FR) ",
    "licence_url": "https:\/\/creativecommons.org\/licenses\/by-nc-sa\/3.0\/fr\/",
    "elements": [
        {
            "type": "date",
            "value": "0864\/11\/04",
            "children": {
                "date_deb_annee": "0864",
                "date_deb_mois": "11",
                "date_deb_jour": "04"
            },
            "range": {
                "date_apres": 8641104,
                "date_avant": 8641104
            }
        },
        {
            "type": "remarques",
            "value": "vidimus Jehan, garde du scel de Rouen le 8 avril 1398"
        },
        {
            "type": "auteur",
            "value": "Charles le Chauve, roi des Francs"
        },
        {
            "type": "beneficiaire",
            "value": "Wanilo, archev\u00eaque de Rouen"
        },
        {
            "type": "cote",
            "value": "FRANCE, Paris, BNF, Collection Moreau, t. 2, f. 39"
        }
    ]
}