{
    "id": 13980,
    "name": "moreau-13454",
    "type": "acte",
    "url": "http:\/\/telma-chartes.irht.cnrs.fr\/moreau\/notice\/13980",
    "project_slug": "moreau",
    "project_label": "Inventaire Moreau",
    "user": "b_tock",
    "last_update": "2020-10-19 16:25:52",
    "licence": "Attribution - Pas d\u2019Utilisation Commerciale - Partage dans les M\u00eames Conditions 3.0 France (CC BY-NC-SA 3.0 FR) ",
    "licence_url": "https:\/\/creativecommons.org\/licenses\/by-nc-sa\/3.0\/fr\/",
    "elements": [
        {
            "type": "date",
            "value": "1205",
            "children": {
                "date_deb_annee": "1205"
            },
            "range": {
                "date_apres": 12050000,
                "date_avant": 12059999
            }
        },
        {
            "type": "auteur",
            "value": "Roger, abb\u00e9 Saint-Jean-au-Mont de Th\u00e9rouanne\u00a0"
        },
        {
            "type": "auteur",
            "value": "Baudouin, doyen du chapitre cath\u00e9dral Notre-Dame de Th\u00e9rouanne"
        },
        {
            "type": "beneficiaire",
            "value": "St-Omer, abbaye Saint-Bertin"
        },
        {
            "type": "cote",
            "value": "FRANCE, Paris, BNF, Collection Moreau, t. 107, f. 191"
        }
    ]
}