{
    "id": 7536,
    "name": "moreau-7010",
    "type": "acte",
    "url": "http:\/\/telma-chartes.irht.cnrs.fr\/moreau\/notice\/7536",
    "project_slug": "moreau",
    "project_label": "Inventaire Moreau",
    "user": "b_tock",
    "last_update": "2020-10-19 16:25:27",
    "licence": "Attribution - Pas d\u2019Utilisation Commerciale - Partage dans les M\u00eames Conditions 3.0 France (CC BY-NC-SA 3.0 FR) ",
    "licence_url": "https:\/\/creativecommons.org\/licenses\/by-nc-sa\/3.0\/fr\/",
    "elements": [
        {
            "type": "date",
            "value": "1121\/09\/29",
            "children": {
                "date_deb_annee": "1121",
                "date_deb_mois": "09",
                "date_deb_jour": "29"
            },
            "range": {
                "date_apres": 11210929,
                "date_avant": 11210929
            }
        },
        {
            "type": "auteur",
            "value": "Simon, seigneur de Broyes"
        },
        {
            "type": "beneficiaire",
            "value": "S\u00e9zanne, prieur\u00e9 Saint-Julien"
        },
        {
            "type": "cote",
            "value": "FRANCE, Paris, BNF, Collection Moreau, t. 50, f. 139"
        }
    ]
}