{
    "id": 11284,
    "name": "moreau-10758",
    "type": "acte",
    "url": "http:\/\/telma-chartes.irht.cnrs.fr\/moreau\/notice\/11284",
    "project_slug": "moreau",
    "project_label": "Inventaire Moreau",
    "user": "b_tock",
    "last_update": "2020-10-19 16:25:41",
    "licence": "Attribution - Pas d\u2019Utilisation Commerciale - Partage dans les M\u00eames Conditions 3.0 France (CC BY-NC-SA 3.0 FR) ",
    "licence_url": "https:\/\/creativecommons.org\/licenses\/by-nc-sa\/3.0\/fr\/",
    "elements": [
        {
            "type": "date",
            "value": "1181\/08\/28",
            "children": {
                "date_deb_annee": "1181",
                "date_deb_mois": "08",
                "date_deb_jour": "28"
            },
            "range": {
                "date_apres": 11810828,
                "date_avant": 11810828
            }
        },
        {
            "type": "auteur",
            "value": "N\u00e9velon, \u00e9v\u00eaque de Soissons"
        },
        {
            "type": "auteur",
            "value": "Roger, \u00e9v\u00eaque de Laon"
        },
        {
            "type": "auteur",
            "value": "E., \u00e9v\u00eaque de Tournai"
        },
        {
            "type": "beneficiaire",
            "value": "La Bouteille, abbaye de Foigny"
        },
        {
            "type": "cote",
            "value": "FRANCE, Paris, BNF, Collection Moreau, t. 85, f. 23"
        }
    ]
}