{
    "id": 1011,
    "name": "moreau-485",
    "type": "acte",
    "url": "http:\/\/telma-chartes.irht.cnrs.fr\/moreau\/notice\/1011",
    "project_slug": "moreau",
    "project_label": "Inventaire Moreau",
    "user": "b_tock",
    "last_update": "2020-10-19 16:25:00",
    "licence": "Attribution - Pas d\u2019Utilisation Commerciale - Partage dans les M\u00eames Conditions 3.0 France (CC BY-NC-SA 3.0 FR) ",
    "licence_url": "https:\/\/creativecommons.org\/licenses\/by-nc-sa\/3.0\/fr\/",
    "elements": [
        {
            "type": "date",
            "value": "apres 0901 - avant 0928",
            "children": {
                "date_deb_annee": "0901",
                "date_deb_type": "apres",
                "date_fin_annee": "0928",
                "date_fin_type": "avant"
            },
            "range": {
                "date_apres": 9010000,
                "date_avant": 9289999
            }
        },
        {
            "type": "remarques",
            "value": "archives de l'abbaye de Cluny"
        },
        {
            "type": "auteur",
            "value": "Louis, empereur"
        },
        {
            "type": "beneficiaire",
            "value": "Bono"
        },
        {
            "type": "cote",
            "value": "FRANCE, Paris, BNF, Collection Moreau, t. 4, f. 126"
        }
    ]
}