{
    "id": 11130,
    "name": "moreau-10604",
    "type": "acte",
    "url": "http:\/\/telma-chartes.irht.cnrs.fr\/moreau\/notice\/11130",
    "project_slug": "moreau",
    "project_label": "Inventaire Moreau",
    "user": "b_tock",
    "last_update": "2020-10-19 16:25:41",
    "licence": "Attribution - Pas d\u2019Utilisation Commerciale - Partage dans les M\u00eames Conditions 3.0 France (CC BY-NC-SA 3.0 FR) ",
    "licence_url": "https:\/\/creativecommons.org\/licenses\/by-nc-sa\/3.0\/fr\/",
    "elements": [
        {
            "type": "date",
            "value": "1180",
            "children": {
                "date_deb_annee": "1180"
            },
            "range": {
                "date_apres": 11800000,
                "date_avant": 11809999
            }
        },
        {
            "type": "auteur",
            "value": "N\u00e9velon, \u00e9v\u00eaque de Soissons"
        },
        {
            "type": "beneficiaire",
            "value": "Soissons, chapitre Saint-Vaast"
        },
        {
            "type": "cote",
            "value": "FRANCE, Paris, BNF, Collection Moreau, t. 83, f. 192"
        }
    ]
}