{
    "id": 6480,
    "name": "moreau-5954",
    "type": "acte",
    "url": "http:\/\/telma-chartes.irht.cnrs.fr\/moreau\/notice\/6480",
    "project_slug": "moreau",
    "project_label": "Inventaire Moreau",
    "user": "b_tock",
    "last_update": "2020-10-19 16:25:22",
    "licence": "Attribution - Pas d\u2019Utilisation Commerciale - Partage dans les M\u00eames Conditions 3.0 France (CC BY-NC-SA 3.0 FR) ",
    "licence_url": "https:\/\/creativecommons.org\/licenses\/by-nc-sa\/3.0\/fr\/",
    "elements": [
        {
            "type": "date",
            "value": "1103",
            "children": {
                "date_deb_annee": "1103"
            },
            "range": {
                "date_apres": 11030000,
                "date_avant": 11039999
            }
        },
        {
            "type": "auteur",
            "value": "Baudouin, comte"
        },
        {
            "type": "beneficiaire",
            "value": "Valenciennes, prieur\u00e9 Saint-Sauve"
        },
        {
            "type": "cote",
            "value": "FRANCE, Paris, BNF, Collection Moreau, t. 41, f. 119"
        }
    ]
}