{
    "id": 2628,
    "name": "moreau-2102",
    "type": "acte",
    "url": "http:\/\/telma-chartes.irht.cnrs.fr\/moreau\/notice\/2628",
    "project_slug": "moreau",
    "project_label": "Inventaire Moreau",
    "user": "b_tock",
    "last_update": "2020-10-19 16:25:07",
    "licence": "Attribution - Pas d\u2019Utilisation Commerciale - Partage dans les M\u00eames Conditions 3.0 France (CC BY-NC-SA 3.0 FR) ",
    "licence_url": "https:\/\/creativecommons.org\/licenses\/by-nc-sa\/3.0\/fr\/",
    "elements": [
        {
            "type": "date",
            "value": "apres 0987 - avant 0996",
            "children": {
                "date_deb_annee": "0987",
                "date_deb_type": "apres",
                "date_fin_annee": "0996",
                "date_fin_type": "avant"
            },
            "range": {
                "date_apres": 9870000,
                "date_avant": 9969999
            }
        },
        {
            "type": "remarques",
            "value": "archives de l'abbaye de Cluny"
        },
        {
            "type": "auteur",
            "value": "Premeneus"
        },
        {
            "type": "beneficiaire",
            "value": "Gr\u00e9zac, prieur\u00e9 Saint-Symphorien"
        },
        {
            "type": "beneficiaire",
            "value": "Cluny, abbaye Saint-Pierre-et-Saint-Paul"
        },
        {
            "type": "cote",
            "value": "FRANCE, Paris, BNF, Collection Moreau, t. 14, f. 158"
        }
    ]
}