{
    "id": 6591,
    "name": "moreau-6065",
    "type": "acte",
    "url": "http:\/\/telma-chartes.irht.cnrs.fr\/moreau\/notice\/6591",
    "project_slug": "moreau",
    "project_label": "Inventaire Moreau",
    "user": "b_tock",
    "last_update": "2020-10-19 16:25:23",
    "licence": "Attribution - Pas d\u2019Utilisation Commerciale - Partage dans les M\u00eames Conditions 3.0 France (CC BY-NC-SA 3.0 FR) ",
    "licence_url": "https:\/\/creativecommons.org\/licenses\/by-nc-sa\/3.0\/fr\/",
    "elements": [
        {
            "type": "date",
            "value": "1106\/09\/17",
            "children": {
                "date_deb_annee": "1106",
                "date_deb_mois": "09",
                "date_deb_jour": "17"
            },
            "range": {
                "date_apres": 11060917,
                "date_avant": 11060917
            }
        },
        {
            "type": "auteur",
            "value": "Hugues, vicomte"
        },
        {
            "type": "beneficiaire",
            "value": "Elne, cath\u00e9drale Sainte-Eulalie-et-Sainte-Julie"
        },
        {
            "type": "cote",
            "value": "FRANCE, Paris, BNF, Collection Moreau, t. 42, f. 84"
        }
    ]
}