{
    "id": 3975,
    "name": "moreau-3449",
    "type": "acte",
    "url": "http:\/\/telma-chartes.irht.cnrs.fr\/moreau\/notice\/3975",
    "project_slug": "moreau",
    "project_label": "Inventaire Moreau",
    "user": "b_tock",
    "last_update": "2020-10-19 16:25:12",
    "licence": "Attribution - Pas d\u2019Utilisation Commerciale - Partage dans les M\u00eames Conditions 3.0 France (CC BY-NC-SA 3.0 FR) ",
    "licence_url": "https:\/\/creativecommons.org\/licenses\/by-nc-sa\/3.0\/fr\/",
    "elements": [
        {
            "type": "date",
            "value": "1037\/05\/23",
            "children": {
                "date_deb_annee": "1037",
                "date_deb_mois": "05",
                "date_deb_jour": "23"
            },
            "range": {
                "date_apres": 10370523,
                "date_avant": 10370523
            }
        },
        {
            "type": "remarques",
            "value": "notice, archives de Saint-Julien de Tours"
        },
        {
            "type": "auteur",
            "value": "Rennes, abbaye Saint-Cyr"
        },
        {
            "type": "cote",
            "value": "FRANCE, Paris, BNF, Collection Moreau, t. 22, f. 137"
        }
    ]
}