{
    "id": 8120,
    "name": "moreau-7594",
    "type": "acte",
    "url": "http:\/\/telma-chartes.irht.cnrs.fr\/moreau\/notice\/8120",
    "project_slug": "moreau",
    "project_label": "Inventaire Moreau",
    "user": "b_tock",
    "last_update": "2020-10-19 16:25:29",
    "licence": "Attribution - Pas d\u2019Utilisation Commerciale - Partage dans les M\u00eames Conditions 3.0 France (CC BY-NC-SA 3.0 FR) ",
    "licence_url": "https:\/\/creativecommons.org\/licenses\/by-nc-sa\/3.0\/fr\/",
    "elements": [
        {
            "type": "date",
            "value": "1135\/08",
            "children": {
                "date_deb_annee": "1135",
                "date_deb_mois": "08"
            },
            "range": {
                "date_apres": 11350800,
                "date_avant": 11350899
            }
        },
        {
            "type": "auteur",
            "value": "Milon, \u00e9v\u00eaque de Th\u00e9rouanne"
        },
        {
            "type": "beneficiaire",
            "value": "Marchiennes, abbaye Sainte-Rictrude-et-Saint-Pierre"
        },
        {
            "type": "cote",
            "value": "FRANCE, Paris, BNF, Collection Moreau, t. 56, f. 157"
        }
    ]
}