{
    "id": 4994,
    "name": "moreau-4468",
    "type": "acte",
    "url": "http:\/\/telma-chartes.irht.cnrs.fr\/moreau\/notice\/4994",
    "project_slug": "moreau",
    "project_label": "Inventaire Moreau",
    "user": "b_tock",
    "last_update": "2020-10-19 16:25:17",
    "licence": "Attribution - Pas d\u2019Utilisation Commerciale - Partage dans les M\u00eames Conditions 3.0 France (CC BY-NC-SA 3.0 FR) ",
    "licence_url": "https:\/\/creativecommons.org\/licenses\/by-nc-sa\/3.0\/fr\/",
    "elements": [
        {
            "type": "date",
            "value": "1074\/10\/18",
            "children": {
                "date_deb_annee": "1074",
                "date_deb_mois": "10",
                "date_deb_jour": "18"
            },
            "range": {
                "date_apres": 10741018,
                "date_avant": 10741018
            }
        },
        {
            "type": "remarques",
            "value": "tombe un lundi"
        },
        {
            "type": "auteur",
            "value": "Begon, fils d'Hugues"
        },
        {
            "type": "beneficiaire",
            "value": "Cluny, abbaye Saint-Pierre-et-Saint-Paul"
        },
        {
            "type": "cote",
            "value": "FRANCE, Paris, BNF, Collection Moreau, t. 31, f. 7"
        }
    ]
}