{
    "id": 648,
    "name": "moreau-122",
    "type": "acte",
    "url": "http:\/\/telma-chartes.irht.cnrs.fr\/moreau\/notice\/648",
    "project_slug": "moreau",
    "project_label": "Inventaire Moreau",
    "user": "b_tock",
    "last_update": "2020-10-19 16:24:58",
    "licence": "Attribution - Pas d\u2019Utilisation Commerciale - Partage dans les M\u00eames Conditions 3.0 France (CC BY-NC-SA 3.0 FR) ",
    "licence_url": "https:\/\/creativecommons.org\/licenses\/by-nc-sa\/3.0\/fr\/",
    "elements": [
        {
            "type": "date",
            "value": "0856\/09\/25",
            "children": {
                "date_deb_annee": "0856",
                "date_deb_mois": "09",
                "date_deb_jour": "25"
            },
            "range": {
                "date_apres": 8560925,
                "date_avant": 8560925
            }
        },
        {
            "type": "auteur",
            "value": "Charles le Chauve, roi des Francs"
        },
        {
            "type": "beneficiaire",
            "value": "Bourges, abbaye Saint-Sulpice"
        },
        {
            "type": "cote",
            "value": "FRANCE, Paris, BNF, Collection Moreau, t. 2, f. 7"
        }
    ]
}