{
    "id": 5565,
    "name": "moreau-5039",
    "type": "acte",
    "url": "http:\/\/telma-chartes.irht.cnrs.fr\/moreau\/notice\/5565",
    "project_slug": "moreau",
    "project_label": "Inventaire Moreau",
    "user": "b_tock",
    "last_update": "2020-10-19 16:25:19",
    "licence": "Attribution - Pas d\u2019Utilisation Commerciale - Partage dans les M\u00eames Conditions 3.0 France (CC BY-NC-SA 3.0 FR) ",
    "licence_url": "https:\/\/creativecommons.org\/licenses\/by-nc-sa\/3.0\/fr\/",
    "elements": [
        {
            "type": "date",
            "value": "1087\/01\/18",
            "children": {
                "date_deb_annee": "1087",
                "date_deb_mois": "01",
                "date_deb_jour": "18"
            },
            "range": {
                "date_apres": 10870118,
                "date_avant": 10870118
            }
        },
        {
            "type": "auteur",
            "value": "Eudes, clerc"
        },
        {
            "type": "beneficiaire",
            "value": "Cluny, abbaye Saint-Pierre-et-Saint-Paul"
        },
        {
            "type": "cote",
            "value": "FRANCE, Paris, BNF, Collection Moreau, t. 35, f. 25"
        }
    ]
}