{
    "id": 13451,
    "name": "moreau-12925",
    "type": "acte",
    "url": "http:\/\/telma-chartes.irht.cnrs.fr\/moreau\/notice\/13451",
    "project_slug": "moreau",
    "project_label": "Inventaire Moreau",
    "user": "b_tock",
    "last_update": "2020-10-19 16:25:49",
    "licence": "Attribution - Pas d\u2019Utilisation Commerciale - Partage dans les M\u00eames Conditions 3.0 France (CC BY-NC-SA 3.0 FR) ",
    "licence_url": "https:\/\/creativecommons.org\/licenses\/by-nc-sa\/3.0\/fr\/",
    "elements": [
        {
            "type": "date",
            "value": "1202\/04\/04",
            "children": {
                "date_deb_annee": "1202",
                "date_deb_mois": "04",
                "date_deb_jour": "04"
            },
            "range": {
                "date_apres": 12020404,
                "date_avant": 12020404
            }
        },
        {
            "type": "auteur",
            "value": "Innocent III, pape"
        },
        {
            "type": "beneficiaire",
            "value": "St-Omer, abbaye Saint-Bertin"
        },
        {
            "type": "cote",
            "value": "FRANCE, Paris, BNF, Collection Moreau, t. 103, f. 117"
        }
    ]
}