{
    "id": 948,
    "name": "moreau-422",
    "type": "acte",
    "url": "http:\/\/telma-chartes.irht.cnrs.fr\/moreau\/notice\/948",
    "project_slug": "moreau",
    "project_label": "Inventaire Moreau",
    "user": "b_tock",
    "last_update": "2020-10-19 16:24:59",
    "licence": "Attribution - Pas d\u2019Utilisation Commerciale - Partage dans les M\u00eames Conditions 3.0 France (CC BY-NC-SA 3.0 FR) ",
    "licence_url": "https:\/\/creativecommons.org\/licenses\/by-nc-sa\/3.0\/fr\/",
    "elements": [
        {
            "type": "date_libre",
            "value": "915\/920-02"
        },
        {
            "type": "date",
            "value": "apres 0915 - avant 0920\/02",
            "children": {
                "date_deb_annee": "0915",
                "date_deb_type": "apres",
                "date_fin_annee": "0920",
                "date_fin_mois": "02",
                "date_fin_type": "avant"
            },
            "range": {
                "date_apres": 9150000,
                "date_avant": 9200299
            }
        },
        {
            "type": "remarques",
            "value": "archives de l'abbaye de Cluny"
        },
        {
            "type": "auteur",
            "value": "Teorigo"
        },
        {
            "type": "beneficiaire",
            "value": "Teottono"
        },
        {
            "type": "cote",
            "value": "FRANCE, Paris, BNF, Collection Moreau, t. 4, f. 36"
        }
    ]
}