{
    "id": 11725,
    "name": "moreau-11199",
    "type": "acte",
    "url": "http:\/\/telma-chartes.irht.cnrs.fr\/moreau\/notice\/11725",
    "project_slug": "moreau",
    "project_label": "Inventaire Moreau",
    "user": "b_tock",
    "last_update": "2020-10-19 16:25:43",
    "licence": "Attribution - Pas d\u2019Utilisation Commerciale - Partage dans les M\u00eames Conditions 3.0 France (CC BY-NC-SA 3.0 FR) ",
    "licence_url": "https:\/\/creativecommons.org\/licenses\/by-nc-sa\/3.0\/fr\/",
    "elements": [
        {
            "type": "date",
            "value": "1186\/07\/30",
            "children": {
                "date_deb_annee": "1186",
                "date_deb_mois": "07",
                "date_deb_jour": "30"
            },
            "range": {
                "date_apres": 11860730,
                "date_avant": 11860730
            }
        },
        {
            "type": "auteur",
            "value": "Urbain III, pape"
        },
        {
            "type": "beneficiaire",
            "value": "Verdun, abbaye Saint-Vannes"
        },
        {
            "type": "cote",
            "value": "FRANCE, Paris, BNF, Collection Moreau, t. 89, f. 21"
        }
    ]
}