{
    "id": 1020,
    "name": "moreau-494",
    "type": "acte",
    "url": "http:\/\/telma-chartes.irht.cnrs.fr\/moreau\/notice\/1020",
    "project_slug": "moreau",
    "project_label": "Inventaire Moreau",
    "user": "b_tock",
    "last_update": "2020-10-19 16:25:00",
    "licence": "Attribution - Pas d\u2019Utilisation Commerciale - Partage dans les M\u00eames Conditions 3.0 France (CC BY-NC-SA 3.0 FR) ",
    "licence_url": "https:\/\/creativecommons.org\/licenses\/by-nc-sa\/3.0\/fr\/",
    "elements": [
        {
            "type": "date",
            "value": "0920\/07\/06",
            "children": {
                "date_deb_annee": "0920",
                "date_deb_mois": "07",
                "date_deb_jour": "06"
            },
            "range": {
                "date_apres": 9200706,
                "date_avant": 9200706
            }
        },
        {
            "type": "auteur",
            "value": "Arsinda"
        },
        {
            "type": "beneficiaire",
            "value": "Wadaldus, \u00e9v\u00eaque d'Elne"
        },
        {
            "type": "cote",
            "value": "FRANCE, Paris, BNF, Collection Moreau, t. 4, f. 135"
        }
    ]
}