{
    "id": 8843,
    "name": "moreau-8317",
    "type": "acte",
    "url": "http:\/\/telma-chartes.irht.cnrs.fr\/moreau\/notice\/8843",
    "project_slug": "moreau",
    "project_label": "Inventaire Moreau",
    "user": "b_tock",
    "last_update": "2020-10-19 16:25:32",
    "licence": "Attribution - Pas d\u2019Utilisation Commerciale - Partage dans les M\u00eames Conditions 3.0 France (CC BY-NC-SA 3.0 FR) ",
    "licence_url": "https:\/\/creativecommons.org\/licenses\/by-nc-sa\/3.0\/fr\/",
    "elements": [
        {
            "type": "date",
            "value": "1147\/08\/24",
            "children": {
                "date_deb_annee": "1147",
                "date_deb_mois": "08",
                "date_deb_jour": "24"
            },
            "range": {
                "date_apres": 11470824,
                "date_avant": 11470824
            }
        },
        {
            "type": "auteur",
            "value": "Guillaume, \u00e9v\u00eaque de Chalon"
        },
        {
            "type": "beneficiaire",
            "value": "Cluny, abbaye Saint-Pierre-et-Saint-Paul"
        },
        {
            "type": "cote",
            "value": "FRANCE, Paris, BNF, Collection Moreau, t. 63, f. 44"
        }
    ]
}