{
    "id": 13266,
    "name": "moreau-12740",
    "type": "acte",
    "url": "http:\/\/telma-chartes.irht.cnrs.fr\/moreau\/notice\/13266",
    "project_slug": "moreau",
    "project_label": "Inventaire Moreau",
    "user": "b_tock",
    "last_update": "2020-10-19 16:25:49",
    "licence": "Attribution - Pas d\u2019Utilisation Commerciale - Partage dans les M\u00eames Conditions 3.0 France (CC BY-NC-SA 3.0 FR) ",
    "licence_url": "https:\/\/creativecommons.org\/licenses\/by-nc-sa\/3.0\/fr\/",
    "elements": [
        {
            "type": "date",
            "value": "1200\/01",
            "children": {
                "date_deb_annee": "1200",
                "date_deb_mois": "01"
            },
            "range": {
                "date_apres": 12000100,
                "date_avant": 12000199
            }
        },
        {
            "type": "auteur",
            "value": "Robert de Insula"
        },
        {
            "type": "beneficiaire",
            "value": "Chartres, chapitre cath\u00e9dral"
        },
        {
            "type": "cote",
            "value": "FRANCE, Paris, BNF, Collection Moreau, t. 101, f. 212"
        }
    ]
}