{
    "id": 3437,
    "name": "moreau-2911",
    "type": "acte",
    "url": "http:\/\/telma-chartes.irht.cnrs.fr\/moreau\/notice\/3437",
    "project_slug": "moreau",
    "project_label": "Inventaire Moreau",
    "user": "b_tock",
    "last_update": "2020-10-19 16:25:10",
    "licence": "Attribution - Pas d\u2019Utilisation Commerciale - Partage dans les M\u00eames Conditions 3.0 France (CC BY-NC-SA 3.0 FR) ",
    "licence_url": "https:\/\/creativecommons.org\/licenses\/by-nc-sa\/3.0\/fr\/",
    "elements": [
        {
            "type": "date",
            "value": "1014",
            "children": {
                "date_deb_annee": "1014"
            },
            "range": {
                "date_apres": 10140000,
                "date_avant": 10149999
            }
        },
        {
            "type": "auteur",
            "value": "Hugues, comte du Mans"
        },
        {
            "type": "beneficiaire",
            "value": "Mont-Saint-Michel, abbaye"
        },
        {
            "type": "cote",
            "value": "FRANCE, Paris, BNF, Collection Moreau, t. 18, f. 268"
        }
    ]
}