{
    "id": 3331,
    "name": "moreau-2805",
    "type": "acte",
    "url": "http:\/\/telma-chartes.irht.cnrs.fr\/moreau\/notice\/3331",
    "project_slug": "moreau",
    "project_label": "Inventaire Moreau",
    "user": "b_tock",
    "last_update": "2020-10-19 16:25:10",
    "licence": "Attribution - Pas d\u2019Utilisation Commerciale - Partage dans les M\u00eames Conditions 3.0 France (CC BY-NC-SA 3.0 FR) ",
    "licence_url": "https:\/\/creativecommons.org\/licenses\/by-nc-sa\/3.0\/fr\/",
    "elements": [
        {
            "type": "date",
            "value": "1008\/03\/25",
            "children": {
                "date_deb_annee": "1008",
                "date_deb_mois": "03",
                "date_deb_jour": "25"
            },
            "range": {
                "date_apres": 10080325,
                "date_avant": 10080325
            }
        },
        {
            "type": "auteur",
            "value": "Hugues, proviseur de Saint-Trophime d'Arles"
        },
        {
            "type": "beneficiaire",
            "value": "Cluny, abbaye Saint-Pierre-et-Saint-Paul"
        },
        {
            "type": "cote",
            "value": "FRANCE, Paris, BNF, Collection Moreau, t. 18, f. 96"
        }
    ]
}