{
    "id": 10441,
    "name": "moreau-9915",
    "type": "acte",
    "url": "http:\/\/telma-chartes.irht.cnrs.fr\/moreau\/notice\/10441",
    "project_slug": "moreau",
    "project_label": "Inventaire Moreau",
    "user": "b_tock",
    "last_update": "2020-10-19 16:25:38",
    "licence": "Attribution - Pas d\u2019Utilisation Commerciale - Partage dans les M\u00eames Conditions 3.0 France (CC BY-NC-SA 3.0 FR) ",
    "licence_url": "https:\/\/creativecommons.org\/licenses\/by-nc-sa\/3.0\/fr\/",
    "elements": [
        {
            "type": "date",
            "value": "1171",
            "children": {
                "date_deb_annee": "1171"
            },
            "range": {
                "date_apres": 11710000,
                "date_avant": 11719999
            }
        },
        {
            "type": "auteur",
            "value": "Henri, comte de Troyes"
        },
        {
            "type": "beneficiaire",
            "value": "Soissons, abbaye Saint-M\u00e9dard"
        },
        {
            "type": "cote",
            "value": "FRANCE, Paris, BNF, Collection Moreau, t. 77, f. 69"
        }
    ]
}