{
    "id": 7217,
    "name": "moreau-6691",
    "type": "acte",
    "url": "http:\/\/telma-chartes.irht.cnrs.fr\/moreau\/notice\/7217",
    "project_slug": "moreau",
    "project_label": "Inventaire Moreau",
    "user": "b_tock",
    "last_update": "2020-10-19 16:25:25",
    "licence": "Attribution - Pas d\u2019Utilisation Commerciale - Partage dans les M\u00eames Conditions 3.0 France (CC BY-NC-SA 3.0 FR) ",
    "licence_url": "https:\/\/creativecommons.org\/licenses\/by-nc-sa\/3.0\/fr\/",
    "elements": [
        {
            "type": "date",
            "value": "1115",
            "children": {
                "date_deb_annee": "1115"
            },
            "range": {
                "date_apres": 11150000,
                "date_avant": 11159999
            }
        },
        {
            "type": "auteur",
            "value": "Almodis, comtesse"
        },
        {
            "type": "beneficiaire",
            "value": "Ch\u00e2tain, prieur\u00e9\u00a0"
        },
        {
            "type": "beneficiaire",
            "value": "La Chaise-Dieu, abbaye Saint-Robert"
        },
        {
            "type": "cote",
            "value": "FRANCE, Paris, BNF, Collection Moreau, t. 47, f. 184"
        }
    ]
}