{
    "id": 8245,
    "name": "moreau-7719",
    "type": "acte",
    "url": "http:\/\/telma-chartes.irht.cnrs.fr\/moreau\/notice\/8245",
    "project_slug": "moreau",
    "project_label": "Inventaire Moreau",
    "user": "b_tock",
    "last_update": "2020-10-19 16:25:30",
    "licence": "Attribution - Pas d\u2019Utilisation Commerciale - Partage dans les M\u00eames Conditions 3.0 France (CC BY-NC-SA 3.0 FR) ",
    "licence_url": "https:\/\/creativecommons.org\/licenses\/by-nc-sa\/3.0\/fr\/",
    "elements": [
        {
            "type": "date_libre",
            "value": "[1138-1143]-04-12"
        },
        {
            "type": "date",
            "value": "apres 1138\/04\/12 - avant 1143\/04\/12",
            "children": {
                "date_deb_annee": "1138",
                "date_deb_mois": "04",
                "date_deb_jour": "12",
                "date_deb_type": "apres",
                "date_fin_annee": "1143",
                "date_fin_mois": "04",
                "date_fin_jour": "12",
                "date_fin_type": "avant"
            },
            "range": {
                "date_apres": 11380412,
                "date_avant": 11430412
            }
        },
        {
            "type": "remarques",
            "value": "http:\/\/www.cn-telma.fr\/chartae-galliae\/charte210387\/"
        },
        {
            "type": "auteur",
            "value": "Innocent II, pape"
        },
        {
            "type": "beneficiaire",
            "value": "Laon, abbaye Saint-Jean"
        },
        {
            "type": "cote",
            "value": "FRANCE, Paris, BNF, Collection Moreau, t. 57, f. 189"
        }
    ]
}