{
    "id": 11984,
    "name": "moreau-11458",
    "type": "acte",
    "url": "http:\/\/telma-chartes.irht.cnrs.fr\/moreau\/notice\/11984",
    "project_slug": "moreau",
    "project_label": "Inventaire Moreau",
    "user": "b_tock",
    "last_update": "2020-10-19 16:25:44",
    "licence": "Attribution - Pas d\u2019Utilisation Commerciale - Partage dans les M\u00eames Conditions 3.0 France (CC BY-NC-SA 3.0 FR) ",
    "licence_url": "https:\/\/creativecommons.org\/licenses\/by-nc-sa\/3.0\/fr\/",
    "elements": [
        {
            "type": "date",
            "value": "1189\/10",
            "children": {
                "date_deb_annee": "1189",
                "date_deb_mois": "10"
            },
            "range": {
                "date_apres": 11891000,
                "date_avant": 11891099
            }
        },
        {
            "type": "auteur",
            "value": "Baudouin, comte de Hainaut"
        },
        {
            "type": "beneficiaire",
            "value": "Hautmont, abbaye Saint-Pierre-et-Saint-Paul"
        },
        {
            "type": "cote",
            "value": "FRANCE, Paris, BNF, Collection Moreau, t. 91, f. 47"
        }
    ]
}