{
    "id": 12899,
    "name": "moreau-12373",
    "type": "acte",
    "url": "http:\/\/telma-chartes.irht.cnrs.fr\/moreau\/notice\/12899",
    "project_slug": "moreau",
    "project_label": "Inventaire Moreau",
    "user": "b_tock",
    "last_update": "2020-10-19 16:25:47",
    "licence": "Attribution - Pas d\u2019Utilisation Commerciale - Partage dans les M\u00eames Conditions 3.0 France (CC BY-NC-SA 3.0 FR) ",
    "licence_url": "https:\/\/creativecommons.org\/licenses\/by-nc-sa\/3.0\/fr\/",
    "elements": [
        {
            "type": "date",
            "value": "1197",
            "children": {
                "date_deb_annee": "1197"
            },
            "range": {
                "date_apres": 11970000,
                "date_avant": 11979999
            }
        },
        {
            "type": "auteur",
            "value": "Albert de Dabo, comte de Metz"
        },
        {
            "type": "beneficiaire",
            "value": "Metz, chapitre Saint-Thi\u00e9baut"
        },
        {
            "type": "cote",
            "value": "FRANCE, Paris, BNF, Collection Moreau, t. 98, f. 180"
        }
    ]
}