{
    "id": 1894,
    "name": "moreau-1368",
    "type": "acte",
    "url": "http:\/\/telma-chartes.irht.cnrs.fr\/moreau\/notice\/1894",
    "project_slug": "moreau",
    "project_label": "Inventaire Moreau",
    "user": "b_tock",
    "last_update": "2020-10-19 16:25:04",
    "licence": "Attribution - Pas d\u2019Utilisation Commerciale - Partage dans les M\u00eames Conditions 3.0 France (CC BY-NC-SA 3.0 FR) ",
    "licence_url": "https:\/\/creativecommons.org\/licenses\/by-nc-sa\/3.0\/fr\/",
    "elements": [
        {
            "type": "date",
            "value": "circa 0965",
            "children": {
                "date_deb_annee": "0965",
                "date_deb_type": "circa"
            },
            "range": {
                "date_apres": 9650000,
                "date_avant": 9659999
            }
        },
        {
            "type": "auteur",
            "value": "Archambaud, clerc de Saint-Hilaire de Poitiers"
        },
        {
            "type": "beneficiaire",
            "value": "Salomon, clerc de Saint-Hilaire de Poitiers"
        },
        {
            "type": "cote",
            "value": "FRANCE, Paris, BNF, Collection Moreau, t. 10, f. 23"
        }
    ]
}