{
    "id": 7631,
    "name": "moreau-7105",
    "type": "acte",
    "url": "http:\/\/telma-chartes.irht.cnrs.fr\/moreau\/notice\/7631",
    "project_slug": "moreau",
    "project_label": "Inventaire Moreau",
    "user": "b_tock",
    "last_update": "2020-10-19 16:25:27",
    "licence": "Attribution - Pas d\u2019Utilisation Commerciale - Partage dans les M\u00eames Conditions 3.0 France (CC BY-NC-SA 3.0 FR) ",
    "licence_url": "https:\/\/creativecommons.org\/licenses\/by-nc-sa\/3.0\/fr\/",
    "elements": [
        {
            "type": "date",
            "value": "1123",
            "children": {
                "date_deb_annee": "1123"
            },
            "range": {
                "date_apres": 11230000,
                "date_avant": 11239999
            }
        },
        {
            "type": "auteur",
            "value": "Adh\u00e9mar Luscus"
        },
        {
            "type": "beneficiaire",
            "value": "Saint-Maixent, abbaye"
        },
        {
            "type": "cote",
            "value": "FRANCE, Paris, BNF, Collection Moreau, t. 51, f. 80"
        }
    ]
}