{
    "id": 13491,
    "name": "moreau-12965",
    "type": "acte",
    "url": "http:\/\/telma-chartes.irht.cnrs.fr\/moreau\/notice\/13491",
    "project_slug": "moreau",
    "project_label": "Inventaire Moreau",
    "user": "b_tock",
    "last_update": "2020-10-19 16:25:50",
    "licence": "Attribution - Pas d\u2019Utilisation Commerciale - Partage dans les M\u00eames Conditions 3.0 France (CC BY-NC-SA 3.0 FR) ",
    "licence_url": "https:\/\/creativecommons.org\/licenses\/by-nc-sa\/3.0\/fr\/",
    "elements": [
        {
            "type": "date",
            "value": "1202\/06\/25",
            "children": {
                "date_deb_annee": "1202",
                "date_deb_mois": "06",
                "date_deb_jour": "25"
            },
            "range": {
                "date_apres": 12020625,
                "date_avant": 12020625
            }
        },
        {
            "type": "auteur",
            "value": "Anicia, \u00e9pouse de Renaud de Mello"
        },
        {
            "type": "beneficiaire",
            "value": "Wariville, prieur\u00e9 Notre-Dame"
        },
        {
            "type": "cote",
            "value": "FRANCE, Paris, BNF, Collection Moreau, t. 103, f. 200"
        }
    ]
}