{
    "id": 10077,
    "name": "moreau-9551",
    "type": "acte",
    "url": "http:\/\/telma-chartes.irht.cnrs.fr\/moreau\/notice\/10077",
    "project_slug": "moreau",
    "project_label": "Inventaire Moreau",
    "user": "b_tock",
    "last_update": "2020-10-19 16:25:37",
    "licence": "Attribution - Pas d\u2019Utilisation Commerciale - Partage dans les M\u00eames Conditions 3.0 France (CC BY-NC-SA 3.0 FR) ",
    "licence_url": "https:\/\/creativecommons.org\/licenses\/by-nc-sa\/3.0\/fr\/",
    "elements": [
        {
            "type": "date",
            "value": "1165",
            "children": {
                "date_deb_annee": "1165"
            },
            "range": {
                "date_apres": 11650000,
                "date_avant": 11659999
            }
        },
        {
            "type": "auteur",
            "value": "Fr\u00e9d\u00e9ric, empereur"
        },
        {
            "type": "beneficiaire",
            "value": "Cambrai, cath\u00e9drale Notre-Dame de Gr\u00e2ce"
        },
        {
            "type": "cote",
            "value": "FRANCE, Paris, BNF, Collection Moreau, t. 74, f. 15"
        }
    ]
}