{
    "id": 859,
    "name": "moreau-333",
    "type": "acte",
    "url": "http:\/\/telma-chartes.irht.cnrs.fr\/moreau\/notice\/859",
    "project_slug": "moreau",
    "project_label": "Inventaire Moreau",
    "user": "b_tock",
    "last_update": "2020-10-19 16:24:59",
    "licence": "Attribution - Pas d\u2019Utilisation Commerciale - Partage dans les M\u00eames Conditions 3.0 France (CC BY-NC-SA 3.0 FR) ",
    "licence_url": "https:\/\/creativecommons.org\/licenses\/by-nc-sa\/3.0\/fr\/",
    "elements": [
        {
            "type": "date",
            "value": "0902\/04\/17",
            "children": {
                "date_deb_annee": "0902",
                "date_deb_mois": "04",
                "date_deb_jour": "17"
            },
            "range": {
                "date_apres": 9020417,
                "date_avant": 9020417
            }
        },
        {
            "type": "remarques",
            "value": "archives de la cath\u00e9drale de Vienne"
        },
        {
            "type": "auteur",
            "value": "Louis, empereur"
        },
        {
            "type": "beneficiaire",
            "value": "Berilo, vicomte"
        },
        {
            "type": "cote",
            "value": "FRANCE, Paris, BNF, Collection Moreau, t. 3, f. 164"
        }
    ]
}