{
    "id": 5376,
    "name": "moreau-4850",
    "type": "acte",
    "url": "http:\/\/telma-chartes.irht.cnrs.fr\/moreau\/notice\/5376",
    "project_slug": "moreau",
    "project_label": "Inventaire Moreau",
    "user": "b_tock",
    "last_update": "2020-10-19 16:25:18",
    "licence": "Attribution - Pas d\u2019Utilisation Commerciale - Partage dans les M\u00eames Conditions 3.0 France (CC BY-NC-SA 3.0 FR) ",
    "licence_url": "https:\/\/creativecommons.org\/licenses\/by-nc-sa\/3.0\/fr\/",
    "elements": [
        {
            "type": "date",
            "value": "1082",
            "children": {
                "date_deb_annee": "1082"
            },
            "range": {
                "date_apres": 10820000,
                "date_avant": 10829999
            }
        },
        {
            "type": "auteur",
            "value": "Ebles, comte de Rameruco"
        },
        {
            "type": "auteur",
            "value": "Hugues de Dammartin"
        },
        {
            "type": "beneficiaire",
            "value": "Marmoutier, abbaye Saint-Martin"
        },
        {
            "type": "cote",
            "value": "FRANCE, Paris, BNF, Collection Moreau, t. 33, f. 124"
        }
    ]
}