{
    "id": 12514,
    "name": "moreau-11988",
    "type": "acte",
    "url": "http:\/\/telma-chartes.irht.cnrs.fr\/moreau\/notice\/12514",
    "project_slug": "moreau",
    "project_label": "Inventaire Moreau",
    "user": "b_tock",
    "last_update": "2020-10-19 16:25:46",
    "licence": "Attribution - Pas d\u2019Utilisation Commerciale - Partage dans les M\u00eames Conditions 3.0 France (CC BY-NC-SA 3.0 FR) ",
    "licence_url": "https:\/\/creativecommons.org\/licenses\/by-nc-sa\/3.0\/fr\/",
    "elements": [
        {
            "type": "date",
            "value": "1194\/07\/18",
            "children": {
                "date_deb_annee": "1194",
                "date_deb_mois": "07",
                "date_deb_jour": "18"
            },
            "range": {
                "date_apres": 11940718,
                "date_avant": 11940718
            }
        },
        {
            "type": "auteur",
            "value": "C\u00e9lestin III, pape"
        },
        {
            "type": "beneficiaire",
            "value": "Corbie, abbaye Saint-Pierre"
        },
        {
            "type": "cote",
            "value": "FRANCE, Paris, BNF, Collection Moreau, t. 95, f. 152"
        }
    ]
}