{
    "id": 7973,
    "name": "moreau-7447",
    "type": "acte",
    "url": "http:\/\/telma-chartes.irht.cnrs.fr\/moreau\/notice\/7973",
    "project_slug": "moreau",
    "project_label": "Inventaire Moreau",
    "user": "b_tock",
    "last_update": "2020-10-19 16:25:29",
    "licence": "Attribution - Pas d\u2019Utilisation Commerciale - Partage dans les M\u00eames Conditions 3.0 France (CC BY-NC-SA 3.0 FR) ",
    "licence_url": "https:\/\/creativecommons.org\/licenses\/by-nc-sa\/3.0\/fr\/",
    "elements": [
        {
            "type": "date",
            "value": "1131\/11\/05",
            "children": {
                "date_deb_annee": "1131",
                "date_deb_mois": "11",
                "date_deb_jour": "05"
            },
            "range": {
                "date_apres": 11311105,
                "date_avant": 11311105
            }
        },
        {
            "type": "auteur",
            "value": "Innocent II, pape"
        },
        {
            "type": "beneficiaire",
            "value": "La Bouteille, abbaye de Foigny"
        },
        {
            "type": "cote",
            "value": "FRANCE, Paris, BNF, Collection Moreau, t. 55, f. 31"
        }
    ]
}