{
    "id": 7649,
    "name": "moreau-7123",
    "type": "acte",
    "url": "http:\/\/telma-chartes.irht.cnrs.fr\/moreau\/notice\/7649",
    "project_slug": "moreau",
    "project_label": "Inventaire Moreau",
    "user": "b_tock",
    "last_update": "2020-10-19 16:25:28",
    "licence": "Attribution - Pas d\u2019Utilisation Commerciale - Partage dans les M\u00eames Conditions 3.0 France (CC BY-NC-SA 3.0 FR) ",
    "licence_url": "https:\/\/creativecommons.org\/licenses\/by-nc-sa\/3.0\/fr\/",
    "elements": [
        {
            "type": "date",
            "value": "1124\/04\/13",
            "children": {
                "date_deb_annee": "1124",
                "date_deb_mois": "04",
                "date_deb_jour": "13"
            },
            "range": {
                "date_apres": 11240413,
                "date_avant": 11240413
            }
        },
        {
            "type": "auteur",
            "value": "Calixte II, pape"
        },
        {
            "type": "beneficiaire",
            "value": "Montier-en-Der, abbaye Saint-Pierre-et-Saint-Paul"
        },
        {
            "type": "cote",
            "value": "FRANCE, Paris, BNF, Collection Moreau, t. 51, f. 117"
        }
    ]
}