{
    "id": 12702,
    "name": "moreau-12176",
    "type": "acte",
    "url": "http:\/\/telma-chartes.irht.cnrs.fr\/moreau\/notice\/12702",
    "project_slug": "moreau",
    "project_label": "Inventaire Moreau",
    "user": "b_tock",
    "last_update": "2020-10-19 16:25:47",
    "licence": "Attribution - Pas d\u2019Utilisation Commerciale - Partage dans les M\u00eames Conditions 3.0 France (CC BY-NC-SA 3.0 FR) ",
    "licence_url": "https:\/\/creativecommons.org\/licenses\/by-nc-sa\/3.0\/fr\/",
    "elements": [
        {
            "type": "date",
            "value": "1196\/04\/16",
            "children": {
                "date_deb_annee": "1196",
                "date_deb_mois": "04",
                "date_deb_jour": "16"
            },
            "range": {
                "date_apres": 11960416,
                "date_avant": 11960416
            }
        },
        {
            "type": "auteur",
            "value": "C\u00e9lestin III, pape"
        },
        {
            "type": "beneficiaire",
            "value": "St-Omer, abbaye Saint-Bertin"
        },
        {
            "type": "cote",
            "value": "FRANCE, Paris, BNF, Collection Moreau, t. 97, f. 18"
        }
    ]
}