{
    "id": 3518,
    "name": "moreau-2992",
    "type": "acte",
    "url": "http:\/\/telma-chartes.irht.cnrs.fr\/moreau\/notice\/3518",
    "project_slug": "moreau",
    "project_label": "Inventaire Moreau",
    "user": "b_tock",
    "last_update": "2020-10-19 16:25:11",
    "licence": "Attribution - Pas d\u2019Utilisation Commerciale - Partage dans les M\u00eames Conditions 3.0 France (CC BY-NC-SA 3.0 FR) ",
    "licence_url": "https:\/\/creativecommons.org\/licenses\/by-nc-sa\/3.0\/fr\/",
    "elements": [
        {
            "type": "date",
            "value": "apres 0994 - avant 1049",
            "children": {
                "date_deb_annee": "0994",
                "date_deb_type": "apres",
                "date_fin_annee": "1049",
                "date_fin_type": "avant"
            },
            "range": {
                "date_apres": 9940000,
                "date_avant": 10499999
            }
        },
        {
            "type": "auteur",
            "value": "Agn\u00e8s, comtesse, fille d'Otte-Guillaume"
        },
        {
            "type": "beneficiaire",
            "value": "Cluny, abbaye Saint-Pierre-et-Saint-Paul"
        },
        {
            "type": "cote",
            "value": "FRANCE, Paris, BNF, Collection Moreau, t. 19, f. 137"
        }
    ]
}