{
    "id": 11349,
    "name": "moreau-10823",
    "type": "acte",
    "url": "http:\/\/telma-chartes.irht.cnrs.fr\/moreau\/notice\/11349",
    "project_slug": "moreau",
    "project_label": "Inventaire Moreau",
    "user": "b_tock",
    "last_update": "2020-10-19 16:25:42",
    "licence": "Attribution - Pas d\u2019Utilisation Commerciale - Partage dans les M\u00eames Conditions 3.0 France (CC BY-NC-SA 3.0 FR) ",
    "licence_url": "https:\/\/creativecommons.org\/licenses\/by-nc-sa\/3.0\/fr\/",
    "elements": [
        {
            "type": "date",
            "value": "1183\/09\/27",
            "children": {
                "date_deb_annee": "1183",
                "date_deb_mois": "09",
                "date_deb_jour": "27"
            },
            "range": {
                "date_apres": 11830927,
                "date_avant": 11830927
            }
        },
        {
            "type": "remarques",
            "value": "Jaff\u00e9, 14915"
        },
        {
            "type": "auteur",
            "value": "Lucius III, pape"
        },
        {
            "type": "beneficiaire",
            "value": "Anchin, abbaye Saint-Sauveur"
        },
        {
            "type": "cote",
            "value": "FRANCE, Paris, BNF, Collection Moreau, t. 85, f. 143"
        }
    ]
}