{
    "id": 698,
    "name": "moreau-172",
    "type": "acte",
    "url": "http:\/\/telma-chartes.irht.cnrs.fr\/moreau\/notice\/698",
    "project_slug": "moreau",
    "project_label": "Inventaire Moreau",
    "user": "b_tock",
    "last_update": "2020-10-19 16:24:58",
    "licence": "Attribution - Pas d\u2019Utilisation Commerciale - Partage dans les M\u00eames Conditions 3.0 France (CC BY-NC-SA 3.0 FR) ",
    "licence_url": "https:\/\/creativecommons.org\/licenses\/by-nc-sa\/3.0\/fr\/",
    "elements": [
        {
            "type": "date",
            "value": "0870\/02\/04",
            "children": {
                "date_deb_annee": "0870",
                "date_deb_mois": "02",
                "date_deb_jour": "04"
            },
            "range": {
                "date_apres": 8700204,
                "date_avant": 8700204
            }
        },
        {
            "type": "remarques",
            "value": "archives de la cath\u00e9drale de Cambrai"
        },
        {
            "type": "auteur",
            "value": "Charles le Chauve, roi des Francs"
        },
        {
            "type": "beneficiaire",
            "value": "Maroilles, abbaye Saint-Hubert"
        },
        {
            "type": "cote",
            "value": "FRANCE, Paris, BNF, Collection Moreau, t. 2, f. 105"
        }
    ]
}