{
    "id": 3682,
    "name": "moreau-3156",
    "type": "acte",
    "url": "http:\/\/telma-chartes.irht.cnrs.fr\/moreau\/notice\/3682",
    "project_slug": "moreau",
    "project_label": "Inventaire Moreau",
    "user": "b_tock",
    "last_update": "2020-10-19 16:25:11",
    "licence": "Attribution - Pas d\u2019Utilisation Commerciale - Partage dans les M\u00eames Conditions 3.0 France (CC BY-NC-SA 3.0 FR) ",
    "licence_url": "https:\/\/creativecommons.org\/licenses\/by-nc-sa\/3.0\/fr\/",
    "elements": [
        {
            "type": "date",
            "value": "apres 1004 - avant 1046",
            "children": {
                "date_deb_annee": "1004",
                "date_deb_type": "apres",
                "date_fin_annee": "1046",
                "date_fin_type": "avant"
            },
            "range": {
                "date_apres": 10040000,
                "date_avant": 10469999
            }
        },
        {
            "type": "auteur",
            "value": "Richard, abb\u00e9 de Saint-Vanne de Verdun"
        },
        {
            "type": "beneficiaire",
            "value": "Verdun, abbaye Saint-Vanne"
        },
        {
            "type": "cote",
            "value": "FRANCE, Paris, BNF, Collection Moreau, t. 20, f. 151"
        }
    ]
}