{
    "id": 12596,
    "name": "moreau-12070",
    "type": "acte",
    "url": "http:\/\/telma-chartes.irht.cnrs.fr\/moreau\/notice\/12596",
    "project_slug": "moreau",
    "project_label": "Inventaire Moreau",
    "user": "b_tock",
    "last_update": "2020-10-19 16:25:46",
    "licence": "Attribution - Pas d\u2019Utilisation Commerciale - Partage dans les M\u00eames Conditions 3.0 France (CC BY-NC-SA 3.0 FR) ",
    "licence_url": "https:\/\/creativecommons.org\/licenses\/by-nc-sa\/3.0\/fr\/",
    "elements": [
        {
            "type": "date",
            "value": "1194\/02",
            "children": {
                "date_deb_annee": "1194",
                "date_deb_mois": "02"
            },
            "range": {
                "date_apres": 11940200,
                "date_avant": 11940299
            }
        },
        {
            "type": "auteur",
            "value": "Philippe Auguste, roi des Francs"
        },
        {
            "type": "beneficiaire",
            "value": "Raymond, comte de Saint-Gilles"
        },
        {
            "type": "cote",
            "value": "FRANCE, Paris, BNF, Collection Moreau, t. 96, f. 78"
        }
    ]
}