{
    "id": 9151,
    "name": "moreau-8625",
    "type": "acte",
    "url": "http:\/\/telma-chartes.irht.cnrs.fr\/moreau\/notice\/9151",
    "project_slug": "moreau",
    "project_label": "Inventaire Moreau",
    "user": "b_tock",
    "last_update": "2020-10-19 16:25:33",
    "licence": "Attribution - Pas d\u2019Utilisation Commerciale - Partage dans les M\u00eames Conditions 3.0 France (CC BY-NC-SA 3.0 FR) ",
    "licence_url": "https:\/\/creativecommons.org\/licenses\/by-nc-sa\/3.0\/fr\/",
    "elements": [
        {
            "type": "date",
            "value": "1151",
            "children": {
                "date_deb_annee": "1151"
            },
            "range": {
                "date_apres": 11510000,
                "date_avant": 11519999
            }
        },
        {
            "type": "auteur",
            "value": "Baudouin, \u00e9v\u00eaque de Noyon"
        },
        {
            "type": "beneficiaire",
            "value": "Fervaques, abbaye Notre-Dame"
        },
        {
            "type": "cote",
            "value": "FRANCE, Paris, BNF, Collection Moreau, t. 65, f. 204"
        }
    ]
}