{
    "id": 3660,
    "name": "moreau-3134",
    "type": "acte",
    "url": "http:\/\/telma-chartes.irht.cnrs.fr\/moreau\/notice\/3660",
    "project_slug": "moreau",
    "project_label": "Inventaire Moreau",
    "user": "b_tock",
    "last_update": "2020-10-19 16:25:11",
    "licence": "Attribution - Pas d\u2019Utilisation Commerciale - Partage dans les M\u00eames Conditions 3.0 France (CC BY-NC-SA 3.0 FR) ",
    "licence_url": "https:\/\/creativecommons.org\/licenses\/by-nc-sa\/3.0\/fr\/",
    "elements": [
        {
            "type": "date",
            "value": "1025",
            "children": {
                "date_deb_annee": "1025"
            },
            "range": {
                "date_apres": 10250000,
                "date_avant": 10259999
            }
        },
        {
            "type": "auteur",
            "value": "Robert II, roi des Francs"
        },
        {
            "type": "beneficiaire",
            "value": "Nouaill\u00e9, abbaye Saint-Junien"
        },
        {
            "type": "cote",
            "value": "FRANCE, Paris, BNF, Collection Moreau, t. 20, f. 117"
        }
    ]
}