{
    "id": 8770,
    "name": "moreau-8244",
    "type": "acte",
    "url": "http:\/\/telma-chartes.irht.cnrs.fr\/moreau\/notice\/8770",
    "project_slug": "moreau",
    "project_label": "Inventaire Moreau",
    "user": "b_tock",
    "last_update": "2020-10-19 16:25:32",
    "licence": "Attribution - Pas d\u2019Utilisation Commerciale - Partage dans les M\u00eames Conditions 3.0 France (CC BY-NC-SA 3.0 FR) ",
    "licence_url": "https:\/\/creativecommons.org\/licenses\/by-nc-sa\/3.0\/fr\/",
    "elements": [
        {
            "type": "date",
            "value": "1146\/12\/30",
            "children": {
                "date_deb_annee": "1146",
                "date_deb_mois": "12",
                "date_deb_jour": "30"
            },
            "range": {
                "date_apres": 11461230,
                "date_avant": 11461230
            }
        },
        {
            "type": "auteur",
            "value": "Conrad III, roi des Romains"
        },
        {
            "type": "beneficiaire",
            "value": "Cambrai, cath\u00e9drale Notre-Dame de Gr\u00e2ce"
        },
        {
            "type": "cote",
            "value": "FRANCE, Paris, BNF, Collection Moreau, t. 62, f. 115"
        }
    ]
}