{
    "id": 3724,
    "name": "moreau-3198",
    "type": "acte",
    "url": "http:\/\/telma-chartes.irht.cnrs.fr\/moreau\/notice\/3724",
    "project_slug": "moreau",
    "project_label": "Inventaire Moreau",
    "user": "b_tock",
    "last_update": "2020-10-19 16:25:11",
    "licence": "Attribution - Pas d\u2019Utilisation Commerciale - Partage dans les M\u00eames Conditions 3.0 France (CC BY-NC-SA 3.0 FR) ",
    "licence_url": "https:\/\/creativecommons.org\/licenses\/by-nc-sa\/3.0\/fr\/",
    "elements": [
        {
            "type": "date_libre",
            "value": "[1021-1031]-02"
        },
        {
            "type": "date",
            "value": "apres 1021\/02 - avant 1021\/02",
            "children": {
                "date_deb_annee": "1021",
                "date_deb_mois": "02",
                "date_deb_type": "apres",
                "date_fin_annee": "1021",
                "date_fin_mois": "02",
                "date_fin_type": "avant"
            },
            "range": {
                "date_apres": 10210200,
                "date_avant": 10210299
            }
        },
        {
            "type": "auteur",
            "value": "Adraldus"
        },
        {
            "type": "beneficiaire",
            "value": "St-Jean-d'Ang\u00e9ly, abbaye Saint-Jean-Baptiste"
        },
        {
            "type": "cote",
            "value": "FRANCE, Paris, BNF, Collection Moreau, t. 20, f. 223"
        }
    ]
}