{
    "id": 5335,
    "name": "moreau-4809",
    "type": "acte",
    "url": "http:\/\/telma-chartes.irht.cnrs.fr\/moreau\/notice\/5335",
    "project_slug": "moreau",
    "project_label": "Inventaire Moreau",
    "user": "b_tock",
    "last_update": "2020-10-19 16:25:18",
    "licence": "Attribution - Pas d\u2019Utilisation Commerciale - Partage dans les M\u00eames Conditions 3.0 France (CC BY-NC-SA 3.0 FR) ",
    "licence_url": "https:\/\/creativecommons.org\/licenses\/by-nc-sa\/3.0\/fr\/",
    "elements": [
        {
            "type": "date",
            "value": "1081",
            "children": {
                "date_deb_annee": "1081"
            },
            "range": {
                "date_apres": 10810000,
                "date_avant": 10819999
            }
        },
        {
            "type": "auteur",
            "value": "Artaud, comte de Pailhas"
        },
        {
            "type": "beneficiaire",
            "value": "Gerri, abbaye Notre-Dame"
        },
        {
            "type": "cote",
            "value": "FRANCE, Paris, BNF, Collection Moreau, t. 33, f. 56"
        }
    ]
}