{
    "id": 5596,
    "name": "moreau-5070",
    "type": "acte",
    "url": "http:\/\/telma-chartes.irht.cnrs.fr\/moreau\/notice\/5596",
    "project_slug": "moreau",
    "project_label": "Inventaire Moreau",
    "user": "b_tock",
    "last_update": "2020-10-19 16:25:19",
    "licence": "Attribution - Pas d\u2019Utilisation Commerciale - Partage dans les M\u00eames Conditions 3.0 France (CC BY-NC-SA 3.0 FR) ",
    "licence_url": "https:\/\/creativecommons.org\/licenses\/by-nc-sa\/3.0\/fr\/",
    "elements": [
        {
            "type": "date",
            "value": "1088",
            "children": {
                "date_deb_annee": "1088"
            },
            "range": {
                "date_apres": 10880000,
                "date_avant": 10889999
            }
        },
        {
            "type": "auteur",
            "value": "Adam, abb\u00e9 de Saint-Maixent"
        },
        {
            "type": "beneficiaire",
            "value": "Saint-Maixent, abbaye"
        },
        {
            "type": "cote",
            "value": "FRANCE, Paris, BNF, Collection Moreau, t. 35, f. 88"
        }
    ]
}