{
    "id": 635,
    "name": "moreau-109",
    "type": "acte",
    "url": "http:\/\/telma-chartes.irht.cnrs.fr\/moreau\/notice\/635",
    "project_slug": "moreau",
    "project_label": "Inventaire Moreau",
    "user": "b_tock",
    "last_update": "2020-10-19 16:24:58",
    "licence": "Attribution - Pas d\u2019Utilisation Commerciale - Partage dans les M\u00eames Conditions 3.0 France (CC BY-NC-SA 3.0 FR) ",
    "licence_url": "https:\/\/creativecommons.org\/licenses\/by-nc-sa\/3.0\/fr\/",
    "elements": [
        {
            "type": "date",
            "value": "apres 0842 - avant 0860",
            "children": {
                "date_deb_annee": "0842",
                "date_deb_type": "apres",
                "date_fin_annee": "0860",
                "date_fin_type": "avant"
            },
            "range": {
                "date_apres": 8420000,
                "date_avant": 8609999
            }
        },
        {
            "type": "auteur",
            "value": "Agilmarus, archev\u00eaque de Vienne"
        },
        {
            "type": "beneficiaire",
            "value": "Suigerigus, comte de Vienne"
        },
        {
            "type": "cote",
            "value": "FRANCE, Paris, BNF, Collection Moreau, t. 1, f. 223"
        }
    ]
}