{
    "id": 8484,
    "name": "moreau-7958",
    "type": "acte",
    "url": "http:\/\/telma-chartes.irht.cnrs.fr\/moreau\/notice\/8484",
    "project_slug": "moreau",
    "project_label": "Inventaire Moreau",
    "user": "b_tock",
    "last_update": "2020-10-19 16:25:31",
    "licence": "Attribution - Pas d\u2019Utilisation Commerciale - Partage dans les M\u00eames Conditions 3.0 France (CC BY-NC-SA 3.0 FR) ",
    "licence_url": "https:\/\/creativecommons.org\/licenses\/by-nc-sa\/3.0\/fr\/",
    "elements": [
        {
            "type": "date",
            "value": "1142\/08\/01",
            "children": {
                "date_deb_annee": "1142",
                "date_deb_mois": "08",
                "date_deb_jour": "01"
            },
            "range": {
                "date_apres": 11420801,
                "date_avant": 11420801
            }
        },
        {
            "type": "auteur",
            "value": "Hugues, archev\u00eaque de Rouen"
        },
        {
            "type": "beneficiaire",
            "value": "St-Wandrille, abbaye Saint-Pierre"
        },
        {
            "type": "cote",
            "value": "FRANCE, Paris, BNF, Collection Moreau, t. 60, f. 8"
        }
    ]
}