{
    "id": 4452,
    "name": "moreau-3926",
    "type": "acte",
    "url": "http:\/\/telma-chartes.irht.cnrs.fr\/moreau\/notice\/4452",
    "project_slug": "moreau",
    "project_label": "Inventaire Moreau",
    "user": "b_tock",
    "last_update": "2020-10-19 16:25:14",
    "licence": "Attribution - Pas d\u2019Utilisation Commerciale - Partage dans les M\u00eames Conditions 3.0 France (CC BY-NC-SA 3.0 FR) ",
    "licence_url": "https:\/\/creativecommons.org\/licenses\/by-nc-sa\/3.0\/fr\/",
    "elements": [
        {
            "type": "date",
            "value": "apres 1059 - avant 1060",
            "children": {
                "date_deb_annee": "1059",
                "date_deb_type": "apres",
                "date_fin_annee": "1060",
                "date_fin_type": "avant"
            },
            "range": {
                "date_apres": 10590000,
                "date_avant": 10609999
            }
        },
        {
            "type": "remarques",
            "value": "29e ann\u00e9e Henri"
        },
        {
            "type": "auteur",
            "value": "Drogon de Conflans"
        },
        {
            "type": "beneficiaire",
            "value": "Chartres, abbaye Saint-P\u00e8re"
        },
        {
            "type": "cote",
            "value": "FRANCE, Paris, BNF, Collection Moreau, t. 26, f. 63"
        }
    ]
}