{
    "id": 13547,
    "name": "moreau-13021",
    "type": "acte",
    "url": "http:\/\/telma-chartes.irht.cnrs.fr\/moreau\/notice\/13547",
    "project_slug": "moreau",
    "project_label": "Inventaire Moreau",
    "user": "b_tock",
    "last_update": "2020-10-19 16:25:50",
    "licence": "Attribution - Pas d\u2019Utilisation Commerciale - Partage dans les M\u00eames Conditions 3.0 France (CC BY-NC-SA 3.0 FR) ",
    "licence_url": "https:\/\/creativecommons.org\/licenses\/by-nc-sa\/3.0\/fr\/",
    "elements": [
        {
            "type": "date",
            "value": "1202",
            "children": {
                "date_deb_annee": "1202"
            },
            "range": {
                "date_apres": 12020000,
                "date_avant": 12029999
            }
        },
        {
            "type": "auteur",
            "value": "H., abb\u00e9 de Sainte-Colombe de Sens\u00a0"
        },
        {
            "type": "auteur",
            "value": "J., \u00e9col\u00e2tre d'Orl\u00e9ans"
        },
        {
            "type": "beneficiaire",
            "value": "Paris, cath\u00e9drale Notre-Dame\u00a0"
        },
        {
            "type": "beneficiaire",
            "value": "Paris, abbaye Sainte-Genevi\u00e8ve"
        },
        {
            "type": "cote",
            "value": "FRANCE, Paris, BNF, Collection Moreau, t. 104, f. 69"
        }
    ]
}