{
    "id": 10887,
    "name": "moreau-10361",
    "type": "acte",
    "url": "http:\/\/telma-chartes.irht.cnrs.fr\/moreau\/notice\/10887",
    "project_slug": "moreau",
    "project_label": "Inventaire Moreau",
    "user": "b_tock",
    "last_update": "2020-10-19 16:25:40",
    "licence": "Attribution - Pas d\u2019Utilisation Commerciale - Partage dans les M\u00eames Conditions 3.0 France (CC BY-NC-SA 3.0 FR) ",
    "licence_url": "https:\/\/creativecommons.org\/licenses\/by-nc-sa\/3.0\/fr\/",
    "elements": [
        {
            "type": "date",
            "value": "1177",
            "children": {
                "date_deb_annee": "1177"
            },
            "range": {
                "date_apres": 11770000,
                "date_avant": 11779999
            }
        },
        {
            "type": "auteur",
            "value": "Alard, \u00e9v\u00eaque de Cambrai"
        },
        {
            "type": "beneficiaire",
            "value": "Cambrai, chapitre cath\u00e9dral Notre-Dame de Gr\u00e2ce"
        },
        {
            "type": "cote",
            "value": "FRANCE, Paris, BNF, Collection Moreau, t. 81, f. 112"
        }
    ]
}