{
    "id": 11397,
    "name": "moreau-10871",
    "type": "acte",
    "url": "http:\/\/telma-chartes.irht.cnrs.fr\/moreau\/notice\/11397",
    "project_slug": "moreau",
    "project_label": "Inventaire Moreau",
    "user": "b_tock",
    "last_update": "2020-10-19 16:25:42",
    "licence": "Attribution - Pas d\u2019Utilisation Commerciale - Partage dans les M\u00eames Conditions 3.0 France (CC BY-NC-SA 3.0 FR) ",
    "licence_url": "https:\/\/creativecommons.org\/licenses\/by-nc-sa\/3.0\/fr\/",
    "elements": [
        {
            "type": "date",
            "value": "1182",
            "children": {
                "date_deb_annee": "1182"
            },
            "range": {
                "date_apres": 11820000,
                "date_avant": 11829999
            }
        },
        {
            "type": "auteur",
            "value": "Jarria"
        },
        {
            "type": "auteur",
            "value": "son fils, Robert"
        },
        {
            "type": "beneficiaire",
            "value": "Angers, abbaye Saint-Serge"
        },
        {
            "type": "cote",
            "value": "FRANCE, Paris, BNF, Collection Moreau, t. 85, f. 252"
        }
    ]
}