{
    "id": 11285,
    "name": "moreau-10759",
    "type": "acte",
    "url": "http:\/\/telma-chartes.irht.cnrs.fr\/moreau\/notice\/11285",
    "project_slug": "moreau",
    "project_label": "Inventaire Moreau",
    "user": "b_tock",
    "last_update": "2020-10-19 16:25:41",
    "licence": "Attribution - Pas d\u2019Utilisation Commerciale - Partage dans les M\u00eames Conditions 3.0 France (CC BY-NC-SA 3.0 FR) ",
    "licence_url": "https:\/\/creativecommons.org\/licenses\/by-nc-sa\/3.0\/fr\/",
    "elements": [
        {
            "type": "date",
            "value": "1181\/12\/01",
            "children": {
                "date_deb_annee": "1181",
                "date_deb_mois": "12",
                "date_deb_jour": "01"
            },
            "range": {
                "date_apres": 11811201,
                "date_avant": 11811201
            }
        },
        {
            "type": "auteur",
            "value": "Lucius III, pape"
        },
        {
            "type": "beneficiaire",
            "value": "Saint-Laurent-au-Bois, prieur\u00e9"
        },
        {
            "type": "cote",
            "value": "FRANCE, Paris, BNF, Collection Moreau, t. 85, f. 25"
        }
    ]
}