{
    "id": 12495,
    "name": "moreau-11969",
    "type": "acte",
    "url": "http:\/\/telma-chartes.irht.cnrs.fr\/moreau\/notice\/12495",
    "project_slug": "moreau",
    "project_label": "Inventaire Moreau",
    "user": "b_tock",
    "last_update": "2020-10-19 16:25:46",
    "licence": "Attribution - Pas d\u2019Utilisation Commerciale - Partage dans les M\u00eames Conditions 3.0 France (CC BY-NC-SA 3.0 FR) ",
    "licence_url": "https:\/\/creativecommons.org\/licenses\/by-nc-sa\/3.0\/fr\/",
    "elements": [
        {
            "type": "date",
            "value": "1193",
            "children": {
                "date_deb_annee": "1193"
            },
            "range": {
                "date_apres": 11930000,
                "date_avant": 11939999
            }
        },
        {
            "type": "auteur",
            "value": "Philippe Auguste, roi des Francs"
        },
        {
            "type": "beneficiaire",
            "value": "Compi\u00e8gne, abbaye Saint-Corneille"
        },
        {
            "type": "cote",
            "value": "FRANCE, Paris, BNF, Collection Moreau, t. 95, f. 117"
        }
    ]
}