{
    "id": 6525,
    "name": "moreau-5999",
    "type": "acte",
    "url": "http:\/\/telma-chartes.irht.cnrs.fr\/moreau\/notice\/6525",
    "project_slug": "moreau",
    "project_label": "Inventaire Moreau",
    "user": "b_tock",
    "last_update": "2020-10-19 16:25:22",
    "licence": "Attribution - Pas d\u2019Utilisation Commerciale - Partage dans les M\u00eames Conditions 3.0 France (CC BY-NC-SA 3.0 FR) ",
    "licence_url": "https:\/\/creativecommons.org\/licenses\/by-nc-sa\/3.0\/fr\/",
    "elements": [
        {
            "type": "date",
            "value": "1102\/12\/08",
            "children": {
                "date_deb_annee": "1102",
                "date_deb_mois": "12",
                "date_deb_jour": "08"
            },
            "range": {
                "date_apres": 11021208,
                "date_avant": 11021208
            }
        },
        {
            "type": "remarques",
            "value": "lettre \u00e0 archev\u00eaque Bordeaux, \u00e9v\u00eaque Poitiers et de Saintes, Jaff\u00e9, 5227"
        },
        {
            "type": "auteur",
            "value": "Pascal II, pape"
        },
        {
            "type": "beneficiaire",
            "value": "Montierneuf, abbaye Saint-Jean"
        },
        {
            "type": "cote",
            "value": "FRANCE, Paris, BNF, Collection Moreau, t. 41, f. 198"
        }
    ]
}